0.0473606586456	1.14433634281	0.0254487991333	-0.11487030983	1.70720767975	-0.220900058746
0.0458283424377	1.14339625835	0.0245988368988	-0.114602088928	1.70690047741	-0.220706939697
0.0443551540375	1.14312267303	0.024543762207	-0.114276170731	1.7071646452	-0.220200300217
0.0422096252441	1.14402163029	0.0245687961578	-0.113004684448	1.70835828781	-0.220338702202
0.0379061698914	1.14617753029	0.0251586437225	-0.112264633179	1.7117806673	-0.221605062485
0.0345184803009	1.14733672142	0.0252568721771	-0.111759185791	1.71898007393	-0.225205898285
0.0325121879578	1.14687097073	0.0257239341736	-0.108358383179	1.72601604462	-0.2299939394
0.029825925827	1.14836227894	0.0275821685791	-0.102529525757	1.73164391518	-0.234558463097
0.0262489318848	1.15156173706	0.0293004512787	-0.0955533981323	1.73579156399	-0.238852262497
0.0197770595551	1.15208935738	0.0317153930664	-0.0903723239899	1.73863112926	-0.242298722267
0.012993812561	1.1550116539	0.0322953462601	-0.0869464874268	1.73987257481	-0.245143651962
0.00929236412048	1.16041958332	0.031644821167	-0.0848488807678	1.74082398415	-0.247211575508
0.0105738639832	1.1678545475	0.0314042568207	-0.0830163955688	1.74132609367	-0.2483253479
0.0126039981842	1.17988240719	0.0289483070374	-0.0806396007538	1.74181485176	-0.248794317245
0.0157496929169	1.19487380981	0.0237476825714	-0.0779755115509	1.74205744267	-0.248521327972
0.0189974308014	1.20605802536	0.0199921131134	-0.0756230354309	1.74172592163	-0.248045444489
0.0246605873108	1.20638370514	0.0202600955963	-0.0733637809753	1.74160206318	-0.248118638992
0.0297973155975	1.20672869682	0.0179958343506	-0.0719509124756	1.74195337296	-0.248600721359
0.030481338501	1.20636928082	0.0169112682343	-0.0721704959869	1.74249172211	-0.248751401901
0.0316054821014	1.20597362518	0.0162875652313	-0.072913646698	1.74243092537	-0.248389005661
0.0308911800385	1.20743954182	0.0150507688522	-0.0729291439056	1.7421875	-0.24772131443
0.0284404754639	1.20795190334	0.0137915611267	-0.0729761123657	1.7418102026	-0.24725317955
0.0277326107025	1.20715117455	0.0140436887741	-0.0743193626404	1.7411557436	-0.245515227318
0.0296041965485	1.20721900463	0.0148006677628	-0.0743217468262	1.74066591263	-0.243938803673
0.0301737785339	1.20973455906	0.0154592990875	-0.0740633010864	1.74230647087	-0.243456959724
0.0318019390106	1.20999896526	0.0162171125412	-0.0755136013031	1.74453020096	-0.2443318367
0.0338978767395	1.21059930325	0.016160607338	-0.0763528347015	1.74524605274	-0.245418787003
0.0356540679932	1.21240997314	0.0159101486206	-0.0758273601532	1.7459717989	-0.247859477997
0.036425113678	1.21803462505	0.0139291286469	-0.0747604370117	1.74705159664	-0.252118349075
0.0369877815247	1.22726428509	0.00983119010925	-0.0744137763977	1.74792921543	-0.255853891373
0.0424537658691	1.23313188553	0.00622427463531	-0.0743489265442	1.74814474583	-0.258251428604
0.0509765148163	1.23646342754	0.00294041633606	-0.0740628242493	1.74819266796	-0.259435653687
0.052668094635	1.23622846603	0.00238215923309	-0.0735473632812	1.74797594547	-0.259438991547
0.0535173416138	1.22570371628	0.00605869293213	-0.0727944374084	1.74717509747	-0.258053064346
0.0517120361328	1.21700561047	0.00769948959351	-0.0720195770264	1.74639165401	-0.256064653397
0.0481824874878	1.21294558048	0.00895810127258	-0.0720491409302	1.74536979198	-0.253585338593
0.045875787735	1.21241521835	0.0104446411133	-0.0729894638062	1.74496889114	-0.251810073853
0.0455393791199	1.21416604519	0.0110477209091	-0.0743973255157	1.74475836754	-0.250715374947
0.0447332859039	1.21484160423	0.0119616985321	-0.0756273269653	1.74464273453	-0.249890327454
0.043194770813	1.21654939651	0.0119149684906	-0.0763771533966	1.74469196796	-0.249200820923
0.0418763160706	1.21805691719	0.012073636055	-0.0766990184784	1.74472630024	-0.248027086258
0.0406076908112	1.22015202045	0.0116953849792	-0.0767319202423	1.74457621574	-0.246716022491
0.039975643158	1.22135841846	0.0109677314758	-0.0766189098358	1.74439191818	-0.245043754578
0.0395331382751	1.22170174122	0.0111339092255	-0.0765330791473	1.74403345585	-0.24339568615
0.0396239757538	1.22194194794	0.011305809021	-0.0763320922852	1.74393749237	-0.24240899086
0.0398428440094	1.22238719463	0.0109419822693	-0.0761280059814	1.74414658546	-0.242292404175
0.040846824646	1.22327005863	0.0104370117188	-0.0761268138885	1.74489533901	-0.243182063103
0.0415561199188	1.22408640385	0.0106068849564	-0.0760498046875	1.74743032455	-0.245559692383
0.0423669815063	1.22256040573	0.0111303329468	-0.0757129192352	1.74983513355	-0.248812794685
0.0419521331787	1.22318589687	0.0112411975861	-0.0742342472076	1.75053179264	-0.251716732979
0.0411763191223	1.22522771358	0.0112776756287	-0.0723075866699	1.75119900703	-0.254482626915
0.0408411026001	1.22508597374	0.011737704277	-0.0722031593323	1.75149643421	-0.256371617317
0.0407469272614	1.22414648533	0.0113849639893	-0.0724334716797	1.75073981285	-0.257286787033
0.0409684181213	1.22386586666	0.0107790231705	-0.07293176651	1.7499679327	-0.257020235062
0.0404043197632	1.22336184978	0.00933003425598	-0.0736241340637	1.74922215939	-0.256677627563
0.0402293205261	1.22277212143	0.00748419761658	-0.0747542381287	1.74899590015	-0.257128596306
0.0392527580261	1.22316336632	0.00597214698792	-0.0766167640686	1.74771726131	-0.257054805756
0.0388145446777	1.22336983681	0.00446057319641	-0.0807435512543	1.74484276772	-0.255931138992
0.0388441085815	1.22454035282	0.00372338294983	-0.0848999023438	1.74258983135	-0.254912018776
0.041196346283	1.22603130341	0.00347447395325	-0.0895135402679	1.74037432671	-0.253138661385
0.0428912639618	1.2285926342	0.000896215438843	-0.0917911529541	1.73972761631	-0.251942157745
0.0446527004242	1.23024749756	-0.000783443450928	-0.09210729599	1.74036347866	-0.25186920166
0.0477917194366	1.23337900639	-0.00443828105927	-0.0921421051025	1.74060738087	-0.251902580261
0.0501039028168	1.23666346073	-0.00718832015991	-0.0911054611206	1.74066460133	-0.252230405807
0.0522997379303	1.23776113987	-0.0077520608902	-0.0897078514099	1.74106609821	-0.252997756004
0.0525937080383	1.23884987831	-0.00899469852448	-0.0889036655426	1.74134457111	-0.253602147102
0.0514543056488	1.23809432983	-0.00872778892517	-0.0879621505737	1.74236524105	-0.254536271095
