0.0660147666931	1.06791830063	0.0483438968658	-0.0992841720581	1.67929077148	-0.210838317871
0.0660095214844	1.06796419621	0.047930598259	-0.0996479988098	1.67917323112	-0.21031498909
0.0656569004059	1.06856763363	0.0479340553284	-0.10026717186	1.67913973331	-0.210125684738
0.0640671253204	1.07040417194	0.0479145050049	-0.101536273956	1.67829024792	-0.209919929504
0.05561876297	1.07527339458	0.0482910871506	-0.105251789093	1.67519247532	-0.209390163422
0.0446074008942	1.07818102837	0.0484848022461	-0.112286329269	1.66830134392	-0.209270477295
0.0314345359802	1.0768276453	0.0479246377945	-0.118255376816	1.66271018982	-0.209766387939
0.0140335559845	1.06960916519	0.0435919761658	-0.121714353561	1.66064715385	-0.209755897522
0.000198841094971	1.05910134315	0.0371837615967	-0.123088598251	1.66048181057	-0.209321498871
-0.00676512718201	1.05021238327	0.0323641300201	-0.123841285706	1.66044938564	-0.208720445633
-0.00727391242981	1.04639673233	0.0309987068176	-0.124223709106	1.66015064716	-0.207443594933
-0.00827121734619	1.03948974609	0.0291950702667	-0.124777078629	1.65782129765	-0.20607984066
-0.0109050273895	1.02776813507	0.0245046615601	-0.125860452652	1.6529532671	-0.204872369766
-0.0119354724884	1.02140402794	0.022140622139	-0.12702703476	1.64891386032	-0.20307970047
-0.0115087032318	1.02018213272	0.0224103927612	-0.126359224319	1.64796805382	-0.200612783432
-0.0139346122742	1.01590633392	0.0192455053329	-0.124245166779	1.64844834805	-0.198764324188
-0.0188987255096	1.00397157669	0.0102405548096	-0.121965408325	1.64937770367	-0.197576880455
-0.0188024044037	0.995215654373	0.00519514083862	-0.120016336441	1.65139400959	-0.19699215889
-0.0171012878418	0.98673582077	-1.96695327759e-05	-0.119161844254	1.6533074379	-0.196781396866
-0.013302564621	0.975991725922	-0.00522637367249	-0.118956565857	1.65489852428	-0.196605682373
-0.0105998516083	0.97155714035	-0.00538885593414	-0.118613481522	1.65619778633	-0.195713043213
-0.0055558681488	0.964637517929	-0.00694608688354	-0.118017673492	1.65750682354	-0.194626569748
-0.000196695327759	0.955439805984	-0.0106394290924	-0.117103815079	1.65822303295	-0.193414211273
0.00333905220032	0.949209213257	-0.0149004459381	-0.116610527039	1.65906083584	-0.192312479019
0.00261092185974	0.948595285416	-0.015734910965	-0.116500854492	1.66001105309	-0.190933227539
0.00114941596985	0.948567867279	-0.0153783559799	-0.116244077682	1.66043841839	-0.189490675926
-0.000924587249756	0.949280738831	-0.0142738819122	-0.116501808167	1.65998768806	-0.187587738037
-0.00314998626709	0.950195550919	-0.0131363868713	-0.117039442062	1.65981984138	-0.185573577881
-0.00386047363281	0.950795173645	-0.0110591650009	-0.117595911026	1.66065812111	-0.183660984039
-0.00581192970276	0.952763795853	-0.00911712646484	-0.118366718292	1.66091990471	-0.182085633278
-0.00625801086426	0.954899311066	-0.00566005706787	-0.119640350342	1.66156411171	-0.18094420433
-0.00643348693848	0.957098960876	-0.0019998550415	-0.1207010746	1.66237139702	-0.180322051048
-0.00723361968994	0.959003210068	-0.00041651725769	-0.120510816574	1.66391992569	-0.180297613144
-0.00893759727478	0.95983672142	0.000311136245728	-0.11897110939	1.66608989239	-0.18059694767
-0.0121076107025	0.960065364838	-0.000524401664734	-0.116134881973	1.66835820675	-0.180924415588
-0.0151889324188	0.960091590881	-2.26497650146e-06	-0.112253189087	1.67027497292	-0.180351257324
-0.017924785614	0.960709571838	0.000815868377686	-0.10741686821	1.67188024521	-0.179203510284
-0.0195670127869	0.962053537369	0.00273013114929	-0.101749420166	1.67257106304	-0.177337884903
-0.0200178623199	0.963836669922	0.00479233264923	-0.0959117412567	1.67191028595	-0.175340890884
-0.0195391178131	0.967537879944	0.0104116201401	-0.0915117263794	1.67047595978	-0.173437714577
-0.0190443992615	0.9723072052	0.0158777236938	-0.0881726741791	1.67024600506	-0.171699285507
-0.0187804698944	0.974743366241	0.0198308229446	-0.0848712921143	1.67039871216	-0.169892668724
-0.0200598239899	0.976327896118	0.0215406417847	-0.0818066596985	1.66927528381	-0.168244719505
-0.0224485397339	0.978303670883	0.0214850902557	-0.0777981281281	1.66766381264	-0.166272878647
-0.0239000320435	0.978776216507	0.0209362506866	-0.0735948085785	1.66561830044	-0.164562702179
-0.0242252349854	0.978640794754	0.0202679634094	-0.0689544677734	1.66316437721	-0.163081288338
-0.0248155593872	0.978240013123	0.019143819809	-0.0627043247223	1.66026520729	-0.161638498306
-0.0257139205933	0.979092121124	0.0185062885284	-0.0563807487488	1.65541660786	-0.160337209702
-0.0256819725037	0.981935739517	0.019113779068	-0.051766872406	1.65131497383	-0.159307837486
-0.0252997875214	0.984948158264	0.0192936658859	-0.0505745410919	1.64842236042	-0.158568620682
-0.02370262146	0.984504461288	0.0171488523483	-0.0502126216888	1.64413547516	-0.158490896225
-0.0219900608063	0.980224370956	0.0139731168747	-0.0500891208649	1.64102256298	-0.158881425858
-0.0215713977814	0.97957444191	0.0117480754852	-0.0509526729584	1.6404094696	-0.159613132477
-0.0230753421783	0.979155778885	0.00799131393433	-0.0538902282715	1.64047658443	-0.161203622818
-0.0251531600952	0.977197885513	0.00349044799805	-0.0556826591492	1.6390837431	-0.163343429565
-0.0280318260193	0.975669384003	-0.00261986255646	-0.057769536972	1.63767397404	-0.165113925934
-0.0300514698029	0.975654602051	-0.0055650472641	-0.0594830513	1.63701963425	-0.166426181793
