0.0866122245789	1.32261359692	0.189962863922	0.0019326210022	1.87318074703	-0.161069273949
0.0866253376007	1.32240879536	0.189061403275	0.00184798240662	1.87290155888	-0.160796046257
0.0856230258942	1.32244634628	0.188979625702	0.00163674354553	1.87330520153	-0.160755872726
0.0836129188538	1.32275259495	0.188729524612	0.00186467170715	1.87398219109	-0.1608273983
0.0805428028107	1.32292342186	0.187937378883	0.00128412246704	1.87277364731	-0.160747528076
0.0772149562836	1.32428359985	0.186336636543	0.00187706947327	1.86929869652	-0.159009456635
0.0761690139771	1.32532906532	0.183861255646	0.00449347496033	1.86632800102	-0.156509399414
0.0750074386597	1.32512712479	0.180401206017	0.00938892364502	1.86336028576	-0.153785467148
0.0739092826843	1.32371115685	0.177558064461	0.0132346153259	1.8594584465	-0.150834321976
0.071400642395	1.32165598869	0.173648118973	0.014876127243	1.85576999187	-0.147700190544
0.069393157959	1.31906270981	0.170769453049	0.0145230293274	1.8515586853	-0.144743919373
0.0652470588684	1.31821358204	0.166484951973	0.013486623764	1.84639537334	-0.142609477043
0.0617384910583	1.31760942936	0.162833929062	0.0128448009491	1.84322118759	-0.141751408577
0.0597739219666	1.31742751598	0.161015033722	0.0127863883972	1.84286224842	-0.141624450684
0.0584952831268	1.3188252449	0.159183621407	0.0124235153198	1.84349346161	-0.142270565033
0.0571982860565	1.31948149204	0.158315658569	0.011167049408	1.84379482269	-0.143599271774
0.0569515228271	1.31857526302	0.158850908279	0.00940179824829	1.84364748001	-0.145387887955
0.054639339447	1.3183195591	0.157365560532	0.00702524185181	1.84356439114	-0.146510839462
0.0515193939209	1.31625914574	0.154935240746	0.004718542099	1.8424230814	-0.14745926857
0.0483691692352	1.31401157379	0.152146339417	0.00196504592896	1.841127038	-0.147806167603
0.0453486442566	1.31223320961	0.150593042374	-0.000235557556152	1.83962488174	-0.147424221039
0.04332447052	1.31102478504	0.149203062057	-0.00169134140015	1.83734893799	-0.146892786026
