0.0	-0.0	132.714538574	-105.177314758	81.0079956055	-169.479751587
0.0	-0.0	132.576278687	-106.959403992	82.4244384766	-169.762527466
0.0	-0.0	131.911499023	-106.672042847	82.3926315308	-169.591323853
0.0	-0.0	130.216339111	-107.047096252	82.3364486694	-169.166534424
0.0	-0.0	126.166229248	-110.252326965	82.037612915	-167.111175537
0.0	-0.0	119.795783997	-114.556121826	81.5350265503	-166.553909302
0.0	-0.0	119.558128357	-116.059875488	81.2044143677	-166.362747192
0.0	-0.0	134.165313721	-118.299201965	81.5118331909	-166.644073486
0.0	-0.0	144.190490723	-124.021202087	80.0649261475	-165.266433716
0.0	-0.0	146.119491577	-139.579467773	76.2489013672	-165.199783325
0.0	-0.0	148.938537598	-157.174362183	70.2522125244	-170.944168091
0.0	-0.0	149.885726929	-167.157592773	65.0723266602	-168.238388062
0.0	-0.0	150.839492798	-172.390029907	57.552028656	-170.382720947
0.0	-0.0	151.974075317	-175.435150146	46.4278488159	-175.701187134
0.0	-0.0	152.241638184	-178.742507935	36.1669006348	174.366348267
0.0	-0.0	152.686004639	176.742507935	28.8666114807	171.550186157
0.0	-0.0	151.970504761	174.980575562	24.7817649841	167.474517822
0.0	-0.0	150.247665405	175.047058105	22.7360553741	167.883377075
0.0	-0.0	146.534683228	174.154388428	21.5959720612	165.96875
0.0	-0.0	140.63911438	174.619064331	21.2765140533	166.938751221
0.0	-0.0	131.424194336	175.196975708	21.3665618896	167.10609436
0.0	-0.0	124.147926331	176.498504639	21.411491394	167.767227173
0.0	-0.0	115.942886353	176.893112183	21.4802150726	168.408401489
0.0	-0.0	108.542755127	177.98034668	22.2882823944	169.009689331
0.0	-0.0	100.995643616	179.232086182	23.4123668671	169.1822052
0.0	-0.0	89.1164245605	-179.364608765	24.5286521912	169.949234009
