0.157301902771	1.06158137321	0.0843523740768	-0.160513162613	1.69255256653	-0.206909179688
0.155974388123	1.06372773647	0.0844806432724	-0.160934209824	1.69288551807	-0.207648038864
0.15679359436	1.06397497654	0.0836243629456	-0.160871982574	1.69283401966	-0.208695173264
0.156269311905	1.06340718269	0.0824806690216	-0.160742998123	1.69235372543	-0.209408760071
0.151348352432	1.06268167496	0.080760717392	-0.162546157837	1.68831717968	-0.209834098816
0.144651889801	1.0625756979	0.0794947147369	-0.166712999344	1.67886543274	-0.209634065628
0.140073537827	1.06262814999	0.0788577795029	-0.169745922089	1.6698397398	-0.208453655243
0.134398698807	1.06223094463	0.0779547691345	-0.172133922577	1.6614934206	-0.206930160522
0.122054815292	1.05843925476	0.0743206739426	-0.176237821579	1.65540611744	-0.205267906189
0.0957283973694	1.05157852173	0.0654753446579	-0.179196119308	1.65043032169	-0.204036474228
0.0698363780975	1.04301953316	0.0542550086975	-0.181783437729	1.64654076099	-0.20289516449
0.0534410476685	1.03437900543	0.0463063716888	-0.184047460556	1.643912673	-0.202028751373
0.0435397624969	1.0232565403	0.0399261713028	-0.18612074852	1.64022612572	-0.201139211655
0.0374398231506	1.00818991661	0.0326960086823	-0.188690185547	1.63672864437	-0.200604557991
0.0330584049225	0.99209356308	0.0248291492462	-0.191013336182	1.63448095322	-0.200089097023
0.0295338630676	0.97906255722	0.0158233642578	-0.192799091339	1.6333758831	-0.199445724487
0.0276141166687	0.970535755157	0.0100100040436	-0.194066286087	1.63229131699	-0.199141979218
0.0259864330292	0.965765714645	0.00698781013489	-0.194989442825	1.63148105145	-0.199147343636
0.0236337184906	0.962866306305	0.00489914417267	-0.195711612701	1.63116848469	-0.199414253235
0.0227220058441	0.961268901825	0.00341010093689	-0.19587469101	1.62986528873	-0.199775218964
0.0221621990204	0.960482358932	0.00219058990479	-0.195850849152	1.62872219086	-0.200494527817
0.0215697288513	0.959978342056	0.00175404548645	-0.19641327858	1.62801706791	-0.202328443527
0.0209324359894	0.959211587906	0.000128507614136	-0.195009231567	1.62846410275	-0.204661846161
0.0207414627075	0.9611287117	0.000800371170044	-0.191479206085	1.63010048866	-0.205832004547
0.0207710266113	0.96297121048	0.00132846832275	-0.186787605286	1.63213682175	-0.207145690918
0.0211715698242	0.964506387711	0.00178956985474	-0.182481765747	1.63332164288	-0.208798646927
