-0.0636265277863	1.15063130856	0.0964040756226	-0.124113798141	1.72366023064	-0.246084213257
-0.0636014938354	1.15033650398	0.0944218635559	-0.124495267868	1.72330951691	-0.247115850449
-0.0642683506012	1.14991784096	0.0931768417358	-0.123967885971	1.72298467159	-0.247617006302
-0.064759016037	1.15034818649	0.0926970243454	-0.122798919678	1.72295689583	-0.247683525085
-0.0673224925995	1.14775288105	0.0901077985764	-0.121688604355	1.72264277935	-0.247568130493
-0.0739107131958	1.13742780685	0.0842041969299	-0.120692014694	1.72178757191	-0.247584462166
-0.0785491466522	1.12609767914	0.0774755477905	-0.120069980621	1.72137069702	-0.247665166855
-0.0833549499512	1.12564718723	0.0710899829865	-0.119729280472	1.72115528584	-0.247018814087
-0.0893108844757	1.12919092178	0.0688018798828	-0.118816375732	1.71949291229	-0.245643854141
-0.0954713821411	1.13229691982	0.0667154788971	-0.116833925247	1.71328186989	-0.242874622345
-0.0976610183716	1.13743150234	0.0658901929855	-0.113552808762	1.70465099812	-0.238634586334
-0.0972754955292	1.14001560211	0.0649206638336	-0.108998060226	1.69884431362	-0.235049009323
-0.09703373909	1.13842320442	0.0634199380875	-0.104542732239	1.68993282318	-0.232689857483
