-48.3243026733	-10.1233253479	139.64225769	2.01498842239	-1.08883142471	-4.38507938385
-48.1014671326	-10.3056573868	139.48664856	3.34305715561	-1.0375187397	-4.98473310471
-48.1677284241	-10.4825468063	139.069961548	4.30103063583	-0.820234358311	-5.52670383453
-48.1559677124	-10.6703195572	138.200424194	4.34820175171	-0.844498574734	-5.49747514725
-48.0043373108	-11.0502920151	134.102035522	3.91314721107	-1.27078843117	-4.99641990662
-46.195930481	-11.2644262314	119.734138489	3.32960486412	-1.70141756535	-4.48242807388
-46.0998382568	-11.0652885437	114.861572266	2.74027824402	-1.75967049599	-4.17945432663
-46.1726608276	-10.7889490128	109.821784973	2.6885342598	-1.50229144096	-4.07259082794
-46.7913398743	-10.4480619431	106.636474609	2.30239534378	-1.25515770912	-4.04906082153
-48.2299118042	-9.95747566223	105.865081787	1.12182736397	-1.32517242432	-3.75751876831
-50.068977356	-9.39019870758	103.760467529	-0.911985218525	-1.49211966991	-3.10872912407
