-0.0600688457489	1.16362655163	0.0843204259872	-0.103390932083	1.72115683556	-0.26688337326
-0.0596566200256	1.16527318954	0.0849647521973	-0.103574037552	1.72128641605	-0.267246961594
-0.0605766773224	1.16658782959	0.084098815918	-0.104202508926	1.72192275524	-0.26709318161
-0.0699627399445	1.16773843765	0.0768201351166	-0.109449625015	1.72271466255	-0.266287326813
-0.0837168693542	1.16450762749	0.0667632818222	-0.118175029755	1.72408473492	-0.265080451965
-0.0935342311859	1.16079711914	0.0609118938446	-0.127736091614	1.72463822365	-0.264404058456
-0.102366447449	1.16037333012	0.0559432506561	-0.137326478958	1.72479486465	-0.264342784882
-0.108779668808	1.16137290001	0.0523788928986	-0.146017789841	1.72493505478	-0.264312267303
-0.113672494888	1.16128575802	0.0502414703369	-0.1534075737	1.72473180294	-0.264668107033
-0.117705345154	1.15950655937	0.0479185581207	-0.159022808075	1.72462558746	-0.265104055405
-0.120430469513	1.15631687641	0.0473662614822	-0.162496566772	1.72445845604	-0.265015721321
-0.123307466507	1.15428578854	0.0466970205307	-0.165002346039	1.7243591547	-0.264741659164
-0.127709627151	1.15237092972	0.040914773941	-0.167301177979	1.72431051731	-0.26415681839
-0.131789922714	1.15119194984	0.0357842445374	-0.169612884521	1.72397196293	-0.263329744339
