0.0	-0.0	132.970062256	-136.8515625	83.9865264893	159.879745483
0.0	-0.0	132.728668213	-136.795898438	84.2592086792	159.84664917
0.0	-0.0	132.751495361	-136.56350708	84.0879974365	159.909347534
0.0	-0.0	132.777511597	-136.506454468	83.8603820801	159.92741394
0.0	-0.0	133.347366333	-138.597946167	81.7497406006	161.351150513
0.0	-0.0	133.460250854	-144.029083252	75.1573791504	164.625198364
0.0	-0.0	125.148162842	-150.331787109	64.1234970093	168.169403076
0.0	-0.0	118.947967529	-154.944442749	53.6492156982	170.662826538
0.0	-0.0	115.852165222	-158.154891968	46.8039360046	173.036682129
0.0	-0.0	110.028396606	-159.380493164	44.8533248901	175.316055298
0.0	-0.0	103.496894836	-160.292266846	41.3171234131	177.890655518
0.0	-0.0	100.596298218	-161.400848389	34.9359207153	-179.875106812
0.0	-0.0	99.8616790771	-162.968460083	30.2824859619	-178.740356445
0.0	-0.0	95.8232269287	-163.656509399	28.6301269531	-178.265670776
0.0	-0.0	89.724899292	-162.738922119	28.7890796661	-178.352096558
0.0	-0.0	80.2909088135	-161.82119751	29.8938350677	-178.707946777
0.0	-0.0	74.2995071411	-161.394241333	30.6893558502	-178.768447876
0.0	-0.0	71.384552002	-161.89642334	31.1879730225	-178.534606934
0.0	-0.0	67.6260604858	-163.370193481	31.4847602844	-178.185836792
0.0	-0.0	67.0009994507	-164.86946106	31.4971656799	-178.271911621
0.0	-0.0	64.2265167236	-165.201019287	31.2620201111	-177.869110107
0.0	-0.0	57.1682739258	-165.898605347	30.2866096497	-177.267318726
0.0	-0.0	60.0276298523	-166.999389648	29.3256282806	-176.674560547
0.0	-0.0	64.7609786987	-167.82901001	28.3485717773	-176.193084717
0.0	-0.0	64.4783630371	-167.974014282	27.9504947662	-175.918518066
