-0.102966785431	1.177708745	0.108382225037	-0.126720428467	1.71970677376	-0.209627151489
-0.102870941162	1.17807459831	0.108171105385	-0.127707004547	1.71978342533	-0.210785031319
-0.103944301605	1.17873299122	0.108371376991	-0.129078865051	1.72012066841	-0.211436271667
-0.106029748917	1.1788444519	0.108242750168	-0.130535364151	1.72037732601	-0.211432814598
-0.111506938934	1.17812561989	0.105534672737	-0.132631540298	1.71935939789	-0.210230350494
-0.117665052414	1.17491567135	0.101842284203	-0.136490345001	1.71542727947	-0.208168625832
-0.121829748154	1.17204904556	0.0988857746124	-0.142157077789	1.70853662491	-0.205145120621
-0.125383138657	1.170809865	0.0966997146606	-0.148045539856	1.70156300068	-0.201700091362
-0.129422903061	1.16918957233	0.0941863059998	-0.152774810791	1.69594299793	-0.197893738747
-0.133363246918	1.16751933098	0.090270280838	-0.155564785004	1.69105017185	-0.194204092026
-0.13685965538	1.16321837902	0.0861893892288	-0.156896591187	1.68606173992	-0.190348744392
-0.140572786331	1.15663397312	0.0799263715744	-0.157824039459	1.68133556843	-0.187059402466
-0.143955469131	1.15038132668	0.0739192962646	-0.15852689743	1.67760741711	-0.183703422546
-0.147456407547	1.14641749859	0.0682965517044	-0.159487009048	1.67364633083	-0.181397080421
-0.148227453232	1.14474248886	0.065854549408	-0.160160541534	1.66982376575	-0.179747819901
-0.147034406662	1.14340341091	0.0667452812195	-0.159797668457	1.66806876659	-0.178466796875
-0.145741462708	1.14312136173	0.0673019886017	-0.159530639648	1.6682946682	-0.178100585938
-0.144795179367	1.14368331432	0.0680849552155	-0.159477472305	1.66820955276	-0.178147792816
-0.14518237114	1.14344358444	0.0660452842712	-0.159582614899	1.66746771336	-0.178933024406
-0.145788669586	1.14222705364	0.0641040802002	-0.16049695015	1.66694784164	-0.180829524994
-0.14502286911	1.14262902737	0.0653202533722	-0.160935163498	1.66678667068	-0.183767318726
-0.144352436066	1.14560544491	0.0661361217499	-0.159108161926	1.66628968716	-0.186749815941
-0.143689632416	1.14908516407	0.0648498535156	-0.156504154205	1.66515219212	-0.189546585083
-0.142987728119	1.14971852303	0.0617442131042	-0.154917240143	1.66464602947	-0.19301366806
-0.142668962479	1.14791607857	0.0584596395493	-0.15273308754	1.66560745239	-0.196241140366
-0.143121957779	1.14529144764	0.0542405843735	-0.149661064148	1.66640543938	-0.198874235153
-0.143262863159	1.14333212376	0.0500931739807	-0.147198915482	1.66530501842	-0.200854539871
-0.143318891525	1.14308750629	0.0442349910736	-0.145848035812	1.66327619553	-0.202152371407
-0.141404151917	1.14265346527	0.0399432182312	-0.146619796753	1.6613342762	-0.203663825989
-0.139112949371	1.14159715176	0.0396947860718	-0.148411989212	1.66041660309	-0.205525875092
-0.13910984993	1.14130246639	0.0398545265198	-0.14807844162	1.65947961807	-0.207210063934
-0.140580415726	1.14281129837	0.0396860837936	-0.144837379456	1.65854501724	-0.207545995712
-0.140013933182	1.14450371265	0.0391910076141	-0.139787912369	1.65812981129	-0.206988453865
-0.13533115387	1.14587748051	0.0381679534912	-0.132427453995	1.65715563297	-0.206238985062
-0.127523183823	1.14661312103	0.0364103317261	-0.124321460724	1.6569519043	-0.206335783005
-0.117703914642	1.14653372765	0.034939289093	-0.116699695587	1.65708184242	-0.207364559174
-0.108950138092	1.1454269886	0.0338422060013	-0.110816478729	1.65671360493	-0.208970546722
-0.103291034698	1.14443051815	0.0313603878021	-0.107241392136	1.65471231937	-0.211217164993
-0.100079774857	1.14342534542	0.0286092758179	-0.104440450668	1.65287923813	-0.213896512985
-0.0985703468323	1.14255940914	0.0251307487488	-0.100508213043	1.6509346962	-0.21671462059
-0.0959868431091	1.14362430573	0.0220468044281	-0.0940837860107	1.64778506756	-0.21973490715
-0.0916438102722	1.14450013638	0.0190801620483	-0.0870614051819	1.64630568027	-0.222260713577
-0.0863163471222	1.14384841919	0.0162088871002	-0.0815761089325	1.64590084553	-0.224496364594
-0.082287311554	1.14365267754	0.0134023427963	-0.0795345306396	1.64634799957	-0.226771831512
-0.0795843601227	1.14397311211	0.0115895271301	-0.0797684192657	1.64725852013	-0.229589223862
-0.0791597366333	1.14483463764	0.0104043483734	-0.0815501213074	1.64999198914	-0.233148932457
-0.0810036659241	1.1457079649	0.00965237617493	-0.0850281715393	1.65320718288	-0.23829293251
-0.0853712558746	1.14784610271	0.00864362716675	-0.0870537757874	1.65424871445	-0.244060993195
-0.0925900936127	1.14985644817	0.00582146644592	-0.0897397994995	1.65435647964	-0.249378323555
-0.0999002456665	1.15250635147	0.0042097568512	-0.0936913490295	1.65498375893	-0.254320979118
-0.106657505035	1.1539413929	0.00173592567444	-0.0978870391846	1.65513169765	-0.258873701096
-0.110540390015	1.15340816975	-0.000941276550293	-0.0988171100616	1.65529942513	-0.261814117432
-0.109875440598	1.15311980247	-0.00359618663788	-0.0970838069916	1.65481686592	-0.264222383499
-0.103843927383	1.15367257595	-0.00535154342651	-0.0928480625153	1.6537386179	-0.266723632812
