-0.146879911423	1.14885675907	0.0954852104187	-0.127260446548	1.7211523056	-0.242852449417
-0.14725279808	1.14976620674	0.0942323207855	-0.126858472824	1.72124993801	-0.244298219681
-0.147837638855	1.15057444572	0.0928566455841	-0.126235485077	1.72285652161	-0.246108055115
-0.148333072662	1.1496181488	0.0920751094818	-0.125740289688	1.72285604477	-0.248654127121
-0.148585319519	1.14879250526	0.0908269882202	-0.125385046005	1.71955728531	-0.24933385849
-0.148064374924	1.14952492714	0.089024066925	-0.125143527985	1.71227264404	-0.247567772865
-0.14629483223	1.15154659748	0.0877091884613	-0.124294757843	1.70379662514	-0.244661331177
-0.144852638245	1.153013587	0.0857956409454	-0.121901273727	1.69504237175	-0.241775512695
-0.143127918243	1.15432810783	0.0838432312012	-0.118956804276	1.68528234959	-0.239599108696
-0.142240762711	1.15561759472	0.0817854404449	-0.11626958847	1.67724764347	-0.237397432327
-0.143065690994	1.15288424492	0.0790059566498	-0.113661766052	1.67316687107	-0.235274553299
-0.144879817963	1.14826452732	0.0761934518814	-0.112674713135	1.67229247093	-0.233682155609
-0.146759271622	1.14305007458	0.0743676424026	-0.112736225128	1.671661973	-0.232407093048
-0.147779464722	1.13879752159	0.0725238323212	-0.112601280212	1.67146861553	-0.230905056
-0.147576332092	1.1355317831	0.0721249580383	-0.112394571304	1.67149710655	-0.229473352432
-0.148045539856	1.13500344753	0.0733391046524	-0.111707448959	1.67104697227	-0.228199958801
-0.149973630905	1.13221991062	0.0738382339478	-0.111142396927	1.66969168186	-0.227014541626
-0.152595281601	1.12760591507	0.0725507736206	-0.110654830933	1.66661179066	-0.226052522659
-0.153351306915	1.12415587902	0.0708881616592	-0.110420703888	1.66347193718	-0.224950313568
-0.152184724808	1.12278628349	0.071781873703	-0.110271930695	1.66337609291	-0.223123073578
-0.152359962463	1.12299025059	0.0738087892532	-0.109679222107	1.66329324245	-0.221583366394
-0.153162717819	1.12458777428	0.0755413770676	-0.108958959579	1.66295933723	-0.21980702877
-0.153721809387	1.12507355213	0.0759387016296	-0.108707666397	1.66267824173	-0.218109250069
-0.154590368271	1.12413156033	0.0759634971619	-0.10889005661	1.66267287731	-0.216601610184
-0.155005693436	1.12279582024	0.0765600204468	-0.108901977539	1.66232323647	-0.215676784515
-0.154926538467	1.12163329124	0.0786960124969	-0.108862400055	1.65907454491	-0.216034889221
-0.154574871063	1.12139165401	0.0795621871948	-0.1070291996	1.65481770039	-0.216411590576
-0.154231548309	1.12000596523	0.0797419548035	-0.103741884232	1.65694856644	-0.21687078476
