14.9844532013	-6.07724046707	5.62659168243	6.87797403336	5.68117618561	34.9489097595
15.1949958801	-6.13754701614	5.68246889114	6.89101409912	5.8415813446	34.8356590271
15.2430276871	-6.26430797577	5.78997898102	7.11597204208	5.80305147171	34.8490333557
14.581076622	-7.05712985992	6.70695638657	6.98225402832	6.22712850571	34.6993598938
10.2185764313	-9.36909389496	10.7159423828	5.84845399857	7.71764945984	34.7404975891
4.98044538498	-10.5008916855	14.3011407852	2.9557299614	11.1405153275	34.7041664124
-1.37324261665	-9.92409324646	18.0956668854	0.788776040077	13.5087738037	35.8601150513
-10.0744552612	-7.5402469635	23.1300983429	-0.184725269675	14.1481723785	36.6861114502
-17.2526912689	-4.09318256378	28.6754646301	-0.0595479905605	14.0552892685	37.0506896973
-20.2510185242	-1.10097491741	29.4325695038	0.0979373902082	13.9687738419	36.9927101135
-20.3432655334	-0.051444850862	29.8402366638	0.249623581767	14.0453920364	36.9237098694
-21.795583725	2.51898288727	30.2781066895	0.0239031426609	15.2174472809	36.6317634583
-24.8092632294	6.73142814636	30.6493282318	-0.938588559628	17.8947925568	35.3691139221
-25.3722496033	8.08196735382	29.0781040192	-2.40411639214	20.4806518555	33.4720611572
-24.8211021423	7.398645401	28.3100662231	-3.00053429604	21.4482498169	32.2747306824
-27.344209671	9.38549900055	28.0965633392	-3.12365913391	22.0042285919	30.7698078156
-33.2083129883	14.4659156799	33.5759239197	-3.66936206818	22.6450023651	27.9752311707
-35.5796890259	17.5658473969	37.5715293884	-3.81311607361	22.5533905029	25.7816085815
-37.1651916504	20.6607990265	40.6913566589	-3.66230869293	22.0297050476	25.2191085815
-38.5508651733	24.8097515106	42.9598655701	-3.50705599785	21.4388542175	25.1218662262
-38.5638961792	25.7110538483	43.1885490417	-3.24873161316	20.8528079987	24.9926700592
-38.569984436	28.5356884003	46.947013855	-2.92892622948	20.3560733795	24.8844394684
-39.6383552551	32.399887085	49.1043968201	-2.64486050606	20.1220378876	24.6769256592
-40.5472793579	34.8326721191	49.6086730957	-2.69660902023	19.8570995331	24.33618927
-41.0463523865	34.5838813782	49.0617828369	-2.97476291656	19.5375156403	23.9954376221
-41.3426628113	34.2544441223	48.5238723755	-2.95378017426	19.3336257935	23.8967647552
-41.521900177	33.7856178284	48.1354522705	-3.00474381447	19.5310993195	23.7388496399
-41.9230575562	33.1639213562	47.8310241699	-3.25808691978	19.6822433472	23.3573627472
-41.7244911194	32.8761749268	47.9523849487	-3.56937718391	19.4931564331	23.0090923309
-41.9050483704	32.1095848083	47.5929527283	-3.45629644394	19.3655643463	23.3643951416
-41.5133323669	31.4781703949	47.8296203613	-3.33665084839	18.9667396545	24.0475597382
-41.082649231	30.7108917236	48.0212059021	-3.47576975822	18.6058559418	24.024930954
-40.8613433838	30.1401748657	47.463218689	-3.82035803795	18.2268829346	22.9251556396
-40.7194366455	29.6532783508	47.7500724792	-4.3105931282	17.6658554077	21.1065998077
-40.9349937439	29.087436676	46.8830070496	-4.91422462463	17.1509647369	18.8371810913
-40.6339569092	28.3922939301	46.8585853577	-5.55492973328	16.9705200195	16.0852489471
-40.4669494629	27.8848514557	46.5900726318	-6.04390668869	16.8242588043	13.0710954666
-40.2325706482	27.4062595367	46.6127243042	-6.20369625092	17.1855373383	9.83176231384
-40.1317634583	26.8861541748	46.3926544189	-5.98366975784	17.9560108185	6.93366861343
-38.5826339722	25.1162185669	46.1768608093	-6.04503822327	18.8890361786	4.60615491867
-37.2730522156	23.0586013794	45.7975921631	-6.87908697128	19.3052101135	1.73461401463
-36.423286438	22.1082611084	45.8797988892	-7.99959039688	19.364408493	-1.84071278572
-36.1936073303	21.7831878662	45.8389549255	-9.16176128387	19.7922916412	-5.22127485275
-36.3360099792	21.3486232758	45.2159576416	-9.65650749207	20.3401870728	-8.02371120453
-36.2919158936	21.0771713257	44.8112068176	-10.285077095	20.9360733032	-11.1300878525
-35.8990898132	20.8764781952	44.5308303833	-11.211482048	21.4589233398	-15.0900306702
-35.9063987732	20.9191417694	44.2917671204	-11.4938211441	21.97697258	-19.281255722
-35.8373260498	20.7762718201	43.7222747803	-10.807510376	23.3423099518	-22.6795825958
-35.3162498474	19.7548084259	41.6695709229	-9.57934856415	24.9045372009	-23.3922176361
-34.2373962402	18.2759933472	36.1994895935	-9.57475852966	26.0856571198	-23.5097370148
-33.0232963562	18.4952030182	28.5721569061	-9.6300573349	27.8066387177	-23.891916275
-32.7848548889	19.3158855438	28.0877418518	-8.96563053131	29.2933273315	-23.3968830109
-33.1675834656	19.5142269135	27.5863304138	-8.23331451416	29.8509254456	-22.2958145142
-34.3798828125	20.5790653229	25.9692611694	-8.67510509491	29.9826793671	-21.7202987671
-36.1093330383	22.1481304169	25.6103935242	-8.58093833923	30.7344608307	-20.8803710938
-38.2771530151	23.7289905548	24.2289505005	-8.7345533371	31.4390697479	-20.270280838
-38.9033432007	23.9384708405	24.2477626801	-8.89637184143	31.8910903931	-19.8744258881
