0.0	-0.0	138.641479492	57.9681777954	84.1280517578	-13.8071289062
0.0	-0.0	138.682296753	57.5302085876	84.6020889282	-13.584903717
0.0	-0.0	139.009780884	57.5911598206	84.7674865723	-13.4576330185
0.0	-0.0	139.656036377	57.580997467	84.2809677124	-12.9945735931
0.0	-0.0	137.293914795	60.8697471619	80.3218994141	-12.1666660309
0.0	-0.0	132.469573975	69.3488082886	73.2485733032	-12.4057149887
0.0	-0.0	124.893714905	82.8403930664	64.5473556519	-14.7102966309
0.0	-0.0	115.372840881	98.3347396851	60.0646972656	-18.9896354675
0.0	-0.0	114.175247192	106.502403259	60.5988769531	-21.975358963
0.0	-0.0	107.124450684	107.719291687	62.1628761292	-22.4247379303
0.0	-0.0	106.315696716	105.98727417	62.2395744324	-22.3047332764
0.0	-0.0	102.185691833	103.732826233	62.0107154846	-21.9746494293
0.0	-0.0	99.3368225098	101.760231018	62.2372436523	-21.2809886932
