0.0	-0.0	132.020843506	-126.555099487	89.0742874146	167.94631958
0.0	-0.0	132.013519287	-126.897964478	89.9293441772	167.870697021
0.0	-0.0	132.055511475	52.3207435608	89.2447662354	-12.2765827179
0.0	-0.0	131.837585449	51.0307884216	89.2768707275	-11.5234384537
0.0	-0.0	129.871963501	-128.95425415	89.4330978394	169.556152344
0.0	-0.0	112.869812012	51.3323059082	89.5539093018	-10.419005394
0.0	-0.0	105.123512268	52.4468154907	85.2469482422	-10.3958330154
0.0	-0.0	101.727912903	54.5126419067	74.5179519653	-10.3933563232
0.0	-0.0	98.5215682983	57.1432609558	60.7407913208	-11.50847435
0.0	-0.0	94.0883178711	61.4893417358	50.4359207153	-14.0875425339
0.0	-0.0	91.4069671631	67.6969451904	41.9057273865	-16.6870155334
0.0	-0.0	85.4550476074	72.1034011841	33.3632507324	-18.7385349274
0.0	-0.0	83.8155288696	73.103553772	27.5849208832	-20.8876190186
0.0	-0.0	82.8344573975	73.1742095947	26.9008712769	-22.072675705
