-0.074254989624	1.13360464573	0.10184431076	-0.130399465561	1.72019648552	-0.204739093781
-0.0746006965637	1.13309800625	0.101423978806	-0.130452394485	1.72034549713	-0.205008625984
-0.0750606060028	1.13286030293	0.100696325302	-0.130702972412	1.72039675713	-0.205371856689
-0.077898979187	1.13215649128	0.0986022949219	-0.131036758423	1.72054278851	-0.205372452736
-0.0843408107758	1.12794184685	0.0939736366272	-0.132275104523	1.7200460434	-0.204892992973
-0.0894021987915	1.12392580509	0.0908706188202	-0.134075403214	1.71997523308	-0.204697608948
-0.0955727100372	1.12154483795	0.0897490978241	-0.135535478592	1.72017049789	-0.204522490501
-0.105357885361	1.1219291687	0.0867717266083	-0.136528730392	1.72055590153	-0.20482480526
-0.11613035202	1.12417197227	0.081746339798	-0.13688325882	1.72081506252	-0.205186843872
-0.123691320419	1.12560725212	0.0773292779922	-0.137052536011	1.72111535072	-0.205493211746
-0.129855632782	1.12581169605	0.0732966661453	-0.13737487793	1.72138106823	-0.20601785183
-0.136174201965	1.1254594326	0.0709717273712	-0.138352870941	1.72143018246	-0.206331968307
-0.142579078674	1.12724387646	0.0686247348785	-0.141265869141	1.72115457058	-0.206256628036
-0.146131515503	1.12767481804	0.0671603679657	-0.145483016968	1.72112166882	-0.206042051315
-0.147460699081	1.12611055374	0.0657892227173	-0.148129701614	1.72106134892	-0.205542802811
-0.147227287292	1.12570750713	0.0652015209198	-0.148748874664	1.72141551971	-0.204207181931
