0.0	-0.0	135.772674561	-122.472290039	88.535369873	169.253463745
0.0	-0.0	135.645080566	-123.253326416	88.6777420044	169.427536011
0.0	-0.0	135.496673584	-123.78528595	88.9041748047	169.515182495
0.0	-0.0	130.710006714	-123.684860229	88.8272781372	170.08833313
0.0	-0.0	108.932418823	-119.904251099	88.3503494263	170.022537231
0.0	-0.0	97.4348144531	-112.581222534	87.541847229	169.040481567
0.0	-0.0	89.6007232666	-102.935096741	86.8711395264	168.594863892
0.0	-0.0	81.7755661011	-91.2576904297	86.8353424072	168.080657959
