0.0	-0.0	136.071884155	-120.158424377	89.0016326904	173.214157104
0.0	-0.0	135.82460022	-120.007507324	89.3201293945	173.193664551
0.0	-0.0	135.374420166	-119.648605347	89.9987487793	173.569671631
0.0	-0.0	134.441680908	61.4505386353	86.6784515381	-5.55944252014
0.0	-0.0	122.233436584	62.735408783	79.8035202026	-4.01306581497
0.0	-0.0	109.788742065	62.7683181763	73.2386016846	-2.89137625694
0.0	-0.0	99.5567398071	63.3569564819	65.1553039551	-3.10177588463
0.0	-0.0	96.871421814	66.2343826294	56.1060905457	-3.76163482666
0.0	-0.0	94.1814193726	68.4655380249	47.282081604	-4.33523511887
0.0	-0.0	83.8144226074	69.8290023804	38.2768821716	-5.2563085556
0.0	-0.0	80.9489974976	71.6762695312	32.0400772095	-6.53013038635
0.0	-0.0	79.9065246582	73.6497802734	27.7541160583	-7.49295330048
0.0	-0.0	76.7764129639	75.6802520752	24.5587654114	-8.63562393188
0.0	-0.0	71.2448806763	78.7592926025	23.271774292	-10.2819328308
