0.0	-0.0	138.570526123	-127.978759766	88.5648727417	173.171264648
0.0	-0.0	137.912811279	-128.099075317	88.7351989746	172.909500122
0.0	-0.0	136.417617798	-128.515731812	89.1198883057	173.294815063
0.0	-0.0	133.463851929	47.2164382935	89.8427963257	-5.29218912125
0.0	-0.0	125.221000671	40.1792259216	86.0353546143	-3.95134758949
0.0	-0.0	116.873809814	36.4091339111	82.4106521606	-1.65022182465
0.0	-0.0	111.388275146	32.6135444641	76.049331665	0.359166264534
0.0	-0.0	105.437828064	29.1859550476	64.6954803467	3.97849416733
0.0	-0.0	98.5209503174	27.1510391235	58.4806747437	3.63352012634
0.0	-0.0	91.9305648804	25.1056900024	54.8288154602	2.07488131523
0.0	-0.0	88.081703186	22.8593273163	50.8834533691	3.87595915794
0.0	-0.0	86.1319961548	22.4742927551	48.2464942932	4.13564109802
0.0	-0.0	84.9133377075	22.536863327	46.2711105347	2.40529608727
0.0	-0.0	85.1130752563	21.9666194916	43.9335365295	-0.195784538984
0.0	-0.0	85.9607009888	21.1862506866	41.1858634949	-1.69351232052
0.0	-0.0	86.5322265625	23.6913051605	40.0723419189	-3.97071146965
0.0	-0.0	86.4278335571	31.9238929749	42.0718955994	-7.14335489273
0.0	-0.0	87.1618499756	42.4395904541	46.1562461853	-9.41769504547
0.0	-0.0	87.5455627441	42.8577575684	45.6398925781	-8.44129276276
0.0	-0.0	87.5281829834	38.1984405518	44.1409645081	-5.9611825943
0.0	-0.0	87.4711990356	31.8247146606	40.029510498	-1.44193649292
0.0	-0.0	87.8264846802	26.848323822	33.8300590515	1.7798217535
0.0	-0.0	86.7518692017	22.885175705	27.8038673401	3.9398624897
0.0	-0.0	84.9036712646	21.5516986847	23.2953491211	3.2785949707
0.0	-0.0	82.5832824707	23.7673969269	19.9416484833	2.22516727448
0.0	-0.0	81.3023605347	24.4933280945	16.3660907745	1.31962227821
0.0	-0.0	80.7267456055	24.658290863	13.1073236465	-0.0672384500504
0.0	-0.0	80.4468307495	25.9531745911	11.1178216934	-1.06547546387
0.0	-0.0	80.4200668335	27.4759292603	8.71538639069	-2.24429106712
