-24.0283584595	-16.1179103851	137.777450562	0.277975261211	-0.598438024521	-6.74641561508
-24.154291153	-15.8888492584	137.217269897	0.358139097691	-0.807220995426	-6.75024175644
-24.207654953	-15.9873361588	136.370193481	0.346145093441	-0.72570335865	-6.62117338181
-24.3980979919	-15.8405313492	136.15296936	0.28622379899	-0.620087087154	-6.45095396042
-24.4398117065	-15.644785881	135.565582275	0.246971905231	-0.470013976097	-6.17528915405
-23.5011787415	-15.9990167618	131.135177612	0.436540335417	-0.172248184681	-6.04294729233
-22.6221923828	-16.1540164948	128.293716431	1.34645521641	-0.201925471425	-6.14130735397
-22.4143466949	-16.1799373627	128.379852295	3.37573242188	-0.175703555346	-6.60193490982
-22.3958492279	-16.4019126892	128.807098389	5.97641658783	-0.101913765073	-7.5513215065
-22.2505607605	-16.4194717407	128.892913818	9.91459465027	-0.107600718737	-8.48941516876
-21.9109172821	-16.7379646301	128.281799316	14.4830675125	-0.450708955526	-8.94316768646
-21.2003421783	-16.9441242218	126.40965271	17.3722419739	-0.851817786694	-9.24759292603
-19.0057315826	-16.6513671875	117.374740601	19.455997467	-0.745402276516	-9.49431324005
-16.3195285797	-15.9291524887	103.763977051	21.0679130554	-0.489495754242	-9.42300128937
-14.7070932388	-15.2123622894	94.44165802	21.9530277252	-0.472289681435	-9.14887142181
-14.0882358551	-15.1999225616	90.6989517212	21.8927879333	-0.337696492672	-8.92127895355
-14.3224658966	-15.1161766052	86.5827331543	21.3808021545	-0.187875419855	-8.65218639374
-14.8399906158	-15.0946598053	83.3141708374	20.3176994324	-0.149362400174	-7.92905426025
-15.4117822647	-15.2864589691	83.5226211548	18.221830368	-0.0462282784283	-7.12768936157
-15.769452095	-15.3612728119	84.4993209839	14.940366745	0.410825192928	-6.55032634735
-16.1278705597	-15.320224762	85.0305252075	13.6581010818	0.747954964638	-6.58292579651
-16.2413730621	-15.2431554794	84.5362014771	14.0117273331	1.02372729778	-6.61550569534
-16.266078949	-15.3841991425	84.5312042236	15.4586820602	0.922843396664	-6.52036762238
-16.470615387	-15.4882240295	84.3139724731	15.9300947189	0.462051749229	-6.34631729126
-16.4106063843	-15.4850082397	82.6244812012	15.2626008987	0.44933488965	-6.13928842545
