0.0	-0.0	144.255767822	-118.631591797	86.095413208	173.035629272
0.0	-0.0	143.868499756	-117.001068115	86.3076477051	172.015441895
0.0	-0.0	143.802124023	-117.124191284	86.5375213623	172.056213379
0.0	-0.0	143.526428223	-117.645812988	86.80493927	172.124557495
0.0	-0.0	143.770019531	-117.614448547	86.7591934204	172.17414856
0.0	-0.0	144.273040771	-117.990699768	86.4765548706	172.711883545
0.0	-0.0	141.766098022	-118.724655151	85.7960586548	173.579299927
0.0	-0.0	123.506446838	-120.64352417	82.818649292	175.187271118
0.0	-0.0	112.929260254	-124.329139709	78.7220535278	176.591247559
0.0	-0.0	105.872261047	-127.115486145	75.9256134033	177.299850464
0.0	-0.0	95.2529296875	-128.1353302	74.1486282349	178.79309082
0.0	-0.0	89.9741821289	-129.13230896	72.9167175293	179.694168091
0.0	-0.0	92.1326065063	-130.525878906	71.7710952759	-179.121871948
0.0	-0.0	92.2334976196	-134.534164429	67.3896331787	-175.348052979
0.0	-0.0	92.8187026978	-143.36579895	58.1983032227	-168.949050903
0.0	-0.0	93.040397644	-155.041946411	46.9564628601	-165.7265625
0.0	-0.0	93.1762084961	-162.03427124	39.1860733032	-166.278625488
0.0	-0.0	93.2949676514	-162.019760132	37.4947166443	-165.5206604
0.0	-0.0	93.0519638062	-160.167510986	36.7948112488	-165.033706665
0.0	-0.0	93.1887893677	-156.621078491	32.8647727966	-165.029373169
0.0	-0.0	93.3021392822	-154.613555908	25.5333023071	-164.778991699
0.0	-0.0	92.8475036621	-155.825012207	19.2031002045	-167.206954956
0.0	-0.0	92.6084594727	-159.275100708	13.3757314682	-168.801956177
0.0	-0.0	92.189781189	-160.822128296	9.64594268799	-170.533905029
0.0	-0.0	92.2877883911	-158.762619019	4.60661649704	-171.75630188
0.0	-0.0	91.9960174561	-157.81187439	1.21203923225	-171.714096069
0.0	-0.0	92.1695632935	-156.412902832	0.753009498119	-171.264953613
0.0	-0.0	94.08203125	-156.419662476	0.274869114161	-171.041671753
0.0	-0.0	102.594169617	-156.341461182	-1.04055702686	-170.071289062
0.0	-0.0	95.3933334351	-155.480407715	-1.34619426727	-169.651321411
0.0	-0.0	85.2334671021	-154.607055664	-0.520834207535	-168.949615479
0.0	-0.0	78.2500686646	-154.033065796	0.958202183247	-168.766555786
0.0	-0.0	67.7350540161	-153.475097656	2.7012526989	-168.758285522
0.0	-0.0	56.7119522095	-153.045379639	4.60824155807	-168.832107544
