0.0	-0.0	139.593933105	50.7861595154	86.6648178101	-12.9966344833
0.0	-0.0	139.096969604	54.5609588623	86.8727874756	-14.7291412354
0.0	-0.0	138.857070923	57.6996421814	87.4560470581	-16.4455127716
0.0	-0.0	138.454956055	58.1797599792	87.5212249756	-16.589050293
0.0	-0.0	135.385696411	56.9009475708	86.4581680298	-15.1862020493
0.0	-0.0	120.044960022	55.2155265808	84.9343414307	-13.5615434647
0.0	-0.0	115.664421082	53.3153686523	84.6566162109	-12.5720472336
0.0	-0.0	110.562973022	53.0976600647	85.3749389648	-12.2510957718
0.0	-0.0	106.579452515	52.1136894226	86.2266769409	-12.1690597534
0.0	-0.0	105.94669342	48.9132423401	86.0806503296	-11.4255723953
0.0	-0.0	104.098480225	43.0693473816	85.5739746094	-9.6201467514
