0.0	-0.0	132.153137207	-116.386322021	89.1636123657	179.304763794
0.0	-0.0	132.330535889	-115.604232788	89.1121063232	179.246322632
0.0	-0.0	131.782806396	-115.283195496	89.2373046875	179.230270386
0.0	-0.0	131.608032227	-115.480728149	88.8615493774	179.22883606
0.0	-0.0	131.592956543	-115.807121277	88.7607955933	179.224136353
0.0	-0.0	131.400161743	-115.518920898	88.7415924072	179.283126831
0.0	-0.0	131.302734375	-115.642929077	88.7293395996	179.364395142
0.0	-0.0	131.133071899	-115.565963745	88.5411529541	179.295593262
0.0	-0.0	130.793273926	-115.069190979	88.4993209839	179.228942871
0.0	-0.0	130.546127319	-115.22240448	88.6397857666	179.5284729
0.0	-0.0	129.899429321	-115.424125671	88.7175674438	179.933746338
0.0	-0.0	129.065872192	-115.283859253	88.8838119507	-179.558883667
0.0	-0.0	126.588447571	-116.420173645	89.0443115234	-178.717391968
0.0	-0.0	120.227287292	-118.249076843	88.9907302856	-177.805603027
0.0	-0.0	110.481002808	56.5092201233	89.1032409668	3.44381833076
0.0	-0.0	96.2499542236	52.6455802917	86.1634979248	5.50749874115
0.0	-0.0	76.814491272	47.9590606689	79.8803024292	10.4506969452
0.0	-0.0	58.9962310791	42.9865875244	70.5561218262	16.8564872742
0.0	-0.0	46.1298332214	36.6633110046	60.6670837402	22.7701282501
0.0	-0.0	37.8661117554	32.0088539124	54.1918449402	24.9403953552
0.0	-0.0	31.0320110321	32.4984741211	50.7268066406	24.6698532104
0.0	-0.0	24.3484477997	33.4899330139	47.820350647	25.7448863983
0.0	-0.0	21.6516685486	31.2204475403	46.8280296326	28.5532112122
0.0	-0.0	26.5611133575	27.7340145111	45.6277885437	30.880613327
0.0	-0.0	27.5385875702	25.9186382294	41.2040634155	34.68699646
0.0	-0.0	26.9953136444	26.5012302399	36.7769126892	36.0310516357
0.0	-0.0	27.2036209106	28.817615509	32.6369934082	33.9048233032
0.0	-0.0	25.7728023529	31.6776237488	30.3093338013	30.9070243835
0.0	-0.0	23.9980964661	33.5132064819	29.1506671906	30.8890037537
0.0	-0.0	22.6744060516	34.0818557739	26.3669204712	32.4179191589
0.0	-0.0	21.9396495819	33.5919837952	21.5390930176	33.2641716003
0.0	-0.0	21.1347675323	35.6182479858	17.2612476349	32.3626022339
0.0	-0.0	21.293800354	39.1474609375	15.2108860016	30.5033435822
0.0	-0.0	20.9077033997	40.0582809448	14.4412698746	30.1271934509
0.0	-0.0	17.5906715393	41.1827049255	14.7748718262	29.835062027
0.0	-0.0	11.3672685623	41.5374908447	14.6711969376	30.4136619568
0.0	-0.0	4.87192344666	40.6969947815	14.1972265244	30.0309505463
0.0	0.0	-3.50668144226	40.9174880981	14.3906679153	29.2903289795
0.0	0.0	-11.9510278702	39.8184738159	14.6949625015	29.6989746094
0.0	0.0	-15.4412202835	37.1689224243	15.4717159271	29.6277561188
0.0	0.0	-11.2309989929	35.0840644836	16.4621276855	30.1618671417
0.0	0.0	-0.629428982735	34.6641349792	17.6132068634	30.4752426147
0.0	-0.0	13.8172483444	33.3090171814	17.8653488159	31.8476200104
0.0	-0.0	24.0112686157	33.96900177	17.7040481567	31.9169769287
0.0	-0.0	43.6795196533	35.0506973267	17.2932834625	31.3169326782
0.0	-0.0	55.9609069824	36.7066383362	17.6577072144	30.4433708191
0.0	-0.0	56.567817688	38.075504303	17.1530361176	30.7299003601
0.0	-0.0	50.4669685364	42.0572967529	16.2970409393	29.2093544006
0.0	-0.0	46.3957748413	47.1135368347	14.3650894165	26.1976146698
0.0	-0.0	47.4056282043	48.4231491089	12.2937459946	24.342874527
0.0	-0.0	53.8042945862	49.7304153442	11.1958618164	22.5127105713
0.0	-0.0	59.0097312927	48.9535598755	10.3495483398	24.9809207916
0.0	-0.0	63.3366966248	49.1980361938	8.86700439453	25.4957466125
0.0	-0.0	63.0310974121	50.2113876343	6.74810695648	27.3297233582
0.0	-0.0	59.1461601257	52.698474884	1.79235935211	30.4988899231
0.0	-0.0	57.7564735413	58.0025482178	-2.64539361	28.6698474884
0.0	-0.0	54.9756774902	63.9191017151	-3.27726817131	22.3700752258
0.0	-0.0	52.1466140747	69.6362915039	-6.67032575607	17.9887447357
0.0	-0.0	51.6098175049	70.321937561	-8.31194210052	17.8722400665
0.0	-0.0	52.0757980347	70.0994720459	-9.24572658539	18.0362968445
0.0	-0.0	53.1796875	70.8570327759	-12.5907964706	19.3778839111
0.0	-0.0	54.4996833801	71.7294921875	-17.5986270905	22.5686759949
0.0	-0.0	56.2090797424	76.4432067871	-21.6213264465	22.9534626007
0.0	-0.0	56.9159698486	81.400894165	-24.2035503387	22.1579418182
0.0	-0.0	65.3968963623	83.6920471191	-24.4765033722	20.6031131744
0.0	-0.0	70.3843841553	82.3416061401	-25.4728183746	22.1421108246
0.0	-0.0	74.6525039673	79.4452056885	-27.1231689453	24.6709861755
0.0	-0.0	74.4338760376	79.2876281738	-26.4170379639	24.4455432892
0.0	-0.0	70.2120056152	81.1063766479	-24.3408718109	21.7102565765
0.0	-0.0	63.6838035583	80.6472549438	-24.1289215088	22.4890995026
0.0	-0.0	57.2290878296	80.4324645996	-23.5706787109	22.8990097046
0.0	-0.0	53.6174049377	79.5349121094	-23.2950839996	23.2853603363
0.0	-0.0	52.744468689	78.6000366211	-24.0211868286	23.6524658203
0.0	-0.0	51.9889984131	77.671295166	-26.5473213196	25.0968933105
0.0	-0.0	50.8734817505	80.8475875854	-27.6937408447	24.3883609772
0.0	-0.0	49.8510780334	93.7961959839	-25.3874206543	17.1033782959
0.0	-0.0	49.3822402954	101.04296875	-27.8391590118	22.7482376099
0.0	-0.0	49.5500640869	115.984916687	-36.4458999634	19.5763034821
0.0	-0.0	50.101650238	123.405220032	-39.6924476624	17.7010211945
0.0	-0.0	50.2708435059	132.40057373	-42.3825569153	9.84052371979
0.0	-0.0	50.0275993347	118.660018921	-44.16796875	20.1453952789
0.0	-0.0	49.9711265564	78.9677429199	-50.4144134521	50.0148849487
0.0	-0.0	50.3692626953	58.9574317932	-50.3246002197	55.9244155884
0.0	-0.0	50.491191864	62.6573829651	-51.1664581299	51.2727546692
0.0	-0.0	50.9186058044	68.1963043213	-52.8175086975	50.4796714783
0.0	-0.0	51.1295013428	82.1845550537	-54.13671875	45.5466995239
0.0	-0.0	50.9521827698	93.8616867065	-53.4961891174	40.8013725281
0.0	-0.0	50.815574646	109.572647095	-53.2704467773	32.5622062683
0.0	-0.0	50.672504425	101.392974854	-65.0894470215	44.6232185364
0.0	-0.0	50.1830177307	68.9829788208	-70.9866790771	79.4051818848
0.0	-0.0	50.0955047607	56.4178657532	-71.8446578979	89.7471694946
0.0	-0.0	50.5484428406	95.9611587524	-45.4869384766	31.7548828125
0.0	-0.0	50.5160255432	98.5294647217	-18.2339019775	22.0097179413
0.0	-0.0	50.6197471619	81.2957229614	-25.0515060425	31.2326717377
0.0	-0.0	51.1693916321	72.2657546997	-16.9332122803	27.9578208923
0.0	-0.0	51.2667808533	70.7101974487	-7.77604675293	19.0453147888
0.0	-0.0	50.4938049316	70.1813735962	-1.81136381626	12.8191156387
0.0	-0.0	50.3121376038	66.8942337036	3.20455169678	9.65679740906
0.0	-0.0	50.7155914307	62.3081932068	4.61349534988	10.023223877
0.0	-0.0	51.0094413757	56.0289077759	7.86320543289	12.0268974304
0.0	-0.0	50.8689918518	50.1790466309	10.4743204117	16.1067695618
0.0	-0.0	51.1330337524	45.8713798523	11.0005950928	17.5992050171
0.0	-0.0	51.1546020508	43.1604042053	9.92910766602	18.9651355743
0.0	-0.0	50.7001419067	39.930065155	9.18665313721	17.8933944702
0.0	-0.0	50.1096954346	44.2382736206	9.16790676117	3.76071214676
0.0	-0.0	50.0221328735	51.7453422546	8.0819940567	-9.59352111816
0.0	-0.0	49.3848762512	45.795009613	4.61757659912	-4.73191547394
0.0	-0.0	48.9813957214	40.7278213501	3.55916619301	0.0975401178002
0.0	-0.0	49.3930625916	38.8671150208	8.720246315	2.6819050312
0.0	-0.0	49.419090271	34.4316329956	11.745262146	8.30457210541
0.0	-0.0	49.2631034851	33.3560333252	12.2433166504	7.92627239227
0.0	-0.0	48.874294281	32.969078064	12.970664978	8.39866352081
0.0	-0.0	48.501247406	28.4479160309	11.0345153809	15.2315149307
0.0	-0.0	48.4233055115	30.0801181793	8.94111633301	12.6285715103
