-52.0629577637	-22.9578361511	138.334411621	3.9910337925	-2.43601179123	-2.91587114334
-52.1831703186	-23.0960979462	138.431716919	3.7203836441	-2.6281516552	-2.83263111115
-52.1367073059	-23.0672512054	138.10043335	3.90223622322	-2.93838739395	-2.80878019333
-50.7298431396	-23.355676651	133.978393555	6.18149375916	-2.73108315468	-3.18410634995
-47.4122657776	-22.5845336914	125.560913086	9.03076267242	-2.05901432037	-3.80282902718
-43.2569198608	-21.0548286438	112.833557129	11.6972932816	-1.43466806412	-4.40900993347
-40.6232948303	-18.9677467346	103.486579895	13.7478618622	-0.982373952866	-4.92038011551
-38.4619674683	-17.3059692383	95.116027832	14.9029083252	-0.544490218163	-5.29058885574
-36.3964042664	-16.6202297211	89.9813461304	15.2251996994	-0.32271873951	-5.50788497925
-35.0065879822	-16.1452884674	85.558265686	15.2643737793	-0.0879007875919	-5.5336933136
