-33.3304519653	-10.5099220276	138.615539551	4.39957618713	-1.2908372879	-2.55841231346
-33.4361152649	-10.4741840363	138.309158325	3.99835133553	-1.11372888088	-2.45867729187
-33.5744438171	-10.3675937653	138.224121094	3.91989445686	-0.898671209812	-2.44244861603
-33.4588737488	-10.4691181183	136.988220215	4.02550315857	-0.868358969688	-2.52574777603
-31.8472442627	-9.41584873199	124.032348633	4.11724281311	-0.673397362232	-2.59008359909
-30.457403183	-5.36544799805	98.1725997925	4.19158506393	-0.261571645737	-2.64738249779
-31.3747615814	-2.41753053665	86.3963165283	4.19307851791	-0.102595970035	-2.61393690109
-32.1107254028	-1.44139325619	76.4954910278	3.84164428711	0.0424884036183	-2.59914064407
-32.5805473328	-1.86412763596	71.3712539673	3.64789199829	0.941269218922	-2.41024708748
-33.1274452209	-2.44263792038	69.3771286011	3.92506694794	4.18155479431	-2.34504270554
-32.5800819397	-3.27379441261	67.4561386108	4.85172891617	8.45951461792	-2.41694331169
-31.7402915955	-3.45885705948	65.196105957	6.34270477295	11.1943454742	-2.85565590858
-31.523733139	-3.02988028526	64.2671432495	7.49581575394	15.2264738083	-4.19975423813
