0.0	-0.0	138.399703979	53.7160873413	84.3693618774	-11.0289363861
0.0	-0.0	137.998321533	53.7686576843	83.9258499146	-11.0157337189
0.0	-0.0	138.561889648	54.494052887	83.7901306152	-11.3281297684
0.0	-0.0	138.613433838	55.2050018311	84.4988098145	-11.4570741653
0.0	-0.0	136.749267578	52.4141464233	84.9769897461	-10.975394249
0.0	-0.0	130.519058228	41.2128868103	84.4473419189	-9.17524337769
0.0	-0.0	131.154846191	23.8943595886	83.5378494263	-5.93575906754
0.0	-0.0	131.395431519	6.31013250351	83.5289535522	-2.20684623718
0.0	-0.0	131.156021118	-6.12962436676	84.6717758179	0.642897307873
0.0	-0.0	130.806640625	-14.2472839355	85.1303939819	3.5286090374
0.0	-0.0	121.546524048	-19.7899188995	85.1427001953	5.80398845673
0.0	-0.0	106.781112671	-23.5312461853	86.0782394409	7.43231773376
0.0	-0.0	101.250152588	-24.7759056091	87.8954544067	8.24468994141
0.0	-0.0	97.242477417	-24.3544406891	89.3551864624	8.28611087799
0.0	-0.0	91.1984024048	-24.3163814545	89.5497741699	7.90753984451
0.0	-0.0	84.2947387695	-25.29164505	88.9078292847	7.77227497101
0.0	-0.0	80.6720581055	-25.4682445526	88.3774871826	7.7871055603
0.0	-0.0	76.6668167114	-25.3819484711	88.4403076172	7.55781936646
