-0.119854211807	1.16190648079	0.112648963928	-0.135204553604	1.71535968781	-0.19576895237
-0.119511842728	1.1624917984	0.112663507462	-0.135058164597	1.71528446674	-0.195463657379
-0.11946105957	1.16281878948	0.11208987236	-0.134903907776	1.71515226364	-0.195586681366
-0.12455368042	1.16191732883	0.105678081512	-0.135392189026	1.71520936489	-0.195998191833
-0.132943868637	1.16278934479	0.0942413806915	-0.137487888336	1.71573793888	-0.196566820145
-0.140783786774	1.16336321831	0.0865459442139	-0.142519235611	1.71584308147	-0.196636676788
-0.1448366642	1.16366171837	0.0859680175781	-0.149059295654	1.71571087837	-0.196731567383
-0.147418022156	1.16468250751	0.08571600914	-0.153264522552	1.71558248997	-0.196935892105
-0.150158643723	1.16462647915	0.0838629007339	-0.156362771988	1.71579241753	-0.19681417942
-0.150671720505	1.16443312168	0.083967924118	-0.158918380737	1.71574747562	-0.197032213211
-0.149510622025	1.16660797596	0.0857263803482	-0.158202886581	1.71513044834	-0.196626186371
-0.147658586502	1.17316269875	0.0873122215271	-0.15664434433	1.71446883678	-0.196139335632
-0.146238327026	1.18148899078	0.08644926548	-0.155690670013	1.71453976631	-0.19620680809
-0.142643690109	1.18865942955	0.0901091098785	-0.154981613159	1.71455597878	-0.196485042572
-0.138585805893	1.19405555725	0.095393538475	-0.154107570648	1.71468448639	-0.196739673615
-0.135217666626	1.19592797756	0.100164413452	-0.153240680695	1.71485507488	-0.197312355042
-0.134838342667	1.19446206093	0.100903511047	-0.152440309525	1.71486341953	-0.198065876961
