0.0	-0.0	134.309265137	-126.775558472	84.5745697021	165.402069092
0.0	-0.0	134.223724365	-127.829612732	84.9293365479	165.46182251
0.0	-0.0	133.946472168	-128.015960693	85.5009613037	165.54498291
0.0	-0.0	132.342712402	-126.827804565	88.0140380859	166.263977051
0.0	-0.0	125.327384949	55.6997566223	84.8279266357	-12.6761102676
0.0	-0.0	122.232063293	58.6599807739	70.2830123901	-12.1647825241
0.0	-0.0	119.024772644	63.004322052	52.4886436462	-13.7829332352
0.0	-0.0	115.097457886	70.2313461304	41.1460380554	-16.9938163757
0.0	-0.0	103.378036499	75.6174545288	39.3558273315	-19.3818092346
0.0	-0.0	90.4403762817	79.4889068604	37.5808334351	-20.4664402008
0.0	-0.0	82.7799377441	79.8591308594	34.8439979553	-20.7572593689
