-6.92938995361	-20.170791626	138.434753418	3.9271736145	0.680605053902	-1.95971179008
-6.76059865952	-20.0871887207	138.089035034	4.0905880928	0.476486772299	-2.15666127205
-6.67612218857	-20.0887947083	138.033935547	4.23152160645	0.315619617701	-2.4682097435
-6.85354614258	-20.0883655548	137.948745728	4.39273691177	0.176682651043	-2.56741833687
-7.06980419159	-20.1790370941	138.220855713	4.33827114105	-0.00798886176199	-2.6654419899
-7.34445762634	-20.2176456451	138.556472778	4.17599487305	-1.33459877968	-2.82004117966
-7.33796262741	-20.0218582153	138.177108765	3.71920371056	-3.40666818619	-3.05269551277
-7.39042568207	-19.8179187775	138.160690308	2.97811818123	-6.54602193832	-3.27931666374
-7.46099710464	-19.5630054474	138.103286743	1.77488434315	-10.8122940063	-3.50879263878
-7.91239976883	-19.3699073792	138.002349854	0.804553508759	-14.2149858475	-3.82009553909
-8.08638381958	-19.2978744507	137.407455444	0.403521746397	-15.2432918549	-3.99093604088
-8.36780643463	-19.537071228	137.243408203	0.214955344796	-15.3922653198	-4.16007518768
-8.48277282715	-19.5928821564	137.524291992	-0.368268042803	-18.7078304291	-4.48724651337
-8.49582576752	-19.1647663116	137.388275146	-2.26322460175	-23.7461795807	-3.96998119354
-8.47023296356	-18.7139129639	137.39239502	-5.15751934052	-28.0218048096	-2.78790569305
-8.76720523834	-18.6886119843	137.351470947	-6.42392730713	-33.0719337463	-2.31832003593
-9.30133533478	-18.3833122253	137.368499756	-6.61785650253	-34.2981719971	-1.8604735136
-9.35400485992	-19.3825111389	137.501663208	-6.87003803253	-34.373249054	-1.64793932438
-9.85697937012	-19.2625541687	137.652572632	-7.18985366821	-33.7890663147	-1.66441595554
-9.92209625244	-19.3984642029	137.578842163	-7.10264253616	-33.4035415649	-1.55075001717
-9.98186683655	-19.3567733765	137.50831604	-6.75038957596	-32.6237602234	-1.70959556103
-9.78906345367	-19.3369121552	137.459213257	-6.21399021149	-31.4995231628	-1.60412991047
-9.65099430084	-19.3853969574	137.411468506	-5.94114732742	-31.1378192902	-1.46362054348
-9.61605262756	-19.1920776367	137.530578613	-5.92103767395	-31.0159015656	-1.3988546133
-9.46812915802	-19.1005039215	137.757614136	-5.64548301697	-30.8942012787	-1.35765469074
-9.74064350128	-19.0235862732	137.672943115	-5.26700496674	-29.8994255066	-1.33109271526
-9.55043315887	-19.463602066	137.460205078	-5.04238414764	-29.1502513885	-1.03119027615
-9.67164421082	-19.2184448242	137.313156128	-4.93458747864	-28.0940628052	-0.740314602852
-9.67223834991	-19.4980773926	137.144622803	-4.32489776611	-24.439748764	-0.534377157688
-9.81184005737	-19.6975307465	136.873764038	-3.2051050663	-14.9915676117	-0.0621165819466
-9.83195114136	-20.5642375946	136.692932129	-1.82488274574	-4.28089332581	0.0954287648201
-9.84267520905	-20.966337204	136.823364258	-0.710706233978	-0.171986475587	-0.180883690715
-9.80859184265	-19.7306575775	136.485855103	0.354414135218	1.23198091984	-0.438629746437
-9.35122871399	-19.2617950439	136.029922485	1.04642724991	1.84504890442	-0.826293587685
-9.1659450531	-19.2402992249	135.634384155	1.96101522446	2.01993250847	-1.17764687538
-8.66644573212	-19.5577888489	134.691299438	3.49796700478	2.27225017548	-1.66997802258
-6.4398188591	-20.2991199493	126.068969727	4.29168796539	2.53251671791	-2.15704989433
-4.63432264328	-20.4552612305	115.854789734	4.68008041382	2.46398258209	-2.20858645439
-3.94848704338	-20.3751354218	109.289474487	5.41113138199	2.38168334961	-2.19856357574
-1.40187120438	-20.1151733398	94.3322601318	6.94420480728	2.38362669945	-2.23776102066
1.12620568275	-19.2581768036	79.6981811523	8.95982074738	2.7523329258	-2.41251754761
2.24157476425	-18.9933376312	73.2643661499	11.5271787643	3.21393990517	-2.7212677002
1.83148336411	-19.6848316193	72.9340591431	13.4824934006	3.36713671684	-2.96668195724
2.93123531342	-20.0171890259	70.0478286743	13.8840036392	2.84620022774	-3.0648496151
3.40627646446	-21.2114524841	69.8347625732	13.8491868973	2.18426561356	-3.21603608131
4.34920167923	-21.5748977661	67.9760055542	13.6810626984	1.9254128933	-2.90219783783
5.60678958893	-21.6294651031	65.2694625854	14.010723114	1.85151576996	-2.75093102455
