-55.4430007935	-15.8485746384	132.854827881	2.54825758934	0.52090036869	-3.24463748932
-55.1307563782	-15.8609924316	132.337173462	2.67458176613	0.675668179989	-3.45123076439
-55.1029434204	-15.9462461472	132.130905151	2.90379691124	0.273473113775	-3.77849960327
-55.2201766968	-16.1588344574	131.79196167	2.86795186996	0.14708083868	-3.74018073082
-55.0014533997	-16.3026485443	130.938110352	2.49112892151	1.4541285038	-3.57912635803
-54.8993835449	-16.3733997345	130.697891235	2.01069903374	5.70293331146	-3.54036545753
-54.9454193115	-16.5297622681	130.542572021	2.05841302872	12.5144796371	-3.44187045097
-54.8834228516	-16.9367580414	130.027679443	3.06462955475	20.0806598663	-2.88990449905
-54.7225074768	-16.9918937683	129.298049927	4.18572330475	24.0511188507	-2.46440172195
-53.6846046448	-16.7947349548	125.551116943	4.51439857483	25.599817276	-2.95843577385
-51.4098625183	-15.3563013077	114.763198853	4.52862930298	26.0741424561	-3.57072734833
-49.733795166	-14.3677330017	106.761535645	4.54171657562	26.7111778259	-3.942912817
-49.6284942627	-14.2273263931	104.416007996	4.50964164734	27.0418815613	-4.21565771103
-48.7360649109	-13.5924434662	98.7567443848	4.42129993439	26.8344917297	-4.52748012543
-48.8103790283	-12.7292642593	94.951965332	4.40672397614	26.798248291	-4.66547775269
-48.6655044556	-12.0509653091	91.4636077881	4.33176517487	26.7622699738	-4.78005075455
-48.8182945251	-11.8436698914	91.8346710205	4.31282711029	26.6316776276	-4.94285297394
-48.7855148315	-11.7262916565	91.8756332397	4.60694265366	26.4675598145	-5.0569767952
