-33.7727584839	-20.5137348175	139.396759033	2.79057335854	-1.9936555624	-3.72386360168
-33.8618278503	-20.5283679962	139.16734314	2.64957237244	-1.89449262619	-3.59795475006
-34.1336517334	-20.494096756	139.310714722	2.5437977314	-1.79841566086	-3.61370801926
-34.378490448	-20.5317173004	139.432052612	2.44678640366	-1.47231805325	-3.66620588303
-33.3135375977	-19.3251857758	133.672836304	2.41905426979	-0.627579331398	-3.60520482063
-34.1661834717	-19.3117237091	135.914169312	2.32776832581	1.26455140114	-3.45969414711
-34.2653198242	-19.387090683	136.281784058	2.02916145325	3.82678699493	-3.0674097538
-34.3675918579	-19.3394775391	136.099090576	1.7787579298	6.79635620117	-2.34312105179
-34.406337738	-19.6152877808	136.094284058	1.42025077343	10.4643068314	-1.62025272846
-34.3252029419	-19.9007740021	135.981155396	1.34558141232	15.224732399	-0.916163086891
-34.356262207	-20.1159915924	136.252700806	1.73378622532	20.858587265	-0.632017731667
-34.3510513306	-20.1364879608	135.679962158	3.1259958744	25.0392036438	-0.631470263004
-34.391708374	-19.8935203552	135.300521851	5.07294082642	26.6503505707	-0.640283644199
-33.1821861267	-19.9072189331	130.137588501	5.91361808777	26.511636734	-0.995803058147
-28.5729484558	-18.4267692566	112.168518066	5.7897772789	26.0451431274	-1.14905571938
-25.4854869843	-14.0587673187	90.1357803345	5.25945472717	25.27460289	-1.22613978386
-23.6394996643	-11.3730783463	77.1890945435	5.1724114418	24.5323104858	-1.39492797852
-23.8926391602	-11.0274534225	74.5278091431	5.45259857178	24.2339706421	-1.51643550396
-24.3659362793	-11.283577919	75.9458236694	5.6448392868	23.9822769165	-1.59493410587
-24.6282329559	-10.7414884567	75.3144836426	5.65180540085	23.9942493439	-1.68905246258
-24.3615684509	-8.96897602081	70.8830490112	5.71614313126	24.1949558258	-2.20764040947
-24.3596382141	-7.069835186	64.4853210449	5.69970750809	24.1327457428	-2.92588329315
-25.1031036377	-6.83942508698	63.2015266418	6.06779527664	23.5544147491	-3.44111967087
-25.4970149994	-6.88947057724	64.7570037842	6.44926452637	22.9138698578	-3.7090318203
-27.0566101074	-7.03491306305	67.2442855835	6.42968225479	21.8381748199	-3.79190468788
-28.690322876	-7.18694210052	70.0839080811	6.07115030289	21.1903553009	-3.51680898666
-30.2602863312	-6.60652685165	72.0979309082	5.41777610779	21.1345157623	-3.24839735031
-30.8016586304	-6.28318357468	72.4567718506	5.10086393356	21.4244747162	-2.99940443039
-31.0044212341	-5.97705316544	72.774597168	4.86554765701	22.4910049438	-2.69463205338
-31.2565689087	-5.97041606903	72.9014892578	4.28358411789	22.8059482574	-2.69846916199
-31.827917099	-6.00021314621	74.8525924683	3.86334061623	22.2210865021	-2.84293055534
-32.9740066528	-6.05516290665	79.8575897217	3.65409517288	21.5335388184	-3.0638127327
-33.9749526978	-5.84338617325	84.8330993652	3.51630496979	21.2749538422	-3.26651239395
-35.5015602112	-5.03327846527	90.8588485718	3.38059544563	21.4309616089	-3.22490930557
-36.5363769531	-3.50958132744	93.7029418945	3.51583242416	21.9042282104	-3.01789021492
-35.9771003723	-1.74318885803	88.4948348999	3.58276057243	22.3301506042	-2.88133764267
-36.5243530273	-0.325582146645	83.4648742676	3.50779175758	22.6640834808	-2.89667677879
-37.2698822021	0.570447385311	83.4402236938	3.37682962418	22.955329895	-2.90310406685
-37.1171836853	2.31995463371	79.1226425171	2.98451781273	23.5272102356	-2.91306996346
-38.1784172058	3.49270176888	77.7026901245	2.54229402542	24.4517917633	-2.94362568855
-38.9581794739	4.16867399216	75.6955490112	2.6223886013	25.041633606	-2.94345760345
-38.853553772	4.69194507599	74.8685379028	2.87911200523	25.1779308319	-3.06388878822
-38.4156036377	4.70987033844	75.052482605	3.32526350021	25.1001300812	-2.93352007866
-38.6989440918	4.35941076279	76.662437439	3.32090640068	24.9494400024	-2.76981806755
-39.8627738953	4.02573776245	80.5478363037	3.08058547974	25.0320396423	-2.55623340607
-40.815612793	3.86979079247	86.198638916	3.00651955605	25.2463035583	-2.30432724953
-40.951461792	4.19532203674	89.0817642212	2.93051552773	25.1403980255	-2.28372263908
-41.1199836731	5.36256933212	86.3361358643	3.11794066429	24.7723636627	-2.23606419563
-42.1614875793	7.29334449768	81.6044387817	3.2136785984	24.5821590424	-1.85652673244
-44.4371070862	9.56374931335	81.4629745483	3.40162301064	24.5510063171	-1.53848850727
-45.8441352844	11.830698967	82.0092010498	3.59910202026	24.3622932434	-1.20374166965
-45.9434051514	13.2142019272	82.4410858154	3.5315246582	24.0364780426	-0.8543420434
-44.977935791	12.6754426956	83.4468231201	3.35330510139	23.7206516266	0.105351142585
-43.3378486633	10.5960054398	86.1205596924	2.89348816872	24.305431366	1.71800792217
-42.4562339783	9.31286048889	84.0856781006	2.01113843918	25.8176822662	2.23807573318
-42.8057785034	8.56344985962	82.9854049683	1.43568575382	26.4624595642	1.48143422604
-43.1333732605	8.25139522552	82.2885971069	1.93800330162	27.1769199371	1.17507219315
-43.2494010925	7.97161912918	81.9394454956	3.29620838165	27.2838230133	1.06542313099
-43.3632545471	7.34004497528	82.0712203979	4.55888605118	26.336856842	0.00179105275311
-43.1358108521	6.63455629349	82.3253631592	5.89049911499	23.9915065765	-2.07093405724
-43.1777381897	5.7256860733	82.8517456055	7.72103309631	22.3553028107	-4.13873243332
-43.0976066589	4.86083459854	82.2115631104	9.61833190918	22.0768013	-5.09763526917
-43.3946609497	4.70376348495	81.8812713623	10.0786705017	21.6899108887	-5.29946184158
-43.5812301636	4.94275999069	81.7532196045	9.62504768372	20.5632076263	-5.32114648819
-43.8611755371	5.11342382431	82.1728439331	9.52002620697	19.762966156	-5.30386781693
-44.0562286377	5.18673753738	82.5674209595	9.51621341705	18.7620010376	-5.26533555984
-43.9575691223	5.07203149796	82.9252853394	9.37507820129	17.2109241486	-5.1516866684
-43.7987823486	5.08081531525	83.0416412354	9.14026832581	15.5154457092	-4.99459648132
-43.8603286743	5.04671430588	82.9972229004	8.66658306122	14.2612390518	-4.69151496887
-44.0856285095	4.96696376801	82.7003936768	7.75172281265	13.4288024902	-4.04999160767
-44.2475128174	4.98922777176	82.318069458	5.78968286514	12.2935705185	-3.06384062767
-44.5034751892	4.96868944168	82.1037445068	2.74790620804	10.9415693283	-1.59616279602
-44.65102005	5.07095003128	82.1827392578	0.104214213789	10.2887582779	-0.0466102100909
-44.9848899841	5.25965261459	82.6236114502	-0.96510207653	10.2449712753	0.827412545681
-45.1858711243	5.24716615677	82.8580627441	-1.13140785694	9.89335727692	1.29662072659
-45.0118103027	4.93381977081	82.6049194336	-1.18701100349	9.73131370544	1.38842952251
-44.5005683899	4.66846656799	81.8118743896	-1.09524154663	9.36668872833	0.975536584854
-44.2805671692	4.5204782486	81.283744812	-2.06114816666	9.2918806076	-1.55571675301
-44.1817817688	4.36782550812	80.8097000122	-4.05838298798	9.6379032135	-4.88891792297
-43.8276863098	4.16078710556	80.30052948	-6.56372308731	9.5124835968	-9.53432750702
-43.7474365234	3.87443566322	79.7833404541	-7.82725429535	9.38218402863	-13.243229866
-43.6883010864	3.71998047829	79.3882598877	-7.38146209717	10.2503929138	-15.3852491379
-44.0390510559	3.68216395378	79.1865615845	-4.77419281006	11.1571063995	-13.923617363
-43.9464759827	3.61140227318	79.099067688	-1.10434532166	10.8210096359	-9.13409996033
-43.7194747925	3.52508759499	79.116569519	2.4174952507	8.90082359314	-2.9791033268
-43.219833374	3.30407142639	78.9275131226	4.79117298126	5.60242366791	2.01618003845
-42.7294883728	3.29536509514	78.5639953613	4.99960422516	2.89605593681	4.32383775711
-42.4475593567	3.41729235649	78.4769592285	5.08276081085	1.75789439678	6.54982423782
-42.2845573425	3.36578202248	78.4707870483	5.93639087677	1.44799673557	10.3320941925
-41.9177246094	3.23011064529	78.4597930908	5.51610279083	1.71750819683	12.3560857773
-41.6271972656	3.43001723289	78.4927749634	4.271027565	2.05523777008	12.9187202454
-41.6538238525	3.70210123062	78.4659957886	2.57297921181	2.30538153648	11.3794546127
-41.7722587585	3.74003982544	78.1334381104	1.80997431278	2.56167602539	9.81051540375
-41.8840255737	3.57065677643	77.7989196777	1.57154107094	2.72665953636	8.64248657227
-42.1167259216	3.52540779114	77.4513320923	1.51965498924	3.0116994381	7.59673452377
-42.4770584106	3.56347870827	77.2514572144	1.37085843086	2.77446770668	6.71270799637
-42.4571228027	3.52973890305	77.0975952148	0.836166620255	-1.59061563015	5.74767351151
-42.0800094604	3.75503921509	76.4702758789	0.16274523735	-8.29064655304	4.60332107544
-42.2523193359	4.29543447495	76.2878265381	-0.758168697357	-12.7997865677	3.57471895218
-42.6391105652	4.43047142029	76.2803573608	-1.11406970024	-14.3258543015	2.28465008736
-43.0813446045	3.93324661255	76.6792984009	-0.731338500977	-13.7435407639	1.79354143143
-42.8675804138	3.45573854446	77.0122451782	-0.532697737217	-12.1796360016	1.75953447819
-42.8535728455	3.31103992462	77.2682800293	-0.675394535065	-8.23561382294	1.91083288193
-42.9516296387	3.09752321243	77.3751602173	-0.925477862358	-1.44058847427	2.30420565605
-42.8339195251	2.60006809235	77.4270553589	-0.979858696461	5.13195133209	2.87992501259
-42.3277015686	2.09021949768	77.2282409668	-1.10954320431	10.7221746445	3.28703784943
-42.3840713501	1.97931814194	77.1010055542	-0.826279461384	16.0545825958	3.63252019882
-42.459186554	1.83999145031	77.0429077148	-0.216624602675	20.6566429138	3.6469643116
-42.2251396179	1.59020805359	77.0119018555	0.594233572483	24.2997703552	3.7978682518
-42.0525169373	1.5541793108	76.7922973633	0.59231364727	26.2484588623	3.78472971916
-41.8981704712	1.86542010307	76.5704116821	0.259008198977	26.2233581543	3.44022989273
-41.8450126648	2.13657093048	76.3360137939	0.330048114061	25.655134201	3.49630045891
-41.8844680786	2.16089963913	76.23878479	0.42438107729	25.462348938	3.83726859093
-41.5030822754	2.52211880684	73.6492462158	0.230318397284	25.4883842468	4.13813257217
-39.0824050903	5.16173028946	56.2200164795	0.174465179443	25.3880310059	4.33476114273
-38.6772003174	6.16242313385	52.1925163269	0.239569723606	25.4652233124	4.20259857178
-38.3801994324	5.92218255997	53.9821624756	0.139281138778	25.3557300568	4.07966327667
-38.0926017761	5.36623430252	55.2564926147	-0.263716191053	24.3592243195	3.8727080822
-38.2458381653	5.46839904785	55.2734336853	-0.49079400301	22.6485881805	3.64110183716
-38.5067329407	5.64022541046	55.4841918945	-0.249816015363	22.6559906006	3.63242721558
-38.3250236511	5.29007911682	55.6536140442	-0.70136910677	18.8059616089	3.00528216362
-38.4434700012	5.16521835327	56.2909545898	-1.78386950493	12.7576360703	2.00711417198
-38.9105453491	4.98989248276	56.397403717	-2.56336927414	10.1911897659	1.88494229317
-39.3757972717	4.42288732529	56.5821151733	-3.54794430733	10.5836286545	2.35850930214
-39.5802154541	4.21915245056	56.5522270203	-5.3985414505	10.3993883133	2.25738978386
-39.7717208862	4.2498626709	56.5845947266	-8.73174762726	9.82855892181	2.16716170311
-39.7221870422	4.55529356003	56.1943397522	-11.2100248337	7.58785867691	2.01776790619
-39.8299865723	4.90848588943	56.0063743591	-12.9941959381	5.46446228027	1.53152823448
-39.7609024048	4.99066066742	56.2636222839	-12.8701877594	4.11313676834	1.28803837299
-39.3647041321	4.76655817032	56.3032646179	-11.5135946274	2.05622696877	1.49313127995
-39.0661125183	4.79622173309	56.4605255127	-10.2795438766	-0.0901492461562	1.73250997066
-38.8594474792	4.93035936356	56.5155639648	-9.65761852264	-1.29504406452	1.84919142723
-38.7466850281	4.95605754852	56.5347862244	-9.50849151611	-1.05402088165	2.28355836868
-38.5941619873	4.65883302689	56.4986152649	-9.84460258484	-0.968273878098	2.55707621574
-38.4652709961	4.64917421341	56.4584350586	-10.0123243332	-0.372959107161	2.49556803703
-38.6184501648	4.6675620079	56.5136070251	-9.95069694519	0.417942106724	2.24740386009
-38.6342315674	4.49984407425	56.463886261	-9.88956069946	2.80079126358	1.63702046871
-38.6531219482	4.14948368073	56.5288162231	-9.70244121552	7.20328855515	1.34096980095
-38.354434967	3.75832247734	56.5021781921	-9.37602519989	10.1289567947	1.30192768574
-38.3839950562	3.7761631012	56.2859344482	-9.64632225037	12.1913585663	1.32487940788
-38.4671173096	4.07190036774	56.0292625427	-9.8716917038	13.0462837219	1.80038869381
-38.2652168274	4.22954034805	55.9531593323	-14.4784479141	13.2345485687	-0.0493578054011
-38.0089035034	4.55918216705	55.9340820312	-19.9257125854	12.8541612625	-2.57085371017
-38.3765792847	4.69122457504	55.8036155701	-23.2084903717	12.1610660553	-4.18854808807
-38.6697235107	4.6364979744	55.903968811	-24.0611782074	11.7440214157	-4.80903148651
-38.6917991638	4.38476705551	55.9456710815	-24.1518154144	11.5938167572	-5.14214611053
-38.7055778503	4.26854038239	56.2193603516	-24.6311855316	11.7672271729	-5.89225292206
-38.535823822	4.03068399429	56.7591896057	-24.2227134705	13.4613790512	-6.62649869919
-38.2195701599	3.44590783119	56.7841033936	-25.3866214752	14.4441251755	-7.59133148193
-38.5468826294	3.16417336464	56.6665000916	-25.7228107452	15.3144140244	-9.03585529327
-39.3065757751	3.14832639694	56.858291626	-23.0787754059	17.5935707092	-10.0819749832
-39.6797523499	3.06749391556	56.8529586792	-21.5858535767	18.303691864	-10.966211319
-39.554233551	3.19912672043	56.8628349304	-21.9525814056	17.9929103851	-11.2193908691
-39.7097015381	3.42691636086	56.8163528442	-21.4887695312	17.7216186523	-11.0623254776
-40.0670051575	3.52369880676	57.0142250061	-21.8353824615	17.4296188354	-11.1383533478
-41.4777030945	3.95618700981	56.8944969177	-20.0739116669	17.2243804932	-11.0093841553
-45.635055542	5.44646596909	56.3774681091	-19.2602005005	17.062335968	-11.1870632172
-49.0348167419	6.79463815689	53.7731704712	-18.7285442352	16.6597270966	-11.1948814392
-46.6421051025	5.45834445953	49.7109985352	-17.6655006409	16.5041465759	-10.8668069839
-44.8100776672	1.24485969543	71.4938812256	-17.9296360016	16.3876838684	-10.606171608
-49.0743980408	-3.55001664162	95.2753677368	-18.3648490906	16.4909553528	-10.3357896805
-48.137260437	-1.86195921898	82.1495513916	-18.2706279755	16.742401123	-10.1978569031
-47.3683700562	0.545257270336	67.4376907349	-18.1980113983	16.7719650269	-10.1187639236
-47.5821456909	2.32596635818	58.0173912048	-18.0874385834	16.9759807587	-9.97520923615
-47.9120063782	2.30053067207	61.4179878235	-18.6169548035	16.9962005615	-10.1125221252
-48.8434753418	1.25263726711	73.8176040649	-20.918296814	16.4652481079	-11.6708831787
-49.630279541	0.383454680443	79.5873336792	-24.9663276672	14.7078056335	-15.1822814941
-50.8719062805	0.241359770298	82.4561538696	-24.3678760529	14.2864494324	-16.9803943634
-51.4376907349	-0.099907271564	82.1643371582	-24.6972293854	14.1081695557	-17.8261432648
-51.371963501	-0.331025660038	81.7780303955	-25.5147037506	13.708360672	-18.7965202332
-51.6008872986	-0.260581851006	82.2114715576	-24.5075263977	13.5325336456	-18.9255237579
-51.8814163208	0.0683054253459	82.1849899292	-23.0410022736	13.6376161575	-18.7694625854
-52.1208724976	0.389395564795	81.8221130371	-23.0334091187	13.2928705215	-18.6389541626
-52.7034187317	0.434986025095	82.7891235352	-23.5571193695	13.2848653793	-18.5169277191
-55.6704444885	1.00629389286	95.7137298584	-22.0364513397	14.0228919983	-18.3164768219
-57.5321006775	1.7980183363	94.4865493774	-20.6383666992	14.7331857681	-18.5948104858
-61.4783210754	1.92115664482	100.708030701	-18.6232089996	15.5928936005	-18.6926078796
-63.2581291199	2.25819659233	105.045944214	-16.8792533875	17.0105571747	-19.1214771271
-63.4813232422	1.80459368229	105.073905945	-16.2791080475	18.3134002686	-18.9007835388
-64.1675186157	2.10303020477	102.924819946	-16.6712970734	19.2880516052	-18.4009685516
-64.5725631714	2.65129899979	103.117958069	-17.5449466705	20.457572937	-18.1742687225
