-0.0146372318268	1.10830771923	0.0567874908447	-0.123935222626	1.67632591724	-0.176344513893
-0.015043258667	1.1095328331	0.055985212326	-0.123720645905	1.6765114069	-0.178184509277
-0.0153970718384	1.10917472839	0.0548577308655	-0.123583555222	1.67768836021	-0.17994427681
-0.0197486877441	1.11018776894	0.0525984764099	-0.123568534851	1.68157672882	-0.182717084885
-0.0294032096863	1.11805009842	0.0486941337585	-0.12336063385	1.68851280212	-0.187697172165
-0.0399055480957	1.13063085079	0.044317483902	-0.122309446335	1.69638609886	-0.194819331169
-0.0511333942413	1.14934766293	0.0381019115448	-0.120661497116	1.70313405991	-0.203345775604
-0.0585935115814	1.16620779037	0.0316705703735	-0.119041919708	1.70904195309	-0.212019443512
-0.0609383583069	1.17346179485	0.0279171466827	-0.118007183075	1.71330523491	-0.21960914135
-0.0614759922028	1.17763590813	0.0250377655029	-0.116961479187	1.71751010418	-0.226114869118
-0.0653533935547	1.18430280685	0.0181255340576	-0.115439414978	1.72244882584	-0.232138633728
-0.0708312988281	1.19014692307	0.0115906000137	-0.113395929337	1.72707211971	-0.238119125366
-0.0774383544922	1.19621765614	0.00602316856384	-0.111242771149	1.73045265675	-0.243481636047
