-0.00698614120483	1.11162042618	0.0287365913391	-0.12469124794	1.67502605915	-0.218111038208
-0.00589108467102	1.11105287075	0.0302865505219	-0.124000310898	1.67579782009	-0.21700501442
-0.0063898563385	1.1114834547	0.0317301750183	-0.123189687729	1.67681014538	-0.215335130692
-0.0056095123291	1.11014389992	0.0325692892075	-0.11984539032	1.67841601372	-0.213617324829
0.000779867172241	1.10929071903	0.0330085754395	-0.11474108696	1.68062078953	-0.21138048172
0.00915193557739	1.10942935944	0.0352554321289	-0.109221935272	1.68283677101	-0.209083080292
0.0165627002716	1.11228168011	0.0357013940811	-0.103884220123	1.68503284454	-0.206919670105
0.0321712493896	1.11350250244	0.0355322360992	-0.097537279129	1.68780207634	-0.204677581787
0.0415453910828	1.11116969585	0.036897778511	-0.0901989936829	1.6899689436	-0.202657461166
0.0438990592957	1.11143183708	0.0373742580414	-0.0827627182007	1.69111204147	-0.201259374619
0.0439963340759	1.109192729	0.0384842157364	-0.0752437114716	1.69232165813	-0.200021028519
0.0412092208862	1.10515809059	0.0404891967773	-0.067613363266	1.69307732582	-0.199533462524
0.0346255302429	1.1027135849	0.0414924621582	-0.0624108314514	1.69239783287	-0.198703050613
0.0252954959869	1.10223007202	0.0426559448242	-0.0597615242004	1.69103288651	-0.197033286095
0.0177764892578	1.10047197342	0.0439224243164	-0.0592269897461	1.69004273415	-0.194396972656
