-28.5923957825	-31.5516281128	133.060531616	-0.344267338514	0.537806451321	-5.90525245667
-28.4633960724	-31.0262470245	132.835067749	0.017557432875	0.697047889233	-5.95577573776
-28.2811050415	-30.4864196777	132.293029785	0.355671137571	0.878431856632	-5.89401483536
-28.417963028	-29.0718040466	127.398651123	-0.21531111002	0.31523630023	-5.93889427185
-29.8372077942	-23.6690120697	113.705795288	-1.72432136536	-1.54024815559	-5.95905828476
-33.0520133972	-23.1836967468	111.107444763	-4.27015256882	-5.56318998337	-5.88419485092
-34.0846595764	-22.9905281067	110.91116333	-7.63344526291	-11.0030584335	-5.15036058426
-34.4663848877	-23.8391456604	108.607620239	-10.7349815369	-15.6391038895	-3.8957233429
-33.9452362061	-23.0535488129	101.323455811	-12.7673025131	-18.6190662384	-2.81484866142
-33.7586250305	-21.3673095703	90.9690322876	-13.7513790131	-20.2612876892	-2.26629948616
-33.4337387085	-20.3600273132	81.1425704956	-13.6471595764	-20.7844524384	-2.51355457306
-33.3174934387	-20.5837860107	79.7016448975	-13.0322141647	-20.4959869385	-3.09924554825
-33.0367546082	-20.8398017883	78.5026779175	-12.9333648682	-20.2268104553	-3.24463891983
