-32.4495811462	-24.5955295563	133.198684692	-0.630052626133	1.99361824989	-6.70723772049
-32.4962158203	-24.3933773041	132.804153442	-0.590534925461	1.90852081776	-6.7110004425
-32.5285873413	-24.5013866425	132.645355225	-0.521952211857	1.97028696537	-6.68268203735
-32.7536621094	-24.2792301178	132.927947998	-0.50658082962	2.0717754364	-6.65213394165
-34.3173675537	-24.1019306183	132.683029175	-1.37769424915	2.91480374336	-6.10174894333
-37.0083084106	-21.7019424438	132.700042725	-3.23979496956	5.27957963943	-4.98148727417
-38.1983413696	-14.7596025467	123.534164429	-5.32739448547	9.07004547119	-3.85170769691
-40.5435638428	-7.55277967453	117.864242554	-6.79296207428	12.4449863434	-3.02058839798
-43.0319595337	-2.58932352066	115.076568604	-7.80624389648	14.5150470734	-2.2478415966
-46.5915985107	2.78238248825	109.911491394	-8.15511703491	15.1106567383	-1.4750071764
-48.9081611633	7.26037693024	102.801826477	-8.46211910248	16.4329376221	-0.643015503883
-50.9079933167	9.38718700409	99.9319152832	-8.84995174408	18.5798969269	0.108569838107
-50.0878334045	8.93312358856	99.8420562744	-9.37741661072	20.0285167694	0.428014278412
-48.5917930603	6.31165981293	95.111946106	-9.54929637909	20.486541748	0.606944262981
-46.1273002625	2.57306241989	88.794418335	-9.19724369049	20.349149704	0.538676440716
-41.9416236877	-1.19133269787	79.0338897705	-8.90161705017	20.0019760132	0.424372255802
-42.2247657776	-1.82549357414	73.963394165	-8.80505847931	19.74467659	0.418306738138
-42.1301040649	-2.64135098457	71.3472824097	-9.0025434494	19.5845966339	0.511994600296
-42.6365966797	-3.2544002533	67.2418518066	-9.52124786377	19.4941520691	0.58951741457
-44.2290267944	-3.50880861282	66.6447525024	-9.98606109619	19.5036048889	0.584881305695
-45.5732078552	-3.18672299385	64.3501586914	-10.0967922211	19.591047287	0.733822762966
-43.9309654236	-3.65549945831	57.2108230591	-10.3227128983	19.9397602081	0.947215139866
-45.2526168823	-2.67432689667	60.4171295166	-10.7017917633	20.2848472595	1.13013386726
-46.9586601257	-1.76174998283	65.0965118408	-10.9793891907	20.5571460724	1.27873814106
-47.1794586182	-1.14368021488	64.5025634766	-10.9455661774	20.739824295	1.36806190014
