-0.102931261063	1.17010521889	0.121712327003	-0.143731832504	1.71850728989	-0.197776317596
-0.102801084518	1.17141747475	0.122201085091	-0.143552303314	1.71742522717	-0.196314573288
-0.101938724518	1.17248272896	0.122669458389	-0.143435716629	1.71670567989	-0.195390939713
-0.101741313934	1.17158854008	0.122504353523	-0.143418312073	1.71656858921	-0.195072293282
-0.103109121323	1.16971969604	0.120674848557	-0.142601251602	1.7150374651	-0.194357156754
-0.105283975601	1.16613769531	0.116467833519	-0.140815258026	1.70954680443	-0.19282579422
-0.105957508087	1.16297745705	0.112585663795	-0.139472484589	1.70332789421	-0.190236091614
-0.10586977005	1.16262698174	0.110441923141	-0.138488531113	1.6990711689	-0.186903715134
-0.108863353729	1.16363739967	0.107186794281	-0.137408018112	1.69359779358	-0.184005260468
-0.112654685974	1.16728055477	0.102153897285	-0.135419130325	1.68725836277	-0.18142414093
-0.113387584686	1.17102444172	0.100430846214	-0.133295297623	1.68221461773	-0.179299354553
-0.113699436188	1.17202329636	0.100226044655	-0.131815910339	1.68023562431	-0.178270101547
-0.113052368164	1.17285323143	0.100948691368	-0.130886554718	1.68071937561	-0.178154468536
-0.113078594208	1.17358314991	0.100843667984	-0.129893302917	1.68135857582	-0.179268598557
