8.48183917999	-3.21596503258	0.30484738946	9.28803157806	6.13387203217	33.1317939758
8.29692173004	-3.29359102249	0.451823443174	9.04383945465	6.03041315079	32.9358100891
8.24677085876	-3.06234741211	0.383563667536	8.51245880127	5.64861440659	32.7537689209
6.56846284866	-2.99170994759	0.742901980877	6.56609582901	6.04048776627	31.6889076233
4.14066791534	-2.34268498421	0.404346495867	2.64224267006	7.94278240204	31.0271854401
0.971877038479	0.585187911987	-0.633926272392	-2.74191522598	11.0338220596	30.8219108582
-0.353246569633	1.16033089161	0.429766207933	-6.41067028046	12.8846387863	31.2134456635
-2.66340899467	1.40874803066	1.04340529442	-7.50003290176	13.6763687134	32.1193161011
-5.85748767853	2.39898395538	1.0613065958	-8.2279291153	15.0507230759	32.4556694031
-9.95614719391	5.53530359268	1.25361061096	-9.25465106964	17.0303382874	31.9850254059
-11.3513021469	8.14196586609	2.95139241219	-10.477232933	18.6013469696	30.8822040558
-13.0499353409	9.93004131317	3.92036104202	-10.5518798828	19.2423820496	30.2306861877
-15.2800416946	12.0784273148	3.26030349731	-9.84024047852	19.2689266205	29.9504795074
-18.4521942139	14.0508775711	3.05981850624	-9.13489341736	19.4610977173	29.4966125488
-19.546541214	16.0910205841	3.05999207497	-8.98541641235	19.9865379333	28.675151825
-19.7036876678	16.5443019867	2.85878300667	-9.39407253265	20.4792251587	27.4291210175
-19.6167488098	16.6965789795	2.82989954948	-9.22476291656	20.8428077698	26.9098205566
-19.2414932251	16.2857551575	2.56208562851	-8.54176616669	20.7753868103	26.7172489166
-18.6896324158	15.6191797256	2.89768576622	-7.97132444382	20.4234676361	25.843296051
-18.3779525757	15.5303573608	3.07019495964	-7.89855861664	20.2176876068	24.0600910187
-18.0983257294	15.1754932404	2.88155198097	-8.42307281494	20.2048454285	21.6463108063
-18.0429210663	15.1879644394	2.5815474987	-8.9497089386	20.325761795	18.8699264526
-18.1109752655	15.0035057068	2.18357157707	-8.88787555695	20.4459991455	17.0430698395
-19.7596721649	15.1145477295	2.40372514725	-8.63241100311	20.4180965424	16.5850906372
-23.3581027985	16.0268306732	3.73676109314	-8.62844657898	20.5843410492	16.7644538879
-24.3148670197	20.7598876953	1.79195702076	-8.5064125061	20.7487182617	16.7106494904
-23.396692276	23.3604660034	2.38966560364	-8.05285835266	20.7999382019	16.7599983215
-22.744644165	24.4892101288	2.91191267967	-7.77587223053	20.8472900391	16.8545475006
-22.1563549042	26.0419883728	3.89337110519	-7.36128759384	20.9530143738	16.8393802643
-21.2100601196	27.3035430908	5.3511390686	-6.59452390671	21.2278289795	16.8275737762
-22.6904067993	29.2825546265	6.99842166901	-5.882396698	21.3074493408	16.8390293121
-22.6559181213	31.1784000397	9.67429637909	-5.6424369812	21.4325809479	16.659954071
-17.820898056	32.4332847595	5.71234798431	-5.2437582016	21.6113681793	16.4145698547
-9.01039505005	32.1500091553	6.21774339676	-4.81075429916	21.7253437042	16.1854076385
-6.47906494141	32.7870483398	5.69832277298	-4.54048585892	22.0753669739	16.0502986908
-7.81885528564	33.2177047729	4.85559034348	-4.31746244431	22.4324474335	15.7489824295
-8.8750295639	34.2978401184	3.50653362274	-4.18122720718	22.7434635162	15.4320383072
