-0.11727309227	1.1662914753	0.0807259082794	-0.123852729797	1.71388816833	-0.235580325127
-0.11753487587	1.16582524776	0.0811837911606	-0.123295307159	1.71373414993	-0.23497068882
-0.117674589157	1.16646182537	0.0822691917419	-0.122683763504	1.71413779259	-0.233953475952
-0.119090080261	1.16728401184	0.0823440551758	-0.123024940491	1.7133834362	-0.231823921204
-0.121114492416	1.16682696342	0.0809066295624	-0.125841856003	1.71043992043	-0.227969765663
-0.122355699539	1.16137945652	0.0785341262817	-0.129290342331	1.70466685295	-0.222420215607
-0.124886512756	1.15751707554	0.0751168727875	-0.132777929306	1.69750535488	-0.216342926025
-0.127569198608	1.15521919727	0.0734014511108	-0.135621786118	1.68991410732	-0.209617137909
-0.129300832748	1.1548885107	0.0722043514252	-0.137840747833	1.68267965317	-0.202864289284
-0.12996673584	1.15249919891	0.0718555450439	-0.139127969742	1.67677509785	-0.19717669487
-0.130880832672	1.15031707287	0.0705777406693	-0.139591693878	1.67213082314	-0.191900253296
-0.134733915329	1.14819562435	0.0661153793335	-0.140301942825	1.66840934753	-0.188168168068
-0.137843608856	1.14802336693	0.0630123615265	-0.141230583191	1.66704654694	-0.185827851295
-0.14014339447	1.14909994602	0.0618057250977	-0.142405033112	1.66777122021	-0.184469938278
-0.142957925797	1.15095901489	0.0601321458817	-0.144434928894	1.66923439503	-0.184614300728
-0.146556138992	1.15152609348	0.0581254959106	-0.147115707397	1.67137014866	-0.185884714127
-0.151628017426	1.1516020298	0.0548007488251	-0.150100469589	1.67280590534	-0.187833786011
-0.156362771988	1.15376782417	0.0523127317429	-0.153001785278	1.67334806919	-0.189472675323
-0.158686637878	1.15793216228	0.0515899658203	-0.155385494232	1.6725924015	-0.190240621567
-0.158047914505	1.16071474552	0.0530035495758	-0.157257556915	1.6712679863	-0.190400838852
-0.156131267548	1.15875458717	0.0548580884933	-0.158169031143	1.67092978954	-0.190977215767
-0.154701948166	1.15732192993	0.0556395053864	-0.157845973969	1.67132389545	-0.192182779312
-0.154495000839	1.15685355663	0.0550332069397	-0.15637755394	1.67164230347	-0.194341897964
-0.153758525848	1.15526545048	0.0547916889191	-0.154985427856	1.67423415184	-0.197326421738
-0.152772665024	1.15406262875	0.0559486150742	-0.155083417892	1.6774469614	-0.201671361923
-0.153103351593	1.15580546856	0.0548224449158	-0.15571641922	1.67787373066	-0.205606222153
-0.154047489166	1.15873146057	0.0536687374115	-0.155853509903	1.67859137058	-0.207695364952
-0.154648542404	1.15801560879	0.053237080574	-0.154668331146	1.67808556557	-0.209674835205
