-27.1211929321	-15.9857330322	131.944778442	3.0082681179	-1.41203570366	-2.84470462799
-27.208978653	-16.080663681	132.01965332	3.36719942093	-1.53922855854	-3.1387796402
-27.32147789	-16.0536441803	132.078399658	3.62967252731	-1.58316540718	-3.35615611076
-26.7147865295	-15.5164833069	126.479980469	3.44014835358	-1.41299962997	-3.30794358253
-25.2712020874	-13.1174373627	112.283851624	3.14827823639	-0.7745885849	-3.19227218628
-25.5744819641	-11.1805095673	104.638504028	3.0508825779	-0.230676174164	-3.16053295135
-26.424577713	-10.3924303055	101.758460999	2.81193780899	0.0036330036819	-2.94408297539
-27.746761322	-10.0865402222	99.1461257935	1.70122826099	0.0705122277141	-2.19100832939
-29.3331356049	-9.84170913696	97.439704895	-1.02534639835	-0.234730288386	-0.595902502537
-29.3965072632	-9.41744232178	92.2406692505	-2.96471452713	-0.247092202306	0.261906802654
-29.9263038635	-8.68452453613	84.68019104	-3.42379641533	-0.131380781531	0.591030418873
-30.8493537903	-8.29315090179	80.1182250977	-3.50277400017	0.0740432888269	0.584158301353
-31.4593162537	-8.29200744629	77.2338409424	-3.47762203217	0.141507312655	0.399192065001
