11.6646699905	-2.39363050461	-0.435043215752	6.26780748367	3.31990814209	34.8578834534
11.6922187805	-2.61498379707	-0.309480220079	6.19948101044	3.29627513885	34.5838394165
11.8222770691	-2.57306432724	-0.305631160736	6.22757482529	3.25539779663	34.4186172485
11.3774728775	-2.99684453011	0.207629933953	5.79533576965	2.2339720726	33.7459068298
9.42803382874	-3.77220082283	1.6451343298	3.39333486557	-0.476187765598	31.0227088928
7.16668796539	-4.39757442474	2.80529022217	-0.198640137911	-3.45472788811	27.1341266632
5.01440286636	-5.51454877853	3.72786092758	-2.86416840553	-5.36671113968	24.4394454956
2.09914803505	-9.6606388092	4.26843976974	-4.57484102249	-6.88024997711	23.0370903015
-0.445581108332	-13.644194603	3.57642149925	-5.78624010086	-8.35328769684	21.0907211304
-1.1492497921	-14.5663585663	2.8914437294	-6.87454509735	-9.801030159	18.7728977203
-1.12740409374	-14.4957971573	3.0952796936	-7.84653568268	-10.4169492722	16.8701858521
-1.52285754681	-14.6662082672	3.35663509369	-8.37222766876	-10.3910856247	15.3319473267
-1.95603072643	-14.9586668015	3.70062375069	-8.92868041992	-9.76448249817	14.5558776855
-2.0730445385	-15.6082572937	3.91983127594	-9.21460723877	-8.95772743225	14.6536302567
-2.46398806572	-16.0361309052	4.1229224205	-8.88773441315	-7.77108812332	15.1026268005
-2.81858086586	-17.7067508698	4.25714921951	-8.81229305267	-7.41506910324	15.5307064056
-4.05751276016	-19.9594707489	4.56610822678	-8.72378444672	-7.12105703354	15.9456720352
-5.74821090698	-21.9812736511	4.15695524216	-8.46122932434	-6.80257081985	16.2500228882
-5.80163049698	-23.8456821442	2.90423750877	-8.30134963989	-6.53531122208	16.4540863037
-6.93426370621	-25.9257335663	2.76896691322	-8.0978937149	-6.53079128265	16.5190391541
-8.12615585327	-28.0578155518	2.4444937706	-7.83331871033	-6.59423828125	16.4191017151
-9.23287582397	-30.4476928711	2.15468883514	-7.68471622467	-6.49440383911	16.56133461
-10.3512992859	-31.9586353302	1.66477632523	-7.62745571136	-6.35100221634	16.5831871033
-10.5929689407	-33.2149734497	1.50765216351	-7.49795341492	-6.26099157333	16.420715332
-10.2907314301	-34.2887802124	0.540426433086	-7.39335775375	-6.17167377472	16.3329086304
