0.0	-0.0	130.505584717	47.8646316528	89.3079528809	-13.7210578918
0.0	-0.0	130.315338135	47.8116378784	89.1715316772	-13.325881958
0.0	-0.0	130.451049805	47.927406311	89.1093521118	-13.3132171631
0.0	-0.0	130.493713379	48.139831543	89.0725708008	-13.438615799
0.0	-0.0	129.918807983	48.5668563843	88.4521942139	-13.3491592407
0.0	-0.0	118.971115112	49.1188850403	87.2705612183	-13.5210914612
0.0	-0.0	110.700294495	50.0975646973	84.0353164673	-14.2675466537
0.0	-0.0	105.060508728	52.4257354736	73.9937210083	-15.1173906326
0.0	-0.0	99.6360473633	55.3089065552	61.1341629028	-17.2440757751
0.0	-0.0	95.1737823486	58.5903930664	51.7516326904	-19.5412368774
0.0	-0.0	91.9508361816	62.6688690186	43.8551368713	-21.6053009033
0.0	-0.0	87.5998764038	67.7396697998	35.4385795593	-24.6767196655
