0.0507962703705	1.33733010292	0.222074151039	-0.00539374351501	1.87299871445	-0.151386141777
0.0515596866608	1.33687317371	0.222385883331	-0.00479412078857	1.87319350243	-0.150307178497
0.0528979301453	1.33683097363	0.222551703453	-0.00371503829956	1.87309086323	-0.149198532104
0.0533955097198	1.33715486526	0.222456812859	-0.00244808197021	1.87354362011	-0.147973299026
0.0442245006561	1.33817136288	0.217775940895	-0.00196504592896	1.87554442883	-0.146903991699
0.028272151947	1.34012711048	0.206368088722	-0.00332832336426	1.88021826744	-0.146261930466
0.0164313316345	1.34374415874	0.198653936386	-0.00551652908325	1.8870767355	-0.146235704422
0.0089066028595	1.34743070602	0.196132898331	-0.00832724571228	1.89367461205	-0.147494077682
-0.000296354293823	1.35309147835	0.190103054047	-0.0114305019379	1.90015983582	-0.149371623993
-0.00648355484009	1.3577464819	0.183949589729	-0.0130851268768	1.9065476656	-0.152099609375
-0.00874018669128	1.36147558689	0.180287718773	-0.0129165649414	1.91103839874	-0.156784534454
-0.00977158546448	1.36367440224	0.180375337601	-0.0114233493805	1.91314184666	-0.160244226456
-0.00909924507141	1.36742687225	0.181210756302	-0.0097336769104	1.91315770149	-0.161054611206
-0.00782251358032	1.36874294281	0.183448314667	-0.00834059715271	1.91295528412	-0.160112380981
