-0.158730983734	1.15600085258	0.101506471634	-0.113600492477	1.72422671318	-0.199658155441
-0.159360170364	1.15562605858	0.101463794708	-0.113350629807	1.72425293922	-0.199058771133
-0.16033244133	1.15572249889	0.10090470314	-0.113540172577	1.72558367252	-0.198667645454
-0.164665699005	1.15357851982	0.0972834825516	-0.114839553833	1.73315107822	-0.199356794357
-0.167386054993	1.14902698994	0.096408367157	-0.116577863693	1.7426353693	-0.201867580414
-0.168771743774	1.14706611633	0.098203420639	-0.117262840271	1.75164103508	-0.205317497253
-0.171624898911	1.14697980881	0.0990047454834	-0.116103410721	1.75704431534	-0.208996415138
-0.175091505051	1.14917981625	0.0985958576202	-0.113700389862	1.75940668583	-0.211194992065
-0.17701458931	1.15272164345	0.0991321802139	-0.111325979233	1.75990021229	-0.2121925354
-0.177668094635	1.15554642677	0.100460886955	-0.111036062241	1.75976109505	-0.212481498718
-0.178130149841	1.1567606926	0.101417064667	-0.112169265747	1.75978899002	-0.21213555336
-0.179368972778	1.15587854385	0.100428342819	-0.113672971725	1.76021623611	-0.211903572083
-0.180622339249	1.15418672562	0.0992047786713	-0.114835500717	1.76031124592	-0.211687088013
