0.0	-0.0	140.665130615	60.7375450134	81.9507904053	-16.3503665924
0.0	-0.0	140.180892944	60.6186943054	81.6566467285	-16.3252086639
0.0	-0.0	139.150436401	60.7124671936	81.6498718262	-16.4188899994
0.0	-0.0	137.947631836	63.7330627441	82.1502990723	-16.6250762939
0.0	-0.0	136.590652466	68.5437088013	84.9364700317	-17.7729320526
0.0	-0.0	137.168380737	-105.760238647	87.9602432251	160.732833862
0.0	-0.0	137.455062866	-100.516418457	78.1423339844	159.585388184
0.0	-0.0	137.83631897	-95.0606002808	68.6958007812	157.967391968
0.0	-0.0	137.476730347	-88.8960266113	61.3588905334	156.052856445
0.0	-0.0	132.530303955	-83.8105163574	57.6656265259	153.749526978
0.0	-0.0	120.105941772	-80.6483001709	54.8164672852	151.643096924
0.0	-0.0	110.361549377	-79.6530761719	53.9932670593	151.330947876
0.0	-0.0	105.33984375	-80.8286437988	54.5960998535	151.604553223
0.0	-0.0	103.981483459	-82.1960220337	55.6672363281	152.37638855
0.0	-0.0	102.853729248	-83.0534591675	56.6515655518	153.813903809
