-26.6997909546	-12.5629634857	133.986053467	1.72390723228	-0.11671115458	-5.18955373764
-26.7903022766	-12.6185884476	134.542449951	1.52688169479	-0.127747803926	-5.2146487236
-26.8828315735	-12.5570230484	134.138717651	1.59689891338	-0.0474655516446	-5.19114303589
-25.2105121613	-13.5715970993	125.353111267	2.69674777985	-0.0846804380417	-5.13160276413
-20.9566001892	-12.1773290634	101.535850525	5.94732999802	0.128100901842	-5.1870598793
-19.5475845337	-10.9198350906	88.4458465576	9.92992115021	0.352954447269	-5.44035625458
-18.0760002136	-10.0648298264	80.6593322754	13.5196638107	0.587043464184	-5.70999765396
