-0.0811228752136	1.13784968853	0.0907344818115	-0.122306108475	1.71793138981	-0.224071741104
-0.0810508728027	1.13955712318	0.0923464298248	-0.122925043106	1.7185189724	-0.22407412529
-0.0826740264893	1.1400604248	0.0923240184784	-0.123651981354	1.71867609024	-0.223663568497
-0.0888242721558	1.13672947884	0.0891250371933	-0.126520395279	1.71651756763	-0.22195982933
-0.1007335186	1.12734675407	0.0777118206024	-0.131857395172	1.71182346344	-0.218394994736
-0.111602306366	1.1179407835	0.0646920204163	-0.138722419739	1.70499229431	-0.213484406471
-0.120843172073	1.11087679863	0.0539724826813	-0.145614147186	1.69645559788	-0.208464384079
-0.130029678345	1.10641539097	0.0429644584656	-0.150704622269	1.68720185757	-0.203832507133
-0.137653589249	1.1048207283	0.0324521064758	-0.153386116028	1.67883598804	-0.199543237686
-0.140616416931	1.10246062279	0.0274369716644	-0.154003143311	1.6738550663	-0.195692539215
-0.140743494034	1.10111761093	0.0276217460632	-0.153153896332	1.67118310928	-0.19283747673
-0.140313625336	1.10276079178	0.0286091566086	-0.151686668396	1.6682690382	-0.191414833069
-0.139813423157	1.10435652733	0.0280319452286	-0.150622367859	1.66634857655	-0.190871238708
-0.139617681503	1.10301876068	0.0266299247742	-0.150434970856	1.66660892963	-0.190630912781
-0.1398832798	1.10202121735	0.026747584343	-0.15088558197	1.66676855087	-0.191074132919
-0.140657186508	1.10314667225	0.0269718170166	-0.151427268982	1.66683757305	-0.191455602646
-0.141049861908	1.1031819582	0.0262117385864	-0.15199804306	1.66551661491	-0.192260503769
-0.139510154724	1.10036981106	0.0266159772873	-0.152364969254	1.66153156757	-0.193411111832
-0.137008666992	1.09906482697	0.0281674861908	-0.152510643005	1.6557290554	-0.194843769073
-0.134608983994	1.09795737267	0.0300000905991	-0.151818037033	1.65540969372	-0.194432735443
-0.134443759918	1.09740960598	0.0289354324341	-0.150792121887	1.65546894073	-0.194868087769
-0.134420394897	1.09740436077	0.0250034332275	-0.150726079941	1.65517926216	-0.195501685143
-0.131870746613	1.09505474567	0.0239382982254	-0.151599407196	1.65525770187	-0.19658613205
-0.129546403885	1.09178876877	0.0233972072601	-0.151532888412	1.65454351902	-0.198682069778
-0.128971338272	1.09106397629	0.0205038785934	-0.150552272797	1.65222477913	-0.200854301453
-0.125471830368	1.09149873257	0.0181955099106	-0.147954463959	1.64913117886	-0.20276927948
-0.115918159485	1.08571028709	0.0185546875	-0.142789363861	1.64970970154	-0.203065156937
-0.105088472366	1.07997250557	0.0184202194214	-0.136132001877	1.6513838768	-0.202957749367
-0.0948271751404	1.07658815384	0.0191919803619	-0.129973649979	1.65384888649	-0.202951908112
-0.0932674407959	1.08797132969	0.0156254768372	-0.126115083694	1.65985286236	-0.203605890274
-0.0936532020569	1.0988560915	0.0148844718933	-0.125034809113	1.66905593872	-0.204948186874
-0.0958614349365	1.10248076916	0.0190340280533	-0.124777317047	1.67719912529	-0.207581758499
-0.0995216369629	1.10588181019	0.0246356725693	-0.126439571381	1.68035840988	-0.21147441864
-0.10516166687	1.11227977276	0.0264520645142	-0.130375862122	1.67863976955	-0.214754104614
-0.110086917877	1.11759138107	0.0261244773865	-0.1350274086	1.67589187622	-0.216204285622
-0.112234115601	1.11978185177	0.0272467136383	-0.138157844543	1.67369294167	-0.217188596725
-0.113896846771	1.12081110477	0.0280163288116	-0.138339519501	1.67228484154	-0.21871304512
-0.115203380585	1.12431812286	0.0281391143799	-0.135857105255	1.67136895657	-0.221991062164
-0.116775274277	1.12851393223	0.0250120162964	-0.132997989655	1.669272542	-0.227288246155
-0.117214441299	1.13288128376	0.0217072963715	-0.130745172501	1.66759073734	-0.233775138855
-0.11732172966	1.13481545448	0.0165514945984	-0.12931227684	1.66628670692	-0.240988254547
-0.117086410522	1.13460898399	0.00969219207764	-0.127729892731	1.66690325737	-0.246883749962
-0.115526437759	1.13322520256	0.00352323055267	-0.125517129898	1.66766750813	-0.251309633255
-0.114531993866	1.13161456585	-0.00193619728088	-0.12316775322	1.66827070713	-0.255110502243
-0.115019083023	1.13093709946	-0.00835192203522	-0.121988296509	1.66846907139	-0.258999824524
-0.115388393402	1.13128745556	-0.0118095874786	-0.123110532761	1.66847336292	-0.262449741364
-0.116140127182	1.13245844841	-0.0127294063568	-0.124789237976	1.66730034351	-0.265245676041
-0.118491411209	1.13261449337	-0.015008687973	-0.125427484512	1.66394019127	-0.267538547516
-0.120039463043	1.13384652138	-0.015615940094	-0.12476682663	1.65918898582	-0.268488407135
-0.119985580444	1.13659143448	-0.0128877162933	-0.123767852783	1.65674328804	-0.26829624176
-0.121251106262	1.13621342182	-0.0121635198593	-0.118087053299	1.65827560425	-0.266740322113
-0.122326374054	1.13616251945	-0.0129225254059	-0.112073421478	1.65617954731	-0.266059398651
-0.120901107788	1.13954150677	-0.0135935544968	-0.112371444702	1.65143454075	-0.266270875931
-0.118219614029	1.13995218277	-0.0124170780182	-0.113323926926	1.64919376373	-0.26543366909
-0.116749286652	1.13771855831	-0.0125826597214	-0.11142873764	1.64959132671	-0.263245105743
-0.11675286293	1.13490557671	-0.0119636058807	-0.106411933899	1.65217232704	-0.260407686234
-0.118139505386	1.13518643379	-0.0107116699219	-0.101517677307	1.65452480316	-0.25744342804
-0.118830442429	1.13564813137	-0.00968933105469	-0.096529006958	1.65414190292	-0.255083799362
-0.118158817291	1.13576245308	-0.00745332241058	-0.0916299819946	1.65425539017	-0.25171148777
-0.116868019104	1.13386201859	-0.0060715675354	-0.0893511772156	1.65492761135	-0.248720645905
-0.115253210068	1.13266479969	-0.00400400161743	-0.0891501903534	1.65612185001	-0.24645447731
-0.114631652832	1.13233530521	-0.00175356864929	-0.0882713794708	1.65731728077	-0.245624184608
-0.115688323975	1.13307404518	0.000848531723022	-0.0880656242371	1.65815448761	-0.246183395386
-0.118359088898	1.13345861435	0.00270009040833	-0.08988904953	1.6613150835	-0.246857404709
-0.120808601379	1.1345719099	0.00431060791016	-0.091726064682	1.66448700428	-0.247480630875
-0.122343540192	1.13493645191	0.00601971149445	-0.0953555107117	1.66659224033	-0.247393250465
-0.123267412186	1.13455891609	0.00669693946838	-0.0999279022217	1.66719210148	-0.246764421463
-0.124719142914	1.13037180901	0.00643789768219	-0.103264570236	1.66767036915	-0.245339035988
-0.125894069672	1.12613642216	0.00686240196228	-0.104818344116	1.66764187813	-0.243682861328
-0.12589597702	1.12262701988	0.00989007949829	-0.104799032211	1.6672334671	-0.241823077202
-0.126271486282	1.12144649029	0.0111362934113	-0.104138374329	1.66613233089	-0.240444898605
-0.126703977585	1.12258863449	0.012421131134	-0.104034900665	1.66473889351	-0.239818096161
-0.12712264061	1.12257146835	0.0137202739716	-0.104448318481	1.66406536102	-0.239518761635
-0.127770900726	1.12225794792	0.0143508911133	-0.103957891464	1.66356277466	-0.23984849453
-0.127882480621	1.12409329414	0.0145540237427	-0.10304069519	1.6626945734	-0.240691423416
-0.126972436905	1.12595951557	0.015611410141	-0.10161781311	1.66242349148	-0.242446422577
-0.125651597977	1.12668454647	0.0153720378876	-0.098005771637	1.66201472282	-0.244842648506
