0.0	-0.0	136.138763428	-116.710571289	88.1524047852	174.767089844
0.0	-0.0	136.029678345	-116.633544922	88.6110458374	174.715576172
0.0	-0.0	135.745758057	-116.848388672	89.1628723145	174.62461853
0.0	-0.0	132.016479492	63.6117324829	87.0967178345	-4.74339723587
0.0	-0.0	120.358886719	64.7379684448	75.310218811	-3.39365744591
0.0	-0.0	109.213409424	65.1321258545	61.9327659607	-2.66062068939
0.0	-0.0	97.5711212158	66.1729431152	51.751739502	-2.37771582603
0.0	-0.0	83.1584701538	68.4054260254	45.1094169617	-2.95407056808
0.0	-0.0	73.5050048828	70.0229415894	40.7914161682	-3.80366110802
0.0	-0.0	67.7176055908	70.2623977661	37.3130683899	-4.26173400879
0.0	-0.0	59.2794914246	70.7569351196	33.8303871155	-4.84932804108
0.0	-0.0	53.0985603333	72.1275177002	30.2990379333	-6.06373977661
0.0	-0.0	47.9867019653	73.7362136841	28.1055297852	-6.99067687988
0.0	-0.0	54.9241447449	74.3365936279	28.0942783356	-7.39918375015
0.0	-0.0	62.1445846558	74.6717224121	28.5254173279	-7.47805213928
0.0	-0.0	66.2564620972	75.1873168945	29.9996376038	-7.85712957382
0.0	-0.0	68.4087219238	77.3413085938	30.9201641083	-9.30195331573
