0.0	-0.0	132.809860229	-127.398956299	88.5813827515	170.307052612
0.0	-0.0	132.285568237	-127.014038086	87.9570999146	169.745819092
0.0	-0.0	132.072021484	-126.394485474	88.9935455322	168.721725464
0.0	-0.0	131.740005493	-126.330322266	89.669631958	168.791610718
0.0	-0.0	130.984558105	-127.363143921	86.4922180176	169.244598389
0.0	-0.0	130.768157959	-128.861038208	74.7690811157	169.323486328
0.0	-0.0	130.632873535	-128.983413696	54.9344100952	169.594436646
0.0	-0.0	130.089645386	-126.21900177	32.136554718	171.111846924
0.0	-0.0	129.485748291	-122.657714844	18.6859989166	172.51210022
0.0	-0.0	126.33354187	-121.495094299	13.2932786942	171.467849731
0.0	-0.0	116.415328979	-121.431304932	12.0808105469	169.432800293
0.0	-0.0	106.563026428	-121.357810974	10.0435295105	168.300857544
0.0	-0.0	105.062438965	-121.444229126	8.84272575378	167.459854126
0.0	-0.0	99.3929214478	-121.646942139	9.40818500519	166.509231567
0.0	-0.0	95.2099685669	-121.742790222	9.55980205536	166.031646729
0.0	-0.0	91.574508667	-121.949584961	9.73309707642	165.672332764
0.0	-0.0	91.9494552612	-122.108482361	10.0577630997	165.169311523
0.0	-0.0	91.9769744873	-121.280052185	10.5256853104	164.848129272
