0.0	-0.0	131.394515991	67.7383728027	87.0775222778	4.4717912674
0.0	-0.0	130.845016479	67.6159744263	86.7597885132	4.57557868958
0.0	-0.0	130.228668213	67.1946487427	86.321647644	4.70202064514
0.0	-0.0	125.295394897	68.2424316406	85.8906097412	4.26817941666
0.0	-0.0	111.360328674	71.1517028809	84.3406906128	4.4807882309
0.0	-0.0	94.0346679688	74.7047958374	83.5107040405	4.56551408768
0.0	-0.0	81.5867538452	75.9359588623	83.4418106079	4.12508487701
0.0	-0.0	69.8942565918	75.6515960693	83.4913635254	4.21496725082
0.0	-0.0	59.7669067383	75.1843643188	83.9969406128	4.66644859314
0.0	-0.0	54.1103515625	74.7516174316	84.4957885742	4.75382518768
0.0	-0.0	44.7546653748	73.7623672485	83.9528656006	5.23012208939
0.0	-0.0	30.0881195068	73.3432235718	84.0721969604	5.64526700974
0.0	-0.0	20.3895111084	72.6583404541	84.4890518188	5.57188367844
0.0	-0.0	11.6250343323	71.8373947144	84.5164642334	4.94732904434
0.0	-0.0	3.39179468155	71.3160476685	84.6837692261	3.57127857208
0.0	0.0	-4.6876950264	71.5124282837	84.5950317383	2.94226908684
0.0	0.0	-12.2785606384	69.6608810425	85.1593170166	3.12510299683
0.0	0.0	-15.0537052155	61.8414764404	86.7275466919	2.43263506889
0.0	0.0	-13.3083028793	54.3896598816	88.7422027588	-0.0497227013111
0.0	0.0	-11.7210788727	50.2107200623	89.6210327148	-2.82452487946
0.0	0.0	-12.0399084091	53.2642974854	89.6073379517	-2.95837378502
0.0	0.0	-15.0189647675	57.3850746155	88.6608886719	-0.944154977798
0.0	0.0	-20.0192661285	56.7521820068	89.192527771	-0.391528517008
0.0	0.0	-19.5156955719	55.0285797119	89.669708252	-1.01422548294
0.0	0.0	-18.8828029633	49.8234367371	89.9744644165	-2.12290787697
0.0	0.0	-18.2826709747	-137.317749023	89.1279983521	176.780151367
0.0	0.0	-17.6115493774	-143.365005493	87.7699813843	177.447479248
0.0	0.0	-17.2422027588	-146.147399902	87.6334533691	177.962203979
0.0	0.0	-18.4058456421	-147.900695801	87.203086853	178.465744019
0.0	0.0	-19.6581554413	-150.122467041	87.612701416	179.532028198
0.0	0.0	-24.1616153717	-153.028930664	87.8384857178	178.951522827
0.0	0.0	-35.1423301697	-153.435699463	87.8171157837	179.095535278
0.0	0.0	-40.9264030457	-153.890075684	88.131477356	179.723373413
0.0	0.0	-38.92552948	-153.916503906	87.5942077637	179.198684692
0.0	0.0	-42.4041862488	-153.713302612	87.1892242432	177.538574219
0.0	0.0	-42.4142150879	-146.592727661	86.8622055054	176.407592773
0.0	0.0	-44.5399932861	-141.100250244	88.2281951904	177.149169922
0.0	0.0	-45.8875694275	-145.235855103	89.3693695068	175.844024658
