-23.3067111969	-18.0104122162	132.376922607	2.71317100525	0.6810978055	-4.44895410538
-23.5930519104	-18.2385902405	132.563217163	2.73560595512	0.66052532196	-4.41751146317
-23.6336097717	-18.558588028	132.815933228	2.62330555916	0.445717096329	-4.45451545715
-23.7033615112	-18.9804573059	130.946365356	2.87872838974	0.0499713979661	-4.65779352188
-23.0110149384	-19.5189247131	124.567733765	3.26541781425	-1.261272192	-4.83634328842
-21.0236873627	-19.4505004883	114.947425842	4.54211425781	-4.78139686584	-5.26354026794
-19.910861969	-19.6700706482	108.972824097	6.38209104538	-10.280046463	-5.79494714737
-19.5554542542	-19.9613037109	107.297843933	7.61799144745	-14.7796926498	-6.78676462173
-18.7784252167	-20.3258590698	104.159431458	9.21894073486	-17.9006996155	-7.52092456818
-18.0186080933	-20.366563797	98.880317688	11.5254001617	-20.6733970642	-8.52108001709
-16.4833126068	-20.1710453033	93.0542144775	13.4158525467	-22.5283241272	-9.45962238312
-15.6510181427	-20.0472068787	89.9748382568	14.002820015	-22.6820373535	-9.67267417908
-15.5852136612	-20.274225235	90.3240203857	13.7417097092	-21.9633235931	-9.45557117462
-15.648059845	-19.9166545868	88.7689285278	13.4093141556	-21.4129829407	-9.18635082245
-15.4325170517	-19.0260658264	84.7661132812	13.1099462509	-21.2835121155	-8.97164154053
-15.3956270218	-18.5830574036	82.8567352295	12.9577474594	-21.5307769775	-8.89593887329
-15.4406766891	-17.8900947571	79.0940093994	12.9286546707	-21.5229816437	-8.84768772125
-15.089600563	-16.1077690125	70.1729812622	12.7770290375	-21.218996048	-8.61481952667
-15.4420051575	-14.8192186356	65.0561523438	12.4717569351	-20.2877006531	-8.33934497833
-15.6700897217	-14.4627313614	65.3514099121	11.3083248138	-18.2749824524	-7.42150640488
-16.0802669525	-14.7238693237	66.8485412598	9.13652706146	-15.8559322357	-5.89171791077
-16.5628108978	-14.8812351227	68.4316253662	7.80315160751	-14.9682302475	-4.73416423798
-16.9651794434	-14.6087903976	69.1986694336	7.40214633942	-15.3022632599	-4.36280441284
-16.87317276	-14.6986722946	69.4535522461	7.61080884933	-15.684220314	-4.51704216003
-16.40666008	-14.9926586151	69.7069091797	8.24233150482	-15.7955064774	-4.57928085327
-16.2903366089	-15.0233688354	70.4471588135	8.66317367554	-16.0707740784	-4.90081310272
-16.5511703491	-15.1388998032	72.3928451538	8.6218290329	-16.8211288452	-4.92821216583
-16.2599163055	-15.2196817398	72.6832962036	8.31604099274	-18.1791553497	-4.51200199127
-16.2941207886	-15.5134887695	73.4216766357	8.2727022171	-19.3468494415	-4.26077795029
-16.0965099335	-15.7480611801	73.8129882812	9.15765571594	-20.1703052521	-4.62581586838
