0.0	-0.0	140.96647644	55.0183486938	87.844039917	-12.5794668198
0.0	-0.0	140.823410034	54.7534866333	88.3724060059	-12.3417959213
0.0	-0.0	140.410690308	53.7692565918	88.1217575073	-11.7853870392
0.0	-0.0	139.766189575	53.6280632019	86.1567306519	-11.0613298416
0.0	-0.0	138.858276367	60.428276062	80.8568954468	-10.3909749985
0.0	-0.0	138.612030029	72.4192504883	77.4487609863	-11.7098846436
0.0	-0.0	138.811981201	82.1219558716	75.4347839355	-14.005736351
0.0	-0.0	137.892837524	93.816192627	68.1203460693	-14.9698934555
0.0	-0.0	136.093399048	109.441108704	58.4059295654	-16.6924743652
0.0	-0.0	134.419189453	114.064445496	55.1173362732	-19.9250240326
0.0	-0.0	133.21055603	112.941421509	56.9261169434	-20.1331634521
0.0	-0.0	125.966491699	112.789886475	57.94688797	-19.1926403046
0.0	-0.0	118.905395508	112.990242004	57.2461357117	-19.4575710297
0.0	-0.0	112.990951538	114.7762146	56.8640518188	-20.4409313202
0.0	-0.0	111.108482361	115.906982422	56.7896156311	-21.1317100525
0.0	-0.0	108.434799194	115.775619507	56.4329299927	-20.9108314514
0.0	-0.0	106.15839386	114.166603088	55.729724884	-20.1687335968
0.0	-0.0	103.843925476	110.556266785	56.5385017395	-19.0812530518
0.0	-0.0	104.206573486	106.198623657	60.587146759	-17.9039497375
0.0	-0.0	103.570472717	108.018005371	61.2960739136	-17.9544582367
0.0	-0.0	103.454376221	109.244422913	61.7618408203	-18.4392051697
0.0	-0.0	102.501953125	109.62702179	61.9125747681	-18.514995575
0.0	-0.0	101.144927979	108.386245728	61.6357345581	-18.3027763367
