0.0	-0.0	137.414627075	50.5837478638	78.3094711304	-14.1574611664
0.0	-0.0	137.419540405	50.3166694641	78.6262741089	-13.9995546341
0.0	-0.0	137.548034668	50.341091156	79.330329895	-14.0913562775
0.0	-0.0	137.595932007	52.3062553406	79.3003158569	-13.9916276932
0.0	-0.0	137.361618042	63.1596450806	76.2454299927	-13.7092208862
0.0	-0.0	136.452774048	80.3034973145	71.6972427368	-12.7469596863
0.0	-0.0	136.507446289	92.7667999268	67.8421096802	-12.8261346817
0.0	-0.0	136.257019043	95.131652832	65.4008255005	-13.2510585785
0.0	-0.0	133.292922974	91.5720062256	63.6506767273	-12.1009273529
0.0	-0.0	127.596839905	90.1994400024	61.8308410645	-9.6532087326
0.0	-0.0	119.820289612	89.7469558716	60.9690933228	-8.13391304016
0.0	-0.0	117.530647278	90.4401016235	60.9053726196	-7.68502807617
0.0	-0.0	111.278457642	91.6022567749	61.5567817688	-7.28974628448
0.0	-0.0	106.935516357	92.8165817261	62.0436019897	-6.29490041733
0.0	-0.0	101.840354919	93.0289154053	61.9996414185	-5.92482709885
0.0	-0.0	100.283508301	93.0811157227	61.9625282288	-5.8204407692
0.0	-0.0	95.1447677612	93.6974945068	61.9954452515	-5.02609777451
0.0	-0.0	93.5492706299	93.504447937	61.139793396	-4.02961874008
0.0	-0.0	92.1377105713	94.5449752808	60.1833190918	-3.53884482384
0.0	-0.0	92.3684997559	96.4810028076	59.9686317444	-3.64078068733
0.0	-0.0	91.2945327759	98.6916885376	59.8994140625	-3.81254553795
0.0	-0.0	88.9518356323	99.8232955933	59.8066749573	-3.70195174217
0.0	-0.0	86.1614303589	99.6506652832	59.3646659851	-2.64895629883
0.0	-0.0	85.8153839111	99.1765518188	58.6041030884	-1.22461688519
0.0	-0.0	85.4012527466	98.5564041138	58.3619308472	0.151856392622
0.0	-0.0	84.7350769043	99.5314559937	58.7273101807	0.381464630365
0.0	-0.0	83.1446380615	101.781059265	59.2551078796	0.0837670639157
0.0	-0.0	79.9424743652	103.067565918	59.6973228455	0.0247318297625
0.0	-0.0	77.293182373	102.521705627	59.5715522766	0.275761783123
0.0	-0.0	76.7517700195	101.542198181	59.6441497803	0.483487993479
0.0	-0.0	76.148979187	101.370986938	60.2579421997	0.552484810352
0.0	-0.0	77.0774002075	101.420402527	62.1408805847	0.714529514313
0.0	-0.0	79.0360717773	101.240447998	64.9831085205	2.12998390198
0.0	-0.0	79.6580352783	100.720207214	67.521446228	4.88778686523
0.0	-0.0	80.5776824951	100.433036804	68.0583267212	6.84448099136
0.0	-0.0	81.3102264404	102.093063354	66.4607543945	6.70458745956
0.0	-0.0	80.4982528687	102.4402771	64.9047317505	5.61044454575
0.0	-0.0	80.8946228027	102.581077576	63.4384117126	3.35071635246
0.0	-0.0	85.6960754395	103.208061218	63.0465240479	2.06453537941
0.0	-0.0	85.2842330933	103.155403137	64.1516647339	2.61175203323
0.0	-0.0	85.809715271	102.479667664	65.3814239502	2.95108747482
0.0	-0.0	85.5537490845	102.016479492	66.5835494995	3.47403669357
0.0	-0.0	85.8370819092	102.24786377	67.1539230347	3.92661714554
0.0	-0.0	88.1427841187	102.326599121	67.2303619385	3.77478981018
0.0	-0.0	92.8126678467	103.259056091	66.5111465454	2.76120901108
0.0	-0.0	93.0843582153	105.547554016	65.6208877563	0.722209990025
