-0.0878551006317	1.14013206959	0.098436832428	-0.126575469971	1.720459342	-0.209365844727
-0.087014913559	1.14013719559	0.0988117456436	-0.126620292664	1.72044587135	-0.209609031677
-0.0877430438995	1.140660882	0.097758769989	-0.126912593842	1.72040832043	-0.210018515587
-0.0914077758789	1.14007890224	0.0951764583588	-0.128501176834	1.71998715401	-0.210049390793
-0.0987184047699	1.13721835613	0.0889456272125	-0.132399082184	1.71739900112	-0.209712743759
-0.105349302292	1.13357102871	0.0816736221313	-0.137833833694	1.71174788475	-0.208280563354
-0.110158920288	1.12969613075	0.0748854875565	-0.143041133881	1.70646417141	-0.206077575684
-0.116632938385	1.12529373169	0.0666601657867	-0.147192716599	1.70123791695	-0.204083800316
-0.122257232666	1.11913216114	0.0571615695953	-0.14940071106	1.69494819641	-0.20207464695
-0.125778675079	1.11503076553	0.0499076843262	-0.150046348572	1.6886934042	-0.199498772621
-0.128766775131	1.11504197121	0.0422484874725	-0.150431156158	1.68352675438	-0.198061466217
-0.130605697632	1.11329936981	0.0361573696136	-0.150936841965	1.67974233627	-0.197126626968
-0.130272388458	1.1116963625	0.0332794189453	-0.151573419571	1.67657387257	-0.196511030197
-0.130010128021	1.10761427879	0.0305271148682	-0.152273416519	1.67449164391	-0.196622490883
-0.130380868912	1.10296940804	0.0265028476715	-0.152493715286	1.67296636105	-0.196609973907
-0.130857229233	1.09878754616	0.0220477581024	-0.152220964432	1.67124044895	-0.196957826614
-0.1291680336	1.09884083271	0.0207271575928	-0.151997566223	1.67095077038	-0.196946620941
-0.126225948334	1.10100507736	0.0219159126282	-0.152112007141	1.67059493065	-0.197079896927
-0.125699520111	1.09945273399	0.0195965766907	-0.152495145798	1.66975665092	-0.197412014008
-0.123684167862	1.09526693821	0.0211281776428	-0.153494358063	1.66980707645	-0.198006987572
-0.121353626251	1.09155213833	0.024765253067	-0.154544830322	1.67008376122	-0.198581457138
-0.12078166008	1.0903648138	0.0273003578186	-0.155220985413	1.6689054966	-0.199053287506
-0.121358394623	1.0874465704	0.0229547023773	-0.156512498856	1.66556417942	-0.199129581451
-0.118881702423	1.08620607853	0.0167201757431	-0.158574342728	1.66051864624	-0.1988530159
-0.112432479858	1.08375513554	0.0138387680054	-0.158934593201	1.6557636261	-0.198364019394
-0.106422424316	1.08063650131	0.0171420574188	-0.157406568527	1.65457129478	-0.197631239891
-0.10524892807	1.07837867737	0.0210375785828	-0.154074668884	1.65354287624	-0.19693005085
-0.107020378113	1.07540047169	0.0191969871521	-0.151474475861	1.65197432041	-0.196161627769
-0.108732938766	1.07616996765	0.0149247646332	-0.150337219238	1.65320813656	-0.195034742355
-0.109130620956	1.0757958889	0.015212059021	-0.149604320526	1.6546741724	-0.19389975071
-0.109166145325	1.07502698898	0.0201933383942	-0.149504423141	1.65614259243	-0.192484140396
