8.80645751953	-1.65500044823	-3.33597064018	11.0990171432	-3.94098639488	35.0319900513
8.67353439331	-1.50963246822	-3.17188119888	10.9457406998	-3.87509799004	35.0463294983
8.87115287781	-1.62297058105	-3.15113043785	10.8191690445	-3.96052479744	34.9019012451
8.75663566589	-1.54114079475	-3.40681552887	10.2867441177	-3.78841972351	34.6461486816
8.25713062286	-1.81571280956	-3.29809808731	8.51556777954	-3.90267825127	33.0612792969
7.62193393707	-2.11287021637	-3.14911818504	4.73099708557	-3.09772992134	29.5659046173
7.41977405548	-2.37892842293	-3.04492974281	-0.233182474971	-0.631771922112	25.6321144104
7.00289583206	-2.66703009605	-3.09905099869	-3.28130555153	2.10835599899	22.1803321838
6.75418329239	-2.78770184517	-3.20160651207	-3.96866416931	3.63392806053	20.5514163971
6.4328327179	-2.48304724693	-2.92496824265	-3.79987025261	4.89254331589	20.3288459778
5.42952537537	-1.58407318592	-2.9342546463	-3.68072867393	5.64730405807	20.9169101715
5.08663797379	0.782300770283	-3.55757641792	-3.40408754349	6.29685544968	21.4422721863
2.69175291061	6.35956478119	-5.16858005524	-3.53806829453	8.37830543518	22.8793087006
-0.0948805958033	9.22739601135	-4.18513345718	-4.61598348618	11.5746898651	24.6575031281
-3.18389987946	12.4539966583	-2.62406682968	-6.47417068481	14.576628685	26.0783519745
-6.78761577606	17.4755592346	-5.02443552017	-8.01378822327	16.7324390411	27.165643692
-10.0071439743	20.4687461853	-5.30815649033	-8.2667722702	17.7933654785	27.6619625092
-13.7340068817	25.9488544464	-5.41904830933	-8.11497211456	18.6732616425	27.7538261414
-16.6314258575	29.6512336731	-7.58945655823	-7.85168552399	19.2157554626	27.7395343781
-16.5186100006	31.0985774994	-6.8578209877	-7.76395654678	19.8432941437	27.6735515594
-16.7789497375	31.3641242981	-5.93369245529	-8.08391475677	20.9615268707	27.7446918488
-18.4588794708	33.8215255737	-8.94347572327	-8.38885784149	23.0899562836	28.0368041992
-18.5014095306	34.7136688232	-8.48533058167	-8.45230388641	24.6669635773	28.3254108429
-18.8303318024	35.0921401978	-8.83290863037	-8.28026676178	25.0345973969	28.3515014648
-18.6203422546	34.7659683228	-8.54132652283	-7.88266181946	24.9400405884	27.7558689117
-19.000246048	34.2745819092	-8.94159412384	-7.15022516251	24.6252040863	28.0834503174
-19.0299434662	33.9756469727	-8.95429229736	-5.99281024933	24.0815639496	28.8452033997
-19.0512466431	33.8095817566	-8.61313724518	-4.64642858505	23.8342723846	29.5655860901
-19.3062973022	33.6384010315	-8.38361167908	-2.91084599495	23.4341888428	30.4359912872
-19.4753360748	33.4700393677	-8.30619716644	-1.19398570061	22.997543335	31.5254516602
-20.0090007782	33.2004547119	-8.55477428436	-0.694243311882	22.3292675018	31.9102268219
-20.1110019684	32.8220558167	-8.55765628815	-1.64348363876	22.1177368164	31.0722942352
-19.8660526276	32.6548805237	-8.58578300476	-3.70317530632	22.6782531738	29.7508220673
-19.795627594	32.1175308228	-8.40194416046	-8.19377326965	24.1915397644	26.2777824402
-19.9377574921	32.0633087158	-8.30777359009	-12.0675668716	24.7472877502	22.9854831696
-20.0071754456	32.0625305176	-8.33518218994	-13.6663742065	24.3951473236	20.530122757
-20.6675453186	31.8699569702	-8.74048995972	-14.261013031	23.8452587128	18.4505672455
-20.8265094757	31.6352157593	-9.07430076599	-14.5620498657	23.1711139679	16.5354194641
-20.8729515076	31.3735485077	-9.26556777954	-14.4006767273	22.7481136322	15.3728237152
-21.1431808472	31.0300731659	-9.201628685	-13.7797355652	22.4333763123	15.407535553
-22.3369121552	29.7645606995	-11.0638399124	-13.8037061691	21.9947490692	15.878739357
-22.654253006	29.0693340302	-10.9684886932	-13.9230079651	21.6645774841	16.1156635284
-24.8648757935	29.0810546875	-13.3367490768	-13.9414701462	21.3454494476	16.3822498322
-27.4283218384	29.2722759247	-16.4889640808	-14.0160799026	21.2253341675	16.7720947266
-32.6276168823	29.298784256	-19.9566230774	-14.2331600189	21.1027011871	17.1406593323
-35.2551231384	29.0780849457	-20.7640151978	-14.3199939728	20.9451065063	17.2488613129
-32.7255783081	29.4933376312	-19.2768535614	-14.0585575104	20.7382698059	17.4054889679
-28.2208042145	29.4590187073	-15.8062534332	-14.0270633698	20.6662082672	17.2774524689
-26.8620548248	29.0933456421	-14.6632680893	-13.935801506	20.6608371735	17.2481040955
-27.2378311157	28.948759079	-14.9650535583	-13.562005043	20.7079677582	17.1141376495
-20.3176078796	26.6861553192	-9.07737159729	-13.2501811981	20.4879245758	16.7382545471
-16.9273471832	27.5890579224	-8.88062095642	-13.1133508682	20.4051361084	16.6942672729
-16.2136688232	27.7332496643	-8.46729564667	-13.3739786148	20.4595184326	16.7552509308
-14.4014406204	27.762758255	-6.86735200882	-13.633518219	20.4175376892	16.7253265381
-15.3980789185	28.51496315	-7.96255874634	-13.5403747559	20.3810844421	16.5525627136
-15.6570911407	28.8688926697	-8.37935066223	-13.3884038925	20.1794376373	16.3858509064
-15.5661725998	29.1718521118	-8.59309577942	-13.3742694855	19.8241558075	15.7440443039
-15.4719896317	29.310628891	-8.50573158264	-12.9304113388	19.4686927795	14.5885839462
-15.3216285706	29.1265125275	-8.78647708893	-12.1601819992	19.0645828247	13.2323980331
-15.3756132126	28.8072509766	-8.91231250763	-11.5363101959	18.5910987854	11.5500421524
-15.5097541809	28.6787014008	-9.30610370636	-11.2327070236	18.3147411346	9.80103492737
-16.6348934174	28.4942779541	-9.71040344238	-11.123758316	18.1267414093	8.55636024475
-18.6174545288	27.8745422363	-9.98264694214	-11.1027002335	18.0318279266	8.55549716949
-26.504737854	27.2650356293	-12.9737644196	-11.3376941681	18.0148601532	8.59677600861
-34.6014900208	26.8898143768	-18.6162242889	-11.3272762299	18.0022754669	8.76839447021
-39.1085662842	27.0215759277	-22.5569458008	-11.2859754562	18.1121368408	9.14550018311
-40.108417511	26.6513290405	-19.4305171967	-11.5255527496	18.1869411469	9.41689872742
-38.4991874695	27.4807815552	-19.9171867371	-11.4617605209	18.2486820221	9.65380191803
-29.8901977539	28.1051502228	-15.8147230148	-11.3263626099	18.1965904236	9.88143825531
-26.2424907684	28.6202659607	-13.9986391068	-11.2251558304	18.2180709839	9.96063518524
-26.8712348938	27.0772857666	-12.696267128	-10.7493486404	18.1625366211	9.95221996307
-24.7151641846	26.4027004242	-9.0521736145	-10.024017334	18.1456336975	9.72424125671
-17.7069568634	24.9906482697	-5.01751375198	-8.82056903839	18.1794700623	9.19332790375
-9.8657579422	24.3078269958	-1.79708838463	-7.72208929062	18.2321567535	8.79246997833
-5.10188531876	23.933008194	-1.04853820801	-7.23054933548	18.3847351074	8.38991928101
-0.695285618305	23.3600025177	0.421598285437	-7.09883117676	18.4487419128	7.88007593155
-3.88197851181	25.7959976196	-1.64095020294	-6.89125013351	18.5456314087	7.50546598434
-12.4326429367	27.6660366058	-6.2182559967	-6.71455669403	18.5990028381	7.34502649307
-23.4118347168	27.6931304932	-10.6193208694	-6.67092561722	18.6356506348	7.17371845245
-34.7341423035	27.5172462463	-16.2128295898	-6.55157613754	18.6537322998	6.91763925552
-44.67162323	26.4159450531	-24.6137771606	-6.41113424301	18.685382843	6.59066820145
-48.4491615295	25.4304466248	-28.1333141327	-6.35128879547	18.6861095428	6.33095788956
-35.7904701233	24.0947723389	-13.2265672684	-6.51881694794	18.7361469269	6.1484837532
-25.3923912048	20.7752666473	-4.55772066116	-6.74501514435	18.7630977631	6.0691151619
-19.9293270111	13.8519048691	3.86457133293	-6.77852773666	18.6847705841	6.03816699982
-20.5552368164	7.53520822525	7.13131141663	-6.65433549881	18.5739097595	6.00464057922
-23.4706993103	5.58861637115	5.29614686966	-6.65612363815	18.5890216827	6.04676294327
-26.1793117523	4.87680625916	5.39935445786	-6.69779157639	18.7391166687	6.13544130325
-27.6527023315	8.09064388275	1.9153444767	-6.99443006516	18.8096427917	6.21295976639
-29.0201759338	12.1420230865	0.557111978531	-7.17662143707	19.0119419098	6.18604564667
-31.4384365082	17.5826740265	-2.61817216873	-7.41905117035	19.1916942596	6.22544384003
-34.2574996948	21.435005188	-6.15552663803	-7.7768201828	19.2548065186	6.24930953979
-35.9373931885	22.9987831116	-9.20160675049	-8.09692764282	19.1842250824	6.27125501633
-37.7397193909	23.9156627655	-10.9063196182	-8.15874195099	19.1965999603	6.21359872818
-40.9490585327	24.1269245148	-13.1980419159	-8.18868350983	19.1151008606	6.31815910339
-45.6602096558	23.457118988	-13.6006202698	-8.45695114136	19.1363162994	6.52999067307
-52.2407417297	22.9809799194	-16.3862361908	-8.55962085724	19.1055278778	6.76287221909
-60.3991889954	21.4229640961	-22.1247215271	-8.47922420502	19.1361255646	6.99746751785
-63.2401199341	20.4502620697	-22.1605701447	-8.57637310028	19.1119861603	7.07937383652
-63.2945747375	21.3520736694	-24.0554542542	-8.72389888763	19.222076416	7.26902770996
-62.216796875	24.1110115051	-24.5274028778	-8.89150047302	19.4186782837	7.23738527298
-61.4825706482	26.7053890228	-23.9702510834	-8.72927474976	19.6263008118	7.41411972046
-60.757270813	28.4459629059	-21.3756256104	-8.72486972809	19.6312351227	7.62030124664
-59.3629379272	28.4208545685	-13.6333198547	-8.55344295502	19.6378936768	7.71396493912
-47.4208679199	24.7266407013	8.57516098022	-7.86386013031	19.6280193329	7.73820638657
-40.9035720825	22.2586631775	11.682431221	-7.43077325821	19.392124176	7.7830915451
-38.5950813293	21.212305069	10.1975622177	-7.61266279221	19.3343467712	7.95402860641
-37.8233032227	21.0928344727	8.85020542145	-8.08806610107	19.3877220154	7.9079413414
-35.4964904785	21.5575180054	9.56278419495	-8.20100879669	19.5545024872	7.79884958267
-32.8696746826	22.1046733856	9.57675743103	-7.92590761185	19.6160430908	7.71260118484
-30.2222919464	22.0331420898	9.96209144592	-7.75225448608	19.8472614288	7.53610658646
-28.5403995514	21.9797687531	10.0991725922	-7.55804538727	20.1230144501	7.28063154221
-27.029302597	21.5351963043	12.4129981995	-7.38334703445	20.42445755	7.0890827179
-25.0105285645	21.1244239807	15.3522777557	-7.30005121231	20.7308006287	6.88952589035
-23.3324050903	20.8971633911	18.6144580841	-7.2341132164	20.7979259491	6.68319129944
-22.2842922211	19.2517566681	20.1344432831	-7.12352991104	20.819694519	6.60093212128
-20.0491847992	14.9224510193	17.4346981049	-7.00414848328	20.785943985	6.51447534561
-16.6093425751	9.09708213806	17.6168727875	-6.8996796608	20.8050842285	6.56613588333
-15.849152565	7.0217256546	17.0552635193	-6.91275310516	20.8727321625	6.35468816757
-18.8034553528	10.2139167786	17.1319961548	-6.99952411652	20.9709777832	6.19562101364
-25.3533859253	17.5858974457	14.8340559006	-7.14790868759	21.1171112061	6.08612680435
-30.0530509949	21.8849830627	10.0012025833	-7.22705841064	21.4106121063	6.02442455292
-33.230014801	23.7565746307	8.7688331604	-7.36594772339	21.6151657104	5.9631023407
-36.2770347595	25.4016590118	9.87411403656	-7.37149858475	21.7193145752	5.88352108002
-36.8168258667	26.4350013733	9.73349666595	-7.22014808655	21.8343029022	5.92587041855
-33.5138130188	26.7693424225	12.5098972321	-7.02710866928	21.9005527496	5.9505443573
-29.2278022766	26.1970405579	14.6516523361	-6.74742269516	21.8762340546	5.98258876801
-28.6577320099	26.9031562805	15.2970466614	-6.44855690002	21.9863548279	6.02654218674
-30.8320236206	28.3026332855	16.3399467468	-6.26110172272	22.2312793732	5.84920597076
-32.9983940125	30.0471973419	21.3145542145	-6.04264354706	22.2841205597	5.71431446075
-31.0970535278	30.2779159546	24.896232605	-5.8787484169	22.2108650208	5.59541368484
-29.2242259979	25.3031234741	22.0174503326	-5.56801366806	21.9793624878	5.85006475449
-25.5022754669	20.8444309235	16.7174091339	-5.37056779861	21.7275085449	6.25745248795
-18.4151496887	15.2851753235	14.6691865921	-5.15813922882	21.4363689423	6.40469169617
-12.3971595764	9.5107126236	11.4877681732	-5.23312807083	21.2723999023	6.50539779663
-10.1721935272	6.71482419968	10.0481309891	-5.29656219482	21.4800281525	6.32140111923
-7.50330162048	5.46899175644	8.89777851105	-4.74807834625	21.6723365784	6.09786701202
-6.86799669266	5.86874580383	4.1092634201	-4.56134653091	21.6136798859	6.02726554871
-8.83146381378	9.81596469879	1.4549767971	-3.89591145515	21.9905757904	6.75679540634
-11.4030628204	13.240858078	0.0663570165634	-1.48490440845	22.883644104	10.3252029419
-12.71352005	14.5908441544	0.37868475914	1.12935626507	22.550579071	15.3527002335
-14.3944950104	16.5786132812	-0.287920504808	2.05455565453	22.0837173462	18.0575942993
-16.3407058716	18.128490448	1.55534982681	3.02897763252	21.75141716	19.6008281708
-17.9677886963	18.2742958069	1.78321909904	4.37126636505	22.0664768219	21.2454090118
-18.1123046875	17.8252410889	1.25043404102	5.94024658203	21.4326438904	22.4538459778
-18.1181468964	18.2150154114	1.16403973103	7.66059684753	20.7921714783	23.7244586945
-18.7514019012	18.7802467346	1.56919109821	6.82468652725	21.0796508789	23.8780574799
-21.6196651459	23.206905365	-0.456386089325	5.11066102982	22.1828765869	23.5933742523
-23.7243843079	28.4263820648	-0.389099508524	4.04799938202	23.2050037384	23.7032184601
-22.8676357269	30.6145896912	3.75138401985	3.63077950478	23.4720821381	23.7071762085
-22.176153183	32.3673095703	7.24407100677	3.80659580231	23.7281188965	23.9209384918
-21.7497024536	31.3420829773	13.912322998	3.82022094727	23.9105129242	23.9936332703
-21.4224948883	26.5236873627	18.8774013519	3.32563853264	23.7624034882	23.8182010651
-23.1817874908	21.0977325439	13.0582399368	2.46452045441	23.5327949524	23.4420127869
-24.9589500427	17.4456062317	7.81928014755	1.98904442787	23.4435920715	23.1641750336
-27.6830844879	14.5986452103	2.91798448563	2.25188279152	23.3502960205	22.7754001617
-30.5974578857	11.8980445862	-1.84578454494	2.24092435837	23.2720737457	22.5171222687
-34.3866920471	8.75782680511	-6.26157569885	1.82223629951	23.1742362976	22.3588600159
-36.9462165833	4.51642084122	-10.7915248871	1.22833848	22.9837303162	22.2842884064
-38.3030128479	0.676254630089	-11.0901460648	-0.0863474532962	22.8022232056	21.839553833
-40.3113708496	-1.26913654804	-12.1073093414	-3.05638456345	23.1066493988	19.9794960022
-42.180393219	-1.09564089775	-12.4184150696	-5.59752750397	23.6344490051	18.2288265228
-43.3445549011	-0.967288196087	-12.7217607498	-8.07151412964	23.9846954346	16.2408390045
-42.2959251404	-0.746921777725	-12.0124006271	-9.74622917175	23.868024826	13.7554779053
-41.5499000549	-1.80321228504	-12.1089334488	-11.2584009171	23.6791629791	11.0802631378
-40.441204071	-4.49659967422	-13.8870716095	-13.1875591278	23.7140750885	7.54546737671
-39.2802734375	-6.71385383606	-15.1676864624	-15.5561800003	23.8848323822	2.8874168396
-38.8255844116	-8.35785770416	-16.5369968414	-17.6192111969	23.4032325745	-2.11885142326
-38.9855575562	-9.4973154068	-16.4135169983	-19.0298690796	22.2863101959	-6.14492845535
-38.3929977417	-10.5560655594	-15.9919252396	-19.6505908966	21.0433940887	-9.16573905945
-34.3330841064	-11.9319353104	-14.7363939285	-19.5738372803	19.9529781342	-12.1763105392
-27.549949646	-13.3986148834	-13.1916904449	-18.1028594971	18.6152248383	-15.7936449051
-20.5914936066	-17.1459674835	-11.5745601654	-14.9530391693	16.8448562622	-18.9367828369
-15.9664011002	-23.1744632721	-11.9237918854	-11.2772054672	15.3419551849	-21.1043891907
-18.9169826508	-25.370508194	-9.07201004028	-8.16693305969	14.65046978	-22.4295959473
-30.2404117584	-20.8465766907	-0.791996836662	-5.63812589645	14.5012655258	-22.8528823853
-44.5254707336	-6.40097522736	8.33155155182	-4.26828336716	14.4752702713	-22.2746753693
-50.8140907288	3.60395812988	10.3992261887	-4.04018068314	14.4883060455	-21.28166008
-49.0027770996	10.1877336502	10.1648435593	-4.35368204117	15.0604457855	-19.7012748718
-46.7378044128	16.6278991699	9.44662666321	-4.45346927643	16.7155895233	-17.0933818817
-48.0216598511	19.5091056824	7.67368555069	-6.33035135269	18.9483566284	-14.9806871414
-48.1191368103	20.5298194885	7.5524148941	-8.67757225037	20.730676651	-14.192647934
-49.4593315125	20.6008071899	7.13619613647	-10.2565402985	21.4998855591	-14.075961113
-52.166267395	21.8036136627	6.80040073395	-10.8229064941	21.7920513153	-14.2540922165
-55.0026931763	22.3953781128	7.56538391113	-11.2845983505	22.0373325348	-14.5269365311
-56.6881980896	22.1247196198	10.4640626907	-12.6611728668	21.6725215912	-15.1556892395
-57.4358329773	21.3252296448	9.63253974915	-15.9953689575	20.5707511902	-17.085641861
-57.5604019165	20.2857112885	9.32889938354	-19.4946975708	19.2814826965	-19.0605564117
-58.0944747925	18.9578609467	10.1538028717	-21.4766597748	18.4265918732	-20.6192722321
-58.1133232117	16.9489593506	10.5779571533	-23.9446048737	17.0756378174	-24.8840408325
-55.5361022949	13.2156267166	11.6496315002	-25.2397022247	15.4426527023	-29.782743454
-52.1502723694	9.3757724762	10.4919481277	-23.5615062714	14.8907222748	-34.700630188
-50.4525527954	6.81325435638	8.93375492096	-20.1373977661	14.6792917252	-38.8022918701
-51.0429496765	5.9373087883	8.12631607056	-17.1858482361	14.8241128922	-40.449432373
-51.223777771	5.64246320724	7.73691749573	-16.3232707977	14.9932250977	-40.5466003418
-50.247379303	7.69201374054	9.16622638702	-16.7897701263	14.9147176743	-40.9087104797
-47.0262527466	9.8939447403	13.7661504745	-16.3000030518	15.3686208725	-39.9869194031
-47.6527442932	7.68642234802	9.9896440506	-17.2418708801	14.9846220016	-39.1401290894
-46.7560310364	2.24753689766	9.49796581268	-17.8367042542	14.8295059204	-38.5071678162
-48.9235725403	-3.70992588997	6.60376358032	-17.7947101593	15.4214630127	-38.1951026917
-53.2668495178	-1.94461393356	2.86570668221	-17.8417472839	15.8879728317	-37.984287262
-54.7971572876	4.19241428375	7.61816740036	-18.0478839874	16.0448741913	-37.8644561768
-54.5281944275	9.0243062973	6.8260383606	-18.1592655182	16.2519798279	-37.6879425049
-57.6944885254	18.5841331482	6.33306932449	-18.4485530853	16.474609375	-37.5436668396
-58.9671287537	21.8788928986	4.64940071106	-18.4899044037	16.7501106262	-37.3352432251
-59.1355056763	24.9780330658	6.31890869141	-18.3567409515	16.9351654053	-37.1069450378
-59.8550949097	27.0773563385	8.86847019196	-18.4457435608	17.1502571106	-36.9406204224
-61.2112007141	29.0798053741	9.89148426056	-18.5614967346	17.2482872009	-36.6439056396
-61.3751068115	28.9027366638	9.98017692566	-18.5569114685	17.2889270782	-36.2519836426
-60.9945373535	27.9425392151	10.071811676	-18.1099014282	17.7358417511	-34.6653556824
-60.6302337646	26.7477741241	9.21505451202	-16.3834171295	18.6641521454	-31.6775760651
-60.553440094	26.1404247284	8.74381446838	-15.5387115479	19.2746944427	-29.5019721985
-59.9210166931	25.8402633667	8.86263942719	-15.4651422501	19.9261894226	-27.7588977814
-59.6427001953	25.2617607117	8.42115020752	-16.0265007019	20.2875518799	-26.3496513367
-59.1720695496	24.351984024	7.56714820862	-17.1663036346	20.9468193054	-25.327255249
-58.5475845337	23.9183368683	7.91520309448	-17.4352741241	21.6312904358	-23.5978527069
-58.3267021179	23.6159610748	8.05230045319	-16.9349746704	22.5880451202	-21.4772644043
-58.8222351074	23.3719139099	7.81982946396	-15.7276630402	23.3272171021	-19.1848468781
-58.80834198	23.4169826508	7.8882598877	-14.1795730591	24.3099136353	-17.1994342804
-59.1494140625	23.1455554962	7.80391788483	-12.8777313232	25.4389972687	-15.8573112488
-59.2922782898	23.1536998749	8.10271549225	-11.0672416687	26.4273986816	-14.6757822037
-59.2282600403	23.0132350922	8.32801914215	-8.07814693451	27.5565376282	-13.2384881973
-58.8971977234	22.9348754883	8.60623168945	-6.6471247673	27.352689743	-12.5410203934
-58.4404640198	22.9798717499	8.63023090363	-6.88726329803	27.2172145844	-12.8388538361
-57.8989334106	23.2850952148	9.03170108795	-4.15492296219	27.9182720184	-11.995595932
-58.2603569031	23.5060844421	8.79998207092	-2.53793239594	28.8655586243	-11.7461624146
-58.6307296753	23.393196106	8.45635128021	-2.38758206367	28.2894630432	-11.8387022018
-58.8046264648	23.6301250458	8.47798728943	-2.29752278328	27.8837394714	-13.164229393
-59.2078018188	23.6010150909	8.24693107605	-2.06697392464	27.8874416351	-14.0067634583
-59.364276886	23.3804454803	7.9129486084	-3.27102613449	27.9224643707	-15.3213806152
-59.3154067993	23.3231430054	8.35610580444	-4.97495269775	27.3738155365	-18.1504497528
-59.4399490356	22.8041248322	8.12217712402	-4.95921564102	27.1971702576	-19.5004234314
-59.380317688	22.4976959229	7.95997238159	-4.70716238022	27.1584815979	-20.2755832672
-59.1485061646	22.9627304077	8.29763412476	-4.47195577621	27.5475826263	-20.6343288422
-59.3129959106	23.3698120117	8.15211391449	-2.62655735016	28.4844989777	-19.7091636658
-59.3417320251	23.8649940491	8.12304592133	-2.28654289246	29.5521564484	-19.3587379456
-59.2550086975	24.8222351074	8.61953639984	1.0658352375	31.4187717438	-18.358795166
