0.0752310752869	1.32173991203	0.193900227547	-0.0170116424561	1.87272524834	-0.154007315636
0.075886964798	1.32237327099	0.194619417191	-0.0175952911377	1.8722461462	-0.153105258942
0.0759689807892	1.32214403152	0.195009946823	-0.0183801651001	1.87208902836	-0.152302503586
0.0755608081818	1.3216534853	0.195432662964	-0.020028591156	1.87248170376	-0.151943683624
0.0739438533783	1.32259500027	0.195515751839	-0.0217363834381	1.87275612354	-0.151532411575
0.0716919898987	1.3259935379	0.19481420517	-0.0220081806183	1.87251961231	-0.151356458664
0.071221113205	1.32837474346	0.194416165352	-0.0189437866211	1.87206637859	-0.151128172874
0.0711696147919	1.33006739616	0.193374872208	-0.0142104625702	1.87144005299	-0.150722742081
0.0712947845459	1.33120822906	0.19235765934	-0.00923442840576	1.87074196339	-0.15029835701
0.0713648796082	1.3311136961	0.19065964222	-0.00542736053467	1.87043774128	-0.150111556053
0.0716741085052	1.33097469807	0.188988089561	-0.00350022315979	1.87078905106	-0.150357723236
0.0730695724487	1.33177149296	0.188708901405	-0.00216603279114	1.87126481533	-0.15069258213
0.0752284526825	1.33443546295	0.188842773438	-0.00115036964417	1.87111032009	-0.151345729828
0.0774304866791	1.33735561371	0.189311385155	0.000866889953613	1.87120711803	-0.151628732681
0.0803806781769	1.33775389194	0.190559983253	0.00425004959106	1.87204396725	-0.151114225388
0.0821554660797	1.33547914028	0.190738677979	0.00925421714783	1.8733587265	-0.15002655983
0.0830001831055	1.3338483572	0.189192533493	0.0122444629669	1.87308061123	-0.147220849991
0.0846886634827	1.33360147476	0.187966108322	0.0133490562439	1.87129187584	-0.143109560013
