-32.9144592285	-26.3181400299	135.873199463	2.6430106163	0.381760746241	-4.52643489838
-32.8674964905	-26.1813983917	135.499053955	2.83857226372	0.411423832178	-4.55344676971
-32.8060798645	-26.2077827454	135.641052246	2.99255609512	0.376250088215	-4.58288669586
-32.7653121948	-26.1173686981	135.510620117	3.08190560341	0.55730342865	-4.5672659874
-32.5863380432	-25.5197963715	134.817382812	3.33602404594	1.37788319588	-4.6144118309
-30.0888938904	-24.5244979858	123.945968628	3.97505068779	2.68675518036	-4.81501197815
-28.836605072	-23.4385032654	117.005256653	5.38914632797	4.80507850647	-5.25550413132
-27.312664032	-22.1256580353	108.415786743	6.97230005264	8.06817722321	-5.72507143021
-25.6253204346	-20.5629043579	98.4601669312	8.45375442505	11.171002388	-6.11806297302
-23.9381046295	-19.1199417114	89.083152771	9.82357215881	13.9018592834	-6.62575769424
-22.7993202209	-18.1947154999	83.1123428345	10.9968223572	15.9522886276	-7.01997661591
