0.0	-0.0	138.215744019	-132.791732788	89.1439590454	163.957992554
0.0	-0.0	137.911605835	-132.63394165	87.8930969238	164.48374939
0.0	-0.0	137.687210083	-132.537857056	86.7194442749	164.960830688
0.0	-0.0	137.64289856	-132.686798096	85.7993469238	165.478057861
0.0	-0.0	135.578262329	-132.503585815	85.2510604858	165.416656494
0.0	-0.0	127.274414062	-127.243301392	81.8531951904	164.429626465
0.0	-0.0	119.309333801	-118.636932373	74.7439422607	163.181121826
0.0	-0.0	110.896453857	-112.602859497	65.232673645	162.511383057
0.0	-0.0	101.155982971	-108.608535767	56.0514793396	162.463165283
0.0	-0.0	97.5790481567	-105.812965393	46.6421928406	163.453079224
0.0	-0.0	96.7570953369	-103.432273865	37.692150116	165.360092163
0.0	-0.0	93.5866012573	-101.342315674	28.2069835663	167.011260986
0.0	-0.0	89.8751373291	-96.3174972534	20.3742694855	167.964004517
0.0	-0.0	85.1347427368	-90.6106719971	17.9643230438	167.486694336
0.0	-0.0	80.8109436035	-85.978012085	18.2335681915	166.817306519
0.0	-0.0	80.2434616089	-84.1816253662	20.1286716461	165.816818237
0.0	-0.0	77.8117828369	-83.8348770142	21.6201133728	165.114242554
0.0	-0.0	76.0309753418	-83.5133895874	23.634469986	164.994766235
0.0	-0.0	70.5704040527	-83.9514694214	25.765504837	165.739730835
0.0	-0.0	64.8736419678	-84.3927307129	28.6796188354	166.530227661
