0.0	-0.0	133.778411865	-135.482589722	86.0786209106	161.211547852
0.0	-0.0	134.259307861	-134.941757202	86.2599639893	160.423873901
0.0	-0.0	134.455612183	-133.907623291	86.6619262695	159.962753296
0.0	-0.0	133.605239868	-134.048553467	87.6307830811	160.065948486
0.0	-0.0	130.85786438	-137.105285645	89.9373092651	160.028991699
0.0	-0.0	124.118972778	39.3088684082	80.4230270386	-20.5408763885
0.0	-0.0	121.098190308	35.4795417786	62.9893836975	-21.4592552185
0.0	-0.0	119.092346191	30.7368774414	50.4773330688	-19.9384384155
0.0	-0.0	117.606330872	22.6153354645	43.1764907837	-18.254699707
0.0	-0.0	112.506546021	14.9909543991	33.5729522705	-17.2740116119
0.0	-0.0	100.25213623	12.9616937637	25.0355930328	-16.6711025238
0.0	-0.0	91.316368103	12.7822237015	21.6578483582	-16.1778793335
0.0	-0.0	83.9642105103	10.8704872131	21.9376335144	-15.8899888992
