-0.193094015121	1.16035962105	0.0887100696564	-0.128059387207	1.71437549591	-0.256493330002
-0.192234754562	1.16225898266	0.0878285169601	-0.128452539444	1.71438586712	-0.258005619049
-0.191862821579	1.1633541584	0.0866138935089	-0.12837600708	1.71467161179	-0.259639501572
-0.191296577454	1.16395223141	0.0862782001495	-0.128102779388	1.7140417099	-0.260757923126
-0.189616918564	1.16595005989	0.0862920284271	-0.128468513489	1.71040391922	-0.260286331177
-0.188532829285	1.1688593626	0.0864135026932	-0.129213809967	1.70190453529	-0.257502555847
-0.187954425812	1.17226624489	0.0856366157532	-0.129375219345	1.69147837162	-0.25257730484
-0.189733743668	1.17256593704	0.0827339887619	-0.128720283508	1.68385255337	-0.247487545013
-0.191164016724	1.17049646378	0.0800111293793	-0.127166032791	1.67631590366	-0.242715954781
-0.192454338074	1.16990220547	0.0774281024933	-0.125426054001	1.66889870167	-0.238556146622
-0.193393945694	1.16871261597	0.074303150177	-0.123686313629	1.66543912888	-0.235968947411
-0.193547725677	1.16797375679	0.0729749202728	-0.122393131256	1.66425120831	-0.234241724014
-0.193892478943	1.16779100895	0.0729141235352	-0.121580600739	1.66367590427	-0.233438849449
-0.194194316864	1.16796648502	0.0731718540192	-0.121215581894	1.66361963749	-0.233181834221
-0.195169687271	1.16803896427	0.072270154953	-0.120954751968	1.66377019882	-0.233108520508
