0.0437383651733	1.06107664108	0.0301234722137	-0.102742671967	1.6707149744	-0.206901311874
0.0445091724396	1.06167852879	0.0311787128448	-0.103299379349	1.67088460922	-0.206043958664
0.0446767807007	1.06233096123	0.0325595140457	-0.103215932846	1.6713206768	-0.204905033112
0.0424327850342	1.06295514107	0.0334857702255	-0.104056358337	1.67251288891	-0.203900098801
0.029226064682	1.06401801109	0.0333430767059	-0.10772228241	1.67352771759	-0.203185677528
0.0126829147339	1.06286180019	0.0310070514679	-0.112179756165	1.6735650301	-0.203615427017
-0.0041332244873	1.06084692478	0.0271092653275	-0.117778301239	1.67303943634	-0.204787969589
-0.0203461647034	1.05769753456	0.0218634605408	-0.124193906784	1.67298746109	-0.2064204216
-0.0311458110809	1.05580306053	0.017765045166	-0.130177259445	1.67379212379	-0.208462119102
-0.0365602970123	1.05412960052	0.0176296234131	-0.133875131607	1.67591357231	-0.209949970245
-0.04132604599	1.05442929268	0.0178937911987	-0.136762619019	1.67780220509	-0.211155653
-0.0461475849152	1.05595493317	0.0176405906677	-0.138608694077	1.67913222313	-0.212475419044
-0.0513627529144	1.0573143959	0.0159857273102	-0.139315128326	1.68085992336	-0.213084459305
-0.0560085773468	1.05760169029	0.0135419368744	-0.138832092285	1.68257308006	-0.212998867035
-0.0598735809326	1.05730819702	0.0102558135986	-0.137848854065	1.68383276463	-0.212454795837
-0.0625231266022	1.05663228035	0.00738930702209	-0.136970996857	1.68455123901	-0.21231174469
-0.0643079280853	1.05681443214	0.00585436820984	-0.13653588295	1.68485546112	-0.212587594986
-0.0655417442322	1.05662512779	0.00480318069458	-0.137218475342	1.68535196781	-0.214103937149
-0.066686630249	1.05747842789	0.00450205802917	-0.139352083206	1.68638706207	-0.216788768768
-0.0674622058868	1.05763888359	0.00445342063904	-0.140635490417	1.68779909611	-0.219509959221
-0.0693657398224	1.05851745605	0.00360918045044	-0.138861179352	1.68933725357	-0.221199035645
-0.0715591907501	1.05986166	0.00198841094971	-0.136583089828	1.68928277493	-0.222750067711
-0.0714564323425	1.06061077118	0.00106573104858	-0.134131669998	1.68828785419	-0.223811507225
-0.0684113502502	1.05947113037	0.000805616378784	-0.130513906479	1.68862068653	-0.224233031273
-0.0649166107178	1.05894374847	-3.11136245728e-05	-0.128838777542	1.68929541111	-0.22575044632
-0.065633058548	1.05884623528	-0.00435543060303	-0.128591060638	1.6889988184	-0.227936625481
-0.0706095695496	1.05884480476	-0.0143337249756	-0.129273414612	1.68849265575	-0.229871630669
-0.0770647525787	1.05735206604	-0.027153968811	-0.129885673523	1.68822622299	-0.231398105621
-0.0797915458679	1.05846500397	-0.0329463481903	-0.130414009094	1.68818378448	-0.232216477394
-0.0769057273865	1.06091606617	-0.0269432067871	-0.130394458771	1.68783211708	-0.232414007187
-0.0701894760132	1.06018137932	-0.0159211158752	-0.129728794098	1.68776977062	-0.232313156128
-0.0637047290802	1.06182014942	-0.0094496011734	-0.128724575043	1.68778133392	-0.232363939285
-0.0597805976868	1.06262087822	-0.00837647914886	-0.127836704254	1.68784224987	-0.232625961304
-0.0578866004944	1.06105983257	-0.00864481925964	-0.126759290695	1.68785941601	-0.232575178146
-0.0585021972656	1.06079411507	-0.00975978374481	-0.124828338623	1.68752586842	-0.231743097305
-0.05939412117	1.06096804142	-0.0103511810303	-0.121004104614	1.68618953228	-0.230487823486
