0.0	-0.0	135.784240723	63.4935150146	87.3494491577	-8.64810180664
0.0	-0.0	136.034561157	63.319934845	88.9374771118	-7.9555106163
0.0	-0.0	136.210723877	-116.865493774	89.7510604858	172.886169434
0.0	-0.0	135.844223022	-117.36264801	89.546836853	173.29598999
0.0	-0.0	122.349449158	-116.550888062	87.567199707	173.567153931
0.0	-0.0	106.387145996	-114.543296814	79.3625488281	173.598907471
0.0	-0.0	100.152961731	-112.08165741	69.7720031738	173.745223999
0.0	-0.0	95.4134674072	-110.422775269	62.7076072693	174.931381226
0.0	-0.0	85.3357543945	-109.309326172	54.6986083984	175.514221191
0.0	-0.0	73.6539382935	-107.424636841	45.6702613831	175.427627563
0.0	-0.0	64.3263092041	-105.107467651	38.3238334656	175.269165039
0.0	-0.0	63.3166465759	-103.648262024	34.8599815369	175.352310181
0.0	-0.0	60.5189628601	-103.162002563	34.9972419739	174.906555176
0.0	-0.0	59.1914787292	-102.653335571	35.8495140076	174.395339966
