9.51461791992	-8.76022720337	2.20190787315	-2.05120635033	10.7675695419	32.7277183533
9.3535118103	-8.77287483215	2.27327990532	-2.05833005905	10.6732702255	32.6047019958
9.34997081757	-8.76686000824	2.13387274742	-2.14477753639	10.6386623383	32.3792533875
9.51452541351	-8.63781356812	2.18769431114	-2.17055583	10.2752542496	32.0792236328
9.30784606934	-8.50763511658	2.61372542381	-2.02053332329	9.83783340454	31.7493724823
7.83116292953	-9.67787647247	4.10088396072	-2.3417096138	7.42358970642	30.688041687
5.71659660339	-11.4057359695	3.8114836216	-3.33550882339	4.30151796341	29.295589447
3.65464925766	-14.4127073288	2.71085977554	-4.44763088226	1.41109061241	27.9159698486
1.01933169365	-18.3482723236	2.41597366333	-5.40826225281	-1.4292525053	26.4327392578
-1.78616678715	-22.0000019073	3.343531847	-6.4955291748	-4.570291996	24.6393013
-3.92457175255	-25.1169071198	4.92680263519	-7.97562980652	-7.88991689682	22.6603736877
-4.09376525879	-25.7329521179	4.48765087128	-9.95208740234	-12.0612859726	20.6122779846
-3.77490520477	-26.2664394379	4.22899770737	-11.2773647308	-16.4838790894	18.4229354858
-4.15444517136	-26.160364151	4.04287242889	-11.653339386	-18.85597229	17.3615055084
-4.58818531036	-26.9335193634	4.00083017349	-11.9437227249	-19.6555938721	17.2694301605
-5.21158647537	-28.0299263	4.38012695312	-12.5586290359	-19.5373840332	17.439371109
-5.98693704605	-29.3684253693	4.65825510025	-13.3131742477	-19.1511611938	17.8318767548
-6.86020326614	-30.590637207	4.00217676163	-13.7657651901	-18.826713562	18.152765274
-7.73426103592	-31.859205246	3.37552237511	-13.7858285904	-18.6583042145	18.2155838013
-7.76139974594	-33.3153457642	2.73562979698	-13.343963623	-18.3901138306	17.9108715057
-7.66865158081	-35.4077301025	2.58617949486	-12.8439598083	-18.1140003204	17.5775623322
-7.83316612244	-38.6167488098	2.41354036331	-12.4042253494	-17.7787723541	17.3224582672
