-0.142857789993	1.13603186607	0.075816988945	-0.130873918533	1.7215474844	-0.224031925201
-0.145235300064	1.13352048397	0.0748362541199	-0.130577087402	1.72288775444	-0.223210334778
-0.147548675537	1.13438010216	0.0751249790192	-0.130489349365	1.72632062435	-0.222340345383
-0.150752305984	1.13753128052	0.0742956399918	-0.131732702255	1.7336473465	-0.222057819366
-0.156647443771	1.13809108734	0.0707726478577	-0.132761716843	1.74250280857	-0.222740411758
-0.16105890274	1.13725304604	0.0702772140503	-0.132985115051	1.75011610985	-0.223788261414
-0.164340496063	1.13747656345	0.0731275081635	-0.132646799088	1.75366294384	-0.223874926567
-0.167527198792	1.14164400101	0.0752136707306	-0.131687402725	1.75405883789	-0.221657156944
-0.170729637146	1.14764344692	0.0765511989594	-0.130800247192	1.7530349493	-0.21774828434
-0.174014806747	1.15177857876	0.0762128829956	-0.130621910095	1.75263082981	-0.213710069656
-0.176894664764	1.15345096588	0.0757728815079	-0.131177425385	1.75327146053	-0.209743261337
-0.178226947784	1.15444684029	0.0771889686584	-0.132209300995	1.75312829018	-0.205889105797
-0.179408550262	1.15538871288	0.0769412517548	-0.132879972458	1.75322651863	-0.203011512756
-0.18153834343	1.15519464016	0.0774054527283	-0.133528709412	1.75378274918	-0.202112317085
-0.183078289032	1.15450298786	0.0794231891632	-0.135057926178	1.75571274757	-0.203477501869
-0.183931112289	1.15454673767	0.0818054676056	-0.137444972992	1.75781142712	-0.206148862839
-0.182864904404	1.15580821037	0.085542678833	-0.137703418732	1.75921034813	-0.208219766617
-0.181063890457	1.15790867805	0.0889520645142	-0.135948181152	1.76148724556	-0.211572408676
-0.180417299271	1.15985369682	0.0896813869476	-0.133509635925	1.76366114616	-0.215521812439
-0.178540945053	1.16257798672	0.0904693603516	-0.129961967468	1.7648601532	-0.218857288361
-0.177464485168	1.16490352154	0.0910165309906	-0.12581205368	1.76381123066	-0.220216035843
-0.17596244812	1.16594839096	0.0912245512009	-0.122060775757	1.76358401775	-0.221054315567
-0.174759864807	1.16578197479	0.0898195505142	-0.118535041809	1.76533699036	-0.223449468613
-0.172587871552	1.16652989388	0.0880566835403	-0.116034507751	1.76790571213	-0.227212429047
-0.17028594017	1.16598987579	0.0885466337204	-0.113170146942	1.76819133759	-0.230055570602
-0.169204711914	1.16654765606	0.0885415077209	-0.109255075455	1.76714348793	-0.231443405151
-0.16840004921	1.16688013077	0.0888168811798	-0.108501672745	1.76617825031	-0.232093095779
-0.169121742249	1.16372084618	0.0876457691193	-0.110158443451	1.76614570618	-0.230941057205
-0.168998241425	1.1583943367	0.0865695476532	-0.111146450043	1.76575553417	-0.228832602501
