0.0	-0.0	146.500473022	70.4516143799	59.9777336121	2.95690798759
0.0	-0.0	145.038101196	70.4048461914	61.3924446106	3.31978726387
0.0	-0.0	139.326095581	69.1610641479	62.8709411621	3.66663646698
0.0	-0.0	126.622634888	67.3687057495	63.5867195129	4.72791051865
0.0	-0.0	111.811515808	58.3138313293	61.7599449158	7.37037944794
0.0	-0.0	101.058792114	44.4300346375	61.8915901184	10.7550802231
0.0	-0.0	92.3673477173	30.4497280121	64.2956924438	12.6944046021
0.0	-0.0	83.9219741821	18.5308532715	66.544128418	17.3558521271
0.0	-0.0	76.5662536621	7.42411565781	69.9435043335	19.9959182739
0.0	-0.0	68.2937164307	2.53098273277	74.4055786133	18.4484176636
0.0	-0.0	60.7592048645	1.60478258133	76.4390029907	19.4874267578
0.0	-0.0	56.3600883484	-3.14426541328	77.8398361206	21.6401596069
0.0	-0.0	54.4971733093	-8.45871639252	79.0488128662	22.778591156
0.0	-0.0	53.9892883301	-10.8322916031	80.2173461914	22.8521957397
0.0	-0.0	53.384563446	-10.9818534851	81.6063308716	22.7279586792
0.0	-0.0	52.9983215332	-12.0360479355	82.8230514526	23.4190444946
0.0	-0.0	53.1780509949	-11.6104927063	84.3270797729	23.8810138702
0.0	-0.0	53.9868621826	-10.6085119247	84.3894119263	23.0709037781
0.0	-0.0	57.5282516479	-9.21996688843	84.4071884155	22.3844871521
0.0	-0.0	61.5998497009	-8.28050422668	84.7630386353	21.166765213
