-0.0932974815369	1.09208846092	0.087881565094	-0.107946872711	1.71837818623	-0.192831039429
-0.0939767360687	1.09281682968	0.0871788263321	-0.108130455017	1.71815121174	-0.193727493286
-0.0943849086761	1.09372496605	0.0866730213165	-0.108512639999	1.71760582924	-0.193744540215
-0.0956792831421	1.09448933601	0.0853697061539	-0.108754634857	1.71603059769	-0.193232774734
-0.0975091457367	1.09624791145	0.0832271575928	-0.107860088348	1.71319282055	-0.191850543022
-0.0996036529541	1.0971622467	0.080189704895	-0.107260465622	1.71033215523	-0.190499305725
-0.10045170784	1.09623658657	0.078252196312	-0.107780218124	1.70848810673	-0.18936419487
-0.100793838501	1.09485733509	0.077797293663	-0.108309745789	1.70602941513	-0.188385725021
-0.103012561798	1.09461569786	0.0766558647156	-0.107705593109	1.70268046856	-0.187242150307
-0.106156349182	1.09573376179	0.0753080844879	-0.106812953949	1.70104491711	-0.185740947723
-0.109561443329	1.09701216221	0.0747420787811	-0.106997966766	1.70149493217	-0.18469119072
-0.110694169998	1.09710121155	0.0759122371674	-0.108313083649	1.70297813416	-0.18460226059
-0.111897945404	1.09835863113	0.0771775245667	-0.110531330109	1.70368599892	-0.185458421707
-0.114067077637	1.09939408302	0.0771461725235	-0.114671468735	1.70450043678	-0.18682718277
-0.116827249527	1.09903383255	0.0765688419342	-0.119482040405	1.70588099957	-0.188339948654
-0.120342731476	1.09969496727	0.0746326446533	-0.123218774796	1.70624554157	-0.189157009125
-0.124118328094	1.10029101372	0.0709979534149	-0.124593734741	1.70459759235	-0.188831090927
-0.127584457397	1.10047280788	0.0666642189026	-0.124141693115	1.70320737362	-0.188066601753
-0.130616188049	1.10272705555	0.0632779598236	-0.123309612274	1.70336997509	-0.187532663345
-0.132895708084	1.10576450825	0.0622236728668	-0.122845172882	1.70363581181	-0.187236070633
-0.136018037796	1.10830748081	0.062637090683	-0.12279343605	1.70351743698	-0.187151193619
-0.138229131699	1.11227881908	0.0657925605774	-0.1234126091	1.70342004299	-0.187031745911
-0.140706539154	1.11518669128	0.0682260990143	-0.124750375748	1.7036318779	-0.187118411064
-0.144809007645	1.11543691158	0.0683701038361	-0.127215623856	1.70370674133	-0.186927318573
-0.148630857468	1.11576247215	0.0685257911682	-0.131179571152	1.70313692093	-0.186880111694
-0.153089761734	1.11609303951	0.0669760704041	-0.135938644409	1.70213186741	-0.18643450737
-0.157023668289	1.11584925652	0.0648400783539	-0.139389276505	1.70152449608	-0.186225891113
-0.158154964447	1.11553680897	0.0651746988297	-0.139737606049	1.70165383816	-0.186293363571
-0.156539201736	1.11664760113	0.0672650337219	-0.136564493179	1.70213246346	-0.186416387558
-0.154927253723	1.11843883991	0.0680550336838	-0.132372379303	1.7019058466	-0.187061071396
-0.153806209564	1.12006127834	0.0678758621216	-0.130330562592	1.70158672333	-0.187961101532
-0.153743505478	1.12013864517	0.0673389434814	-0.130331993103	1.70138704777	-0.189196109772
-0.154277324677	1.12096643448	0.0661404132843	-0.130240917206	1.70202481747	-0.191565513611
-0.154621601105	1.12156164646	0.0652720928192	-0.129498004913	1.70346748829	-0.195233345032
-0.15444278717	1.12172412872	0.0646291971207	-0.129424333572	1.70624184608	-0.19920706749
-0.153614759445	1.12239348888	0.0639200210571	-0.130877971649	1.70758664608	-0.202833533287
-0.153047323227	1.12287890911	0.0624865293503	-0.132831096649	1.70805025101	-0.205778956413
-0.153229951859	1.12303566933	0.0605462789536	-0.133885383606	1.70643675327	-0.207483053207
-0.154446840286	1.12369859219	0.0579940080643	-0.135027885437	1.70345449448	-0.208580255508
-0.155314683914	1.12491810322	0.0560796260834	-0.136021375656	1.70068883896	-0.208945631981
-0.155820608139	1.1250077486	0.0552150011063	-0.135812759399	1.70055913925	-0.209278345108
-0.156337499619	1.1235973835	0.0537798404694	-0.134299039841	1.70044744015	-0.209772825241
-0.156673908234	1.12288403511	0.051843047142	-0.132374048233	1.69906926155	-0.210566878319
-0.156031608582	1.12388646603	0.0512264966965	-0.12913775444	1.69658613205	-0.211412668228
-0.154720783234	1.12478578091	0.0513994693756	-0.1238052845	1.69541966915	-0.212658643723
-0.152552127838	1.12572419643	0.0513067245483	-0.121062994003	1.69586098194	-0.213337898254
-0.150038480759	1.12498724461	0.0514175891876	-0.120449304581	1.69641435146	-0.213764667511
-0.147670269012	1.12443304062	0.0513117313385	-0.12321972847	1.69640791416	-0.214197993279
-0.146828889847	1.12430393696	0.0512603521347	-0.13227558136	1.6953625679	-0.212756633759
-0.14840221405	1.12294363976	0.0499691963196	-0.140030622482	1.69430315495	-0.213418245316
-0.152009963989	1.12103939056	0.0489180088043	-0.14351606369	1.69423449039	-0.214217424393
-0.155140161514	1.11868107319	0.0486673116684	-0.145506620407	1.69394648075	-0.215117931366
-0.15696978569	1.11797821522	0.0477802753448	-0.145118713379	1.69367277622	-0.216457366943
-0.158504247665	1.11805617809	0.0462281703949	-0.143445730209	1.69410538673	-0.218232631683
-0.159154891968	1.11857104301	0.0447927713394	-0.145485877991	1.69461321831	-0.21922492981
-0.159559726715	1.11616432667	0.0434701442719	-0.144357681274	1.69506537914	-0.2210034132
-0.161809682846	1.11416983604	0.0412040948868	-0.140124320984	1.69562733173	-0.223287820816
-0.163066864014	1.11563122272	0.0402499437332	-0.139223337173	1.69564116001	-0.223840713501
-0.163611650467	1.11677503586	0.0394045114517	-0.144328355789	1.69348394871	-0.221813678741
-0.163266181946	1.11617672443	0.0381290912628	-0.150854825974	1.68917906284	-0.219437360764
-0.16362118721	1.11573922634	0.0362920761108	-0.156028747559	1.68436646461	-0.216543674469
-0.163201570511	1.11537313461	0.0355923175812	-0.160840988159	1.68182229996	-0.213706016541
-0.163781881332	1.11422049999	0.0344895124435	-0.162962436676	1.68011641502	-0.211838841438
-0.163229942322	1.1133440733	0.0341999530792	-0.166390419006	1.68103504181	-0.21008682251
-0.163001060486	1.11154913902	0.0351223945618	-0.166756868362	1.68275988102	-0.209823608398
-0.164105415344	1.11215353012	0.0370128154755	-0.165267705917	1.68299114704	-0.210037708282
-0.165550231934	1.11386942863	0.0385937690735	-0.160459280014	1.68476641178	-0.209453463554
-0.167246103287	1.11321985722	0.0392251014709	-0.154881954193	1.68710160255	-0.208841085434
-0.167242527008	1.1125510931	0.0401139259338	-0.152871608734	1.68825507164	-0.207853078842
-0.166131973267	1.11166274548	0.0416254997253	-0.149197101593	1.68944144249	-0.20725774765
-0.165526151657	1.11186122894	0.0420813560486	-0.146315097809	1.69158113003	-0.2073533535
-0.164358377457	1.11164832115	0.0431596040726	-0.145670413971	1.69397878647	-0.207696676254
-0.163911819458	1.10942196846	0.0427715778351	-0.144278526306	1.69660997391	-0.209379315376
-0.163846254349	1.10915410519	0.0432351827621	-0.141340494156	1.69768679142	-0.21145939827
-0.163765668869	1.11143755913	0.0449829101562	-0.137840509415	1.69671487808	-0.213258504868
-0.163795948029	1.11340415478	0.045604467392	-0.13533115387	1.69584691525	-0.214109659195
-0.163152933121	1.11262452602	0.0452835559845	-0.134462833405	1.69614958763	-0.214135885239
-0.162118673325	1.1113307476	0.0441082715988	-0.13743686676	1.69738709927	-0.213777184486
-0.161067008972	1.10985648632	0.0437254905701	-0.141298532486	1.6981317997	-0.21389901638
-0.160991430283	1.10952055454	0.0437866449356	-0.140550851822	1.69807589054	-0.215405464172
-0.161297082901	1.10725390911	0.0439989566803	-0.139638185501	1.69801104069	-0.217421770096
-0.164219856262	1.1049131155	0.0403740406036	-0.139629364014	1.69868755341	-0.219272017479
-0.165545701981	1.10257065296	0.0383021831512	-0.13991355896	1.6985026598	-0.220556735992
-0.165177822113	1.09861242771	0.0365319252014	-0.139889717102	1.69831824303	-0.221526384354
-0.164546012878	1.09665203094	0.0347203016281	-0.139577627182	1.69817340374	-0.222190618515
-0.16423034668	1.09613466263	0.0341777801514	-0.137266874313	1.69830238819	-0.22395658493
