-47.4173316956	-14.6264772415	138.399795532	3.12637376785	-0.0767185240984	-2.4246096611
-47.3141937256	-14.6962404251	137.750076294	3.06191253662	0.00535175623372	-2.35278248787
-46.4145088196	-14.7487220764	133.4427948	2.94626998901	0.140178322792	-2.23559069633
-45.1278610229	-13.1617307663	115.194732666	2.63522839546	0.106661103666	-1.99376308918
-46.8953437805	-11.9278564453	105.683601379	1.76837301254	-0.197031363845	-1.47727799416
-49.0163574219	-11.2246780396	101.79309082	-0.257472902536	-0.254029721022	0.00423017051071
-49.4394798279	-11.0959234238	100.896575928	-2.95792245865	-0.213542968035	1.26733219624
-49.4093894958	-10.7426023483	97.1837158203	-4.7017364502	-0.15661907196	1.86181676388
-49.5921058655	-10.0449571609	92.5723114014	-6.04479694366	-0.317867457867	2.5597243309
-48.4569969177	-9.24820518494	87.7388076782	-7.30812692642	-0.271281480789	3.07056927681
-45.469379425	-8.50466442108	79.9657516479	-6.8809709549	-0.0314884893596	3.00040340424
-41.8798294067	-7.15632867813	65.2913894653	-6.0233092308	0.230024576187	2.74425148964
-41.4418640137	-7.85021257401	59.6736526489	-5.7073340416	0.241290941834	2.63631677628
-39.0481452942	-6.84365320206	48.9367866516	-5.63740205765	0.272160798311	2.58894014359
-36.727558136	-5.87993144989	40.5312957764	-5.49719190598	0.196787670255	2.43989610672
-34.7318153381	-4.29249429703	34.4118881226	-5.38865375519	0.141057699919	2.31280326843
-34.2910194397	-4.96548366547	39.7621765137	-5.39648866653	0.103428840637	2.25035786629
