0.0	-0.0	138.999053955	89.7999191284	82.9836349487	18.1929149628
0.0	-0.0	138.249603271	90.6943130493	83.1904678345	17.7232761383
0.0	-0.0	135.585418701	91.405960083	82.8059082031	18.2069149017
0.0	-0.0	132.083221436	91.8610687256	83.1202926636	18.388212204
0.0	-0.0	128.295349121	90.2381362915	84.5259552002	19.4568481445
0.0	-0.0	125.607521057	85.3530654907	86.4688796997	19.8758354187
0.0	-0.0	130.168777466	81.666519165	87.6086120605	20.9683170319
0.0	-0.0	135.027511597	74.1455230713	89.2276000977	24.2936840057
0.0	-0.0	140.189056396	-111.759178162	87.3016204834	-152.914932251
0.0	-0.0	142.389007568	-117.120246887	83.7177276611	-148.977050781
0.0	-0.0	143.357192993	-118.216094971	79.0475540161	-150.744796753
0.0	-0.0	143.902999878	-120.843177795	74.543296814	-151.334899902
0.0	-0.0	143.809387207	-126.949508667	68.9093093872	-150.176513672
0.0	-0.0	143.386413574	-132.499984741	61.648639679	-153.525436401
0.0	-0.0	142.854232788	-136.897247314	52.6823234558	-161.696884155
0.0	-0.0	144.83795166	-142.694961548	44.7365722656	-169.801727295
0.0	-0.0	147.695358276	-147.173950195	41.0020561218	-172.52331543
0.0	-0.0	147.366027832	-154.075714111	33.8406257629	177.998519897
0.0	-0.0	145.978729248	-163.188308716	27.4789390564	164.142913818
0.0	-0.0	148.492828369	-167.92199707	27.0052776337	164.857833862
0.0	-0.0	151.178085327	-172.598342896	24.5608654022	159.478713989
0.0	-0.0	150.977966309	-177.850402832	20.5131168365	151.832839966
0.0	-0.0	149.11378479	177.628448486	16.8836612701	142.939666748
0.0	-0.0	148.989273071	174.735015869	14.7726278305	139.492980957
0.0	-0.0	150.250854492	169.397445679	13.7770748138	132.9296875
0.0	-0.0	146.912231445	166.40512085	12.4595861435	126.330978394
0.0	-0.0	147.22366333	164.281402588	10.6522626877	117.117141724
0.0	-0.0	145.078659058	160.243164062	11.126701355	110.526771545
0.0	-0.0	143.349700928	153.333648682	14.25481987	106.346420288
0.0	-0.0	139.27696228	145.538146973	20.8613300323	107.490264893
0.0	-0.0	134.596389771	137.599487305	26.0642433167	105.835006714
0.0	-0.0	130.382598877	133.927429199	31.1672019958	109.103691101
0.0	-0.0	127.507354736	128.330871582	35.8825187683	111.421859741
0.0	-0.0	126.102340698	128.414520264	36.6234016418	116.153129578
0.0	-0.0	126.74811554	129.32913208	36.2222900391	120.800270081
0.0	-0.0	126.90688324	128.452697754	37.1060409546	131.081481934
0.0	-0.0	125.676856995	125.77960968	38.9649543762	140.678527832
0.0	-0.0	125.230316162	127.952697754	40.1134376526	143.915145874
0.0	-0.0	125.018692017	127.600524902	40.9095191956	143.421478271
0.0	-0.0	124.51184845	126.168899536	41.8007354736	139.136016846
0.0	-0.0	124.532585144	130.87713623	39.5036811829	139.942520142
0.0	-0.0	124.278770447	135.145248413	35.7763366699	140.573074341
0.0	-0.0	124.211433411	137.328155518	33.6709785461	140.189315796
0.0	-0.0	124.454925537	140.931427002	32.2654647827	143.070983887
0.0	-0.0	119.713218689	144.498703003	31.2820968628	145.197998047
0.0	-0.0	106.137420654	144.612228394	31.554107666	144.143280029
0.0	-0.0	104.381439209	143.653045654	31.7761383057	143.157165527
0.0	-0.0	108.116401672	143.615219116	31.2271137238	143.055892944
0.0	-0.0	107.033660889	145.778045654	29.9234886169	144.646835327
0.0	-0.0	100.928916931	147.346633911	29.7645778656	144.802444458
0.0	-0.0	94.9536590576	147.990203857	29.8308067322	145.112686157
0.0	-0.0	89.9373168945	147.660354614	30.1436710358	144.335876465
0.0	-0.0	82.7458343506	146.79574585	30.484085083	143.405227661
0.0	-0.0	75.9065246582	145.365692139	31.3375453949	140.964935303
0.0	-0.0	72.1970748901	143.98777771	32.4743919373	139.088943481
0.0	-0.0	72.3513565063	140.532806396	34.2184066772	135.351257324
0.0	-0.0	73.4093093872	137.309371948	35.5564804077	132.396713257
0.0	-0.0	72.5552597046	135.770980835	35.8069496155	131.584228516
0.0	-0.0	69.5289154053	134.561035156	36.3152122498	131.669891357
0.0	-0.0	67.6631622314	133.3984375	37.1400375366	131.075286865
0.0	-0.0	71.3859710693	133.473114014	37.1481361389	131.853790283
0.0	-0.0	82.0496749878	133.892990112	37.4254417419	132.581390381
0.0	-0.0	96.3122406006	133.739044189	37.1458969116	132.786346436
0.0	-0.0	106.152801514	134.52911377	36.4919586182	133.439315796
0.0	-0.0	109.819000244	134.982299805	36.1769523621	133.717971802
0.0	-0.0	114.248321533	135.455810547	36.0706787109	134.209014893
0.0	-0.0	116.666679382	135.857177734	35.3957710266	134.734115601
0.0	-0.0	120.371910095	135.808609009	34.3549156189	136.081893921
0.0	-0.0	123.791893005	136.886978149	33.2635040283	137.125991821
0.0	-0.0	125.771308899	139.326873779	32.0652046204	138.273239136
0.0	-0.0	126.78842926	146.395080566	28.5685424805	144.232772827
0.0	-0.0	127.385322571	149.165039062	27.8319072723	144.971755981
0.0	-0.0	126.948493958	150.574035645	27.536491394	147.144561768
0.0	-0.0	126.088790894	152.468429565	27.5232009888	150.066268921
0.0	-0.0	125.749633789	154.063919067	27.9393196106	151.028991699
0.0	-0.0	124.825843811	155.09552002	27.7276687622	151.310195923
0.0	-0.0	119.739402771	154.764587402	27.8076763153	151.180587769
0.0	-0.0	112.492454529	153.3387146	28.299697876	150.582077026
0.0	-0.0	106.820480347	153.362335205	28.4814720154	150.166061401
0.0	-0.0	99.0669708252	153.971008301	28.244808197	149.899520874
0.0	-0.0	92.0127944946	154.405136108	28.0679721832	149.437820435
0.0	-0.0	86.255065918	154.421020508	27.8754043579	148.351394653
0.0	-0.0	81.5903396606	154.075805664	27.8630390167	146.777633667
0.0	-0.0	78.321647644	154.472747803	28.7095870972	143.550079346
0.0	-0.0	76.9022369385	153.60383606	31.1852436066	141.583007812
0.0	-0.0	75.2606124878	151.386169434	33.3873939514	137.756408691
0.0	-0.0	73.1939620972	148.380813599	34.6433944702	134.568008423
0.0	-0.0	71.8529663086	143.463577271	36.0794067383	127.846572876
0.0	-0.0	71.6331634521	141.109588623	36.6087188721	124.801101685
0.0	-0.0	70.8142929077	140.442276001	36.4442176819	122.854217529
0.0	-0.0	66.4479751587	142.165679932	35.1916351318	124.624404907
0.0	-0.0	60.8810768127	143.306762695	34.7529678345	126.079772949
0.0	-0.0	63.7411079407	142.643630981	34.9901161194	125.524208069
0.0	-0.0	68.8891220093	141.426132202	34.9641418457	124.971580505
0.0	-0.0	72.7396850586	141.410903931	35.0115737915	125.648880005
0.0	-0.0	77.1556625366	141.75	34.7766799927	126.179275513
0.0	-0.0	84.4751052856	141.110488892	34.2235717773	126.426132202
0.0	-0.0	90.2961654663	141.161361694	33.6981811523	126.778778076
0.0	-0.0	94.003074646	141.364700317	33.3147926331	127.042182922
0.0	-0.0	97.0849456787	141.283172607	33.3927116394	126.237266541
0.0	-0.0	98.7257843018	141.958526611	32.8579177856	125.559692383
0.0	-0.0	99.8576049805	143.650634766	32.8283309937	125.502098083
0.0	-0.0	100.548439026	143.788879395	33.0216827393	125.155387878
0.0	-0.0	99.7045211792	142.792114258	33.2695884705	124.062561035
0.0	-0.0	98.007522583	141.933670044	33.5696792603	123.33102417
0.0	-0.0	96.7238616943	140.180801392	33.7381515503	121.780303955
0.0	-0.0	96.4365921021	139.071334839	33.7798156738	120.858879089
0.0	-0.0	95.8501434326	138.428115845	34.0693740845	119.443099976
0.0	-0.0	95.0395889282	137.410110474	34.6337280273	116.05241394
0.0	-0.0	94.2182540894	137.429931641	35.26329422	114.957847595
0.0	-0.0	93.1830444336	138.204803467	34.9766921997	114.913619995
0.0	-0.0	91.8779830933	138.184631348	34.9739608765	113.084907532
0.0	-0.0	92.0182342529	136.515762329	36.4476890564	111.242347717
0.0	-0.0	91.7329711914	134.46484375	37.4691429138	109.616882324
0.0	-0.0	91.6242218018	133.738189697	37.3763999939	110.066497803
0.0	-0.0	91.5027313232	132.913528442	37.5141792297	108.477020264
0.0	-0.0	90.8882522583	129.93447876	38.9208755493	102.75970459
0.0	-0.0	90.3150634766	127.298973083	40.7293281555	96.023475647
0.0	-0.0	89.3049163818	129.553421021	38.9597892761	100.900802612
0.0	-0.0	86.3207778931	133.26083374	36.5356712341	105.54850769
0.0	-0.0	82.9754943848	137.352676392	34.683555603	113.11466217
0.0	-0.0	80.7470474243	141.832687378	33.793964386	126.515525818
0.0	-0.0	78.7567825317	145.532089233	32.097240448	140.18031311
0.0	-0.0	76.5752716064	147.883270264	30.7739200592	147.13444519
0.0	-0.0	73.9638137817	150.486663818	31.2386875153	151.068069458
0.0	-0.0	70.8207550049	152.049240112	31.2026081085	152.640640259
0.0	-0.0	67.7439041138	152.255310059	30.9564762115	151.462127686
0.0	-0.0	64.0998153687	153.418884277	30.4693336487	151.413848877
0.0	-0.0	61.3948440552	153.145477295	31.5045604706	150.295074463
0.0	-0.0	59.7762451172	153.575561523	32.3651847839	151.13734436
0.0	-0.0	60.5473518372	151.626159668	32.0936431885	150.701370239
0.0	-0.0	62.754447937	149.425460815	32.8011741638	148.590942383
0.0	-0.0	64.3492736816	148.446212769	33.7217979431	147.413879395
0.0	-0.0	65.1404266357	147.996109009	34.3885231018	145.767990112
0.0	-0.0	65.2598648071	146.338806152	34.8629722595	144.567169189
0.0	-0.0	66.4326858521	143.624710083	35.560634613	138.775939941
0.0	-0.0	67.8722000122	143.279190063	35.3444786072	136.626693726
0.0	-0.0	68.760307312	145.646636963	33.4226493835	140.124526978
0.0	-0.0	69.6817474365	150.354568481	31.1152362823	145.411941528
0.0	-0.0	69.3482131958	154.98727417	29.458782196	149.292663574
0.0	-0.0	69.0180740356	159.915603638	28.2642726898	155.812927246
0.0	-0.0	68.348236084	162.489425659	28.1958885193	161.523468018
