-51.8728485107	-19.6825084686	137.340545654	4.53127574921	0.757436811924	-5.54769515991
-51.8343772888	-19.7969360352	137.116516113	4.47545814514	0.90844219923	-5.36850166321
-51.871547699	-19.9681529999	137.0597229	4.28402328491	1.0610922575	-5.26998806
-51.8584136963	-20.120388031	135.817886353	3.84640312195	1.39570605755	-5.25042915344
-49.8452720642	-20.0074081421	121.727897644	0.932158350945	2.04249954224	-5.05433797836
-50.2649650574	-20.3336219788	124.602264404	-4.48871040344	3.59517049789	-4.79587745667
-50.3619384766	-20.4570064545	124.427650452	-9.49092006683	6.11404943466	-3.92993617058
-50.2858009338	-19.9088973999	120.965858459	-12.9814329147	9.02663707733	-3.15435504913
-49.5550804138	-18.3612957001	114.297645569	-14.6233291626	11.3857021332	-2.62004446983
-49.9043617249	-17.4833679199	111.41153717	-14.9800329208	12.4779844284	-2.20971083641
-49.9664154053	-16.5274887085	110.174377441	-14.9185390472	12.6244792938	-2.33106684685
-50.5039558411	-15.1940498352	109.134719849	-14.3338298798	12.7780666351	-2.52621364594
-51.4140739441	-14.3847904205	108.696044922	-14.5183773041	12.8808984756	-2.57333660126
-51.8939476013	-14.0448045731	109.95765686	-15.2265529633	13.1552467346	-2.35527968407
-52.3392677307	-13.704834938	110.299964905	-16.3609485626	13.2281799316	-1.96190500259
-52.8880233765	-13.4101381302	110.355125427	-16.9539165497	13.2006483078	-1.64245724678
-53.1149864197	-13.1166095734	110.041595459	-17.148399353	13.1285848618	-1.37713992596
-53.4675178528	-12.4534711838	109.468132019	-17.5548858643	13.6231012344	-0.988001286983
-53.6450500488	-10.9994010925	107.691993713	-17.7656898499	14.27439785	-0.852316856384
-53.4512863159	-10.0136394501	104.413383484	-17.6126232147	14.4590806961	-0.866605818272
