9.84553146362	-1.10439014435	0.426376223564	4.83479690552	9.49844360352	34.2235527039
10.3023729324	-1.21353793144	0.3398026824	4.73253440857	9.53851127625	34.0232467651
10.3984661102	-1.41160428524	0.460595548153	4.79735136032	9.3581495285	33.7592658997
9.35061073303	-1.86916089058	1.65905594826	4.16934967041	9.09152412415	33.1224784851
3.46982717514	-2.48492050171	2.96795129776	1.79778528214	8.96496200562	32.2259864807
-2.64007949829	-2.03702950478	4.03592777252	-1.09132814407	9.27888774872	31.4028778076
-8.80081939697	-1.45781266689	4.9428653717	-4.7468123436	9.94745540619	30.2262516022
-15.1563634872	-0.289287507534	4.68295812607	-9.07888412476	10.5528383255	28.6507320404
-19.2059288025	0.160794466734	4.92634391785	-13.5341835022	11.1245613098	26.2722911835
-20.7450637817	0.517450153828	5.1987528801	-16.8203754425	11.0635519028	23.8089618683
-22.3826522827	0.761292994022	5.06175756454	-19.707780838	10.8985061646	21.5016899109
-24.0664176941	0.745321631432	4.77780532837	-21.9953613281	10.7691669464	19.5743865967
-25.902671814	0.519619047642	4.38828229904	-23.3351898193	10.3253917694	18.1422538757
-27.8001403809	0.57641351223	4.53234624863	-23.7841434479	9.82772350311	17.0720748901
-30.0648670197	0.799602210522	4.76098108292	-24.0324230194	9.49014091492	16.1630630493
-31.8349876404	1.08307003975	4.74967575073	-24.391916275	9.38872241974	15.1486310959
-32.5085830688	0.962390005589	4.4374256134	-24.9064674377	9.36169910431	14.4267168045
-32.9004364014	0.973632514477	4.46022129059	-25.88829422	9.29301738739	13.6013936996
-33.2605133057	0.904613554478	4.16332054138	-28.1348190308	9.0881729126	12.187379837
-33.1633071899	0.808931231499	4.13759088516	-30.0156822205	8.71200084686	10.5975198746
-33.7731933594	0.6882147789	4.02056980133	-30.8053207397	8.40024757385	9.01331233978
-34.2746200562	0.419640421867	3.09786391258	-30.9671421051	8.55758666992	8.09895515442
-34.0221786499	0.207816034555	2.67537260056	-30.1181163788	8.93390464783	8.72112941742
-33.3575668335	0.390165150166	2.42044615746	-27.8990459442	8.51278209686	9.75820350647
-32.9987602234	0.614951193333	2.66680645943	-26.6253318787	8.13972091675	10.3692998886
-35.2251052856	0.92667388916	2.38588547707	-26.3703727722	8.17959594727	10.5274944305
-40.6177711487	1.47607600689	0.533704578876	-26.3169612885	8.33605384827	10.7446975708
-46.2423286438	2.24936842918	1.13850951195	-26.2159023285	8.34114933014	10.9996404648
-47.9855728149	1.94806873798	0.193206325173	-26.19465065	8.333070755	11.1110668182
-44.6750793457	1.03356277943	0.0216857660562	-26.1297550201	8.46489429474	11.1307373047
-40.2124824524	1.04665577412	3.3087310791	-25.9964809418	8.58268356323	10.9966249466
-37.778049469	1.04178154469	1.01188468933	-25.7226772308	8.58220767975	10.873963356
-37.7261352539	0.795703053474	1.87811934948	-25.5807361603	8.57805633545	10.8506832123
-37.4934425354	1.00238859653	1.79900157452	-25.3026027679	8.48883247375	10.6892328262
-37.5616264343	1.01004934311	1.63920080662	-24.2230262756	8.64567279816	11.0891475677
-37.6327896118	0.78061157465	1.27821850777	-21.3289432526	8.78630447388	13.5853404999
