0.0	-0.0	142.659500122	56.0640602112	82.2405014038	-8.05689620972
0.0	-0.0	141.34992981	56.8439903259	80.4003219604	-8.29309940338
0.0	-0.0	140.855575562	57.2916755676	75.6939239502	-9.34710597992
0.0	-0.0	134.366256714	54.8264160156	64.4549407959	-10.2325553894
0.0	-0.0	131.78364563	52.9350128174	49.1154174805	-11.1990022659
0.0	-0.0	133.070327759	52.2775840759	34.8239250183	-12.8147907257
0.0	-0.0	132.983444214	52.6151580811	26.7780132294	-14.3641624451
0.0	-0.0	130.904968262	53.6437835693	25.4166812897	-15.2158985138
0.0	-0.0	121.15071106	54.9288711548	27.3208236694	-16.1810092926
0.0	-0.0	109.632247925	55.3476638794	28.2240009308	-16.7122936249
0.0	-0.0	103.513816833	54.4662895203	27.624835968	-16.59973526
0.0	-0.0	97.5136642456	53.2986907959	27.8841438293	-16.127571106
0.0	-0.0	89.3378219604	52.9349098206	28.0522270203	-15.8013772964
0.0	-0.0	85.0088272095	52.7883605957	26.9715003967	-15.5103034973
0.0	-0.0	88.1020355225	51.1572799683	23.0821380615	-14.6747322083
0.0	-0.0	94.1635284424	47.8446617126	18.0370864868	-12.3383073807
0.0	-0.0	96.6379013062	47.2184410095	14.2951021194	-12.1937093735
0.0	-0.0	97.6880111694	49.7952537537	9.66600608826	-13.5718336105
0.0	-0.0	98.2321472168	53.0997390747	4.8223400116	-15.2021331787
0.0	-0.0	98.8564071655	57.2454872131	1.30899870396	-17.4232177734
0.0	-0.0	101.766777039	61.4808387756	2.92973399162	-19.5879554749
0.0	-0.0	103.771492004	64.8037185669	3.99745583534	-21.7459106445
0.0	-0.0	102.183288574	68.2468566895	1.22135901451	-24.0151901245
0.0	-0.0	99.0671310425	70.1466751099	-4.58942985535	-24.9121456146
0.0	-0.0	98.1502227783	71.7943572998	-6.44527816772	-25.7554607391
0.0	-0.0	97.0947418213	75.6417770386	-4.05373239517	-28.4364356995
0.0	-0.0	95.0573577881	75.6826477051	-1.95482158661	-28.3321857452
0.0	-0.0	93.7905502319	72.5184555054	-1.49310445786	-25.9587535858
0.0	-0.0	91.4760131836	71.3663253784	-0.0661431103945	-25.0838432312
