-0.103269577026	1.16066837311	0.111651420593	-0.123247623444	1.71658754349	-0.199926376343
-0.10450553894	1.16141235828	0.111428022385	-0.123890161514	1.71662151814	-0.199927806854
-0.107618808746	1.16139006615	0.109587192535	-0.124774217606	1.71649682522	-0.199892163277
-0.111511707306	1.16295480728	0.10611987114	-0.124472856522	1.71624529362	-0.199716925621
-0.115818977356	1.16733765602	0.100761651993	-0.123501300812	1.71596860886	-0.199591040611
-0.11848950386	1.17065095901	0.097629904747	-0.122350692749	1.71601009369	-0.199382662773
-0.11860370636	1.17562305927	0.0984535217285	-0.121591091156	1.7158254385	-0.198999166489
-0.11719584465	1.18586027622	0.099857211113	-0.12016916275	1.71562671661	-0.19872879982
-0.113604307175	1.191588521	0.103464365005	-0.118783950806	1.71549415588	-0.198605060577
-0.111270189285	1.19131624699	0.107182979584	-0.118332147598	1.71501791477	-0.198494791985
-0.110944986343	1.19166994095	0.108195304871	-0.118357419968	1.7147539854	-0.198060393333
-0.110991716385	1.19263875484	0.108185529709	-0.118416547775	1.71465218067	-0.197605371475
-0.110887527466	1.19451367855	0.108234167099	-0.118448734283	1.71432948112	-0.19766664505
