0.0	-0.0	133.991271973	81.5626907349	74.7901992798	14.7716522217
0.0	-0.0	132.864181519	81.7733383179	74.0839538574	15.2054643631
0.0	-0.0	132.575881958	81.3683395386	73.9692840576	15.3530464172
0.0	-0.0	131.949356079	76.9562606812	72.0756225586	18.3828964233
0.0	-0.0	131.276611328	66.4843978882	71.9849700928	21.5757293701
0.0	-0.0	130.263626099	55.0248908997	73.9966659546	23.6983184814
0.0	-0.0	123.222244263	44.8945274353	75.5972824097	27.0586872101
0.0	-0.0	113.794143677	35.3161811829	77.6474990845	29.6897392273
0.0	-0.0	107.000022888	26.0315990448	80.3040542603	31.1552047729
0.0	-0.0	101.707038879	17.3704719543	82.6383209229	32.4883270264
0.0	-0.0	94.5631866455	11.5004367828	84.0330200195	34.4590301514
0.0	-0.0	87.8238830566	8.98552036285	85.7598876953	34.0210113525
