-28.4447803497	-13.4959115982	133.230117798	4.13047647476	-0.160191386938	-4.32579898834
-28.7201385498	-13.3662023544	133.12348938	4.09611845016	-0.0731723979115	-4.26596403122
-28.9201793671	-13.3325805664	133.137985229	3.79270815849	-0.377594530582	-4.22837162018
-29.4181022644	-13.3794212341	132.776687622	1.39609587193	-3.41389274597	-3.98088240623
-30.1364097595	-13.0017709732	131.865234375	-1.77962946892	-8.70935726166	-3.5113503933
-31.2185344696	-12.3607578278	131.756561279	-3.87087440491	-13.5261745453	-3.02314925194
-31.6885910034	-12.2171163559	129.608901978	-4.87966966629	-18.3850860596	-3.31816506386
-32.7067108154	-12.2685375214	125.945960999	-5.70676803589	-23.3576984406	-3.83760404587
-31.9273147583	-10.13925457	112.418113708	-6.88083696365	-26.3017177582	-3.73648047447
-32.362449646	-6.91392564774	96.7363510132	-8.26924705505	-27.2857341766	-3.09593749046
-34.0117874146	-5.13528442383	90.3348846436	-9.59571361542	-27.2146530151	-2.4898955822
-34.2023162842	-4.56266498566	88.5865325928	-10.1460237503	-26.7943687439	-2.26648974419
-34.6825218201	-2.74210572243	83.7906417847	-10.2422714233	-26.3596038818	-2.09456467628
-36.1681594849	-0.505001842976	80.0155334473	-10.0751123428	-25.9044494629	-2.01693224907
-37.1895523071	0.509139418602	81.0424728394	-9.93216705322	-25.3120613098	-2.05073738098
-37.4587173462	1.41770684719	80.083152771	-10.0463371277	-24.8923606873	-1.92798089981
