0.0608515739441	1.32578754425	0.176430463791	0.00296664237976	1.87252032757	-0.183852910995
0.0597484111786	1.32613933086	0.177039861679	0.00313997268677	1.87254691124	-0.18270778656
0.0586755275726	1.32651591301	0.177895784378	0.00325298309326	1.87209832668	-0.181280136108
0.0589032173157	1.32710075378	0.178630828857	0.0039393901825	1.87111842632	-0.178385615349
0.059342622757	1.32695031166	0.177932262421	0.00545120239258	1.8680716753	-0.17339849472
0.0598475933075	1.326562047	0.17632997036	0.00824809074402	1.86211168766	-0.165654659271
0.0602476596832	1.32690441608	0.173763871193	0.0101909637451	1.85339915752	-0.154442548752
0.0599629878998	1.32245767117	0.170879244804	0.0127320289612	1.84395837784	-0.143296718597
0.0599708557129	1.31802856922	0.168764233589	0.0161724090576	1.83608353138	-0.133135676384
0.0605030059814	1.31491041183	0.168193221092	0.0192799568176	1.83176290989	-0.124680042267
0.0609314441681	1.31285440922	0.169543504715	0.0213937759399	1.82995593548	-0.11865401268
0.0611698627472	1.31209778786	0.172404766083	0.0233669281006	1.83026909828	-0.114742994308
0.0617871284485	1.31069600582	0.176330327988	0.025203704834	1.83096027374	-0.112013578415
0.0623571872711	1.31048834324	0.180218935013	0.0261533260345	1.8310046196	-0.110126018524
0.0619809627533	1.31075000763	0.18347465992	0.024829864502	1.83142542839	-0.108747959137
