0.0	-0.0	142.975738525	57.768901825	82.218421936	-13.6768960953
0.0	-0.0	142.636291504	57.8201332092	81.8033218384	-14.0063447952
0.0	-0.0	141.981292725	57.9499588013	81.9658966064	-14.2498998642
0.0	-0.0	143.573669434	57.1372146606	83.3585968018	-13.4831533432
0.0	-0.0	141.778717041	51.424571991	87.6528549194	-10.6482000351
0.0	-0.0	139.459686279	-138.795898438	86.4314956665	173.511154175
0.0	-0.0	137.558395386	-147.744552612	80.1870498657	178.540420532
0.0	-0.0	129.420379639	-155.059707642	72.6597671509	-175.977279663
0.0	-0.0	124.391708374	-162.848342896	65.2230682373	-169.999343872
0.0	-0.0	121.764961243	-170.678451538	57.4912147522	-165.420684814
0.0	-0.0	120.146759033	-174.966674805	51.3134422302	-163.265609741
0.0	-0.0	119.670669556	-173.692657471	47.6784439087	-161.878479004
0.0	-0.0	119.592163086	-170.338363647	45.3639678955	-161.813583374
0.0	-0.0	118.387672424	-167.876663208	43.1351013184	-162.853469849
0.0	-0.0	114.338233948	-167.664505005	42.3811950684	-163.824310303
0.0	-0.0	105.124389648	-168.46295166	43.3290367126	-164.354614258
0.0	-0.0	98.2979278564	-169.087493896	44.4255752563	-164.897689819
0.0	-0.0	89.9426651001	-168.709945679	45.4114074707	-165.16947937
0.0	-0.0	83.9384918213	-169.008575439	46.0448646545	-165.137313843
0.0	-0.0	77.4659881592	-170.572738647	47.069442749	-164.935150146
0.0	-0.0	84.2754135132	-172.806610107	48.0409202576	-165.101867676
0.0	-0.0	91.2621383667	-173.291046143	48.3883476257	-165.183227539
0.0	-0.0	90.8973999023	-172.065460205	48.6507263184	-166.214599609
0.0	-0.0	91.7165603638	-172.611907959	44.8528251648	-164.08782959
0.0	-0.0	95.1360702515	-177.786193848	43.3204727173	-163.075180054
0.0	-0.0	97.2085647583	179.949859619	41.9133033752	-163.129943848
0.0	-0.0	96.3428039551	-179.961303711	37.2601356506	-163.256332397
0.0	-0.0	92.5330047607	-179.466430664	30.3331565857	-163.001617432
0.0	-0.0	85.3544387817	-179.256561279	28.1184635162	-164.9896698
0.0	-0.0	78.7964172363	-177.738876343	29.4090652466	-166.304504395
