-24.0808048248	-24.6804637909	142.2734375	5.72718143463	-2.88732361794	-3.32750153542
-24.1915721893	-25.1645851135	141.860305786	5.55437803268	-3.08177089691	-3.5694205761
-24.6990222931	-25.3259181976	142.109619141	5.55367660522	-3.26435065269	-3.7335627079
-25.1537132263	-25.7567405701	142.189117432	5.97964286804	-4.32415962219	-3.69010543823
-23.9850502014	-27.274980545	136.98059082	6.92222881317	-6.44757938385	-3.59257268906
-22.2003993988	-28.9095916748	128.124923706	7.66211605072	-9.52349948883	-4.01346874237
-18.3894824982	-29.9573822021	111.888565063	8.74680900574	-12.3776683807	-4.53890991211
-15.8185329437	-31.1015548706	101.620864868	10.2205410004	-14.8704252243	-5.07239151001
-12.8050842285	-31.5981464386	91.5791625977	12.1265439987	-17.9518680573	-5.82824087143
-11.0055437088	-31.5514392853	84.4387359619	13.8314504623	-21.5665931702	-6.68527507782
-11.3954963684	-31.4237346649	83.9339065552	14.4078149796	-23.4181613922	-7.14610528946
-11.6372051239	-31.3025894165	83.7440261841	14.554356575	-23.2897148132	-7.4328417778
-10.5192785263	-30.7268924713	79.5516967773	14.9223089218	-22.7293987274	-7.57692289352
-9.98117351532	-29.8695487976	77.4135131836	14.7272768021	-22.6254940033	-7.45293474197
-10.7164373398	-29.1164703369	77.6997680664	14.1031513214	-22.3180828094	-7.17334985733
