0.0	-0.0	136.816818237	54.3536682129	76.7377166748	-13.8719596863
0.0	-0.0	136.989395142	54.7446670532	76.0469512939	-14.1770572662
0.0	-0.0	136.723556519	55.0393180847	75.2441635132	-14.2494630814
0.0	-0.0	135.762832642	54.0136299133	77.8008880615	-13.6021776199
0.0	-0.0	127.036125183	52.327129364	84.3222122192	-12.629535675
0.0	-0.0	119.111282349	-129.097335815	85.7149658203	168.281539917
0.0	-0.0	121.880981445	-129.749755859	73.1626358032	168.721755981
0.0	-0.0	124.605735779	-129.765090942	56.452835083	169.701873779
0.0	-0.0	124.604042053	-129.821044922	38.552028656	170.781799316
0.0	-0.0	123.93221283	-129.029815674	24.0197505951	170.843688965
0.0	-0.0	123.2811203	-126.536369324	16.5773696899	171.305526733
0.0	-0.0	120.5210495	-123.964561462	16.5504589081	171.63470459
0.0	-0.0	112.000740051	-123.524917603	16.2037849426	171.969223022
0.0	-0.0	107.384338379	-125.380943298	13.716545105	172.341033936
0.0	-0.0	103.709281921	-127.511993408	13.6689939499	172.804626465
0.0	-0.0	101.458404541	-128.652435303	16.3555927277	172.99810791
0.0	-0.0	99.1428909302	-129.15737915	16.5776405334	172.456192017
0.0	-0.0	93.7942886353	-128.889175415	14.9945411682	172.610046387
0.0	-0.0	88.120262146	-129.10005188	14.3068237305	172.586196899
0.0	-0.0	81.8697128296	-128.730606079	14.6459541321	172.17829895
0.0	-0.0	74.3540649414	-127.965805054	14.3095283508	172.009414673
0.0	-0.0	69.5237884521	-126.889968872	13.9376106262	171.574188232
0.0	-0.0	69.9198379517	-126.333007812	13.6210184097	172.012649536
0.0	-0.0	75.659942627	-126.866661072	14.0099840164	172.447143555
0.0	-0.0	85.2036361694	-127.455619812	14.8181858063	172.443069458
0.0	-0.0	86.0003356934	-127.34412384	13.9649324417	171.492156982
0.0	-0.0	89.9070510864	-122.154403687	9.2375125885	169.923828125
0.0	-0.0	91.3350296021	-114.022445679	3.30654454231	168.575836182
0.0	-0.0	94.1640548706	-103.195976257	1.11389017105	166.296554565
