-0.0655016899109	1.12733614445	0.101939678192	-0.133314847946	1.71828567982	-0.210209012032
-0.0644211769104	1.12755715847	0.101777791977	-0.133277416229	1.71805512905	-0.210137248039
-0.0645787715912	1.12703895569	0.101657629013	-0.133509635925	1.71846437454	-0.209822535515
-0.066614151001	1.12725579739	0.100579023361	-0.13253903389	1.7225446701	-0.210014820099
-0.0707459449768	1.12535953522	0.0985581874847	-0.130182266235	1.72973096371	-0.212723493576
-0.0739612579346	1.12245976925	0.0976366996765	-0.128906726837	1.73571312428	-0.216834425926
-0.0772891044617	1.12309229374	0.0965294837952	-0.126881837845	1.74101340771	-0.220554947853
-0.0833601951599	1.12513375282	0.0929486751556	-0.125542640686	1.74452757835	-0.223948717117
-0.0865278244019	1.12638878822	0.0911953449249	-0.125468492508	1.74714815617	-0.226444959641
-0.087997674942	1.12730312347	0.0907921791077	-0.125951528549	1.74975764751	-0.228344202042
-0.0908150672913	1.13012516499	0.0904548168182	-0.125756502151	1.75234603882	-0.230511903763
-0.0957453250885	1.13303983212	0.0870671272278	-0.124505519867	1.75439524651	-0.233351707458
