0.0	-0.0	132.16166687	53.9231719971	85.8112869263	-8.50501155853
0.0	-0.0	132.316955566	54.9536743164	85.4061508179	-9.34033489227
0.0	-0.0	132.308258057	55.8726043701	85.2699584961	-10.0611133575
0.0	-0.0	128.112289429	55.4038925171	85.6312179565	-9.98711681366
0.0	-0.0	113.802970886	54.5027427673	87.4735183716	-9.58193206787
0.0	-0.0	105.207923889	54.1905784607	89.1957015991	-9.50213336945
0.0	-0.0	101.896278381	53.5959091187	89.9619674683	-8.93931674957
0.0	-0.0	99.0146026611	-129.236068726	89.8137588501	172.970489502
0.0	-0.0	97.9633102417	42.8184661865	89.3416824341	-2.25286960602
0.0	-0.0	92.9642715454	36.4470748901	89.1544113159	0.613185226917
0.0	-0.0	85.1632080078	34.7092514038	89.5071029663	1.73979842663
0.0	-0.0	80.6402740479	-145.501068115	89.8190231323	-178.212646484
0.0	-0.0	77.9719161987	-145.541763306	89.5639266968	-178.718917847
