-23.6589756012	-25.9186019897	141.279693604	4.48804569244	0.777243554592	-4.79243707657
-23.8475952148	-26.0376262665	141.051605225	4.51630878448	0.789894282818	-4.63139724731
-23.2048492432	-25.5604133606	138.805557251	4.67524671555	0.852369308472	-4.76271677017
-22.8761978149	-25.6795539856	136.32850647	5.11352157593	0.666647493839	-4.7809920311
-21.3331432343	-25.1294784546	127.606582642	5.40104436874	-0.685132980347	-4.60505580902
-21.4364700317	-24.1258487701	118.564781189	5.42800188065	-3.36305117607	-4.60078382492
-22.631072998	-23.9210834503	113.490234375	5.5099697113	-6.84062671661	-4.29257631302
-24.146944046	-23.4135189056	109.94417572	5.9450302124	-10.9912824631	-3.91454958916
-24.0410861969	-23.7644805908	104.788978577	6.82968997955	-15.5866498947	-3.94946956635
-23.0413532257	-24.9875240326	101.823905945	7.80234241486	-19.5491504669	-4.48508453369
-22.4988460541	-26.7555942535	101.741447449	9.43937397003	-23.1374073029	-5.63465642929
-21.1122646332	-27.9706039429	98.9706573486	11.5574798584	-25.9986076355	-7.28102397919
-20.1901760101	-28.3158035278	97.0190658569	13.8415021896	-27.5560302734	-9.00790596008
-19.703792572	-27.8479881287	94.1687850952	14.4975090027	-27.4198875427	-9.79042816162
-18.6565761566	-26.5208377838	87.2434768677	14.6468420029	-26.6671352386	-9.81451320648
-18.0278835297	-25.7246341705	82.6098251343	13.9485235214	-26.4853591919	-9.19667339325
-17.8537483215	-25.0326499939	80.8436737061	13.3688907623	-26.2843990326	-8.90829849243
-16.5079841614	-23.0658493042	73.5625915527	13.6656646729	-25.1546115875	-8.8575592041
-15.8877820969	-21.7548141479	70.6029586792	14.3567276001	-23.9407901764	-8.96069526672
-16.4101314545	-20.6439228058	69.3290481567	14.1498003006	-22.6539916992	-8.67245483398
-16.9722366333	-20.317741394	69.3584747314	13.0687856674	-21.2700748444	-8.04085445404
