-0.134881734848	1.14994084835	0.0941251516342	-0.107670068741	1.7234005928	-0.239226341248
-0.135049343109	1.14984023571	0.0919365882874	-0.106147050858	1.7227948904	-0.240262508392
-0.134367704391	1.15114724636	0.0912489891052	-0.105577707291	1.72414112091	-0.241466283798
-0.133366107941	1.15402781963	0.0910532474518	-0.110717535019	1.72908186913	-0.243340730667
-0.134077548981	1.15443265438	0.0910130739212	-0.118804931641	1.73321735859	-0.245440125465
-0.135887861252	1.15394735336	0.0908613204956	-0.12589430809	1.73580062389	-0.247485399246
-0.139511585236	1.15302348137	0.0904505252838	-0.129451751709	1.737865448	-0.24814081192
-0.144877433777	1.14864170551	0.0885480642319	-0.130982398987	1.73893857002	-0.248120069504
-0.148884534836	1.14475703239	0.086762547493	-0.132108926773	1.73909199238	-0.247154951096
-0.149771928787	1.14455449581	0.0873446464539	-0.133259057999	1.73894834518	-0.245187044144
-0.151594400406	1.14287590981	0.0866801738739	-0.133897542953	1.73835635185	-0.242945671082
-0.153261899948	1.14262890816	0.0857818126678	-0.134234189987	1.73799586296	-0.240752100945
-0.153058052063	1.14192354679	0.0871177911758	-0.134454965591	1.73782908916	-0.238858342171
-0.152808427811	1.14340829849	0.0891019105911	-0.135346651077	1.73743534088	-0.237080097198
-0.154510498047	1.14350736141	0.089056968689	-0.136850595474	1.73734462261	-0.236004829407
-0.156262397766	1.14216685295	0.0886820554733	-0.138219118118	1.73872101307	-0.23638522625
-0.157780170441	1.14030396938	0.0892230272293	-0.137877464294	1.74175643921	-0.238284707069
-0.160218477249	1.13971185684	0.0894064903259	-0.136251211166	1.7438852787	-0.24112534523
-0.162095069885	1.14219248295	0.0906291007996	-0.135701179504	1.74384081364	-0.243355512619
-0.16396188736	1.14459121227	0.0900592803955	-0.13756942749	1.74317705631	-0.245060920715
