0.0548031330109	1.07541894913	0.0476369857788	-0.0962886810303	1.68168735504	-0.200473546982
0.0557358264923	1.07384169102	0.0482015609741	-0.0956017971039	1.68078017235	-0.197968482971
0.0545997619629	1.07244086266	0.0483338832855	-0.0951209068298	1.68035948277	-0.19575548172
0.0541210174561	1.07121515274	0.0480221509933	-0.0950033664703	1.68024468422	-0.194020271301
0.0553591251373	1.07156169415	0.049147605896	-0.0945250988007	1.68129909039	-0.192785263062
0.0576994419098	1.07664608955	0.0511674880981	-0.093287229538	1.68478429317	-0.192439556122
0.0586743354797	1.08325791359	0.0529714822769	-0.0916604995728	1.69223237038	-0.193489789963
0.0558819770813	1.08139157295	0.0547604560852	-0.0894663333893	1.70199549198	-0.197172641754
0.0517756938934	1.07978236675	0.0555526018143	-0.0855026245117	1.71183264256	-0.202605247498
0.0437834262848	1.0814281702	0.0567719936371	-0.0810058116913	1.7195687294	-0.20862698555
0.0352215766907	1.08416450024	0.0586276054382	-0.0777852535248	1.72457158566	-0.213729739189
0.0268814563751	1.08863639832	0.0595736503601	-0.0757126808167	1.72751319408	-0.217257618904
0.0245676040649	1.09630835056	0.0598473548889	-0.0733022689819	1.72957253456	-0.219736337662
0.0253441333771	1.10664474964	0.0581669807434	-0.0701732635498	1.73126399517	-0.221400380135
0.0238900184631	1.1180627346	0.0549080371857	-0.0674085617065	1.73202908039	-0.222839951515
0.0231297016144	1.11955153942	0.0552923679352	-0.0659372806549	1.73153018951	-0.223476171494
0.0234503746033	1.1188313961	0.0543246269226	-0.0654082298279	1.73045837879	-0.223359823227
0.0225892066956	1.11816167831	0.052009344101	-0.0655329227448	1.72920155525	-0.222413301468
0.0204701423645	1.11934876442	0.048512339592	-0.0654702186584	1.72843182087	-0.22137093544
0.0185351371765	1.12429404259	0.0440462827682	-0.0651249885559	1.72819542885	-0.221179246902
0.0189838409424	1.12939536572	0.041403055191	-0.0640835762024	1.72794592381	-0.221457004547
0.0209009647369	1.13246119022	0.0402171611786	-0.0633900165558	1.72759962082	-0.222018718719
0.0246410369873	1.13340592384	0.039717912674	-0.0630159378052	1.72758197784	-0.222851991653
0.0304355621338	1.13751363754	0.0374072790146	-0.0631666183472	1.72749507427	-0.223776102066
0.0304036140442	1.13942158222	0.0368337631226	-0.0628459453583	1.7275840044	-0.224677443504
0.0301671028137	1.14022815228	0.036637544632	-0.0624611377716	1.72773337364	-0.225796580315
0.029958486557	1.13802540302	0.0374023914337	-0.0620701313019	1.727435112	-0.226899147034
0.0282266139984	1.13345241547	0.0376279354095	-0.0616011619568	1.72677540779	-0.227483510971
0.0284738540649	1.1313380003	0.0369383096695	-0.0614204406738	1.72564816475	-0.227501153946
0.0281836986542	1.13205909729	0.0355899333954	-0.061680316925	1.72507667542	-0.227252483368
0.0277075767517	1.13218665123	0.0348870754242	-0.0618422031403	1.72445011139	-0.227673888206
0.0277366638184	1.13296973705	0.0340746641159	-0.0633172988892	1.72372019291	-0.22910451889
0.028578042984	1.13446414471	0.0333055257797	-0.0659861564636	1.72284817696	-0.23049902916
0.0305917263031	1.13656318188	0.0329504013062	-0.0672481060028	1.72290694714	-0.232242584229
0.0345320701599	1.13762485981	0.0328505039215	-0.0675926208496	1.72333943844	-0.234327197075
0.0385587215424	1.13870596886	0.0318074226379	-0.0666539669037	1.7243039608	-0.237063646317
0.0421786308289	1.14017665386	0.0303617715836	-0.0655841827393	1.72507429123	-0.240373373032
0.0450932979584	1.14280116558	0.0275374650955	-0.0644226074219	1.72542119026	-0.24332511425
