7.85710144043	-2.79376220703	-1.80289447308	8.52953243256	2.39869976044	34.8038825989
7.94442129135	-2.84353113174	-1.68384790421	8.33910560608	2.33479571342	34.6866760254
7.69933748245	-2.80141806602	-1.51318180561	8.26858901978	2.06204128265	34.4608345032
7.46940469742	-4.62040567398	-0.368152886629	8.61567497253	0.770947754383	33.884563446
6.69249725342	-8.68949890137	2.01823782921	8.01469898224	-2.25030994415	32.1007423401
6.94431686401	-10.8090744019	3.01301240921	7.1865067482	-5.26311683655	29.3304462433
7.33557748795	-13.7705526352	3.52278828621	7.08035516739	-7.5931391716	26.1784553528
7.00603866577	-15.4731988907	1.80767393112	7.44104146957	-9.41743469238	22.9947414398
7.39587450027	-12.5521507263	-0.187425091863	7.99803161621	-10.8850851059	19.7501335144
8.07361316681	-14.7703418732	1.21028900146	8.54189968109	-12.2784938812	16.5504379272
8.0925989151	-18.5205364227	2.82284235954	8.90888404846	-13.6982936859	13.6576690674
8.12983798981	-21.682012558	3.4497385025	9.28150272369	-15.1723880768	11.1948051453
8.4870300293	-21.9957294464	3.01378560066	9.68591785431	-15.7014141083	9.38934803009
8.9996213913	-21.6350650787	2.848944664	9.89116764069	-15.5350322723	8.46758937836
8.95674324036	-22.3196849823	3.08357024193	9.73271083832	-14.9699659348	8.45474624634
9.52457714081	-24.6153945923	2.75499224663	9.42827510834	-14.4764499664	8.92056846619
11.0753660202	-27.830581665	2.65623831749	9.29056453705	-14.2256193161	9.34645366669
13.4615097046	-29.6385631561	1.59421217442	9.50025939941	-14.0165128708	9.65472221375
19.262550354	-29.415189743	-0.627611279488	9.78312206268	-13.8591041565	9.89130020142
21.7829341888	-28.7978649139	-0.941894471645	9.81278419495	-13.8199834824	10.0362558365
19.6515827179	-27.1400051117	-0.494224816561	9.74252319336	-13.8728485107	10.1012506485
16.78074646	-24.4007205963	-0.538725912571	9.77580738068	-13.9464960098	10.0586872101
15.7877607346	-24.203420639	0.857603728771	9.6428155899	-13.6888380051	10.2573232651
14.2905368805	-24.8543491364	1.53005850315	9.44892692566	-13.1943178177	10.9029302597
13.0711364746	-25.1854076385	1.97155737877	9.33496570587	-13.1219549179	11.3586587906
13.3149461746	-25.5523509979	2.12467765808	9.49668502808	-13.3491392136	11.2607059479
13.8376989365	-25.7388191223	1.96813547611	10.3213033676	-13.4764022827	11.7197599411
14.0727939606	-25.5108394623	1.2846237421	12.9002742767	-13.4949140549	15.6613903046
14.3383016586	-26.2960300446	0.846670806408	13.0274410248	-14.165555954	19.7637252808
15.2844400406	-27.0993728638	0.667083859444	12.2198028564	-14.4878950119	20.6732521057
17.5855503082	-27.6082954407	-0.168619155884	11.6869621277	-14.9668292999	21.018283844
20.8337154388	-29.2652549744	-1.23462569714	11.6391420364	-15.3405847549	21.3377571106
26.0634727478	-31.6352424622	-2.80504727364	11.7599573135	-15.3613986969	21.488161087
28.8698272705	-34.0616378784	-3.86315083504	11.7668743134	-15.3552398682	21.5424671173
29.2594509125	-36.178604126	-3.73293828964	11.6991758347	-15.2738199234	21.2257804871
29.5643672943	-37.6039924622	-4.06860017776	11.7820987701	-15.3520021439	21.0304145813
30.1140079498	-40.8124732971	-4.21469593048	11.9232673645	-15.7016363144	20.8005218506
32.348033905	-40.3572120667	-5.6875128746	12.3539934158	-15.978304863	20.4998645782
34.8226585388	-39.2128334045	-6.68165016174	12.5762319565	-16.0746994019	20.0956726074
35.7652397156	-38.4995346069	-7.01075696945	12.3822011948	-16.0496253967	20.0633239746
34.4175987244	-36.1600723267	-6.1138548851	12.1806631088	-16.0865345001	20.2727890015
31.603597641	-33.2777671814	-5.44474458694	12.3048019409	-16.0757694244	20.3951416016
27.8449440002	-31.1665935516	-4.50926065445	12.0933771133	-16.1471920013	20.476858139
27.5201835632	-32.8610191345	-4.06896781921	11.5100345612	-16.4079113007	20.8559131622
28.9927692413	-34.8709030151	-4.11553525925	11.0802459717	-16.3129310608	21.3172683716
30.7371196747	-35.7439498901	-4.2232875824	10.8998565674	-16.3504962921	21.3919372559
31.2605056763	-35.3022575378	-4.6047334671	10.8843955994	-16.6495418549	21.4831733704
31.0702972412	-35.6334457397	-4.35651779175	11.0178098679	-16.5936641693	22.0154781342
30.4009742737	-34.8442802429	-4.04596424103	11.1121578217	-16.207868576	24.6237468719
30.0733718872	-34.8817481995	-4.04113006592	11.3262233734	-15.3589792252	28.439655304
29.7153358459	-36.7536354065	-3.24214172363	11.5458126068	-14.7632884979	31.451253891
30.4949817657	-36.7377967834	-3.68113470078	11.1952476501	-14.6612901688	31.4241676331
29.8623828888	-36.4522323608	-3.40944981575	10.7605743408	-14.6262025833	30.6859455109
26.6305446625	-34.7101173401	-2.52104210854	9.94892311096	-14.669213295	28.4641819
23.461517334	-32.9853973389	-1.8798635006	8.88644886017	-14.8258466721	25.4028644562
20.7092018127	-32.8987960815	-1.35012328625	8.38978004456	-15.2991266251	22.0005664825
19.6450481415	-32.4648551941	-1.72765505314	8.77170562744	-15.6307582855	18.9637470245
18.8743495941	-32.0360336304	-1.35059559345	9.67032051086	-16.0265541077	17.1376972198
18.8411540985	-31.2158279419	-1.41484761238	10.3020114899	-16.1811599731	16.1234722137
