0.0	-0.0	133.593383789	-122.095535278	89.8139648438	174.952911377
0.0	-0.0	133.778320312	57.6776657104	89.6761550903	-4.79060220718
0.0	-0.0	133.024078369	57.4702148438	89.2184524536	-4.95671081543
0.0	-0.0	118.332984924	-125.569412231	87.6956481934	176.615325928
0.0	-0.0	106.080039978	-131.85874939	80.5826339722	179.321136475
0.0	-0.0	100.493904114	-139.230285645	70.157081604	-177.046798706
0.0	-0.0	95.2672119141	-146.246704102	57.5957641602	-173.360031128
0.0	-0.0	84.7771911621	-151.334533691	44.3441390991	-170.35848999
0.0	-0.0	76.7052536011	-153.104660034	32.4903030396	-168.715942383
0.0	-0.0	75.579826355	-152.530990601	25.2634563446	-168.297622681
0.0	-0.0	74.7217254639	-150.807403564	21.6186771393	-168.608459473
0.0	-0.0	72.2677841187	-149.264938354	17.8277854919	-169.334228516
0.0	-0.0	66.4427642822	-148.263412476	15.0840559006	-169.610992432
0.0	-0.0	63.6544303894	-148.527984619	15.2386951447	-169.789581299
0.0	-0.0	64.1464614868	-149.296173096	15.5667629242	-169.828964233
0.0	-0.0	63.9858474731	-149.635299683	15.8002023697	-169.788818359
0.0	-0.0	64.4918746948	-149.37677002	14.6906681061	-169.293670654
0.0	-0.0	69.0062179565	-148.848480225	10.3541250229	-168.293899536
0.0	-0.0	73.3949127197	-148.655944824	3.08255505562	-166.658401489
0.0	-0.0	76.960899353	-147.658111572	2.25611543655	-165.849533081
0.0	-0.0	75.0578994751	-146.579803467	2.48442149162	-165.718170166
0.0	-0.0	72.1912918091	-147.662017822	2.06179690361	-164.860336304
0.0	-0.0	73.2529830933	-149.534179688	2.66323566437	-163.510009766
0.0	-0.0	73.3347244263	-151.037261963	2.40508198738	-162.882278442
0.0	-0.0	73.3748703003	-151.265213013	0.566340863705	-161.142730713
0.0	-0.0	73.2075424194	-151.189941406	-2.69679570198	-160.54574585
0.0	-0.0	81.6308288574	-149.274246216	-2.24824357033	-161.713821411
0.0	-0.0	87.6275253296	-145.778564453	-0.823193311691	-163.192062378
0.0	-0.0	89.8152999878	-141.835540771	1.3020209074	-164.657333374
0.0	-0.0	69.2408828735	-138.871414185	7.80981063843	-165.873687744
0.0	-0.0	55.503528595	-139.051315308	18.9270095825	-167.339370728
0.0	-0.0	53.5502891541	-139.91859436	30.222366333	-168.728118896
0.0	-0.0	53.3990211487	-142.727096558	35.0842971802	-168.860610962
0.0	-0.0	49.4269943237	-147.082260132	33.8286628723	-166.689163208
0.0	-0.0	47.2611312866	-151.345397949	30.8713169098	-163.406204224
0.0	-0.0	45.0625228882	-154.035202026	28.6351947784	-161.719299316
0.0	-0.0	45.4951019287	-154.900695801	27.1899261475	-161.689727783
0.0	-0.0	44.7606620789	-153.971359253	26.3605499268	-161.678970337
0.0	-0.0	44.4875602722	-152.957199097	24.9363460541	-161.442550659
0.0	-0.0	42.6580886841	-153.206619263	23.656791687	-161.255447388
0.0	-0.0	42.9974517822	-154.697494507	22.842880249	-160.680206299
0.0	-0.0	42.9524993896	-156.065551758	23.428527832	-160.614746094
0.0	-0.0	43.20495224	-156.017547607	24.2698554993	-161.451705933
0.0	-0.0	42.5694160461	-154.768997192	24.7270278931	-162.620574951
0.0	-0.0	42.5875015259	-154.303237915	24.839969635	-162.410324097
0.0	-0.0	42.5048027039	-156.862442017	25.1213626862	-161.056304932
0.0	-0.0	41.8145713806	-161.812042236	24.1264343262	-160.565048218
0.0	-0.0	41.3737869263	-164.837860107	21.2353534698	-159.99520874
0.0	-0.0	42.3428955078	-165.844329834	14.9797620773	-158.588775635
0.0	-0.0	42.6028213501	-166.316833496	11.0873994827	-156.396972656
0.0	-0.0	42.2858695984	-160.39730835	13.4706716537	-155.488265991
0.0	-0.0	42.3433074951	-150.811447144	12.4405965805	-149.438018799
0.0	-0.0	42.1941680908	-150.26864624	7.80035734177	-140.010894775
0.0	-0.0	41.9976158142	-152.648254395	6.44033098221	-136.135894775
0.0	-0.0	42.0672721863	-152.513671875	7.0715637207	-136.830413818
0.0	-0.0	42.0580978394	-149.168334961	9.05521392822	-140.63168335
0.0	-0.0	41.719909668	-148.858901978	10.7416563034	-151.720184326
0.0	-0.0	41.6887969971	-148.617614746	9.55704212189	-160.679367065
0.0	-0.0	41.2800254822	-144.544784546	9.44751358032	-163.605789185
0.0	-0.0	41.1563453674	-143.394226074	9.85289955139	-165.545227051
0.0	-0.0	41.0748634338	-146.275314331	10.8034954071	-167.276123047
0.0	-0.0	40.9411735535	-146.621582031	12.3375167847	-167.549545288
0.0	-0.0	40.7782440186	-147.377075195	13.2412195206	-168.682723999
0.0	-0.0	40.6809005737	-152.881118774	17.5226669312	-171.910980225
0.0	-0.0	40.4531173706	-157.180389404	21.7363071442	-174.181213379
0.0	-0.0	40.3530807495	-161.389373779	24.8565292358	-175.259414673
0.0	-0.0	40.7220115662	-166.163833618	25.9649448395	-173.977706909
0.0	-0.0	47.2979278564	-167.166885376	26.357667923	-171.840332031
0.0	-0.0	51.9712104797	-166.701919556	26.2814979553	-170.99118042
0.0	-0.0	57.5836296082	-165.4581604	25.4658489227	-170.886901855
0.0	-0.0	62.2122993469	-163.698669434	23.851518631	-169.804855347
0.0	-0.0	60.4670181274	-162.572982788	22.3293895721	-168.652694702
0.0	-0.0	58.8077163696	-163.036026001	21.641078949	-168.799194336
0.0	-0.0	57.9060249329	-162.209854126	21.3317832947	-168.102844238
0.0	-0.0	56.7574234009	-160.451126099	20.9649734497	-166.785858154
0.0	-0.0	56.6902732849	-162.664367676	21.4665966034	-167.291778564
0.0	-0.0	55.4416923523	-163.937438965	21.9170322418	-168.038909912
