0.0	-0.0	132.116241455	51.3852233887	85.4608612061	-17.2999305725
0.0	-0.0	131.882171631	51.5648994446	85.8459625244	-17.2476959229
0.0	-0.0	131.684295654	52.0506477356	85.9310836792	-17.1836185455
0.0	-0.0	130.825866699	51.9288101196	86.2720184326	-16.8719520569
0.0	-0.0	126.445350647	51.7877502441	89.0573348999	-16.1974449158
0.0	-0.0	125.149429321	-134.368728638	85.7450332642	165.729522705
0.0	-0.0	126.888412476	-145.392883301	83.004776001	166.180404663
0.0	-0.0	126.713981628	-156.229598999	82.2531661987	166.733078003
0.0	-0.0	125.86618042	-168.420974731	81.8858947754	168.130981445
0.0	-0.0	123.73638916	-179.961639404	82.3392028809	168.854598999
0.0	-0.0	118.543136597	170.739273071	83.4618377686	168.986755371
0.0	-0.0	113.834877014	163.686080933	85.3937530518	168.361633301
0.0	-0.0	109.485740662	158.302581787	87.6274490356	167.599609375
0.0	-0.0	103.178459167	154.641571045	88.7486801147	167.065933228
0.0	-0.0	102.143791199	152.662918091	88.3717422485	167.103805542
0.0	-0.0	101.402938843	151.619277954	88.2176971436	167.677185059
0.0	-0.0	99.0253295898	150.769363403	88.7895126343	168.482284546
0.0	-0.0	94.4523010254	-30.1915340424	89.7878341675	-10.7367658615
0.0	-0.0	90.6114730835	-31.2723464966	88.5483474731	-10.4336795807
0.0	-0.0	89.1398620605	-32.221321106	88.3997879028	-10.293129921
0.0	-0.0	87.5363693237	-32.846622467	88.7198867798	-10.3747444153
0.0	-0.0	83.3064804077	-32.6188354492	89.1787872314	-10.3123483658
