-25.0989093781	-20.5984477997	131.540771484	2.11343812943	-1.19884955883	-5.64068412781
-25.0400600433	-20.7017097473	131.823898315	2.13948559761	-0.983286499977	-5.64699172974
-24.8919811249	-20.6616325378	131.764419556	2.38997340202	-0.952196955681	-5.58185815811
-24.818441391	-20.5121879578	131.698562622	2.35120129585	-1.09278774261	-5.58220243454
-24.7529697418	-20.7640476227	130.277526855	2.27315378189	-1.25682973862	-5.48953056335
-22.1125488281	-21.1658992767	119.165061951	2.86490082741	-1.16142857075	-5.54302215576
-20.5123176575	-21.2774467468	113.058929443	4.95818185806	-0.891887128353	-5.97379112244
-19.8784427643	-21.4230213165	111.04019928	7.98884391785	-0.484069079161	-6.45099020004
-19.1405220032	-21.2892379761	107.622444153	10.74588871	-0.0204870142043	-6.81205701828
-18.4659881592	-20.8210868835	103.569854736	12.6215457916	0.236880406737	-7.18716669083
-16.9342155457	-20.0023059845	95.7943344116	13.43242836	0.0931318551302	-7.29855203629
-16.0754890442	-19.6353034973	92.1938018799	13.8356552124	-0.0938969701529	-7.312895298
-15.2634181976	-19.6293830872	89.1306152344	14.0721206665	-0.0650180056691	-7.2131319046
-14.6808948517	-19.5530929565	85.821762085	14.6130924225	-0.0569804012775	-6.94505405426
-14.0542526245	-19.2550067902	82.5658874512	15.6304988861	-0.331330865622	-6.64221572876
-14.0432357788	-18.76521492	80.8499908447	17.458442688	-0.855708003044	-6.25890302658
-14.4778718948	-18.7000427246	80.9305877686	17.8917732239	-0.626596927643	-5.53146123886
-14.6450843811	-18.7405433655	80.1122665405	16.9962291718	0.22351795435	-4.86783313751
