Participant: 7127

Trial	Condition	Time
0		0			4.7387
1		1			2.8536
2		2			2.1984
3		1			1.9877
4		0			2.5177
5		2			3.0203
6		4			3.3868
7		0			1.9205
8		0			1.8428
9		4			2.3649
10		3			1.2764
11		3			1.4961
12		5			2.2761
13		5			1.5208
14		3			3.0648
15		2			1.5293
16		6			1.7652
17		0			2.1955
18		1			1.8206
19		0			2.0757
20		4			1.9096
21		2			5.2081
22		6			2.5732
23		5			2.0317
24		4			1.6643
25		5			1.4182
26		3			2.1982
27		4			2.8647
28		5			1.1768
29		4			1.7314
30		5			1.9984
31		3			2.0207
32		1			2.2176
33		3			2.5094
34		1			2.2426
35		2			1.3986
36		6			2.5402
37		2			1.6319
38		2			1.3543
39		4			3.8531
40		3			1.7977
41		2			1.4209
42		4			1.865
43		3			1.6539
44		3			1.1317
45		0			4.1306
46		1			1.5179
47		6			2.2651
48		0			4.7086
49		3			1.5429
