0.103336811066	1.30170071125	0.203334331512	-0.00876617431641	1.87565720081	-0.122106552124
0.103793382645	1.30132830143	0.202511668205	-0.00609397888184	1.874994874	-0.121477842331
0.104563713074	1.30037033558	0.201963305473	-0.00531196594238	1.87530517578	-0.120714306831
0.105977296829	1.30084502697	0.201735496521	-0.00494241714478	1.87531626225	-0.120109558105
0.107402324677	1.30223166943	0.201029062271	-0.00478839874268	1.87521696091	-0.120156645775
0.108248949051	1.30266201496	0.200706005096	-0.0047402381897	1.87505149841	-0.120534062386
0.108240842819	1.30354988575	0.199833631516	-0.00468564033508	1.87532770634	-0.121639490128
0.107544898987	1.30402374268	0.19926404953	-0.00226950645447	1.87554788589	-0.123215913773
0.107523202896	1.30542588234	0.199058413506	-0.000606775283813	1.8761382103	-0.125066757202
0.108587741852	1.30800008774	0.198608756065	-0.00369453430176	1.8771841526	-0.126550078392
0.109681844711	1.30836808681	0.197541952133	-0.00628662109375	1.87745988369	-0.128295660019
0.108545064926	1.30863690376	0.195484995842	-0.00598049163818	1.87746787071	-0.128994464874
0.107070207596	1.30944156647	0.193413257599	-0.00691318511963	1.87746846676	-0.129144906998
0.106950759888	1.31137025356	0.191739439964	-0.00980401039124	1.87757253647	-0.129515886307
0.107002496719	1.31344926357	0.19077694416	-0.0132908821106	1.87749874592	-0.130306959152
0.106781005859	1.31458616257	0.190723180771	-0.0119500160217	1.87708592415	-0.13127040863
0.104580879211	1.31742727757	0.190782546997	-0.00734925270081	1.87661063671	-0.132305026054
0.102544546127	1.32023990154	0.190325379372	-0.00466322898865	1.87666118145	-0.13333940506
0.100309848785	1.32173740864	0.188401937485	-0.00553870201111	1.87608420849	-0.134419679642
0.0988187789917	1.32187819481	0.185536146164	-0.00716400146484	1.87517678738	-0.134710907936
0.0974092483521	1.32233452797	0.182915568352	-0.00841927528381	1.87377774715	-0.134385824203
0.0953919887543	1.32274150848	0.180826663971	-0.0102157592773	1.87289321423	-0.13432431221
0.0916450023651	1.3238042593	0.178742408752	-0.0124254226685	1.8727953434	-0.134666085243
0.0875999927521	1.32405543327	0.177646756172	-0.013867855072	1.8734805584	-0.135730862617
0.0838317871094	1.32461750507	0.177554011345	-0.0146679878235	1.87427175045	-0.137024402618
0.0796966552734	1.32689034939	0.17657995224	-0.0150425434113	1.8740323782	-0.137739896774
0.077712059021	1.329682827	0.175248622894	-0.0156939029694	1.87376272678	-0.137885808945
0.0751490592957	1.33103227615	0.173718333244	-0.01700258255	1.8733355999	-0.137998819351
0.0717270374298	1.332249403	0.171263217926	-0.0186009407043	1.87312531471	-0.137829422951
0.0669767856598	1.33298003674	0.168531298637	-0.0203382968903	1.87262117863	-0.137893915176
0.0631227493286	1.33525121212	0.166672468185	-0.0220918655396	1.87242591381	-0.137886762619
0.0603699684143	1.33879470825	0.165336966515	-0.0237038135529	1.87234544754	-0.137811779976
0.0574162006378	1.33967196941	0.166121006012	-0.0255756378174	1.8725553751	-0.13779592514
