0.0	-0.0	130.088424683	-125.974433899	89.6354980469	167.695007324
0.0	-0.0	130.186157227	-126.120674133	89.6710205078	167.976837158
0.0	-0.0	129.898880005	-126.314376831	89.6509475708	167.962402344
0.0	-0.0	128.868545532	-126.019340515	89.6306533813	167.828903198
0.0	-0.0	121.343147278	-126.327949524	89.5422973633	167.945419312
0.0	-0.0	116.909011841	-128.050109863	89.8054504395	168.447357178
0.0	-0.0	113.083656311	48.644077301	89.0579452515	-9.87969398499
0.0	-0.0	110.123825073	41.7636795044	86.1089019775	-7.29846286774
0.0	-0.0	108.450576782	37.4957580566	85.1852493286	-5.25267648697
0.0	-0.0	106.368911743	37.9641342163	85.98072052	-4.84371232986
0.0	-0.0	103.23764801	40.9542045593	87.325958252	-6.74083471298
0.0	-0.0	100.469024658	43.2699203491	88.4185562134	-8.4765253067
0.0	-0.0	96.3615570068	43.8266716003	88.7444534302	-9.03470993042
0.0	-0.0	93.3458633423	43.4635429382	89.2078704834	-8.62045001984
0.0	-0.0	91.1076889038	42.4453353882	89.664390564	-8.10638904572
0.0	-0.0	89.4525299072	41.771900177	89.6002120972	-7.85722112656
0.0	-0.0	87.494140625	41.4829063416	89.1932144165	-7.82211971283
0.0	-0.0	85.2697525024	41.1414451599	88.597984314	-7.84459400177
0.0	-0.0	82.424446106	40.7911758423	88.1041412354	-7.91477012634
0.0	-0.0	81.2023849487	40.546043396	87.7978286743	-8.12508010864
0.0	-0.0	79.2297363281	40.213760376	88.0970535278	-8.25952529907
0.0	-0.0	78.7875442505	39.1512527466	88.711517334	-8.11321640015
0.0	-0.0	78.6578063965	37.4521255493	89.2573013306	-7.82094621658
