-0.0567405223846	1.14423632622	0.0905301570892	-0.108061790466	1.71918427944	-0.238455533981
-0.0567982196808	1.1442258358	0.0898168087006	-0.106951713562	1.7192414999	-0.239830851555
-0.0566554069519	1.14491319656	0.0903533697128	-0.106516361237	1.72064363956	-0.240580797195
-0.0567572116852	1.14760184288	0.0922740697861	-0.107197761536	1.72207343578	-0.240455389023
-0.058563709259	1.15133881569	0.0937829017639	-0.109612464905	1.7213357687	-0.241043567657
-0.0644764900208	1.15416073799	0.0930970907211	-0.11469578743	1.71933245659	-0.240519881248
-0.0731043815613	1.15550482273	0.0875853300095	-0.1219394207	1.71365821362	-0.238249778748
-0.0807390213013	1.1553940773	0.0812368392944	-0.129257440567	1.70589506626	-0.235440254211
-0.0878481864929	1.15783071518	0.0757269859314	-0.134464263916	1.69826066494	-0.233514904976
-0.0950167179108	1.16157877445	0.0704451799393	-0.136963367462	1.69164073467	-0.232695698738
-0.101988315582	1.16469740868	0.0638601779938	-0.137780666351	1.68596529961	-0.232261061668
-0.105643987656	1.16369950771	0.0578038692474	-0.138708353043	1.68135023117	-0.233101963997
-0.105686426163	1.16104638577	0.055189371109	-0.138441085815	1.67927420139	-0.234407663345
-0.104942798615	1.15791249275	0.0530433654785	-0.136495828629	1.67729365826	-0.236605644226
-0.105051994324	1.15745210648	0.0495374202728	-0.133599042892	1.67415773869	-0.239612460136
-0.105012893677	1.15824782848	0.0453290939331	-0.130949497223	1.66992044449	-0.243246078491
