Participant: 1234

Trial	Condition	Time
0		6			254.872
1		0			6.4521
2		6			14.0155
3		0			19.824
4		3			27.798
5		0			36.5951
6		1			5.819
7		0			53.8219
8		6			35.2818
9		4			5.5525
10		3			64.2841
11		6			368.2017
12		3			14.3791
13		0			4.5753
14		0			1.441
15		6			18.5221
16		1			5.4388
17		4			0.6854
18		0			3.2398
19		2			9.1704
20		1			3.7397
21		0			1.2986
22		1			4.528
23		5			97.2346
24		2			28.174
25		1			3.9171
26		0			2.5178
27		0			6.9936
28		0			1.3294
29		4			1.9428
30		2			11.2914
31		0			1.7845
32		3			7.7483
33		2			4.5418
34		6			20.7213
35		0			1.4541
36		6			10.7249
37		2			12.9157
38		2			4.8081
39		5			27.6628
40		0			0.7742
41		0			0.9073
42		6			24.5225
43		0			4.8524
44		5			19.1359
45		5			43.0011
46		1			2.9196
47		2			18.7441
48		4			1.3208
49		4			1.6514
