-0.0453073978424	1.17788314819	-0.226215958595	-0.0275037288666	1.51099848747	-0.368121743202
-0.0443339347839	1.17772984505	-0.225341320038	-0.0271401405334	1.51063740253	-0.366132378578
-0.0437715053558	1.17722785473	-0.223106861115	-0.0269031524658	1.51050388813	-0.363190889359
-0.0448627471924	1.17644321918	-0.220631361008	-0.0272359848022	1.51006388664	-0.359582424164
-0.0457887649536	1.17559278011	-0.217615485191	-0.0279123783112	1.50847637653	-0.354199409485
-0.0459449291229	1.17546129227	-0.21407520771	-0.0254809856415	1.50345802307	-0.345496296883
-0.0466077327728	1.17593443394	-0.21238386631	-0.0193498134613	1.49630713463	-0.335919141769
-0.0481719970703	1.17434370518	-0.209677934647	-0.0128555297852	1.49300146103	-0.327813863754
-0.0468335151672	1.17245030403	-0.204983234406	-0.00742554664612	1.49246239662	-0.320451498032
-0.0481786727905	1.17037427425	-0.197162270546	-0.00349259376526	1.49217748642	-0.313435316086
-0.0471136569977	1.16867125034	-0.192188262939	-0.00163888931274	1.49190175533	-0.307078123093
-0.0467517375946	1.16979050636	-0.188948392868	-0.00200653076172	1.49144387245	-0.301784157753
