0.0563282966614	1.08723413944	-0.0945291519165	-0.0847680568695	1.42752552032	-0.280169248581
0.0566504001617	1.08834767342	-0.0951045751572	-0.0853404998779	1.4278203249	-0.281226158142
0.0563905239105	1.08853459358	-0.0950472354889	-0.0852482318878	1.42949855328	-0.28193628788
0.054190158844	1.09009540081	-0.0962109565735	-0.0844316482544	1.43274903297	-0.282977461815
0.0512008666992	1.09296369553	-0.0964869260788	-0.0819146633148	1.43540751934	-0.284077644348
0.0488076210022	1.1005641222	-0.0975875854492	-0.0764503479004	1.43897664547	-0.285184383392
0.0447590351105	1.10668992996	-0.0991146564484	-0.0672776699066	1.44291210175	-0.286897778511
0.0427670478821	1.11468446255	-0.0991585254669	-0.0555818080902	1.44586098194	-0.289312243462
0.0491080284119	1.12397861481	-0.0956645011902	-0.0424528121948	1.44975399971	-0.292299032211
0.0595741271973	1.1282684803	-0.0903906822205	-0.0288124084473	1.45445990562	-0.295684099197
0.0595235824585	1.1319886446	-0.0910675525665	-0.0146081447601	1.45878982544	-0.298704504967
0.0535750389099	1.13943839073	-0.0955064296722	0.000213146209717	1.46044409275	-0.301898598671
0.042578458786	1.14309167862	-0.0985097885132	0.0125188827515	1.46075475216	-0.304962396622
0.0311646461487	1.14192318916	-0.100167036057	0.02232670784	1.45819616318	-0.306737422943
0.0240392684937	1.13735890388	-0.101698637009	0.0298156738281	1.4540553093	-0.307834863663
0.0227494239807	1.13215267658	-0.101456999779	0.0359463691711	1.44891691208	-0.307979822159
0.0262851715088	1.13074731827	-0.100082159042	0.0416734218597	1.44374632835	-0.307483911514
0.03098320961	1.13094127178	-0.0979239940643	0.0477735996246	1.44338560104	-0.306080818176
0.0356364250183	1.12397623062	-0.0941654443741	0.0531947612762	1.4469588995	-0.305396080017
0.0348587036133	1.11563611031	-0.0930216312408	0.0564923286438	1.44970357418	-0.304807901382
0.0319347381592	1.11043727398	-0.0938673019409	0.0569293498993	1.452070117	-0.304042220116
0.0337390899658	1.10053670406	-0.0905709266663	0.0551733970642	1.45416581631	-0.303135156631
0.0396139621735	1.08392751217	-0.084485411644	0.052889585495	1.45366299152	-0.301931142807
0.0500891208649	1.06096732616	-0.07697224617	0.0515339374542	1.45180535316	-0.300620079041
0.0607104301453	1.03712654114	-0.0724558830261	0.0517158508301	1.44943153858	-0.298933744431
0.0547831058502	1.0235118866	-0.0736510753632	0.0525658130646	1.4467972517	-0.29684150219
0.0426461696625	1.02443957329	-0.0766170024872	0.0531303882599	1.44429767132	-0.295039176941
0.0347254276276	1.02866721153	-0.0783385038376	0.0527575016022	1.44133746624	-0.29402244091
0.033257484436	1.02904081345	-0.0784978866577	0.0516135692596	1.43434596062	-0.294607162476
0.03515625	1.02827835083	-0.0784509181976	0.0521373748779	1.42997550964	-0.295339584351
0.0351581573486	1.02923941612	-0.0802811384201	0.05473279953	1.42950510979	-0.297307491302
0.0344130992889	1.03012704849	-0.0819532871246	0.0584955215454	1.42972576618	-0.300511837006
0.0335566997528	1.03188276291	-0.0837852954865	0.0622355937958	1.4297491312	-0.304608821869
0.0282671451569	1.03816223145	-0.0881915092468	0.0647492408752	1.4303971529	-0.308853983879
0.0250103473663	1.04167175293	-0.0921231508255	0.0667622089386	1.43018519878	-0.313613653183
0.0252795219421	1.04165816307	-0.0926795005798	0.0698139667511	1.42795598507	-0.318489313126
0.022492647171	1.0411336422	-0.0950660705566	0.0726320743561	1.42608988285	-0.32168674469
0.0200071334839	1.04384589195	-0.0979549884796	0.074334859848	1.42518031597	-0.322190523148
0.0199418067932	1.04955148697	-0.100133419037	0.0762865543365	1.42531943321	-0.321689963341
0.0234889984131	1.05427503586	-0.0996984243393	0.0789270401001	1.42647635937	-0.320685625076
0.0319397449493	1.05325675011	-0.0959930419922	0.0814867019653	1.43011701107	-0.318727374077
0.0463309288025	1.0406267643	-0.0885645151138	0.0818433761597	1.43567049503	-0.315798401833
0.0678200721741	1.0101172924	-0.07981133461	0.0799474716187	1.43855834007	-0.313188195229
0.0751976966858	0.974247217178	-0.0777810811996	0.0783517360687	1.44012880325	-0.310279369354
0.0705003738403	0.957795858383	-0.0784122943878	0.0766735076904	1.44266712666	-0.307223558426
0.0653574466705	0.945754051208	-0.0798642635345	0.0751094818115	1.44684100151	-0.304169893265
0.0619626045227	0.928241491318	-0.0834021568298	0.0739367008209	1.45203709602	-0.302998900414
0.0644700527191	0.916173219681	-0.0873770713806	0.0732624530792	1.45803976059	-0.302927732468
0.0729489326477	0.919199228287	-0.0857608318329	0.0719439983368	1.46535122395	-0.303886175156
0.0765240192413	0.941475152969	-0.0792281627655	0.0691566467285	1.47225928307	-0.305817961693
0.0664863586426	0.970479726791	-0.0797111988068	0.0655179023743	1.47496902943	-0.308055639267
0.064954996109	0.978410243988	-0.0847164392471	0.0628666877747	1.4735956192	-0.310009241104
0.0655336380005	0.982063293457	-0.0876755714417	0.0608503818512	1.47264754772	-0.311627388
0.0634925365448	0.987892150879	-0.0903196334839	0.0604207515717	1.47115421295	-0.314392328262
0.0638771057129	0.998983383179	-0.0909378528595	0.0613303184509	1.46881759167	-0.317821979523
0.0578978061676	1.01174616814	-0.0943269729614	0.0626759529114	1.46620774269	-0.322030544281
0.0508661270142	1.02315473557	-0.0988895893097	0.0645885467529	1.46354687214	-0.325811982155
0.0499584674835	1.03331542015	-0.101648330688	0.0664069652557	1.46139657497	-0.329046964645
0.0553984642029	1.0457701683	-0.102843523026	0.067893743515	1.46110355854	-0.332030773163
0.0653214454651	1.06815552711	-0.106038331985	0.068701505661	1.46142554283	-0.334036707878
0.0710370540619	1.10574138165	-0.116565823555	0.0681972503662	1.4619333744	-0.335028409958
0.076080083847	1.14736056328	-0.131126284599	0.0661952495575	1.46206998825	-0.335085868835
0.077223777771	1.16777348518	-0.136776685715	0.0629858970642	1.46270537376	-0.334928274155
0.0819518566132	1.16254782677	-0.12419629097	0.0595722198486	1.4627572298	-0.334642291069
0.0848801136017	1.14867413044	-0.11443901062	0.056077003479	1.46257507801	-0.33394908905
0.084988117218	1.13439702988	-0.107551574707	0.0526061058044	1.46248614788	-0.332981586456
0.0918271541595	1.12067472935	-0.0979405641556	0.0501737594604	1.46196138859	-0.331970691681
0.105081319809	1.10038673878	-0.0867624282837	0.0499796867371	1.46072804928	-0.33148920536
0.118201494217	1.06687283516	-0.0747437477112	0.05144572258	1.45943486691	-0.330472350121
0.125522613525	1.02516412735	-0.0687980651855	0.0542793273926	1.45779311657	-0.32841527462
0.126164197922	0.974902629852	-0.0703594684601	0.0586090087891	1.45582187176	-0.32481098175
0.116478681564	0.941967010498	-0.0767080783844	0.0643846988678	1.45382666588	-0.319753408432
0.10946393013	0.914523124695	-0.0864514112473	0.0697636604309	1.45116043091	-0.314145445824
0.105130910873	0.892198085785	-0.0965356826782	0.0739071369171	1.44861829281	-0.309109926224
0.101650238037	0.877906322479	-0.104381322861	0.0767021179199	1.44778382778	-0.304491639137
0.101659059525	0.875035762787	-0.109539270401	0.0778665542603	1.44854807854	-0.300889611244
0.105941295624	0.881507158279	-0.117091178894	0.0778894424438	1.45012569427	-0.298429250717
0.110077142715	0.908449888229	-0.115802049637	0.0759708881378	1.45189869404	-0.297900438309
0.116292953491	0.958441257477	-0.108943939209	0.0718348026276	1.45459902287	-0.299609422684
0.119956970215	1.01175332069	-0.106183648109	0.0672385692596	1.45727014542	-0.303304195404
0.124946117401	1.05904841423	-0.107228517532	0.0630826950073	1.46003174782	-0.307613492012
0.119657516479	1.10266602039	-0.113468408585	0.0594024658203	1.46425580978	-0.312150359154
0.106528997421	1.13764989376	-0.12411236763	0.0566143989563	1.46847999096	-0.315524101257
0.0916192531586	1.16842019558	-0.142721652985	0.0545449256897	1.47185266018	-0.317530632019
0.0772435665131	1.18838393688	-0.166112661362	0.0546455383301	1.4739587307	-0.317646741867
0.0677044391632	1.19426631927	-0.184043645859	0.0546178817749	1.47498691082	-0.316052913666
0.063670873642	1.20125222206	-0.186673045158	0.0543587207794	1.47372221947	-0.311534762383
0.0662174224854	1.20529580116	-0.177407503128	0.0528528690338	1.47155368328	-0.305375576019
0.0700616836548	1.20398712158	-0.170409440994	0.0519051551819	1.46937823296	-0.300146579742
0.0646135807037	1.20027327538	-0.16960978508	0.0521340370178	1.46727633476	-0.296522140503
0.0512690544128	1.19043314457	-0.171947240829	0.0525245666504	1.46512782574	-0.294049024582
0.0391955375671	1.17435419559	-0.171154618263	0.0528700351715	1.46309900284	-0.292500972748
0.0261631011963	1.15395843983	-0.169248104095	0.0535435676575	1.46139407158	-0.291589975357
0.0221474170685	1.13466084003	-0.158147096634	0.0545644760132	1.46037447453	-0.29160118103
0.0303196907043	1.12240707874	-0.141177415848	0.0547635555267	1.45962667465	-0.291184186935
0.0437934398651	1.11502301693	-0.128087520599	0.0543353557587	1.458968997	-0.28999876976
0.0624632835388	1.10310554504	-0.113832950592	0.0536630153656	1.45831930637	-0.289626121521
0.0801608562469	1.08263599873	-0.0993187427521	0.0532276630402	1.45808053017	-0.290247917175
0.0986335277557	1.05327272415	-0.08642578125	0.0527942180634	1.45828139782	-0.291128635406
0.101452589035	1.02937340736	-0.0793702602386	0.0520305633545	1.45860958099	-0.292261123657
0.0968279838562	1.03147125244	-0.0805459022522	0.0510761737823	1.45873296261	-0.292982697487
0.0957925319672	1.03302979469	-0.0802125930786	0.0498206615448	1.45860254765	-0.293567180634
0.0934572219849	1.03872299194	-0.0805648565292	0.0484838485718	1.45935177803	-0.294540166855
0.093013048172	1.04043364525	-0.0808582305908	0.0472888946533	1.46020996571	-0.295279979706
0.0928604602814	1.03983139992	-0.0805228948593	0.0457253456116	1.46136069298	-0.29568862915
0.0931072235107	1.0347943306	-0.0793017148972	0.0426025390625	1.46227681637	-0.295711755753
0.0961034297943	1.03131866455	-0.0779824256897	0.0382487773895	1.46286594868	-0.294234275818
0.0943343639374	1.01471567154	-0.0729426145554	0.033652305603	1.46368217468	-0.292775392532
0.0969777107239	0.959512472153	-0.0666580200195	0.0300760269165	1.46378362179	-0.292542934418
0.11145234108	0.90898680687	-0.0718894004822	0.0286478996277	1.4636528492	-0.292016029358
0.104850769043	0.894924879074	-0.0807843208313	0.0279767513275	1.46274757385	-0.290994644165
0.091194152832	0.901289224625	-0.0833556652069	0.0269131660461	1.46152436733	-0.290440559387
0.0815336704254	0.91259598732	-0.0801423788071	0.0258233547211	1.46099185944	-0.291502833366
0.0697524547577	0.921110868454	-0.0791124105453	0.0252823829651	1.46071743965	-0.293559551239
0.0503304004669	0.927269935608	-0.0828757286072	0.0248336791992	1.45962166786	-0.296232581139
0.0373928546906	0.926413297653	-0.0878005027771	0.0241529941559	1.45897471905	-0.298891067505
0.0323424339294	0.924666881561	-0.0916352272034	0.0233697891235	1.45842289925	-0.301290631294
0.0274722576141	0.926988363266	-0.0946614742279	0.0223653316498	1.45724833012	-0.303076028824
0.0243308544159	0.933266878128	-0.0953991413116	0.0209739208221	1.45578444004	-0.304085254669
0.0177993774414	0.943423986435	-0.0969185829163	0.0203001499176	1.45548570156	-0.30463886261
0.0199997425079	0.947601079941	-0.0949106216431	0.0212111473083	1.45565760136	-0.305534362793
0.021279335022	0.95468211174	-0.0944170951843	0.0216197967529	1.45581591129	-0.306189060211
0.0299301147461	0.949593305588	-0.0918619632721	0.0217666625977	1.45546615124	-0.306295275688
0.0375800132751	0.928190231323	-0.0915706157684	0.0223586559296	1.4545071125	-0.306443929672
0.0366969108582	0.911507368088	-0.0967111587524	0.0228381156921	1.45426356792	-0.306516647339
0.0333027839661	0.907770872116	-0.100565314293	0.0225119590759	1.45435476303	-0.305737495422
0.0285365581512	0.911115884781	-0.100345611572	0.0219135284424	1.45398974419	-0.305056095123
0.0248591899872	0.913079977036	-0.0999019145966	0.0215911865234	1.45375347137	-0.304584980011
0.023508310318	0.913062810898	-0.100097060204	0.0211298465729	1.45413851738	-0.304147958755
0.0240993499756	0.910677433014	-0.100495457649	0.0201845169067	1.45436704159	-0.303819894791
0.0242965221405	0.909197092056	-0.100625395775	0.0194010734558	1.45403182507	-0.303234815598
0.0262458324432	0.902280092239	-0.101015329361	0.0186061859131	1.45344698429	-0.302545785904
0.0301730632782	0.889410734177	-0.103379964828	0.0177659988403	1.4536550045	-0.301654338837
0.0303015708923	0.881928443909	-0.107090711594	0.0167047977448	1.45428705215	-0.300478577614
0.0217244625092	0.886305332184	-0.109010457993	0.0152590274811	1.45515525341	-0.298919200897
0.0122008323669	0.890175580978	-0.110544085503	0.0143980979919	1.45501375198	-0.298111438751
0.0102589130402	0.887783765793	-0.110707163811	0.0141503810883	1.45457327366	-0.297931313515
0.0118632316589	0.882477283478	-0.110825657845	0.0138566493988	1.45459520817	-0.297722101212
0.0134892463684	0.87815284729	-0.111092805862	0.0136229991913	1.45445966721	-0.29741537571
0.012172460556	0.877015113831	-0.111696124077	0.0136921405792	1.45400249958	-0.296999335289
0.00938248634338	0.877686023712	-0.112711071968	0.0133240222931	1.45373427868	-0.296499848366
0.00704503059387	0.877236604691	-0.114066839218	0.0127024650574	1.45309567451	-0.295869588852
0.00484871864319	0.876541852951	-0.115645885468	0.011513710022	1.45226168633	-0.295105934143
0.00409126281738	0.876116991043	-0.115774393082	0.0102407932281	1.45119488239	-0.2942237854
0.00313687324524	0.877012491226	-0.115504026413	0.00885963439941	1.45020461082	-0.293922424316
2.69412994385e-05	0.878269672394	-0.115727424622	0.00729060173035	1.44933283329	-0.293656349182
-0.00347113609314	0.877343654633	-0.116204977036	0.00513768196106	1.4487221241	-0.293544769287
-0.00629591941833	0.87432551384	-0.115753173828	0.00269865989685	1.44876348972	-0.292934894562
-0.0120828151703	0.873624563217	-0.11550951004	-0.000243902206421	1.44829547405	-0.291894674301
-0.01891040802	0.874751567841	-0.114601612091	-0.00312685966492	1.44812834263	-0.290458202362
-0.0230491161346	0.87505030632	-0.11424279213	-0.00419354438782	1.44887733459	-0.289251565933
-0.0244433879852	0.874304294586	-0.114846587181	-0.00465607643127	1.4485347271	-0.288911342621
-0.0238652229309	0.873933315277	-0.115079760551	-0.00520205497742	1.44770824909	-0.288548231125
-0.0218498706818	0.873356580734	-0.115520477295	-0.00531268119812	1.44814932346	-0.288398742676
-0.0195484161377	0.871398687363	-0.115995883942	-0.0057225227356	1.44902873039	-0.288248300552
-0.0165100097656	0.870854139328	-0.116024494171	-0.00632905960083	1.44893789291	-0.288289427757
-0.014625787735	0.872378826141	-0.115452289581	-0.00620937347412	1.44782292843	-0.288691043854
-0.013988494873	0.877470970154	-0.115223526955	-0.00548076629639	1.44733476639	-0.28964471817
-0.0149259567261	0.886091947556	-0.116317033768	-0.00474548339844	1.44720387459	-0.290620565414
-0.0168514251709	0.887612342834	-0.120994567871	-0.00429677963257	1.44709146023	-0.291961669922
-0.0114803314209	0.877216339111	-0.120345830917	-0.00416111946106	1.44686377048	-0.293150424957
0.0017876625061	0.870911598206	-0.114913702011	-0.00355982780457	1.44663786888	-0.293762922287
0.0111930370331	0.872002363205	-0.109496831894	-0.00297975540161	1.44640660286	-0.293856859207
0.0114042758942	0.873560667038	-0.10844039917	-0.00243735313416	1.44604504108	-0.293997764587
0.00466394424438	0.87652349472	-0.110621929169	-0.0020112991333	1.44600152969	-0.29424571991
-0.00392818450928	0.881414651871	-0.112004160881	-0.00171661376953	1.44591271877	-0.294368505478
-0.0115809440613	0.887613296509	-0.111773967743	-0.00156784057617	1.44578170776	-0.294291973114
-0.0202946662903	0.894691944122	-0.110798120499	-0.0014591217041	1.4454792738	-0.293802976608
-0.0228555202484	0.895044803619	-0.109269976616	-0.0016713142395	1.44521450996	-0.293037652969
-0.0184578895569	0.889585971832	-0.109675884247	-0.00202083587646	1.44438195229	-0.292349338531
-0.0146276950836	0.886513233185	-0.110718846321	-0.0024631023407	1.44290113449	-0.291450977325
-0.0145227909088	0.887957334518	-0.109891414642	-0.0025839805603	1.4422121048	-0.290268659592
-0.0173316001892	0.890903949738	-0.108922958374	-0.00235867500305	1.44302678108	-0.289390206337
-0.0201408863068	0.892271757126	-0.109763145447	-0.00242137908936	1.44344377518	-0.288816571236
-0.0150625705719	0.88924074173	-0.108181715012	-0.00257349014282	1.44295251369	-0.288612127304
-0.00344514846802	0.885104417801	-0.10273194313	-0.00285983085632	1.44241452217	-0.288370609283
0.00243210792542	0.884787797928	-0.0993165969849	-0.00294423103333	1.44236791134	-0.287580013275
0.00163650512695	0.885739803314	-0.0992822647095	-0.00251722335815	1.44198679924	-0.28672337532
-0.00399494171143	0.886158466339	-0.101632237434	-0.00231885910034	1.44169521332	-0.28579211235
-0.0081684589386	0.886559247971	-0.103249430656	-0.00233292579651	1.44108963013	-0.284856796265
-0.00823163986206	0.886636018753	-0.10201215744	-0.00383877754211	1.43996107578	-0.283481836319
-0.00670504570007	0.886380910873	-0.100840330124	-0.00930881500244	1.43771731853	-0.282212615013
-0.0058867931366	0.886370182037	-0.0999448299408	-0.0195043087006	1.43563461304	-0.280261516571
-0.00464129447937	0.885716199875	-0.0991394519806	-0.0286355018616	1.43531298637	-0.278514862061
-0.00450754165649	0.883688211441	-0.0992701053619	-0.0286147594452	1.43566024303	-0.276480197906
-0.00616645812988	0.883095502853	-0.0989181995392	-0.0169486999512	1.43411946297	-0.275192260742
-0.0073447227478	0.883500099182	-0.0980105400085	0.00193047523499	1.43108284473	-0.277048826218
-0.00698733329773	0.884238004684	-0.0968981981277	0.0219347476959	1.42647540569	-0.283140540123
-0.00411987304688	0.884765386581	-0.0960700511932	0.0364620685577	1.42294931412	-0.28903222084
-0.000341176986694	0.885559558868	-0.0953900814056	0.043692111969	1.42204451561	-0.291167020798
0.00439810752869	0.88606262207	-0.0941770076752	0.0435523986816	1.42447006702	-0.289290904999
0.00706076622009	0.886089801788	-0.0932908058167	0.035386800766	1.43054902554	-0.28377532959
0.00750374794006	0.885782241821	-0.0931897163391	0.0203421115875	1.43651151657	-0.278149843216
0.0065290927887	0.88521695137	-0.0921481847763	0.00382518768311	1.43942725658	-0.274613142014
0.00350880622864	0.885718822479	-0.091435790062	-0.00970244407654	1.43952441216	-0.272815465927
-1.71661376953e-05	0.885292768478	-0.0911221504211	-0.0178120136261	1.43863761425	-0.27135682106
-0.00258111953735	0.884193658829	-0.0917761325836	-0.0189523696899	1.43734776974	-0.270078659058
-0.00362396240234	0.883067846298	-0.0927855968475	-0.00949931144714	1.43466329575	-0.269555091858
-0.00338983535767	0.883185386658	-0.0932710170746	0.00951504707336	1.43142318726	-0.272461652756
-0.00130820274353	0.883971452713	-0.0939884185791	0.0285267829895	1.42962276936	-0.279805183411
0.00204610824585	0.884918928146	-0.0949702262878	0.0403308868408	1.42920649052	-0.287422776222
0.0052797794342	0.88604927063	-0.0964407920837	0.0445401668549	1.42857444286	-0.292594194412
0.00789499282837	0.886932373047	-0.0984578132629	0.0432119369507	1.42871284485	-0.29554605484
0.00884675979614	0.887154102325	-0.100734472275	0.0382051467896	1.42988801003	-0.29781627655
0.00766015052795	0.88888502121	-0.102290153503	0.029673576355	1.43196868896	-0.299255251884
0.00354361534119	0.891073942184	-0.10401058197	0.0186953544617	1.43538808823	-0.300196051598
-0.000337600708008	0.89280629158	-0.106772661209	0.00579214096069	1.43905794621	-0.300834178925
-0.0014328956604	0.892801523209	-0.110278606415	-0.00760698318481	1.4413613081	-0.302062153816
-0.000520944595337	0.893253803253	-0.11371076107	-0.0195508003235	1.44205355644	-0.303509235382
0.00113654136658	0.893683195114	-0.116790771484	-0.0289971828461	1.44120573997	-0.305524349213
0.00258922576904	0.894500017166	-0.118962287903	-0.0382902622223	1.43956577778	-0.307307958603
0.00338077545166	0.895048141479	-0.121125459671	-0.0480926036835	1.43684732914	-0.309076070786
0.00316095352173	0.896106243134	-0.122544765472	-0.0556209087372	1.43355882168	-0.311611652374
0.00362467765808	0.897795438766	-0.120843648911	-0.0612721443176	1.43120646477	-0.314388275146
0.00496959686279	0.899842977524	-0.117172002792	-0.0661523342133	1.427780509	-0.315905094147
0.0050904750824	0.901312589645	-0.115364551544	-0.0690579414368	1.42253649235	-0.317066192627
0.00493097305298	0.903110980988	-0.113850593567	-0.0712924003601	1.41672730446	-0.31733751297
0.00539636611938	0.904250621796	-0.113054037094	-0.0748107433319	1.41662466526	-0.315667152405
0.00502300262451	0.904069662094	-0.112903594971	-0.0767834186554	1.41691350937	-0.314245462418
0.00380277633667	0.906109571457	-0.112639307976	-0.0757489204407	1.41560721397	-0.312412023544
0.00198817253113	0.909837961197	-0.111843585968	-0.0725820064545	1.41335105896	-0.310820102692
0.00131869316101	0.915805578232	-0.109345316887	-0.0689296722412	1.41203022003	-0.308691501617
0.00206661224365	0.923367977142	-0.106830954552	-0.0651879310608	1.41203331947	-0.30587720871
0.0059962272644	0.928713083267	-0.10435628891	-0.0610692501068	1.41045033932	-0.304028153419
0.0129940509796	0.930323839188	-0.100438594818	-0.0596392154694	1.40678822994	-0.303119421005
0.0156478881836	0.930412769318	-0.0985779762268	-0.0641901493073	1.40164709091	-0.302491188049
0.0148425102234	0.927249193192	-0.10049033165	-0.0714325904846	1.39967691898	-0.301546573639
0.012640953064	0.923836946487	-0.102400541306	-0.0750997066498	1.40459871292	-0.299211740494
0.00715780258179	0.926547050476	-0.101384401321	-0.0741262435913	1.41033530235	-0.295689105988
0.00176095962524	0.931974172592	-0.1008477211	-0.0712461471558	1.41522717476	-0.291816949844
0.000571250915527	0.933153629303	-0.10222029686	-0.0671305656433	1.41689217091	-0.290917277336
0.0039074420929	0.93030333519	-0.102294802666	-0.0623371601105	1.41480910778	-0.291315555573
0.00737309455872	0.930546522141	-0.10100376606	-0.0600612163544	1.41283035278	-0.291024804115
0.00974154472351	0.929531097412	-0.0999126434326	-0.0601332187653	1.41203463078	-0.291177392006
0.0104954242706	0.928363084793	-0.0990709066391	-0.0608830451965	1.41038489342	-0.29181265831
0.00962615013123	0.928905487061	-0.0981491804123	-0.0607042312622	1.40663588047	-0.292535305023
0.00905919075012	0.929542064667	-0.0966774225235	-0.0587635040283	1.40196883678	-0.293518543243
0.00842189788818	0.930115938187	-0.0957787036896	-0.0559387207031	1.39782977104	-0.293825745583
0.00880217552185	0.930373907089	-0.0955331325531	-0.0538973808289	1.39717411995	-0.292549848557
0.0110771656036	0.929034471512	-0.0953378677368	-0.052193403244	1.39595103264	-0.29213476181
0.0128571987152	0.929353237152	-0.0945117473602	-0.0477352142334	1.39293277264	-0.292325258255
0.0129857063293	0.931693077087	-0.093141078949	-0.0399787425995	1.38979148865	-0.292896151543
0.0116922855377	0.934481859207	-0.0920975208282	-0.030259847641	1.38875973225	-0.292610645294
0.0130391120911	0.934958696365	-0.0909469127655	-0.0219721794128	1.38805305958	-0.292984724045
0.0163998603821	0.934166908264	-0.0896596908569	-0.0170741081238	1.38794279099	-0.292058229446
