0.0	-0.0	145.497283936	-92.7614974976	87.7000427246	-166.733947754
0.0	-0.0	145.4503479	-92.8500061035	88.1847457886	-166.875915527
0.0	-0.0	146.207870483	-93.0666732788	88.4893493652	-166.929244995
0.0	-0.0	145.945541382	-93.306312561	88.6883544922	-166.916213989
0.0	-0.0	145.503662109	-94.323928833	88.7025756836	-166.379882812
0.0	-0.0	142.833343506	-94.6920166016	88.5091247559	-165.445465088
0.0	-0.0	119.078704834	-92.0663986206	88.5745315552	-165.568527222
0.0	-0.0	83.9808197021	-88.0229110718	88.2432785034	-166.225570679
0.0	-0.0	67.4169464111	-85.7478485107	88.2101364136	-167.206710815
0.0	-0.0	69.5145950317	-84.9711380005	88.9621276855	-167.626571655
0.0	-0.0	80.5967102051	-84.3583908081	89.8094558716	-168.137969971
0.0	-0.0	86.2287979126	-83.340461731	89.4669265747	-169.082962036
0.0	-0.0	62.544719696	-81.6938781738	88.6205215454	-170.182769775
