-31.4698562622	-81.2725296021	123.278892517	5.30798149109	1.11818873882	-1.41348803043
-30.7769832611	-81.3194656372	122.788398743	5.60704278946	1.18013799191	-1.57915306091
-30.721534729	-81.1123809814	122.604286194	5.64117145538	1.56651341915	-1.46791470051
-29.1067008972	-79.839515686	119.602958679	5.31268215179	2.15356612206	-0.985601961613
-21.990819931	-74.9298324585	106.786117554	4.67965650558	2.32680392265	-0.26501584053
-20.5962162018	-60.6064605713	91.0905990601	3.93569040298	1.08944964409	0.295076608658
-16.9799213409	-51.2514381409	77.5420303345	2.66964149475	-2.69777202606	0.741687476635
-15.9314546585	-45.6855773926	69.7710494995	0.31732571125	-7.25424909592	1.71038818359
-21.7821159363	-44.8776016235	72.8883895874	-2.18378448486	-11.0216140747	2.78552794456
-26.2168464661	-46.0882492065	76.1944580078	-4.15726089478	-13.8353538513	3.31365561485
-27.7329788208	-47.053062439	76.1444396973	-4.67234563828	-15.8948440552	3.14781475067
-28.6523017883	-48.40883255	75.337928772	-5.09435892105	-17.4524726868	2.94991493225
-28.6808509827	-50.1715774536	72.1132125854	-6.20970487595	-18.5830974579	3.05455470085
-24.8483371735	-47.9707145691	58.2512130737	-7.08168268204	-19.2513446808	3.13166904449
-20.1246967316	-43.0226249695	50.3207626343	-7.2546377182	-19.3573417664	2.9477353096
-19.1125469208	-41.6919441223	55.1599197388	-7.07286167145	-19.1943759918	2.71643400192
-18.685754776	-42.4819564819	59.8185386658	-7.23383808136	-18.8617038727	2.66263413429
-20.6927509308	-45.6042098999	67.5554122925	-7.36205053329	-18.3025741577	2.48279309273
-22.641954422	-47.1563529968	71.9327468872	-7.29905796051	-18.2461891174	2.16536951065
-23.7230167389	-47.352306366	72.8088378906	-7.2458729744	-20.0800380707	1.99250221252
-24.1694831848	-47.2155761719	73.4555892944	-7.77669286728	-22.5853939056	2.01162958145
-24.1498737335	-48.0921363831	74.2700195312	-8.10921287537	-24.026184082	2.08489656448
-23.5268726349	-49.5873603821	74.83543396	-7.64143800735	-24.0889797211	1.79393589497
-22.5763912201	-52.3902168274	77.4298934937	-6.68550825119	-23.4896354675	1.09102058411
-22.4531440735	-53.6399650574	79.6874923706	-5.9017033577	-23.445734024	0.534182608128
-22.1819553375	-54.1109619141	80.8784713745	-5.16699552536	-24.8947048187	0.00949648860842
-20.4602127075	-56.7866630554	83.2316513062	-5.06184720993	-25.8107528687	-0.0861577019095
-17.6857509613	-61.1064949036	84.6940231323	-5.4521780014	-24.376367569	0.421175003052
-18.0060691833	-64.6175994873	87.6997756958	-5.44244909286	-22.7617015839	0.669430196285
-17.6688785553	-64.4155044556	87.1394729614	-5.24547386169	-21.6552371979	1.04657161236
-17.5935401917	-63.6736183167	86.1588439941	-5.3463602066	-21.743062973	1.28557395935
-19.0889606476	-63.8961601257	87.0911026001	-5.85611772537	-23.1808414459	1.35404598713
-19.9211158752	-64.1808547974	87.8260803223	-5.99634695053	-25.5488758087	0.88575476408
-17.2739162445	-64.9855041504	85.7314147949	-5.28787231445	-27.5704879761	0.066072575748
-10.3108539581	-67.0588378906	79.3612518311	-5.18213891983	-27.3222770691	-0.0918817594647
