0.130034923553	0.987413167953	-0.0872466564178	-0.00837588310242	1.43560290337	-0.295139551163
0.130068302155	0.987538576126	-0.0889911651611	-0.00872921943665	1.43593490124	-0.297545671463
0.130336999893	0.987382888794	-0.0911366939545	-0.00934481620789	1.43619906902	-0.299380540848
0.130545377731	0.986998081207	-0.0923020839691	-0.010657787323	1.43698167801	-0.300393462181
0.126777172089	0.986605882645	-0.0924003124237	-0.0135412216187	1.43926739693	-0.300989151001
0.113673686981	0.986363649368	-0.0910708904266	-0.018963098526	1.44178307056	-0.302025079727
0.0978257656097	0.989159345627	-0.0910810232162	-0.0253818035126	1.44420647621	-0.303530097008
0.0864019393921	0.992034912109	-0.0907304286957	-0.0303249359131	1.44846057892	-0.305541992188
0.0790684223175	0.994414329529	-0.0892494916916	-0.0319356918335	1.45390129089	-0.306478142738
0.0749068260193	0.997919559479	-0.0882415771484	-0.0312042236328	1.45789837837	-0.308123826981
0.0736038684845	1.00296235085	-0.088574886322	-0.0295293331146	1.46253669262	-0.30968439579
0.0770981311798	1.0100736618	-0.089879989624	-0.0271821022034	1.46607494354	-0.311442613602
0.084201335907	1.02347254753	-0.094455242157	-0.0246176719666	1.46850776672	-0.312765955925
0.0913915634155	1.03607368469	-0.100080013275	-0.0221431255341	1.46950864792	-0.314155459404
0.0975365638733	1.04558849335	-0.105069756508	-0.0207602977753	1.4705350399	-0.315060853958
0.103243350983	1.05242872238	-0.10958981514	-0.0197496414185	1.47162008286	-0.316270470619
0.109087228775	1.05892586708	-0.113591432571	-0.0183966159821	1.4725741148	-0.317115426064
0.109842300415	1.06432282925	-0.116968274117	-0.0169751644135	1.47363317013	-0.317788362503
0.103603839874	1.06979131699	-0.120963573456	-0.0159316062927	1.47540998459	-0.318261623383
0.10139298439	1.07386577129	-0.122529268265	-0.0149328708649	1.4777995348	-0.318391680717
0.105708360672	1.08054757118	-0.123179912567	-0.0135266780853	1.48063385487	-0.318009376526
0.110358476639	1.08768236637	-0.12402009964	-0.0120606422424	1.48323976994	-0.317439556122
0.116066932678	1.09340178967	-0.12673664093	-0.0107553005219	1.48616445065	-0.316737174988
0.114823818207	1.10047161579	-0.134721279144	-0.00937962532043	1.48815202713	-0.315866708755
0.111682415009	1.10705029964	-0.13929772377	-0.00796985626221	1.48982799053	-0.315122127533
0.112953186035	1.10959231853	-0.138001441956	-0.00623989105225	1.49121129513	-0.313943982124
0.112392902374	1.10877251625	-0.136754274368	-0.00451874732971	1.49239456654	-0.312548398972
0.109530687332	1.09993374348	-0.125910282135	-0.00292563438416	1.49393665791	-0.311060070992
0.110262393951	1.08328568935	-0.104930877686	-0.00158190727234	1.49344718456	-0.309046983719
0.116390228271	1.07605493069	-0.101352930069	-0.000208854675293	1.49344038963	-0.306248188019
0.115790843964	1.07830500603	-0.102195739746	0.00170588493347	1.49452924728	-0.303903102875
0.115693569183	1.08064866066	-0.100482583046	0.00473880767822	1.49592590332	-0.301886677742
0.110769033432	1.07957994938	-0.0987031459808	0.00787448883057	1.49655985832	-0.300611376762
0.108728408813	1.08103060722	-0.100789070129	0.0102577209473	1.49697804451	-0.29986345768
0.108991384506	1.08222568035	-0.0997021198273	0.0128011703491	1.49718129635	-0.30011677742
0.108285665512	1.08132565022	-0.0973355770111	0.0156269073486	1.49714553356	-0.300970315933
0.104431629181	1.08082664013	-0.0978298187256	0.0184807777405	1.49709606171	-0.302362918854
0.100209712982	1.08102333546	-0.0990800857544	0.0223078727722	1.49660027027	-0.303529262543
0.0980539321899	1.08146750927	-0.0996870994568	0.0268270969391	1.49560952187	-0.304043769836
0.0992300510406	1.07983255386	-0.0999097824097	0.032021522522	1.49443936348	-0.304291009903
0.105185270309	1.07679760456	-0.0977251529694	0.0382239818573	1.49318051338	-0.305018901825
0.11211681366	1.07258713245	-0.0936210155487	0.0452332496643	1.49151933193	-0.306697845459
0.114044904709	1.07212412357	-0.0923538208008	0.0517227649689	1.48821294308	-0.308779239655
0.111155986786	1.07396948338	-0.0943990945816	0.0560231208801	1.48525452614	-0.310575246811
0.113485336304	1.07078146935	-0.0940580368042	0.0605733394623	1.48136472702	-0.312498569489
0.120594263077	1.06377053261	-0.0906181335449	0.0662443637848	1.47860324383	-0.314690828323
0.120885372162	1.05946302414	-0.0904660224915	0.0733680725098	1.47784101963	-0.317221045494
0.116467952728	1.060328722	-0.0927157402039	0.0774238109589	1.48018145561	-0.319296121597
0.112700939178	1.06175220013	-0.0950365066528	0.0783896446228	1.48785007	-0.321408510208
0.110281467438	1.05905890465	-0.0959982872009	0.080738067627	1.49621713161	-0.324970722198
0.10940694809	1.05219984055	-0.0927639007568	0.0842440128326	1.49937725067	-0.328666806221
0.108193397522	1.04377198219	-0.0861231088638	0.0867919921875	1.49778151512	-0.33133161068
0.101742267609	1.03060340881	-0.0767585039139	0.0870225429535	1.4961360693	-0.332536697388
0.0903332233429	1.00816082954	-0.0698084831238	0.085517168045	1.49585592747	-0.333461999893
0.072137594223	0.990718841553	-0.0704585313797	0.0827031135559	1.49645745754	-0.334648132324
0.0566802024841	0.993032455444	-0.0755307674408	0.079519033432	1.49808323383	-0.335541248322
0.0545806884766	1.00233125687	-0.0751461982727	0.0770304203033	1.49924325943	-0.335731506348
0.0579354763031	1.01173472404	-0.0740036964417	0.076092004776	1.50107610226	-0.336585998535
0.0587649345398	1.0148665905	-0.0739858150482	0.075603723526	1.50220227242	-0.337688565254
0.0534498691559	1.01666498184	-0.075923204422	0.07537317276	1.50272238255	-0.338168025017
0.0466530323029	1.01709723473	-0.0779628753662	0.0742971897125	1.50366520882	-0.338137149811
0.049426317215	1.01852321625	-0.0761556625366	0.0723550319672	1.50510346889	-0.337859153748
0.0467262268066	1.02529573441	-0.0766404867172	0.0712714195251	1.50654506683	-0.33721113205
0.0416307449341	1.03652954102	-0.0780668258667	0.070690870285	1.50763225555	-0.335809588432
0.0411930084229	1.04575395584	-0.0772368907928	0.0701901912689	1.50784599781	-0.333558440208
0.0419116020203	1.04799365997	-0.0765137672424	0.0714116096497	1.5078407526	-0.331637144089
0.0420124530792	1.04660701752	-0.0756297111511	0.0734641551971	1.50858449936	-0.330147743225
0.0444858074188	1.04855751991	-0.0747513771057	0.0748813152313	1.50881850719	-0.328624367714
0.0466380119324	1.05309844017	-0.0742661952972	0.075749874115	1.50815999508	-0.3265645504
0.0492765903473	1.05821847916	-0.0745203495026	0.0758488178253	1.50787997246	-0.32455432415
0.0513427257538	1.06413674355	-0.0742373466492	0.0759286880493	1.50838005543	-0.32315158844
0.0527555942535	1.07266807556	-0.0743272304535	0.0762739181519	1.50853776932	-0.322036027908
0.0529570579529	1.08117413521	-0.0749497413635	0.0771567821503	1.50871908665	-0.321059703827
0.0557112693787	1.0851868391	-0.0739324092865	0.0780222415924	1.5087198019	-0.320089459419
0.0581803321838	1.07573950291	-0.067122220993	0.0787737369537	1.50868833065	-0.319148659706
0.0566613674164	1.05635786057	-0.0612189769745	0.0793395042419	1.5087480545	-0.318538665771
0.0526623725891	1.04410815239	-0.0604703426361	0.0795960426331	1.50876653194	-0.317794084549
0.0436775684357	1.05030298233	-0.0658552646637	0.0792269706726	1.50849378109	-0.316992521286
0.0392372608185	1.05606675148	-0.0681583881378	0.0785844326019	1.50834596157	-0.316463947296
0.0458285808563	1.05911660194	-0.0662093162537	0.0775475502014	1.50833761692	-0.316704273224
0.0467653274536	1.06303358078	-0.0684213638306	0.0768866539001	1.50856602192	-0.317864656448
0.0489475727081	1.06909620762	-0.0685632228851	0.0765056610107	1.50894987583	-0.319322109222
0.0510668754578	1.07656621933	-0.0693037509918	0.0760900974274	1.50945174694	-0.321209073067
0.0517060756683	1.0840754509	-0.0710699558258	0.0755519866943	1.50993454456	-0.32324385643
0.0507302284241	1.09248697758	-0.0736597776413	0.07479596138	1.51009678841	-0.32501077652
0.0508468151093	1.10030949116	-0.0746703147888	0.073926448822	1.51042044163	-0.326414823532
0.0517332553864	1.10655510426	-0.0751254558563	0.0733425617218	1.51090013981	-0.327854633331
0.0526738166809	1.11075150967	-0.0754344463348	0.0728893280029	1.51089918613	-0.329378604889
0.0527727603912	1.11300325394	-0.0762929916382	0.0725302696228	1.51094329357	-0.330711841583
0.0528571605682	1.11538529396	-0.0777399539948	0.0721893310547	1.51137256622	-0.331330299377
0.0546662807465	1.12021410465	-0.0803737640381	0.071596622467	1.5125412941	-0.332316875458
0.0578911304474	1.1302665472	-0.0831775665283	0.071133852005	1.51286303997	-0.333050966263
0.0619511604309	1.14178299904	-0.0848472118378	0.0708491802216	1.51241159439	-0.333459615707
0.0630736351013	1.14950275421	-0.08458340168	0.0711348056793	1.51219666004	-0.333549261093
0.0657639503479	1.15455830097	-0.0801684856415	0.0717582702637	1.51195406914	-0.333618164062
0.0667822360992	1.15866208076	-0.0721019506454	0.0728332996368	1.51117503643	-0.333052158356
0.0634753704071	1.16000568867	-0.0666313171387	0.0734798908234	1.51055264473	-0.332312822342
0.058929681778	1.16273403168	-0.0683904886246	0.0735347270966	1.51038491726	-0.331270694733
0.0538218021393	1.16366624832	-0.0722631216049	0.0733866691589	1.5108101368	-0.330008625984
0.0521581172943	1.16221272945	-0.0728976726532	0.0737812519073	1.5122897625	-0.329765558243
0.0533204078674	1.16136443615	-0.0722172260284	0.0750250816345	1.51555275917	-0.329877376556
0.0530347824097	1.16058599949	-0.0735285282135	0.075591802597	1.51754105091	-0.328994035721
0.0546207427979	1.15986263752	-0.0745811462402	0.0733208656311	1.51215302944	-0.325369000435
0.0571212768555	1.15940284729	-0.0753152370453	0.0674619674683	1.49748086929	-0.32084608078
0.05970287323	1.15991806984	-0.0753430128098	0.0632553100586	1.48715603352	-0.315182685852
0.0591032505035	1.15928971767	-0.0755286216736	0.0639004707336	1.48437988758	-0.309909343719
0.0556876659393	1.15576934814	-0.0733046531677	0.0678131580353	1.48269224167	-0.3052110672
0.051525592804	1.15269708633	-0.0727648735046	0.0716841220856	1.48305296898	-0.300921916962
0.0497734546661	1.14918017387	-0.0716028213501	0.0754981040955	1.48364686966	-0.298686504364
0.0516653060913	1.14808928967	-0.0688269138336	0.079080581665	1.48745846748	-0.298458814621
0.0504767894745	1.14756512642	-0.0671327114105	0.0798337459564	1.49430918694	-0.300189256668
0.0503377914429	1.14713656902	-0.0669927597046	0.0786786079407	1.50376057625	-0.303780555725
0.0531482696533	1.1463406086	-0.066121339798	0.0760474205017	1.51378977299	-0.308050870895
0.0573043823242	1.14758229256	-0.066281080246	0.0709521770477	1.52345132828	-0.312559127808
0.0613262653351	1.14865255356	-0.0668878555298	0.0640156269073	1.53086185455	-0.316108107567
0.0633590221405	1.14843738079	-0.068220615387	0.0554533004761	1.53660094738	-0.31834435463
0.0647757053375	1.14715135098	-0.069345831871	0.0464248657227	1.53869283199	-0.319752931595
0.064683675766	1.14702761173	-0.0709609985352	0.0386152267456	1.53886711597	-0.320244193077
0.0629222393036	1.1472645998	-0.0729105472565	0.0325009822845	1.53712916374	-0.320449352264
0.0612139701843	1.14737927914	-0.0748691558838	0.0281615257263	1.53549039364	-0.320183038712
0.0602729320526	1.14649510384	-0.076279759407	0.0245814323425	1.53380477428	-0.320003271103
0.0614619255066	1.14713144302	-0.0768640041351	0.0220885276794	1.53105163574	-0.31906914711
0.0624499320984	1.14902222157	-0.0769320726395	0.0203776359558	1.52439141273	-0.316886425018
0.0622088909149	1.1511875391	-0.0776765346527	0.0185785293579	1.51945364475	-0.314462304115
0.0623159408569	1.14873611927	-0.0763731002808	0.0178818702698	1.5146638155	-0.31250333786
0.0622379779816	1.14642953873	-0.0752009153366	0.0194356441498	1.50556838512	-0.308776736259
0.0619840621948	1.14737021923	-0.0755279064178	0.0225868225098	1.4941444397	-0.303862690926
0.0636529922485	1.14872384071	-0.0753743648529	0.0243039131165	1.48740530014	-0.299197554588
0.0647833347321	1.14621555805	-0.0740699768066	0.0232746601105	1.48605954647	-0.29635488987
0.0650448799133	1.14325594902	-0.0730674266815	0.0203649997711	1.48529517651	-0.294528961182
0.0658502578735	1.14285778999	-0.0727120637894	0.017073392868	1.483497262	-0.29380941391
0.0655241012573	1.14455068111	-0.0732613801956	0.0137627124786	1.48228335381	-0.293914556503
0.0645196437836	1.14597547054	-0.0731551647186	0.0116639137268	1.48149907589	-0.293789148331
0.0633971691132	1.14611518383	-0.0733071565628	0.010632276535	1.48096549511	-0.293806314468
0.0650162696838	1.14582312107	-0.0739002227783	0.00941133499146	1.48089802265	-0.294039011002
0.0687742233276	1.14542424679	-0.0754256248474	0.00943756103516	1.47970402241	-0.293943285942
0.0753018856049	1.14808726311	-0.0774357318878	0.0130078792572	1.47794353962	-0.293511509895
0.0834338665009	1.15064752102	-0.0791447162628	0.0171232223511	1.47720992565	-0.292565941811
0.0884246826172	1.15171134472	-0.0805811882019	0.0226981639862	1.47737836838	-0.293271064758
0.0886373519897	1.15304267406	-0.0814952850342	0.0328705310822	1.47698891163	-0.293646812439
0.0837109088898	1.15557789803	-0.0842599868774	0.0437383651733	1.47262442112	-0.294276118279
0.0818226337433	1.15590035915	-0.0869299173355	0.0484359264374	1.46918320656	-0.295441389084
0.0854384899139	1.1534460783	-0.0883727073669	0.0443019866943	1.46750533581	-0.296043157578
0.0944197177887	1.15314996243	-0.0894236564636	0.0362854003906	1.46552717686	-0.296212911606
0.102378606796	1.1549077034	-0.0894423723221	0.0289585590363	1.46510541439	-0.295543909073
0.103927373886	1.15793514252	-0.0908370018005	0.0248703956604	1.46458005905	-0.295146942139
0.101190328598	1.16019749641	-0.0930049419403	0.0254573822021	1.46450924873	-0.295057535172
0.0982093811035	1.16087400913	-0.0954484939575	0.0285623073578	1.46479344368	-0.294989466667
0.0996868610382	1.1614228487	-0.0971949100494	0.0330228805542	1.4640775919	-0.295422792435
0.103939056396	1.16151535511	-0.0980540513992	0.038099527359	1.46557891369	-0.296149730682
0.106240749359	1.16142308712	-0.0981888771057	0.0429089069366	1.46794104576	-0.297615766525
0.10383272171	1.16145098209	-0.0993173122406	0.0476994514465	1.47264909744	-0.299564838409
0.100947618484	1.16132414341	-0.09978556633	0.0527124404907	1.47454929352	-0.302193880081
0.099986076355	1.1612970829	-0.100279569626	0.0570750236511	1.47361409664	-0.303831338882
0.100327730179	1.16062605381	-0.100262403488	0.0606348514557	1.47226643562	-0.305203199387
0.0980937480927	1.16078162193	-0.098484992981	0.0634999275208	1.46923685074	-0.306116580963
0.0911808013916	1.1620579958	-0.0972805023193	0.0677902698517	1.46652173996	-0.306752443314
0.0848486423492	1.16143894196	-0.0965039730072	0.0752577781677	1.46603691578	-0.306934118271
0.0842599868774	1.15952599049	-0.0947506427765	0.0829441547394	1.46583676338	-0.305923700333
0.0886857509613	1.15897524357	-0.0936770439148	0.0861608982086	1.46667015553	-0.304671764374
0.0955922603607	1.15816533566	-0.0917416810989	0.0849988460541	1.46978020668	-0.303365468979
0.0999577045441	1.15703129768	-0.089604139328	0.084061384201	1.47539639473	-0.302921772003
0.102947950363	1.15745174885	-0.0869555473328	0.0808446407318	1.483263731	-0.303403139114
0.105551719666	1.15867114067	-0.0849347114563	0.0715112686157	1.48529076576	-0.302212715149
0.110215187073	1.15859377384	-0.0840647220612	0.058091878891	1.48195123672	-0.298939228058
0.113646030426	1.15450119972	-0.0828294754028	0.044536113739	1.47632622719	-0.294415831566
0.116148233414	1.15356826782	-0.0837686061859	0.0337200164795	1.47450983524	-0.290427923203
0.117990016937	1.15303647518	-0.0823007822037	0.0280065536499	1.47641301155	-0.288073539734
0.114649295807	1.15591132641	-0.082316160202	0.026882648468	1.47927999496	-0.286578893661
0.112197875977	1.15797662735	-0.0836062431335	0.0260472297668	1.48246359825	-0.2862855196
0.111388921738	1.15851068497	-0.0844339132309	0.0226547718048	1.48359310627	-0.286626815796
0.112895965576	1.1600805521	-0.0858104228973	0.0170741081238	1.48365199566	-0.286379218102
0.115243434906	1.16359770298	-0.0877990722656	0.010826587677	1.48248875141	-0.284980177879
0.117327928543	1.16657400131	-0.0901101827621	0.00235056877136	1.47803521156	-0.282297372818
0.120065689087	1.16578471661	-0.0912268161774	-0.00301218032837	1.47504365444	-0.279449224472
0.122208356857	1.16442990303	-0.0901732444763	-0.00017786026001	1.47604835033	-0.277865409851
0.120565414429	1.16762804985	-0.0893920660019	0.00658965110779	1.47759413719	-0.27733206749
0.118114709854	1.16823101044	-0.0885601043701	0.0131559371948	1.47849476337	-0.27650976181
0.116152763367	1.16298949718	-0.0879414081573	0.0185747146606	1.48008072376	-0.275058746338
0.113411903381	1.15685117245	-0.0881464481354	0.0221338272095	1.48084568977	-0.274875402451
0.107979059219	1.15440893173	-0.0896006822586	0.0215001106262	1.48130166531	-0.27864575386
0.101218223572	1.15477132797	-0.0922811031342	0.0159842967987	1.48113274574	-0.284938812256
0.092045545578	1.15572392941	-0.0985388755798	0.00819540023804	1.4809666872	-0.291833877563
0.095365524292	1.15365803242	-0.101908683777	0.00259280204773	1.48161482811	-0.298993587494
0.0982234477997	1.15585660934	-0.106191158295	0.00051212310791	1.48280203342	-0.305448532104
0.101125240326	1.16035676003	-0.110688924789	0.000681161880493	1.48326826096	-0.310395479202
0.10381269455	1.15937304497	-0.112947940826	0.00258922576904	1.48180568218	-0.312884926796
0.103252410889	1.1557008028	-0.115721464157	0.00643730163574	1.47833907604	-0.312947034836
0.104376316071	1.15331661701	-0.118109226227	0.0083920955658	1.47319817543	-0.312380313873
0.104603052139	1.15153479576	-0.119325518608	0.00689888000488	1.46890568733	-0.310336112976
0.104418754578	1.15101742744	-0.120234012604	0.00480341911316	1.46613359451	-0.305388092995
0.107487916946	1.15099513531	-0.119329690933	0.00317907333374	1.46518516541	-0.301027536392
0.113238096237	1.15031695366	-0.115973949432	2.05039978027e-05	1.46674180031	-0.297771930695
0.116627454758	1.15005409718	-0.110482215881	-0.00641274452209	1.468126297	-0.292720794678
0.115894794464	1.14716005325	-0.108156442642	-0.0127642154694	1.46585774422	-0.284316182137
0.122624874115	1.13861429691	-0.104931592941	-0.017493724823	1.46258533001	-0.273889064789
0.128781557083	1.13722705841	-0.098491191864	-0.0195784568787	1.46058881283	-0.263342142105
0.134444236755	1.14595723152	-0.0939357280731	-0.0171256065369	1.46267914772	-0.254024505615
0.143151283264	1.15394973755	-0.0937011241913	-0.00903511047363	1.46949398518	-0.248213768005
0.153177261353	1.15308511257	-0.0951805114746	-0.00169706344604	1.47725570202	-0.248646974564
0.15719127655	1.15011453629	-0.0950064659119	0.00262451171875	1.48704683781	-0.253983139992
0.154234170914	1.15591645241	-0.0992274284363	0.00332593917847	1.49235367775	-0.260638713837
0.152279615402	1.15902614594	-0.100881457329	0.00157713890076	1.49276936054	-0.265889644623
0.149045944214	1.15490841866	-0.0985760688782	-0.00304174423218	1.49253690243	-0.270353794098
0.140770673752	1.15701079369	-0.0990217924118	-0.00822496414185	1.49379992485	-0.275794625282
0.133898019791	1.16441392899	-0.101354122162	-0.0117666721344	1.49445426464	-0.282097816467
0.133337974548	1.17243492603	-0.103915691376	-0.0151982307434	1.49346280098	-0.288170337677
0.133236408234	1.17790746689	-0.108850121498	-0.0194408893585	1.49022138119	-0.293585062027
0.134879589081	1.18118369579	-0.113756418228	-0.0218539237976	1.48737573624	-0.298923254013
0.137547016144	1.18078625202	-0.116654634476	-0.0221462249756	1.48397552967	-0.303708434105
0.140123844147	1.17869257927	-0.121640205383	-0.0230104923248	1.48265337944	-0.306217074394
0.141842842102	1.17322838306	-0.126495599747	-0.0215137004852	1.49060738087	-0.309996604919
0.142804145813	1.17143988609	-0.127223849297	-0.0172920227051	1.50392580032	-0.314794778824
0.139699935913	1.17243373394	-0.127352952957	-0.010600566864	1.517318964	-0.320655584335
0.137674808502	1.17186748981	-0.126979351044	-0.00397062301636	1.52885878086	-0.3264503479
0.139871358871	1.16927433014	-0.125242352486	0.000272750854492	1.53682816029	-0.330310344696
0.143091201782	1.16679573059	-0.124469995499	0.00213766098022	1.53945112228	-0.329954862595
0.144957304001	1.16815197468	-0.125187158585	0.00237369537354	1.5349727869	-0.323733568192
0.143600463867	1.17059838772	-0.127206087112	0.00128293037415	1.52710461617	-0.316027879715
0.139486789703	1.17100870609	-0.127056837082	-0.00122308731079	1.5212328434	-0.311146497726
0.134831428528	1.17092263699	-0.124941706657	-0.00470805168152	1.51859641075	-0.308440327644
0.131783246994	1.17156946659	-0.121750593185	-0.0069694519043	1.51751494408	-0.306925415993
0.13071346283	1.17336165905	-0.118035435677	-0.00735855102539	1.51694834232	-0.305471420288
0.132296085358	1.17506194115	-0.112980127335	-0.0065586566925	1.51687610149	-0.304225683212
0.136047363281	1.17900574207	-0.108321666718	-0.00516843795776	1.51707494259	-0.303344964981
0.136238574982	1.17572915554	-0.0957882404327	-0.00309252738953	1.51637792587	-0.303102731705
0.134971380234	1.14875590801	-0.0684305429459	-0.00052809715271	1.51512336731	-0.303929805756
0.134541749954	1.1154011488	-0.0502953529358	0.00105834007263	1.51529669762	-0.305254936218
0.131970405579	1.11594283581	-0.0534861087799	0.00192022323608	1.51588606834	-0.305340051651
0.128087759018	1.13190948963	-0.0606518983841	0.00272750854492	1.51563823223	-0.3045129776
0.126199483871	1.144728899	-0.0621280670166	0.00404787063599	1.51550257206	-0.304094672203
0.12412571907	1.1579066515	-0.0641252994537	0.00570821762085	1.5157430172	-0.303682208061
0.123843431473	1.16623449326	-0.0651478767395	0.0073356628418	1.51594114304	-0.302648067474
0.126013755798	1.17163574696	-0.0652099847794	0.00899386405945	1.51604175568	-0.301021337509
0.127825737	1.17953073978	-0.0669162273407	0.0104696750641	1.51572978497	-0.298657178879
0.127528905869	1.18705010414	-0.0676639080048	0.0111775398254	1.51582193375	-0.296074390411
0.129388093948	1.18535721302	-0.0608139038086	0.0117924213409	1.51497483253	-0.294293165207
0.135271072388	1.16173005104	-0.0444509983063	0.0123980045319	1.51413202286	-0.293883919716
0.138366222382	1.14189755917	-0.0371465682983	0.0122520923615	1.5142916441	-0.293898105621
0.137314558029	1.14472389221	-0.0399399995804	0.0118823051453	1.51419389248	-0.293910861015
0.132431983948	1.16660118103	-0.0477215051651	0.0123519897461	1.51361691952	-0.294096231461
0.129139900208	1.18088626862	-0.0517244338989	0.0129241943359	1.51360833645	-0.294806838036
0.125911951065	1.19018721581	-0.0573065280914	0.0127611160278	1.51365470886	-0.295856952667
0.123819112778	1.19432282448	-0.0617704391479	0.0117218494415	1.51385557652	-0.297175168991
0.122873544693	1.19862616062	-0.0657945871353	0.0105361938477	1.51384842396	-0.298032522202
0.119681119919	1.20705699921	-0.0713303089142	0.00979137420654	1.51351571083	-0.298378229141
0.118278264999	1.21038460732	-0.0724670886993	0.00956153869629	1.51353931427	-0.299316287041
0.122582912445	1.20365166664	-0.0672225952148	0.00957250595093	1.51351594925	-0.300988912582
0.124276638031	1.19383430481	-0.0625121593475	0.00904583930969	1.51376771927	-0.302854537964
0.117552757263	1.18891489506	-0.060807466507	0.00812959671021	1.51351499557	-0.304512500763
0.11342382431	1.18847930431	-0.0609047412872	0.00728940963745	1.51309978962	-0.306300163269
0.110260009766	1.19095158577	-0.0616719722748	0.0066089630127	1.5128890276	-0.3077480793
0.10959649086	1.18943679333	-0.0593683719635	0.00631189346313	1.51274895668	-0.308264255524
0.109375476837	1.18564689159	-0.0549409389496	0.00621867179871	1.51352703571	-0.307683944702
0.106367826462	1.18126153946	-0.0472621917725	0.00612831115723	1.51440429688	-0.305139541626
0.103542327881	1.17736971378	-0.0381090641022	0.00589871406555	1.51436519623	-0.300907611847
0.102817296982	1.17322862148	-0.0299785137177	0.00505185127258	1.5136692524	-0.295356750488
0.0993211269379	1.1771684885	-0.0274477005005	0.00294518470764	1.51246738434	-0.290127515793
0.0868670940399	1.19148170948	-0.0360672473907	3.93390655518e-05	1.51167583466	-0.285931587219
0.08868932724	1.19214916229	-0.0348702669144	-0.00224351882935	1.51081955433	-0.282594919205
0.0920398235321	1.19081807137	-0.0325345993042	-0.00292253494263	1.50991225243	-0.280730128288
0.0973069667816	1.18986415863	-0.0305259227753	-0.00245213508606	1.50956368446	-0.280016422272
0.100805044174	1.19361686707	-0.0314242839813	-0.000938653945923	1.50953924656	-0.280313253403
0.102951288223	1.20023465157	-0.0331879854202	0.000843286514282	1.50938224792	-0.28109061718
0.105422496796	1.20689690113	-0.0344507694244	0.00255513191223	1.50931978226	-0.282366752625
0.106410741806	1.21212112904	-0.0348576307297	0.00373220443726	1.50970971584	-0.283766031265
0.105634212494	1.21550917625	-0.034068107605	0.00354361534119	1.50848472118	-0.284898281097
0.103730678558	1.21530365944	-0.0342783927917	0.000636577606201	1.50521099567	-0.285051345825
0.101966142654	1.21118736267	-0.0336265563965	-0.00231671333313	1.50332331657	-0.283829450607
0.100024223328	1.20302891731	-0.0301909446716	-0.0042827129364	1.50190162659	-0.282295942307
0.0990436077118	1.19658124447	-0.0283553600311	-0.00562000274658	1.50078046322	-0.281326413155
0.101462364197	1.2061150074	-0.0376534461975	-0.00684070587158	1.50028550625	-0.280935049057
0.10546207428	1.21650731564	-0.0491862297058	-0.00777339935303	1.50001776218	-0.281091332436
0.108024835587	1.22627484798	-0.0594506263733	-0.00743460655212	1.49978101254	-0.281675696373
0.106404781342	1.23688006401	-0.07173204422	-0.00670576095581	1.4997048378	-0.282994627953
0.103087425232	1.24230611324	-0.0783762931824	-0.00563311576843	1.49965929985	-0.284123182297
0.103733301163	1.23910522461	-0.0757007598877	-0.00449466705322	1.49978768826	-0.285755872726
0.114480257034	1.22739267349	-0.0625133514404	-0.00274324417114	1.50026965141	-0.287313222885
0.132687568665	1.20919406414	-0.0468258857727	-0.000822782516479	1.50071144104	-0.288782835007
0.152644395828	1.18169617653	-0.0312149524689	0.000566482543945	1.50070381165	-0.290162801743
0.17013168335	1.14891791344	-0.0231869220734	0.0012423992157	1.5008559227	-0.291607379913
0.178002595901	1.14035141468	-0.0266742706299	0.00139093399048	1.50123310089	-0.293018341064
0.178050756454	1.14201188087	-0.0304188728333	0.0016074180603	1.50094568729	-0.294178247452
0.174033880234	1.14456677437	-0.0289038419724	0.0023820400238	1.5008699894	-0.295019626617
0.162529706955	1.15209460258	-0.0264877080917	0.00337266921997	1.50134551525	-0.295711517334
0.143736600876	1.16634309292	-0.0281456708908	0.00377416610718	1.50155949593	-0.295975327492
0.115183353424	1.18468046188	-0.0372259616852	0.00365686416626	1.50126361847	-0.295839071274
0.10048866272	1.19496881962	-0.0453972816467	0.00400924682617	1.50103807449	-0.295473098755
0.0950350761414	1.19891262054	-0.0477223396301	0.00465536117554	1.50094997883	-0.295040011406
0.0956134796143	1.20068776608	-0.047833442688	0.00525069236755	1.50104832649	-0.294414401054
0.100178956985	1.2030633688	-0.0474083423615	0.00574588775635	1.50103473663	-0.293745279312
0.106524705887	1.20355069637	-0.0463415384293	0.00635981559753	1.50040650368	-0.293566346169
0.106559514999	1.20251166821	-0.0473616123199	0.00756001472473	1.49917125702	-0.293286442757
0.105744838715	1.19928610325	-0.0479278564453	0.0116837024689	1.49830126762	-0.292590618134
0.1068983078	1.19729864597	-0.0481655597687	0.0179288387299	1.49843215942	-0.291400313377
0.106477737427	1.19499647617	-0.0481414794922	0.0270142555237	1.49953901768	-0.290590524673
0.104184865952	1.19505894184	-0.0483708381653	0.0383553504944	1.49981999397	-0.290570497513
0.0996234416962	1.19579160213	-0.0489428043365	0.0490577220917	1.49809455872	-0.291663527489
0.0955808162689	1.19693994522	-0.0504171848297	0.0561618804932	1.49626243114	-0.293220162392
0.0968878269196	1.19868946075	-0.0533969402313	0.0551865100861	1.49144589901	-0.294352054596
0.10235285759	1.2010140419	-0.0573263168335	0.0483891963959	1.48254621029	-0.293784618378
0.107952594757	1.20405375957	-0.0600678920746	0.0417881011963	1.47612273693	-0.292266964912
0.111219167709	1.20828557014	-0.0627670288086	0.0374064445496	1.47365736961	-0.290769815445
0.112353563309	1.21339166164	-0.0663223266602	0.0353186130524	1.47348165512	-0.28933608532
0.111027956009	1.22024071217	-0.0699708461761	0.0362946987152	1.47184562683	-0.288812637329
0.107483148575	1.22843945026	-0.0757392644882	0.0377297401428	1.4697072506	-0.28904902935
0.107038259506	1.2327901125	-0.0783565044403	0.0362899303436	1.46907758713	-0.289036989212
0.110203027725	1.22997248173	-0.0751509666443	0.0343163013458	1.46842515469	-0.288883209229
0.112277746201	1.22651219368	-0.0712721347809	0.0330986976624	1.46726799011	-0.287749648094
0.112905740738	1.23596656322	-0.077299118042	0.0317206382751	1.4685087204	-0.286481738091
0.122383356094	1.25009894371	-0.0915710926056	0.0299117565155	1.47128105164	-0.285223245621
0.135262966156	1.25133931637	-0.0929906368256	0.0282940864563	1.47317564487	-0.284557938576
0.142017841339	1.24054551125	-0.0794643163681	0.027606010437	1.47381532192	-0.284600257874
0.14354133606	1.2164491415	-0.058155298233	0.028552532196	1.47417831421	-0.28479886055
0.139108419418	1.21174800396	-0.0579104423523	0.0316698551178	1.4752831459	-0.284093022346
0.135216236115	1.21646165848	-0.0610404014587	0.0371136665344	1.47588574886	-0.282835245132
0.133765220642	1.22157895565	-0.0626854896545	0.0440130233765	1.4775788784	-0.281057596207
0.134137630463	1.22483658791	-0.0650444030762	0.0515687465668	1.47985732555	-0.279474616051
0.134089708328	1.22289466858	-0.0640127658844	0.0582900047302	1.48187553883	-0.277438759804
0.133970737457	1.22102403641	-0.0638557672501	0.0628995895386	1.48711109161	-0.27466583252
0.135958909988	1.22121405602	-0.0633722543716	0.0660235881805	1.49370145798	-0.273943424225
0.137625455856	1.22094357014	-0.0616059303284	0.0678911209106	1.50082087517	-0.275313138962
0.136946439743	1.22123801708	-0.0604612827301	0.068638086319	1.50694310665	-0.278450965881
0.136528730392	1.22142744064	-0.0584845542908	0.0689651966095	1.50948226452	-0.281224012375
0.137509822845	1.22301328182	-0.057680606842	0.0691313743591	1.50321447849	-0.281487226486
0.138704061508	1.22613465786	-0.0586276054382	0.0688459873199	1.48633050919	-0.279264211655
0.139176845551	1.22888660431	-0.0602110624313	0.0672924518585	1.46652817726	-0.275968790054
0.137302160263	1.22738802433	-0.0591053962708	0.0668253898621	1.45417487621	-0.27121758461
0.134580373764	1.22341561317	-0.0569278001785	0.0699038505554	1.45067381859	-0.265682935715
0.132637500763	1.21930110455	-0.0549827814102	0.0749650001526	1.4503467083	-0.26231443882
0.13255739212	1.21889221668	-0.0541894435883	0.0789437294006	1.45007586479	-0.26171708107
0.131768465042	1.22133684158	-0.054869890213	0.0820486545563	1.45194709301	-0.263528585434
0.128393888474	1.22299516201	-0.0564601421356	0.0872821807861	1.45839297771	-0.267108440399
0.122611522675	1.22063910961	-0.0571691989899	0.0947580337524	1.46994554996	-0.273048043251
0.112279891968	1.21560382843	-0.0577892065048	0.102486610413	1.4809718132	-0.281608343124
0.0996520519257	1.21015739441	-0.0574820041656	0.109796524048	1.48282957077	-0.291892290115
0.0855202674866	1.209374547	-0.0588438510895	0.119695186615	1.47565805912	-0.299122095108
0.0772914886475	1.21643519402	-0.0673097372055	0.128007888794	1.46530151367	-0.304319024086
0.0732543468475	1.21854543686	-0.0724720954895	0.133172750473	1.45995569229	-0.309219121933
0.0753726959229	1.21824002266	-0.0740969181061	0.132430076599	1.45982682705	-0.311383724213
0.0776088237762	1.21619868279	-0.073734998703	0.129266023636	1.46285188198	-0.312277078629
0.0739698410034	1.21555161476	-0.0716087818146	0.12612247467	1.46613192558	-0.31356048584
0.0662078857422	1.21977055073	-0.0729033946991	0.124452829361	1.46598386765	-0.314147114754
0.0587213039398	1.22427988052	-0.0769469738007	0.123534440994	1.46159982681	-0.312759280205
0.0576555728912	1.22756099701	-0.0807030200958	0.116500377655	1.45089423656	-0.306752920151
0.0609908103943	1.23126661777	-0.086820602417	0.107140302658	1.4385008812	-0.299035787582
0.0606157779694	1.22832632065	-0.088089466095	0.105320453644	1.43150246143	-0.293185949326
0.0561401844025	1.22316050529	-0.0843908786774	0.112466812134	1.4301623106	-0.289102077484
0.0483798980713	1.22036123276	-0.0815873146057	0.121179819107	1.4303586483	-0.286046266556
0.0473999977112	1.22201418877	-0.0804972648621	0.128399372101	1.4305921793	-0.283403873444
0.0684654712677	1.22738659382	-0.0827608108521	0.133422374725	1.43292701244	-0.281810879707
0.107938051224	1.22734284401	-0.0895948410034	0.13728928566	1.43884253502	-0.283679962158
0.149024963379	1.21571397781	-0.0974156856537	0.138561964035	1.44371902943	-0.288279056549
0.166626930237	1.21236419678	-0.100234508514	0.137345790863	1.448772192	-0.294404625893
0.170995235443	1.21344518661	-0.107869386673	0.134606361389	1.45482742786	-0.301782131195
0.164857625961	1.21867895126	-0.114144325256	0.130525112152	1.45981013775	-0.310840606689
0.148083925247	1.2271784544	-0.116730451584	0.125978469849	1.4649450779	-0.320620775223
0.126237154007	1.23138749599	-0.122089147568	0.119320869446	1.47006678581	-0.329383730888
0.103372812271	1.23269677162	-0.130887269974	0.109884738922	1.47456383705	-0.335508584976
0.0868325233459	1.23427021503	-0.141130566597	0.0973968505859	1.48047423363	-0.338559865952
0.0783755779266	1.23553454876	-0.152489542961	0.0827453136444	1.48687815666	-0.338921308517
0.0650005340576	1.23268210888	-0.165879845619	0.0683088302612	1.49170029163	-0.337645053864
0.0434679985046	1.22524380684	-0.173890590668	0.0551393032074	1.49524247646	-0.333930492401
0.0278341770172	1.21769285202	-0.178596735001	0.0447885990143	1.49688625336	-0.328640699387
0.0319471359253	1.21063756943	-0.181103825569	0.0413584709167	1.4992749691	-0.32062125206
0.047025680542	1.19900178909	-0.172994852066	0.0439898967743	1.50051116943	-0.311159610748
0.066867351532	1.19035518169	-0.160513877869	0.0463857650757	1.49949908257	-0.30494093895
0.0933258533478	1.18961191177	-0.150360822678	0.0450592041016	1.50037765503	-0.303065419197
0.117056846619	1.19168817997	-0.143311262131	0.0398466587067	1.50279533863	-0.303376913071
0.123533964157	1.19660580158	-0.145870923996	0.0310668945312	1.50513958931	-0.304521203041
0.108998298645	1.19933831692	-0.147958755493	0.0196409225464	1.50522100925	-0.305459499359
0.0830109119415	1.19738948345	-0.15066742897	0.0081741809845	1.50329947472	-0.306455373764
0.0563225746155	1.19167923927	-0.151202082634	-0.00197982788086	1.50268626213	-0.305556058884
0.0276880264282	1.1826325655	-0.153466701508	-0.0115697383881	1.5018402338	-0.305626869202
0.0147333145142	1.18442165852	-0.152524471283	-0.0199506282806	1.50579416752	-0.307170152664
0.0128703117371	1.19074594975	-0.152344942093	-0.0260198116302	1.50784480572	-0.308099746704
0.0185115337372	1.19272017479	-0.14688873291	-0.0301260948181	1.50859045982	-0.309359669685
0.0300478935242	1.19072628021	-0.144614219666	-0.0311717987061	1.50768303871	-0.31248831749
0.0453598499298	1.18111658096	-0.149062871933	-0.03062915802	1.50719773769	-0.316761851311
0.0632629394531	1.16890645027	-0.150653600693	-0.0285363197327	1.50818037987	-0.318279981613
0.0817677974701	1.15514278412	-0.147641181946	-0.0247883796692	1.50541079044	-0.319151639938
0.099823474884	1.13655722141	-0.129758119583	-0.019190788269	1.50437557697	-0.318807601929
0.108120918274	1.13419103622	-0.126166343689	-0.0134727954865	1.50546455383	-0.317478895187
0.102478981018	1.15793502331	-0.150855660439	-0.00767779350281	1.50562107563	-0.314027428627
0.0969343185425	1.18035674095	-0.171930789948	-0.00260829925537	1.50486457348	-0.310556411743
0.0932829380035	1.18895673752	-0.175587415695	0.000646352767944	1.50334990025	-0.308609008789
0.0996263027191	1.18553066254	-0.16341137886	0.00202131271362	1.50364410877	-0.307326316833
0.0977787971497	1.17952179909	-0.155150055885	0.0016987323761	1.50451827049	-0.305714607239
0.0913875102997	1.17681741714	-0.151913166046	0.000243186950684	1.50497484207	-0.303401947021
0.0866458415985	1.17692291737	-0.149036288261	-0.00162363052368	1.50508666039	-0.301347970963
0.0830662250519	1.17830014229	-0.147920846939	-0.00375771522522	1.50454056263	-0.300093650818
0.0780267715454	1.17968213558	-0.150074362755	-0.00652360916138	1.50500392914	-0.299922466278
0.07346534729	1.18124139309	-0.152217030525	-0.00999355316162	1.50574028492	-0.301185131073
0.0752897262573	1.17898440361	-0.149963617325	-0.0129747390747	1.50661790371	-0.303585529327
0.082802772522	1.17535173893	-0.144942164421	-0.0148897171021	1.507158041	-0.306584835052
0.0755145549774	1.17655479908	-0.147948265076	-0.0157172679901	1.50739574432	-0.309991359711
0.0582664012909	1.18605005741	-0.166866540909	-0.0159819126129	1.50812149048	-0.313559889793
0.0451443195343	1.19338560104	-0.186293244362	-0.0162153244019	1.50853216648	-0.317418575287
0.0370509624481	1.19848668575	-0.19790148735	-0.0165011882782	1.50923681259	-0.321312427521
0.0296907424927	1.20054829121	-0.204840183258	-0.0163655281067	1.50975096226	-0.324840068817
0.0261192321777	1.20208275318	-0.208220243454	-0.0155124664307	1.5100030899	-0.327220082283
0.0242784023285	1.20408153534	-0.210371494293	-0.0147416591644	1.51030862331	-0.328707933426
0.0229041576385	1.2048895359	-0.211220741272	-0.0134761333466	1.51025235653	-0.328896760941
0.0244123935699	1.20476520061	-0.201008796692	-0.011914730072	1.50993335247	-0.328429818153
0.0315840244293	1.20546317101	-0.178260326385	-0.0111830234528	1.50960373878	-0.327976942062
0.0436611175537	1.20266199112	-0.153553962708	-0.0111422538757	1.50940716267	-0.327152013779
0.0597627162933	1.18974781036	-0.119872450829	-0.0112533569336	1.50857317448	-0.325885534286
0.0807225704193	1.1569006443	-0.0833712816238	-0.0114803314209	1.50772118568	-0.325043678284
0.099015712738	1.10216033459	-0.0568699836731	-0.0120053291321	1.50752127171	-0.324242115021
0.101092815399	1.08232986927	-0.0527949333191	-0.012354850769	1.50753045082	-0.323472976685
0.0994846820831	1.08880877495	-0.0559462308884	-0.0126078128815	1.50753211975	-0.322470903397
0.097749710083	1.10034191608	-0.056058883667	-0.0127196311951	1.50720775127	-0.322124004364
0.0946125984192	1.12450885773	-0.0633544921875	-0.0127229690552	1.50754725933	-0.322513222694
0.0910811424255	1.14226150513	-0.0706284046173	-0.0126118659973	1.50746154785	-0.322629928589
0.0835707187653	1.15856647491	-0.0796403884888	-0.0121846199036	1.50759708881	-0.32234120369
0.0778262615204	1.17105054855	-0.0891609191895	-0.0112640857697	1.50755667686	-0.321574449539
0.0714721679688	1.18013465405	-0.0972460508347	-0.00957703590393	1.50744748116	-0.320352315903
0.0642242431641	1.17813313007	-0.0953621864319	-0.00755381584167	1.50722265244	-0.319019436836
0.0663392543793	1.17322552204	-0.0910284519196	-0.00594520568848	1.50711727142	-0.317538142204
0.0731344223022	1.17139256001	-0.0867874622345	-0.00479459762573	1.50717461109	-0.315670728683
0.0855302810669	1.16778802872	-0.0781326293945	-0.00351500511169	1.50692713261	-0.313133716583
0.108002185822	1.15195739269	-0.0651097297668	-0.00258493423462	1.50648868084	-0.310748338699
0.133422374725	1.13234221935	-0.0599430799484	-0.00220203399658	1.50637614727	-0.308652043343
0.155575275421	1.12596452236	-0.0704052448273	-0.00254917144775	1.50615882874	-0.306247711182
0.173656463623	1.11575007439	-0.0738370418549	-0.00332093238831	1.50580704212	-0.303675174713
0.180842399597	1.10676074028	-0.0733935832977	-0.00444722175598	1.50561010838	-0.301640987396
0.175151586533	1.10250043869	-0.0683423280716	-0.00532674789429	1.50542616844	-0.300102472305
0.152495861053	1.09796011448	-0.0523638725281	-0.00550866127014	1.50507307053	-0.298983335495
0.109282493591	1.09575366974	-0.0343182086945	-0.00534343719482	1.50469470024	-0.297891378403
0.0496640205383	1.10277962685	-0.0318517684937	-0.00491809844971	1.5044567585	-0.297373652458
-0.00503158569336	1.11092305183	-0.0438541173935	-0.00402021408081	1.50428843498	-0.297121524811
-0.0456447601318	1.11987149715	-0.0602650642395	-0.00370931625366	1.50451683998	-0.29753780365
-0.0691406726837	1.13287079334	-0.0773055553436	-0.00397825241089	1.50483810902	-0.297797083855
-0.080385684967	1.14227342606	-0.0875835418701	-0.00440239906311	1.50504219532	-0.298263311386
-0.0820887088776	1.1481730938	-0.0914535522461	-0.00451803207397	1.50529205799	-0.298703670502
-0.0779371261597	1.15064442158	-0.090850353241	-0.0040078163147	1.50535285473	-0.299778938293
-0.0714960098267	1.15082871914	-0.088174700737	-0.00283145904541	1.50519955158	-0.301169514656
-0.0656938552856	1.15099823475	-0.0864911079407	-0.00120902061462	1.50478172302	-0.302931308746
-0.0612797737122	1.15243828297	-0.0858278274536	0.000613451004028	1.50440526009	-0.304901242256
-0.0591332912445	1.15380644798	-0.0861793756485	0.00171828269958	1.50453972816	-0.307057857513
-0.0600643157959	1.15403413773	-0.0879381895065	0.00190830230713	1.50482237339	-0.308754444122
-0.0614018440247	1.15305376053	-0.0897161960602	0.00190687179565	1.50446093082	-0.310245752335
-0.0624244213104	1.15274572372	-0.0916385650635	0.00169682502747	1.50385355949	-0.311419487
-0.0624003410339	1.15325438976	-0.0926258563995	0.0012903213501	1.50332427025	-0.31240606308
-0.0622367858887	1.15296661854	-0.093191742897	0.000927925109863	1.50287008286	-0.313078641891
-0.0618095397949	1.15221989155	-0.0933949947357	0.00126814842224	1.5020595789	-0.313279151917
-0.0616211891174	1.15230548382	-0.0930593013763	0.00193071365356	1.49984645844	-0.312802791595
-0.0618894100189	1.15339159966	-0.0927000045776	0.00207662582397	1.49729394913	-0.311658024788
-0.0626835823059	1.15276002884	-0.0920526981354	0.00204730033875	1.49682724476	-0.310265779495
-0.0647113323212	1.15225183964	-0.0921514034271	0.00276780128479	1.49761068821	-0.308387875557
-0.0641989707947	1.1537476778	-0.0917153358459	0.00338649749756	1.49850225449	-0.305691957474
-0.0630538463593	1.15570664406	-0.0915498733521	0.00139498710632	1.49972367287	-0.302754640579
-0.0601518154144	1.15743994713	-0.0913307666779	-0.00568628311157	1.50180733204	-0.301025867462
-0.0586776733398	1.15663599968	-0.0899031162262	-0.0146260261536	1.50563573837	-0.300234556198
-0.0581648349762	1.15566146374	-0.0889492034912	-0.0211379528046	1.50859475136	-0.300276398659
-0.0574588775635	1.15763366222	-0.0888204574585	-0.0234200954437	1.50682234764	-0.299216747284
-0.0561649799347	1.1601536274	-0.0889451503754	-0.0148630142212	1.49909758568	-0.296207427979
-0.0526528358459	1.16222345829	-0.0885434150696	0.000136375427246	1.49274241924	-0.295122146606
-0.0474448204041	1.16172540188	-0.0870416164398	0.00764393806458	1.49061369896	-0.294823884964
-0.0449142456055	1.16013169289	-0.0859104394913	0.0099458694458	1.48567271233	-0.293571710587
-0.0451767444611	1.16026544571	-0.0867612361908	0.0112075805664	1.47692584991	-0.291277289391
-0.0462098121643	1.16048920155	-0.0868699550629	0.0122590065002	1.47113037109	-0.288353443146
-0.0485701560974	1.15988624096	-0.0874315500259	0.0133671760559	1.47346889973	-0.286293983459
-0.0471467971802	1.15970027447	-0.0877747535706	0.00864171981812	1.48156154156	-0.284955143929
-0.0413801670074	1.16018247604	-0.0872778892517	-0.00161576271057	1.4873265028	-0.283620715141
-0.0330135822296	1.15951371193	-0.0840816497803	-0.0119023323059	1.48587405682	-0.283221960068
-0.0302617549896	1.15915358067	-0.0823081731796	-0.0117383003235	1.48432159424	-0.282583475113
-0.0349569320679	1.15958416462	-0.0815608501434	-0.00202989578247	1.47792577744	-0.283639669418
-0.0406866073608	1.15810465813	-0.0830245018005	0.00952005386353	1.4756885767	-0.28523170948
-0.0353980064392	1.14956998825	-0.0813683271408	0.0108091831207	1.48144924641	-0.289054274559
-0.021678686142	1.15593826771	-0.0852752923965	0.00313568115234	1.48332965374	-0.290137290955
-0.00552344322205	1.16841733456	-0.0895050764084	-0.00429058074951	1.48219454288	-0.29088807106
0.0118410587311	1.17532002926	-0.0840005874634	-0.00641226768494	1.48273408413	-0.291355371475
0.0323803424835	1.17104935646	-0.0761480331421	-0.00519800186157	1.48188757896	-0.291848897934
0.0445942878723	1.15612030029	-0.0720391273499	-0.00241589546204	1.47918057442	-0.291534900665
0.0371513366699	1.14813292027	-0.0698243379593	-3.69548797607e-05	1.47711670399	-0.291526913643
0.026547908783	1.14942896366	-0.0674116611481	0.0019383430481	1.47696328163	-0.292276620865
0.0163598060608	1.14723694324	-0.0619006156921	0.00455117225647	1.4776006937	-0.29347205162
-0.00740003585815	1.13651502132	-0.0585265159607	0.00728154182434	1.47795808315	-0.295477032661
-0.0255477428436	1.13623189926	-0.0676577091217	0.00939702987671	1.47887396812	-0.298097610474
-0.0370028018951	1.14016866684	-0.0767831802368	0.0105092525482	1.48007512093	-0.30005645752
-0.0410590171814	1.14795219898	-0.0827471017838	0.01114320755	1.48045635223	-0.301719307899
