0.0	-0.0	137.885986328	87.1864318848	87.1417999268	19.8867301941
0.0	-0.0	139.273330688	86.7589645386	86.4173583984	19.576915741
0.0	-0.0	140.465667725	87.4511032104	86.1901016235	19.122549057
0.0	-0.0	139.334274292	87.4128341675	85.8624572754	19.1361141205
0.0	-0.0	139.172164917	85.6436462402	85.6819610596	20.0755023956
0.0	-0.0	136.743179321	81.6843490601	84.9748306274	21.7977619171
0.0	-0.0	137.962081909	76.5456924438	84.3709716797	24.2430343628
0.0	-0.0	137.453643799	71.3680038452	84.5781784058	26.7829113007
0.0	-0.0	136.567016602	67.6824035645	85.6796188354	28.7637939453
0.0	-0.0	137.943206787	64.654876709	86.8968887329	30.0108413696
0.0	-0.0	136.139266968	62.9082984924	87.8877258301	30.5886211395
0.0	-0.0	119.233589172	63.1016387939	88.0689926147	30.8494644165
0.0	-0.0	81.2657089233	63.511390686	88.9316482544	30.5586032867
