-19.6269989014	-83.6094207764	137.048355103	-0.20080627501	0.635581731796	-5.82993459702
-18.7062835693	-83.7185821533	136.464935303	-0.0793462842703	0.877663612366	-5.82961034775
-15.2462873459	-83.6303787231	133.119766235	0.0251371897757	0.998546242714	-5.9085316658
-16.3027248383	-83.4402694702	134.149246216	0.0875936672091	1.24989902973	-5.91328144073
-15.2754306793	-83.2139053345	132.961547852	0.573474466801	2.25140929222	-5.85211181641
-5.57256269455	-81.8897018433	121.684532166	2.63214182854	5.0768995285	-6.25273370743
3.32188534737	-80.7834777832	111.108123779	6.01421070099	8.71928310394	-7.32036781311
1.00499069691	-80.7301940918	114.645553589	9.16703414917	10.3394298553	-8.00085067749
2.78470683098	-78.8115997314	112.509994507	11.308927536	10.6198596954	-8.78003406525
-1.32592833042	-73.8716888428	111.905212402	13.0479412079	10.7009963989	-9.41991901398
1.44117128849	-72.0059432983	108.004829407	14.1986074448	10.8258161545	-9.71429252625
2.75551915169	-70.6829986572	104.504623413	14.6571063995	11.2257890701	-9.74945926666
