-0.0432724952698	1.27145683765	-0.0913622379303	-0.108948945999	1.50320589542	-0.342900395393
-0.0429306030273	1.27286446095	-0.0918836593628	-0.107768774033	1.50268626213	-0.343422889709
-0.0417711734772	1.27392792702	-0.092093706131	-0.107105731964	1.50221180916	-0.343059420586
-0.0375678539276	1.27417957783	-0.0916669368744	-0.10778594017	1.50211822987	-0.342037677765
-0.0317273139954	1.26923155785	-0.0893416404724	-0.11038184166	1.50365281105	-0.34043431282
-0.0324549674988	1.2566562891	-0.0868207216263	-0.11478304863	1.50642597675	-0.338101387024
-0.0368707180023	1.24681556225	-0.0836800336838	-0.118322610855	1.5100799799	-0.336248397827
-0.0398616790771	1.24582159519	-0.0832362174988	-0.119163274765	1.51380634308	-0.33425450325
-0.0395977497101	1.25073170662	-0.0844321250916	-0.117771863937	1.51534509659	-0.332984209061
-0.0393831729889	1.25713539124	-0.0890185832977	-0.11474108696	1.52012777328	-0.333144903183
-0.0425217151642	1.26440870762	-0.0968797206879	-0.112439155579	1.52537477016	-0.335506916046
-0.0438463687897	1.2705732584	-0.101636171341	-0.110511779785	1.52570950985	-0.337562322617
-0.044406414032	1.27390396595	-0.103106975555	-0.109701156616	1.52521979809	-0.338270425797
-0.0422806739807	1.27394616604	-0.10127723217	-0.109862327576	1.52616417408	-0.33868098259
-0.039137840271	1.27393400669	-0.0983605384827	-0.111033678055	1.52728199959	-0.338959693909
-0.0417687892914	1.27376687527	-0.0975937843323	-0.111764669418	1.52811264992	-0.339406371117
-0.0485570430756	1.27124190331	-0.0982089042664	-0.111859083176	1.52834737301	-0.339972019196
-0.0544111728668	1.26823723316	-0.100258708	-0.111843109131	1.52896952629	-0.339931488037
-0.0583605766296	1.26516067982	-0.103093743324	-0.111572027206	1.52921402454	-0.339252471924
-0.0581257343292	1.26371741295	-0.103494048119	-0.110220193863	1.52890062332	-0.338396549225
-0.0593771934509	1.26306903362	-0.103223323822	-0.108092069626	1.52982473373	-0.338577508926
-0.0592951774597	1.26456332207	-0.104533672333	-0.105670690536	1.53133523464	-0.339126110077
-0.0573925971985	1.27107274532	-0.114923715591	-0.103788614273	1.53320705891	-0.339821219444
-0.0552966594696	1.28126680851	-0.127373695374	-0.10209941864	1.53759503365	-0.340519309044
-0.0529913902283	1.28889608383	-0.129893660545	-0.100383996964	1.54305553436	-0.342831850052
-0.0529100894928	1.28927958012	-0.129317760468	-0.0982112884521	1.54856741428	-0.345375537872
-0.0541915893555	1.28773283958	-0.130754470825	-0.0950541496277	1.55075597763	-0.347960233688
-0.0565841197968	1.28801262379	-0.132696270943	-0.092095375061	1.55019521713	-0.349532961845
-0.0576436519623	1.29118573666	-0.138020038605	-0.0896487236023	1.54991221428	-0.350463986397
-0.0384714603424	1.30801606178	-0.148800969124	-0.0869288444519	1.54810929298	-0.351074695587
-0.00490236282349	1.33191311359	-0.127158164978	-0.0843224525452	1.54442167282	-0.350392818451
0.0100734233856	1.33276069164	-0.0878777503967	-0.084290266037	1.54152035713	-0.350133895874
0.0145297050476	1.32636106014	-0.0830752849579	-0.0855269432068	1.54070782661	-0.350392699242
0.0118396282196	1.31547760963	-0.0796344280243	-0.086207151413	1.53981244564	-0.350127100945
0.00929379463196	1.297082901	-0.0628159046173	-0.0861413478851	1.53853428364	-0.350119948387
0.00197052955627	1.27903330326	-0.0460956096649	-0.0860397815704	1.53803050518	-0.35045003891
-0.00124001502991	1.2606574297	-0.0319311618805	-0.0864782333374	1.53777575493	-0.350803732872
-0.00354981422424	1.26291942596	-0.0342035293579	-0.087494134903	1.53779828548	-0.350702643394
-0.0071325302124	1.28435981274	-0.0520370006561	-0.0890481472015	1.53695642948	-0.350436329842
-0.00758385658264	1.30321657658	-0.0659606456757	-0.0917847156525	1.53579509258	-0.351008176804
-0.00330233573914	1.31092846394	-0.0633844137192	-0.0956275463104	1.53450417519	-0.351399183273
0.00294804573059	1.29572999477	-0.0399425029755	-0.099992275238	1.53226709366	-0.351427316666
0.00506544113159	1.27471840382	-0.0289658308029	-0.104250907898	1.53069257736	-0.351337909698
0.000141620635986	1.25593042374	-0.0220875740051	-0.10773730278	1.5300321579	-0.350606441498
-0.00641536712646	1.23581111431	-0.0122143030167	-0.1110932827	1.52841258049	-0.349724292755
-0.0148313045502	1.20771229267	-0.00222396850586	-0.115019321442	1.52703070641	-0.349536657333
-0.0286109447479	1.19430065155	-0.00472784042358	-0.119786977768	1.52606868744	-0.349882602692
-0.0367636680603	1.18742108345	-0.0101068019867	-0.12552690506	1.52497076988	-0.350263834
-0.0352160930634	1.18404281139	-0.0130976438522	-0.133206367493	1.52396094799	-0.349399089813
-0.0243504047394	1.18608748913	-0.0137042999268	-0.14253282547	1.52260506153	-0.349315643311
-0.0164716243744	1.18959414959	-0.0176732540131	-0.151698350906	1.52232801914	-0.349475622177
-0.0160717964172	1.19214737415	-0.0240290164948	-0.158502101898	1.52330994606	-0.349386930466
-0.0223507881165	1.19639730453	-0.0330978631973	-0.163411617279	1.52386581898	-0.349549293518
-0.033066034317	1.20128822327	-0.0472371578217	-0.166310071945	1.52529871464	-0.350648641586
-0.0465898513794	1.19634413719	-0.0662384033203	-0.168417215347	1.52701449394	-0.353176593781
-0.0470123291016	1.17676770687	-0.0723485946655	-0.169566631317	1.52870738506	-0.354339361191
-0.0302875041962	1.14802610874	-0.0696656703949	-0.166910171509	1.52939808369	-0.350515127182
-0.0187411308289	1.11974477768	-0.0635733604431	-0.161857843399	1.52913737297	-0.345348119736
-0.0255799293518	1.11778354645	-0.0637011528015	-0.155384540558	1.52792572975	-0.339835762978
-0.027307510376	1.12217473984	-0.0626275539398	-0.150761365891	1.52527010441	-0.336492776871
-0.0300407409668	1.12199902534	-0.0555858612061	-0.149875402451	1.52411651611	-0.334825158119
-0.0331583023071	1.12152385712	-0.0531851053238	-0.151022434235	1.52423620224	-0.33378970623
-0.0388152599335	1.12585234642	-0.0586061477661	-0.153987169266	1.52456951141	-0.332852959633
-0.0423102378845	1.12805378437	-0.0639503002167	-0.159342288971	1.52347207069	-0.330999135971
-0.0508069992065	1.12776446342	-0.0760507583618	-0.165835857391	1.51991784573	-0.327477216721
-0.0598287582397	1.12190830708	-0.0925867557526	-0.169555425644	1.51483678818	-0.322952032089
-0.0660974979401	1.11512470245	-0.105247735977	-0.168968915939	1.51235246658	-0.321057796478
-0.0744478702545	1.10958993435	-0.115245819092	-0.165966272354	1.51154506207	-0.321266651154
-0.0853583812714	1.10448205471	-0.124730110168	-0.162517547607	1.510653615	-0.322677612305
-0.097469329834	1.09849369526	-0.13400375843	-0.16018652916	1.51122200489	-0.325189352036
-0.102801322937	1.09512519836	-0.140918254852	-0.159036874771	1.51074075699	-0.328912973404
-0.101634979248	1.09339880943	-0.144691228867	-0.159818649292	1.51104974747	-0.332932591438
-0.0972843170166	1.09385609627	-0.146606683731	-0.162010192871	1.51098787785	-0.339945793152
-0.0974850654602	1.10078215599	-0.154497861862	-0.164275169373	1.51209890842	-0.348068833351
-0.100296735764	1.10945785046	-0.169253110886	-0.165799379349	1.51324272156	-0.355571269989
-0.0924849510193	1.1187902689	-0.180036067963	-0.166073083878	1.51425027847	-0.360839128494
-0.0689885616302	1.13076674938	-0.175300359726	-0.165310382843	1.51560723782	-0.364155054092
-0.0381560325623	1.14214670658	-0.165467500687	-0.162511825562	1.51702988148	-0.36573445797
-0.0196123123169	1.14967811108	-0.159693717957	-0.157879114151	1.51839828491	-0.365756511688
-0.0168323516846	1.15311264992	-0.157308101654	-0.153602361679	1.51927113533	-0.365117907524
-0.0169126987457	1.15401124954	-0.155888557434	-0.150954008102	1.51973891258	-0.364342689514
-0.0183393955231	1.15252161026	-0.154452323914	-0.149445533752	1.51985836029	-0.363683819771
-0.0214567184448	1.15123176575	-0.154336452484	-0.148339509964	1.52089750767	-0.364181756973
-0.0219686031342	1.15192139149	-0.154082775116	-0.147541999817	1.52205550671	-0.365402698517
-0.0187547206879	1.15440511703	-0.153625369072	-0.146453857422	1.52305531502	-0.367141723633
-0.00940036773682	1.15784990788	-0.153795599937	-0.144767522812	1.52396643162	-0.369002580643
0.00216960906982	1.16252732277	-0.151809215546	-0.143688201904	1.52449810505	-0.369665503502
0.00595593452454	1.16453611851	-0.149998307228	-0.143207550049	1.52428174019	-0.369126915932
0.00600290298462	1.16503489017	-0.149793982506	-0.142974376678	1.52397859097	-0.367976427078
0.00362873077393	1.16378045082	-0.150128364563	-0.142992258072	1.52417552471	-0.366948127747
0.003005027771	1.16243243217	-0.15115571022	-0.143269538879	1.52450847626	-0.36662530899
0.00586152076721	1.16489267349	-0.152181982994	-0.143309354782	1.52500474453	-0.366794109344
0.0098865032196	1.17273521423	-0.155407190323	-0.143098831177	1.52534019947	-0.367408514023
0.0152044296265	1.18745493889	-0.160377979279	-0.14285159111	1.52528178692	-0.367671251297
0.0197284221649	1.20925688744	-0.167204976082	-0.142104387283	1.52490723133	-0.36746096611
0.0301539897919	1.22168016434	-0.159249424934	-0.141635417938	1.52414953709	-0.367369651794
0.0400388240814	1.22073602676	-0.155636191368	-0.141747236252	1.52321398258	-0.366648674011
0.0417490005493	1.21843910217	-0.15514934063	-0.141635656357	1.52223277092	-0.365220785141
0.0388851165771	1.21740460396	-0.154601454735	-0.140991687775	1.52056670189	-0.363399028778
0.0360450744629	1.21694529057	-0.154416561127	-0.140610933304	1.51866447926	-0.362245559692
0.035293340683	1.21419656277	-0.153294086456	-0.141169071198	1.51477062702	-0.362025141716
0.0345594882965	1.21352148056	-0.152677297592	-0.1424036026	1.50831449032	-0.360780596733
0.0335874557495	1.21538770199	-0.1544008255	-0.14408659935	1.50142621994	-0.358705997467
0.0330176353455	1.21577131748	-0.15470123291	-0.145704269409	1.49790835381	-0.356272697449
0.0326790809631	1.21267521381	-0.153908729553	-0.147156953812	1.49855446815	-0.354619860649
0.031013250351	1.20931017399	-0.152063369751	-0.148177146912	1.50213682652	-0.354606628418
0.0301530361176	1.20811188221	-0.151037454605	-0.148865222931	1.50191617012	-0.355286598206
0.0294299125671	1.20924675465	-0.151909589767	-0.148989200592	1.49787247181	-0.355438947678
0.0279564857483	1.21101379395	-0.153662800789	-0.148639678955	1.49184513092	-0.356093645096
0.0273547172546	1.21292090416	-0.155289053917	-0.14772439003	1.4880297184	-0.356352210045
0.0262241363525	1.21244466305	-0.155489683151	-0.146996974945	1.4901072979	-0.356690168381
0.0251078605652	1.20834946632	-0.15450501442	-0.146489858627	1.49714052677	-0.357818007469
0.0253982543945	1.20502281189	-0.153647899628	-0.146111488342	1.50442183018	-0.360320568085
0.0255136489868	1.20425283909	-0.154156923294	-0.145322799683	1.51035487652	-0.363202095032
0.0250806808472	1.20452213287	-0.154742002487	-0.145416259766	1.51477849483	-0.366812825203
0.0254318714142	1.20469796658	-0.154944181442	-0.145207881927	1.51943027973	-0.371263980865
0.0259835720062	1.20506501198	-0.154715895653	-0.14430975914	1.52407491207	-0.376646757126
0.0263295173645	1.20627784729	-0.154105186462	-0.142290592194	1.52801215649	-0.381747841835
0.0261714458466	1.20842754841	-0.154565691948	-0.139277935028	1.52846908569	-0.385670661926
0.0266318321228	1.21123623848	-0.155766129494	-0.136361122131	1.52753806114	-0.387627363205
0.0283994674683	1.21322464943	-0.157455682755	-0.134299039841	1.52751016617	-0.38966357708
0.0298390388489	1.21416211128	-0.158625006676	-0.133344888687	1.52885556221	-0.392236232758
0.0297768115997	1.21313452721	-0.158372879028	-0.132561683655	1.53160774708	-0.396770119667
0.0283958911896	1.21309113503	-0.158909797668	-0.130810260773	1.53268802166	-0.401468634605
0.0275423526764	1.21484529972	-0.160315752029	-0.127950429916	1.53041982651	-0.403921842575
0.0271410942078	1.21726989746	-0.162005186081	-0.125173568726	1.52553415298	-0.403275251389
0.0321147441864	1.22013497353	-0.160478234291	-0.12415766716	1.52166140079	-0.401147961617
0.0318465232849	1.22214233875	-0.159756064415	-0.125388860703	1.52033078671	-0.399193286896
0.0309731960297	1.22236812115	-0.159779906273	-0.127959251404	1.5206451416	-0.397386789322
0.0328648090363	1.22251772881	-0.159065365791	-0.131970882416	1.51958501339	-0.395264387131
0.039647102356	1.22495543957	-0.157490730286	-0.137892723083	1.51691639423	-0.392344474792
0.0457489490509	1.22888791561	-0.15835249424	-0.147891521454	1.51300752163	-0.38864505291
0.0452835559845	1.23081016541	-0.161084771156	-0.158660411835	1.51363563538	-0.385148763657
0.0406410694122	1.22911548615	-0.162414073944	-0.163633346558	1.51722407341	-0.383330345154
0.0366342067719	1.2274184227	-0.161509275436	-0.162836313248	1.51924169064	-0.382314443588
0.0327234268188	1.22825980186	-0.162053346634	-0.160205364227	1.51950740814	-0.381528377533
0.0305049419403	1.22864460945	-0.161072969437	-0.158851385117	1.51999557018	-0.38179910183
0.0313401222229	1.22777497768	-0.157584905624	-0.158728599548	1.52076852322	-0.382362961769
0.0447981357574	1.22143757343	-0.147722244263	-0.160483360291	1.51804256439	-0.381869792938
0.0520117282867	1.21603190899	-0.14489865303	-0.16335439682	1.51076889038	-0.3805809021
0.0494449138641	1.21688568592	-0.148497581482	-0.165769100189	1.50132215023	-0.379229068756
0.0438330173492	1.22058784962	-0.153169035912	-0.167677879333	1.49886214733	-0.376445293427
0.0372667312622	1.22352731228	-0.156712770462	-0.169948816299	1.49757790565	-0.375354409218
0.0337715148926	1.2239716053	-0.158438205719	-0.173969507217	1.49537682533	-0.375029325485
0.0317783355713	1.22318887711	-0.160111784935	-0.179460048676	1.49338805676	-0.374713659286
0.0291962623596	1.22372436523	-0.161689758301	-0.183933734894	1.49332094193	-0.376309275627
0.0272903442383	1.22637188435	-0.164405226707	-0.186407804489	1.49584186077	-0.379671096802
0.0235571861267	1.22864758968	-0.167103767395	-0.187283992767	1.49833619595	-0.384219288826
0.0205492973328	1.23086285591	-0.170778036118	-0.187581062317	1.49998271465	-0.388632297516
0.0195529460907	1.23124051094	-0.174556136131	-0.188492059708	1.50140941143	-0.393576145172
0.0192728042603	1.23246622086	-0.17693567276	-0.190142869949	1.50465273857	-0.398695707321
0.0182209014893	1.23522591591	-0.180438995361	-0.193606376648	1.50900971889	-0.403753042221
0.0148448944092	1.23934936523	-0.185307979584	-0.197451114655	1.51207816601	-0.407605648041
0.011159658432	1.24292743206	-0.189675211906	-0.199952125549	1.51494276524	-0.411325931549
0.010320186615	1.24551999569	-0.190387606621	-0.199890136719	1.51682448387	-0.414853096008
0.0118532180786	1.25273263454	-0.19803404808	-0.197249174118	1.51670086384	-0.416773796082
0.0150768756866	1.25845313072	-0.204259157181	-0.194504022598	1.51557981968	-0.417112112045
0.0181639194489	1.25938940048	-0.203639984131	-0.192867279053	1.5149885416	-0.4167740345
0.018369436264	1.25788474083	-0.201987028122	-0.192667484283	1.51521945	-0.416509747505
0.018315076828	1.25619077682	-0.199957251549	-0.192723751068	1.51600885391	-0.416188240051
0.0178172588348	1.25506281853	-0.199103832245	-0.192842006683	1.51766955853	-0.415976047516
0.016753911972	1.25396382809	-0.198242783546	-0.192447662354	1.52011430264	-0.416614294052
0.0159201622009	1.2534031868	-0.197719812393	-0.191330909729	1.52267920971	-0.4174233675
0.0146324634552	1.25329327583	-0.196857690811	-0.189351558685	1.52388262749	-0.418149471283
0.0142993927002	1.25381457806	-0.195481419563	-0.186590671539	1.52404403687	-0.418028116226
0.0146579742432	1.2540500164	-0.194781661034	-0.18372797966	1.52323520184	-0.417403101921
0.0155804157257	1.25390183926	-0.194082260132	-0.180790901184	1.52265787125	-0.416634917259
0.0167610645294	1.25307273865	-0.192714214325	-0.178301095963	1.52239251137	-0.415876626968
0.0181648731232	1.25200855732	-0.1914498806	-0.176664829254	1.52296388149	-0.415235757828
0.0188512802124	1.25148999691	-0.191188335419	-0.175096988678	1.52372944355	-0.414681196213
0.0138578414917	1.25162386894	-0.193410634995	-0.173578023911	1.52432584763	-0.414264440536
-0.000240325927734	1.25039899349	-0.197144985199	-0.171929121017	1.52418625355	-0.413289308548
-0.0122747421265	1.24681949615	-0.197482466698	-0.170597791672	1.52332746983	-0.412064313889
-0.0058753490448	1.24840784073	-0.195734262466	-0.169445514679	1.52260029316	-0.410377025604
0.00449728965759	1.25097215176	-0.194307804108	-0.168263673782	1.52274763584	-0.408834695816
0.0108184814453	1.25166213512	-0.19331240654	-0.1670794487	1.52256929874	-0.407419919968
0.00941753387451	1.2507481575	-0.192927718163	-0.16606593132	1.52181005478	-0.406324148178
0.00358533859253	1.24659943581	-0.192144632339	-0.165074586868	1.52141773701	-0.405800819397
-0.00708341598511	1.23694193363	-0.18453514576	-0.16436958313	1.52076673508	-0.405208706856
-0.0156054496765	1.23053264618	-0.184896469116	-0.163608074188	1.51997244358	-0.404089570045
-0.0162811279297	1.21336352825	-0.176363229752	-0.162031173706	1.51939499378	-0.402356863022
-0.0307197570801	1.18628394604	-0.169115304947	-0.160161018372	1.51866912842	-0.400287151337
-0.0510604381561	1.16905343533	-0.174523353577	-0.158755064011	1.51788187027	-0.397943139076
-0.0635266304016	1.16633760929	-0.184998989105	-0.157699584961	1.51653552055	-0.395606517792
-0.0661854743958	1.17587137222	-0.194863080978	-0.156303882599	1.51459598541	-0.393687367439
-0.0600180625916	1.19413566589	-0.202365159988	-0.154987096786	1.51396358013	-0.392691135406
-0.0538363456726	1.20857858658	-0.204460978508	-0.153962612152	1.51443195343	-0.391451716423
-0.0499520301819	1.21011912823	-0.196455717087	-0.152964830399	1.51299417019	-0.389469861984
-0.0487358570099	1.2064435482	-0.189430117607	-0.152292728424	1.51030707359	-0.38591337204
-0.0515282154083	1.20304262638	-0.187400579453	-0.152260065079	1.5025165081	-0.381734848022
-0.0551517009735	1.19927370548	-0.18932890892	-0.152287960052	1.49217319489	-0.378161430359
-0.0568816661835	1.1984770298	-0.190908193588	-0.151743888855	1.49054598808	-0.374820828438
-0.0565683841705	1.19866895676	-0.192165970802	-0.151443243027	1.49224102497	-0.374078512192
-0.0551564693451	1.19740402699	-0.191121339798	-0.152459859848	1.49740242958	-0.375748515129
-0.0529341697693	1.19635486603	-0.189105033875	-0.155056715012	1.50154340267	-0.378380417824
-0.050621509552	1.1983653307	-0.188907384872	-0.158499002457	1.50232982635	-0.379807710648
-0.048455953598	1.20208191872	-0.191263437271	-0.162351131439	1.50174236298	-0.381040334702
-0.0467209815979	1.20350086689	-0.193650722504	-0.164469957352	1.50552248955	-0.383135557175
-0.0455610752106	1.20554316044	-0.196053862572	-0.163573026657	1.51109874249	-0.38535296917
-0.0468215942383	1.2096067667	-0.199782371521	-0.160956859589	1.51401782036	-0.387217283249
-0.0480694770813	1.21190536022	-0.201860547066	-0.158453226089	1.51271498203	-0.38897562027
-0.0483584403992	1.21306598186	-0.20443046093	-0.156379699707	1.51057136059	-0.390473723412
-0.0470747947693	1.21556639671	-0.21060526371	-0.154102563858	1.50973689556	-0.392065286636
-0.0559220314026	1.21994650364	-0.222527146339	-0.153067350388	1.51036310196	-0.394319057465
-0.0532801151276	1.22290205956	-0.225922346115	-0.153421878815	1.51017129421	-0.395934343338
-0.052726984024	1.22539794445	-0.231683254242	-0.153525352478	1.50933218002	-0.397200226784
-0.0533208847046	1.22721362114	-0.23856151104	-0.154002428055	1.50935673714	-0.398688435555
-0.0527918338776	1.23077309132	-0.249719619751	-0.154953956604	1.50989580154	-0.400292396545
-0.0569515228271	1.23393285275	-0.26252925396	-0.155696392059	1.50998139381	-0.401698112488
-0.059042930603	1.2365115881	-0.272174715996	-0.156032562256	1.51025032997	-0.402320504189
-0.0624651908875	1.23806083202	-0.277325868607	-0.15642118454	1.51027691364	-0.402328252792
-0.0644054412842	1.23807418346	-0.275775909424	-0.156669378281	1.51014518738	-0.402321577072
-0.063364982605	1.24015450478	-0.26963865757	-0.156521558762	1.51052260399	-0.401820659637
-0.0568237304688	1.24139773846	-0.236598849297	-0.155242919922	1.51135289669	-0.40084028244
-0.0466187000275	1.23313987255	-0.206085681915	-0.153107404709	1.51213181019	-0.399085521698
-0.0441935062408	1.23082983494	-0.204318284988	-0.151370763779	1.51245772839	-0.395827770233
-0.0449492931366	1.23242974281	-0.207583904266	-0.149487495422	1.51214897633	-0.39161491394
-0.0431694984436	1.23340952396	-0.207001209259	-0.147377967834	1.51153290272	-0.388044953346
-0.0464718341827	1.23421704769	-0.212469577789	-0.145613193512	1.51178586483	-0.385625958443
-0.0565237998962	1.23630952835	-0.22824549675	-0.144471406937	1.51207864285	-0.383427381516
-0.0564842224121	1.23973083496	-0.233258843422	-0.143469572067	1.51203215122	-0.381167411804
-0.0540437698364	1.2410607338	-0.231024026871	-0.142838716507	1.51198220253	-0.379652619362
-0.0535790920258	1.24032139778	-0.22846186161	-0.142544984818	1.51215445995	-0.378882169724
-0.0524322986603	1.24084246159	-0.227784991264	-0.142769575119	1.51205921173	-0.378494143486
-0.0512275695801	1.24114859104	-0.226842403412	-0.142916440964	1.51257061958	-0.378861069679
-0.0477428436279	1.2400970459	-0.227298140526	-0.143200874329	1.51377463341	-0.380100727081
-0.0457353591919	1.23785221577	-0.229034900665	-0.143895626068	1.5151014328	-0.381964087486
-0.0438091754913	1.23847031593	-0.226983785629	-0.14448428154	1.51572751999	-0.383985042572
-0.0441370010376	1.23983168602	-0.226940393448	-0.144763708115	1.5160048008	-0.386261105537
-0.0452063083649	1.24020445347	-0.227002024651	-0.145526885986	1.51553499699	-0.38845038414
-0.0466680526733	1.24006462097	-0.227846741676	-0.146560668945	1.51573979855	-0.390973329544
-0.0474290847778	1.24073719978	-0.230258703232	-0.147747993469	1.51594555378	-0.393437385559
-0.0522112846375	1.23236644268	-0.235345602036	-0.14830493927	1.51524364948	-0.394913077354
-0.0519754886627	1.23560798168	-0.235881090164	-0.148278713226	1.51317548752	-0.393939256668
-0.0531244277954	1.23115158081	-0.237717151642	-0.147858858109	1.50890898705	-0.389840364456
-0.0521466732025	1.22730576992	-0.238895654678	-0.147414445877	1.5035879612	-0.384552955627
-0.0469975471497	1.22336184978	-0.237811326981	-0.147983551025	1.49806690216	-0.380123138428
-0.0452690124512	1.21636283398	-0.234259486198	-0.148781299591	1.49398779869	-0.378188371658
-0.0445897579193	1.21403670311	-0.231296181679	-0.149497032166	1.4946013689	-0.378692269325
-0.0438556671143	1.21628630161	-0.229440927505	-0.149018764496	1.49558377266	-0.378663301468
-0.0442540645599	1.21897006035	-0.226423382759	-0.145895242691	1.49763476849	-0.377998709679
-0.0421109199524	1.22053945065	-0.222863674164	-0.141572237015	1.49952816963	-0.37646651268
-0.0389769077301	1.22011637688	-0.220177054405	-0.136997461319	1.49994444847	-0.37394785881
-0.0355265140533	1.21873569489	-0.217340946198	-0.131813049316	1.50017523766	-0.371389746666
-0.0321023464203	1.21833372116	-0.215272188187	-0.126479148865	1.50114953518	-0.369516968727
-0.0297734737396	1.21878838539	-0.21280837059	-0.121871232986	1.50244390965	-0.367535352707
-0.0268507003784	1.2186037302	-0.210629463196	-0.11812376976	1.5029758215	-0.366141557693
-0.0251867771149	1.21803450584	-0.208717823029	-0.115430355072	1.5033608675	-0.365791797638
-0.0241560935974	1.21748530865	-0.207957267761	-0.113868951797	1.49943733215	-0.366554737091
-0.0236077308655	1.21908259392	-0.209336996078	-0.112653017044	1.48841500282	-0.367280602455
-0.0232744216919	1.22198832035	-0.213381409645	-0.112149238586	1.4860612154	-0.366905450821
-0.0217001438141	1.22152233124	-0.213289141655	-0.112855195999	1.48964059353	-0.369220495224
-0.0218539237976	1.21972632408	-0.212437868118	-0.114150524139	1.48973917961	-0.37164068222
-0.0229659080505	1.21985709667	-0.214556932449	-0.116609573364	1.48815107346	-0.373471498489
-0.023078918457	1.21864581108	-0.21451818943	-0.11958360672	1.48647332191	-0.375418186188
-0.0239980220795	1.21813356876	-0.215286254883	-0.12259888649	1.48107349873	-0.377498626709
-0.0258364677429	1.21713340282	-0.215327739716	-0.124369621277	1.48152828217	-0.379336953163
-0.025577545166	1.21761965752	-0.214123725891	-0.12491941452	1.48723185062	-0.381596922874
-0.0244455337524	1.21894538403	-0.214010238647	-0.125320911407	1.49232745171	-0.383564710617
-0.0237383842468	1.22101259232	-0.215994119644	-0.124618053436	1.49422180653	-0.384408473969
-0.0225758552551	1.22106182575	-0.215546131134	-0.124229192734	1.49449336529	-0.384047985077
-0.0222294330597	1.22037434578	-0.213864326477	-0.124306201935	1.49466884136	-0.383086204529
-0.0223460197449	1.21888184547	-0.21183514595	-0.124636888504	1.49485719204	-0.38183426857
-0.0230889320374	1.21693837643	-0.208989858627	-0.125190496445	1.49607026577	-0.380712509155
-0.0237414836884	1.21607875824	-0.207151651382	-0.126212596893	1.49970316887	-0.380077004433
-0.0225479602814	1.21687424183	-0.204488158226	-0.12682890892	1.50544834137	-0.380649447441
-0.0163447856903	1.22435605526	-0.201651096344	-0.12589263916	1.51002109051	-0.380233764648
0.00575017929077	1.23769366741	-0.191784381866	-0.123794317245	1.51231658459	-0.378221988678
0.0195631980896	1.2393296957	-0.175915241241	-0.122640132904	1.51372087002	-0.375084042549
0.0147144794464	1.23591411114	-0.174436330795	-0.121708869934	1.5135781765	-0.371290683746
0.0109214782715	1.23223352432	-0.176115989685	-0.121044158936	1.51197528839	-0.367747783661
0.00816631317139	1.22958266735	-0.177152395248	-0.120479822159	1.50972938538	-0.365600705147
0.00730919837952	1.22874069214	-0.178323745728	-0.12024474144	1.50788605213	-0.365118145943
0.0069317817688	1.22918093204	-0.179955005646	-0.121223449707	1.50775194168	-0.366319656372
0.00468897819519	1.22916197777	-0.181223750114	-0.123656749725	1.50837230682	-0.368900060654
0.00239753723145	1.22944235802	-0.184344649315	-0.126398086548	1.50969266891	-0.372491836548
-0.0034646987915	1.23066842556	-0.192068099976	-0.128905057907	1.51051545143	-0.376804232597
