0.0	-0.0	130.11958313	-119.15171051	88.3662567139	172.189086914
0.0	-0.0	130.018447876	-119.465393066	87.8544998169	172.600341797
0.0	-0.0	130.100585938	-120.1873703	86.9224014282	173.270507812
0.0	-0.0	127.90272522	-121.617446899	84.6227416992	174.795303345
0.0	-0.0	119.739608765	-125.310585022	78.7991485596	178.791870117
0.0	-0.0	112.20035553	-131.575653076	74.0822067261	-175.971496582
0.0	-0.0	92.8935852051	-135.652328491	78.8767929077	-172.421966553
0.0	-0.0	66.4616622925	-135.063964844	88.1650085449	-170.989852905
0.0	-0.0	54.2252006531	47.4234771729	83.3789978027	8.97393608093
0.0	-0.0	51.8592224121	48.3543357849	75.3238296509	8.24581336975
0.0	-0.0	55.1034851074	49.4751319885	68.168838501	6.84639978409
0.0	-0.0	56.1635704041	52.8217430115	63.7838439941	4.23160982132
0.0	-0.0	59.1902084351	56.6429901123	61.0611953735	1.47010910511
0.0	-0.0	64.0471038818	59.2931785583	54.8958358765	-1.49249780178
0.0	-0.0	69.3886260986	60.7139434814	49.3380966187	-2.95438504219
0.0	-0.0	72.2804794312	61.2237281799	48.3045310974	-3.15905928612
0.0	-0.0	85.1129302979	62.7628898621	50.0154266357	-3.38812351227
0.0	-0.0	120.920654297	64.0414276123	51.6643943787	-3.53450036049
0.0	-0.0	99.5343399048	64.3443832397	54.2131462097	-3.13894987106
0.0	-0.0	60.5317268372	64.950592041	56.6092529297	-2.71399474144
0.0	-0.0	37.7628974915	65.2489395142	56.3453140259	-3.27108168602
0.0	-0.0	40.7390594482	64.5152206421	53.0281715393	-4.10428094864
0.0	-0.0	52.9883537292	63.3695487976	47.6618385315	-5.14660024643
0.0	-0.0	60.6175804138	63.05884552	43.3359985352	-6.75987958908
0.0	-0.0	65.9513244629	65.4788284302	39.3883361816	-9.47807693481
0.0	-0.0	68.6288757324	67.6438293457	37.5733184814	-11.3012008667
0.0	-0.0	72.1721191406	68.6598587036	37.0792961121	-12.3497247696
0.0	-0.0	77.1573181152	68.9604263306	36.9782943726	-12.7304334641
0.0	-0.0	80.2171630859	69.7339553833	35.9924125671	-13.3792057037
0.0	-0.0	83.6885299683	69.8994140625	36.000453949	-13.8839712143
0.0	-0.0	89.939491272	69.8502426147	37.6414871216	-13.6388082504
0.0	-0.0	85.3807144165	69.5030059814	40.741027832	-12.5051441193
0.0	-0.0	65.1064224243	68.8991165161	42.609828949	-11.541510582
0.0	-0.0	51.3772392273	68.0842819214	42.8043212891	-10.9674892426
0.0	-0.0	47.1850357056	66.7743759155	41.9690055847	-10.5991172791
0.0	-0.0	50.7241439819	65.4886627197	41.0250816345	-10.3859834671
0.0	-0.0	53.2525367737	64.158531189	39.3272171021	-10.5504322052
0.0	-0.0	55.3678016663	64.0523757935	36.8859100342	-11.5129966736
