-28.9137248993	-74.1708374023	131.368286133	7.95113325119	1.34399986267	0.499061048031
-27.9015445709	-74.0746994019	130.190414429	8.06441497803	1.31253457069	0.446023225784
-27.2944850922	-73.7090835571	129.083877563	7.90739202499	1.21836221218	0.499239176512
-26.178232193	-73.4887008667	126.420074463	7.83109426498	1.37469279766	0.654952704906
-15.2769794464	-70.5646286011	108.673614502	8.35320472717	2.6142771244	0.715923428535
-3.10108947754	-54.3495063782	75.7718353271	9.15730762482	4.56721162796	0.771158993244
5.40775871277	-39.4075508118	54.1004333496	9.59477138519	6.09517669678	0.827313840389
7.23799037933	-30.5710754395	46.1373252869	9.69905948639	7.42786598206	1.02666771412
7.15591239929	-26.6029243469	41.3190727234	9.90788841248	9.02330112457	1.20324420929
5.00469446182	-23.5943069458	37.6123847961	10.2516002655	10.7418689728	1.27293121815
2.83477401733	-18.8016433716	30.9240436554	10.6057252884	12.2759342194	1.14916718006
1.12109923363	-16.0405349731	27.0172176361	10.8347673416	13.3061208725	1.05475211143
-0.405061006546	-16.4481868744	28.4693584442	10.8532733917	13.8652200699	0.886656403542
-0.964080691338	-16.4225444794	27.7044353485	10.8447055817	14.3356275558	0.845184147358
-1.13897359371	-16.5229701996	27.6018371582	10.8290729523	14.8516368866	0.815394937992
-1.63801157475	-16.6331748962	28.0518436432	10.6926860809	15.494181633	0.847708582878
-1.94005334377	-16.5217838287	28.5053863525	10.3840150833	15.8371686935	1.10818457603
-2.41335868835	-16.6657562256	29.3613586426	10.1067533493	15.9460735321	1.46646821499
-2.52460479736	-16.9577732086	30.2340755463	9.90587234497	15.8972215652	1.7388740778
-2.19559860229	-18.9438400269	33.8671722412	9.73425769806	15.8455791473	1.92434036732
-1.81099927425	-26.1638278961	47.3342247009	9.55767536163	15.7655210495	1.91214776039
-3.03481078148	-30.0674438477	53.5509300232	9.55375671387	16.0643806458	1.72532427311
-3.20641374588	-30.04545784	52.1838607788	9.99519252777	17.1054382324	1.29814279079
-1.50031733513	-27.0250740051	42.7064743042	10.9537448883	18.4154376984	0.499636501074
-0.577009320259	-26.1552562714	37.0219345093	11.9866485596	19.0386943817	0.066209577024
-0.286143064499	-30.0131092072	40.9326515198	12.5655899048	18.7540130615	0.0827634930611
-0.485942870378	-32.1760902405	41.5252914429	12.7829389572	18.5452384949	-0.0491480715573
-1.71704733372	-33.6260108948	41.3533096313	13.0580806732	18.7817573547	-0.269105404615
-2.49756240845	-32.9801902771	34.6358718872	13.2350168228	19.0687332153	-0.49718028307
-3.62065339088	-31.3035049438	27.0217685699	13.3669271469	18.9169559479	-0.858606219292
-6.0899682045	-31.9210186005	24.9468727112	13.6026859283	18.7363929749	-1.31856393814
-6.41526794434	-33.0425949097	25.0448436737	13.7736711502	19.0352706909	-1.57764852047
-5.95111370087	-33.5201301575	25.2601394653	13.7024793625	19.303730011	-1.78503906727
-5.55159378052	-34.7787704468	27.6620063782	13.5654096603	19.2319164276	-1.97145271301
-5.16267156601	-37.2458229065	30.0698375702	13.4901285172	18.423620224	-2.07087683678
-4.9152264595	-41.8354682922	29.538318634	13.5068569183	17.5290584564	-2.04625153542
-10.6587648392	-48.2985038757	35.391582489	13.7102909088	17.4113254547	-1.76176762581
-11.7080783844	-49.24974823	36.284286499	13.8491897583	17.6386585236	-1.21271753311
-10.7767896652	-48.7684020996	35.9027442932	13.7970743179	17.4149112701	-0.483837902546
-11.254076004	-49.5222892761	37.2122459412	13.7166061401	16.4719524384	0.29688975215
-12.0896186829	-49.5130996704	38.0753746033	13.6839752197	15.5951919556	1.36928868294
-12.572810173	-48.3009338379	40.1722412109	13.234664917	15.043586731	2.45759797096
-11.8576221466	-45.5325164795	40.7707443237	12.5500431061	14.8361024857	3.29914927483
-10.9604921341	-43.3420715332	40.5284576416	11.6858310699	15.2679128647	3.7755382061
-10.0792284012	-42.8324508667	40.6891670227	11.5654420853	13.1245937347	3.6629421711
-9.71895980835	-42.1148109436	40.3517723083	11.6617431641	10.4048538208	3.63048386574
-9.55360889435	-41.8195381165	40.4726753235	11.9863166809	7.10893106461	3.56763362885
-9.07659435272	-41.1539916992	40.3953132629	12.3258533478	5.0567612648	3.76897549629
-8.7015619278	-40.7942733765	39.6570205688	12.541686058	5.68900346756	3.97326636314
-8.86603546143	-40.3277626038	38.8967285156	13.1611061096	8.92579364777	4.32797050476
-8.92599391937	-39.1271476746	37.2812805176	13.3813991547	10.3870697021	4.29181957245
-9.28253173828	-38.252204895	36.502155304	13.2875375748	11.7203712463	4.15138959885
-9.8120803833	-37.7380180359	36.0305366516	12.8755922318	12.2866373062	3.89452171326
-10.3633403778	-36.428062439	34.9601097107	12.2099657059	11.4499073029	3.70696902275
-10.7671051025	-33.8924942017	32.6406097412	11.575138092	11.893415451	3.81514668465
-10.8256387711	-33.0021781921	32.882938385	11.1172914505	12.9602556229	4.20794296265
-9.52817153931	-30.9269351959	30.1744976044	11.033498764	13.9487457275	4.56961536407
-8.02243614197	-25.983083725	23.4099159241	11.3304071426	15.2267847061	4.75733852386
-7.90253448486	-22.5175762177	20.4552555084	11.8428421021	16.2080688477	4.95628356934
-8.03779029846	-22.9175281525	20.7766437531	11.8692617416	16.6432056427	5.14629173279
-8.03804206848	-23.4924869537	21.6336708069	11.6221027374	16.5019550323	5.04799365997
-8.33612155914	-23.6159877777	21.6655464172	11.3134355545	16.1942005157	5.01739645004
-9.10064792633	-24.1879405975	21.8350715637	11.0855674744	15.7327756882	4.89382505417
-9.61110401154	-23.8118896484	21.5530357361	11.0250797272	15.3739709854	4.7265958786
-10.2509174347	-23.1109104156	21.0384654999	10.9798612595	15.4804439545	4.55050897598
-10.2444267273	-23.0221481323	20.9702186584	10.7490730286	16.915058136	4.56469345093
-10.0570907593	-23.790184021	22.2479743958	10.4340105057	19.7009315491	4.82898378372
-9.9690284729	-24.78814888	23.2549476624	9.91535758972	21.0121078491	4.81496429443
-9.79997825623	-25.5881958008	24.3884468079	9.98627662659	20.662405014	4.71788215637
-10.034992218	-26.5960235596	25.8566303253	10.535733223	19.7586574554	4.51102399826
-9.74080657959	-27.442325592	26.8344020844	11.1231956482	18.2905158997	4.16980600357
-9.38070583344	-27.6992225647	27.1227359772	11.7252931595	17.0589313507	3.74642658234
-8.96358966827	-27.7063465118	26.8730449677	12.5082111359	16.3843688965	3.32762169838
-8.44515609741	-27.4902172089	26.6265144348	13.2100629807	16.3905715942	2.82615017891
-8.15592193604	-27.3221416473	26.4836063385	13.6321811676	16.1068611145	2.01160979271
-7.82899999619	-27.0815830231	26.4059848785	14.3099393845	15.1362457275	0.780466198921
-7.50635099411	-27.0634555817	26.1671924591	15.0439252853	14.448507309	-0.579826891422
-6.92659235001	-27.1028862	26.0059909821	15.6086301804	12.9370298386	-1.59692704678
-6.41228103638	-26.8096046448	25.8623027802	15.8624038696	11.2407159805	-2.21282744408
-6.40696048737	-26.8323326111	25.9018974304	15.2831420898	9.9772901535	-2.73270893097
-6.59611654282	-26.6707687378	26.191696167	14.340628624	8.70915317535	-3.4110827446
-7.32926511765	-26.6373920441	26.8542118073	13.6568412781	7.32533407211	-3.92213320732
-8.19886207581	-28.1829910278	31.6096382141	13.5579919815	7.24834775925	-3.7697763443
-10.3416042328	-28.0286884308	37.2792930603	13.7014570236	8.28147506714	-3.44369292259
-11.8935747147	-22.9676456451	31.2881755829	13.7438373566	9.1832857132	-3.22008037567
-14.9601793289	-16.6890830994	17.5092220306	13.628203392	9.79493236542	-2.9213373661
-18.2300395966	-13.3354768753	7.54641008377	13.3611049652	10.0383672714	-2.80995726585
-20.301990509	-10.2039108276	-2.54718947411	13.2584133148	10.4627485275	-2.80304837227
-18.9526195526	-6.39783763885	-8.06329727173	13.109711647	11.2620134354	-2.68661999702
-18.7379817963	-6.24398756027	-7.04856300354	12.9133253098	11.3764381409	-2.65319561958
-19.5142154694	-9.86187934875	4.39594745636	12.8358240128	11.2722578049	-2.62788581848
-25.2205543518	-18.5263252258	38.4147758484	12.7493486404	11.2161083221	-2.64624762535
-30.5731735229	-18.3988456726	50.6699943542	12.8040390015	11.5913238525	-2.59616541862
-32.7962303162	-17.3463039398	52.1680793762	12.8681716919	11.9165706635	-2.54921412468
-33.4269104004	-16.6476268768	52.2323417664	12.8780479431	12.0959615707	-2.4879963398
-33.32188797	-16.6527938843	51.818195343	12.5219526291	11.910159111	-2.17923951149
-33.0344200134	-16.9766731262	50.8033485413	11.3752288818	11.5787572861	-1.55553543568
-33.0381698608	-17.0264434814	50.2194213867	9.25991916656	11.1615562439	-0.707981586456
-32.8604125977	-16.9975662231	50.3133049011	8.02397346497	10.9294290543	0.208733543754
-32.8659248352	-16.9742298126	50.6027107239	7.53950786591	10.9642076492	0.96884226799
-33.4721908569	-17.0618839264	50.8280410767	7.83142375946	11.0728549957	1.12749218941
-33.3144111633	-17.164232254	50.8933868408	8.77560329437	11.7002983093	0.92012912035
-33.8421630859	-17.0110263824	49.1377258301	9.79267883301	12.4558343887	0.696756362915
-33.7168922424	-16.4020633698	28.6129837036	10.1799707413	13.3007678986	0.424805015326
-33.5963630676	-16.871931076	16.8980979919	9.8794631958	13.9560184479	0.259706556797
-32.2925033569	-16.7858448029	13.4267549515	9.0129327774	13.9626941681	0.224416136742
-31.3484916687	-16.1874065399	18.4008579254	8.71022224426	13.7818546295	0.527397692204
-32.5520133972	-15.956949234	18.4260597229	8.04686832428	13.7724332809	0.89470744133
-33.7879714966	-16.9171981812	20.4132404327	7.34227132797	13.8322229385	1.17612099648
-34.4518470764	-17.4384498596	20.4117679596	6.84392929077	13.6377668381	1.07439243793
-34.4186897278	-17.7905101776	20.4582462311	6.24181556702	13.0316810608	0.455926448107
-33.6225013733	-17.8154144287	21.8537063599	6.19462394714	12.5456609726	-0.431082934141
-32.9877586365	-17.7067508698	21.0503730774	7.3933672905	12.4864854813	-1.79901635647
-31.9283008575	-17.942440033	20.860200882	9.50374221802	12.9342212677	-3.81436491013
-31.3221740723	-18.6987495422	17.8991203308	11.6397361755	13.1276378632	-5.57411336899
-31.5732421875	-19.3588867188	12.9197425842	13.0743150711	13.3987026215	-6.8059463501
-31.2138366699	-19.1340579987	2.51428508759	14.1837415695	13.3271093369	-6.97557926178
-29.9332332611	-19.0068702698	-2.49902009964	14.7387294769	13.0967845917	-6.35452365875
-26.946723938	-18.3722896576	6.19307231903	14.4519720078	13.3946990967	-5.41126537323
-27.4497241974	-19.909822464	26.0283241272	13.8228197098	14.0040235519	-4.49086380005
-29.357427597	-18.96641922	34.1153297424	13.2323169708	14.5315856934	-3.75936794281
-29.5248432159	-18.1070690155	34.1984634399	12.773806572	15.3234033585	-3.2266740799
-30.2795639038	-18.2514972687	31.7472476959	12.4674625397	16.4429149628	-2.71075296402
-31.4854240417	-18.6187610626	30.677904129	12.151011467	17.1262226105	-2.21670818329
-32.0228462219	-18.9372158051	29.6104469299	11.6646738052	17.138628006	-1.66980421543
-32.043674469	-18.7623767853	28.512348175	11.1920461655	15.8339529037	-0.790405154228
-32.4885063171	-18.6112880707	28.5698261261	10.6532659531	13.619102478	0.41621157527
-33.2384529114	-18.3578224182	28.8716506958	10.0974760056	11.1937007904	1.8375377655
-33.2976722717	-17.8600902557	29.6302471161	9.54217433929	8.75167179108	3.55420279503
-34.2617797852	-18.0181236267	30.8753433228	9.08166790009	6.65932512283	5.37394523621
-34.7329559326	-18.4376506805	32.1875572205	9.02216815948	5.91362094879	6.87545585632
-35.1593360901	-18.5491294861	32.1529159546	9.63763618469	7.72767591476	7.41867494583
-35.4493255615	-18.5539894104	26.1607112885	10.4869213104	10.0419406891	7.61571073532
-34.8551635742	-18.3628749847	21.9774360657	11.0260601044	11.9194478989	7.91920757294
-34.8101615906	-18.1741733551	22.3784599304	10.9471311569	12.3788757324	8.13013267517
-34.2710113525	-18.1057777405	22.0402450562	10.6351280212	12.3355636597	8.11469078064
-34.150806427	-18.1286830902	21.7610492706	10.6442661285	13.0727300644	8.05071735382
-34.9177131653	-18.3252449036	17.8091888428	10.731552124	13.6777114868	7.89281749725
-34.6428375244	-18.6313781738	8.9306344986	10.8626613617	14.0658636093	7.46761846542
-32.2998313904	-18.2245311737	3.44315814972	11.244310379	14.3417711258	7.27725887299
-31.0134983063	-16.9551143646	2.74239587784	11.1591701508	14.4635868073	7.28112506866
-30.9337692261	-15.8927316666	2.05094242096	11.0078372955	14.856338501	7.51084661484
-31.0947532654	-16.0114116669	3.15650057793	10.8681173325	15.5313835144	7.85374259949
-30.966053009	-15.835146904	3.99626922607	10.8101415634	16.3107509613	8.25034236908
-30.8616428375	-15.5999622345	4.15618038177	10.7806053162	16.404176712	8.56307029724
-30.734752655	-16.0429039001	7.29540109634	10.9646511078	16.1062164307	8.79286384583
-30.5027065277	-18.1336479187	13.0576076508	11.0896921158	15.5682811737	8.73094081879
-28.6801738739	-22.382806778	19.7380428314	11.0675630569	14.7983903885	8.65090751648
-26.5509529114	-22.684513092	18.4059028625	11.0779180527	14.6869649887	8.50738716125
-26.2463283539	-18.4739322662	13.3434247971	11.3317670822	15.3195180893	8.39803409576
-26.8714618683	-15.4087705612	4.02552270889	11.5115804672	16.0259113312	8.38583278656
-27.3590602875	-13.9319648743	-2.91622066498	11.2784643173	16.3971576691	8.35129165649
-27.2721214294	-12.945649147	-6.20103168488	11.1890640259	16.7534160614	8.3732252121
-27.5183467865	-12.4686832428	-8.79030609131	11.1595716476	17.017868042	8.399477005
-28.2478599548	-12.5184841156	-10.7290449142	11.0742378235	17.2658367157	8.34942913055
-28.896944046	-12.826716423	-12.2830581665	11.137969017	17.3960800171	8.23445987701
-29.0949440002	-12.4893026352	-13.5398960114	11.2245149612	17.6735954285	8.12804698944
-29.3006191254	-12.3805618286	-14.1391010284	11.3189239502	17.9527931213	7.99841403961
-29.5679473877	-12.4724254608	-15.341750145	11.4417676926	18.1223545074	7.86151599884
-29.3899345398	-13.0493440628	-16.158033371	11.6454277039	18.1933879852	7.5511264801
-28.9147071838	-14.1002054214	-16.3159198761	12.0275907516	17.8725662231	6.95191764832
-27.4277114868	-16.8098430634	-6.13339614868	12.4044551849	17.5100212097	6.48422765732
-26.4457511902	-19.3338737488	4.86628103256	12.524605751	17.5370082855	5.96720647812
-28.4417591095	-19.2508773804	6.24035644531	12.5265703201	17.4329013824	5.81243181229
-29.452747345	-19.9137096405	9.1936006546	12.4211902618	17.2526569366	6.13170099258
-29.6248035431	-20.2664165497	8.44572353363	12.4734296799	16.3652801514	6.46479225159
-28.8745574951	-20.0490036011	7.89292860031	12.641623497	15.3400201797	6.49858379364
-28.5923099518	-19.4854621887	5.80331897736	12.987701416	14.7235507965	6.25680685043
-28.8459339142	-19.4942951202	5.37489271164	13.1883792877	13.9742803574	5.7708439827
-28.7996711731	-19.306180954	4.90913772583	13.4350070953	12.4590387344	4.71637392044
-29.096786499	-19.4906196594	3.82320141792	14.018576622	10.4232854843	3.1862757206
-29.1283397675	-19.0453186035	3.0359108448	14.9355201721	9.0524892807	1.68105351925
-28.6437225342	-18.3809680939	2.27857446671	15.8732976913	9.2124414444	0.842503964901
-28.5269298553	-18.4710826874	2.85456490517	16.627986908	9.97250461578	0.737253427505
-28.6668586731	-18.1277732849	2.84894728661	17.0390090942	10.2085857391	0.549874484539
-28.5221633911	-17.6033973694	3.87784910202	17.2046489716	10.5583286285	0.129213005304
-28.9773960114	-17.5149841309	5.33298492432	17.3679790497	10.7189264297	-0.10130482167
-29.1181850433	-18.3565196991	10.2907896042	17.5627155304	10.4736461639	0.310244143009
-26.2627773285	-26.454914093	21.3549957275	17.4979934692	9.74717617035	0.705758273602
-26.5724334717	-26.2065467834	20.281671524	16.920124054	8.68621253967	1.51610577106
-27.4944629669	-25.1821098328	21.8077468872	14.787815094	7.11101436615	3.22574734688
-27.5085487366	-24.1445846558	21.3163871765	12.6808366776	6.16337108612	5.89552879333
-28.2300491333	-23.9397850037	21.6775093079	11.9629802704	6.92878437042	9.04498958588
-28.9735279083	-23.486574173	22.1133918762	11.7760896683	8.39039993286	10.6805953979
-29.6631755829	-23.2622756958	22.1754951477	11.7650156021	9.86708068848	10.8747901917
-30.4399032593	-23.3544330597	21.6342964172	12.4519891739	11.4167642593	10.687046051
-31.2780799866	-23.0243530273	18.3871517181	13.5824918747	12.7685956955	10.6453342438
-31.4513015747	-22.4959602356	14.7383174896	15.8782567978	13.8041286469	11.4688520432
-30.6040000916	-21.0673103333	10.2349767685	16.4042015076	14.2971048355	11.6125717163
-29.5070858002	-19.6918125153	6.46975469589	15.5134859085	15.151061058	11.4151067734
-28.593629837	-18.985666275	4.4295129776	14.5326299667	15.8249340057	11.3444890976
-28.5049209595	-19.0321846008	4.40967321396	13.8966989517	16.3023681641	11.3232822418
-28.7696990967	-19.1653213501	4.3346657753	13.6482276917	16.5435333252	11.2826900482
-29.047876358	-19.434961319	4.25285196304	13.6017370224	16.8911380768	11.2431240082
-29.7768802643	-19.5415706635	4.18811321259	13.6728534698	17.7148227692	11.3316488266
-30.2635173798	-19.6598434448	3.77083778381	13.5724782944	18.4848575592	11.3854227066
-29.7704658508	-20.0069923401	3.8692252636	13.4152908325	18.9115066528	11.3659572601
-29.14894104	-20.1301269531	5.06917762756	13.3996591568	19.1903438568	11.3732690811
-28.9186058044	-19.8118610382	4.92861318588	13.4943494797	19.2424850464	11.2643785477
-28.8494625092	-20.1145629883	4.78310251236	13.4850587845	19.1682128906	11.0603494644
-28.8136749268	-20.6549339294	4.84557771683	13.4954538345	18.8357105255	10.7841110229
-28.5695896149	-20.9540920258	4.65773487091	13.76101017	18.4661903381	10.5770425797
-28.4052829742	-21.0892868042	4.35074090958	14.3035898209	18.250629425	10.3632154465
-28.2527675629	-21.2378845215	4.18680143356	15.1207094193	18.2427024841	10.3234214783
-27.1370582581	-22.2662277222	9.02989959717	15.5164337158	18.4303188324	10.127623558
-27.3179111481	-24.4390678406	24.124130249	15.2471017838	18.4729270935	9.77884292603
-28.1582164764	-23.2643642426	22.3339519501	15.1333637238	18.6393432617	9.69217586517
-27.9649810791	-23.2593708038	20.4243812561	15.1691761017	19.1569709778	9.65986824036
-28.8807411194	-22.4949760437	16.0068950653	15.4550685883	19.6662216187	9.81397342682
-28.4245071411	-23.5964221954	14.9762458801	15.460609436	19.8997364044	9.99538040161
-26.1283588409	-26.3381481171	23.0822620392	15.4898910522	19.9937915802	10.1900615692
-25.9056739807	-25.8939971924	19.4818000793	15.4691133499	20.2273387909	10.2580385208
-26.7972431183	-26.2677230835	15.6643409729	15.2992782593	20.4711017609	10.2224979401
-27.781703949	-25.930355072	8.99496459961	15.1166639328	20.7642707825	10.1154222488
-27.0217647552	-27.631690979	15.5403118134	14.9997768402	21.0019550323	10.7642993927
-25.9824085236	-30.1165409088	18.5535678864	14.9067564011	21.626914978	11.2010526657
-25.0148200989	-32.7929840088	24.8330726624	14.9391002655	21.5923976898	11.3113613129
-22.5695819855	-37.0426940918	40.9520187378	15.0972309113	21.6349391937	11.172246933
-20.5946311951	-36.6215667725	55.4041023254	15.6703386307	22.1640911102	10.8521699905
-13.9904661179	-27.4187602997	45.4574699402	16.249622345	22.3546829224	10.3423690796
-8.93187522888	-9.67501068115	14.4947214127	16.5090122223	22.3111495972	9.73570632935
-4.65578746796	6.00211906433	-8.45767402649	16.6773166656	22.5556755066	9.30897045135
5.4865398407	10.7468242645	-8.12395858765	16.7743873596	22.6765499115	9.14519405365
6.42752838135	8.99680995941	-9.59541606903	16.6504096985	22.5127334595	8.97077083588
6.53911161423	2.65293049812	-6.16281414032	16.4919643402	22.2293949127	8.71336364746
5.77879190445	-7.43554210663	1.50164699554	16.391620636	21.3450565338	8.2663640976
5.0292840004	-12.1019477844	3.84728837013	16.4447479248	20.1836452484	7.6676568985
4.38706207275	-15.9213266373	6.20342302322	16.6745872498	18.7451972961	7.26766967773
3.20595836639	-15.2614192963	5.40964698792	16.7020397186	17.7429790497	7.09605073929
1.11510050297	-14.8387880325	5.80992794037	16.6659412384	17.2729568481	7.58224201202
-0.0359545126557	-14.7304315567	7.29805135727	16.6266727448	16.7716159821	8.47317695618
-0.911803007126	-15.5915632248	8.57067203522	16.8748207092	15.3162498474	9.50131607056
-1.63721811771	-16.8406448364	9.93931674957	16.8603610992	13.7893161774	10.8003606796
-3.90274763107	-17.8986988068	11.1056642532	16.4860744476	12.3495006561	12.3085155487
-5.86072063446	-18.3264865875	11.6316547394	15.9485092163	11.7925348282	13.7084674835
-6.94885778427	-19.4507923126	13.0648040771	15.2990274429	11.8679380417	14.5895004272
-7.84766864777	-22.176815033	17.6375770569	14.9986314774	11.910943985	14.7100343704
-8.80856323242	-27.0622386932	29.4315395355	15.2517585754	12.2645902634	14.4238672256
-11.0883741379	-26.5693721771	35.3060417175	15.5633001328	12.6580104828	13.8998565674
-16.5260486603	-20.1976222992	24.195224762	15.6291294098	12.8113451004	13.5957269669
-19.2153053284	-18.5149250031	19.9000053406	15.3240652084	12.3131666183	13.4750146866
-16.4972381592	-14.3631124496	9.42917633057	14.9908704758	11.2797317505	13.5410108566
-11.7445430756	-13.3482847214	8.46163272858	14.5142431259	10.3073186874	13.6982727051
-5.2124171257	-7.06390714645	1.37303566933	14.1787128448	9.63550376892	13.9336366653
0.0803707838058	5.87390947342	-7.24806928635	14.0457439423	8.92566490173	14.5264120102
0.0878832414746	19.8703765869	-16.0259418488	13.9288673401	8.77408027649	15.0682907104
-2.13631415367	22.6716499329	-18.2604064941	13.8050765991	8.4384355545	15.7480831146
-2.01459336281	21.7681732178	-16.7096672058	13.7110881805	8.28326511383	16.4912662506
0.628197669983	12.9760723114	-6.10217809677	13.4162111282	8.26790237427	16.6226043701
2.80347084999	-2.01947855949	13.5543909073	13.032544136	8.11228752136	16.470615387
0.296094179153	-13.1856365204	33.1070480347	12.6680107117	7.40797233582	16.0421276093
-5.59004402161	-19.5098419189	52.9760742188	12.2377471924	6.03545951843	15.1183977127
-12.4742107391	-23.8271427155	69.4602355957	11.9191789627	4.48770856857	13.5003671646
-14.4671926498	-25.0787181854	73.4410400391	11.4653816223	3.17500329018	11.4678649902
-17.1378993988	-27.7201194763	80.25025177	11.6413908005	1.60639822483	9.32596874237
-21.4722423553	-28.9545383453	86.4504852295	12.3287248611	-0.128743395209	7.15767621994
-17.4427547455	-29.0553798676	73.839553833	13.0708055496	-0.869056105614	6.30635309219
-11.7278203964	-29.1575984955	57.8365440369	13.6752300262	-1.2153185606	6.30522632599
-9.53263664246	-32.5926628113	54.7955665588	14.2444620132	-1.22790646553	6.38235855103
-7.16367769241	-34.9014205933	50.3107757568	15.1149635315	-0.362993955612	6.55043268204
-4.86248445511	-33.6832542419	44.3408699036	16.008972168	1.06720781326	6.88227510452
-5.175532341	-27.0344810486	36.9933280945	16.8308391571	2.9638979435	7.20213508606
-8.29421806335	-17.0948829651	25.426202774	17.2376174927	4.33239126205	7.51429271698
-13.2296571732	-14.065205574	21.383518219	17.0998954773	5.20222806931	7.68705272675
-17.8876895905	-14.860376358	25.4390716553	16.8560562134	6.11881875992	8.08688735962
-18.9588489532	-14.6032180786	22.2236480713	16.6189346313	6.52654314041	8.50143718719
-18.1089363098	-15.5079984665	28.2084293365	16.5095252991	6.85264110565	8.49457931519
-16.1307353973	-14.7806873322	27.1137828827	16.6538047791	8.00782585144	8.22586345673
-11.6842517853	-9.97635364532	16.0357227325	17.1170387268	9.23703289032	7.93027973175
-9.60716915131	-9.83364772797	14.6517238617	17.6143112183	9.31715869904	7.97946977615
-9.79466438293	-9.28004169464	12.200958252	18.1315193176	9.78068637848	8.07859706879
-9.20250511169	-9.11072731018	10.4568309784	18.731048584	10.5187358856	8.26249694824
-8.33592700958	-8.67548179626	8.48680591583	19.0603981018	11.0001726151	8.34385967255
-9.39064025879	-8.84714603424	6.87043857574	19.1362495422	11.499089241	8.35769176483
-9.9794960022	-9.85024356842	8.77281665802	19.1381587982	12.0231351852	8.5471162796
-9.96131038666	-9.54289531708	9.01607513428	18.9377326965	13.4229860306	8.7036113739
-9.20040607452	-9.70356369019	10.0629777908	18.4461956024	16.8159809113	9.07044506073
-9.0713300705	-10.3343067169	10.2731428146	17.7864360809	19.9190635681	9.47578239441
-8.81899452209	-10.4617996216	11.250377655	17.2507190704	21.0805702209	9.76061058044
-8.76160526276	-10.2052097321	11.0162296295	17.1380958557	20.6249084473	9.93066501617
-8.97266769409	-10.4115047455	11.0431861877	17.0638332367	20.4070835114	9.82378673553
-9.18879508972	-10.5784692764	10.6993169785	16.8990249634	20.4457302094	9.64302539825
-9.24024868011	-10.4406833649	10.7332878113	15.214630127	20.2903766632	9.15693473816
-9.42780590057	-10.3998184204	10.4466657639	10.9962930679	20.4130992889	8.17179775238
-9.79778575897	-10.2825374603	10.0464572906	5.81427574158	20.7390289307	7.33879804611
-10.3964767456	-10.2122173309	10.3753471375	3.14110040665	21.1494941711	7.28288650513
-10.9247684479	-10.2284097672	10.907248497	3.42080640793	21.3193645477	7.90105772018
-11.5941667557	-10.3641519547	11.0847358704	3.92638444901	21.5049648285	8.36462402344
-12.5922164917	-10.6176843643	11.2191562653	3.62694835663	21.562374115	8.41035175323
-13.1553630829	-13.8527030945	20.1738986969	3.32528781891	21.586473465	8.40517425537
-15.0178518295	-21.9931507111	53.5759735107	3.3432598114	21.7972679138	8.3347454071
-18.0200042725	-23.1716690063	62.3407249451	4.01663303375	22.1980819702	8.3897485733
-22.9730815887	-16.8110046387	53.6447372437	4.93287563324	22.6316070557	8.54091358185
-23.672044754	-15.2667636871	33.4690132141	5.80800294876	22.6920795441	8.59505653381
-19.8283119202	-18.6033840179	18.3705463409	6.40058088303	23.0897636414	8.65517997742
-11.7448186874	-26.9711437225	29.3487529755	6.72150945663	23.4106483459	8.57142829895
-4.0874080658	-32.2083396912	38.5859413147	6.95460891724	23.6773204803	8.61837863922
0.264857560396	-37.5555076599	53.4657936096	7.33065986633	23.9976596832	8.66376781464
2.15804576874	-33.3734054565	47.9880867004	7.75604963303	24.0451545715	8.58877086639
5.81231117249	-21.1383552551	14.4372644424	8.20013237	24.0038433075	8.3724899292
11.766327858	-12.810338974	-3.52727627754	8.76002883911	23.7721443176	8.23570156097
22.9992828369	-28.8223171234	9.72251605988	9.61946296692	23.3971824646	8.15287590027
27.4866199493	-39.2660369873	11.3426618576	10.1509752274	23.011302948	8.17395687103
32.053188324	-50.5685539246	15.2586584091	10.3431959152	22.5690536499	8.15490245819
39.1787033081	-61.3430633545	16.4422168732	10.1491231918	22.5152130127	7.97160863876
44.5203514099	-69.7803344727	19.0322856903	10.1154708862	22.5824871063	7.95312356949
44.8690490723	-76.7459564209	25.0891494751	10.165886879	22.6223678589	7.98258113861
29.1306266785	-83.1259078979	47.852230072	10.3009052277	22.4228954315	7.95130157471
-72.2208404541	-84.9468536377	156.209579468	10.550740242	22.0919589996	7.8343038559
-63.9800109863	-86.5053482056	145.614990234	10.7998790741	21.0707073212	7.60662174225
17.3966636658	-84.8284759521	59.9337081909	11.4056329727	20.2091026306	7.5479092598
24.5576953888	-81.9952545166	49.9277648926	11.7099437714	20.7450351715	7.42745018005
24.9614067078	-81.5633163452	48.457069397	12.0167160034	20.7000312805	7.30085134506
20.2538604736	-81.9237213135	52.826789856	12.055729866	19.0599842072	6.68403100967
23.4475917816	-82.3053970337	49.3590774536	12.4768095016	16.8792667389	6.02076292038
28.5822429657	-83.0746536255	43.8466529846	13.0876293182	15.3975257874	5.683634758
33.2845153809	-81.4250411987	37.5414848328	13.3293571472	15.4340143204	5.8514547348
35.1332359314	-77.5303726196	32.3817253113	13.0329561234	16.1075115204	6.08782196045
35.1350364685	-73.2869567871	30.0477657318	12.7222118378	16.6824874878	6.30981588364
35.4081306458	-69.3386306763	27.1391639709	12.6362133026	17.0217609406	6.39494848251
35.1232147217	-67.619972229	26.8215484619	12.454328537	16.9999580383	6.3654255867
36.0273857117	-67.7892684937	24.7312202454	11.9836235046	16.6431026459	6.2416806221
35.4409675598	-73.0941543579	26.4525680542	11.4995622635	16.1311092377	6.06970214844
36.6192855835	-77.114654541	26.7015399933	11.0631837845	14.7714347839	5.77343654633
37.2038993835	-75.6757965088	25.3426380157	10.8372058868	13.2099494934	5.59326553345
37.7575111389	-73.0663528442	24.2419452667	10.7102718353	12.6868810654	5.53423500061
38.1730575562	-71.2866973877	22.2809581757	10.7204236984	13.4921646118	5.79016113281
34.8868370056	-71.4988555908	25.1146373749	10.5640230179	14.165643692	6.17162084579
34.2758979797	-65.2279510498	18.6563415527	10.3290491104	14.4545555115	6.40441942215
28.5514526367	-53.9815254211	13.1665849686	10.2527828217	14.7507839203	6.5983748436
18.5962905884	-35.0019378662	0.996006131172	10.2690601349	14.6929283142	6.710729599
10.1733884811	-17.6683158875	-13.2313346863	10.1497440338	14.7773532867	6.68555307388
5.90096330643	-14.2462768555	-14.6770029068	10.0057830811	14.9173755646	6.61982822418
6.96339941025	-18.611661911	-7.45189714432	9.85234832764	15.296836853	6.54798746109
8.44676685333	-21.2488536835	-3.79348349571	9.67503070831	15.7933282852	6.50668716431
13.2121658325	-29.0356769562	7.82500171661	9.47140216827	15.8975200653	6.57583093643
15.9889860153	-35.524684906	14.9043493271	9.25712013245	15.8893289566	6.69404172897
14.5173101425	-33.285987854	10.7780590057	9.16779232025	16.0533828735	6.75352907181
11.4827280045	-27.6215724945	3.97777271271	9.27892780304	16.3967895508	6.89073419571
7.72771596909	-22.221414566	-3.20569610596	9.01909065247	16.7722587585	6.84897565842
3.50583100319	-18.7490100861	-8.00113105774	8.84323310852	16.9226665497	6.77493000031
0.236311256886	-18.569070816	-8.56804656982	8.94625282288	16.8961791992	6.73157548904
1.59731209278	-20.4577503204	-4.77577400208	9.15009021759	16.7330474854	6.73356580734
5.00668048859	-22.8991336823	-0.38719445467	9.04084777832	16.812543869	6.7680850029
6.89375400543	-24.8764228821	3.37124252319	8.86719989777	17.144744873	6.89519453049
10.0249109268	-29.7436885834	10.5156517029	8.69135379791	17.3678016663	6.99605512619
12.1606826782	-34.6947898865	16.44439888	8.58977794647	17.4377307892	7.05863142014
12.0368976593	-38.6986274719	20.8141212463	8.53266525269	16.9835128784	7.12517499924
10.6785430908	-39.1897888184	20.6302566528	8.40746307373	15.9566497803	7.23208427429
10.9674139023	-38.4488105774	20.665058136	7.94871902466	14.5332365036	7.45373296738
8.97674751282	-37.6214179993	21.2113418579	7.08532190323	12.7152805328	7.89896965027
8.37140846252	-38.5386314392	21.115272522	6.15593385696	10.4757270813	8.79976654053
8.54936599731	-40.1056861877	21.466375351	5.37501478195	9.2151889801	9.66886138916
7.23350477219	-39.2286834717	20.202539444	4.76477241516	9.63411712646	10.2098608017
5.98804140091	-37.4993286133	17.3278236389	4.57133388519	10.7448987961	10.4478988647
5.23347377777	-34.1793022156	12.5016155243	4.64808273315	11.5789556503	10.5984296799
4.47524404526	-30.7601699829	7.81947040558	4.75443553925	11.6655082703	10.5121173859
3.26141881943	-27.2896556854	3.28175449371	4.95074748993	11.8065109253	10.4163999557
0.756402015686	-22.0893001556	-6.48547649384	5.15286684036	12.1811847687	10.2668895721
-7.55670499802	-8.98115634918	-30.0553073883	5.27600574493	12.4722471237	10.0834903717
-3.35842370987	-9.45117473602	-23.7915267944	5.37706565857	12.6875972748	9.98270225525
-1.9695789814	-9.39594841003	-22.0220680237	5.17621088028	13.0670862198	9.85081195831
-2.99983096123	-9.40657234192	-21.3696689606	5.23579645157	13.6287622452	9.87079811096
-2.11545228958	-13.3968544006	-13.0376224518	5.36421298981	13.9360046387	9.93025302887
-1.55139994621	-22.9844474792	4.27285575867	5.2989115715	14.0383930206	9.98844623566
-1.34300267696	-26.2347221375	8.64399051666	5.23922348022	14.4278211594	10.1022949219
-1.86224126816	-23.6455039978	3.11954092979	5.25413751602	14.8359155655	10.0982999802
-2.00205039978	-22.0596694946	-0.796338319778	5.28014707565	15.1883745193	10.0641851425
-3.12825369835	-19.3550682068	-8.78467750549	5.24904346466	15.4958496094	9.97298622131
-3.76146173477	-18.4153823853	-10.8633012772	5.46173286438	15.6504259109	9.78952312469
-1.35770654678	-17.5203533173	-13.5749044418	5.71492815018	15.7650690079	9.61370182037
0.0896831452847	-15.0931930542	-21.0587787628	5.81680345535	15.9820814133	9.48147392273
-0.0746447890997	-12.2206602097	-28.0099201202	5.93110561371	16.2393608093	9.45090770721
1.34542143345	-12.7701978683	-26.1802959442	5.97523021698	16.4290981293	9.38844299316
1.21286892891	-12.4256401062	-25.0301189423	5.95816612244	16.5851688385	9.37968826294
2.88197898865	-17.781036377	-15.2961339951	5.96838092804	16.5424823761	9.40419197083
8.33577919006	-29.7628173828	0.51633220911	5.76731204987	16.4725532532	9.36654376984
10.7688598633	-36.0395584106	5.97544956207	5.63757991791	16.1050739288	9.34138393402
10.0934314728	-37.3823699951	7.8585729599	5.75000190735	15.4249343872	9.21780776978
10.5222892761	-37.3595123291	6.29386568069	5.86717319489	14.7733430862	8.98211479187
9.79840946198	-35.2909584045	2.19532132149	5.96435928345	14.7507972717	8.78559684753
7.98489332199	-30.6066665649	-4.92070150375	6.00813913345	15.0901651382	8.7243013382
4.80288887024	-23.6428260803	-14.7641658783	5.93451976776	15.1724500656	8.56049633026
3.69078016281	-21.482963562	-17.812456131	5.97126913071	15.1874990463	8.49182128906
0.113461785018	-20.093585968	-20.5779304504	5.77292919159	15.2039442062	8.41417789459
-4.5985789299	-17.5256671906	-26.6711368561	5.76571273804	15.5222883224	8.37793827057
-8.3657283783	-15.3080911636	-30.69490242	5.88576126099	15.7312736511	8.36247158051
-9.4678735733	-14.8538980484	-31.3197250366	5.80024433136	14.9203023911	8.50106906891
-7.40596055984	-16.6109848022	-26.4628124237	5.4596529007	14.0987787247	8.76836109161
-7.3653459549	-17.3741264343	-24.0940208435	5.08560562134	13.8317365646	9.1813583374
-8.20257854462	-17.3899307251	-23.8479766846	4.83902406693	14.0053157806	9.70459842682
-8.38428115845	-17.8889694214	-23.0986022949	4.69492578506	14.2600317001	10.0721464157
-8.40900039673	-17.8146705627	-22.706155777	4.5978012085	14.5438737869	10.4011259079
-9.29434585571	-17.5303382874	-23.3072814941	4.39967441559	15.036482811	10.6188983917
-12.6801958084	-15.6689424515	-28.2200927734	4.20124340057	15.5997648239	10.805188179
-15.8075389862	-13.7841472626	-32.6587142944	4.05616188049	15.9062776566	10.9835577011
-14.4823923111	-13.9795722961	-31.1576824188	3.77802705765	15.8359136581	11.0812578201
-12.2425317764	-14.2873210907	-28.2563400269	3.47069835663	15.8559522629	11.1262359619
-11.4529943466	-15.3019161224	-26.5377559662	3.38481616974	16.1535835266	11.1966352463
-9.00357913971	-19.5992774963	-18.2626457214	3.54263687134	16.4901847839	11.2093019485
-5.76953840256	-25.6303520203	-8.7143201828	3.58100795746	16.6492938995	11.2464103699
-3.45607924461	-29.3901901245	-3.10141563416	3.64780116081	16.7970790863	11.2609643936
-0.399115592241	-30.4681091309	-3.21326565742	3.67556929588	16.9064846039	11.1981506348
1.7763761282	-31.2939720154	-3.66543006897	3.79311323166	16.8591995239	11.0620317459
4.57048416138	-32.5050010681	-4.85531568527	4.01598834991	16.7472343445	10.8297309875
4.76548242569	-31.381565094	-9.59110450745	4.30737257004	16.6749744415	10.4659633636
4.36134576797	-28.966047287	-17.3821582794	4.61269283295	16.6283054352	10.2076406479
2.29491329193	-25.389831543	-25.6518478394	4.74856042862	16.9039230347	10.0417928696
2.52090263367	-25.3396835327	-26.6210441589	4.95149946213	17.2376651764	9.89058685303
3.11601662636	-26.5852336884	-25.5342388153	5.06344556808	17.4477939606	9.80700492859
2.98845696449	-28.2873363495	-25.1400871277	5.04010534286	17.6242752075	9.74237155914
1.5661251545	-29.2748775482	-27.0993652344	4.99090337753	17.5323963165	9.74554538727
-0.185443282127	-29.7340316772	-28.1838111877	4.91226673126	16.9378509521	9.76157855988
-1.05217397213	-29.5905818939	-28.9945087433	4.74201107025	15.790345192	9.74063777924
-0.971219956875	-29.0247154236	-28.6700286865	4.5616607666	15.0151290894	9.78996944427
-0.592859685421	-29.1301841736	-28.4475402832	4.36859703064	15.1427354813	9.87323188782
-0.83188277483	-29.9199428558	-27.9321975708	4.37069225311	15.6193218231	9.95018768311
-0.485208809376	-30.7345504761	-26.6441783905	4.42492103577	15.7775449753	10.032626152
0.376749277115	-31.9947299957	-25.1671619415	4.42177820206	15.6327800751	10.0671844482
0.874796628952	-32.928352356	-25.1117668152	4.33801603317	15.4416646957	10.1130914688
2.04351520538	-34.2817687988	-28.579618454	4.1554889679	14.8086605072	10.0694932938
2.68395328522	-34.8915405273	-30.5182647705	3.94180393219	14.6407318115	10.1688079834
2.66309165955	-34.7300262451	-30.3708953857	3.78204202652	15.2737016678	10.2737960815
1.52753698826	-34.0764770508	-30.8370475769	3.77100968361	15.7109174728	10.3955030441
-1.10242366791	-32.2788772583	-35.5748291016	3.67354893684	15.9723653793	10.4445095062
-7.8518447876	-32.2890205383	-40.9944000244	3.61742544174	15.9791545868	10.5239620209
-7.93361139297	-36.0120544434	-39.1199493408	3.45408821106	15.9887084961	10.5360174179
-9.60492229462	-39.9124832153	-43.3269805908	3.33880710602	16.2504234314	10.5456552505
-10.7912254333	-44.3024406433	-49.6625213623	3.30462241173	16.3751564026	10.6562070847
