-0.167228937149	1.1323775053	-0.18396282196	-0.204043388367	1.50548505783	-0.39170050621
-0.166941642761	1.13250017166	-0.182834863663	-0.203331947327	1.50541543961	-0.390130519867
-0.166888713837	1.13178527355	-0.181401968002	-0.20260477066	1.50519073009	-0.388496637344
-0.166976213455	1.13183236122	-0.181284189224	-0.200505971909	1.5047814846	-0.386535406113
-0.16269493103	1.13659584522	-0.182065844536	-0.195751190186	1.50488138199	-0.384662389755
-0.158481121063	1.14357221127	-0.181536316872	-0.190227985382	1.50532448292	-0.383843660355
-0.153464317322	1.15024161339	-0.182799339294	-0.185908555984	1.50581908226	-0.383871912956
