-75.8994598389	-85.7473220825	151.195846558	8.48713111877	-0.665011644363	-1.67057609558
-75.1193084717	-85.6638946533	150.307144165	8.2531414032	-0.905070662498	-1.57065343857
-77.7677154541	-85.6662445068	152.859725952	8.05107498169	-0.58145570755	-1.42316997051
-78.206199646	-85.6837310791	153.389953613	7.99045085907	-0.764603197575	-1.3210259676
-75.8132095337	-85.5835189819	151.058914185	8.01129817963	-1.02911257744	-1.25888383389
-75.1401519775	-85.615562439	150.112136841	7.87668561935	-1.01696681976	-1.11842405796
-71.5909729004	-84.5077972412	145.119476318	7.07968997955	-0.955695033073	-0.385491192341
-65.9937057495	-83.2028579712	137.782501221	4.83053207397	-0.986046850681	0.93238389492
-56.6394538879	-80.7428970337	122.605583191	1.41549634933	-0.271035701036	2.91616201401
-68.1230926514	-76.2224349976	130.31918335	-2.31341099739	0.670928120613	4.91662836075
-68.7884674072	-74.9071426392	126.518577576	-6.02095937729	1.05625975132	6.65087270737
-71.2432556152	-73.8383483887	126.123405457	-9.40695571899	1.64821267128	7.92169046402
-71.5404052734	-73.4278030396	124.065979004	-12.4435119629	1.93737661839	8.75144004822
-71.3716506958	-72.8939666748	121.718437195	-15.0875492096	2.31960725784	9.41978931427
-71.7683944702	-72.866645813	120.297279358	-17.3288860321	2.59132313728	9.92077159882
-72.0059890747	-73.2008285522	119.561416626	-18.9367313385	2.78392124176	10.5090990067
-71.8557434082	-73.0002822876	119.131538391	-19.9788475037	2.71873044968	11.0097427368
-71.1415328979	-72.0207748413	118.675811768	-20.4952144623	2.55899238586	11.264670372
-65.2859344482	-70.3192596436	113.874832153	-20.6883220673	2.77505779266	11.5844678879
-49.8212547302	-66.6047897339	99.944190979	-20.6647529602	3.30123186111	11.8652563095
-42.9386367798	-65.0276641846	92.1554718018	-20.1517982483	3.60487651825	12.1225280762
-43.6424102783	-65.6027908325	93.4515991211	-19.5126247406	3.72431588173	12.1603164673
-42.3204803467	-65.1392211914	93.0141296387	-18.7118721008	4.00842905045	12.1252231598
-36.1264762878	-64.3717880249	88.8813323975	-18.393447876	4.13071870804	12.0937271118
-28.0626811981	-64.1673049927	82.0191574097	-18.1824359894	4.25488185883	12.0621500015
-26.0641593933	-65.2897262573	82.0282363892	-17.9119739532	4.15725660324	12.0330047607
-23.1248817444	-66.3552093506	82.5077667236	-17.5971488953	3.93027281761	11.9021110535
-20.9563903809	-66.6630096436	85.4265289307	-17.2792472839	3.90895533562	11.8483943939
-17.244550705	-64.9009628296	85.1374893188	-17.1594047546	4.00444602966	11.8092908859
-14.9276914597	-63.0737953186	84.8992767334	-17.1135101318	4.10535097122	11.7988739014
-14.1024217606	-59.8373832703	86.3235321045	-17.0857830048	4.2344956398	11.6153888702
-14.04296875	-56.2862205505	88.8360137939	-16.7733459473	4.24289321899	11.4210863113
-6.99057579041	-50.746723175	66.9678649902	-16.5251197815	4.29667472839	11.1747312546
1.42882406712	-47.8951377869	44.8163375854	-16.3176498413	4.47768211365	10.9892807007
0.764093637466	-50.7905502319	49.8749237061	-16.2874031067	4.63659524918	10.9794216156
2.73696184158	-51.2863845825	47.0156593323	-16.2218799591	4.56949615479	10.924703598
3.90757536888	-58.3050117493	48.2020568848	-16.0405826569	4.39908266068	11.0301408768
4.07344245911	-66.2607803345	47.76329422	-16.0203609467	3.91982793808	10.990899086
2.34616041183	-72.7078781128	49.5893058777	-15.8826532364	3.39729118347	10.9456853867
3.22267150879	-75.7696838379	48.9207344055	-15.6463947296	2.59897470474	10.8452119827
4.86112213135	-76.0332183838	47.4124145508	-15.3240356445	1.62207067013	10.6086263657
4.94693613052	-75.6540298462	47.6075973511	-14.9989070892	1.29007995129	10.4474020004
5.51397275925	-76.0596313477	47.1015090942	-14.9435434341	1.52299726009	10.3247356415
7.05424022675	-78.3211288452	45.8712501526	-14.8628320694	1.68831300735	10.3191280365
0.214888557792	-84.536026001	54.3315544128	-14.7064790726	1.78297686577	10.3465604782
