0.0	-0.0	133.60774231	61.1927490234	88.297088623	-11.0523576736
0.0	-0.0	131.970718384	60.9049797058	89.1624832153	-11.4092760086
0.0	-0.0	132.593017578	-118.867828369	88.5204238892	168.899749756
0.0	-0.0	128.940658569	-120.116859436	85.1951980591	171.089492798
0.0	-0.0	123.746139526	-124.445503235	78.157043457	175.323394775
0.0	-0.0	113.491485596	-130.626403809	69.3206100464	-178.826751709
0.0	-0.0	94.2127380371	-136.517822266	63.2161254883	-173.52142334
0.0	-0.0	83.3957443237	-142.233016968	58.6037940979	-169.994766235
0.0	-0.0	82.5924301147	-146.055770874	52.3470687866	-167.731872559
0.0	-0.0	88.6610412598	-148.593551636	44.564491272	-166.357666016
0.0	-0.0	93.9252624512	-149.76171875	37.2666664124	-165.534484863
0.0	-0.0	95.9607391357	-149.781494141	32.1225242615	-165.828170776
0.0	-0.0	100.279098511	-148.180450439	30.2073116302	-166.415390015
0.0	-0.0	105.284248352	-145.61076355	27.7888374329	-164.954086304
0.0	-0.0	107.96118927	-144.586288452	25.8643360138	-162.648803711
0.0	-0.0	109.328109741	-145.051574707	24.2789287567	-160.674194336
0.0	-0.0	90.2886047363	-144.922424316	23.2159843445	-160.32850647
0.0	-0.0	61.142993927	-143.658065796	22.3157119751	-160.077423096
0.0	-0.0	53.7613563538	-143.102325439	22.2552909851	-159.823135376
0.0	-0.0	47.8264961243	-144.20552063	22.7703533173	-160.521972656
0.0	-0.0	38.4364089966	-145.99118042	22.3039112091	-161.497695923
0.0	-0.0	35.8098373413	-147.598449707	21.3087539673	-162.675292969
0.0	-0.0	47.6467247009	-148.953796387	21.0897502899	-163.501922607
0.0	-0.0	60.2639503479	-150.289245605	21.0321140289	-164.466812134
0.0	-0.0	71.110244751	-149.527664185	20.1752548218	-165.504470825
0.0	-0.0	75.5760192871	-147.444641113	18.6055526733	-165.855911255
0.0	-0.0	74.418838501	-147.045013428	17.2314586639	-165.90562439
0.0	-0.0	68.6392593384	-147.816772461	15.7026548386	-165.955123901
0.0	-0.0	61.6013221741	-148.939453125	14.7758102417	-166.124176025
0.0	-0.0	61.3642196655	-149.607574463	14.2189731598	-165.302612305
0.0	-0.0	59.9721603394	-150.712188721	13.9070672989	-164.519515991
0.0	-0.0	60.6830024719	-152.611206055	13.1226186752	-164.28894043
0.0	-0.0	61.1839103699	-152.567565918	12.7228059769	-164.132522583
0.0	-0.0	61.696144104	-149.213104248	13.4893465042	-164.855758667
0.0	-0.0	60.5141220093	-143.660308838	13.9007816315	-166.618301392
0.0	-0.0	47.7387199402	-140.043334961	13.8699636459	-168.070068359
0.0	-0.0	31.9655971527	-139.81060791	14.7930908203	-169.153778076
0.0	-0.0	37.1802406311	-139.620834351	16.2907485962	-169.871353149
0.0	-0.0	38.784324646	-139.188781738	18.5373210907	-170.289245605
0.0	-0.0	41.475856781	-140.434997559	20.6333427429	-170.351531982
0.0	-0.0	42.8830947876	-145.200149536	22.2488307953	-169.528808594
0.0	-0.0	42.9174804688	-151.635284424	22.4318943024	-169.341156006
0.0	-0.0	43.3586616516	-153.412261963	21.8231334686	-170.022338867
0.0	-0.0	43.614944458	-150.643157959	21.9484119415	-169.62701416
0.0	-0.0	43.9358482361	-149.614898682	22.8798446655	-169.043411255
0.0	-0.0	44.0588684082	-149.70703125	25.241765976	-169.821044922
0.0	-0.0	47.9361114502	-147.151550293	25.9098415375	-169.954544067
0.0	-0.0	54.247833252	-144.43927002	24.1037063599	-169.416519165
0.0	-0.0	59.4952926636	-143.347808838	21.9578380585	-169.162521362
0.0	-0.0	59.7026557922	-141.616744995	19.4594631195	-168.006835938
0.0	-0.0	61.6084861755	-140.776947021	16.7039737701	-167.265548706
0.0	-0.0	64.6694793701	-141.394088745	13.7456827164	-167.042800903
0.0	-0.0	63.980430603	-142.166442871	12.9423704147	-166.449920654
0.0	-0.0	62.1232566833	-142.517333984	14.0690383911	-166.352020264
0.0	-0.0	56.3981399536	-141.391204834	15.4795923233	-166.284133911
0.0	-0.0	48.7008934021	-140.223739624	16.6656017303	-165.653091431
0.0	-0.0	49.697353363	-139.700164795	19.2410335541	-165.024887085
0.0	-0.0	50.3973503113	-138.965133667	23.8382282257	-162.912658691
0.0	-0.0	51.4954872131	-138.689285278	29.615354538	-161.025222778
0.0	-0.0	59.4504928589	-138.305236816	31.051322937	-160.050460815
0.0	-0.0	60.4414138794	-137.139129639	27.1338100433	-158.476257324
0.0	-0.0	18.8697357178	-135.720794678	23.1087245941	-156.287353516
0.0	-0.0	18.0345115662	-135.722320557	18.6494998932	-155.389541626
0.0	-0.0	11.6942071915	-135.670532227	17.578332901	-155.31678772
0.0	-0.0	14.0424032211	-137.17288208	19.3664360046	-155.485305786
0.0	-0.0	12.5877943039	-139.154678345	20.6531352997	-155.741210938
0.0	-0.0	15.0817012787	-141.332443237	23.4597816467	-154.780700684
0.0	-0.0	32.1889305115	-144.74621582	24.7388305664	-153.842544556
0.0	-0.0	52.6376228333	-147.270797729	24.6241073608	-153.439468384
0.0	-0.0	68.1694793701	-146.953643799	22.6947746277	-153.563232422
0.0	-0.0	80.251449585	-145.023178101	20.6271972656	-153.770568848
0.0	-0.0	76.5969085693	-144.265548706	18.1423435211	-155.316680908
0.0	-0.0	73.4140396118	-144.548538208	16.2227058411	-156.117370605
0.0	-0.0	71.6359786987	-146.009170532	16.411491394	-156.758850098
0.0	-0.0	67.9508666992	-147.696487427	16.2399425507	-157.368026733
0.0	-0.0	61.9289512634	-148.995483398	15.0047187805	-158.040725708
0.0	-0.0	61.3295097351	-149.372238159	12.3778820038	-159.015274048
0.0	-0.0	63.5085487366	-148.709289551	12.5004177094	-159.322738647
0.0	-0.0	66.2155075073	-148.0884552	13.5450534821	-159.883499146
0.0	-0.0	58.0960044861	-146.963043213	11.5119771957	-160.707229614
0.0	-0.0	34.5126647949	-145.76222229	9.05391597748	-160.168609619
0.0	-0.0	28.573343277	-145.445526123	7.12312984467	-160.447784424
0.0	-0.0	30.6533660889	-145.298965454	8.5340013504	-162.092666626
0.0	-0.0	37.4696731567	-143.741607666	11.1388597488	-163.512130737
0.0	-0.0	40.7710113525	-142.892242432	11.4920082092	-165.49180603
0.0	-0.0	40.9967689514	-142.74887085	11.1465082169	-167.722076416
0.0	-0.0	41.2720527649	-142.920028687	11.2470216751	-171.137939453
0.0	-0.0	41.1389846802	-143.849380493	11.2547664642	-175.65802002
0.0	-0.0	41.4060897827	-145.503005981	12.2759084702	179.730361938
0.0	-0.0	42.7049636841	-154.722946167	19.0840892792	171.333862305
0.0	-0.0	44.3740959167	-163.382125854	29.6510906219	164.514877319
0.0	-0.0	45.0190429688	-165.256622314	34.9427108765	166.350265503
0.0	-0.0	45.7110710144	-165.081115723	34.7892379761	171.982330322
0.0	-0.0	47.6095314026	-166.646942139	35.8371238708	175.563766479
0.0	-0.0	48.7997436523	-168.218200684	37.0854911804	178.27835083
0.0	-0.0	49.7197532654	-169.266708374	35.431438446	-179.685180664
0.0	-0.0	49.5803375244	-168.917068481	31.7481651306	-178.83392334
0.0	-0.0	49.745010376	-168.299255371	30.1195068359	-177.996276855
0.0	-0.0	50.006149292	-168.271331787	30.9565029144	-177.752624512
0.0	-0.0	49.6827583313	-168.436737061	31.6306858063	-178.260742188
0.0	-0.0	49.4176216125	-169.39251709	32.0819625854	-179.047409058
0.0	-0.0	49.4203300476	-172.064315796	31.7876148224	-179.363067627
0.0	-0.0	49.1742706299	-178.579330444	31.4117050171	-178.71194458
