0.0	-0.0	145.59147644	-108.573913574	84.085723877	177.908432007
0.0	-0.0	143.155029297	-108.99445343	84.0855331421	178.116851807
0.0	-0.0	143.819137573	-111.290924072	83.0171127319	179.01902771
0.0	-0.0	142.236633301	-115.791717529	80.848815918	-179.11529541
0.0	-0.0	140.205062866	-120.778457642	80.298034668	-177.768005371
0.0	-0.0	132.311523438	-124.29914856	83.7579040527	-177.649673462
0.0	-0.0	112.593292236	-126.765525818	89.5616989136	-177.64831543
0.0	-0.0	111.857673645	51.2300415039	88.872795105	2.63521289825
0.0	-0.0	111.567955017	-130.122116089	89.5118179321	-177.155929565
0.0	-0.0	108.100334167	-129.895111084	88.6333847046	-176.744415283
0.0	-0.0	107.810203552	-128.03717041	89.7977981567	-176.536254883
0.0	-0.0	108.793579102	53.5959777832	88.3531723022	3.97578477859
0.0	-0.0	107.744895935	53.9221954346	88.0246810913	4.34238052368
