-0.0951509475708	1.18159496784	-0.219144582748	-0.0570287704468	1.51185691357	-0.329056024551
-0.0953879356384	1.1814340353	-0.21987080574	-0.0573647022247	1.5118894577	-0.329130411148
-0.0950059890747	1.18171942234	-0.220190644264	-0.0579013824463	1.51228964329	-0.329253196716
-0.0956916809082	1.18174898624	-0.220858573914	-0.058970451355	1.51126086712	-0.3289706707
-0.0965104103088	1.18222165108	-0.222770452499	-0.0607781410217	1.50696837902	-0.327226042747
-0.0970153808594	1.1829944849	-0.223524928093	-0.0621016025543	1.50056087971	-0.324416160583
-0.0979764461517	1.1818407774	-0.222920417786	-0.0633714199066	1.49342393875	-0.322259306908
-0.09787774086	1.180814147	-0.223736524582	-0.0638341903687	1.48729920387	-0.320100069046
-0.0987906455994	1.17973017693	-0.224385738373	-0.0648086071014	1.47917747498	-0.318535327911
-0.0997257232666	1.17947018147	-0.224635958672	-0.0659599304199	1.47016108036	-0.317659378052
-0.100211620331	1.18116605282	-0.22785115242	-0.06613945961	1.4644061327	-0.318621873856
-0.0998249053955	1.18285083771	-0.229040145874	-0.0652282238007	1.4622130394	-0.320539951324
-0.0981106758118	1.18443727493	-0.230023145676	-0.0634174346924	1.45841050148	-0.321431159973
-0.0974268913269	1.1842083931	-0.231113791466	-0.0609610080719	1.45346844196	-0.321683168411
-0.0954947471619	1.18471539021	-0.232057094574	-0.058646440506	1.44812011719	-0.321574687958
-0.0915863513947	1.18653523922	-0.231514811516	-0.0561144351959	1.44291317463	-0.32060778141
-0.0895600318909	1.1844907999	-0.232665300369	-0.0530614852905	1.44127416611	-0.319556951523
-0.0897340774536	1.18534445763	-0.234290480614	-0.0500955581665	1.4391926527	-0.319141149521
-0.0911486148834	1.18810427189	-0.238137245178	-0.0478935241699	1.4372843504	-0.318714380264
-0.0933656692505	1.18781936169	-0.241664648056	-0.0469336509705	1.4364554882	-0.317253112793
-0.0927610397339	1.18640136719	-0.240149974823	-0.0455768108368	1.4363117218	-0.315200805664
-0.0912125110626	1.18620812893	-0.2364372015	-0.0428845882416	1.43600296974	-0.311822414398
-0.0907850265503	1.187261343	-0.236140489578	-0.0391824245453	1.43381989002	-0.307632923126
-0.0915081501007	1.18677377701	-0.235477924347	-0.0376510620117	1.43389093876	-0.302159547806
-0.0907909870148	1.18532764912	-0.231099009514	-0.0386261940002	1.43549084663	-0.295582771301
-0.0889964103699	1.18610417843	-0.227557182312	-0.0399942398071	1.43691682816	-0.289439082146
-0.0921847820282	1.18538486958	-0.223842024803	-0.0421686172485	1.44023323059	-0.284918069839
-0.0967721939087	1.18452954292	-0.218902349472	-0.0454502105713	1.44742834568	-0.281389474869
