-0.0352334976196	1.12913119793	-0.0757012367249	-0.0897696018219	1.52333390713	-0.285973787308
-0.0355246067047	1.12953412533	-0.0757430791855	-0.090945482254	1.52300786972	-0.285553455353
-0.0362372398376	1.1291809082	-0.0751099586487	-0.0922470092773	1.52238357067	-0.284787774086
-0.0376667976379	1.12816298008	-0.0739393234253	-0.0943350791931	1.52069568634	-0.282973527908
-0.0421051979065	1.12642800808	-0.0726788043976	-0.0990855693817	1.51654410362	-0.279421567917
-0.0542008876801	1.1186324358	-0.0686103105545	-0.106298923492	1.51358413696	-0.275478601456
-0.0740170478821	1.09740126133	-0.056135892868	-0.112105846405	1.51770603657	-0.273789644241
-0.0916757583618	1.06221914291	-0.0426397323608	-0.114483118057	1.52423274517	-0.274991989136
-0.0940980911255	1.04391431808	-0.0366851091385	-0.115184783936	1.5296548605	-0.277096509933
-0.0907845497131	1.04224729538	-0.0305738449097	-0.115265846252	1.53457379341	-0.279726982117
-0.0830526351929	1.04700922966	-0.0234273672104	-0.114019632339	1.53866863251	-0.283393383026
-0.0672204494476	1.05807900429	-0.0159106254578	-0.110547065735	1.54082322121	-0.286472082138
-0.0476129055023	1.07103943825	-0.0124453306198	-0.106723308563	1.54239225388	-0.289184331894
-0.0336539745331	1.08419597149	-0.0164631605148	-0.103712797165	1.54569017887	-0.293932795525
-0.0240259170532	1.09637224674	-0.0232751369476	-0.102167367935	1.54804432392	-0.298436403275
-0.0146250724792	1.11081147194	-0.0327490568161	-0.101215600967	1.54838252068	-0.300954341888
-0.0127966403961	1.1251155138	-0.0459107160568	-0.10008430481	1.54729223251	-0.302539348602
-0.0224132537842	1.12935161591	-0.0531857013702	-0.0996010303497	1.54625582695	-0.304110527039
-0.0250148773193	1.12617444992	-0.0435779094696	-0.0996360778809	1.54498660564	-0.30451631546
-0.0264813899994	1.11530900002	-0.0278815031052	-0.0993256568909	1.54414892197	-0.304450511932
-0.0286576747894	1.10123097897	-0.0185840129852	-0.0991926193237	1.54446518421	-0.305318593979
-0.0384266376495	1.08423876762	-0.0149810314178	-0.0999250411987	1.54640614986	-0.307677984238
-0.0460741519928	1.07695639133	-0.0162370204926	-0.100712776184	1.54909086227	-0.3109562397
-0.0536322593689	1.07666170597	-0.0184462070465	-0.10023522377	1.55122363567	-0.313993215561
-0.0600409507751	1.08079612255	-0.021270275116	-0.0979793071747	1.55273211002	-0.318045735359
-0.0613358020782	1.08640468121	-0.0232765674591	-0.09557056427	1.55310404301	-0.321249961853
-0.0593302249908	1.09215593338	-0.0258173942566	-0.0939612388611	1.55298924446	-0.322904348373
-0.0542397499084	1.09781122208	-0.0287774801254	-0.0931735038757	1.55285561085	-0.323792457581
-0.0460245609283	1.10293519497	-0.0306408405304	-0.0923509597778	1.55324327946	-0.324702978134
-0.0376288890839	1.1074461937	-0.0323445796967	-0.0919194221497	1.55297100544	-0.324853897095
-0.0323803424835	1.11616408825	-0.0401355028152	-0.0920174121857	1.5520927906	-0.323014855385
-0.0258214473724	1.12179017067	-0.0434641838074	-0.0926115512848	1.55063724518	-0.319539070129
-0.0179162025452	1.11899137497	-0.0357939004898	-0.0932846069336	1.55010724068	-0.316143989563
-0.0110926628113	1.10794329643	-0.024529337883	-0.093950510025	1.55020463467	-0.313585281372
-0.0100126266479	1.09761416912	-0.0186074972153	-0.0946068763733	1.550593853	-0.311292171478
-0.0111038684845	1.09326672554	-0.0170123577118	-0.0947225093842	1.55105042458	-0.30922293663
-0.00970816612244	1.09168863297	-0.0148315429688	-0.0943939685822	1.55206775665	-0.307936549187
-0.00846290588379	1.09382867813	-0.0135500431061	-0.0929636955261	1.55337619781	-0.307718038559
