-0.0707836151123	1.29077100754	-0.210750579834	-0.0813431739807	1.52489471436	-0.339830875397
-0.0695018768311	1.28995478153	-0.208585381508	-0.0807323455811	1.52459955215	-0.337301850319
-0.0690484046936	1.28886651993	-0.206521272659	-0.0804023742676	1.52376163006	-0.334295868874
-0.0692436695099	1.28716409206	-0.205036997795	-0.0812997817993	1.5228728056	-0.331347465515
-0.0725791454315	1.28389835358	-0.202746987343	-0.0850877761841	1.52478337288	-0.329423069954
-0.0773937702179	1.27963900566	-0.198709011078	-0.0922334194183	1.53152537346	-0.331140995026
-0.0830657482147	1.27705693245	-0.193765878677	-0.100596666336	1.53781151772	-0.335523366928
-0.0878636837006	1.27862381935	-0.191499948502	-0.109492063522	1.54238951206	-0.341074705124
-0.0947561264038	1.28086614609	-0.19068467617	-0.118252038956	1.54442036152	-0.346903443336
-0.101594686508	1.28377187252	-0.190970182419	-0.125974416733	1.54415667057	-0.351589798927
-0.10942697525	1.28586316109	-0.193072199821	-0.131726026535	1.54300665855	-0.355484008789
-0.11548948288	1.28659319878	-0.195640087128	-0.134604692459	1.5432523489	-0.358629107475
-0.117303609848	1.28709936142	-0.195369839668	-0.134132623672	1.54481434822	-0.361404418945
-0.11571097374	1.28679311275	-0.193741440773	-0.131020545959	1.54643476009	-0.363678216934
-0.113281011581	1.28509843349	-0.194017410278	-0.126270771027	1.54744184017	-0.365380048752
-0.107736349106	1.28495919704	-0.195067882538	-0.121026039124	1.54756367207	-0.366685509682
-0.103506088257	1.2853218317	-0.19656920433	-0.117040157318	1.54718887806	-0.367937684059
-0.099643945694	1.28649830818	-0.197520017624	-0.115249872208	1.54623413086	-0.369295835495
-0.0981290340424	1.28627109528	-0.197835445404	-0.115760326385	1.54538965225	-0.370444536209
-0.0969927310944	1.2861853838	-0.199425458908	-0.117091417313	1.5445138216	-0.371619105339
-0.0952265262604	1.28678965569	-0.201162815094	-0.117378473282	1.54443347454	-0.37263417244
-0.0933058261871	1.28782081604	-0.201260328293	-0.116517782211	1.54490697384	-0.373734712601
-0.0919575691223	1.28841435909	-0.20092022419	-0.115851640701	1.54523742199	-0.374884009361
-0.092414855957	1.28829360008	-0.200567483902	-0.115952253342	1.54363799095	-0.375134944916
-0.0922203063965	1.28843724728	-0.201708316803	-0.117300987244	1.54369044304	-0.374937772751
-0.0914800167084	1.28847849369	-0.201152086258	-0.118742227554	1.54409396648	-0.375519752502
-0.0887994766235	1.2887904644	-0.201301574707	-0.119151830673	1.54477822781	-0.376024961472
-0.084223985672	1.2899620533	-0.202670097351	-0.118828058243	1.5448461771	-0.375676751137
-0.0792117118835	1.2914223671	-0.203557252884	-0.118549108505	1.5440005064	-0.37460231781
-0.075606584549	1.29130756855	-0.202960729599	-0.118038654327	1.54320693016	-0.37358891964
-0.0745692253113	1.29069566727	-0.201631546021	-0.11735033989	1.54343414307	-0.373059749603
-0.0744771957397	1.29016339779	-0.200581550598	-0.116328716278	1.54402005672	-0.372720003128
-0.0741047859192	1.28980004787	-0.198957681656	-0.115305185318	1.54421842098	-0.372078180313
-0.0729968547821	1.28942716122	-0.198959350586	-0.114048480988	1.54452466965	-0.370826840401
-0.0706293582916	1.28978514671	-0.201459050179	-0.112822055817	1.54464375973	-0.369037866592
-0.0671746730804	1.29127240181	-0.20348238945	-0.111710309982	1.54467642307	-0.367378950119
-0.0643880367279	1.29183280468	-0.202587246895	-0.110768079758	1.54476499557	-0.365902900696
-0.0638496875763	1.29150414467	-0.200937986374	-0.110179901123	1.54484224319	-0.364339828491
-0.0677134990692	1.29008376598	-0.200701475143	-0.110465049744	1.54464304447	-0.362876296043
-0.0698943138123	1.28850185871	-0.199635744095	-0.111895799637	1.54425394535	-0.361723899841
-0.068745136261	1.28821372986	-0.196310520172	-0.113950967789	1.54359710217	-0.361126899719
-0.0727305412292	1.28706347942	-0.190072655678	-0.116714954376	1.54288220406	-0.361548423767
-0.0723423957825	1.28819692135	-0.190112352371	-0.120673894882	1.54176676273	-0.36223077774
-0.073822259903	1.28631639481	-0.190000772476	-0.125344753265	1.54038858414	-0.363056898117
-0.0754299163818	1.28286671638	-0.188653707504	-0.129434585571	1.53908741474	-0.363699913025
-0.0763320922852	1.28122413158	-0.186721801758	-0.130119085312	1.54013085365	-0.364780426025
-0.0780923366547	1.28011322021	-0.184322357178	-0.124423503876	1.54456865788	-0.366094708443
-0.0802772045135	1.27899169922	-0.183614611626	-0.115918397903	1.54727494717	-0.366938233376
-0.0789566040039	1.27817308903	-0.183543920517	-0.110018730164	1.54843437672	-0.367393016815
-0.0756869316101	1.27620327473	-0.180634498596	-0.106521129608	1.55024003983	-0.368684530258
-0.0722694396973	1.27590870857	-0.179617166519	-0.103849172592	1.55212128162	-0.371272563934
-0.0703372955322	1.27696466446	-0.179817676544	-0.102587461472	1.5525046587	-0.372913956642
-0.0689475536346	1.27775287628	-0.181362986565	-0.10253071785	1.55187273026	-0.37328851223
-0.0674777030945	1.27755582333	-0.181950807571	-0.103553056717	1.55055463314	-0.373271226883
