0.0	-0.0	-140.596466064	135.632949829	84.8144836426	-164.072662354
0.0	-0.0	-140.349182129	135.743667603	84.897567749	-164.123596191
0.0	-0.0	-140.136947632	135.922668457	84.8287506104	-164.02255249
0.0	-0.0	-138.446166992	136.170120239	84.960067749	-164.521835327
0.0	-0.0	-128.956512451	137.640594482	86.489944458	-165.064102173
0.0	0.0	-109.937339783	-38.965297699	87.5251083374	16.7429084778
0.0	0.0	-87.417350769	-33.5987930298	77.822845459	21.0841083527
0.0	0.0	-73.8739776611	-24.6451435089	70.2766418457	21.1590633392
0.0	0.0	-70.841255188	-14.8735408783	64.6308822632	18.4582157135
0.0	0.0	-74.4271087646	-5.87361288071	57.7630081177	17.6692466736
0.0	0.0	-80.2552871704	-2.2779648304	46.8755340576	20.0804042816
0.0	0.0	-86.1666946411	-6.08928012848	35.6536979675	29.8711032867
0.0	0.0	-90.3285369873	-6.0336265564	32.7952194214	28.2337055206
0.0	0.0	-94.852104187	-5.97780752182	32.099697113	27.9917526245
0.0	0.0	-100.736907959	-5.4895401001	30.7427864075	27.1491165161
0.0	0.0	-106.010978699	-4.13358306885	27.8157749176	25.8561019897
0.0	0.0	-109.218856812	-2.59787368774	24.481256485	24.1040706635
0.0	0.0	-111.437240601	-0.199379235506	20.175151825	23.1272373199
0.0	0.0	-112.428199768	0.631065249443	15.9429254532	24.7485637665
0.0	0.0	-113.346359253	0.235569253564	13.246468544	26.1039295197
0.0	0.0	-114.338088989	0.437317013741	10.4079828262	26.7409610748
0.0	0.0	-115.951339722	-0.663700222969	7.31587982178	30.995382309
0.0	0.0	-115.665428162	-0.681613862514	4.08927154541	35.0649414062
0.0	0.0	-104.953651428	-0.270900636911	5.00346422195	35.5285148621
0.0	0.0	-93.7441711426	1.08604061604	5.17198228836	34.2929382324
0.0	0.0	-90.1843795776	1.43229675293	5.23674058914	34.4123687744
0.0	0.0	-91.5830841064	2.74242401123	4.87926435471	30.8734836578
0.0	0.0	-94.5657958984	2.62849807739	4.49822998047	21.2144050598
0.0	0.0	-93.1334533691	4.56851959229	4.64673614502	4.40614748001
0.0	0.0	-88.2613067627	2.32376098633	0.968444824219	4.76028108597
0.0	0.0	-85.3877334595	0.713027954102	-0.521438598633	4.69255304337
0.0	0.0	-83.6412658691	2.47244262695	0.840721189976	3.82410955429
0.0	0.0	-83.1910018921	3.1851272583	6.26426696777	2.59348201752
0.0	0.0	-83.5576095581	1.30137658119	12.0817871094	6.0091509819
0.0	0.0	-83.0628433228	0.343948364258	14.2495117188	13.4770593643
0.0	0.0	-82.9705047607	1.59426498413	14.7780065536	12.2388439178
0.0	0.0	-83.1489334106	1.84495556355	14.6360464096	10.7695407867
0.0	0.0	-83.607711792	1.48260104656	13.9781723022	10.5060987473
0.0	0.0	-83.4939117432	1.01863873005	13.3791675568	10.7155656815
0.0	0.0	-82.8237686157	0.442848116159	13.5703048706	14.9613018036
0.0	0.0	-82.1341705322	2.61709237099	14.8277673721	15.0233478546
0.0	0.0	-81.8150787354	4.03656053543	16.2820682526	14.3971805573
0.0	0.0	-86.9471664429	3.13652038574	16.5854797363	14.6515893936
0.0	0.0	-111.495498657	1.29956054688	17.8094158173	15.906126976
0.0	-0.0	-137.617080688	-0.530636131763	19.1020450592	16.4377384186
0.0	-0.0	-130.411026001	-0.971241593361	17.9994125366	15.3727769852
0.0	0.0	-102.884658813	-1.08854699135	16.8791732788	15.116558075
0.0	0.0	-70.5166473389	1.38758826256	16.088727951	13.5304040909
0.0	0.0	-36.8814964294	2.98651146889	14.8625097275	11.8040275574
0.0	0.0	-11.4914617538	3.41405916214	13.8888092041	9.21582603455
0.0	0.0	-2.71805763245	3.37798333168	14.0968875885	7.91706132889
0.0	0.0	-10.5913105011	3.76076555252	15.1951303482	6.074634552
0.0	0.0	-26.3645896912	4.30149078369	15.5833044052	3.08213019371
0.0	0.0	-40.1114120483	6.49924135208	18.6845321655	-11.0708217621
0.0	0.0	-43.927532196	7.60822629929	19.5541687012	-18.0505619049
0.0	0.0	-37.2695617676	8.4471321106	19.1609783173	-18.501083374
0.0	0.0	-25.3150062561	9.17458438873	20.9720172882	-11.4948940277
0.0	0.0	-11.5936059952	12.8875923157	23.8656425476	-5.33556985855
0.0	-0.0	0.628618836403	16.6224594116	25.5918731689	-1.10927391052
0.0	-0.0	5.20214700699	18.8721122742	32.8602752686	-9.24644374847
0.0	-0.0	3.99152708054	17.5014648438	35.4414901733	-11.1856651306
0.0	0.0	-0.0781433135271	15.9962511063	35.8226051331	-11.3262882233
0.0	0.0	-4.3341999054	13.3779850006	35.6348953247	-8.80153465271
0.0	0.0	-8.83133506775	11.5330495834	32.0810585022	6.11291599274
0.0	0.0	-13.2327795029	9.56416320801	29.4000148773	19.1992588043
0.0	0.0	-19.4364624023	8.11861038208	33.0697441101	20.3856372833
0.0	0.0	-31.555059433	4.81761264801	35.6146888733	18.2122554779
0.0	0.0	-46.4287567139	2.55032682419	35.4815864563	17.1375522614
0.0	0.0	-62.7518730164	2.100471735	35.7906990051	14.7262277603
0.0	0.0	-79.1944656372	1.52262127399	35.3040237427	12.8784608841
0.0	0.0	-88.6967697144	1.4433631897	34.0326385498	11.6766691208
0.0	0.0	-89.6413269043	0.52467751503	32.9901618958	11.8967313766
0.0	0.0	-87.8733291626	1.74469053745	32.7553215027	11.8577632904
0.0	0.0	-86.5978088379	3.61712646484	33.6095046997	12.6243038177
0.0	0.0	-85.5785522461	5.42824840546	33.5245513916	13.1842365265
0.0	0.0	-83.9964599609	5.96931123734	32.4814147949	14.3558702469
0.0	0.0	-84.1815261841	6.44420957565	31.6021957397	14.9731664658
0.0	0.0	-84.2586593628	7.0970082283	32.2612037659	15.0941829681
0.0	0.0	-84.8243560791	6.93338060379	31.860994339	15.3070697784
0.0	0.0	-85.5222091675	6.60679388046	30.6381549835	15.3431282043
0.0	0.0	-86.5634918213	5.99120759964	29.3795185089	16.0125045776
0.0	0.0	-88.5802078247	4.90962982178	28.0633163452	20.2485847473
0.0	0.0	-87.5608825684	4.77581834793	27.6794605255	21.8174991608
0.0	0.0	-86.1017074585	6.26731967926	27.2666873932	23.0634803772
0.0	0.0	-85.8821792603	7.58681440353	26.9869709015	23.4216194153
0.0	0.0	-85.747795105	8.24018859863	26.3342189789	23.3552799225
0.0	0.0	-85.1903991699	8.330037117	26.3449859619	23.7544593811
0.0	0.0	-83.2870254517	9.04508590698	25.9313640594	23.8226108551
0.0	0.0	-81.6693878174	10.5610017776	26.0852108002	22.6076450348
0.0	0.0	-81.3959197998	11.9385461807	26.3487567902	21.3720741272
0.0	0.0	-81.8777923584	13.9481725693	27.5327663422	19.2974395752
0.0	0.0	-82.7720031738	15.7397871017	29.8323307037	15.6868839264
0.0	0.0	-82.7545394897	15.6331958771	30.1286640167	14.7403659821
0.0	0.0	-82.1387481689	14.4543113708	29.6360225677	14.2517671585
0.0	0.0	-80.6496276855	12.5589447021	29.379327774	14.8947839737
0.0	0.0	-78.4465866089	12.058924675	28.9534282684	14.4579648972
0.0	0.0	-77.2181091309	12.3442764282	27.8662643433	14.1106510162
0.0	0.0	-75.7180404663	13.1841344833	27.2980556488	13.5254888535
0.0	0.0	-72.9214248657	13.7350645065	27.4170608521	12.8874158859
