-0.0239853858948	1.22325921059	-0.0734559297562	-0.0408964157104	1.51880502701	-0.321742534637
-0.0252981185913	1.22398364544	-0.0746026039124	-0.0421962738037	1.51905763149	-0.322734355927
-0.0285537242889	1.22317039967	-0.0751950740814	-0.0436189174652	1.51913022995	-0.323425292969
-0.0348093509674	1.2210804224	-0.0776176452637	-0.0465338230133	1.51874995232	-0.323327302933
-0.0460631847382	1.21840858459	-0.0799286365509	-0.0529606342316	1.51697659492	-0.321171045303
-0.065034866333	1.21183252335	-0.0739758014679	-0.0621809959412	1.51383471489	-0.317497491837
-0.0908582210541	1.19026148319	-0.0627484321594	-0.0726704597473	1.51051187515	-0.31420135498
-0.106852054596	1.17152416706	-0.0561890602112	-0.0825374126434	1.50724840164	-0.310976982117
-0.117521762848	1.16115391254	-0.053435087204	-0.0899934768677	1.50301086903	-0.306860089302
-0.124432325363	1.15494501591	-0.0518891811371	-0.0938949584961	1.49791955948	-0.303190469742
-0.126594781876	1.15279197693	-0.0527520179749	-0.094589471817	1.49313902855	-0.30220246315
-0.122315883636	1.15210223198	-0.0539848804474	-0.0914008617401	1.48985493183	-0.301491141319
-0.11276102066	1.14925765991	-0.0530006885529	-0.0867443084717	1.48535335064	-0.301550984383
-0.0994017124176	1.14512300491	-0.0524587631226	-0.082239151001	1.4801800251	-0.302224874496
-0.0850605964661	1.14141905308	-0.0527631044388	-0.0793509483337	1.47570443153	-0.3028819561
-0.0708346366882	1.13854849339	-0.0526900291443	-0.0769617557526	1.47148883343	-0.303716421127
-0.0592727661133	1.1352878809	-0.0503664016724	-0.0744879245758	1.46753847599	-0.303644418716
-0.0514154434204	1.13503682613	-0.0459449291229	-0.0733842849731	1.46252441406	-0.302545547485
-0.0498490333557	1.13540863991	-0.0458250045776	-0.0727849006653	1.45921969414	-0.301847219467
-0.0508229732513	1.1360578537	-0.0507088899612	-0.071845293045	1.45816588402	-0.301654577255
-0.0483491420746	1.13424158096	-0.0516157150269	-0.069760799408	1.45707452297	-0.301642417908
-0.0439147949219	1.13496494293	-0.0491540431976	-0.0660183429718	1.45447564125	-0.301527261734
-0.04217004776	1.13797199726	-0.049955368042	-0.0605576038361	1.45044362545	-0.301172733307
