0.0	-0.0	136.428985596	-126.412246704	84.9212875366	168.833953857
0.0	-0.0	136.561264038	-126.64151001	84.8214645386	168.95552063
0.0	-0.0	136.6275177	-126.790916443	84.6256484985	169.298828125
0.0	-0.0	136.107849121	-127.060745239	83.8851699829	169.657836914
0.0	-0.0	132.452529907	-127.154342651	79.8387451172	170.696273804
0.0	-0.0	125.66835022	-127.499237061	70.2280197144	171.848419189
0.0	-0.0	117.307418823	-128.018936157	62.3680610657	173.011322021
0.0	-0.0	112.983787537	-128.702178955	54.6338310242	174.195526123
0.0	-0.0	113.462120056	-129.347381592	46.2269554138	175.142059326
0.0	-0.0	113.464149475	-129.823776245	38.4150428772	175.868942261
0.0	-0.0	113.360916138	-129.48576355	30.5012130737	176.281402588
0.0	-0.0	110.198478699	-128.211654663	24.687877655	176.552078247
0.0	-0.0	103.306838989	-127.21383667	20.7503013611	176.510055542
0.0	-0.0	95.4592208862	-126.752868652	18.2161369324	176.006866455
0.0	-0.0	92.5108642578	-126.243934631	16.2583179474	175.750198364
0.0	-0.0	92.325843811	-126.164649963	13.6660289764	175.793762207
0.0	-0.0	93.5523223877	-126.174507141	11.6589641571	175.122970581
0.0	-0.0	94.9748916626	-125.676620483	10.0057582855	174.00994873
0.0	-0.0	94.9979248047	-123.658424377	8.35966777802	173.813873291
0.0	-0.0	94.8547897339	-121.655586243	6.62083959579	173.639892578
0.0	-0.0	93.9354324341	-119.162918091	5.08968782425	173.844772339
0.0	-0.0	89.9667205811	-116.974250793	5.42729139328	174.219726562
0.0	-0.0	81.1467437744	-115.318222046	6.47683095932	175.070922852
0.0	-0.0	75.2538986206	-114.654647827	5.99239253998	175.705062866
0.0	-0.0	74.8671875	-114.028930664	4.68051958084	176.029510498
0.0	-0.0	76.6551742554	-112.343818665	3.97803354263	177.166061401
0.0	-0.0	77.1090087891	-111.228302002	2.92651224136	178.044815063
0.0	-0.0	77.9441223145	-111.136283875	2.13325428963	178.077270508
0.0	-0.0	78.2502365112	-109.927749634	2.25376629829	177.128814697
0.0	-0.0	81.5236358643	-105.974578857	2.85942625999	173.943847656
0.0	-0.0	78.6769180298	-100.491828918	2.24005126953	169.689041138
0.0	-0.0	74.0754165649	-97.4525985718	1.23068654537	166.635314941
0.0	-0.0	75.8186035156	-96.9367523193	2.10729956627	164.597396851
0.0	-0.0	77.5047607422	-97.2085494995	3.06349873543	164.144088745
0.0	-0.0	77.6738967896	-98.1908874512	4.2173500061	164.023956299
0.0	-0.0	79.1125183105	-99.7247009277	5.92305326462	163.45715332
0.0	-0.0	86.3039932251	-99.9811248779	7.30641269684	162.535110474
0.0	-0.0	94.4811325073	-98.6798553467	7.55096006393	159.329986572
0.0	-0.0	95.8719406128	-94.3888473511	7.73313474655	152.655715942
0.0	-0.0	95.6982345581	-88.8904190063	6.90800619125	148.791854858
0.0	-0.0	96.0747909546	-85.9663543701	5.53151988983	146.634277344
0.0	-0.0	95.2520828247	-87.1644134521	5.15028476715	145.69442749
0.0	-0.0	94.4786071777	-89.5105667114	5.88107585907	144.978942871
0.0	-0.0	94.5780792236	-90.6981658936	6.48530197144	145.025161743
0.0	-0.0	94.8930664062	-91.7144775391	6.99636268616	145.323776245
0.0	-0.0	95.2525787354	-93.4746246338	7.50291633606	146.132888794
0.0	-0.0	95.3342971802	-96.3120269775	8.64214897156	146.421920776
0.0	-0.0	95.3029632568	-98.8865814209	10.2781610489	146.335891724
0.0	-0.0	95.4011611938	-99.9838638306	10.8267059326	146.533935547
0.0	-0.0	95.9000778198	-100.127983093	10.9470272064	146.638824463
0.0	-0.0	96.7167053223	-99.2579574585	10.3190326691	146.93963623
0.0	-0.0	98.040145874	-98.3414077759	9.60953617096	147.445220947
0.0	-0.0	98.5000610352	-97.8335494995	8.84783554077	148.002258301
0.0	-0.0	98.8450317383	-97.2878341675	7.84226846695	148.416000366
0.0	-0.0	98.9540710449	-97.2765274048	7.00683927536	148.738052368
0.0	-0.0	98.6385574341	-97.9122543335	7.06827020645	148.926498413
0.0	-0.0	98.7668609619	-98.6209182739	7.43837356567	149.079391479
0.0	-0.0	98.4158325195	-99.7268981934	7.70275402069	149.097335815
0.0	-0.0	98.2810745239	-101.615760803	7.7633228302	148.957977295
0.0	-0.0	98.1971664429	-102.833724976	7.28390026093	149.019638062
0.0	-0.0	99.6347198486	-102.409393311	6.76326179504	149.82434082
0.0	-0.0	99.7725524902	-102.147163391	6.63762712479	150.312591553
0.0	-0.0	99.2028198242	-102.647277832	6.92416715622	150.339309692
0.0	-0.0	98.6382369995	-103.178001404	7.32696962357	150.395797729
0.0	-0.0	99.4167022705	-104.20892334	7.6419377327	150.210189819
0.0	-0.0	101.245910645	-105.38067627	7.96839284897	150.074462891
0.0	-0.0	102.635932922	-105.869812012	8.21438980103	150.086349487
0.0	-0.0	102.265830994	-106.066345215	8.04441356659	149.98815918
0.0	-0.0	97.51953125	-106.233711243	7.83341646194	149.952255249
0.0	-0.0	94.2006378174	-106.450149536	8.01800727844	150.071838379
0.0	-0.0	94.346824646	-106.531425476	8.16503715515	150.129638672
0.0	-0.0	92.4789123535	-106.590751648	8.60294532776	150.038253784
0.0	-0.0	97.9859390259	-106.699195862	9.29672908783	150.040023804
0.0	-0.0	102.940460205	-107.190811157	9.29318904877	150.016784668
0.0	-0.0	102.605674744	-107.293670654	8.80774116516	150.09866333
