-0.0414061546326	1.1942384243	-0.1699000597	-0.102059364319	1.51728010178	-0.319236159325
-0.0444579124451	1.19182920456	-0.16685962677	-0.104974031448	1.51672172546	-0.315334677696
-0.0498082637787	1.18962097168	-0.163304567337	-0.107719659805	1.51460635662	-0.310660123825
-0.0566658973694	1.18787181377	-0.158905267715	-0.106909513474	1.51053631306	-0.30514216423
-0.0607693195343	1.18569910526	-0.152293562889	-0.0992321968079	1.50719690323	-0.299243211746
-0.0558347702026	1.18739557266	-0.145030975342	-0.0869266986847	1.50336074829	-0.294505596161
-0.0481686592102	1.1911598444	-0.141635656357	-0.0747218132019	1.49926316738	-0.290902614594
-0.0433282852173	1.19241654873	-0.141810774803	-0.0642986297607	1.49580943584	-0.288142800331
-0.0393738746643	1.19224226475	-0.14347755909	-0.054708480835	1.49483072758	-0.286433935165
-0.0347487926483	1.19236421585	-0.143371343613	-0.0460915565491	1.49500787258	-0.285500526428
-0.0306713581085	1.1938444376	-0.142036676407	-0.0405371189117	1.49448728561	-0.28458237648
-0.0276474952698	1.19531929493	-0.14073240757	-0.0384187698364	1.49437880516	-0.283611059189
-0.0264463424683	1.19447278976	-0.137614250183	-0.0382504463196	1.49479055405	-0.282614707947
-0.0263321399689	1.19455313683	-0.135996580124	-0.0389108657837	1.49586975574	-0.281867384911
-0.0276815891266	1.19667994976	-0.135844945908	-0.0396156311035	1.49703633785	-0.281207323074
