0.0	-0.0	145.374603271	-124.414665222	82.0548477173	172.023620605
0.0	-0.0	144.96546936	-124.833572388	82.253868103	172.386932373
0.0	-0.0	145.263076782	-125.041511536	82.143157959	172.72996521
0.0	-0.0	139.199157715	-125.823661804	81.2993011475	174.101394653
0.0	-0.0	136.315887451	-129.221054077	78.3744888306	177.409637451
0.0	-0.0	121.72543335	-134.714355469	73.112991333	-178.006072998
0.0	-0.0	110.140953064	-140.56729126	67.1822128296	-173.451065063
0.0	-0.0	96.8083114624	-145.40057373	61.7252006531	-170.725082397
0.0	-0.0	87.699180603	-148.378082275	55.2021980286	-169.390808105
0.0	-0.0	83.6927719116	-149.065444946	47.5863075256	-168.610229492
0.0	-0.0	84.1923370361	-148.660354614	41.013053894	-169.097366333
0.0	-0.0	86.7918777466	-147.045837402	35.7785644531	-170.524719238
0.0	-0.0	88.2444915771	-144.849960327	30.3338470459	-172.067306519
0.0	-0.0	88.1995239258	-143.268676758	24.5528850555	-172.919311523
0.0	-0.0	87.8126144409	-143.854537964	20.3155479431	-173.495239258
0.0	-0.0	86.796585083	-144.439758301	16.3479557037	-174.079223633
0.0	-0.0	84.8893890381	-143.359771729	12.5887031555	-174.384292603
0.0	-0.0	81.3857269287	-143.130203247	8.36770057678	-173.811157227
0.0	-0.0	80.2491226196	-144.29447937	4.34430980682	-174.109527588
0.0	-0.0	81.1067123413	-143.90725708	3.25587821007	-173.357528687
0.0	-0.0	82.3465118408	-143.11366272	1.87040138245	-172.417114258
0.0	-0.0	81.574005127	-142.65864563	-0.387454092503	-173.437423706
0.0	-0.0	80.1241989136	-142.02494812	-4.01000881195	-175.494949341
