-44.5129928589	-6.73074960709	11.3378200531	6.84133434296	16.4182662964	-33.5437545776
-44.3969230652	-6.6844534874	11.1252260208	6.85689735413	16.5567188263	-33.8811149597
-44.3680839539	-6.83395957947	11.17856884	7.01966667175	16.4523391724	-33.881893158
-43.9253807068	-6.93557548523	10.9525880814	7.3496670723	15.5067605972	-32.1080284119
-42.9011192322	-7.37099790573	9.74855613708	8.28237438202	12.8026809692	-27.3391494751
-41.0879516602	-7.99710941315	8.90013694763	9.72152042389	9.32894706726	-21.8747444153
-38.3740730286	-9.94945812225	8.26167488098	11.3984422684	5.70860433578	-17.1302871704
-33.3308639526	-12.7386732101	6.67716884613	12.3000888824	1.66357934475	-14.3777914047
-26.8083190918	-14.2624692917	4.39780712128	13.035651207	-1.73886156082	-14.3018598557
-22.3611717224	-15.1154308319	3.1822476387	14.2295913696	-4.7412853241	-16.0939464569
-20.3956737518	-15.8380584717	2.84736633301	15.6937665939	-7.70773553848	-18.5178699493
-21.1081142426	-16.2052192688	3.57019495964	17.0423851013	-11.0047712326	-20.7638378143
-22.3382511139	-17.2395572662	4.88190126419	17.6767902374	-13.9910125732	-22.1562137604
-22.3515949249	-19.4165649414	7.03555727005	18.0421237946	-16.6613273621	-23.1267623901
-21.1750717163	-21.8848609924	8.37062835693	18.7547721863	-18.6215000153	-24.1890258789
-21.4158401489	-23.3725032806	9.04765796661	19.2589416504	-20.1246757507	-25.0626792908
-22.4209403992	-23.919052124	9.44347000122	19.0792942047	-21.9714298248	-25.1175765991
-22.9648895264	-24.2113571167	9.89016056061	18.7886543274	-24.0479717255	-24.8512382507
-22.5715732574	-24.1903896332	10.0606164932	18.7329330444	-25.6805057526	-24.3982105255
-22.359544754	-24.38438797	10.4029607773	18.7840118408	-26.0057525635	-23.6717224121
-21.9377403259	-25.4993362427	11.3739795685	18.402141571	-24.5451774597	-22.3952198029
-21.7691917419	-26.760187149	12.6246137619	17.7292041779	-22.6246757507	-21.217092514
-21.8182125092	-26.9596328735	12.9932632446	17.5562534332	-21.6171550751	-20.9669189453
-21.6171150208	-26.6439208984	12.9287528992	17.849697113	-21.3160076141	-21.5187549591
-20.5128231049	-27.4109191895	13.1353940964	18.421087265	-21.4694404602	-22.3846988678
-18.7648105621	-28.4857311249	12.7629537582	19.0081367493	-21.7029438019	-23.3178329468
-17.3414230347	-29.5268230438	12.035900116	19.4496269226	-21.9853935242	-24.0369377136
-16.9279193878	-30.0237541199	11.890460968	19.7815704346	-22.2694759369	-24.6053142548
-16.8258171082	-30.3328323364	11.7564764023	20.0749759674	-22.6181602478	-25.0390396118
-16.914068222	-30.9432830811	12.005022049	20.3780784607	-23.0926742554	-25.4235343933
-16.8549308777	-32.123550415	12.7188329697	20.7615890503	-23.6114864349	-25.8502063751
-16.4843273163	-33.4338607788	13.3967552185	21.1020736694	-23.7768325806	-26.2402420044
-16.3730449677	-34.609085083	14.0194301605	21.3361873627	-23.656671524	-26.5815753937
-16.4510345459	-36.14585495	15.3419981003	21.5204353333	-23.4623756409	-26.9582767487
-15.4230890274	-38.5093193054	15.5166139603	21.7163047791	-23.3486232758	-27.4187240601
-13.6499462128	-40.6046676636	14.5694189072	21.9438610077	-22.9727497101	-27.8317241669
-12.2250709534	-42.4669075012	13.9330997467	22.1095485687	-22.4738407135	-28.0830154419
-10.213104248	-45.1566047668	13.0423679352	22.1317577362	-21.8479232788	-28.1518325806
-7.30034446716	-47.3518447876	11.0519809723	21.8579349518	-20.9642944336	-27.7650966644
-6.00861120224	-46.4304084778	9.95355129242	21.3318786621	-19.7062568665	-26.8869571686
-5.21284580231	-43.6371803284	8.43632221222	20.5463447571	-18.2035102844	-25.6819705963
-4.68405723572	-42.6285934448	8.01479244232	19.8997306824	-17.3471488953	-24.5106220245
-5.59886312485	-42.9594802856	8.74424171448	18.8898010254	-16.5592498779	-23.6169757843
-5.38462543488	-42.7448692322	8.19499492645	18.2041473389	-15.9428949356	-23.5389442444
-5.11641454697	-41.5307846069	6.88514900208	18.0886955261	-15.0215511322	-23.9334030151
-5.23557519913	-40.7501449585	5.74348115921	17.900100708	-14.0248823166	-24.4012145996
-5.34856367111	-40.3181381226	4.82724380493	17.6020374298	-12.8016309738	-24.3366336823
-5.63165235519	-40.6730117798	5.69558382034	17.1463317871	-12.0831241608	-23.3138694763
-5.4731464386	-40.2215957642	5.84348773956	16.33659935	-11.8196926117	-22.7223262787
-5.180580616	-40.1910133362	5.7229590416	15.1327228546	-11.4791345596	-22.9901504517
-4.94813394547	-40.4658432007	5.37667751312	12.8156003952	-10.9729042053	-21.9712715149
-5.06248760223	-40.6802330017	5.41814804077	10.6793003082	-10.4522428513	-20.2344799042
-4.56183958054	-40.5042762756	4.8981218338	9.90149116516	-9.68539047241	-19.2436122894
-4.3460559845	-40.1146774292	4.47988557816	9.59528827667	-8.27135944366	-19.5576858521
-5.05609560013	-39.9210853577	4.46364068985	8.97933769226	-5.18439817429	-20.5421829224
-6.15815162659	-39.916229248	4.92469978333	7.67121744156	-1.22816359997	-21.4428482056
-6.07176446915	-39.7481880188	4.73313045502	6.57688617706	2.13053011894	-20.985490799
-5.69052791595	-39.6135749817	4.63798332214	5.71921396255	4.83998537064	-20.8416213989
-5.27060461044	-39.3120613098	4.59311199188	4.00654506683	6.82377338409	-21.0364818573
-5.35126638412	-39.225479126	4.78584194183	2.77959418297	7.38753843307	-20.1194381714
-5.8866071701	-38.7751502991	4.9987821579	2.38080835342	7.19979810715	-19.2565155029
-5.83797264099	-38.9053459167	5.05000162125	1.76320302486	7.78267526627	-19.194814682
-6.26636171341	-38.975894928	5.30442714691	1.0674726963	8.78778553009	-19.6738319397
-6.58967065811	-38.9291763306	5.19312572479	0.917359530926	8.88153934479	-20.5368671417
-6.79212760925	-38.1366729736	4.75677967072	0.174934968352	8.85908412933	-23.3438434601
-7.10330057144	-38.1411781311	5.04197263718	-3.1939394474	7.91330194473	-28.002696991
-7.34067392349	-38.517124176	5.19035673141	-5.62296485901	6.58220672607	-28.2254753113
-7.4870223999	-38.2218742371	5.18558835983	-5.87303638458	6.10581111908	-25.649477005
-6.97624397278	-37.9778785706	4.82567214966	-5.92558288574	5.99487781525	-21.9373607635
-7.38747310638	-38.1951332092	5.13363838196	-6.43964624405	6.34501409531	-18.7822856903
-7.9584197998	-38.6319999695	5.71597146988	-6.79087162018	6.76635503769	-15.9541311264
-8.20734024048	-38.5569419861	5.95587730408	-6.9531121254	6.94139623642	-14.7283687592
-8.38799190521	-38.4799079895	6.15044879913	-6.80515098572	6.88998842239	-15.0667190552
-8.65685749054	-38.5356178284	6.45638132095	-5.75210952759	7.05847358704	-15.9386053085
-8.34006214142	-38.1802749634	6.01434707642	-3.90090823174	7.54695653915	-18.5895271301
-7.94662666321	-37.4589271545	5.12291145325	-0.744600176811	8.57534408569	-22.9622344971
-7.86004590988	-37.0431213379	4.13202047348	2.37310838699	9.39202880859	-26.7973060608
-9.80246067047	-34.3486671448	2.80845141411	3.91105413437	9.79232883453	-28.9796009064
-10.9114103317	-33.4293327332	2.83767938614	4.89803600311	9.900141716	-28.7977256775
-10.890537262	-33.2349090576	3.02164077759	5.74981451035	9.45373916626	-27.5732975006
-10.4530305862	-33.3336524963	2.99802589417	6.82077312469	8.79535293579	-26.4850349426
-9.98848819733	-33.8970527649	2.76942300797	7.69534349442	7.75453472137	-25.2331848145
-9.90200519562	-33.6439666748	1.99061274529	8.00869941711	6.26717185974	-24.4998016357
-9.35188007355	-33.7882232666	1.6266477108	8.35556125641	5.33315038681	-23.926908493
-9.06829071045	-33.8022956848	1.6607837677	8.64086437225	5.23958349228	-23.1100101471
-8.6458272934	-34.098400116	1.91870343685	8.77831077576	5.37077665329	-22.8751430511
-7.85620737076	-34.0400161743	1.79983270168	9.08043575287	5.24341106415	-23.4506950378
-7.67836046219	-34.0220832825	1.76181674004	9.48134708405	5.14187717438	-23.9709529877
-7.61368846893	-34.3707389832	1.67590165138	9.53573799133	5.35527038574	-24.8812084198
-7.71171092987	-34.5170860291	1.60054826736	9.43089294434	5.28699922562	-26.3167419434
-7.88345623016	-34.4226989746	1.27993416786	9.44029903412	5.07603883743	-27.3188877106
-7.80813169479	-34.0850982666	0.338822603226	9.63558197021	5.33869695663	-28.6003417969
-7.40517759323	-31.6218357086	-2.64190125465	9.98441028595	5.3854804039	-29.4842033386
-8.03488349915	-27.5727233887	-3.62577652931	10.1954154968	5.14791154861	-29.3747444153
-8.04420185089	-17.5677337646	-9.64353179932	10.2881860733	5.04485225677	-29.0826416016
-7.76111555099	-8.29828071594	-13.6012639999	10.398393631	4.89880514145	-28.7643089294
-10.8776302338	-8.44943714142	-8.85434150696	10.2208547592	4.14726543427	-28.2288703918
-14.6794338226	-10.7356376648	-4.56779146194	9.27621746063	2.81145071983	-27.4864997864
-16.8202056885	-12.7315015793	-0.031019769609	7.92178058624	1.08316147327	-26.8451099396
-17.4326171875	-15.2716674805	4.45418310165	6.98295497894	-0.219343677163	-26.4131469727
-17.0497550964	-16.5499782562	5.56914901733	6.72011852264	-1.96450221539	-26.3329563141
-17.9100990295	-18.3114356995	9.06536960602	6.81962347031	-4.91008615494	-26.7351016998
-18.3256626129	-17.8808364868	8.73183059692	6.67066192627	-8.06974124908	-27.1128921509
-19.0139331818	-19.0092201233	10.3952741623	6.3328704834	-10.0889701843	-27.1271343231
-19.348772049	-20.0942687988	11.2743930817	6.49102163315	-12.325922966	-27.0689296722
-20.1857585907	-21.073633194	13.1803302765	6.06216907501	-15.5733175278	-26.5516319275
-20.4702854156	-21.1351318359	12.8439493179	3.74311733246	-17.2289295197	-23.8446426392
-20.8215427399	-21.6692695618	13.2653455734	0.419490754604	-17.5834159851	-19.943145752
-20.9035205841	-21.9159851074	13.4567251205	-2.00845170021	-17.2292938232	-16.9057502747
-21.3847980499	-22.0783977509	13.6932821274	-3.09296679497	-16.6410827637	-16.0002193451
-21.3300685883	-22.9563961029	14.1544599533	-1.58884835243	-16.4633331299	-18.0084438324
-20.6019859314	-23.9973201752	13.7260913849	2.1568133831	-16.2708072662	-21.4420604706
-20.4459152222	-24.4427642822	13.1570529938	5.71736764908	-16.3826789856	-24.2566337585
-19.9994525909	-25.0868606567	12.7137985229	7.65297460556	-17.070148468	-25.7850418091
-19.0807609558	-25.2128620148	12.331161499	8.89765262604	-18.5370922089	-26.6568908691
-18.1846427917	-25.4533176422	12.1064796448	10.4575405121	-19.9390773773	-27.3509235382
-18.0964431763	-25.6810112	12.2368850708	12.0534601212	-21.2857074738	-27.2706623077
-18.6391887665	-26.0425720215	12.6099023819	12.0710573196	-21.6686115265	-24.2850170135
-19.3267860413	-25.957403183	13.0644664764	11.5244159698	-20.3373336792	-21.5073928833
-19.1154003143	-26.3131694794	13.2567434311	10.6159858704	-19.2028808594	-20.0848140717
-19.1653499603	-26.7134284973	13.3148527145	9.87125873566	-19.0368118286	-19.9594612122
-19.0528030396	-26.5998363495	13.309223175	10.5255823135	-19.3154506683	-20.6335659027
-18.7759666443	-26.5895500183	13.177482605	11.3486375809	-19.6598987579	-21.5661487579
-18.2290096283	-26.7410259247	12.857591629	12.1355342865	-20.1540317535	-22.4918231964
-17.819190979	-27.2637844086	12.8996515274	13.0741567612	-20.5400867462	-23.3947544098
-17.5189266205	-28.013217926	13.2470378876	13.8921604156	-20.7264614105	-24.0575942993
-17.5204219818	-28.4730148315	13.6386470795	14.3437175751	-20.7403087616	-24.226480484
-17.2652988434	-28.7127246857	13.6742897034	14.661028862	-20.5661125183	-24.4020023346
-17.1375713348	-29.0934944153	14.0495567322	15.4914932251	-18.844587326	-24.9766578674
-16.9163379669	-30.1316432953	14.7001447678	16.3372344971	-15.5352430344	-25.0967388153
-16.9847812653	-31.210559845	15.7362365723	16.5482597351	-13.5541610718	-24.8962345123
-16.6206626892	-31.486995697	15.8723430634	16.5244235992	-13.3905830383	-24.4639720917
-16.5425453186	-31.3764972687	15.8000659943	16.7308368683	-13.6267986298	-24.2080039978
-16.4205741882	-31.5583896637	15.6801042557	17.5850925446	-13.8501501083	-24.5158309937
-16.6197490692	-32.2017936707	15.7455320358	19.1555805206	-14.1317968369	-25.0653305054
-16.5879173279	-32.8178787231	15.9100399017	20.5866222382	-13.3008136749	-25.6494445801
-16.2542362213	-33.4209823608	16.3175945282	21.8323612213	-12.1906166077	-25.881362915
-16.6279373169	-33.1814727783	17.4069519043	22.014175415	-11.4790182114	-25.3077945709
-15.6891994476	-32.1746177673	16.5998382568	21.2463417053	-11.0684375763	-24.6877384186
-15.2970781326	-31.8933696747	16.3061237335	20.9440860748	-10.758887291	-24.7922611237
-16.1095600128	-32.4361763	16.7375679016	20.7702693939	-11.011929512	-25.6013870239
-17.1381454468	-32.9814682007	17.1080970764	20.6287155151	-11.8820180893	-27.4671630859
-18.4648265839	-33.6429290771	17.6710624695	20.7997226715	-13.1771173477	-30.0689105988
-19.5501060486	-34.1017341614	18.294921875	21.5110340118	-13.9410171509	-33.0419921875
-19.9982776642	-34.0229988098	18.5520191193	22.4137859344	-13.1640205383	-36.4476928711
-21.1419696808	-33.9437294006	19.7381057739	22.9871768951	-11.0850458145	-37.2863235474
-21.6602935791	-33.8930435181	19.5556335449	22.0523986816	-8.88581180573	-33.173248291
-21.6735115051	-33.4362106323	19.2247600555	20.8054637909	-6.5681977272	-26.3601913452
-21.7425670624	-33.5209541321	19.5027065277	20.1221542358	-4.68510437012	-20.0724506378
-21.5866279602	-33.1065292358	19.4879951477	19.566078186	-2.89346528053	-14.8339586258
-21.1517333984	-33.2443161011	18.4104537964	19.0560970306	-0.783888578415	-10.8809642792
-17.1599903107	-32.0715866089	12.0046720505	18.8773956299	1.3794811964	-11.5400915146
