-11.6022520065	-85.6671600342	131.215530396	-0.944816708565	-0.161908596754	-7.05502080917
-9.88865375519	-85.7970123291	129.359848022	-0.972821414471	-0.0125135816634	-7.055996418
-10.1618766785	-85.655380249	128.996078491	-1.09679079056	0.684939563274	-6.75848150253
-11.3032217026	-83.6426239014	126.793151855	-2.51452684402	2.7045173645	-5.28053855896
-19.5725460052	-74.7664031982	125.142745972	-5.27208614349	5.72009468079	-3.11942243576
-22.912689209	-69.7676391602	123.703826904	-8.60265350342	8.4393863678	-0.943386852741
-25.8530788422	-68.0684356689	123.866035461	-11.6220188141	10.7965049744	1.02593171597
-26.9793624878	-67.4835510254	122.303482056	-13.8413467407	12.9788093567	2.56291103363
-26.2068538666	-65.7621765137	117.915802002	-15.1152029037	14.8208427429	3.4926507473
-28.1199474335	-64.3530883789	117.319900513	-15.7482357025	16.5664844513	4.021048069
-29.7077350616	-63.7291221619	117.17477417	-15.9921340942	17.9689102173	4.29264974594
-29.256942749	-62.4684295654	112.679580688	-15.7642250061	19.3842754364	4.25480461121
-27.3332366943	-61.5556411743	106.924087524	-15.3577413559	20.5375614166	4.54912853241
-25.0324077606	-61.4469528198	102.736434937	-15.1567468643	20.9626922607	4.73238420486
-22.142168045	-61.4554443359	98.9292526245	-14.7162704468	21.1680717468	4.73265743256
-16.4877414703	-61.1522369385	92.4093170166	-14.0632896423	21.5432453156	4.61390590668
-12.6586999893	-61.5936279297	89.8618011475	-13.7579593658	21.7799663544	4.23761606216
-12.1262044907	-62.8911132812	90.3778839111	-13.5746717453	21.8583984375	3.95389604568
