-69.6124420166	-85.124382019	147.639419556	8.44842529297	2.1748456955	1.63222563267
-69.8508300781	-85.2607116699	147.707260132	8.50005722046	2.10455560684	1.5189602375
-72.0757904053	-85.5333862305	149.785858154	8.52462673187	2.26267075539	1.51047170162
-67.0825271606	-85.777633667	144.537017822	8.48803806305	2.20951485634	1.50221538544
-64.1774368286	-85.769203186	141.197540283	8.32966804504	2.23772335052	1.50592243671
-49.6657142639	-86.3757476807	124.921356201	8.12384796143	2.2695081234	1.60917139053
-34.3065910339	-86.1082458496	108.22039032	7.55251455307	2.32604670525	1.84685313702
-18.8294754028	-84.4792098999	90.7939376831	6.41085529327	2.31570887566	2.24459815025
-12.1082830429	-82.2096557617	78.5878753662	3.96045899391	1.99241554737	2.85653567314
-17.6620121002	-80.5630722046	80.0532836914	0.0982922688127	1.73494827747	3.51235580444
-23.4796066284	-79.6931915283	82.6163864136	-3.3560860157	1.735242486	4.41223287582
-24.4277801514	-79.080368042	81.2633285522	-5.66227006912	2.13488769531	5.38601207733
-29.4510269165	-79.4842529297	84.6318969727	-7.53285503387	2.35988545418	5.92057323456
-32.0492858887	-79.3514251709	85.3933181763	-9.03912162781	2.43240833282	6.23551893234
-35.4648933411	-79.3101196289	87.4236984253	-10.295498848	2.44641566277	6.49906682968
-35.1049613953	-79.1408233643	86.0731964111	-11.2841234207	2.53313922882	6.70986318588
-35.137348175	-79.0633163452	85.1911849976	-12.3061408997	2.53874325752	6.88974142075
-37.7737770081	-79.274810791	87.1423492432	-13.1525268555	2.39766073227	6.98174095154
-40.521900177	-79.2874298096	89.3624191284	-13.9406557083	2.24501919746	7.02229833603
-39.9002151489	-79.6933441162	88.32787323	-14.5709199905	2.11108899117	7.10767316818
-40.0749206543	-79.8771743774	88.4615707397	-15.0610160828	1.86998152733	7.08336782455
-38.2654151917	-80.3227767944	86.3980941772	-15.3263549805	1.56197166443	6.99888944626
-38.6284103394	-80.7079467773	86.3826293945	-15.6073694229	1.26222145557	6.95566797256
-38.3941078186	-81.0355834961	85.7110443115	-16.0666332245	1.00758290291	7.05012083054
-36.7837905884	-81.1552963257	83.8899078369	-16.7556324005	0.983230829239	7.18813562393
-33.9491539001	-81.4204940796	80.2813873291	-17.6420211792	0.978620767593	7.33364439011
-38.8429260254	-81.7830886841	84.4445114136	-18.4654045105	0.87970405817	7.4862074852
-39.2210693359	-81.6620864868	83.8611602783	-18.7590522766	1.24275898933	7.37298822403
-32.8786735535	-80.7021942139	76.4368209839	-18.6062259674	1.79555022717	7.13187360764
