-49.6323165894	-5.06223964691	5.93677711487	-7.17432689667	6.98827552795	-33.7600097656
-49.5189666748	-4.96155071259	5.93500471115	-7.05167198181	7.11129522324	-33.7275047302
-49.3293380737	-4.81855821609	5.76331138611	-6.64087867737	7.10902786255	-33.0892982483
-48.5185203552	-5.01771688461	5.53074026108	-4.46814107895	7.30407857895	-31.1756038666
-45.5431938171	-5.62951993942	4.29183149338	0.102063983679	8.09149837494	-29.5775756836
-40.9549751282	-6.19105529785	3.32677173615	4.43101501465	8.70951652527	-29.2313251495
-35.3059463501	-7.14489555359	2.50737977028	7.6538233757	8.93777561188	-29.1151351929
-29.1553039551	-8.00403690338	1.66498887539	10.6803636551	8.9151058197	-28.8124141693
-22.7636470795	-8.40664672852	0.954276919365	14.1728811264	9.01362800598	-28.0905742645
-16.3623218536	-8.11709117889	0.385141849518	17.5895729065	9.27752399445	-27.1790962219
-10.8124008179	-7.96021795273	0.187113896012	20.195766449	9.7492723465	-26.0022850037
-6.08303260803	-7.61867618561	-0.659007549286	21.6965999603	10.6045665741	-24.2983665466
-2.14884233475	-6.67780590057	-2.41113686562	22.7384967804	11.8802614212	-22.9261951447
0.586045205593	-5.93277931213	-3.0640027523	23.2851867676	13.2010469437	-22.7023067474
2.56385827065	-4.31334972382	-3.85767817497	23.855512619	14.1482162476	-23.6354751587
3.73240590096	-2.19432497025	-5.73017978668	24.2785720825	14.7428951263	-24.7089004517
2.47803330421	0.997494876385	-8.9026260376	24.0274620056	15.2210998535	-25.3169879913
0.746477544308	3.39162945747	-11.3934249878	23.2478561401	15.3972959518	-25.8950233459
0.237591668963	3.26642680168	-10.0253000259	22.5245876312	15.2816591263	-26.3371562958
-1.07491672039	3.02349805832	-9.84010124207	21.7536334991	14.75461483	-26.8582935333
-1.78359496593	2.40476512909	-8.95202827454	21.0482635498	14.0350179672	-28.8330974579
-2.1521089077	1.83904707432	-8.10560321808	20.5730895996	13.0280351639	-29.6330089569
-2.78792524338	1.06767308712	-7.54345655441	21.0001335144	12.5720434189	-26.9781475067
-2.90927290916	0.121206372976	-6.42058515549	22.6549568176	12.6603603363	-22.2539730072
-2.34639644623	-0.0898368731141	-5.95851039886	24.1848659515	13.0033445358	-17.443649292
-1.79997384548	-0.222297772765	-5.48556995392	24.1840820312	13.3569927216	-13.2987089157
-1.56263995171	-0.554979801178	-5.28996086121	23.2679843903	13.513127327	-9.13768386841
-2.0213136673	-0.915526151657	-5.26430368423	21.6741504669	13.1046609879	-4.84043884277
-2.52361679077	-1.23903846741	-5.2576546669	19.746711731	12.2411966324	-0.572012424469
-2.84971499443	-1.26681172848	-5.04600524902	18.1794700623	11.4558897018	2.92465686798
-2.8485057354	-1.48411357403	-4.84189224243	17.1955280304	10.8162183762	5.2318944931
-3.17054629326	-1.73996698856	-4.72162294388	16.152973175	10.039639473	5.99934625626
-4.17416906357	-2.26270294189	-4.08594655991	14.7942152023	8.734126091	5.22758626938
-5.48314905167	-2.90919089317	-3.936398983	13.9138298035	7.02502059937	3.11378836632
-8.50510406494	-2.9892282486	-4.23627710342	13.9017839432	6.34750843048	0.928405582905
-13.5728263855	-2.25202298164	-4.51174354553	14.1736717224	6.66769742966	-0.403263926506
-18.1275177002	-2.45941638947	-3.9409725666	14.2007818222	7.51526594162	-1.52358031273
-19.9269256592	-4.20999479294	-3.52896142006	14.3276939392	8.42379283905	-2.93380236626
-19.9999427795	-5.04600334167	-4.23602628708	14.8705453873	9.05803775787	-5.1993355751
-19.5341129303	-3.46301651001	-5.92264938354	15.7071371078	9.69579696655	-7.70302057266
-19.5507602692	-0.0320557393134	-8.17759037018	16.847700119	10.986533165	-9.90243244171
-19.2224769592	0.108855910599	-9.18573570251	18.2031402588	12.1952228546	-11.7582683563
-19.4936084747	-0.545600652695	-9.46639537811	18.9876251221	12.0973339081	-14.4630899429
