-0.0870175361633	1.17770314217	-0.220842599869	-0.0618014335632	1.51335513592	-0.334280490875
-0.0882105827332	1.17753314972	-0.221698522568	-0.0630600452423	1.5132856369	-0.335200190544
-0.0895366668701	1.17755949497	-0.222576141357	-0.0642211437225	1.51311647892	-0.335827231407
-0.0908131599426	1.17749524117	-0.223317980766	-0.0659279823303	1.51265072823	-0.335752725601
-0.0921859741211	1.17774546146	-0.222691774368	-0.0680105686188	1.51278626919	-0.335425853729
-0.0954172611237	1.17734861374	-0.218860149384	-0.0695497989655	1.51390171051	-0.334985852242
-0.0997004508972	1.17550957203	-0.214325547218	-0.0703997612	1.51489162445	-0.334378242493
-0.102737903595	1.17334294319	-0.212824344635	-0.0722274780273	1.51565098763	-0.332497596741
-0.104779005051	1.17271757126	-0.213482141495	-0.0740623474121	1.51685667038	-0.330197691917
-0.1043176651	1.1727591753	-0.211510181427	-0.0752646923065	1.51839470863	-0.327987194061
-0.102873563766	1.17347919941	-0.209536552429	-0.0756635665894	1.51912713051	-0.325774669647
-0.103411197662	1.17385470867	-0.208486557007	-0.0751402378082	1.51978731155	-0.323840856552
-0.103242874146	1.17408883572	-0.207058906555	-0.074143409729	1.52073085308	-0.322517991066
-0.102470397949	1.17422270775	-0.203996539116	-0.0720918178558	1.52185761929	-0.321286559105
