-0.0502116680145	1.17009580135	-0.228905439377	-0.0110855102539	1.51698660851	-0.325396537781
-0.049503326416	1.16972565651	-0.227367997169	-0.00995969772339	1.51674091816	-0.324185848236
-0.0482234954834	1.16922974586	-0.225141525269	-0.00938177108765	1.51623642445	-0.323070287704
-0.0486168861389	1.16730368137	-0.220380783081	-0.00952219963074	1.51522362232	-0.321960926056
-0.0542392730713	1.15766131878	-0.205592870712	-0.0108480453491	1.51107430458	-0.319421768188
-0.0635573863983	1.13564610481	-0.187530636787	-0.0133347511292	1.50559973717	-0.315995931625
-0.066059589386	1.11574018002	-0.173753499985	-0.0163617134094	1.50095021725	-0.312811374664
-0.0611038208008	1.10680794716	-0.164023280144	-0.0191402435303	1.4968380928	-0.309794187546
-0.0581176280975	1.10461640358	-0.161474943161	-0.0214819908142	1.49268591404	-0.307329297066
-0.0599465370178	1.10307407379	-0.162925004959	-0.0237109661102	1.4866964817	-0.305601835251
-0.0623643398285	1.10181629658	-0.165686845779	-0.024377822876	1.47955405712	-0.302441358566
-0.0623054504395	1.10067307949	-0.166817545891	-0.0243210792542	1.47383248806	-0.299378156662
-0.0544493198395	1.10267698765	-0.164093971252	-0.0235819816589	1.47007012367	-0.297837734222
-0.0481386184692	1.1023453474	-0.161770939827	-0.0239999294281	1.46723937988	-0.298077106476
-0.0465550422668	1.1001906395	-0.162878394127	-0.0261023044586	1.46586048603	-0.299779415131
-0.0483133792877	1.09982836246	-0.166145920753	-0.0285973548889	1.46556890011	-0.30290055275
-0.0512688159943	1.10276889801	-0.168745517731	-0.030594587326	1.4662399292	-0.306601524353
-0.053962469101	1.10731244087	-0.171800613403	-0.0316343307495	1.46637094021	-0.310487747192
-0.0538129806519	1.10992193222	-0.173565030098	-0.0314257144928	1.46540510654	-0.313996553421
-0.0481369495392	1.10621273518	-0.170973658562	-0.0301671028137	1.46274638176	-0.317525148392
-0.038738489151	1.09684228897	-0.165160655975	-0.0272037982941	1.45852017403	-0.321145772934
-0.0339124202728	1.10188186169	-0.168044567108	-0.0241754055023	1.45791840553	-0.324774026871
-0.0352129936218	1.10583364964	-0.171840667725	-0.0221087932587	1.45933830738	-0.329102754593
-0.0369472503662	1.10699295998	-0.17466545105	-0.0205235481262	1.4597414732	-0.333305358887
-0.0340919494629	1.10636675358	-0.176437020302	-0.0197792053223	1.45880198479	-0.336771011353
-0.0279147624969	1.10693979263	-0.178180098534	-0.0204792022705	1.4599224329	-0.339619517326
-0.0216302871704	1.10786771774	-0.180241584778	-0.0217173099518	1.46237957478	-0.343150854111
-0.0158936977386	1.10984158516	-0.183520197868	-0.0229799747467	1.4680325985	-0.347424507141
-0.00742554664612	1.10929560661	-0.186236381531	-0.0259697437286	1.47670781612	-0.35297036171
0.00320315361023	1.10998809338	-0.188586235046	-0.0264670848846	1.47933840752	-0.357753753662
0.012526512146	1.10545742512	-0.190329551697	-0.0236325263977	1.47973418236	-0.360486030579
0.0188591480255	1.09358978271	-0.190182685852	-0.0214967727661	1.48114132881	-0.362800121307
0.0210666656494	1.09585118294	-0.193770170212	-0.0210063457489	1.47953546047	-0.363154768944
0.0229535102844	1.09556055069	-0.195879220963	-0.02108502388	1.47485649586	-0.362530708313
0.0254218578339	1.09386634827	-0.198041558266	-0.0204846858978	1.47129809856	-0.362217187881
0.0231876373291	1.0974855423	-0.19460272789	-0.0190582275391	1.46935546398	-0.362367391586
0.0240294933319	1.09403014183	-0.202014327049	-0.017174243927	1.46761822701	-0.362520694733
0.0221471786499	1.09653973579	-0.201946616173	-0.0155017375946	1.46713960171	-0.362129449844
0.0233693122864	1.09809327126	-0.201624155045	-0.014636516571	1.46710586548	-0.361433386803
0.0272781848907	1.10609734058	-0.196995973587	-0.014500617981	1.46691083908	-0.360862255096
0.0366590023041	1.12473535538	-0.190064191818	-0.0150365829468	1.46625781059	-0.361070752144
0.0457184314728	1.13782179356	-0.182474136353	-0.0161020755768	1.46453607082	-0.360633969307
0.0510768890381	1.14146947861	-0.177770972252	-0.0176107883453	1.46249985695	-0.359997272491
0.0515165328979	1.13827478886	-0.175859212875	-0.0207607746124	1.46092498302	-0.35889840126
0.0444762706757	1.13350296021	-0.17471408844	-0.0252804756165	1.46001076698	-0.357676267624
0.0402147769928	1.13413393497	-0.174166917801	-0.030131816864	1.46031844616	-0.356671214104
0.040607213974	1.1370408535	-0.172871112823	-0.035050868988	1.46196973324	-0.355321407318
0.0434486865997	1.13796627522	-0.169983625412	-0.0398755073547	1.46285927296	-0.352519512177
0.0449724197388	1.13427615166	-0.167955160141	-0.0434923171997	1.46191954613	-0.348259449005
0.0463447570801	1.12711286545	-0.165434598923	-0.0430729389191	1.45879018307	-0.342413067818
0.0504636764526	1.1200953722	-0.160055160522	-0.0370547771454	1.45303595066	-0.336245417595
