-0.363136053085	1.03158545494	-0.177530527115	-0.101464033127	1.45124864578	-0.35538482666
-0.361560583115	1.03077197075	-0.177809119225	-0.100751399994	1.45481193066	-0.356812000275
-0.357536315918	1.031935215	-0.176341176033	-0.100333213806	1.46656966209	-0.358126997948
-0.348544597626	1.03645253181	-0.169150352478	-0.095832824707	1.47831785679	-0.359890699387
-0.333317995071	1.04058265686	-0.154861211777	-0.0846462249756	1.4807626009	-0.360749602318
-0.314254760742	1.04749941826	-0.139670133591	-0.0676681995392	1.47683405876	-0.360355615616
-0.293945789337	1.06826937199	-0.130748271942	-0.0507352352142	1.47393465042	-0.359837055206
-0.272111654282	1.0851367712	-0.121616363525	-0.0358414649963	1.4743064642	-0.361634492874
-0.244779586792	1.09061467648	-0.11219227314	-0.0238065719604	1.47517597675	-0.365046262741
-0.211221456528	1.08508145809	-0.105920314789	-0.0159733295441	1.47416818142	-0.36779999733
-0.174055576324	1.07545721531	-0.100907087326	-0.0122807025909	1.47031712532	-0.368027925491
-0.1409740448	1.06885373592	-0.103797912598	-0.0116503238678	1.4668918848	-0.366469621658
-0.108579397202	1.06195652485	-0.108746767044	-0.0114190578461	1.46621453762	-0.364503979683
-0.0829980373383	1.05379271507	-0.112230300903	-0.0108609199524	1.46634662151	-0.363848924637
-0.0693616867065	1.04908299446	-0.114631175995	-0.00759315490723	1.46682059765	-0.363975167274
-0.0674068927765	1.04384016991	-0.116713285446	-0.00118327140808	1.46705007553	-0.363744258881
-0.0754289627075	1.03652882576	-0.119599819183	0.00734376907349	1.4665927887	-0.362730979919
-0.0914244651794	1.03015851974	-0.122962832451	0.0168704986572	1.46628427505	-0.361449480057
-0.112906455994	1.02371716499	-0.125344157219	0.0251026153564	1.46171617508	-0.3615629673
-0.134234428406	1.02037549019	-0.125423431396	0.0284736156464	1.45572197437	-0.36523938179
-0.154138803482	1.02911949158	-0.127522468567	0.0257163047791	1.45706450939	-0.370925426483
-0.16645693779	1.04340457916	-0.123439073563	0.01970911026	1.46021270752	-0.375358819962
-0.169560670853	1.05430173874	-0.111567020416	0.0131435394287	1.45991384983	-0.377084851265
-0.171406745911	1.0622279644	-0.102836608887	0.00734090805054	1.45520138741	-0.376700401306
-0.170372724533	1.065959692	-0.0984263420105	0.0020112991333	1.45066738129	-0.375186443329
-0.164725542068	1.06557583809	-0.0957462787628	-0.00279259681702	1.44950997829	-0.370929002762
-0.158595085144	1.06399583817	-0.0958087444305	-0.00822353363037	1.44472825527	-0.366514444351
-0.153203248978	1.06457483768	-0.0982744693756	-0.0133409500122	1.44019019604	-0.364854454994
-0.150613069534	1.06381690502	-0.10242164135	-0.0170927047729	1.43761909008	-0.367920637131
-0.146437883377	1.05793499947	-0.107249259949	-0.0180776119232	1.43298482895	-0.374951243401
-0.143860578537	1.05178689957	-0.11233317852	-0.0162205696106	1.43371117115	-0.382061481476
-0.148312568665	1.05365633965	-0.119064331055	-0.0142226219177	1.43827092648	-0.389331579208
-0.154870986938	1.06292974949	-0.126201033592	-0.0146250724792	1.44292008877	-0.396512508392
-0.157624006271	1.07022333145	-0.130734443665	-0.019291639328	1.4433195591	-0.402742981911
-0.15837931633	1.07316195965	-0.132787227631	-0.0253739356995	1.44293093681	-0.406603336334
-0.161053180695	1.0771291256	-0.136945486069	-0.0285229682922	1.44602060318	-0.410068631172
-0.162110805511	1.08027791977	-0.140783071518	-0.0326976776123	1.45368051529	-0.413085341454
-0.161619663239	1.08420872688	-0.144255399704	-0.0415334701538	1.46285152435	-0.412819266319
-0.162341356277	1.08632016182	-0.147896766663	-0.0527863502502	1.46963071823	-0.410427331924
-0.163851499557	1.08767175674	-0.149531722069	-0.0649282932281	1.47417056561	-0.407419919968
-0.165741443634	1.08799600601	-0.149369359016	-0.0766475200653	1.47682797909	-0.405554771423
-0.16953587532	1.08920073509	-0.149638772011	-0.0847206115723	1.47543501854	-0.403659343719
-0.176455020905	1.08767020702	-0.149903893471	-0.0865821838379	1.46865999699	-0.402726173401
-0.183629274368	1.08092498779	-0.148010373116	-0.0812456607819	1.45500469208	-0.402740240097
-0.190729379654	1.07769799232	-0.145211458206	-0.0743055343628	1.44383060932	-0.402483701706
