0.0	-0.0	137.405853271	-103.97290802	81.2921447754	-166.187103271
0.0	-0.0	136.822494507	-103.911422729	80.6236343384	-166.084289551
0.0	-0.0	137.731338501	-104.101921082	80.023223877	-166.071517944
0.0	-0.0	138.067367554	-100.421592712	78.9786529541	-165.857391357
0.0	-0.0	139.692504883	-92.3423919678	75.419960022	-167.114700317
0.0	-0.0	133.319259644	-82.5331344604	70.0226211548	-168.459640503
0.0	-0.0	98.6613082886	-77.0156402588	65.5254058838	-169.238723755
0.0	-0.0	75.4704666138	-74.6637039185	62.3381195068	-169.890182495
0.0	-0.0	71.6574707031	-73.1829833984	59.3915634155	-170.101409912
0.0	-0.0	71.5227584839	-72.347038269	57.3012542725	-171.039962769
0.0	-0.0	74.0840606689	-71.7538223267	55.7890472412	-172.09487915
0.0	-0.0	73.7272491455	-71.7800598145	54.6409454346	-172.244598389
0.0	-0.0	72.8979415894	-72.7314453125	53.9156150818	-172.484054565
0.0	-0.0	76.224281311	-72.4540100098	53.2380561829	-172.875152588
0.0	-0.0	80.3955001831	-71.8567504883	51.5307693481	-173.276504517
0.0	-0.0	83.8711624146	-71.8839874268	50.4828262329	-173.474761963
0.0	-0.0	88.5288238525	-71.3854370117	49.2787857056	-173.952911377
0.0	-0.0	91.0083389282	-70.6840438843	46.935344696	-175.260787964
