0.0	-0.0	138.874420166	-112.022605896	79.6555480957	176.398010254
0.0	-0.0	138.551864624	-111.721801758	79.977104187	176.227737427
0.0	-0.0	138.815689087	-111.731002808	80.6820449829	176.200363159
0.0	-0.0	139.100250244	-112.091300964	80.9887313843	176.612243652
0.0	-0.0	135.207977295	-114.192214966	79.8694992065	178.699157715
0.0	-0.0	122.841117859	-119.936065674	78.6261901855	-177.411178589
0.0	-0.0	103.265327454	-129.267440796	78.9645080566	-173.023864746
0.0	-0.0	91.0151367188	-140.161148071	79.3281555176	-169.573699951
0.0	-0.0	80.5684356689	-151.397109985	78.7128677368	-167.156967163
0.0	-0.0	75.1308441162	-162.178710938	77.8953704834	-165.010772705
0.0	-0.0	75.2113265991	-172.925827026	76.4826507568	-163.18800354
0.0	-0.0	74.8181915283	177.1771698	74.9365615845	-162.186126709
0.0	-0.0	75.0043411255	171.271148682	75.062171936	-161.614151001
0.0	-0.0	75.8447875977	169.325790405	76.7101211548	-161.546066284
0.0	-0.0	77.0855484009	169.114715576	80.0777130127	-161.607162476
