0.0	-0.0	128.646286011	-120.145271301	87.1114501953	170.212387085
0.0	-0.0	126.698997498	-120.059028625	87.0238571167	170.029006958
0.0	-0.0	125.676765442	-119.951568604	86.2803039551	170.355880737
0.0	-0.0	114.497848511	-120.128051758	85.3869400024	171.414901733
0.0	-0.0	97.8644638062	-117.79649353	88.5159301758	171.930786133
0.0	-0.0	77.1663131714	66.7117462158	83.580947876	-9.09571456909
0.0	-0.0	72.4523391724	71.2965698242	73.0639801025	-10.596446991
0.0	-0.0	78.1657180786	73.1243515015	61.846446991	-12.359752655
0.0	-0.0	80.8022460938	72.4057159424	55.6070175171	-12.5577545166
0.0	-0.0	83.6467895508	72.8983688354	50.1215057373	-12.7280359268
0.0	-0.0	87.3590087891	74.0760955811	44.4941558838	-13.6550703049
0.0	-0.0	92.0028991699	73.4762954712	41.1730117798	-13.5863628387
0.0	-0.0	91.8320007324	73.1799087524	40.5085945129	-13.6012010574
0.0	-0.0	88.081817627	74.2411422729	41.2418785095	-13.5818986893
0.0	-0.0	84.9583511353	75.4672164917	40.3248100281	-14.0353450775
0.0	-0.0	77.4910736084	75.5853729248	37.0150375366	-14.7679300308
