-0.0361924171448	1.08898794651	-0.0582121610641	-0.135246515274	1.46561598778	-0.24587893486
-0.0344536304474	1.08976554871	-0.0569225549698	-0.134603977203	1.46598577499	-0.244263887405
-0.036717414856	1.09004116058	-0.0572183132172	-0.135278701782	1.46852827072	-0.244360208511
-0.0418241024017	1.09597909451	-0.0653324127197	-0.14103102684	1.47699439526	-0.249123811722
-0.0573353767395	1.09904658794	-0.0775294303894	-0.152049064636	1.48843562603	-0.25660598278
-0.0735862255096	1.10497558117	-0.0912697315216	-0.165005207062	1.49792420864	-0.264522075653
-0.0857884883881	1.11206352711	-0.103281140327	-0.17409658432	1.50176906586	-0.269690036774
-0.0832417011261	1.1212605238	-0.107194662094	-0.173634052277	1.49692153931	-0.269930720329
-0.0549111366272	1.14279818535	-0.101010560989	-0.166538953781	1.49101746082	-0.268816947937
-0.0376145839691	1.14976322651	-0.0946497917175	-0.160042285919	1.48889946938	-0.267594337463
-0.0344889163971	1.14816248417	-0.090257525444	-0.155746459961	1.48765075207	-0.265767097473
-0.0336244106293	1.13826906681	-0.0817294120789	-0.154062747955	1.48504757881	-0.263359308243
-0.03102684021	1.11510574818	-0.0661427974701	-0.150237560272	1.48071694374	-0.261368513107
-0.0419549942017	1.11083209515	-0.0601850748062	-0.144743919373	1.47661530972	-0.260855913162
-0.0549638271332	1.13223063946	-0.0681546926498	-0.141501426697	1.47703766823	-0.260539054871
-0.0623061656952	1.13652276993	-0.0696637630463	-0.139651298523	1.47845637798	-0.261107444763
-0.0641593933105	1.13743340969	-0.0675210952759	-0.136730909348	1.4779984951	-0.262725830078
-0.0719356536865	1.14290201664	-0.0674779415131	-0.132929086685	1.4762057066	-0.264330148697
-0.0793535709381	1.15644562244	-0.0749264955521	-0.129615068436	1.47438800335	-0.265577077866
-0.0821001529694	1.16876363754	-0.0852146148682	-0.127458333969	1.47364747524	-0.26716196537
-0.0829548835754	1.16177296638	-0.083797454834	-0.1269094944	1.47341299057	-0.269234418869
-0.062620639801	1.15975749493	-0.0786062479019	-0.127427339554	1.47378611565	-0.271767854691
-0.0552513599396	1.16455233097	-0.0820763111115	-0.128186225891	1.47445547581	-0.273728609085
-0.0586342811584	1.16789186001	-0.0882065296173	-0.12860751152	1.47521996498	-0.275834798813
-0.062638759613	1.1714451313	-0.093376159668	-0.128827810287	1.47600018978	-0.277504205704
-0.069183588028	1.17786216736	-0.0990346670151	-0.128497123718	1.47702765465	-0.278720378876
-0.0751128196716	1.18405127525	-0.1040995121	-0.128101587296	1.47769248486	-0.279472112656
-0.0821352005005	1.19053959846	-0.110294103622	-0.127078771591	1.47755527496	-0.279146194458
-0.0868310928345	1.19741404057	-0.116246700287	-0.125025272369	1.47595131397	-0.27770781517
-0.0804436206818	1.20556795597	-0.123006820679	-0.121833562851	1.47438955307	-0.27540409565
-0.0577192306519	1.20680356026	-0.116849064827	-0.118220806122	1.47379493713	-0.273489952087
-0.0307412147522	1.20773911476	-0.11701965332	-0.11443400383	1.47391974926	-0.272245407104
-0.0435378551483	1.19748234749	-0.114500880241	-0.110623836517	1.4746465683	-0.271732449532
-0.0357127189636	1.19776022434	-0.116619110107	-0.105698108673	1.47364342213	-0.269453763962
-0.0337872505188	1.20265483856	-0.120639324188	-0.0975179672241	1.47056758404	-0.264409780502
-0.0333466529846	1.20280253887	-0.118908882141	-0.0858483314514	1.46906852722	-0.258940696716
-0.0295252799988	1.20081174374	-0.114094734192	-0.0725302696228	1.47006416321	-0.253709077835
-0.0253677368164	1.19947826862	-0.110538482666	-0.0595474243164	1.47161900997	-0.249553918839
-0.0202012062073	1.199670434	-0.106065273285	-0.0494246482849	1.47298502922	-0.246329069138
-0.0166213512421	1.20104014874	-0.102536201477	-0.0425670146942	1.47543561459	-0.24384355545
-0.0157413482666	1.20203721523	-0.100252866745	-0.0377943515778	1.47975420952	-0.241050720215
-0.0123407840729	1.20388329029	-0.0966763496399	-0.0343804359436	1.48350596428	-0.239149332047
-0.00950384140015	1.20644390583	-0.0952948331833	-0.031378030777	1.48316526413	-0.236996173859
-0.00809717178345	1.20683085918	-0.0945837497711	-0.0283088684082	1.47699916363	-0.232608556747
-0.00551342964172	1.20232069492	-0.0941619873047	-0.0247776508331	1.47040343285	-0.227841496468
-0.00306224822998	1.19700932503	-0.0947239398956	-0.022763967514	1.46887540817	-0.224730849266
0.00456953048706	1.19713771343	-0.093291759491	-0.0230271816254	1.46842801571	-0.223551273346
0.0290882587433	1.2017210722	-0.0922392606735	-0.0252575874329	1.46926057339	-0.224258422852
0.0620021820068	1.19484305382	-0.0827503204346	-0.0283401012421	1.47070372105	-0.226664304733
0.0803904533386	1.1858164072	-0.0743374824524	-0.0314128398895	1.47157716751	-0.22879576683
0.089010477066	1.18174505234	-0.0712380409241	-0.0339512825012	1.47238314152	-0.230757713318
0.0879545211792	1.18398690224	-0.0716148614883	-0.0358340740204	1.47295999527	-0.232688426971
0.0836133956909	1.18589866161	-0.0708302259445	-0.0366337299347	1.47320592403	-0.234958767891
0.0777549743652	1.19113624096	-0.0730806589127	-0.0374743938446	1.47287511826	-0.236944198608
0.053950548172	1.21230101585	-0.0878429412842	-0.0380322933197	1.47260451317	-0.238629460335
0.017680644989	1.2324616909	-0.113147497177	-0.0387091636658	1.47282111645	-0.239844918251
-0.0175573825836	1.24124157429	-0.133614301682	-0.0396773815155	1.47360551357	-0.241143941879
-0.0353646278381	1.24861395359	-0.148260951042	-0.0405192375183	1.47470736504	-0.242390394211
-0.0534586906433	1.24714124203	-0.162662744522	-0.0418879985809	1.475943923	-0.24449300766
-0.0539031028748	1.24516987801	-0.164488792419	-0.0443892478943	1.47781896591	-0.246544122696
-0.0266928672791	1.24951970577	-0.147440433502	-0.0477590560913	1.47962117195	-0.248314857483
0.00455784797668	1.24532091618	-0.126212716103	-0.0509805679321	1.4813169241	-0.24957716465
0.0293452739716	1.23349225521	-0.104149341583	-0.0534424781799	1.48193824291	-0.250036001205
0.0418119430542	1.22153604031	-0.0905106067657	-0.0550465583801	1.48231554031	-0.250153541565
0.0461096763611	1.20879662037	-0.0792320966721	-0.0558850765228	1.48357260227	-0.250784873962
0.0513389110565	1.19073617458	-0.0653518438339	-0.0558023452759	1.48504269123	-0.251139640808
0.0543088912964	1.16845202446	-0.0514318943024	-0.055379152298	1.48520946503	-0.251800775528
0.0607235431671	1.14011788368	-0.0365216732025	-0.0553817749023	1.48495900631	-0.252289533615
0.0526647567749	1.1127833128	-0.0175044536591	-0.0562677383423	1.48565804958	-0.252904415131
0.0295684337616	1.10258042812	-0.00845611095428	-0.0584313869476	1.48657536507	-0.253905773163
-0.00581979751587	1.12446177006	-0.0159755945206	-0.0619823932648	1.48758637905	-0.255947589874
-0.057327747345	1.15536928177	-0.0372095108032	-0.066951751709	1.488910079	-0.260047912598
-0.113926410675	1.17214930058	-0.0698280334473	-0.0728731155396	1.48997056484	-0.266473174095
-0.145625352859	1.17613244057	-0.0926632881165	-0.0790979862213	1.49057745934	-0.273741722107
-0.1518201828	1.19049406052	-0.104913473129	-0.0853204727173	1.49097466469	-0.280057907104
-0.151416540146	1.20257663727	-0.11636698246	-0.0898456573486	1.49199461937	-0.285129666328
-0.147719860077	1.21330046654	-0.125112533569	-0.0929145812988	1.49204659462	-0.289116859436
-0.144434452057	1.22483289242	-0.137986421585	-0.0940635204315	1.49115800858	-0.292649030685
-0.143065452576	1.23799395561	-0.153870582581	-0.0939807891846	1.48931801319	-0.296023368835
-0.13873052597	1.25336754322	-0.171073198318	-0.0927250385284	1.48840296268	-0.299342870712
-0.131418704987	1.26621723175	-0.184013366699	-0.0917458534241	1.48854446411	-0.301841020584
-0.125022649765	1.27138483524	-0.192000865936	-0.0912010669708	1.48860907555	-0.304063796997
-0.114060163498	1.27457034588	-0.188403248787	-0.0905196666718	1.48934280872	-0.306334495544
-0.100650548935	1.27761030197	-0.181326389313	-0.0898115634918	1.4896928072	-0.30770277977
-0.0882384777069	1.28220462799	-0.182168245316	-0.088675737381	1.48984670639	-0.307719707489
-0.0797023773193	1.28856539726	-0.188083171844	-0.0869662761688	1.4900803566	-0.307336330414
-0.0729780197144	1.29474186897	-0.195802569389	-0.0850145816803	1.49083352089	-0.307783961296
-0.0611674785614	1.30124092102	-0.202798843384	-0.0831849575043	1.49196350574	-0.308736085892
-0.0488522052765	1.30308055878	-0.19664144516	-0.0820543766022	1.49264788628	-0.310098648071
-0.0309607982635	1.30576753616	-0.190739870071	-0.0813980102539	1.4932115078	-0.311078190804
-0.0154776573181	1.31007623672	-0.193349599838	-0.08131980896	1.49377202988	-0.310998439789
-0.00230979919434	1.31357192993	-0.196699023247	-0.0832104682922	1.49495148659	-0.31108546257
0.0189635753632	1.31708753109	-0.192358255386	-0.0851230621338	1.495226264	-0.311609148979
0.0517334938049	1.31528222561	-0.173858880997	-0.0844638347626	1.49423861504	-0.312178850174
0.0821120738983	1.30542778969	-0.15477013588	-0.0812439918518	1.4932179451	-0.312062978745
0.110751628876	1.28966200352	-0.130064487457	-0.0764982700348	1.49257862568	-0.310875654221
0.143862009048	1.26486063004	-0.102635860443	-0.0701341629028	1.49181306362	-0.309193253517
0.170381546021	1.23395574093	-0.0773572921753	-0.0631999969482	1.49035894871	-0.308077931404
0.181980848312	1.20654928684	-0.0632283687592	-0.0569202899933	1.48931598663	-0.306575059891
0.168687343597	1.20720410347	-0.0660824775696	-0.0528726577759	1.48897755146	-0.305010318756
0.156411170959	1.21017932892	-0.0699574947357	-0.0513536930084	1.48855853081	-0.305479049683
0.156808853149	1.20679247379	-0.0732870101929	-0.0502617359161	1.48955667019	-0.30724978447
0.156774759293	1.20731556416	-0.0787706375122	-0.0491786003113	1.4901279211	-0.309259653091
0.151545763016	1.21428394318	-0.088714838028	-0.0471382141113	1.49047791958	-0.309943914413
0.132903575897	1.22766232491	-0.10031580925	-0.0440196990967	1.49099075794	-0.309191584587
0.113594055176	1.23069536686	-0.0977481603622	-0.0401880741119	1.49078416824	-0.308219671249
0.11395406723	1.22257304192	-0.0905995368958	-0.0364451408386	1.49504685402	-0.307250976562
0.116924524307	1.21485996246	-0.0803282260895	-0.0342264175415	1.50231707096	-0.30874311924
0.109770059586	1.21972954273	-0.0812501907349	-0.0338361263275	1.50746428967	-0.312413454056
0.104589223862	1.22775530815	-0.0879724025726	-0.0336399078369	1.50767314434	-0.316393256187
0.108035326004	1.22299849987	-0.0883255004883	-0.0332269668579	1.4991389513	-0.31793653965
0.127409934998	1.20084321499	-0.080465555191	-0.0327460765839	1.48180341721	-0.316362500191
0.151355028152	1.16189050674	-0.0680661201477	-0.0310137271881	1.46437966824	-0.312248706818
0.149093389511	1.1525785923	-0.0686317682266	-0.026376247406	1.45682394505	-0.306330680847
0.131353378296	1.16308581829	-0.0738904476166	-0.0213878154755	1.45754623413	-0.299374461174
0.107898235321	1.18770861626	-0.0846109390259	-0.0191087722778	1.46395337582	-0.292095303535
0.0957980155945	1.20819783211	-0.0936621427536	-0.0194756984711	1.47278690338	-0.287355184555
0.0946304798126	1.22368121147	-0.101767301559	-0.0178260803223	1.48203134537	-0.285996198654
0.0881791114807	1.23723602295	-0.110756874084	-0.0136597156525	1.49013209343	-0.285797119141
0.0674955844879	1.24839627743	-0.119888067245	-0.0125391483307	1.49133253098	-0.284137964249
0.0445699691772	1.24548017979	-0.117391109467	-0.0124244689941	1.48673892021	-0.279169797897
0.0418446063995	1.23262488842	-0.103897094727	-0.0132870674133	1.48310625553	-0.272738218307
0.0668573379517	1.22555696964	-0.0937935113907	-0.0173027515411	1.48173642159	-0.265758514404
0.0962522029877	1.21536362171	-0.0815172195435	-0.0285754203796	1.48179090023	-0.258912444115
0.125353336334	1.19471895695	-0.0648279190063	-0.0460832118988	1.483715415	-0.253877639771
0.145075559616	1.16255354881	-0.0432614088058	-0.0637128353119	1.48396682739	-0.251420497894
0.142816781998	1.1469925642	-0.0296528339386	-0.0769376754761	1.48283028603	-0.24757361412
0.124929428101	1.15125501156	-0.0241682529449	-0.0833120346069	1.47900116444	-0.242232561111
0.103627443314	1.15700757504	-0.0169680118561	-0.0843760967255	1.47387456894	-0.235983133316
0.0828235149384	1.16564238071	-0.0144274234772	-0.0824782848358	1.46993911266	-0.231904387474
0.0666275024414	1.17639422417	-0.0180900096893	-0.0795221328735	1.46685183048	-0.231312274933
0.0625901222229	1.18570744991	-0.0273380279541	-0.0773558616638	1.46597099304	-0.233383774757
0.0673506259918	1.19196820259	-0.0362603664398	-0.0757985115051	1.46543645859	-0.236904501915
0.0692610740662	1.19785928726	-0.046422123909	-0.0732650756836	1.46567690372	-0.241590380669
0.0696949958801	1.20127999783	-0.0598853826523	-0.0699515342712	1.46561729908	-0.247006416321
0.072329044342	1.2042722702	-0.0735521316528	-0.0653877258301	1.46523964405	-0.25070476532
0.0787229537964	1.20698475838	-0.0813144445419	-0.060512304306	1.46609902382	-0.253346681595
0.0821444988251	1.20920908451	-0.0885226726532	-0.0536499023438	1.46558952332	-0.2540371418
0.0892970561981	1.20375025272	-0.0862221717834	-0.0439343452454	1.46094584465	-0.25041282177
0.10626578331	1.18569254875	-0.0684206485748	-0.037163734436	1.45454919338	-0.242974758148
0.123288631439	1.14702761173	-0.0181570053101	-0.034961938858	1.45243501663	-0.23341178894
0.101204872131	1.09157466888	0.0450139045715	-0.034291267395	1.45318949223	-0.224896073341
0.0657479763031	1.10417187214	0.0688283443451	-0.0328929424286	1.45415866375	-0.217649579048
0.0167417526245	1.14471268654	0.0739487409592	-0.0297284126282	1.45378160477	-0.212008714676
-0.0455350875854	1.18434429169	0.055472612381	-0.0247783660889	1.45205843449	-0.208371162415
-0.0994732379913	1.17577528954	0.0390548706055	-0.0180521011353	1.45093333721	-0.206997871399
-0.0775632858276	1.18263268471	0.0370315313339	-0.0116939544678	1.45095813274	-0.207445144653
-0.0523023605347	1.19379270077	0.025407075882	-0.00621032714844	1.45067679882	-0.208283185959
-0.0285751819611	1.20825064182	0.00773119926453	-0.00225925445557	1.45063078403	-0.211290597916
-0.00512313842773	1.22591638565	-0.0141520500183	0.000892162322998	1.45234274864	-0.216522574425
0.00854897499084	1.24158799648	-0.0398774147034	0.00288987159729	1.45711576939	-0.225216388702
0.0147311687469	1.25299179554	-0.0622968673706	0.00187230110168	1.46563005447	-0.238560080528
0.0188591480255	1.26301038265	-0.082537651062	-0.00372719764709	1.47665560246	-0.256396889687
0.0219178199768	1.26956439018	-0.0987538099289	-0.0141024589539	1.48933970928	-0.275860071182
0.0202276706696	1.27285957336	-0.115223169327	-0.0279779434204	1.49920916557	-0.294947743416
0.0143692493439	1.27536475658	-0.134289622307	-0.0428853034973	1.50425922871	-0.310256123543
0.00549745559692	1.2743999958	-0.145978927612	-0.0548696517944	1.50655174255	-0.321027755737
0.000713109970093	1.27491557598	-0.155100107193	-0.0600664615631	1.50962996483	-0.327055096626
-0.00154972076416	1.27622151375	-0.168560266495	-0.0569400787354	1.50902724266	-0.330653905869
-0.00455546379089	1.27663826942	-0.184500336647	-0.044862985611	1.50353777409	-0.330483555794
-0.00242376327515	1.27236998081	-0.194636583328	-0.0290231704712	1.49357008934	-0.324676632881
0.0206713676453	1.26520121098	-0.18792617321	-0.0130801200867	1.48439228535	-0.312853455544
0.0654425621033	1.2505812645	-0.163118600845	0.000772953033447	1.47153055668	-0.295992851257
0.114513874054	1.22461104393	-0.126264929771	0.00872254371643	1.46123623848	-0.278389215469
0.137726783752	1.18032705784	-0.066780090332	0.00938701629639	1.45975041389	-0.265027761459
0.116856575012	1.14199566841	-0.0201263427734	0.0026650428772	1.46435964108	-0.259855389595
0.0880379676819	1.15032148361	-0.0137846469879	-0.00735759735107	1.47063302994	-0.260692834854
0.0529325008392	1.17030239105	-0.017256975174	-0.0147151947021	1.47457504272	-0.262543320656
0.0243678092957	1.19069385529	-0.0288953781128	-0.0185973644257	1.47330057621	-0.2614402771
0.0109822750092	1.20943689346	-0.0452606678009	-0.0195121765137	1.47121191025	-0.25687623024
0.0170810222626	1.2324334383	-0.0669591426849	-0.0162000656128	1.46650731564	-0.245798707008
0.0312049388885	1.24665570259	-0.0879372358322	-0.00857520103455	1.46243226528	-0.23122549057
0.0447471141815	1.24583148956	-0.096962928772	0.000537633895874	1.46472871304	-0.220488786697
0.0506973266602	1.23935735226	-0.0985972881317	0.00676298141479	1.46776366234	-0.215298295021
0.0520262718201	1.23563766479	-0.0991010665894	0.00723743438721	1.46949720383	-0.214670300484
0.0463902950287	1.2394105196	-0.10532450676	0.00334239006042	1.4747389555	-0.219685792923
0.03577876091	1.24502682686	-0.112526655197	-0.00275897979736	1.48903846741	-0.231732964516
0.0282661914825	1.25181496143	-0.118068218231	-0.0092191696167	1.50618970394	-0.248646974564
0.0268194675446	1.26231384277	-0.126705884933	-0.0149435997009	1.5173624754	-0.266446352005
0.0250823497772	1.27434170246	-0.137387275696	-0.0186257362366	1.52240347862	-0.279718756676
0.0239841938019	1.2818198204	-0.148702144623	-0.01979637146	1.52202379704	-0.286453604698
0.0258526802063	1.28237724304	-0.151517152786	-0.0170478820801	1.51825225353	-0.285719156265
0.0317816734314	1.27895271778	-0.149855613708	-0.0111305713654	1.51222884655	-0.281284570694
0.038257598877	1.27449381351	-0.149869322777	-0.00255012512207	1.50515627861	-0.274703383446
0.050085067749	1.26575279236	-0.145632982254	0.00492143630981	1.49846887589	-0.268514513969
0.0699977874756	1.25448453426	-0.134893655777	0.00915908813477	1.4956151247	-0.264275312424
0.100116252899	1.24552559853	-0.130292892456	0.00960922241211	1.49544870853	-0.262215971947
0.132643461227	1.24154496193	-0.134182333946	0.00767946243286	1.49670422077	-0.261718034744
0.158752441406	1.23943591118	-0.13160610199	0.00446939468384	1.4995675087	-0.263061285019
0.169251441956	1.23329794407	-0.124330163002	0.00192403793335	1.50250947475	-0.266556501389
0.17697262764	1.22409176826	-0.115865945816	9.46521759033e-05	1.50437319279	-0.27038371563
0.191992282867	1.20642340183	-0.10089802742	-0.00250434875488	1.50571739674	-0.273444414139
0.201653957367	1.17691266537	-0.0598194599152	-0.00673627853394	1.5064176321	-0.275947570801
0.163759946823	1.16286957264	-0.00436806678772	-0.011887550354	1.5070348978	-0.278190255165
0.103468894958	1.16467928886	0.0191056728363	-0.0169987678528	1.50696647167	-0.279316544533
0.0459411144257	1.18365728855	0.0165193080902	-0.0214476585388	1.50627779961	-0.280341744423
-0.0015013217926	1.20167958736	0.00779390335083	-0.0257029533386	1.50567913055	-0.281186580658
-0.030597448349	1.21175003052	-0.00245833396912	-0.0289595127106	1.50455832481	-0.281429767609
-0.0508663654327	1.21413326263	-0.0110328197479	-0.0310120582581	1.503215909	-0.280422210693
-0.0547690391541	1.21927440166	-0.0164349079132	-0.0327150821686	1.50274348259	-0.279366970062
-0.0368535518646	1.21918153763	-0.0103939771652	-0.0327258110046	1.50156474113	-0.277921199799
-0.00574088096619	1.22109746933	-0.0094358921051	-0.0308001041412	1.49799239635	-0.273965120316
0.0192921161652	1.23094964027	-0.0216012001038	-0.0266978740692	1.50289487839	-0.270670175552
0.0339648723602	1.24180603027	-0.0340352058411	-0.0227344036102	1.51139676571	-0.271951079369
0.0366895198822	1.2526923418	-0.0412323474884	-0.021913766861	1.51968955994	-0.277070999146
0.0328192710876	1.26446330547	-0.050580739975	-0.0242936611176	1.52474021912	-0.283004164696
0.0192627906799	1.27934193611	-0.0706214904785	-0.0285775661469	1.52727603912	-0.287552952766
0.00539803504944	1.28584039211	-0.0889942646027	-0.0324172973633	1.52686560154	-0.289060354233
-0.00131559371948	1.2827231884	-0.097282409668	-0.0354928970337	1.52475202084	-0.288303494453
0.0149018764496	1.27949440479	-0.0963995456696	-0.0381672382355	1.52156484127	-0.286323547363
0.0381529331207	1.27474808693	-0.0894371271133	-0.0406038761139	1.51805949211	-0.283220767975
0.0473055839539	1.26536560059	-0.0748165845871	-0.043625831604	1.51479148865	-0.280272960663
0.0602889060974	1.25646817684	-0.0660631656647	-0.0476651191711	1.51178634167	-0.278062820435
0.0773866176605	1.25116407871	-0.0661486387253	-0.0519902706146	1.50894463062	-0.276710510254
0.0821251869202	1.2446013689	-0.0677565336227	-0.0555784702301	1.50545275211	-0.276180267334
0.0790076255798	1.23868989944	-0.0717889070511	-0.0577363967896	1.50154471397	-0.275512218475
0.0789713859558	1.23165118694	-0.0746445655823	-0.0582873821259	1.49775874615	-0.275580406189
0.0868360996246	1.22095870972	-0.0759596824646	-0.0586757659912	1.49457418919	-0.276139259338
0.0997214317322	1.20909500122	-0.0734797716141	-0.0595426559448	1.49290299416	-0.275036096573
0.105792760849	1.19691085815	-0.0722297430038	-0.0623981952667	1.49045240879	-0.273457765579
0.105288028717	1.17916369438	-0.0688360929489	-0.0660948753357	1.48799955845	-0.271055936813
0.102900505066	1.16327321529	-0.0660047531128	-0.0719294548035	1.48612225056	-0.267898797989
0.0934925079346	1.15322804451	-0.061466217041	-0.0771474838257	1.48479402065	-0.265275597572
0.0814192295074	1.15348744392	-0.0568051338196	-0.0806567668915	1.48503053188	-0.264249324799
0.0646889209747	1.15867853165	-0.0554602146149	-0.0853221416473	1.48709464073	-0.265262365341
0.045553445816	1.16009247303	-0.050320148468	-0.0919358730316	1.49005055428	-0.267824411392
0.0337541103363	1.16091358662	-0.0495150089264	-0.0986914634705	1.49300432205	-0.271106123924
0.0149822235107	1.15607845783	-0.0478746891022	-0.103926420212	1.49489760399	-0.274194717407
-0.00576686859131	1.15833866596	-0.0510084629059	-0.106952667236	1.49523842335	-0.276165962219
-0.0125651359558	1.16863203049	-0.0551779270172	-0.108062982559	1.49357295036	-0.276559114456
-0.00976753234863	1.18345820904	-0.0626522302628	-0.105555534363	1.48987770081	-0.275306940079
0.000130414962769	1.1980997324	-0.0727806091309	-0.0979607105255	1.48347294331	-0.273892641068
0.00442409515381	1.20930528641	-0.0828087329865	-0.0871274471283	1.47672379017	-0.27299785614
0.00580477714539	1.2169084549	-0.0930023193359	-0.0782339572906	1.47356963158	-0.272983074188
0.00729370117188	1.22499227524	-0.10518860817	-0.0723283290863	1.47077155113	-0.272912502289
0.010507106781	1.23168206215	-0.113061666489	-0.0691723823547	1.46820449829	-0.274026274681
0.0453336238861	1.22715389729	-0.100733280182	-0.0695900917053	1.4692350626	-0.276827931404
0.101672172546	1.19974946976	-0.0844334363937	-0.0723187923431	1.47277760506	-0.280186891556
0.139556407928	1.14902436733	-0.0540038347244	-0.0750775337219	1.47597563267	-0.28379714489
0.117289543152	1.09948575497	0.000968456268311	-0.0765829086304	1.47777593136	-0.287545681
0.0823855400085	1.12713801861	0.00542008876801	-0.0763778686523	1.47905027866	-0.29012799263
0.0301456451416	1.14387774467	0.015775680542	-0.0756771564484	1.47897779942	-0.291179418564
-0.0285730361938	1.16525363922	0.0148208141327	-0.0744352340698	1.4789031744	-0.293325662613
-0.0860602855682	1.18771493435	-0.00545561313629	-0.0741517543793	1.47944879532	-0.295129776001
-0.113228797913	1.19651508331	-0.0187480449677	-0.0756182670593	1.48036265373	-0.296411752701
-0.104152679443	1.19713842869	-0.0129590034485	-0.0783822536469	1.48175680637	-0.297911882401
-0.0872406959534	1.2041554451	-0.0143070220947	-0.081404209137	1.48294138908	-0.299376487732
-0.068489074707	1.21276438236	-0.019522190094	-0.0831871032715	1.48398339748	-0.301253795624
-0.0517361164093	1.21934711933	-0.0247566699982	-0.0834889411926	1.48440229893	-0.303067088127
-0.039922952652	1.22690045834	-0.033971786499	-0.0824608802795	1.48388719559	-0.304475307465
-0.0348238945007	1.23210048676	-0.0435400009155	-0.0809051990509	1.4832752943	-0.305357217789
-0.017151594162	1.22511768341	-0.0407481193542	-0.080206155777	1.48324918747	-0.306240797043
0.0247147083282	1.22020280361	-0.0349504947662	-0.0804083347321	1.48416137695	-0.306691884995
0.0422251224518	1.22199952602	-0.0381325483322	-0.0804255008698	1.4843146801	-0.306617975235
0.0402779579163	1.22475969791	-0.0431342124939	-0.0795364379883	1.48339724541	-0.306490421295
0.0326006412506	1.22624456882	-0.0455646514893	-0.0773818492889	1.4821267128	-0.306173563004
0.0230836868286	1.23002326488	-0.0519275665283	-0.0737242698669	1.48020970821	-0.303135871887
0.0044105052948	1.23724496365	-0.0647102594376	-0.0664870738983	1.47775554657	-0.296831250191
-0.0124502182007	1.24088943005	-0.0727335214615	-0.058130979538	1.47487878799	-0.291192531586
-0.018611907959	1.24037063122	-0.0716450214386	-0.0518426895142	1.47287094593	-0.287978768349
-0.0122549533844	1.23893010616	-0.0646152496338	-0.0508768558502	1.47302353382	-0.286722779274
-0.00918054580688	1.2431769371	-0.0659590959549	-0.0528349876404	1.47647762299	-0.284932613373
-0.00918769836426	1.24920487404	-0.0696630477905	-0.0543258190155	1.47977244854	-0.282826900482
-0.0113878250122	1.25675094128	-0.0769721269608	-0.0524361133575	1.4799503088	-0.278373241425
-0.0150327682495	1.26314020157	-0.088401556015	-0.046373128891	1.47709715366	-0.26806974411
-0.0193750858307	1.26584661007	-0.0993396043777	-0.0375735759735	1.47126400471	-0.252990722656
-0.0217888355255	1.26345920563	-0.103052020073	-0.0275628566742	1.46545493603	-0.236288070679
-0.0202164649963	1.25679266453	-0.0948086977005	-0.0187249183655	1.46173667908	-0.222912311554
-0.0112380981445	1.24915981293	-0.086415886879	-0.0136909484863	1.46103978157	-0.215357303619
0.0155580043793	1.244358778	-0.0843348503113	-0.012683391571	1.46347939968	-0.212026715279
0.062283039093	1.23805677891	-0.0745301246643	-0.0143647193909	1.46879041195	-0.211895108223
0.125088214874	1.227191329	-0.0699334144592	-0.0185704231262	1.47593581676	-0.214471101761
0.177995920181	1.20733201504	-0.0647933483124	-0.0253298282623	1.48290288448	-0.220227956772
0.206602811813	1.18155193329	-0.0547995567322	-0.0331647396088	1.48793816566	-0.228900909424
0.204015016556	1.15873217583	-0.0293630361557	-0.0394055843353	1.489174366	-0.237597942352
0.163385868073	1.14325082302	-0.00114631652832	-0.0447828769684	1.49320113659	-0.245223522186
0.103125572205	1.15584135056	0.00424790382385	-0.0510694980621	1.49769234657	-0.251703739166
0.0297400951385	1.18371200562	-0.0153450965881	-0.0602509975433	1.50230228901	-0.258087396622
-0.0170083045959	1.21727764606	-0.0496656894684	-0.069860458374	1.50445771217	-0.263638973236
-0.028094291687	1.24380373955	-0.0731064081192	-0.0754380226135	1.50399148464	-0.2669506073
-0.0168216228485	1.26637816429	-0.0965871810913	-0.0731580257416	1.50431525707	-0.268575191498
-0.00641775131226	1.27782964706	-0.123697519302	-0.0645213127136	1.50643157959	-0.269642472267
0.00929832458496	1.28120398521	-0.146221399307	-0.0543835163116	1.50488376617	-0.269218921661
0.0225689411163	1.28217756748	-0.166768074036	-0.0429351329803	1.4998652935	-0.265222549438
0.0282063484192	1.29012537003	-0.191402196884	-0.0325903892517	1.49217164516	-0.26202249527
0.0292191505432	1.29705286026	-0.20962369442	-0.0272395610809	1.48920118809	-0.264161586761
0.0357298851013	1.29482674599	-0.198234319687	-0.0288715362549	1.48961627483	-0.273798704147
0.0503790378571	1.29217660427	-0.191178798676	-0.0364084243774	1.4921040535	-0.286319732666
0.0537798404694	1.29230046272	-0.190724611282	-0.0472905635834	1.49268758297	-0.297255754471
0.0464217662811	1.29350554943	-0.193601608276	-0.0580687522888	1.49214029312	-0.305643677711
0.0424244403839	1.29484844208	-0.200104236603	-0.0663268566132	1.49278664589	-0.311295032501
0.0382091999054	1.29038465023	-0.207602739334	-0.0734057426453	1.49372923374	-0.31177520752
0.039656162262	1.2857118845	-0.193916201591	-0.0811257362366	1.4953057766	-0.309352874756
0.0396821498871	1.28055238724	-0.188220500946	-0.0894060134888	1.49303543568	-0.310493469238
0.0328319072723	1.28123188019	-0.193355083466	-0.0975794792175	1.49190533161	-0.31541800499
0.0283889770508	1.28319323063	-0.192968130112	-0.105859994888	1.49247407913	-0.322441339493
0.0312416553497	1.28564429283	-0.196192026138	-0.111843585968	1.49673879147	-0.327878713608
0.0448312759399	1.28552615643	-0.195588827133	-0.114710569382	1.49972593784	-0.329889297485
0.07182264328	1.27938210964	-0.19255065918	-0.114892482758	1.50081777573	-0.329035043716
0.110778808594	1.26125180721	-0.181419968605	-0.113964080811	1.49970293045	-0.326230406761
0.162450313568	1.22975790501	-0.160475730896	-0.112046480179	1.49663329124	-0.324333667755
0.187058210373	1.19193935394	-0.1263256073	-0.107570409775	1.49440169334	-0.3210709095
0.18094420433	1.18251550198	-0.110195755959	-0.0966918468475	1.48916924	-0.309553861618
0.169895410538	1.17790412903	-0.0986367464066	-0.0800244808197	1.47863328457	-0.29235458374
0.151450157166	1.17216086388	-0.0822463035583	-0.0614461898804	1.46991813183	-0.276607275009
0.117283582687	1.17350411415	-0.0673317909241	-0.0430781841278	1.46616590023	-0.262817621231
0.0779864788055	1.18626272678	-0.0630173683167	-0.026175737381	1.46108806133	-0.248948812485
0.0391321182251	1.2078704834	-0.0725626945496	-0.0126674175262	1.44974172115	-0.236755132675
0.0134871006012	1.22369539738	-0.0887150764465	-0.00308442115784	1.43923616409	-0.226362228394
0.024242401123	1.22019731998	-0.084300994873	0.00135517120361	1.43217658997	-0.220557689667
0.0744197368622	1.223310709	-0.0656547546387	0.00212669372559	1.43140423298	-0.217947006226
0.0858428478241	1.22911393642	-0.0620819330215	-0.000243186950684	1.43488764763	-0.216275930405
0.0744223594666	1.23362696171	-0.0636131763458	-0.00283598899841	1.43813109398	-0.214980959892
0.068986415863	1.23760044575	-0.0667499303818	-0.00206065177917	1.44077837467	-0.212718844414
0.0685122013092	1.24218642712	-0.0685571432114	0.00226879119873	1.43967676163	-0.208456754684
0.0747833251953	1.24420154095	-0.0654747486115	0.00897526741028	1.43728423119	-0.203380823135
0.0879337787628	1.24567425251	-0.0605270862579	0.0159666538239	1.43510246277	-0.197247505188
0.114207267761	1.24101734161	-0.0494711399078	0.0207364559174	1.43612194061	-0.191059470177
0.156584262848	1.22346305847	-0.0417802333832	0.0171270370483	1.43907022476	-0.186378240585
0.164368867874	1.20156252384	-0.0509638786316	0.00604367256165	1.44604408741	-0.188368082047
0.125592708588	1.19805514812	-0.0634512901306	-0.00624465942383	1.45435726643	-0.194950819016
0.0776784420013	1.20825111866	-0.0751641988754	-0.0155086517334	1.4625338316	-0.202855110168
0.0422048568726	1.22854590416	-0.0868146419525	-0.0204284191132	1.47022175789	-0.20742559433
0.0159509181976	1.2522008419	-0.109344601631	-0.0212805271149	1.47326815128	-0.208614349365
-0.0119779109955	1.26611876488	-0.14238846302	-0.0171027183533	1.46990954876	-0.203716754913
-0.0209906101227	1.27187132835	-0.170333623886	-0.0140495300293	1.46802079678	-0.200550317764
-0.00733065605164	1.27158582211	-0.163928627968	-0.012017250061	1.47033941746	-0.203337311745
0.0290093421936	1.27053129673	-0.130148172379	-0.0113735198975	1.47201240063	-0.209045171738
0.0532124042511	1.2702524662	-0.112772464752	-0.0122179985046	1.47486686707	-0.215696811676
0.0552272796631	1.27005600929	-0.11162352562	-0.0136280059814	1.47719323635	-0.22187101841
0.049471616745	1.27233457565	-0.115635156631	-0.0145924091339	1.47833442688	-0.225847244263
0.042934179306	1.27444660664	-0.119120121002	-0.0155873298645	1.47998642921	-0.229008674622
0.0434920787811	1.28056824207	-0.125947237015	-0.0163381099701	1.48133575916	-0.232155203819
0.0431277751923	1.28837859631	-0.130807518959	-0.016850233078	1.48333644867	-0.235703349113
0.0569627285004	1.29919433594	-0.125892400742	-0.0164167881012	1.48400890827	-0.239812970161
0.0788049697876	1.31140697002	-0.122915267944	-0.0139799118042	1.48389673233	-0.242237210274
0.102461338043	1.31114900112	-0.111255884171	-0.0117573738098	1.48248612881	-0.243297576904
0.125839948654	1.30524802208	-0.0985975265503	-0.0101203918457	1.48118698597	-0.242999315262
0.12656545639	1.30077147484	-0.0935235023499	-0.0081479549408	1.47897052765	-0.242461681366
0.128855705261	1.29861295223	-0.0892114639282	-0.00367164611816	1.4755448103	-0.24125623703
0.1256711483	1.30435287952	-0.0921001434326	0.00376749038696	1.46941816807	-0.237465381622
0.101328134537	1.31700885296	-0.104600906372	0.00876688957214	1.46392834187	-0.232615947723
0.0807547569275	1.31839668751	-0.105475187302	0.00792503356934	1.46179497242	-0.232832431793
0.0777380466461	1.30985331535	-0.100745677948	-0.00140738487244	1.46819376945	-0.239848136902
0.0816485881805	1.29324138165	-0.106109499931	-0.0169546604156	1.47656369209	-0.252418756485
0.102132797241	1.26226699352	-0.0871115922928	-0.0365433692932	1.48233354092	-0.266535639763
0.0914752483368	1.22156131268	-0.0535249710083	-0.0581705570221	1.48808276653	-0.28446495533
0.0725920200348	1.22929024696	-0.0671861171722	-0.0767123699188	1.49437880516	-0.301038503647
0.0523686408997	1.24036848545	-0.0843681097031	-0.0961918830872	1.49410462379	-0.319268703461
0.0449435710907	1.25213289261	-0.0994727611542	-0.11630821228	1.49174427986	-0.33937048912
0.0364596843719	1.25689768791	-0.106040000916	-0.132607698441	1.48602247238	-0.353465080261
0.0233774185181	1.26521754265	-0.119851350784	-0.141387462616	1.46714472771	-0.357177257538
0.0190558433533	1.27045273781	-0.132359027863	-0.140225410461	1.45165061951	-0.352506637573
0.0211040973663	1.27582573891	-0.138411283493	-0.135914802551	1.45379841328	-0.347409129143
0.0267729759216	1.27906680107	-0.137142896652	-0.130118846893	1.45966732502	-0.341202974319
0.0379149913788	1.27852201462	-0.133172392845	-0.122581243515	1.46117949486	-0.334829688072
0.0592033863068	1.27902317047	-0.133137464523	-0.115096092224	1.45976758003	-0.329644322395
0.0767540931702	1.27287065983	-0.130158662796	-0.108177661896	1.46202337742	-0.326787114143
0.0720975399017	1.26319348812	-0.119770288467	-0.101415872574	1.46658587456	-0.324313640594
0.0769364833832	1.25387275219	-0.104014873505	-0.0948629379272	1.47064888477	-0.321478247643
0.0819537639618	1.25254094601	-0.094762802124	-0.0868942737579	1.47293066978	-0.318812727928
0.079892873764	1.2568372488	-0.0895491838455	-0.0775721073151	1.47520387173	-0.314816951752
0.0849330425262	1.25869452953	-0.080338716507	-0.0698268413544	1.47640013695	-0.30920791626
0.0894651412964	1.25701057911	-0.0718841552734	-0.0646500587463	1.47436904907	-0.301560044289
0.0776104927063	1.25325942039	-0.065906047821	-0.061797618866	1.47178339958	-0.295280456543
