-0.00171041488647	1.26178145409	-0.288660049438	-0.118402719498	1.50877296925	-0.422352194786
-0.000868558883667	1.26279330254	-0.288296461105	-0.119849205017	1.50929820538	-0.422781944275
-0.000501394271851	1.26362061501	-0.288888931274	-0.120546340942	1.50927293301	-0.423085451126
-0.00143218040466	1.26368105412	-0.288651704788	-0.120953083038	1.50940179825	-0.423346996307
-0.00429844856262	1.2630341053	-0.288150548935	-0.122539758682	1.50964236259	-0.423147439957
-0.00671887397766	1.26317286491	-0.288066864014	-0.125767707825	1.50993227959	-0.422683358192
-0.011438369751	1.26214659214	-0.287281990051	-0.130234956741	1.50965571404	-0.422014117241
-0.0248413085938	1.2554744482	-0.28513276577	-0.135719299316	1.50792443752	-0.420819759369
-0.043249130249	1.23398065567	-0.272173404694	-0.141650676727	1.50481843948	-0.419545888901
-0.0575470924377	1.21316277981	-0.264180421829	-0.147359371185	1.50301456451	-0.418852806091
-0.063996553421	1.2025551796	-0.256480693817	-0.152795553207	1.50126039982	-0.418466567993
-0.0635550022125	1.20043349266	-0.245864391327	-0.157574892044	1.49984681606	-0.418217420578
-0.0507657527924	1.20321989059	-0.232191681862	-0.161880016327	1.49879419804	-0.419142723083
-0.0399463176727	1.1945514679	-0.218933939934	-0.16664147377	1.49783635139	-0.420675754547
-0.0402209758759	1.18474471569	-0.216242790222	-0.171617507935	1.49651730061	-0.422973752022
-0.0507328510284	1.17450249195	-0.218827962875	-0.176484823227	1.49422717094	-0.425374507904
-0.0502829551697	1.16954529285	-0.223783731461	-0.181534767151	1.49140417576	-0.427446365356
-0.0465908050537	1.17147445679	-0.228768110275	-0.187953233719	1.48944437504	-0.430006504059
-0.05206823349	1.17560815811	-0.236549854279	-0.195285320282	1.48949730396	-0.432917833328
-0.0642154216766	1.17599356174	-0.247638702393	-0.202467918396	1.48961913586	-0.435245037079
-0.0764758586884	1.16847598553	-0.256279468536	-0.209364414215	1.48801541328	-0.436977863312
-0.0827758312225	1.15236914158	-0.262137174606	-0.213360309601	1.48504948616	-0.438706994057
-0.0794796943665	1.13373625278	-0.264438867569	-0.212804317474	1.48383009434	-0.440627932549
-0.0717859268188	1.12748885155	-0.267184019089	-0.210066795349	1.48251533508	-0.44265460968
-0.0717282295227	1.13887453079	-0.273560285568	-0.203736305237	1.48095107079	-0.444978117943
-0.0766499042511	1.15647900105	-0.279675245285	-0.193611383438	1.47842860222	-0.448730349541
-0.081990480423	1.16968095303	-0.285456299782	-0.182189702988	1.4752240181	-0.453736543655
-0.0841836929321	1.17428719997	-0.28982424736	-0.173748254776	1.47245085239	-0.458837747574
-0.080376625061	1.17490243912	-0.293435454369	-0.171137809753	1.47382211685	-0.461414337158
-0.0745027065277	1.1727039814	-0.294121742249	-0.175503253937	1.47696530819	-0.460634946823
-0.0691847801208	1.17151582241	-0.294202685356	-0.18448638916	1.47675549984	-0.456687927246
-0.0690085887909	1.17155790329	-0.294177532196	-0.194712400436	1.4742950201	-0.451949357986
-0.0698072910309	1.17141056061	-0.294014811516	-0.202545642853	1.47338724136	-0.447999000549
-0.0701489448547	1.17517101765	-0.292988061905	-0.205503702164	1.47387588024	-0.445608019829
-0.070659160614	1.17995619774	-0.292243480682	-0.204436540604	1.47356367111	-0.445048332214
-0.0672497749329	1.18619906902	-0.290652751923	-0.202588558197	1.47235000134	-0.445080161095
-0.0595626831055	1.19001543522	-0.287425756454	-0.20214176178	1.471758008	-0.445172309875
-0.0600726604462	1.19140791893	-0.286518335342	-0.202872753143	1.47278809547	-0.444668769836
-0.060845375061	1.19149804115	-0.285712003708	-0.204741477966	1.47332644463	-0.443306446075
-0.0643792152405	1.19245362282	-0.285065174103	-0.207109451294	1.4730246067	-0.441604137421
-0.0679469108582	1.19719803333	-0.285410642624	-0.209132194519	1.4736058712	-0.440062522888
-0.0746009349823	1.20576047897	-0.289266586304	-0.210471391678	1.47632932663	-0.440026760101
-0.0810439586639	1.2155880928	-0.294040679932	-0.210750341415	1.48006618023	-0.440607905388
-0.0863373279572	1.22076165676	-0.296095609665	-0.210356473923	1.48238277435	-0.442483901978
-0.0864751338959	1.22441780567	-0.298087120056	-0.209342718124	1.48227453232	-0.444608688354
-0.0847659111023	1.22699451447	-0.304410099983	-0.208540439606	1.4810116291	-0.446502685547
-0.0800385475159	1.2292124033	-0.311074018478	-0.208495140076	1.4808088541	-0.447412729263
-0.075058221817	1.23087775707	-0.316757917404	-0.207985639572	1.48094570637	-0.448027849197
-0.0726578235626	1.22899913788	-0.317703962326	-0.206839561462	1.48035216331	-0.448435306549
-0.0576694011688	1.21289551258	-0.302444458008	-0.205427408218	1.47933077812	-0.449699640274
-0.050811290741	1.19010734558	-0.289010882378	-0.20438337326	1.47981882095	-0.450436115265
-0.0571944713593	1.18849205971	-0.290579557419	-0.203957080841	1.4799413681	-0.450102567673
-0.0614020824432	1.19386172295	-0.291944980621	-0.204210519791	1.47923970222	-0.450206756592
-0.0621502399445	1.19940292835	-0.292946457863	-0.206014871597	1.47941446304	-0.450530767441
-0.0652875900269	1.2038923502	-0.295374155045	-0.207949399948	1.48072242737	-0.450878858566
-0.0687336921692	1.20419478416	-0.29477417469	-0.20974445343	1.48370778561	-0.451934337616
-0.0690047740936	1.20367348194	-0.292968988419	-0.212009906769	1.48847818375	-0.452899932861
-0.0697257518768	1.20386111736	-0.292054414749	-0.214269161224	1.49375736713	-0.454025506973
-0.0703544616699	1.2042504549	-0.29109787941	-0.215708732605	1.49470734596	-0.455016374588
-0.0703120231628	1.20661842823	-0.291037917137	-0.216160297394	1.48761332035	-0.454636335373
-0.0719566345215	1.20820522308	-0.292662382126	-0.216817378998	1.47717499733	-0.453022241592
-0.0736584663391	1.20679140091	-0.293821334839	-0.217798948288	1.47115314007	-0.450448870659
-0.0750408172607	1.20370721817	-0.293752789497	-0.218393325806	1.47052037716	-0.448258876801
-0.0757966041565	1.20168709755	-0.292788743973	-0.217824220657	1.4712857008	-0.447034358978
-0.0756952762604	1.20176398754	-0.292729139328	-0.216721534729	1.47089314461	-0.446939468384
-0.0757904052734	1.20182967186	-0.292726755142	-0.214701652527	1.47037124634	-0.448037147522
-0.0774540901184	1.20217478275	-0.29289317131	-0.212577581406	1.47188329697	-0.449927806854
-0.0795230865479	1.20353066921	-0.292706489563	-0.208914518356	1.4736802578	-0.452455759048
-0.0809047222137	1.20497906208	-0.293259382248	-0.204210758209	1.47457242012	-0.455406188965
-0.0808103084564	1.20477342606	-0.293699264526	-0.201936244965	1.47483325005	-0.457157373428
-0.0797657966614	1.2035433054	-0.293737649918	-0.204294204712	1.47575485706	-0.456961989403
-0.0795948505402	1.20087397099	-0.293068528175	-0.210182666779	1.47881293297	-0.455943822861
-0.080778837204	1.19787454605	-0.290981054306	-0.216241598129	1.4807792902	-0.454854249954
-0.0822086334229	1.19886291027	-0.289273023605	-0.221550703049	1.48146891594	-0.453379631042
-0.0845191478729	1.20111465454	-0.288547992706	-0.22504734993	1.4807280302	-0.452111363411
-0.0863811969757	1.2013156414	-0.287654876709	-0.224935770035	1.47919642925	-0.45120882988
-0.0871708393097	1.20045959949	-0.286611676216	-0.221974849701	1.47868967056	-0.450556159019
-0.0867977142334	1.19977343082	-0.285954713821	-0.21915102005	1.47932219505	-0.449909687042
-0.0851550102234	1.1991508007	-0.28507912159	-0.218143463135	1.47931516171	-0.448321342468
-0.0818955898285	1.19839704037	-0.284020900726	-0.218855857849	1.47924733162	-0.446189641953
-0.079195022583	1.1974619627	-0.282393693924	-0.223643302917	1.47913217545	-0.443325042725
-0.0789823532104	1.19759380817	-0.280349135399	-0.229907989502	1.47819972038	-0.440356254578
-0.0805411338806	1.1986938715	-0.278378009796	-0.233467817307	1.47673845291	-0.438411951065
-0.0821266174316	1.20005762577	-0.276906251907	-0.233488321304	1.47558546066	-0.43751680851
-0.083683013916	1.20323240757	-0.278436183929	-0.230573177338	1.47546184063	-0.437499046326
-0.0841197967529	1.21642518044	-0.287869930267	-0.226752281189	1.47612690926	-0.438308596611
-0.0875623226166	1.22681725025	-0.298440933228	-0.223436355591	1.47587800026	-0.43896317482
-0.0879504680634	1.23602497578	-0.309051990509	-0.221539497375	1.47509229183	-0.439182281494
-0.083646774292	1.24978494644	-0.319167137146	-0.220091104507	1.4750803709	-0.438690662384
-0.0838780403137	1.25171136856	-0.318176984787	-0.219074010849	1.4755358696	-0.438611865044
-0.0814728736877	1.24422347546	-0.308395862579	-0.218757390976	1.47639930248	-0.438583374023
-0.0690605640411	1.23127222061	-0.294074296951	-0.219081640244	1.47686779499	-0.438488841057
-0.0572376251221	1.21786105633	-0.282071828842	-0.219495296478	1.47596883774	-0.438411951065
-0.0546231269836	1.21208941936	-0.277035236359	-0.220520973206	1.47619891167	-0.438655853271
-0.0556643009186	1.20994842052	-0.274621009827	-0.222069501877	1.47659409046	-0.439183473587
-0.0621380805969	1.21312832832	-0.277898430824	-0.223831892014	1.47693371773	-0.439707398415
-0.0782022476196	1.22243404388	-0.286657333374	-0.22575211525	1.47727704048	-0.440336465836
-0.088830947876	1.23789036274	-0.298518061638	-0.227324485779	1.47908508778	-0.440712451935
-0.0994300842285	1.24542057514	-0.303085803986	-0.229187488556	1.48478448391	-0.442142724991
-0.106365919113	1.24343073368	-0.299449443817	-0.231857538223	1.49170339108	-0.445838928223
-0.108897447586	1.24022114277	-0.294916987419	-0.234477996826	1.49693465233	-0.450682997704
-0.110540390015	1.24078297615	-0.293972849846	-0.236477851868	1.49925839901	-0.455903768539
-0.110335350037	1.24584972858	-0.297315597534	-0.238080263138	1.4992518425	-0.460638523102
-0.110423564911	1.249745965	-0.30163872242	-0.23907661438	1.49776697159	-0.462947845459
-0.108819007874	1.24503910542	-0.301078438759	-0.239456653595	1.49474096298	-0.462725400925
-0.0993149280548	1.23678553104	-0.295247554779	-0.240134716034	1.49021863937	-0.461332082748
-0.0916638374329	1.22838389874	-0.28838634491	-0.240675926208	1.4880592823	-0.460433483124
-0.0896046161652	1.22603940964	-0.287392616272	-0.242474555969	1.48869800568	-0.460488319397
-0.0936048030853	1.22611892223	-0.289733529091	-0.245362520218	1.4886058569	-0.461555957794
-0.102264881134	1.2268178463	-0.292651891708	-0.248625278473	1.48798751831	-0.463334083557
-0.112718105316	1.22746479511	-0.296483278275	-0.252255678177	1.48852622509	-0.46524477005
-0.125976324081	1.2275967598	-0.301960468292	-0.256261348724	1.48929512501	-0.467498779297
-0.143124818802	1.22525119781	-0.309025645256	-0.25979924202	1.49142253399	-0.470082044601
-0.152593135834	1.22310388088	-0.312123060226	-0.262286901474	1.49330532551	-0.472043991089
-0.155389785767	1.22450423241	-0.313047885895	-0.263602733612	1.49325573444	-0.472760915756
-0.153043031693	1.22534286976	-0.311221599579	-0.263526439667	1.48985242844	-0.471428155899
-0.145713806152	1.22118282318	-0.303611040115	-0.262751817703	1.48252081871	-0.467988967896
-0.129300117493	1.20455360413	-0.285778522491	-0.262734174728	1.47754955292	-0.46431851387
-0.117626428604	1.19757926464	-0.280248641968	-0.262412309647	1.4768948555	-0.460642814636
-0.12536406517	1.2041554451	-0.285657405853	-0.259990215302	1.47885000706	-0.456530809402
-0.134318590164	1.21476519108	-0.293093800545	-0.256999969482	1.48028254509	-0.453643202782
-0.138014316559	1.22366392612	-0.296708345413	-0.25422668457	1.48042237759	-0.451974391937
-0.138877630234	1.23352622986	-0.300561070442	-0.251619577408	1.47994959354	-0.450271725655
-0.138172864914	1.23818075657	-0.303848743439	-0.249317884445	1.48006808758	-0.448444366455
-0.132862329483	1.24068284035	-0.305160999298	-0.247728347778	1.48111593723	-0.446202754974
-0.13368844986	1.22933006287	-0.29298722744	-0.245426893234	1.48058605194	-0.444004297256
-0.128914356232	1.21107244492	-0.277232885361	-0.242836713791	1.47617149353	-0.441470742226
-0.119411706924	1.19859111309	-0.267000198364	-0.240577936172	1.47121882439	-0.439084291458
-0.123749256134	1.19955897331	-0.268378853798	-0.237946987152	1.47142326832	-0.436924219131
-0.132085323334	1.20921576023	-0.274806499481	-0.234746932983	1.47326874733	-0.436029791832
-0.135829925537	1.22827804089	-0.28807091713	-0.231602430344	1.47576987743	-0.436299085617
-0.137804269791	1.24332761765	-0.301469564438	-0.229080438614	1.4792419672	-0.437182307243
-0.135776758194	1.24788570404	-0.303391575813	-0.22784614563	1.48311960697	-0.439314842224
-0.134886980057	1.24580705166	-0.299479842186	-0.228306531906	1.48571479321	-0.441635131836
-0.132705450058	1.24423313141	-0.296959161758	-0.230093002319	1.48620665073	-0.443015813828
-0.131673574448	1.2434630394	-0.29419863224	-0.231953620911	1.48530209064	-0.443379640579
-0.129045963287	1.23933541775	-0.286474227905	-0.233162879944	1.48420107365	-0.443916797638
-0.123413562775	1.23680877686	-0.281169772148	-0.233417510986	1.48427796364	-0.444581508636
-0.121041536331	1.23503899574	-0.27828335762	-0.233653783798	1.48461163044	-0.445529460907
-0.121733427048	1.23356389999	-0.278037667274	-0.235116004944	1.4838296175	-0.445956230164
-0.12171292305	1.23239862919	-0.278318762779	-0.238867521286	1.48363256454	-0.445172548294
-0.119467496872	1.23354661465	-0.280215978622	-0.243017196655	1.48300158978	-0.444527626038
-0.118668317795	1.23421287537	-0.280324697495	-0.244857549667	1.48244309425	-0.444074749947
-0.120173692703	1.23533952236	-0.282422065735	-0.245146512985	1.48222589493	-0.443987369537
-0.123448610306	1.23539125919	-0.283791422844	-0.24486041069	1.48181533813	-0.444118261337
-0.123418331146	1.23148965836	-0.281605482101	-0.244375705719	1.48121678829	-0.444623112679
-0.117952346802	1.21830654144	-0.272167682648	-0.244294404984	1.48069775105	-0.445284605026
-0.103249311447	1.19950628281	-0.259734988213	-0.244195699692	1.4803416729	-0.445405006409
-0.0863673686981	1.17243182659	-0.248878121376	-0.244059085846	1.47961556911	-0.445409417152
-0.0843322277069	1.16833078861	-0.247020244598	-0.244540452957	1.47979962826	-0.444760799408
-0.0878572463989	1.17107844353	-0.246442556381	-0.245343208313	1.47966432571	-0.44436275959
-0.104439735413	1.20082819462	-0.257185220718	-0.245355844498	1.47975957394	-0.444231629372
-0.127924203873	1.23772788048	-0.288100242615	-0.245275974274	1.47957360744	-0.443872690201
-0.141238689423	1.25353980064	-0.308279156685	-0.244856357574	1.47910809517	-0.444196105003
-0.144353628159	1.25247323513	-0.305269360542	-0.244647502899	1.47919583321	-0.444368839264
-0.125323295593	1.2207928896	-0.26890206337	-0.244396448135	1.47855162621	-0.444165468216
-0.101861953735	1.15613722801	-0.239957094193	-0.244184970856	1.47811770439	-0.443782567978
-0.0920135974884	1.15377569199	-0.238293647766	-0.243506193161	1.47844135761	-0.442684531212
-0.0981297492981	1.1628459692	-0.239077091217	-0.242558956146	1.47831237316	-0.441776037216
-0.109055995941	1.18676018715	-0.246381998062	-0.241995573044	1.47869312763	-0.441018462181
-0.118780851364	1.21596097946	-0.26230597496	-0.24195933342	1.48037230968	-0.440380096436
-0.118751764297	1.23233807087	-0.273658752441	-0.242569684982	1.48207759857	-0.44068813324
-0.118368864059	1.24637615681	-0.284238576889	-0.242246627808	1.48308897018	-0.440764665604
-0.121238708496	1.25704491138	-0.296810626984	-0.241307497025	1.48219633102	-0.440630912781
-0.129710197449	1.26153695583	-0.309647321701	-0.239928722382	1.48154199123	-0.439884185791
-0.134283542633	1.25923764706	-0.30800652504	-0.238116979599	1.48105740547	-0.438617348671
-0.131851196289	1.2564021349	-0.30216550827	-0.235629081726	1.48050451279	-0.436959266663
-0.130703926086	1.25442874432	-0.301896810532	-0.232619285583	1.47851502895	-0.433990001678
-0.12967300415	1.25376069546	-0.30272591114	-0.228755474091	1.47537958622	-0.430549502373
-0.129751443863	1.25323057175	-0.304609179497	-0.223868846893	1.47382235527	-0.427037239075
-0.128847122192	1.25181078911	-0.304932713509	-0.217642068863	1.47513461113	-0.424654006958
-0.125489234924	1.25332415104	-0.302710056305	-0.212089300156	1.47679054737	-0.423488974571
-0.125071525574	1.25478243828	-0.30489397049	-0.209961175919	1.4765894413	-0.422670841217
-0.129936218262	1.2539948225	-0.304566502571	-0.210134267807	1.47653412819	-0.422042369843
-0.126813411713	1.24866914749	-0.288194775581	-0.210931777954	1.47792339325	-0.421849608421
-0.127265691757	1.23851692677	-0.273994684219	-0.212141036987	1.47842049599	-0.422541379929
-0.118918657303	1.22513663769	-0.256201505661	-0.213476896286	1.47796976566	-0.423258781433
-0.101271629333	1.213129282	-0.24244594574	-0.214473962784	1.47782194614	-0.423652768135
-0.0851957798004	1.20134019852	-0.231306552887	-0.215374469757	1.47744297981	-0.42406976223
-0.0775473117828	1.20440328121	-0.232380390167	-0.2162566185	1.47792863846	-0.42451775074
-0.0863976478577	1.21694111824	-0.24043571949	-0.217039585114	1.47811996937	-0.424893140793
-0.0975866317749	1.23076343536	-0.25121307373	-0.217479705811	1.47821187973	-0.42586016655
-0.107324838638	1.25113463402	-0.268460512161	-0.218842029572	1.48146140575	-0.427202701569
-0.118147134781	1.27077186108	-0.289932250977	-0.220176458359	1.48226034641	-0.429396152496
-0.128489494324	1.27691352367	-0.298288106918	-0.221165895462	1.47946369648	-0.430925130844
-0.131802558899	1.26537823677	-0.286239624023	-0.222070217133	1.47726118565	-0.43243598938
-0.130618810654	1.25351774693	-0.276749491692	-0.222744941711	1.47821354866	-0.433007955551
-0.131831884384	1.254961133	-0.282023310661	-0.222755432129	1.47892534733	-0.433326482773
-0.138761281967	1.2593998909	-0.29273724556	-0.22213602066	1.47815966606	-0.433336734772
-0.149350881577	1.25936567783	-0.304534554482	-0.221638679504	1.47778904438	-0.433166265488
-0.15161895752	1.24967825413	-0.293984413147	-0.221580982208	1.47760939598	-0.432950496674
-0.134231328964	1.22294819355	-0.262007594109	-0.221823215485	1.47737812996	-0.432486534119
-0.112962007523	1.18923151493	-0.237621665001	-0.22221660614	1.47681951523	-0.431742429733
-0.101498842239	1.16884624958	-0.228318452835	-0.222214221954	1.47676193714	-0.430588722229
-0.100643634796	1.18722140789	-0.234611034393	-0.221716165543	1.4771579504	-0.429045677185
-0.112914562225	1.21408712864	-0.247973442078	-0.220702648163	1.47683429718	-0.428021192551
-0.117956876755	1.23728168011	-0.262360811234	-0.219870567322	1.47665202618	-0.427287340164
-0.123111963272	1.25763726234	-0.278240919113	-0.219544172287	1.47740244865	-0.42647767067
-0.127688407898	1.26517927647	-0.283853769302	-0.220062732697	1.47999107838	-0.426096916199
-0.128812789917	1.26751458645	-0.28329205513	-0.220678567886	1.48363053799	-0.426788926125
-0.12989282608	1.2682261467	-0.280878424644	-0.221941232681	1.48824334145	-0.429085493088
-0.131422758102	1.2700098753	-0.277838468552	-0.224118709564	1.49243295193	-0.432168722153
-0.135554075241	1.2683930397	-0.27387881279	-0.227161884308	1.49284291267	-0.433931112289
-0.139563083649	1.26622354984	-0.274682879448	-0.230363607407	1.49026787281	-0.43462228775
-0.14297413826	1.26570320129	-0.277267217636	-0.232212781906	1.48871207237	-0.434175610542
-0.144977092743	1.26348185539	-0.27384185791	-0.232591867447	1.48765730858	-0.433479070663
-0.139549970627	1.25119531155	-0.259220123291	-0.232208013535	1.4863781929	-0.432465076447
-0.135762453079	1.2350165844	-0.248499512672	-0.231993675232	1.48530042171	-0.431434750557
-0.131981134415	1.22624087334	-0.242631554604	-0.232446193695	1.48473870754	-0.430934429169
-0.130633354187	1.22959458828	-0.242147684097	-0.233290433884	1.48516750336	-0.430144190788
-0.134604215622	1.24405658245	-0.2507417202	-0.234747886658	1.48636591434	-0.429839849472
-0.145933628082	1.25619089603	-0.261847138405	-0.237001895905	1.48813509941	-0.430487275124
-0.155417919159	1.25758874416	-0.265143156052	-0.239494085312	1.4891872406	-0.43133854866
-0.158674001694	1.2510972023	-0.260549068451	-0.241636991501	1.48723685741	-0.43136882782
-0.156170129776	1.24009799957	-0.253385782242	-0.242098808289	1.48428618908	-0.429979562759
-0.149766683578	1.23494553566	-0.247547507286	-0.240845918655	1.48391604424	-0.428250789642
-0.146528244019	1.23849368095	-0.24871635437	-0.238981246948	1.48460364342	-0.426275014877
-0.146515369415	1.23784685135	-0.24897480011	-0.237627029419	1.48388969898	-0.424713969231
-0.146745443344	1.23552036285	-0.248519659042	-0.238546133041	1.48361837864	-0.423779964447
-0.148059129715	1.23441648483	-0.248522996902	-0.241737127304	1.48378419876	-0.423297166824
-0.150795698166	1.24037599564	-0.252252340317	-0.244042634964	1.48392152786	-0.422778844833
-0.157181024551	1.24826395512	-0.259507417679	-0.244080305099	1.48398256302	-0.422867655754
-0.160427808762	1.25871789455	-0.270228624344	-0.242564439774	1.48388409615	-0.422697067261
-0.163192749023	1.26354837418	-0.278701305389	-0.240705013275	1.483091712	-0.422643184662
-0.16547369957	1.25930762291	-0.27791929245	-0.238991260529	1.48281216621	-0.422561645508
-0.162485122681	1.24515247345	-0.266203045845	-0.236869812012	1.48242807388	-0.422725439072
-0.145655155182	1.23690748215	-0.252685070038	-0.234302759171	1.48157894611	-0.422705054283
-0.117420196533	1.21741878986	-0.230833411217	-0.232601165771	1.48061263561	-0.422894001007
-0.100944280624	1.20851755142	-0.22143805027	-0.231962203979	1.48019576073	-0.423449277878
-0.104190349579	1.21942448616	-0.226797103882	-0.232348442078	1.48098909855	-0.423773050308
-0.117045640945	1.24233317375	-0.241219520569	-0.232775688171	1.48124670982	-0.424235463142
-0.127837181091	1.2661973238	-0.260410189629	-0.233821868896	1.48143088818	-0.424604415894
-0.133385419846	1.29052782059	-0.285219192505	-0.234662294388	1.48253369331	-0.4245210886
-0.139843463898	1.30680334568	-0.309612751007	-0.235548496246	1.48306632042	-0.424231529236
-0.147433519363	1.30812931061	-0.317626595497	-0.236479282379	1.48282456398	-0.424169540405
-0.15429353714	1.29487538338	-0.301040172577	-0.237338542938	1.48323774338	-0.424085140228
-0.15202498436	1.27687013149	-0.278423786163	-0.238019704819	1.48584830761	-0.42471075058
-0.146529197693	1.27139413357	-0.267598867416	-0.23863196373	1.4902279377	-0.426776647568
-0.147060155869	1.27674531937	-0.26815032959	-0.2390229702	1.49424660206	-0.429946184158
-0.149554491043	1.28037893772	-0.269893288612	-0.239432096481	1.49552619457	-0.433047294617
-0.15150976181	1.28044044971	-0.273458957672	-0.240321397781	1.49373292923	-0.433697104454
-0.154098033905	1.27752351761	-0.276881814003	-0.241599082947	1.49211978912	-0.433626413345
-0.152458190918	1.27099955082	-0.270403385162	-0.241729021072	1.49159157276	-0.433491230011
-0.146855115891	1.25884032249	-0.256257295609	-0.240934848785	1.49019408226	-0.433259248734
-0.145954847336	1.24627840519	-0.248166680336	-0.240485668182	1.48905467987	-0.433397531509
-0.147750139236	1.24039506912	-0.245688080788	-0.240641117096	1.48911035061	-0.43402838707
-0.148952245712	1.24124968052	-0.247336864471	-0.241040706635	1.48844015598	-0.43512904644
-0.148764610291	1.24741482735	-0.251338005066	-0.241683721542	1.48871254921	-0.436793088913
-0.150698184967	1.25432515144	-0.257221698761	-0.242039203644	1.48970389366	-0.438851952553
-0.154436826706	1.2551908493	-0.260033130646	-0.242403745651	1.48935675621	-0.440847873688
-0.156423330307	1.25247073174	-0.260854244232	-0.24251294136	1.48953711987	-0.443234443665
-0.156997203827	1.24930107594	-0.260418176651	-0.243143558502	1.48946499825	-0.445659399033
-0.155287742615	1.24741017818	-0.259476184845	-0.243792533875	1.48870313168	-0.448194503784
-0.156178712845	1.24135386944	-0.257103323936	-0.244386196136	1.4877512455	-0.450328350067
-0.159281253815	1.23804306984	-0.258432984352	-0.24455165863	1.48667323589	-0.451501131058
-0.163943052292	1.2397056818	-0.261096477509	-0.245137453079	1.4866540432	-0.452489614487
-0.162137508392	1.24701678753	-0.264336228371	-0.246396541595	1.4869594574	-0.453292608261
-0.165138244629	1.2500449419	-0.269986271858	-0.248028278351	1.48717975616	-0.454203009605
-0.170815944672	1.25127673149	-0.276033759117	-0.248572349548	1.48682570457	-0.455236196518
-0.175673961639	1.25477719307	-0.283210277557	-0.248349428177	1.48645091057	-0.45605969429
-0.170928001404	1.24512112141	-0.276203274727	-0.247981548309	1.48570001125	-0.456068873405
-0.163056850433	1.25404763222	-0.276336073875	-0.24690246582	1.48550009727	-0.454367637634
-0.166480541229	1.25394177437	-0.275408029556	-0.245759725571	1.48520445824	-0.4527374506
-0.168239593506	1.24955105782	-0.269831180573	-0.245081186295	1.48495554924	-0.450600743294
-0.16689991951	1.24898850918	-0.264610290527	-0.245304107666	1.48360896111	-0.447654724121
-0.171470165253	1.24117815495	-0.26195037365	-0.245596647263	1.48230516911	-0.443425655365
-0.169852972031	1.22820329666	-0.255039930344	-0.245226383209	1.48093092442	-0.439496278763
-0.16731095314	1.20540046692	-0.242691755295	-0.244106292725	1.47965800762	-0.435760259628
-0.165933609009	1.17956423759	-0.232724905014	-0.242701292038	1.47846710682	-0.433336496353
-0.161473274231	1.18157362938	-0.231493473053	-0.241446971893	1.47843790054	-0.431678771973
-0.158551216125	1.19954061508	-0.238149881363	-0.240318775177	1.47868788242	-0.430809736252
-0.159440755844	1.21700310707	-0.24681687355	-0.238928318024	1.47905051708	-0.431224346161
-0.15925359726	1.22838664055	-0.254137992859	-0.23723077774	1.4804186821	-0.432424068451
-0.156854629517	1.2356492281	-0.258991360664	-0.235556364059	1.48213720322	-0.433564543724
-0.154102325439	1.23885023594	-0.261788845062	-0.233845949173	1.48311316967	-0.434417128563
-0.151280879974	1.2304135561	-0.253487348557	-0.232110023499	1.48260188103	-0.43521130085
-0.14501953125	1.21378540993	-0.240024447441	-0.230185508728	1.48190748692	-0.435990810394
-0.134971141815	1.19244885445	-0.224801301956	-0.228915691376	1.48244190216	-0.436922311783
-0.125581264496	1.18469953537	-0.218376398087	-0.228433132172	1.48327863216	-0.437698960304
-0.127573490143	1.19050014019	-0.22040450573	-0.228632450104	1.48315012455	-0.437719583511
-0.131406545639	1.19770801067	-0.223878622055	-0.229607105255	1.48297595978	-0.437912464142
-0.139418840408	1.20863091946	-0.230679988861	-0.231032371521	1.48429095745	-0.438453912735
-0.145467758179	1.21838760376	-0.237107753754	-0.232815265656	1.48720741272	-0.43944811821
-0.150721311569	1.22511863708	-0.241697788239	-0.235343456268	1.49160587788	-0.441774606705
-0.154668569565	1.22930586338	-0.243290662766	-0.238673210144	1.49657094479	-0.444864034653
-0.157527923584	1.23087632656	-0.242298722267	-0.242319822311	1.50158250332	-0.448848605156
-0.161160945892	1.23219633102	-0.241130709648	-0.246469736099	1.50354707241	-0.451997995377
-0.164923191071	1.23351490498	-0.241505384445	-0.250431537628	1.50057065487	-0.453385233879
-0.168091773987	1.23521304131	-0.244943857193	-0.25288939476	1.49710977077	-0.454097151756
-0.169204235077	1.23512494564	-0.24773311615	-0.254279136658	1.49608206749	-0.455206871033
-0.169111728668	1.23529040813	-0.250097513199	-0.253899812698	1.49574649334	-0.456373691559
-0.169094800949	1.23064053059	-0.249752998352	-0.252946376801	1.49473404884	-0.457628488541
-0.171038866043	1.2147885561	-0.245626211166	-0.252246379852	1.49394750595	-0.458878874779
-0.173322200775	1.20660281181	-0.24519431591	-0.252052783966	1.49343550205	-0.460507392883
-0.176859855652	1.20659732819	-0.248527050018	-0.252402544022	1.49359345436	-0.461944103241
-0.177304267883	1.21210098267	-0.250054836273	-0.253121137619	1.49332249165	-0.462965250015
-0.177193403244	1.21858751774	-0.253818511963	-0.254491329193	1.49285078049	-0.463484287262
-0.179919481277	1.22151207924	-0.257747411728	-0.25531744957	1.49227869511	-0.463914871216
-0.181173801422	1.21269929409	-0.254042625427	-0.254971265793	1.49162518978	-0.464822769165
-0.179560184479	1.19371807575	-0.245778799057	-0.254024505615	1.49082553387	-0.46536397934
-0.178775548935	1.18081712723	-0.242085695267	-0.253493309021	1.48975002766	-0.464951992035
-0.181604623795	1.1810965538	-0.243453741074	-0.253440618515	1.48957061768	-0.463969707489
-0.180375814438	1.18979525566	-0.244595050812	-0.25331401825	1.48922550678	-0.463214874268
-0.184839487076	1.20028531551	-0.249312877655	-0.252943277359	1.48882675171	-0.463004589081
-0.191182851791	1.20213568211	-0.252477407455	-0.252009391785	1.48901236057	-0.463367462158
-0.195321083069	1.1942794323	-0.252171278	-0.250358581543	1.4884095192	-0.463713169098
-0.199894189835	1.18860721588	-0.251925706863	-0.248864412308	1.48759758472	-0.463638067245
-0.203587532043	1.18760061264	-0.253125667572	-0.248232841492	1.48747849464	-0.462783813477
-0.202998876572	1.18741452694	-0.250964999199	-0.248692750931	1.48806595802	-0.461883544922
-0.198557853699	1.1891220808	-0.248012781143	-0.248732328415	1.48805773258	-0.461010932922
-0.194027900696	1.19408595562	-0.249112606049	-0.247854709625	1.48736619949	-0.459592461586
-0.19128036499	1.19404494762	-0.249883413315	-0.246193170547	1.48615598679	-0.457932472229
-0.189996242523	1.18626534939	-0.249036192894	-0.243987560272	1.48545563221	-0.456124782562
-0.190042257309	1.1905156374	-0.255033016205	-0.242144584656	1.48465871811	-0.454102277756
-0.191056013107	1.21087050438	-0.268698573112	-0.240423679352	1.48449766636	-0.451696157455
-0.187019109726	1.2299798727	-0.276101350784	-0.238696098328	1.48419463634	-0.450130939484
-0.186790466309	1.24586093426	-0.281709074974	-0.237506151199	1.48436844349	-0.449442744255
-0.18927526474	1.24832999706	-0.281907320023	-0.237364768982	1.4849562645	-0.449292302132
-0.183703422546	1.24726629257	-0.277293205261	-0.238091468811	1.48497116566	-0.448798894882
-0.182484865189	1.23807585239	-0.270141363144	-0.23829293251	1.48392152786	-0.447803258896
-0.172663450241	1.2287876606	-0.260581731796	-0.237152099609	1.48236167431	-0.446648001671
-0.161202669144	1.22036731243	-0.252315282822	-0.23441696167	1.47970604897	-0.44416975975
-0.152962446213	1.21907186508	-0.252212882042	-0.229943037033	1.47754359245	-0.441431283951
-0.149826526642	1.21921122074	-0.253712415695	-0.225996494293	1.47790312767	-0.439877986908
-0.150269031525	1.22726762295	-0.25865316391	-0.223472118378	1.47880649567	-0.439950585365
-0.151949882507	1.23902964592	-0.266357898712	-0.22296667099	1.47822546959	-0.440822839737
-0.155216217041	1.24224829674	-0.268924951553	-0.223791360855	1.47815656662	-0.442314624786
-0.149123430252	1.23080742359	-0.254479646683	-0.224756002426	1.47873830795	-0.44339466095
-0.128613710403	1.22233557701	-0.238740086555	-0.225262641907	1.47842884064	-0.443331003189
-0.0902292728424	1.20026469231	-0.221820354462	-0.22607421875	1.47732186317	-0.441970586777
-0.0634407997131	1.20290350914	-0.224172234535	-0.22642660141	1.4771001339	-0.440648555756
-0.0617547035217	1.20522749424	-0.225500226021	-0.226177215576	1.47733998299	-0.43946158886
-0.0644347667694	1.21545088291	-0.230771183968	-0.225595712662	1.47710561752	-0.438829660416
-0.0725202560425	1.22712767124	-0.236045122147	-0.225611209869	1.47767221928	-0.438755393028
-0.0809826850891	1.24179244041	-0.243975162506	-0.226144552231	1.47950398922	-0.439560770988
-0.0886068344116	1.25659024715	-0.250613927841	-0.226757764816	1.48245084286	-0.440876483917
-0.0965101718903	1.26975607872	-0.257133960724	-0.227720975876	1.48603737354	-0.442447781563
-0.103869199753	1.27654409409	-0.259011983871	-0.229026794434	1.488453269	-0.443773508072
-0.11066198349	1.27698051929	-0.257386445999	-0.231015443802	1.48937940598	-0.445384740829
-0.120257854462	1.27390408516	-0.254883646965	-0.233105421066	1.48884081841	-0.446832537651
-0.121126651764	1.2675755024	-0.25022649765	-0.234544754028	1.48861634731	-0.44785785675
-0.120159387589	1.26807868481	-0.251649141312	-0.235247612	1.48884654045	-0.448286175728
-0.118046522141	1.26755642891	-0.249284863472	-0.235232830048	1.48813772202	-0.448269605637
-0.116777181625	1.25500500202	-0.236846327782	-0.234871864319	1.48723042011	-0.448199152946
-0.117518901825	1.24745333195	-0.230659246445	-0.235023260117	1.48776865005	-0.448694705963
-0.123758077621	1.24625718594	-0.230453133583	-0.236077308655	1.48829948902	-0.449338078499
-0.126363277435	1.24790263176	-0.231430530548	-0.237657546997	1.48905074596	-0.449929714203
-0.132066965103	1.24737584591	-0.231759548187	-0.240028858185	1.48927342892	-0.450838327408
-0.146236181259	1.24233269691	-0.233673095703	-0.241735458374	1.48814153671	-0.451635599136
-0.166615247726	1.23352634907	-0.236566066742	-0.242335319519	1.48538029194	-0.452837705612
-0.171718358994	1.2266677618	-0.238356113434	-0.242968082428	1.48354303837	-0.453549146652
-0.170013189316	1.22856676579	-0.244204521179	-0.243698120117	1.4838244915	-0.45402598381
-0.165328741074	1.23165547848	-0.247189044952	-0.243242263794	1.48330748081	-0.454130649567
-0.161718606949	1.23318219185	-0.250409126282	-0.242273807526	1.48212718964	-0.454386949539
-0.163446187973	1.24106943607	-0.258835077286	-0.241847038269	1.48111724854	-0.454967737198
-0.16538310051	1.25244760513	-0.270223855972	-0.241706609726	1.48016536236	-0.45697915554
-0.164828300476	1.25956511497	-0.275175452232	-0.2412981987	1.48181557655	-0.459666728973
-0.164847373962	1.26328313351	-0.277128696442	-0.24153470993	1.48359310627	-0.462793827057
-0.168053150177	1.26576161385	-0.279072999954	-0.242074728012	1.48682975769	-0.465371847153
-0.171825885773	1.26668059826	-0.277621984482	-0.242985963821	1.49055695534	-0.467310905457
-0.175060749054	1.26802551746	-0.274348855019	-0.245610237122	1.49254357815	-0.468827009201
-0.178494930267	1.26811945438	-0.271116733551	-0.249302387238	1.49243605137	-0.469949483871
-0.182032108307	1.26754784584	-0.270667910576	-0.252456665039	1.49198997021	-0.470924139023
-0.18437743187	1.26903021336	-0.272800445557	-0.254075527191	1.49163556099	-0.471289634705
-0.18732881546	1.27082979679	-0.277143239975	-0.254205465317	1.4906847477	-0.470447301865
-0.18555688858	1.26822936535	-0.276059865952	-0.253705978394	1.48871123791	-0.468384981155
-0.182695627213	1.25819134712	-0.269690275192	-0.252328872681	1.48626112938	-0.465927362442
-0.18080997467	1.25570344925	-0.268219232559	-0.250064849854	1.48435544968	-0.463478088379
-0.1803855896	1.26140129566	-0.27202641964	-0.247978210449	1.48399353027	-0.46134185791
-0.181313991547	1.27048408985	-0.278440237045	-0.246416568756	1.48378181458	-0.459444284439
-0.181143522263	1.28025221825	-0.285196900368	-0.244928359985	1.484405756	-0.458513975143
-0.180418014526	1.28851675987	-0.289244532585	-0.243695259094	1.485876441	-0.458612918854
-0.181606769562	1.29349339008	-0.290634155273	-0.242841959	1.48879671097	-0.459713220596
-0.184303998947	1.29253208637	-0.287371873856	-0.242623329163	1.49184966087	-0.461123228073
-0.186384916306	1.28793549538	-0.2809445858	-0.243564844131	1.49429368973	-0.462246417999
-0.187225580215	1.28132414818	-0.272424221039	-0.245321750641	1.49528956413	-0.462597131729
-0.188168048859	1.2714111805	-0.262836694717	-0.247086286545	1.493968606	-0.461938381195
-0.184875011444	1.2521957159	-0.24924659729	-0.248581409454	1.49179077148	-0.460027933121
-0.175943136215	1.23523700237	-0.239785194397	-0.249488353729	1.48966228962	-0.456917285919
-0.178716897964	1.21599984169	-0.235935330391	-0.250223636627	1.48741889	-0.453605413437
-0.182254076004	1.21353065968	-0.238581895828	-0.251392126083	1.48863470554	-0.451621055603
-0.187087774277	1.21648180485	-0.240388035774	-0.253857374191	1.49213516712	-0.45145213604
-0.190934419632	1.22182500362	-0.241460800171	-0.256440877914	1.49178028107	-0.451370835304
-0.195787191391	1.22336113453	-0.24220085144	-0.258749246597	1.48940873146	-0.45134973526
-0.198446989059	1.22031223774	-0.240548968315	-0.261218070984	1.4875638485	-0.451669931412
-0.198881626129	1.22432947159	-0.241314888	-0.262744426727	1.48491966724	-0.451733112335
-0.198908805847	1.23560762405	-0.246166467667	-0.262708187103	1.48196744919	-0.451918125153
-0.200794696808	1.2420668602	-0.24960744381	-0.262653589249	1.48062574863	-0.453201293945
-0.202412605286	1.24726390839	-0.254328727722	-0.262556552887	1.48233509064	-0.455904245377
-0.203075408936	1.25143456459	-0.258377194405	-0.262287378311	1.48492777348	-0.458961009979
-0.203118085861	1.25524866581	-0.261358141899	-0.261521100998	1.4859200716	-0.462637662888
-0.203837156296	1.25707626343	-0.26513504982	-0.261157274246	1.48549997807	-0.46622633934
-0.204624414444	1.25617468357	-0.268360495567	-0.261088609695	1.48434269428	-0.470051288605
-0.203236341476	1.25587916374	-0.271681666374	-0.261424303055	1.48353827	-0.475029945374
-0.202026367188	1.25689911842	-0.275466442108	-0.261298894882	1.48408412933	-0.481381893158
-0.200938224792	1.25872373581	-0.27997636795	-0.260653734207	1.48457098007	-0.487408161163
-0.19971203804	1.25697731972	-0.280801534653	-0.260206699371	1.48527371883	-0.490670681
-0.200198173523	1.25156760216	-0.278259277344	-0.26022028923	1.48519492149	-0.490479707718
-0.202039957047	1.24198031425	-0.273301720619	-0.261250019073	1.48429346085	-0.488606929779
-0.205046653748	1.23003816605	-0.267153739929	-0.262852430344	1.48328697681	-0.486272096634
-0.207884073257	1.22161614895	-0.263825893402	-0.263834476471	1.4824539423	-0.48365020752
-0.208826065063	1.22635424137	-0.266234397888	-0.263624191284	1.48202335835	-0.480850458145
-0.208875179291	1.23166382313	-0.268099308014	-0.262838840485	1.48192930222	-0.4790391922
-0.207833766937	1.23654210567	-0.269852995872	-0.261499881744	1.48218166828	-0.476954698563
-0.205864667892	1.2370954752	-0.268830299377	-0.259803056717	1.48097634315	-0.475287914276
-0.204392433167	1.23521769047	-0.267082691193	-0.25847196579	1.47800505161	-0.4744348526
-0.202092647552	1.23585116863	-0.265883207321	-0.256743431091	1.47451984882	-0.472428321838
-0.199723243713	1.23773789406	-0.265419721603	-0.254693508148	1.47397172451	-0.469522476196
-0.197745323181	1.23870742321	-0.263122081757	-0.253192186356	1.4757733345	-0.466516017914
-0.197387456894	1.23899376392	-0.260777711868	-0.25240945816	1.47796356678	-0.463969945908
-0.198556423187	1.23815321922	-0.259341478348	-0.252163410187	1.48025596142	-0.462060451508
-0.200089454651	1.23879849911	-0.258496165276	-0.252396345139	1.48263466358	-0.460780858994
-0.201436758041	1.23895466328	-0.256897211075	-0.252948522568	1.48566579819	-0.460457086563
-0.202599525452	1.23865699768	-0.255190014839	-0.253618240356	1.48868072033	-0.460736513138
-0.203551530838	1.23787641525	-0.253229856491	-0.254915714264	1.4911288023	-0.461840629578
-0.204150438309	1.23767137527	-0.251647233963	-0.256569385529	1.49243664742	-0.463023900986
-0.205004692078	1.23835384846	-0.25070297718	-0.258280038834	1.49266266823	-0.464075803757
-0.205819129944	1.23868942261	-0.250206232071	-0.259741306305	1.4924942255	-0.464695453644
-0.207149267197	1.23892855644	-0.250047922134	-0.260508537292	1.49186253548	-0.464472293854
-0.207877397537	1.23864197731	-0.250067234039	-0.260545492172	1.49152553082	-0.464325904846
-0.207930803299	1.23783636093	-0.249668121338	-0.261150360107	1.49164330959	-0.464391708374
-0.207223176956	1.2373418808	-0.249880671501	-0.263098955154	1.49079370499	-0.464242458344
-0.206467151642	1.23813402653	-0.251145124435	-0.26514673233	1.49013519287	-0.463845729828
-0.205982923508	1.23848497868	-0.251514911652	-0.265582799911	1.48999893665	-0.463670015335
-0.206797599792	1.23912215233	-0.252367973328	-0.264941453934	1.48931765556	-0.463967323303
-0.207329273224	1.23826730251	-0.251889586449	-0.264608621597	1.48858320713	-0.464404344559
-0.207517147064	1.23909819126	-0.253203868866	-0.265236377716	1.48858356476	-0.464893102646
-0.206838846207	1.23492956161	-0.251340866089	-0.265489816666	1.48821020126	-0.465083599091
-0.201687097549	1.21669530869	-0.239927768707	-0.26534819603	1.48706996441	-0.465177774429
-0.189111232758	1.18921625614	-0.224470496178	-0.26526927948	1.48618125916	-0.465338230133
-0.171289682388	1.1600060463	-0.212110161781	-0.265307188034	1.48559176922	-0.465218782425
-0.151833057404	1.14470386505	-0.210191726685	-0.26521396637	1.48509037495	-0.464611530304
-0.137892723083	1.15149486065	-0.214596152306	-0.265299797058	1.48539996147	-0.46413064003
-0.144900083542	1.16298639774	-0.215338230133	-0.265177249908	1.48575019836	-0.464147090912
-0.164247274399	1.1868224144	-0.220287919044	-0.264354467392	1.48627543449	-0.465067625046
-0.192115783691	1.21205163002	-0.235556721687	-0.263672590256	1.48693346977	-0.46569943428
-0.20978307724	1.23062431812	-0.258068084717	-0.262758493423	1.48741483688	-0.465417146683
-0.218919992447	1.23354458809	-0.268359899521	-0.262094020844	1.48716986179	-0.464788198471
-0.220782279968	1.23185694218	-0.271450519562	-0.261917114258	1.48680579662	-0.464177846909
-0.21905207634	1.22468698025	-0.266185760498	-0.261602401733	1.48606562614	-0.463780641556
-0.210081338882	1.20384097099	-0.247794628143	-0.261145591736	1.48542463779	-0.464262962341
-0.189588308334	1.17016363144	-0.222508430481	-0.260601520538	1.48452091217	-0.464487314224
-0.173147439957	1.12511742115	-0.208965420723	-0.259792804718	1.48328256607	-0.465303897858
-0.153572320938	1.13006699085	-0.206299304962	-0.259218454361	1.48315215111	-0.465222120285
-0.148116111755	1.12799823284	-0.206363916397	-0.25917339325	1.48308420181	-0.465617179871
-0.157650470734	1.14402449131	-0.207693815231	-0.258933067322	1.48405635357	-0.466107368469
-0.173967599869	1.16838359833	-0.21594619751	-0.259220600128	1.48536479473	-0.466685295105
-0.187442541122	1.18984782696	-0.227172613144	-0.25981926918	1.48645484447	-0.467724323273
-0.200317144394	1.2046970129	-0.238406181335	-0.260367155075	1.48705410957	-0.467876434326
-0.211466312408	1.21890425682	-0.252586841583	-0.260545730591	1.4870288372	-0.467098474503
-0.212219715118	1.24136888981	-0.272130846977	-0.259605884552	1.48668253422	-0.465127706528
-0.200475692749	1.26637601852	-0.297225832939	-0.258573055267	1.48600053787	-0.462579488754
-0.194668531418	1.28434181213	-0.324587225914	-0.257745981216	1.48523533344	-0.45930981636
-0.191583156586	1.29711222649	-0.348191380501	-0.256729841232	1.48442399502	-0.456341743469
-0.189768314362	1.30459725857	-0.364037513733	-0.255753278732	1.48426532745	-0.453691959381
-0.190985202789	1.30667638779	-0.362271666527	-0.254760742188	1.48505043983	-0.451642274857
-0.20361995697	1.29523706436	-0.326167345047	-0.253723859787	1.48583984375	-0.450553655624
-0.20534658432	1.26717615128	-0.279144525528	-0.253072977066	1.48610174656	-0.449435710907
-0.198621511459	1.23455393314	-0.244950056076	-0.253092288971	1.48599791527	-0.4483897686
-0.19593334198	1.21954715252	-0.232745885849	-0.253255844116	1.48649680614	-0.447412014008
-0.191914319992	1.21342670918	-0.225038290024	-0.252820014954	1.48592841625	-0.446601748466
-0.187366008759	1.22162747383	-0.223911643028	-0.251944065094	1.48563146591	-0.445234060287
-0.187168121338	1.23613190651	-0.229808092117	-0.251278162003	1.48561143875	-0.443900704384
-0.186414241791	1.24151408672	-0.231862783432	-0.251022815704	1.48525083065	-0.442454576492
-0.18323469162	1.24393975735	-0.232234477997	-0.250524997711	1.48538708687	-0.441476941109
-0.183420658112	1.2511152029	-0.238309264183	-0.250301122665	1.48541259766	-0.440845727921
-0.193477630615	1.26169002056	-0.257340669632	-0.250233650208	1.48505592346	-0.440305948257
-0.203747272491	1.27000081539	-0.282271385193	-0.250199556351	1.48487305641	-0.440052986145
-0.206045866013	1.27534127235	-0.29394197464	-0.249836444855	1.48498916626	-0.44000351429
-0.207588195801	1.27550804615	-0.293883442879	-0.249206542969	1.48473310471	-0.439594626427
-0.202022075653	1.27129387856	-0.274450063705	-0.248503923416	1.48406457901	-0.43922328949
-0.185896158218	1.26139700413	-0.248604297638	-0.247582912445	1.48352611065	-0.43866944313
-0.16530919075	1.24556863308	-0.223488926888	-0.246813774109	1.48273944855	-0.438044786453
-0.148480653763	1.23015642166	-0.207733154297	-0.246243953705	1.48230779171	-0.437748432159
-0.135056972504	1.23126065731	-0.208104133606	-0.245695829391	1.48219656944	-0.437014579773
-0.125191450119	1.23566353321	-0.211912870407	-0.245491981506	1.48231422901	-0.436895608902
-0.131499290466	1.23982608318	-0.212991952896	-0.244958877563	1.48269605637	-0.437205433846
-0.144522428513	1.24567890167	-0.217171669006	-0.245057582855	1.48332738876	-0.437808513641
-0.152394771576	1.25311470032	-0.223241209984	-0.245803117752	1.48510456085	-0.438776493073
-0.156754493713	1.25912868977	-0.224971294403	-0.24698972702	1.48818171024	-0.440427303314
-0.160435438156	1.26067221165	-0.222312927246	-0.249768257141	1.49113631248	-0.443035125732
-0.164392948151	1.26132416725	-0.218859434128	-0.253528118134	1.49309515953	-0.445906996727
-0.167448759079	1.26546788216	-0.219362258911	-0.257293462753	1.49417757988	-0.448828577995
-0.169018268585	1.26849877834	-0.219848871231	-0.259144067764	1.49432182312	-0.450761795044
-0.169180631638	1.27128183842	-0.221993803978	-0.259075403214	1.49400734901	-0.451943159103
-0.167609453201	1.26910555363	-0.221663713455	-0.258158445358	1.49362492561	-0.452480554581
-0.163837194443	1.24981582165	-0.210575580597	-0.256251096725	1.49276220798	-0.452450752258
-0.163758516312	1.24584972858	-0.209907531738	-0.25436091423	1.49242854118	-0.452826976776
-0.17249417305	1.25024628639	-0.214406490326	-0.253490447998	1.49233365059	-0.453227758408
-0.174444437027	1.25325536728	-0.216932058334	-0.25341629982	1.49160480499	-0.454361915588
-0.174132108688	1.25190329552	-0.217136144638	-0.253701925278	1.49177920818	-0.455301046371
-0.176461219788	1.25232160091	-0.21709895134	-0.254203557968	1.49159920216	-0.45602619648
-0.187834262848	1.25294983387	-0.213210940361	-0.253623008728	1.49105584621	-0.45608496666
-0.203683853149	1.25111675262	-0.210333824158	-0.252593517303	1.49028074741	-0.456027030945
-0.214084148407	1.24720096588	-0.210298657417	-0.252200603485	1.4898250103	-0.455155611038
-0.215020179749	1.24589848518	-0.21257352829	-0.252144813538	1.4891012907	-0.454042315483
-0.211352348328	1.23926496506	-0.211257696152	-0.252175092697	1.48820018768	-0.452845096588
-0.204327106476	1.22670567036	-0.206830978394	-0.251813173294	1.4873508215	-0.45114004612
-0.196677923203	1.2106770277	-0.204243898392	-0.251123189926	1.48683595657	-0.449446797371
-0.190016746521	1.21926951408	-0.207468748093	-0.250653743744	1.48684740067	-0.448298215866
-0.189660072327	1.2274774313	-0.210157871246	-0.25063252449	1.48666095734	-0.447870135307
-0.193247079849	1.23588836193	-0.213338851929	-0.250802278519	1.48659718037	-0.44796359539
-0.200428009033	1.24360096455	-0.218830823898	-0.251206636429	1.48695230484	-0.447762727737
-0.209814786911	1.25289070606	-0.229314088821	-0.251582860947	1.48709869385	-0.446913003922
-0.21300983429	1.25742268562	-0.236046075821	-0.251902341843	1.48697781563	-0.445575118065
-0.210561990738	1.2596116066	-0.23633646965	-0.251842021942	1.48691034317	-0.443873643875
-0.20582318306	1.25403344631	-0.228360414505	-0.251423835754	1.48636841774	-0.442314743996
-0.197580099106	1.24142456055	-0.215198278427	-0.250526666641	1.48595201969	-0.440605044365
-0.1888692379	1.21919775009	-0.202903985977	-0.249403238297	1.48581039906	-0.43879365921
-0.183996915817	1.23572063446	-0.2107026577	-0.2484126091	1.48608577251	-0.436931848526
-0.185614824295	1.25475096703	-0.218745946884	-0.247864961624	1.48550617695	-0.435251235962
-0.184996128082	1.26033318043	-0.218565702438	-0.2476375103	1.48561859131	-0.434208869934
-0.18657541275	1.25689888	-0.214245557785	-0.248371839523	1.4873458147	-0.433703064919
-0.190984725952	1.2571246624	-0.211787939072	-0.250308036804	1.49011397362	-0.434044599533
-0.195794820786	1.25883316994	-0.208344936371	-0.253464698792	1.49336600304	-0.435456514359
-0.19921374321	1.26055669785	-0.204077243805	-0.258170843124	1.49521541595	-0.437128543854
-0.202892303467	1.26098430157	-0.200754404068	-0.262749671936	1.49449706078	-0.438172578812
-0.205943346024	1.26309812069	-0.201518058777	-0.26523733139	1.49278831482	-0.43794631958
-0.207154750824	1.26138055325	-0.203497409821	-0.265630960464	1.49164092541	-0.436285495758
-0.199377536774	1.24483072758	-0.198280692101	-0.264117956161	1.49046778679	-0.432906389236
-0.186567783356	1.20809662342	-0.187758922577	-0.261333465576	1.48863339424	-0.428808450699
-0.17494559288	1.15746986866	-0.179022550583	-0.2585978508	1.48747372627	-0.425237178802
-0.165838956833	1.11973273754	-0.180286645889	-0.256674051285	1.48756730556	-0.422590970993
-0.167129516602	1.09460425377	-0.195067882538	-0.255498886108	1.48906373978	-0.419936656952
-0.168047904968	1.06752586365	-0.212104558945	-0.255476713181	1.49081122875	-0.416034698486
-0.164396286011	1.05412340164	-0.217935085297	-0.255958557129	1.49107992649	-0.412882328033
-0.161576986313	1.05150747299	-0.21769785881	-0.256006717682	1.49054932594	-0.411058187485
-0.16300535202	1.0480697155	-0.217535257339	-0.255441427231	1.48888766766	-0.410061717033
-0.159313201904	1.04365134239	-0.217790484428	-0.254687786102	1.48692369461	-0.409283161163
-0.145462274551	1.02528142929	-0.216865062714	-0.254499912262	1.48696887493	-0.409418702126
-0.147748708725	1.01398706436	-0.219423770905	-0.254970312119	1.48824107647	-0.409042477608
-0.161261320114	1.00507998466	-0.224167823792	-0.25603222847	1.48920369148	-0.407744169235
-0.164608716965	1.00594377518	-0.223719358444	-0.257552623749	1.48945772648	-0.406767964363
-0.168937444687	1.01852917671	-0.219883561134	-0.259154081345	1.48875176907	-0.405887365341
-0.176154375076	1.03440904617	-0.214715361595	-0.260272264481	1.48740828037	-0.405034422874
-0.175219774246	1.03642272949	-0.210212945938	-0.260593414307	1.48600435257	-0.404507875443
-0.16242814064	1.02216482162	-0.205223560333	-0.260561466217	1.48624551296	-0.404282808304
-0.141526699066	0.986191749573	-0.20808506012	-0.260182142258	1.48669362068	-0.403491735458
-0.111827850342	0.938992977142	-0.217350959778	-0.259922027588	1.4862126112	-0.403431415558
-0.0754492282867	0.892893314362	-0.235544681549	-0.259556293488	1.48546290398	-0.403809785843
-0.0552854537964	0.883378982544	-0.244664669037	-0.258728981018	1.48531579971	-0.402908325195
-0.0624938011169	0.887298345566	-0.245693683624	-0.257308483124	1.48479366302	-0.402827262878
-0.0741772651672	0.903754472733	-0.237759828568	-0.255797863007	1.48446118832	-0.403991222382
-0.0875227451324	0.92431306839	-0.229309797287	-0.255634069443	1.48420786858	-0.405482530594
-0.104800462723	0.946491479874	-0.222191810608	-0.25671672821	1.48381924629	-0.406617879868
-0.132531166077	0.970348119736	-0.221432685852	-0.257947921753	1.48259294033	-0.406962156296
-0.14982175827	0.985788345337	-0.222707271576	-0.258180856705	1.4804751873	-0.407266378403
-0.160926818848	0.999573469162	-0.222943663597	-0.257781267166	1.47911632061	-0.407934427261
-0.168549537659	1.0083565712	-0.225332856178	-0.256765842438	1.47894573212	-0.408600330353
-0.164734840393	1.01360726357	-0.224389910698	-0.255138397217	1.47865235806	-0.408913612366
-0.154824733734	1.00884771347	-0.21925330162	-0.253064632416	1.47740089893	-0.408943891525
-0.137009620667	1.00290346146	-0.214131832123	-0.250905752182	1.4762840271	-0.408486962318
-0.117522716522	0.991554021835	-0.211138725281	-0.249033927917	1.47602212429	-0.407531738281
-0.0907416343689	0.975113868713	-0.215230464935	-0.247428894043	1.47660291195	-0.406688213348
-0.0676522254944	0.974081754684	-0.220454096794	-0.245954275131	1.47688114643	-0.405997991562
-0.0652873516083	0.976262807846	-0.221511125565	-0.245081186295	1.47684264183	-0.405536174774
-0.0736889839172	0.977618455887	-0.218515396118	-0.24430513382	1.47676336765	-0.405736446381
-0.0928037166595	0.989947319031	-0.212304830551	-0.243740320206	1.47737181187	-0.405634284019
-0.113567590714	1.01637291908	-0.209180474281	-0.24320268631	1.47781801224	-0.405368566513
-0.127001047134	1.04347300529	-0.209765672684	-0.242912054062	1.47779881954	-0.40475153923
-0.132647037506	1.05903887749	-0.211625576019	-0.24282002449	1.47773420811	-0.404212474823
-0.137315988541	1.06628346443	-0.213945150375	-0.242796897888	1.47763633728	-0.40341424942
-0.139108657837	1.06213641167	-0.213985800743	-0.242588758469	1.47771549225	-0.40278840065
-0.128311872482	1.04588580132	-0.208263516426	-0.241954565048	1.47776138783	-0.402091264725
-0.105340957642	1.01503491402	-0.202958703041	-0.241256713867	1.4777097702	-0.401343584061
-0.0803382396698	0.9705722332	-0.208867073059	-0.240387678146	1.47730147839	-0.400296807289
-0.0623152256012	0.957882404327	-0.213521361351	-0.239766597748	1.47738623619	-0.399050354958
-0.0552446842194	0.961869478226	-0.214323997498	-0.239258527756	1.47726583481	-0.397547721863
-0.0607764720917	0.961519002914	-0.20997595787	-0.238142490387	1.47659420967	-0.397087097168
-0.0675239562988	0.967238426208	-0.205804944038	-0.236779212952	1.47681260109	-0.397031068802
-0.074688911438	0.978071212769	-0.201741456985	-0.235109567642	1.47580337524	-0.396893262863
-0.0767211914062	0.990936517715	-0.198213100433	-0.231556892395	1.47336113453	-0.396507740021
-0.075882434845	1.01209068298	-0.194164872169	-0.226290941238	1.4718285799	-0.395450949669
-0.0779626369476	1.03318858147	-0.191859126091	-0.221020936966	1.47149538994	-0.394347071648
-0.0847284793854	1.04682278633	-0.190766572952	-0.217859506607	1.47146952152	-0.39360833168
-0.0907664299011	1.05430841446	-0.192472457886	-0.216723203659	1.47112548351	-0.393661975861
-0.0964732170105	1.06765830517	-0.196603775024	-0.216187953949	1.47121798992	-0.393805384636
-0.107245206833	1.08392822742	-0.200692415237	-0.215206384659	1.47154760361	-0.393664598465
-0.115854978561	1.08800208569	-0.19912648201	-0.214237928391	1.47132563591	-0.393572807312
-0.112102508545	1.08305728436	-0.192319393158	-0.213661193848	1.47064197063	-0.39332151413
-0.0996448993683	1.08473670483	-0.18897163868	-0.213224887848	1.47044563293	-0.392410039902
-0.0858111381531	1.08869957924	-0.186867952347	-0.212729930878	1.47040295601	-0.391568183899
-0.07142162323	1.08869671822	-0.184377670288	-0.212228298187	1.4704580307	-0.39117205143
-0.0501656532288	1.07122039795	-0.181072235107	-0.211869239807	1.47050571442	-0.391055226326
-0.0459425449371	1.0667154789	-0.179120779037	-0.211614131927	1.47087728977	-0.391135334969
-0.0496158599854	1.09240412712	-0.180584907532	-0.211751699448	1.47098433971	-0.390684723854
-0.0589518547058	1.09996855259	-0.178697228432	-0.212630033493	1.47092604637	-0.390617489815
-0.0675604343414	1.1075694561	-0.177570581436	-0.21407699585	1.472042799	-0.390207767487
-0.0844492912292	1.12243878841	-0.17795586586	-0.216111421585	1.47412025928	-0.389804840088
-0.110928058624	1.13925898075	-0.180905342102	-0.217685222626	1.47625160217	-0.390182733536
-0.127737283707	1.15763437748	-0.18930542469	-0.219312667847	1.47656393051	-0.390565872192
-0.138019323349	1.16652560234	-0.192157268524	-0.220455408096	1.47552788258	-0.391108036041
-0.136567115784	1.17035770416	-0.192207217216	-0.221265792847	1.47501468658	-0.392199277878
-0.135770320892	1.18072664738	-0.200357675552	-0.221600532532	1.47566318512	-0.392810702324
-0.145226240158	1.19472873211	-0.215835809708	-0.221146583557	1.47548162937	-0.393549203873
-0.151760101318	1.19975793362	-0.221652030945	-0.220266103745	1.47450709343	-0.394943714142
-0.1488032341	1.19668793678	-0.217993140221	-0.219258308411	1.47464561462	-0.397108078003
-0.139811038971	1.1929461956	-0.212104558945	-0.218396902084	1.47495138645	-0.399031758308
-0.13396191597	1.19223070145	-0.209139823914	-0.216623306274	1.4760414362	-0.400232076645
-0.133876562119	1.19356667995	-0.209855079651	-0.214364051819	1.47912800312	-0.401716351509
-0.135743618011	1.19298028946	-0.209003210068	-0.212611198425	1.48386621475	-0.403974413872
-0.135004997253	1.19350910187	-0.207919716835	-0.212597846985	1.48674547672	-0.406399726868
-0.133706331253	1.19523632526	-0.208468914032	-0.214222431183	1.48495292664	-0.408408880234
-0.132995128632	1.19544672966	-0.21004652977	-0.216090679169	1.48363399506	-0.410220503807
-0.132959842682	1.19744825363	-0.212008476257	-0.217133522034	1.48359012604	-0.411958217621
-0.133212804794	1.19985830784	-0.213797926903	-0.216979503632	1.48237526417	-0.413057327271
-0.124396800995	1.20187342167	-0.210737466812	-0.216628074646	1.48112261295	-0.413849115372
-0.120161056519	1.20382499695	-0.210656404495	-0.216945409775	1.48078620434	-0.414528608322
-0.123072862625	1.20807206631	-0.213966488838	-0.21763586998	1.48060250282	-0.414706110954
-0.125948667526	1.21023833752	-0.215559244156	-0.21873664856	1.48035252094	-0.414790868759
-0.127579689026	1.2108206749	-0.215688943863	-0.219453334808	1.48035430908	-0.415019750595
-0.125727176666	1.21164512634	-0.215486645699	-0.220124483109	1.48046338558	-0.415244817734
-0.123490571976	1.21358847618	-0.2152967453	-0.220494508743	1.48043096066	-0.415406227112
-0.12257361412	1.21502363682	-0.215693116188	-0.220826625824	1.48012363911	-0.415326118469
-0.121415138245	1.21721506119	-0.216475248337	-0.220744132996	1.48013913631	-0.415074467659
-0.122282266617	1.2182892561	-0.215841293335	-0.220854043961	1.48022282124	-0.414679765701
-0.124752521515	1.21935880184	-0.215803623199	-0.221129179001	1.48035061359	-0.413994073868
-0.128303766251	1.2207814455	-0.215468168259	-0.221367835999	1.48229134083	-0.413384318352
-0.130861282349	1.22270011902	-0.213782548904	-0.221662521362	1.48547852039	-0.414504051208
-0.131817579269	1.22552728653	-0.21034693718	-0.222857713699	1.48887467384	-0.417140126228
-0.133639812469	1.22600507736	-0.207639455795	-0.224936723709	1.49053144455	-0.420657157898
-0.137484312057	1.2210547924	-0.205387949944	-0.226602315903	1.49009585381	-0.423474788666
-0.140664577484	1.21716499329	-0.206144094467	-0.22712802887	1.4893655777	-0.425222635269
-0.142790079117	1.21567833424	-0.206802487373	-0.226686000824	1.48901343346	-0.425605535507
-0.143079042435	1.21401619911	-0.206996679306	-0.225696325302	1.48866605759	-0.4250010252
-0.143945217133	1.21158766747	-0.207597970963	-0.224472999573	1.48727440834	-0.423556566238
-0.146989583969	1.21065080166	-0.20943069458	-0.22375535965	1.4864500761	-0.422548770905
-0.149007320404	1.21243464947	-0.211066007614	-0.223327636719	1.48623371124	-0.422376155853
-0.149338960648	1.21375524998	-0.211185693741	-0.223191261292	1.48598062992	-0.422575473785
-0.148491382599	1.21262192726	-0.210438728333	-0.223746538162	1.48582291603	-0.42301940918
-0.148590803146	1.21109640598	-0.210305690765	-0.224751710892	1.48555123806	-0.423377990723
-0.148268461227	1.21147763729	-0.210676550865	-0.225717306137	1.48537290096	-0.423435211182
-0.14750790596	1.21281051636	-0.211640119553	-0.226490020752	1.48518610001	-0.423409223557
-0.147233009338	1.21392047405	-0.212660074234	-0.227271556854	1.48478758335	-0.423177599907
-0.147056341171	1.21507966518	-0.213341355324	-0.229148864746	1.48448228836	-0.422939777374
-0.147747278214	1.21611213684	-0.21430850029	-0.231728076935	1.48474264145	-0.422707557678
-0.148425102234	1.21810781956	-0.215612411499	-0.231395721436	1.48495209217	-0.42249917984
-0.151563644409	1.22212648392	-0.218561172485	-0.229569911957	1.48448610306	-0.422220945358
-0.15832567215	1.23457217216	-0.231674551964	-0.228206157684	1.48420917988	-0.421647548676
-0.162737607956	1.2480121851	-0.249083280563	-0.227212667465	1.48397421837	-0.421180725098
-0.172706604004	1.25039923191	-0.259717226028	-0.225882291794	1.48381006718	-0.421128511429
-0.184633970261	1.24300980568	-0.262279510498	-0.224742412567	1.48367989063	-0.420697689056
-0.187163591385	1.23347735405	-0.254482746124	-0.224261283875	1.4832367897	-0.420399546623
-0.184757947922	1.22261798382	-0.241588354111	-0.224395751953	1.48294007778	-0.419690012932
-0.175795555115	1.20710897446	-0.222628831863	-0.224563121796	1.48238110542	-0.41888654232
-0.158951997757	1.18454492092	-0.200382471085	-0.224398374557	1.4817276001	-0.418016195297
-0.130890846252	1.16161906719	-0.179686188698	-0.223995923996	1.48139071465	-0.41680085659
-0.103639125824	1.13430774212	-0.167547464371	-0.223757266998	1.48160839081	-0.415498733521
-0.0826618671417	1.0950037241	-0.162277460098	-0.22341632843	1.48216831684	-0.414027690887
-0.0714399814606	1.07841527462	-0.16211605072	-0.223005771637	1.48246526718	-0.412414073944
-0.0740022659302	1.08523082733	-0.160693407059	-0.222459554672	1.4820663929	-0.409625887871
-0.0799417495728	1.09670007229	-0.158183336258	-0.221930742264	1.48153543472	-0.407446026802
-0.0884292125702	1.11048364639	-0.157481193542	-0.221204996109	1.48201847076	-0.405785083771
-0.0970757007599	1.1250064373	-0.157442212105	-0.220691919327	1.4843556881	-0.404544830322
-0.102855443954	1.13607394695	-0.156079530716	-0.221018791199	1.48695600033	-0.404207706451
-0.104933738708	1.14297795296	-0.154069185257	-0.222041130066	1.48866736889	-0.404744386673
-0.107014656067	1.14580059052	-0.152678489685	-0.223229169846	1.48886120319	-0.405142307281
-0.11123085022	1.15141928196	-0.153269648552	-0.224244832993	1.48852658272	-0.40588760376
-0.119419336319	1.16328537464	-0.157870531082	-0.224372625351	1.48860406876	-0.406538963318
-0.130133390427	1.1919285059	-0.175548553467	-0.224095821381	1.48844575882	-0.406688928604
-0.145020008087	1.21519482136	-0.195826768875	-0.223666906357	1.48674511909	-0.407264947891
-0.159907341003	1.22208535671	-0.210043907166	-0.223348379135	1.48560738564	-0.408251047134
-0.168879508972	1.2220621109	-0.218964934349	-0.222939968109	1.48507618904	-0.409173727036
-0.167839050293	1.22076570988	-0.219838380814	-0.222419023514	1.48436784744	-0.409823536873
-0.157982349396	1.22077822685	-0.214915513992	-0.221815347672	1.48369479179	-0.410464763641
-0.145576953888	1.22343587875	-0.209696769714	-0.22109913826	1.4831662178	-0.410643577576
-0.13187789917	1.22730696201	-0.204256534576	-0.220582008362	1.48289632797	-0.410635232925
-0.11926984787	1.23238897324	-0.200648784637	-0.219994068146	1.48428797722	-0.410023450851
-0.104376316071	1.23409259319	-0.194860935211	-0.21977853775	1.48385953903	-0.409647226334
-0.0937914848328	1.23050689697	-0.187799215317	-0.219678163528	1.48320817947	-0.408926010132
-0.0957798957825	1.23166787624	-0.187064528465	-0.219537496567	1.48350071907	-0.408324718475
-0.0994713306427	1.2390089035	-0.189692735672	-0.219144582748	1.48359370232	-0.407289981842
-0.101994991302	1.23895037174	-0.187745571136	-0.21896314621	1.48353731632	-0.406069517136
-0.104885578156	1.23631727695	-0.185108661652	-0.219187021255	1.4834061861	-0.404454946518
-0.107570648193	1.23537194729	-0.183900952339	-0.219737052917	1.48318946362	-0.402447104454
-0.110140323639	1.23590326309	-0.182599782944	-0.219775438309	1.4834433794	-0.400531768799
-0.113507032394	1.23871195316	-0.181661844254	-0.220413923264	1.48548686504	-0.399557232857
-0.118943452835	1.24237728119	-0.180575370789	-0.221883058548	1.49173021317	-0.400815010071
-0.124127149582	1.24110579491	-0.177013874054	-0.225121974945	1.49604654312	-0.403297424316
-0.130762815475	1.23518037796	-0.172580957413	-0.230299949646	1.49715185165	-0.40582036972
-0.136053800583	1.22962069511	-0.172693490982	-0.236025094986	1.49583923817	-0.408235788345
-0.141322135925	1.22823524475	-0.176871538162	-0.239821910858	1.49462246895	-0.411504149437
-0.145102739334	1.23316514492	-0.182561159134	-0.241245031357	1.49417686462	-0.415098071098
-0.147213935852	1.23884117603	-0.188567996025	-0.241512537003	1.49362695217	-0.418165922165
-0.149334669113	1.24292719364	-0.194900751114	-0.241611480713	1.49235785007	-0.420014381409
-0.152773857117	1.24753248692	-0.203919410706	-0.24166727066	1.49124836922	-0.42102098465
-0.158537626266	1.25542068481	-0.217107653618	-0.241230487823	1.49044156075	-0.421697020531
-0.165472269058	1.26269567013	-0.229704856873	-0.240688323975	1.49056529999	-0.421848773956
-0.170666694641	1.26863920689	-0.239882946014	-0.24036026001	1.49032104015	-0.421797275543
-0.174117565155	1.27047944069	-0.245584487915	-0.240345954895	1.48982203007	-0.421122670174
-0.175659894943	1.26808845997	-0.244796037674	-0.240223169327	1.48895072937	-0.420158624649
-0.172185659409	1.26606965065	-0.238759279251	-0.239604473114	1.48799037933	-0.418953895569
-0.159338474274	1.26547324657	-0.227918505669	-0.238315820694	1.48690009117	-0.417380571365
-0.143461704254	1.2668762207	-0.219461202621	-0.236982584	1.48612940311	-0.415909528732
-0.129484891891	1.27058696747	-0.216415405273	-0.235844612122	1.4860227108	-0.414562225342
-0.121359586716	1.27416777611	-0.216176748276	-0.234629392624	1.48601365089	-0.413442611694
-0.111836194992	1.27863204479	-0.21698307991	-0.233677387238	1.48608267307	-0.412362098694
-0.107848167419	1.28682470322	-0.22008895874	-0.232568502426	1.48596715927	-0.411536693573
-0.110117912292	1.29677474499	-0.225342988968	-0.231669425964	1.48614561558	-0.410507202148
-0.113437891006	1.30169200897	-0.227296113968	-0.231194734573	1.48614120483	-0.409224271774
-0.114871501923	1.30098462105	-0.225081443787	-0.23091173172	1.48614108562	-0.407801032066
-0.11372256279	1.29733920097	-0.220419883728	-0.230864286423	1.48617720604	-0.405708432198
-0.116199016571	1.29210543633	-0.214942336082	-0.230730056763	1.48650228977	-0.403512835503
-0.127219200134	1.28018903732	-0.207466363907	-0.230735301971	1.48764276505	-0.401981115341
-0.133360624313	1.27496159077	-0.204699516296	-0.230856657028	1.4895042181	-0.400975704193
-0.138715982437	1.27608120441	-0.205277919769	-0.231328487396	1.49128746986	-0.400990724564
-0.146766424179	1.27605032921	-0.206547498703	-0.232750177383	1.49280774593	-0.402273893356
-0.159438610077	1.27646028996	-0.212129592896	-0.234789609909	1.49406051636	-0.404424190521
-0.174018859863	1.27732670307	-0.222061395645	-0.236899614334	1.49401187897	-0.40728020668
-0.182647943497	1.2800116539	-0.231236457825	-0.238528013229	1.4933950901	-0.410424113274
-0.185495376587	1.28485584259	-0.23922252655	-0.239738225937	1.4930216074	-0.413678884506
-0.18531537056	1.29120528698	-0.246167898178	-0.24057507515	1.49326503277	-0.416454553604
-0.184183120728	1.29656159878	-0.252430200577	-0.240949869156	1.49281096458	-0.419398784637
-0.180947542191	1.30046570301	-0.256221532822	-0.240945577621	1.49174463749	-0.421886444092
-0.177117824554	1.29880642891	-0.253082275391	-0.240792512894	1.49144339561	-0.424170851707
-0.170958518982	1.29460692406	-0.245477437973	-0.240878105164	1.49094951153	-0.426340460777
-0.162312269211	1.28778731823	-0.234637975693	-0.241080284119	1.4881503582	-0.427726745605
-0.15159869194	1.27547979355	-0.222566008568	-0.241545438766	1.48543548584	-0.428872585297
-0.140147447586	1.2669968605	-0.216956973076	-0.242178440094	1.48474216461	-0.429894566536
-0.137051343918	1.26906454563	-0.220382809639	-0.242706775665	1.48454213142	-0.431129813194
-0.140420675278	1.27417874336	-0.226718425751	-0.242527008057	1.48418998718	-0.432524323463
-0.144421815872	1.27836155891	-0.233121871948	-0.242134571075	1.48418474197	-0.433943510056
-0.147372961044	1.28137934208	-0.237866640091	-0.241991758347	1.48519980907	-0.435053825378
-0.148707866669	1.28246331215	-0.239990949631	-0.242264270782	1.48673450947	-0.43622303009
-0.150094032288	1.28182935715	-0.240638494492	-0.242973089218	1.48797547817	-0.43726682663
-0.153743028641	1.28139591217	-0.241506099701	-0.244301080704	1.48936212063	-0.438509464264
-0.159282684326	1.27997350693	-0.242759108543	-0.246370315552	1.4901804924	-0.439455747604
-0.16680264473	1.27816426754	-0.244007945061	-0.248519897461	1.49010074139	-0.439620018005
-0.177210330963	1.2746553421	-0.246841788292	-0.250153303146	1.48920464516	-0.439318418503
-0.1917989254	1.26651132107	-0.250238776207	-0.25124669075	1.48973476887	-0.438370108604
-0.196922540665	1.26062941551	-0.249379873276	-0.250996351242	1.49072062969	-0.437031507492
-0.199934482574	1.25858581066	-0.249863624573	-0.249368667603	1.48993062973	-0.435561060905
-0.200221538544	1.25645601749	-0.248112678528	-0.246287584305	1.48847007751	-0.43381023407
-0.195844888687	1.25370383263	-0.24395275116	-0.242871999741	1.48737084866	-0.431966423988
-0.186606884003	1.26061153412	-0.244376897812	-0.239474534988	1.48674309254	-0.430178642273
-0.17768907547	1.2720720768	-0.246319770813	-0.236462831497	1.48639929295	-0.428125858307
-0.168092012405	1.28226351738	-0.246961593628	-0.233696460724	1.48608398438	-0.426066756248
-0.161597728729	1.28918123245	-0.246807336807	-0.231664180756	1.4852231741	-0.423376083374
-0.158428192139	1.29102420807	-0.24463391304	-0.230200767517	1.48441112041	-0.420464992523
-0.155990362167	1.29365026951	-0.242696642876	-0.229462385178	1.48440599442	-0.417562603951
-0.156094074249	1.29618108273	-0.241706371307	-0.229262113571	1.48459661007	-0.414790391922
-0.156684875488	1.29766893387	-0.24037361145	-0.229544401169	1.48435235023	-0.411710262299
-0.15555024147	1.29634284973	-0.237502574921	-0.2302775383	1.48405694962	-0.409006595612
-0.155003786087	1.29603946209	-0.236382484436	-0.23068857193	1.48402273655	-0.406631827354
-0.156096458435	1.29613041878	-0.236847758293	-0.230588197708	1.48396933079	-0.405016899109
-0.156827688217	1.29806566238	-0.240325450897	-0.230165481567	1.48382818699	-0.403655052185
-0.159086227417	1.30302703381	-0.247904062271	-0.229453086853	1.48337948322	-0.402900695801
-0.166974782944	1.30519592762	-0.2563341856	-0.22869515419	1.48339283466	-0.403169393539
-0.175214767456	1.30362796783	-0.26196205616	-0.228166341782	1.48370671272	-0.404397964478
-0.183126688004	1.29936635494	-0.26443529129	-0.227782249451	1.48367750645	-0.40595126152
-0.190808296204	1.29071319103	-0.263159275055	-0.227583408356	1.48353743553	-0.407734870911
-0.201320648193	1.2740329504	-0.25748705864	-0.227429389954	1.48321533203	-0.409753799438
-0.205375909805	1.25029563904	-0.242259502411	-0.227386474609	1.48285031319	-0.411582827568
-0.196373939514	1.22677624226	-0.223000049591	-0.227786540985	1.4822499752	-0.413084506989
-0.185359239578	1.20460212231	-0.208793401718	-0.228578090668	1.48156619072	-0.413466453552
-0.167352676392	1.20725750923	-0.205723047256	-0.229439735413	1.48112463951	-0.412863492966
-0.131305217743	1.21627926826	-0.199335217476	-0.229562997818	1.4802416563	-0.412046790123
-0.0979423522949	1.20597803593	-0.188500881195	-0.229482889175	1.47980928421	-0.412653446198
-0.0868599414825	1.18171131611	-0.178429365158	-0.230173826218	1.48013782501	-0.413852214813
-0.0910065174103	1.17338418961	-0.178746342659	-0.231507778168	1.48052787781	-0.41516327858
-0.0982279777527	1.17825782299	-0.18237054348	-0.232206821442	1.48076868057	-0.416718959808
-0.108363866806	1.19964814186	-0.18882894516	-0.232507228851	1.48149430752	-0.417711257935
-0.12729883194	1.2175270319	-0.197586655617	-0.233157396317	1.48156356812	-0.418308734894
-0.156135082245	1.23110389709	-0.214554071426	-0.233636140823	1.48135113716	-0.418654561043
-0.18700838089	1.24324667454	-0.243242025375	-0.234167814255	1.48104596138	-0.418168067932
-0.219034194946	1.2464107275	-0.276614904404	-0.234333992004	1.48056864738	-0.417894601822
-0.230634450912	1.25455403328	-0.30181479454	-0.234238386154	1.48047244549	-0.417447447777
-0.235597610474	1.25520789623	-0.316020488739	-0.234601020813	1.48022389412	-0.417066812515
-0.2278008461	1.2613850832	-0.315673708916	-0.235072851181	1.47978460789	-0.416618347168
-0.213896274567	1.27003526688	-0.304631352425	-0.234811306	1.47949373722	-0.41624212265
-0.192858219147	1.28053176403	-0.281846523285	-0.233868360519	1.47947883606	-0.415794849396
-0.159472465515	1.28310394287	-0.254102468491	-0.23264837265	1.47926330566	-0.415241479874
-0.131883144379	1.28327965736	-0.245806932449	-0.232323884964	1.47893345356	-0.41404914856
-0.120175361633	1.29114091396	-0.255578041077	-0.232526540756	1.47860658169	-0.412280321121
-0.115420103073	1.30108845234	-0.270771503448	-0.232027292252	1.47805249691	-0.410852193832
-0.121101140976	1.31197178364	-0.288544178009	-0.231100320816	1.47802841663	-0.40914440155
-0.127644538879	1.31959879398	-0.300510644913	-0.230451345444	1.47781765461	-0.407620072365
-0.132052183151	1.32097446918	-0.302721500397	-0.230190753937	1.47795414925	-0.405786395073
-0.137267351151	1.31842195988	-0.299100756645	-0.230681419373	1.47856664658	-0.404097318649
-0.145222902298	1.31578016281	-0.297755718231	-0.231300592422	1.48050534725	-0.402271389961
-0.156403779984	1.31549906731	-0.302630186081	-0.231921195984	1.48304605484	-0.400443553925
-0.164016246796	1.31612110138	-0.306665420532	-0.232159376144	1.48399412632	-0.398836493492
-0.166774749756	1.31727170944	-0.308132410049	-0.231330394745	1.48332238197	-0.397507190704
-0.164774417877	1.31928050518	-0.309800028801	-0.229964733124	1.48229408264	-0.396578550339
-0.163802146912	1.31995618343	-0.312063694	-0.22771692276	1.48253321648	-0.396313428879
-0.162590026855	1.32000589371	-0.312716603279	-0.225089073181	1.48310351372	-0.396382689476
-0.161201000214	1.31968450546	-0.312034726143	-0.222424507141	1.48377394676	-0.396667957306
-0.158797740936	1.31974554062	-0.311883926392	-0.220201969147	1.48429811001	-0.397059559822
-0.157472133636	1.32026898861	-0.310693383217	-0.218553781509	1.48448503017	-0.397228002548
-0.157324790955	1.3197132349	-0.309333562851	-0.217408657074	1.48456907272	-0.397461652756
-0.15722990036	1.31891655922	-0.309557557106	-0.216575145721	1.48499786854	-0.397577881813
-0.157531261444	1.31889903545	-0.309433221817	-0.215217828751	1.48563599586	-0.397787094116
-0.157209873199	1.31815493107	-0.308321237564	-0.213577747345	1.48648297787	-0.398211240768
-0.155996799469	1.31716907024	-0.305342912674	-0.211500167847	1.48737716675	-0.398736715317
-0.153822183609	1.31709778309	-0.302785873413	-0.209062099457	1.4883055687	-0.399536132812
-0.149916172028	1.31729471684	-0.299149990082	-0.205798625946	1.48960399628	-0.400570273399
-0.146580696106	1.31578230858	-0.291125059128	-0.201922416687	1.49109566212	-0.402212262154
-0.142078638077	1.31258785725	-0.279019355774	-0.198011159897	1.49119496346	-0.403716683388
-0.139186859131	1.30794656277	-0.269369363785	-0.194710254669	1.48973846436	-0.404348492622
-0.138260126114	1.30587685108	-0.270017266273	-0.191962718964	1.48844301701	-0.404449462891
-0.145028591156	1.30416965485	-0.275380134583	-0.190173625946	1.48791360855	-0.404206991196
-0.148986816406	1.30246305466	-0.277794599533	-0.189675331116	1.48728728294	-0.403265476227
-0.148918390274	1.30123126507	-0.276020526886	-0.190291881561	1.48603463173	-0.401939868927
-0.144800662994	1.29932403564	-0.269052505493	-0.190996646881	1.48478043079	-0.400797486305
-0.139635324478	1.29750359058	-0.264242887497	-0.191923618317	1.48499512672	-0.400069952011
-0.140189886093	1.29601883888	-0.261918783188	-0.192777633667	1.48541784286	-0.398926496506
-0.142683029175	1.29529607296	-0.261626243591	-0.193493366241	1.48524367809	-0.39785027504
-0.144743919373	1.29447984695	-0.261929392815	-0.197634220123	1.48521459103	-0.39600610733
-0.146979093552	1.29221868515	-0.262362957001	-0.203281641006	1.48596191406	-0.394560694695
-0.149109840393	1.28853142262	-0.258321285248	-0.205231666565	1.48612046242	-0.394270658493
-0.150958538055	1.28507339954	-0.253265500069	-0.204942941666	1.48511815071	-0.394608139992
-0.149173974991	1.28468704224	-0.250319957733	-0.204736709595	1.48389279842	-0.395969629288
-0.15082192421	1.28398323059	-0.249728918076	-0.205292224884	1.48384821415	-0.397750377655
-0.152035713196	1.28410434723	-0.250492811203	-0.205938816071	1.48427164555	-0.399570226669
-0.15212392807	1.28536534309	-0.251930952072	-0.20626115799	1.48433446884	-0.401911735535
-0.15224146843	1.28755426407	-0.253334522247	-0.205374717712	1.48424017429	-0.404364824295
-0.146545410156	1.28905642033	-0.248370170593	-0.203669071198	1.48383593559	-0.406839132309
-0.134179592133	1.28898084164	-0.240081787109	-0.201864957809	1.48330938816	-0.408396482468
-0.12918639183	1.28636133671	-0.235874652863	-0.20109462738	1.48269975185	-0.408736467361
-0.128459692001	1.2824498415	-0.234764099121	-0.202272891998	1.48255872726	-0.40804708004
-0.131069898605	1.28116345406	-0.234717607498	-0.204575061798	1.48295879364	-0.407333850861
-0.133786678314	1.28086042404	-0.234681725502	-0.206605911255	1.48331952095	-0.406595945358
-0.138003349304	1.27865600586	-0.230579853058	-0.207795381546	1.48312008381	-0.405985474586
-0.142116785049	1.27190184593	-0.223289012909	-0.208595991135	1.48294520378	-0.405127286911
-0.143755435944	1.26630985737	-0.218070626259	-0.209098577499	1.48286283016	-0.403731584549
-0.143398761749	1.26389157772	-0.216159582138	-0.208587169647	1.48272502422	-0.402060270309
-0.143806695938	1.26376903057	-0.215718984604	-0.20765542984	1.48221230507	-0.400049567223
-0.144379377365	1.2646228075	-0.217709183693	-0.20644235611	1.48175001144	-0.398384571075
-0.146466255188	1.26676177979	-0.221944451332	-0.205033063889	1.48162341118	-0.396931529045
-0.146831035614	1.27031672001	-0.224858283997	-0.20329284668	1.48129093647	-0.395545125008
-0.146128177643	1.27262306213	-0.226186990738	-0.201857566833	1.48120343685	-0.394707202911
-0.145013809204	1.27663850784	-0.229080796242	-0.201018810272	1.48192083836	-0.394643187523
-0.146569252014	1.27868044376	-0.228316307068	-0.199885845184	1.48474121094	-0.396611809731
-0.14662528038	1.27814292908	-0.22355735302	-0.199638366699	1.48898971081	-0.399955272675
-0.146145343781	1.27740645409	-0.219477653503	-0.200729370117	1.49220013618	-0.403180122375
-0.146047353745	1.27721095085	-0.21821475029	-0.202125787735	1.49323892593	-0.405848264694
-0.147446393967	1.2779160738	-0.219834804535	-0.202926635742	1.49305057526	-0.407678246498
-0.148760080338	1.27819395065	-0.220558166504	-0.203369379044	1.49212288857	-0.408876895905
-0.150318145752	1.27608799934	-0.218684434891	-0.203392505646	1.49061584473	-0.409195899963
-0.149750471115	1.27046883106	-0.213004350662	-0.203827619553	1.48909187317	-0.409047722816
-0.149473190308	1.26236498356	-0.207306146622	-0.204873561859	1.48940396309	-0.409282207489
-0.151531219482	1.25944375992	-0.205879688263	-0.206158399582	1.49007487297	-0.409760713577
-0.153376102448	1.26184988022	-0.207898855209	-0.207439422607	1.49003982544	-0.410373687744
-0.154232978821	1.26259434223	-0.207914710045	-0.208853006363	1.48900711536	-0.41085767746
-0.155264854431	1.2596988678	-0.206926703453	-0.210374593735	1.48815214634	-0.411171078682
-0.156022548676	1.25750899315	-0.206260442734	-0.21223115921	1.48862802982	-0.411152839661
-0.157179832458	1.25813496113	-0.206982374191	-0.214299201965	1.48957705498	-0.411152362823
-0.157833099365	1.2591894865	-0.20771920681	-0.215802192688	1.4906334877	-0.41108071804
-0.158578872681	1.25812184811	-0.208183050156	-0.216549158096	1.49119484425	-0.411814570427
-0.160226821899	1.25762295723	-0.209746956825	-0.216609954834	1.4911775589	-0.413045763969
-0.161789894104	1.25659477711	-0.210794687271	-0.216862201691	1.49050486088	-0.414197087288
-0.163041830063	1.25505161285	-0.212092995644	-0.217434406281	1.49021112919	-0.414794445038
-0.163697004318	1.25412726402	-0.21297621727	-0.218509435654	1.4900945425	-0.415517807007
-0.163815736771	1.2542488575	-0.213180422783	-0.219939231873	1.48975539207	-0.416255831718
-0.162967681885	1.25180590153	-0.210478067398	-0.221158742905	1.48926413059	-0.417231321335
-0.167081832886	1.24367904663	-0.20672917366	-0.222055435181	1.48947095871	-0.418162941933
-0.17756986618	1.2351796627	-0.207894921303	-0.222672462463	1.48976647854	-0.418231487274
-0.179701328278	1.22931015491	-0.206830739975	-0.223043680191	1.48906576633	-0.417664766312
-0.177421331406	1.23095798492	-0.206715106964	-0.222633123398	1.48840618134	-0.416557073593
-0.177075147629	1.23257637024	-0.207540512085	-0.221780776978	1.48762643337	-0.414974451065
-0.180237770081	1.23236370087	-0.20890724659	-0.221557617188	1.48742365837	-0.413646697998
-0.183495283127	1.23372590542	-0.210103988647	-0.22142291069	1.4877114296	-0.412664413452
-0.183768987656	1.23551857471	-0.208024501801	-0.221182346344	1.48777520657	-0.411495089531
-0.183074474335	1.23719358444	-0.205411434174	-0.2212433815	1.48822796345	-0.410181879997
-0.182258605957	1.23654127121	-0.202112197876	-0.221263885498	1.48836517334	-0.40840113163
-0.182235240936	1.23611927032	-0.200413227081	-0.22082233429	1.48827540874	-0.406431794167
-0.181868314743	1.23536920547	-0.198947191238	-0.220066070557	1.48817622662	-0.40452003479
-0.180853128433	1.23631513119	-0.19784283638	-0.218718767166	1.48805105686	-0.402495265007
-0.178949594498	1.23994743824	-0.199200868607	-0.217322349548	1.48793113232	-0.401008844376
-0.177390575409	1.24612605572	-0.202910661697	-0.215807914734	1.48831176758	-0.40026473999
-0.175107240677	1.25132000446	-0.206259965897	-0.214134931564	1.48876547813	-0.399921178818
-0.172711372375	1.25524938107	-0.208858132362	-0.212377071381	1.48906600475	-0.400238752365
-0.171456336975	1.26203799248	-0.214609742165	-0.21106672287	1.48976898193	-0.400992631912
-0.171736001968	1.27285325527	-0.22321665287	-0.210372447968	1.49091684818	-0.402892827988
-0.172139406204	1.28310620785	-0.229597330093	-0.210420131683	1.49332237244	-0.405861616135
-0.172605752945	1.2878330946	-0.230736494064	-0.211561203003	1.49618494511	-0.410041213036
-0.174198150635	1.28760421276	-0.230607628822	-0.214789390564	1.49811279774	-0.41485118866
-0.178101539612	1.28651297092	-0.232778429985	-0.219626665115	1.49838602543	-0.419781446457
-0.181700944901	1.28636705875	-0.236281394958	-0.225320577621	1.49744617939	-0.424960613251
-0.184415817261	1.28751766682	-0.24024438858	-0.230770349503	1.49636590481	-0.4306204319
-0.188330173492	1.29067099094	-0.246824026108	-0.235555410385	1.49482107162	-0.43639922142
-0.188332557678	1.29104471207	-0.248154401779	-0.240390062332	1.49451982975	-0.441800236702
-0.18664932251	1.28834974766	-0.245735168457	-0.244429111481	1.4958666563	-0.446671962738
-0.190311193466	1.28367912769	-0.244739055634	-0.246918916702	1.49667179585	-0.449892520905
-0.195247411728	1.27489745617	-0.243091344833	-0.247978210449	1.49565112591	-0.451291918755
-0.195525169373	1.2626080513	-0.236958503723	-0.247909069061	1.49327003956	-0.450831532478
-0.18976020813	1.24206972122	-0.225699424744	-0.246614694595	1.48945713043	-0.449245810509
-0.178205966949	1.2257578373	-0.216500282288	-0.245271205902	1.48825180531	-0.447670578957
-0.168026208878	1.22343540192	-0.213087320328	-0.245121002197	1.48953843117	-0.446943998337
-0.169242858887	1.22955691814	-0.216506004333	-0.245605230331	1.49011552334	-0.445907592773
-0.175825119019	1.23368215561	-0.220966100693	-0.247733831406	1.48922634125	-0.444919705391
-0.186595916748	1.23615050316	-0.226592898369	-0.251555919647	1.48911869526	-0.444122314453
-0.199138641357	1.23716330528	-0.229684591293	-0.257131814957	1.48911333084	-0.444027304649
-0.208923578262	1.23607265949	-0.228872656822	-0.264228105545	1.48891282082	-0.445331811905
-0.218674659729	1.23605406284	-0.229629635811	-0.271772861481	1.4881862402	-0.446446657181
-0.229345798492	1.23550021648	-0.231928348541	-0.277534723282	1.48683273792	-0.446029543877
-0.237508296967	1.23061490059	-0.2320946455	-0.28084897995	1.48525691032	-0.444052696228
-0.240504264832	1.21948719025	-0.228370070457	-0.283163070679	1.48371577263	-0.442187309265
-0.239282608032	1.20370316505	-0.223339438438	-0.284705638885	1.48216927052	-0.440179109573
-0.239285707474	1.19910824299	-0.224744319916	-0.285831689835	1.4803814888	-0.438669919968
-0.247748851776	1.20205879211	-0.232116222382	-0.287005901337	1.47928833961	-0.437788963318
-0.263402938843	1.20614564419	-0.244081735611	-0.288039684296	1.478484869	-0.437762141228
-0.280213832855	1.21042215824	-0.259001016617	-0.289173603058	1.47808694839	-0.43821978569
-0.293171644211	1.21335220337	-0.271759390831	-0.290543556213	1.47771406174	-0.43950521946
-0.297527313232	1.21453070641	-0.274055957794	-0.291625499725	1.47768497467	-0.441072940826
-0.294891119003	1.21630728245	-0.272034406662	-0.291881322861	1.47783172131	-0.441910028458
-0.291395902634	1.21960318089	-0.272949695587	-0.290775299072	1.47688412666	-0.441967248917
-0.287270784378	1.22224116325	-0.272322654724	-0.288890838623	1.47574222088	-0.441388845444
-0.281075239182	1.2178401947	-0.262570619583	-0.285756826401	1.47455990314	-0.439283370972
-0.275486707687	1.21041619778	-0.250553607941	-0.281659603119	1.47407031059	-0.43542945385
-0.275134325027	1.20492529869	-0.244049549103	-0.278241157532	1.47625184059	-0.430149435997
-0.276183366776	1.20251893997	-0.239774942398	-0.277203559875	1.4796885252	-0.424235224724
-0.279746294022	1.20301115513	-0.236579418182	-0.278245925903	1.48291230202	-0.418982625008
-0.28387594223	1.20563352108	-0.233360528946	-0.280703783035	1.48731577396	-0.416299700737
-0.286664485931	1.20985496044	-0.228492736816	-0.28466296196	1.49304687977	-0.416479587555
-0.28865146637	1.218339324	-0.224919080734	-0.289501190186	1.49823486805	-0.420299291611
-0.28936290741	1.22782492638	-0.225041627884	-0.294765472412	1.50033581257	-0.42666053772
-0.290895462036	1.23531973362	-0.23024725914	-0.299864530563	1.49694406986	-0.433372735977
-0.295323133469	1.24181962013	-0.244542241096	-0.305012226105	1.49055814743	-0.438499093056
-0.297423362732	1.24472105503	-0.257565259933	-0.309946060181	1.48483121395	-0.442421317101
-0.304837942123	1.24507474899	-0.271973609924	-0.313430786133	1.48206806183	-0.44609606266
-0.304811954498	1.24007070065	-0.273479223251	-0.31445646286	1.47933495045	-0.448524713516
-0.29615354538	1.2429857254	-0.274791002274	-0.312763690948	1.47526037693	-0.449754238129
-0.285112857819	1.24187731743	-0.27039206028	-0.309266328812	1.47148513794	-0.450235366821
-0.284682750702	1.2425031662	-0.273191213608	-0.306224346161	1.46966814995	-0.451306581497
-0.291061401367	1.25011992455	-0.286541342735	-0.304341554642	1.46978878975	-0.453206539154
-0.294174194336	1.26378417015	-0.30314707756	-0.30365395546	1.47041332722	-0.455298781395
-0.295171260834	1.27912378311	-0.320291519165	-0.303211688995	1.47053408623	-0.457516789436
-0.294639348984	1.29373574257	-0.33552467823	-0.302584886551	1.47040402889	-0.459689974785
-0.294503688812	1.30781805515	-0.351265311241	-0.301485300064	1.4716514349	-0.461697816849
-0.297732591629	1.31487596035	-0.365788459778	-0.299913883209	1.47351026535	-0.463183403015
-0.301931142807	1.30967509747	-0.366346240044	-0.297560930252	1.47610497475	-0.463032960892
-0.296524524689	1.30076026917	-0.34731054306	-0.294750928879	1.47748661041	-0.462054014206
-0.284846782684	1.2930150032	-0.323292613029	-0.291747331619	1.47798776627	-0.459351658821
-0.272733926773	1.28589713573	-0.301661491394	-0.288634061813	1.47779560089	-0.45550775528
-0.264026641846	1.27296602726	-0.280669569969	-0.2860455513	1.47727632523	-0.451033592224
-0.26083278656	1.26521682739	-0.2700111866	-0.284538507462	1.47665452957	-0.446632146835
-0.262732744217	1.26358222961	-0.267028093338	-0.284400463104	1.47611486912	-0.442409753799
-0.26624917984	1.26499664783	-0.266476750374	-0.284920215607	1.47499811649	-0.438973426819
-0.268755197525	1.2676936388	-0.264797687531	-0.286046266556	1.47456181049	-0.435535907745
-0.271916389465	1.26874279976	-0.262224197388	-0.287433385849	1.47486388683	-0.43195104599
-0.275654315948	1.2685302496	-0.259853601456	-0.288475990295	1.4752266407	-0.428334474564
-0.278642177582	1.26892161369	-0.257285356522	-0.289342880249	1.47637581825	-0.424616217613
-0.281290054321	1.26932966709	-0.254014015198	-0.291257619858	1.47744858265	-0.421011924744
-0.284434556961	1.26881182194	-0.252034187317	-0.294250011444	1.47875165939	-0.417956233025
-0.288358211517	1.26635658741	-0.249287128448	-0.297778606415	1.48083472252	-0.415348410606
-0.291556358337	1.26276063919	-0.245841622353	-0.301240682602	1.4815915823	-0.412328481674
-0.293169021606	1.25478649139	-0.237481117249	-0.303838014603	1.47922086716	-0.409208536148
-0.291291952133	1.24694609642	-0.22966837883	-0.305828332901	1.47593593597	-0.406430482864
-0.289352178574	1.24227964878	-0.22586274147	-0.307033538818	1.47123527527	-0.403435230255
-0.290919780731	1.23888421059	-0.226099252701	-0.30700969696	1.46524369717	-0.400814771652
-0.295902967453	1.2411261797	-0.231041908264	-0.305771589279	1.46139526367	-0.398768186569
-0.305930376053	1.25292575359	-0.247344732285	-0.30371260643	1.46168231964	-0.39790391922
-0.319434642792	1.25506126881	-0.263769388199	-0.301661014557	1.46498775482	-0.398143768311
-0.323053359985	1.25031900406	-0.26461482048	-0.299465179443	1.46852564812	-0.399210453033
-0.319907665253	1.24628651142	-0.260339856148	-0.297234296799	1.46970772743	-0.399045228958
-0.310538291931	1.24385285378	-0.250639915466	-0.294690132141	1.46900117397	-0.397787094116
-0.297590255737	1.24493587017	-0.240710020065	-0.292665243149	1.46853458881	-0.396375179291
-0.289327859879	1.24369168282	-0.23143362999	-0.290994405746	1.46813285351	-0.395355463028
-0.287608861923	1.24135005474	-0.227587103844	-0.289733171463	1.46820509434	-0.394884705544
-0.287565946579	1.24339592457	-0.227223873138	-0.288794279099	1.4679338932	-0.394917726517
-0.288111209869	1.24389445782	-0.227177143097	-0.287903308868	1.46799874306	-0.395352721214
-0.288284540176	1.24416780472	-0.225295186043	-0.287680149078	1.46868252754	-0.396044492722
-0.284678220749	1.24449908733	-0.222977399826	-0.288166046143	1.46926641464	-0.396516680717
-0.286373376846	1.24742817879	-0.22627222538	-0.28977227211	1.46915054321	-0.395975589752
-0.291664600372	1.25055205822	-0.231248140335	-0.291628599167	1.46868216991	-0.395821094513
-0.294907808304	1.25450539589	-0.234426856041	-0.293321371078	1.4688642025	-0.395689845085
-0.298075675964	1.25624096394	-0.235890626907	-0.294378042221	1.46846473217	-0.396115779877
-0.300679683685	1.26087629795	-0.239738464355	-0.294939517975	1.46810674667	-0.396946549416
-0.302192687988	1.26371824741	-0.242120265961	-0.295373916626	1.46842956543	-0.39820587635
-0.298906326294	1.26638543606	-0.241024017334	-0.296125173569	1.46895122528	-0.399283885956
