0.0	-0.0	129.925354004	66.1832199097	85.5665206909	-1.39188969135
0.0	-0.0	129.763412476	66.4328689575	84.7024002075	-1.37010502815
0.0	-0.0	128.509902954	65.9959945679	83.5177307129	-0.713509082794
0.0	-0.0	126.296890259	64.162689209	81.081161499	0.81581389904
0.0	-0.0	123.411819458	61.6653289795	78.3530807495	2.952242136
0.0	-0.0	124.124984741	61.074016571	78.5326004028	4.1189198494
0.0	-0.0	125.90146637	61.7358169556	79.0364074707	4.92848014832
0.0	-0.0	124.678627014	62.4504852295	78.2598724365	5.46403884888
0.0	-0.0	123.344734192	65.3713760376	77.925567627	5.99780750275
0.0	-0.0	88.3319778442	72.4907302856	79.921005249	5.42256736755
0.0	0.0	-46.2246932983	81.25806427	82.7888183594	4.22980833054
0.0	0.0	-56.5064239502	88.0638809204	86.4429855347	4.2375330925
0.0	0.0	-54.9894561768	92.2863235474	88.2838897705	2.38298797607
0.0	0.0	-57.10704422	-84.8084106445	87.5164260864	177.747680664
0.0	0.0	-65.6300125122	-83.2179412842	82.7253875732	165.840255737
0.0	0.0	-68.1400985718	-80.3597717285	83.4557342529	152.732772827
0.0	0.0	-57.6645545959	-75.6574172974	84.42527771	143.296386719
0.0	-0.0	-163.174057007	-68.5430755615	84.0176010132	141.526885986
0.0	-0.0	164.928573608	-63.6833648682	83.1539459229	144.363586426
0.0	-0.0	75.2156524658	-62.9784393311	83.5746002197	148.395050049
0.0	0.0	-9.9861831665	-66.784538269	84.8305130005	150.359100342
0.0	0.0	-31.7805938721	-69.2475738525	86.1217422485	152.081619263
0.0	0.0	-36.6207618713	-69.2126922607	87.6180877686	152.346176147
0.0	0.0	-47.2583389282	-67.7821578979	87.9209976196	151.761657715
0.0	0.0	-64.950843811	-65.6300354004	86.7981643677	150.573471069
0.0	0.0	-59.4643974304	-63.6386146545	85.2871551514	150.284713745
0.0	0.0	-47.7488174438	-62.3912239075	86.7150268555	150.702789307
0.0	0.0	-40.4667854309	-61.8494682312	87.9149475098	152.315856934
0.0	0.0	-43.1031341553	-60.8667488098	86.8788909912	152.674667358
0.0	0.0	-51.3134040833	-57.7279281616	86.0192871094	151.761672974
0.0	0.0	-56.6654396057	-54.5481300354	84.9831085205	149.127746582
0.0	0.0	-51.9029579163	-54.0460166931	85.1423416138	148.85887146
0.0	0.0	-47.005531311	-57.0025405884	85.6267547607	150.140579224
0.0	0.0	-35.5960884094	-60.3022384644	85.1214141846	152.028396606
0.0	0.0	-23.2567520142	-61.7873954773	84.9908676147	153.654998779
0.0	0.0	-15.5134515762	-62.3642158508	84.8193664551	155.514770508
0.0	0.0	-9.90640068054	-62.8153457642	84.5571517944	155.503845215
0.0	-0.0	4.83744955063	-62.6165237427	83.807472229	155.299667358
0.0	-0.0	76.6212081909	-62.3729820251	82.4144210815	154.433822632
0.0	-0.0	99.2891387939	-61.7462387085	82.1977157593	153.56652832
0.0	-0.0	75.881652832	-62.5004272461	82.594871521	153.303421021
0.0	-0.0	81.6325378418	-62.6608276367	81.576210022	152.955551147
0.0	-0.0	75.4949798584	-60.8087272644	81.3062515259	152.059417725
0.0	-0.0	69.7105712891	-59.2531280518	82.1166763306	150.618728638
0.0	-0.0	40.2881774902	-58.7449684143	83.272895813	149.71522522
0.0	-0.0	25.9302959442	-58.5025978088	83.9607620239	149.063461304
0.0	-0.0	16.7456035614	-57.8942260742	84.3616485596	148.508102417
0.0	-0.0	1.952460289	-57.6422653198	84.1111450195	148.840652466
0.0	0.0	-30.1006622314	-57.7967948914	81.9158782959	148.404296875
0.0	0.0	-73.626449585	-55.6364898682	81.6872177124	147.988342285
0.0	-0.0	-150.429931641	-53.6927757263	83.071434021	149.013137817
0.0	-0.0	-177.710464478	-55.8761787415	83.0585327148	150.11227417
0.0	-0.0	-176.381271362	-58.9337387085	83.7809448242	151.834564209
0.0	-0.0	-149.996002197	119.453651428	88.9803390503	-28.299829483
0.0	-0.0	-149.61756897	118.99181366	75.5352706909	-28.4745788574
0.0	-0.0	-157.271133423	121.299301147	62.8380050659	-29.3198928833
0.0	-0.0	-157.605316162	125.011619568	57.9793281555	-29.3559074402
0.0	-0.0	-156.535217285	128.869369507	58.6435203552	-28.8488464355
0.0	-0.0	-157.415786743	131.112380981	67.8933486938	-27.5598297119
0.0	-0.0	-154.424484253	131.478607178	85.4245681763	-26.2938346863
0.0	-0.0	-146.935302734	-48.8973312378	78.5922775269	153.477966309
0.0	-0.0	-132.990264893	-49.7998123169	70.693572998	150.067382812
0.0	0.0	-79.3801193237	-49.9304580688	66.4742355347	147.876312256
0.0	0.0	-51.2822113037	-51.9727058411	66.6382064819	145.914398193
0.0	0.0	-50.6760406494	-55.4931869507	70.6862564087	143.947189331
0.0	0.0	-54.3967399597	-56.1660728455	75.6897125244	143.386276245
0.0	0.0	-58.8425712585	-55.9468765259	79.9243469238	143.474197388
0.0	0.0	-62.1092681885	-55.4302101135	81.5012359619	143.49382019
0.0	0.0	-61.427986145	-54.8638534546	83.4127578735	142.458328247
0.0	0.0	-46.7810173035	-54.9492950439	86.1065673828	141.514160156
0.0	0.0	-29.2362060547	-55.1399421692	89.4555130005	142.209518433
0.0	0.0	-17.1364459991	124.219665527	87.6102981567	-35.9036064148
0.0	0.0	-20.7825069427	124.865470886	85.7707977295	-33.5241699219
0.0	0.0	-22.2885665894	126.470962524	86.4328460693	-31.3565444946
0.0	0.0	-22.0992488861	127.682830811	87.4826507568	-30.9241981506
0.0	0.0	-0.153707563877	127.688674927	87.3056869507	-31.7061576843
0.0	-0.0	75.1771240234	126.329299927	86.8486480713	-32.9048843384
0.0	-0.0	70.5328826904	125.940261841	86.7709579468	-33.0133552551
0.0	-0.0	58.6746368408	126.219833374	86.7688522339	-32.2697715759
0.0	-0.0	61.8784561157	126.917739868	87.1090393066	-32.6069221497
0.0	-0.0	57.1756706238	127.77280426	86.5742492676	-33.5502624512
0.0	-0.0	62.8599281311	128.109039307	85.8541946411	-33.5031776428
0.0	-0.0	62.4215621948	127.529548645	86.4174499512	-33.2543830872
0.0	-0.0	60.8416976929	127.132843018	86.9796066284	-33.2222938538
0.0	-0.0	59.3581695557	127.452156067	87.622467041	-33.440120697
0.0	-0.0	62.1887588501	128.547439575	89.1322479248	-33.807674408
0.0	-0.0	65.8402557373	-49.8415412903	88.0428161621	146.245132446
0.0	-0.0	75.290687561	-48.2899017334	85.6307601929	146.706192017
0.0	-0.0	85.6383895874	-47.4790763855	83.5991363525	146.539123535
0.0	-0.0	90.9018554688	-46.512008667	83.4413528442	146.539382935
0.0	-0.0	128.922515869	-45.5189857483	84.20287323	146.415054321
0.0	-0.0	154.979446411	-43.9585151672	87.6372299194	147.074081421
0.0	-0.0	161.540298462	-45.3909072876	87.8275146484	148.119613647
0.0	-0.0	159.679336548	-48.9250259399	84.71509552	149.866668701
0.0	-0.0	147.285858154	-52.4286117554	84.3428421021	151.303482056
0.0	0.0	-34.9270439148	-54.0011863708	87.8227233887	151.801681519
0.0	0.0	-56.7847480774	125.361579895	87.8059234619	-27.8522701263
0.0	0.0	-64.7465591431	124.861625671	83.6125793457	-26.7930030823
0.0	0.0	-86.3050537109	125.039810181	80.2840270996	-24.8942203522
0.0	0.0	-65.3811569214	125.510391235	78.3840408325	-23.7421779633
0.0	0.0	-43.4215621948	124.973091125	76.6532897949	-22.2637672424
0.0	0.0	-23.1217727661	122.830886841	74.748374939	-19.2650279999
0.0	-0.0	11.3121538162	120.697891235	73.6675949097	-15.7788105011
0.0	-0.0	68.072845459	117.374237061	74.2809143066	-11.3192243576
0.0	-0.0	69.9273452759	114.67237854	76.9415512085	-6.77943944931
0.0	-0.0	51.4927444458	114.424751282	79.2474060059	-4.167096138
0.0	-0.0	52.8301086426	117.130783081	79.4856948853	-3.35268640518
0.0	-0.0	50.5561485291	119.67502594	80.5898590088	-2.77069449425
0.0	-0.0	40.3238639832	121.113456726	82.5469894409	-3.71544027328
0.0	-0.0	32.6515655518	121.765090942	84.8215484619	-4.48562860489
0.0	-0.0	49.2262611389	121.864807129	85.8401107788	-5.34943389893
0.0	-0.0	66.7833175659	122.403175354	86.3219070435	-5.98740291595
0.0	-0.0	78.8326034546	122.852592468	86.4614562988	-6.50370979309
0.0	-0.0	79.8186264038	122.989402771	86.5877075195	-7.22607040405
0.0	-0.0	79.7841339111	122.782325745	86.6698608398	-7.6769452095
0.0	-0.0	79.9593048096	122.519142151	87.0417861938	-8.02083683014
0.0	-0.0	72.9588623047	122.335426331	87.3391647339	-8.05451107025
0.0	-0.0	76.9015960693	122.163589478	86.7160415649	-8.17629909515
0.0	-0.0	78.8531494141	121.903938293	86.4945678711	-8.24784564972
0.0	-0.0	106.906028748	122.068618774	87.0809707642	-8.58849811554
0.0	-0.0	137.709503174	122.59197998	88.0559997559	-8.36769485474
0.0	-0.0	148.628646851	123.096984863	88.1263504028	-8.73855018616
0.0	-0.0	140.932601929	123.887550354	87.1075973511	-9.27838230133
0.0	-0.0	135.805160522	123.829559326	85.8483734131	-9.67174625397
0.0	-0.0	136.574569702	122.812995911	86.1904296875	-9.32686328888
0.0	-0.0	171.734710693	122.337493896	86.4748153687	-8.48393344879
0.0	-0.0	-173.727005005	122.402870178	84.9978408813	-7.7164182663
0.0	-0.0	-164.749511719	122.118843079	82.2842025757	-5.82662963867
0.0	0.0	-15.311006546	121.867324829	79.6561660767	-3.84856653214
0.0	-0.0	6.62610054016	121.799110413	77.9297561646	-2.88368391991
0.0	-0.0	32.9205856323	121.547393799	74.6931991577	-2.37290930748
0.0	-0.0	26.5469379425	119.486778259	75.1813812256	-2.01011919975
0.0	-0.0	18.8687648773	118.305786133	77.6166229248	-1.88571441174
0.0	-0.0	7.08102226257	117.896560669	80.4583969116	-2.92492890358
0.0	0.0	-17.2423210144	117.897224426	83.5569381714	-4.21262073517
0.0	0.0	-36.1338577271	117.384513855	86.4096984863	-7.12793207169
0.0	0.0	-40.6944999695	117.61554718	87.5703048706	-10.6172237396
0.0	0.0	-39.634185791	119.315727234	85.5095901489	-14.3166589737
0.0	0.0	-44.3374671936	121.998779297	83.7458190918	-18.3912887573
0.0	0.0	-31.8296470642	125.826934814	85.6962509155	-22.7120857239
0.0	0.0	-31.7710762024	-49.4506034851	87.2486419678	155.15071106
0.0	0.0	-30.4032249451	-44.3692436218	74.1329421997	155.854003906
0.0	0.0	-34.9591140747	-41.2257766724	62.8543968201	157.345855713
0.0	0.0	-35.8459396362	-42.1311569214	59.8749542236	159.82081604
0.0	0.0	-35.4825019836	-45.4145050049	65.9376449585	160.605712891
0.0	0.0	-34.0456161499	-50.1611366272	73.8303222656	162.337982178
0.0	0.0	-36.9877471924	-54.0002670288	78.2732086182	163.558670044
0.0	0.0	-54.6136016846	-55.2472991943	78.9594573975	164.597305298
0.0	0.0	-74.397064209	-54.6694145203	78.974609375	165.138473511
0.0	0.0	-83.477142334	-54.9492721558	80.5703964233	164.469818115
0.0	0.0	-84.6410217285	-55.8763961792	82.8358383179	164.321960449
0.0	0.0	-84.0149307251	-56.4827957153	83.5376586914	164.321075439
0.0	0.0	-74.7157592773	-56.9318351746	84.3000183105	164.566802979
0.0	0.0	-61.4069747925	-57.5554084778	85.0098114014	164.61656189
0.0	0.0	-52.9385147095	-57.4952354431	85.5391769409	164.321182251
0.0	0.0	-46.0092086792	-57.6942710876	85.4362106323	164.428573608
0.0	0.0	-40.5084381104	-58.3573417664	85.499130249	164.240371704
0.0	0.0	-37.0520210266	-58.9845352173	85.7857437134	164.215240479
0.0	0.0	-37.4075088501	-60.0451622009	86.5794143677	163.864730835
0.0	0.0	-37.5153274536	-60.2864112854	86.6063461304	164.670120239
0.0	0.0	-38.4522132874	-60.1801643372	87.4917068481	164.806137085
0.0	0.0	-38.4941253662	-59.9460868835	88.9009857178	164.363494873
0.0	0.0	-36.4241981506	-59.9285469055	89.5972137451	164.277389526
0.0	0.0	-48.5589561462	-60.3756103516	88.7760238647	164.299179077
0.0	0.0	-74.3558959961	-60.0995330811	89.2340545654	165.018341064
0.0	0.0	-79.3333740234	118.239616394	88.235458374	-15.3677778244
0.0	0.0	-66.9490890503	116.673530579	87.6616363525	-15.4325265884
0.0	0.0	-33.031539917	114.880111694	86.0065841675	-13.8784151077
0.0	0.0	-1.8218973875	112.766593933	84.4476928711	-11.7794046402
0.0	-0.0	5.0718998909	112.800559998	85.5854949951	-9.62823867798
0.0	-0.0	13.4041633606	113.732276917	87.3877258301	-8.63026809692
0.0	-0.0	34.7974586487	115.106109619	88.6804580688	-7.8351559639
0.0	-0.0	105.80947876	115.511825562	89.2938842773	-7.28438568115
0.0	-0.0	112.022651672	115.094062805	88.4063796997	-7.46735572815
0.0	-0.0	106.95501709	114.937889099	88.2133178711	-6.43783903122
0.0	-0.0	106.928291321	114.613487244	89.3037796021	-5.86829853058
0.0	-0.0	106.707695007	115.127990723	89.9695892334	-6.91312837601
0.0	-0.0	104.939941406	-63.9221343994	89.1406021118	171.528823853
0.0	-0.0	103.899337769	-64.2294082642	88.5229873657	170.250396729
0.0	-0.0	102.554000854	-64.2723846436	87.5427474976	167.970901489
0.0	-0.0	103.034797668	-62.4128112793	86.0653076172	165.809967041
0.0	-0.0	103.000358582	-58.9556312561	84.449760437	164.498443604
0.0	-0.0	98.4192581177	-56.4461288452	83.7408599854	164.076065063
0.0	-0.0	97.171661377	-55.4054832458	83.3724365234	164.916107178
0.0	-0.0	90.9799880981	-54.7378044128	87.8585128784	166.911743164
0.0	-0.0	87.8106536865	125.791374207	82.4649276733	-12.9364318848
0.0	-0.0	89.6828918457	125.707298279	73.0675888062	-14.0267314911
0.0	-0.0	96.0649642944	126.078895569	73.0787582397	-14.2642602921
0.0	-0.0	104.352081299	128.1144104	79.4200820923	-14.4073228836
0.0	-0.0	108.086891174	128.379013062	87.6483001709	-13.9752626419
0.0	-0.0	114.732872009	-52.0372161865	88.5796356201	165.037460327
0.0	-0.0	128.23210144	-51.8768692017	87.0403213501	163.816360474
0.0	-0.0	131.765884399	-51.4636039734	86.359046936	164.217590332
0.0	0.0	-17.7424030304	-51.5565872192	86.8345413208	164.590621948
0.0	0.0	-37.9575576782	-51.7134628296	87.2077331543	164.840332031
0.0	0.0	-38.8328437805	-51.2331390381	87.8257293701	164.853088379
0.0	0.0	-41.053768158	-50.8576316833	89.2607650757	164.990646362
0.0	0.0	-56.9753227234	129.524963379	89.0920791626	-15.5915632248
0.0	0.0	-59.1499519348	130.951980591	88.4087600708	-15.9526395798
0.0	0.0	-69.3259124756	-48.2344322205	88.5144958496	163.82723999
0.0	-0.0	-176.891571045	-49.3018531799	86.2144088745	163.576171875
0.0	-0.0	93.9186553955	-50.4967269897	87.0915985107	163.702377319
0.0	-0.0	48.2745895386	130.076019287	84.6467132568	-15.8672838211
0.0	-0.0	41.321395874	131.771575928	70.8134918213	-17.7169303894
0.0	-0.0	40.0260925293	135.098907471	58.7631912231	-19.8480396271
0.0	-0.0	46.3702697754	140.499267578	52.2948646545	-22.1592788696
0.0	-0.0	49.6209144592	142.966934204	51.8506698608	-22.6849441528
0.0	-0.0	56.147277832	141.986129761	59.7448425293	-21.6602478027
0.0	-0.0	43.0541954041	140.51234436	72.8288574219	-18.7464313507
0.0	-0.0	21.7136726379	137.270599365	84.0993423462	-18.4701023102
0.0	0.0	-7.97924518585	-45.7353858948	85.9549407959	158.364349365
0.0	0.0	-20.871421814	-47.7283172607	77.2503585815	155.49848938
0.0	0.0	-20.6045417786	-50.2986793518	71.4893875122	153.471878052
0.0	0.0	-7.73561191559	-53.2890739441	71.3017578125	151.887451172
0.0	-0.0	8.28035831451	-54.7368583679	75.1944503784	150.495758057
0.0	-0.0	13.3232564926	-54.3053894043	81.6764526367	149.094558716
0.0	-0.0	31.556098938	-54.617931366	87.5709152222	148.599838257
0.0	-0.0	66.4123764038	-55.4205436707	89.5269165039	148.284866333
0.0	-0.0	146.12387085	124.051620483	89.0508499146	-30.624288559
0.0	-0.0	155.042266846	123.82648468	87.2299423218	-27.1396369934
0.0	-0.0	151.775543213	124.160499573	83.9811706543	-24.0495986938
0.0	-0.0	153.783874512	123.140739441	80.3337097168	-21.2493057251
0.0	-0.0	155.758834839	121.564147949	78.5688476562	-18.9992446899
0.0	-0.0	157.250717163	117.810401917	77.1515045166	-16.7331085205
0.0	-0.0	158.180679321	114.106361389	75.9566726685	-15.2407798767
0.0	-0.0	158.416397095	112.958229065	75.010017395	-12.7008638382
0.0	-0.0	160.434768677	112.961799622	74.3929367065	-11.0841274261
0.0	-0.0	162.020553589	113.647323608	75.7015533447	-10.368563652
0.0	-0.0	163.432525635	114.630630493	78.7282562256	-9.91421318054
0.0	-0.0	166.674423218	116.155845642	82.0545425415	-9.62404441833
0.0	0.0	-42.7486076355	116.300888062	84.256111145	-9.0206785202
0.0	0.0	-49.3566398621	115.158050537	84.5871124268	-8.68086624146
0.0	0.0	-49.3335494995	115.846923828	84.3592605591	-7.95512628555
0.0	0.0	-50.2687454224	117.098342896	84.9561386108	-7.67917442322
0.0	0.0	-53.7061386108	118.342407227	88.5727081299	-7.39909267426
0.0	0.0	-44.5440940857	-61.0461616516	86.115776062	174.323928833
0.0	0.0	-6.99452400208	-62.6413497925	85.2200241089	176.069137573
0.0	-0.0	124.96056366	-65.2598419189	84.7595291138	178.76071167
0.0	-0.0	119.440063477	-65.3458709717	85.1786422729	-179.834747314
0.0	-0.0	125.960517883	-64.0708770752	85.9721450806	-178.096328735
0.0	-0.0	132.736343384	-64.0260391235	87.9384460449	-178.258743286
0.0	-0.0	134.917144775	-64.1872329712	88.8302307129	-178.559234619
0.0	-0.0	146.46395874	-64.6397476196	88.5503921509	-177.477493286
0.0	-0.0	162.803924561	-65.5167312622	88.2667007446	-175.897994995
0.0	-0.0	174.040664673	-65.3504867554	88.2847366333	-174.344726562
0.0	-0.0	-176.627700806	-64.6578216553	88.6201782227	-172.313171387
0.0	-0.0	-171.736740112	-64.3154220581	88.764289856	-170.874252319
0.0	-0.0	-169.28086853	-63.9333572388	89.0112762451	-171.004455566
0.0	-0.0	-171.223526001	-62.6589279175	89.3040008545	-172.071502686
0.0	-0.0	150.70489502	-62.1431007385	89.5193252563	-174.064483643
0.0	-0.0	82.76612854	117.246620178	89.1875991821	3.42192435265
0.0	-0.0	55.6245002747	115.761253357	86.9091110229	-1.04228854179
0.0	-0.0	35.8020133972	116.248527527	86.3996582031	-6.11901950836
0.0	-0.0	25.4407997131	119.841407776	87.0313262939	-10.9975309372
0.0	-0.0	7.47037696838	123.688682556	88.9796981812	-14.3490314484
0.0	0.0	-6.58437108994	-53.3590774536	88.81590271	164.824005127
0.0	0.0	-1.74382257462	-52.627532959	88.1025314331	165.514816284
0.0	0.0	-2.17585897446	-53.0680770874	89.0118942261	165.91734314
0.0	-0.0	15.54134655	-54.6883201599	89.099937439	166.688766479
0.0	0.0	-10.3768873215	123.293899536	89.0078201294	-13.5911483765
0.0	0.0	-16.9231929779	119.329086304	88.9159622192	-13.6264982224
0.0	0.0	-28.5908546448	115.846115112	88.7792358398	-12.3484382629
0.0	0.0	-30.6254196167	112.871765137	87.2628860474	-10.9404115677
0.0	0.0	-39.1935653687	111.203292847	85.7372283936	-8.95695209503
0.0	0.0	-60.8981170654	111.393585205	85.335899353	-7.44045877457
0.0	0.0	-71.9561386108	111.661903381	88.4295425415	-5.68567895889
0.0	0.0	-63.7322692871	-66.8134307861	89.3465118408	175.683685303
0.0	0.0	-51.8545722961	-65.5151367188	86.4531326294	174.920150757
0.0	0.0	-1.80000734329	-66.3700180054	81.6273269653	173.530410767
0.0	-0.0	48.1271858215	-66.9904785156	82.2683334351	172.984207153
0.0	-0.0	29.5777492523	114.912254333	89.5578079224	-9.78826808929
0.0	-0.0	29.8549823761	117.726554871	82.2816696167	-13.3618898392
0.0	-0.0	20.7788715363	119.687507629	79.5064163208	-17.2805328369
0.0	-0.0	17.9005413055	122.462921143	76.9643936157	-22.0870075226
0.0	-0.0	9.4861240387	123.886169434	73.0334625244	-28.2208156586
0.0	-0.0	10.5087804794	125.695205688	72.4905548096	-37.1649017334
0.0	-0.0	14.1331443787	133.30027771	66.2440872192	-45.1771659851
0.0	-0.0	18.3516693115	139.558105469	60.7103462219	-44.8568534851
0.0	-0.0	19.9442615509	140.828826904	53.9170303345	-43.4170532227
0.0	-0.0	23.3189678192	139.85508728	48.5935249329	-40.3456268311
0.0	-0.0	26.2280025482	138.558990479	46.8753890991	-34.5622520447
0.0	-0.0	31.2954387665	137.518768311	53.5235176086	-28.6363067627
0.0	-0.0	34.8510894775	134.324996948	78.165435791	-23.2154426575
0.0	-0.0	33.5894813538	-49.1848869324	78.2106628418	163.116577148
0.0	-0.0	28.7238731384	-51.5206069946	72.3834152222	166.605194092
0.0	-0.0	27.4244823456	-53.8168067932	73.2485122681	166.972045898
0.0	-0.0	28.5150527954	-54.4693717957	76.737663269	167.822967529
0.0	-0.0	28.5221385956	-56.3519554138	77.4791946411	170.046524048
0.0	-0.0	47.921875	-60.8577461243	77.7238311768	172.265808105
0.0	-0.0	101.210823059	-64.094871521	79.4659194946	173.924133301
0.0	-0.0	96.5162506104	-64.2682800293	79.9607925415	176.01965332
0.0	-0.0	95.1805267334	-63.2823295593	80.0801391602	177.386062622
0.0	-0.0	92.7472839355	-62.7273788452	81.1389541626	178.232254028
0.0	-0.0	90.551940918	-62.9471321106	82.5572738647	178.772766113
0.0	-0.0	90.3768615723	-61.8867263794	84.1237487793	-179.606964111
0.0	-0.0	91.0000686646	-59.6492385864	86.1154937744	-177.253509521
0.0	-0.0	94.1411819458	-58.3192176819	88.0241546631	-175.26411438
0.0	-0.0	95.6625442505	-56.9187431335	89.3475723267	-172.843261719
0.0	-0.0	98.34324646	124.225517273	89.4036102295	8.48443317413
0.0	-0.0	99.0723114014	125.929298401	88.3904571533	8.53700065613
0.0	-0.0	100.633728027	128.633499146	88.3151168823	8.90775966644
0.0	-0.0	100.935844421	131.093200684	89.2793121338	11.1917915344
0.0	-0.0	109.4323349	-49.0872077942	89.6907196045	-166.435028076
0.0	-0.0	123.971702576	-50.8037567139	88.4990692139	-165.924057007
0.0	-0.0	117.311637878	-51.9833869934	87.4420776367	-166.679534912
0.0	-0.0	115.866950989	-51.5520858765	87.5834884644	-167.396026611
0.0	-0.0	116.55582428	-50.4264335632	87.9497756958	-167.000915527
0.0	-0.0	117.034103394	-48.6854515076	89.9817199707	-165.484390259
0.0	-0.0	117.264472961	132.962112427	87.2808227539	17.6939334869
0.0	-0.0	121.118774414	132.941986084	86.3838348389	21.16431427
0.0	-0.0	128.745361328	131.824127197	86.9310302734	24.3632850647
0.0	-0.0	130.679153442	-48.5091972351	89.3544006348	-154.603607178
0.0	-0.0	129.742004395	-49.1269645691	86.4798583984	-157.392471313
0.0	-0.0	128.848907471	-48.7873764038	84.9720230103	-163.023666382
0.0	-0.0	131.557006836	-47.1707572937	85.4971847534	-167.801773071
0.0	-0.0	144.215805054	-45.7008666992	87.1673583984	-171.056945801
0.0	-0.0	158.224716187	-44.6849136353	89.3309707642	-172.994491577
0.0	-0.0	156.56729126	-42.5296630859	89.816192627	-173.865097046
0.0	-0.0	117.852127075	-40.5889320374	89.7295684814	-174.503799438
0.0	0.0	-10.1811800003	139.762130737	89.9231262207	5.54914808273
0.0	0.0	-15.62682724	138.285110474	89.7166366577	5.02996969223
0.0	0.0	-9.27886867523	137.40814209	89.3546218872	4.37851285934
0.0	0.0	-37.6154060364	-42.5875320435	89.2114562988	-174.190261841
0.0	0.0	-65.9187927246	-43.01587677	88.5557785034	-174.2862854
0.0	0.0	-70.186882019	-43.7127494812	89.0452728271	-174.987442017
0.0	0.0	-56.3959579468	136.466537476	88.921043396	3.95719313622
0.0	0.0	-26.4416217804	135.61517334	83.945098877	1.99774909019
0.0	0.0	-2.44131541252	135.07208252	74.3350143433	-0.0914169475436
0.0	-0.0	10.6419715881	137.455596924	66.6489944458	-1.47213470936
0.0	-0.0	29.6718235016	141.16104126	63.2425346375	-3.15253520012
0.0	-0.0	27.2409191132	143.248855591	68.1323165894	-3.24398207664
0.0	-0.0	35.1889839172	143.306991577	75.4733581543	-3.68432116508
0.0	-0.0	29.0710411072	141.258026123	81.9493637085	-3.68214941025
0.0	-0.0	56.2976341248	137.366958618	84.8318099976	-4.61465549469
0.0	-0.0	63.5558738708	133.287231445	89.5855026245	-5.14901590347
0.0	-0.0	46.2267494202	-50.9654655457	85.9798736572	175.218383789
0.0	-0.0	36.1666526794	-57.7996253967	82.5348892212	173.705566406
0.0	-0.0	25.0365715027	-63.4005661011	80.7663803101	170.492080688
0.0	-0.0	16.7839889526	-68.500328064	84.2068023682	166.930633545
0.0	0.0	-3.65674829483	104.113929749	88.9156570435	-16.6706180573
0.0	0.0	-30.8909263611	98.5440139771	85.2614822388	-20.1799793243
0.0	0.0	-51.2115592957	97.7257995605	85.4128494263	-21.3150920868
0.0	0.0	-72.4755706787	98.0112609863	88.7962188721	-21.0624313354
0.0	0.0	-67.0380020142	-81.127571106	85.0671463013	159.647079468
0.0	0.0	-58.7872619629	-79.6003570557	84.6582489014	162.680603027
0.0	0.0	-46.7842788696	-78.3651199341	87.9558410645	166.760971069
0.0	0.0	-46.9952201843	-77.0976409912	89.9187774658	170.916824341
0.0	0.0	-44.9018745422	-75.6491241455	88.3052825928	170.885818481
0.0	0.0	-43.5528182983	-76.2060012817	86.3528671265	169.194961548
0.0	0.0	-42.1651649475	-77.9721069336	83.0501327515	168.493789673
0.0	0.0	-43.6990776062	-79.5542449951	82.9909133911	165.901977539
0.0	0.0	-43.4045753479	-76.5905380249	83.887802124	164.777145386
0.0	0.0	-43.0123291016	-71.7942733765	85.385848999	165.638504028
0.0	0.0	-29.0940704346	-68.3686294556	85.6852798462	166.44152832
0.0	0.0	-6.15324878693	-65.4087295532	84.4754333496	166.69329834
0.0	-0.0	39.3610229492	-63.7525901794	82.5430908203	170.697616577
0.0	-0.0	88.7391204834	-62.9125022888	81.1147155762	175.034469604
0.0	-0.0	84.5641021729	-61.2533531189	81.0127258301	177.110702515
0.0	-0.0	79.3001327515	-58.5549507141	80.1377792358	179.144638062
0.0	-0.0	77.6491165161	-57.0748329163	80.7770843506	-179.682830811
0.0	-0.0	74.8047103882	-57.4529342651	83.3368606567	-179.660690308
0.0	-0.0	72.1309738159	-59.449344635	84.6299514771	-179.375549316
0.0	-0.0	70.6609954834	-62.2358322144	84.803894043	-179.372039795
0.0	-0.0	70.3561401367	-66.7054519653	85.4937362671	-179.19178772
0.0	-0.0	71.1741409302	-70.611366272	87.3884963989	179.459732056
0.0	-0.0	72.1007156372	108.129753113	88.4694213867	-1.39129495621
0.0	-0.0	73.5903015137	108.993843079	84.0390853882	-0.490671485662
0.0	-0.0	74.5050735474	108.87563324	80.8944091797	0.750839054585
0.0	-0.0	75.7813949585	108.670730591	83.0579376221	-0.684416532516
0.0	-0.0	73.6450195312	-71.2897415161	84.3872451782	175.923126221
0.0	-0.0	67.8734817505	-70.8913421631	69.0529022217	172.072647095
0.0	-0.0	60.8178825378	-67.4754943848	66.1272506714	167.848876953
0.0	-0.0	78.4811477661	-63.4581413269	67.865486145	165.046905518
0.0	-0.0	114.492843628	-60.9824752808	64.3964309692	165.28918457
0.0	-0.0	79.9877243042	-60.6139602661	65.2528762817	167.342773438
0.0	-0.0	38.6986694336	-60.4524040222	71.0531234741	165.852615356
0.0	-0.0	35.9866790771	-59.426071167	79.7776641846	163.494110107
0.0	-0.0	43.1920433044	123.344223022	87.1321182251	-18.1080493927
0.0	-0.0	60.58618927	126.10748291	71.2171630859	-19.6541290283
0.0	-0.0	83.1816864014	128.225646973	60.5557403564	-19.7134857178
0.0	-0.0	146.743789673	130.451538086	55.1120834351	-16.8206806183
0.0	-0.0	170.218658447	133.240509033	48.7595977783	-16.2525367737
0.0	-0.0	166.738876343	133.855789185	44.8403015137	-15.8359975815
0.0	-0.0	155.237228394	131.272201538	47.065071106	-15.0298089981
0.0	-0.0	143.64805603	129.359786987	53.5616035461	-14.2975559235
0.0	-0.0	122.818069458	128.052185059	70.6728439331	-12.8640842438
0.0	-0.0	110.051544189	-52.5110549927	86.0672836304	166.988204956
0.0	-0.0	97.3001708984	-52.5384101868	70.4520721436	166.233459473
0.0	-0.0	95.4317321777	-53.4020843506	61.3579864502	166.500579834
0.0	-0.0	85.602104187	-53.3864212036	60.655632019	165.523239136
0.0	-0.0	46.8826675415	-52.5992050171	62.3319587708	164.749923706
0.0	0.0	-19.5407619476	-52.6104240417	63.6382598877	163.747268677
0.0	0.0	-52.2605514526	-52.7320175171	65.3073959351	162.036911011
0.0	0.0	-63.4976081848	-52.4490242004	68.6562576294	160.622207642
0.0	0.0	-57.7211532593	-51.3922615051	75.4957504272	158.531860352
0.0	0.0	-43.4434928894	-49.5027618408	83.2141647339	155.438537598
0.0	0.0	-54.749256134	-47.2249641418	86.4626693726	153.799667358
0.0	0.0	-61.6765594482	-46.6026687622	84.1192398071	154.29486084
0.0	0.0	-60.4649925232	-48.3602790833	82.1111450195	155.577072144
0.0	0.0	-61.6280670166	-49.5613098145	80.1209793091	157.338134766
0.0	0.0	-64.8540725708	-50.558921814	78.1012420654	159.22958374
0.0	0.0	-61.7484054565	-52.9621238708	73.3221664429	162.223754883
0.0	0.0	-55.4586753845	-55.1437263489	67.3402709961	164.904907227
0.0	0.0	-51.6601486206	-54.7845687866	62.076171875	166.234741211
0.0	0.0	-51.3157691956	-53.9447250366	54.364238739	167.832992554
0.0	0.0	-48.8670349121	-54.9390869141	48.7777366638	169.212509155
0.0	0.0	-46.8072509766	-56.6679763794	48.2312545776	170.529418945
0.0	0.0	-43.3778686523	-59.4023551941	47.0700263977	172.880126953
0.0	0.0	-35.9082832336	-61.1613616943	50.1362380981	174.102935791
0.0	0.0	-36.2877883911	-62.4729652405	58.9819412231	174.705093384
0.0	0.0	-35.4366188049	-62.2131271362	67.6017532349	174.737197876
0.0	0.0	-35.0789031982	-60.6897964478	72.6985855103	173.02192688
0.0	0.0	-35.7336235046	-59.4264030457	69.9704666138	170.729354858
0.0	0.0	-32.3363723755	-58.1582260132	69.625541687	169.341323853
0.0	0.0	-28.2777462006	-56.9981079102	70.0539169312	168.149642944
0.0	0.0	-24.5125370026	-56.3671875	70.9786300659	167.989608765
0.0	0.0	-16.3513526917	-57.0843162537	72.3790359497	167.696884155
0.0	0.0	-13.4849634171	-57.8879432678	74.5421829224	167.75479126
0.0	0.0	-25.0952663422	-58.8083724976	78.4926376343	167.60824585
0.0	0.0	-27.7263011932	-60.1498908997	83.7240905762	167.259902954
0.0	0.0	-30.6728820801	-61.4984283447	88.9042282104	166.950714111
0.0	0.0	-30.8576660156	117.149269104	88.1613388062	-12.9403448105
0.0	0.0	-31.2411003113	116.290817261	85.6823654175	-13.4552412033
0.0	0.0	-30.6448822021	116.538818359	84.7727584839	-13.4999933243
0.0	0.0	-30.2653980255	115.223709106	84.6430664062	-12.7972841263
0.0	0.0	-29.7970294952	113.2993927	84.5625076294	-11.9816961288
0.0	0.0	-30.799243927	111.261924744	84.0808639526	-11.0523986816
0.0	0.0	-32.7779464722	108.623596191	81.6388320923	-9.86796474457
0.0	0.0	-35.0034179688	106.027526855	79.2319717407	-8.27172279358
0.0	0.0	-37.7039375305	103.957351685	78.0010147095	-6.98241472244
0.0	0.0	-36.6002693176	103.452384949	79.1991958618	-6.66124105453
0.0	0.0	-27.2518005371	102.689498901	80.4664230347	-6.14838027954
0.0	0.0	-6.18641281128	101.998558044	80.7617111206	-7.27150249481
0.0	-0.0	16.1381034851	102.067115784	85.0208206177	-8.35177898407
0.0	-0.0	23.0247440338	-77.0885696411	88.2136001587	169.788482666
0.0	-0.0	26.1152629852	-75.9634857178	81.6992721558	165.942184448
0.0	-0.0	34.1346931458	-74.4731750488	77.2820053101	162.088119507
0.0	-0.0	44.6972198486	-72.8389587402	75.8349151611	159.487442017
0.0	-0.0	61.9461631775	-72.4453201294	76.595916748	158.191467285
0.0	-0.0	82.7117843628	-72.7903594971	81.1896438599	157.412872314
0.0	-0.0	89.984161377	-72.7556304932	84.0446014404	157.491363525
0.0	-0.0	92.4945907593	-71.868019104	85.0305099487	158.52671814
0.0	-0.0	90.7785644531	-70.2742385864	84.8684158325	159.680541992
0.0	-0.0	96.8981704712	-69.2951660156	86.6989593506	161.461578369
0.0	-0.0	101.686904907	111.879554749	86.9535522461	-17.7403335571
0.0	-0.0	107.557403564	113.426643372	77.7092971802	-16.6191120148
0.0	-0.0	110.038070679	115.09727478	68.0835800171	-15.6863832474
0.0	-0.0	117.987792969	117.617584229	62.4141273499	-15.2397537231
0.0	-0.0	123.964027405	120.456367493	59.8792114258	-14.2350988388
0.0	-0.0	130.63571167	122.971969604	64.0368118286	-13.2366991043
0.0	-0.0	135.189788818	123.563995361	81.6201934814	-10.1142063141
0.0	-0.0	133.867385864	-57.0577545166	74.5899658203	173.371627808
0.0	-0.0	130.00302124	-58.2834663391	67.3335494995	174.481948853
0.0	-0.0	126.045967102	-60.0591545105	67.9813766479	174.615509033
0.0	-0.0	128.608398438	-60.4372558594	75.3229675293	173.367111206
0.0	-0.0	134.696868896	-57.7638206482	89.6428222656	171.075790405
0.0	-0.0	141.386657715	127.405052185	75.8364944458	-11.4367036819
0.0	-0.0	147.1847229	132.091049194	67.5236206055	-14.0324211121
0.0	-0.0	147.507614136	132.637039185	70.9472885132	-13.8620948792
0.0	-0.0	143.490447998	130.758300781	85.0399780273	-11.2820730209
0.0	-0.0	139.355636597	-51.5646286011	75.0078125	171.297668457
0.0	-0.0	137.040542603	-52.8493919373	67.2441253662	172.545913696
0.0	-0.0	133.918304443	-54.945602417	71.5170440674	172.723922729
0.0	-0.0	135.114212036	-57.8834686279	84.4429016113	171.679168701
0.0	-0.0	138.558395386	120.730957031	76.9207229614	-10.3897390366
0.0	-0.0	140.108901978	118.683425903	66.0043869019	-9.44219398499
0.0	-0.0	142.442153931	115.083206177	62.6120109558	-6.24414348602
0.0	-0.0	144.302688599	113.704193115	74.978187561	-3.16635656357
0.0	-0.0	146.361465454	-64.3988494873	86.2945404053	179.764862061
0.0	-0.0	147.317092896	-60.7019233704	80.4784088135	-179.35345459
0.0	-0.0	142.922546387	-63.8306388855	82.5167388916	-177.843139648
0.0	-0.0	136.78666687	102.653793335	87.7059173584	2.57408237457
0.0	-0.0	112.174705505	90.0031356812	78.2164916992	4.24540519714
0.0	-0.0	11.4460229874	80.4527740479	73.9524154663	8.10174942017
0.0	-0.0	29.5713310242	70.9476165771	75.8681793213	12.6522550583
0.0	-0.0	98.2914199829	65.2913284302	80.6857528687	15.2593612671
0.0	-0.0	114.920799255	66.026260376	84.8417892456	14.6882486343
0.0	-0.0	108.26133728	68.8020477295	88.2430953979	13.2127037048
0.0	-0.0	37.575378418	-107.945999146	87.7785873413	-169.259078979
0.0	0.0	-28.9984760284	-102.676765442	83.3643493652	-171.96144104
0.0	0.0	-36.6615371704	-98.1028060913	78.4410705566	-177.492660522
0.0	0.0	-36.9119377136	-94.1187591553	74.8175048828	177.279678345
0.0	0.0	-37.7406845093	-91.5240783691	76.8438186646	174.27432251
0.0	0.0	-40.7083702087	-96.375869751	81.2645263672	170.490127563
0.0	0.0	-39.0392379761	-107.136360168	85.3627624512	168.597091675
0.0	0.0	-28.7743282318	-116.400222778	86.9370193481	168.47769165
0.0	0.0	-38.448841095	-116.693725586	87.8228149414	171.046798706
0.0	0.0	-35.7349853516	-112.985641479	88.3113479614	173.890945435
0.0	0.0	-37.7996482849	-109.801956177	86.7791824341	174.848876953
0.0	0.0	-37.8526039124	-108.002120972	85.7998809814	174.260131836
0.0	0.0	-41.0193519592	-107.492980957	84.6758346558	173.05809021
0.0	0.0	-40.1986503601	-106.75302124	84.2779083252	172.406448364
0.0	0.0	-22.4313812256	-105.353645325	84.1995162964	172.613372803
0.0	-0.0	7.40663957596	-104.577430725	83.8887481689	173.269210815
0.0	-0.0	54.6831130981	-103.221733093	83.7285232544	173.792129517
0.0	-0.0	50.9087181091	-102.965782166	84.6737213135	174.00793457
0.0	-0.0	53.4361000061	-103.04473877	84.9949798584	174.46484375
0.0	-0.0	57.0099182129	-102.753097534	85.2961120605	174.471099854
0.0	-0.0	59.3260307312	-102.099998474	85.2697982788	173.947769165
0.0	-0.0	62.333366394	-101.201446533	84.7490768433	173.78616333
0.0	-0.0	69.007194519	-100.728469849	85.2515487671	173.723190308
0.0	-0.0	83.3940048218	-100.341278076	87.0940246582	173.424758911
0.0	-0.0	107.606826782	-99.5887374878	89.5176086426	172.538955688
0.0	-0.0	114.122749329	-98.2542037964	89.5352859497	172.063903809
0.0	-0.0	99.3407592773	-96.2448196411	87.4678421021	171.975128174
0.0	-0.0	87.6273269653	-92.616569519	85.1143112183	171.073898315
0.0	-0.0	88.4548034668	-89.1890716553	83.9971008301	170.859268188
0.0	-0.0	91.7694244385	-88.4153671265	84.2905883789	170.612518311
0.0	-0.0	95.4022369385	-88.7670059204	85.9949035645	169.646102905
0.0	-0.0	103.340080261	92.2049484253	89.4945220947	-11.1626796722
0.0	-0.0	116.920791626	94.6667022705	86.1202774048	-11.7100105286
0.0	-0.0	106.757850647	98.2965316772	86.7076873779	-12.481795311
0.0	-0.0	34.4716186523	101.193161011	87.8633728027	-11.9889440536
0.0	0.0	-0.165881097317	101.28465271	87.8011169434	-11.573428154
0.0	-0.0	4.21075344086	101.29650116	88.4708862305	-12.5178470612
0.0	0.0	-0.774118006229	103.087783813	89.3037185669	-12.4855518341
0.0	0.0	-15.2766361237	-78.1287765503	89.2576980591	167.540405273
0.0	0.0	-28.6569404602	-80.3700027466	89.1634902954	167.84211731
0.0	0.0	-35.505279541	-82.4595336914	89.7042312622	168.214645386
0.0	0.0	-35.3175621033	-84.7963790894	89.4624176025	168.655181885
0.0	0.0	-35.5175323486	-88.0458602905	89.0148239136	169.178253174
0.0	0.0	-39.4734535217	-91.6281738281	88.5913543701	169.69619751
0.0	0.0	-48.9657325745	-94.5207290649	88.2358322144	170.059051514
0.0	0.0	-51.7530937195	-96.0570678711	88.4036483765	170.043167114
0.0	0.0	-52.0980033875	-97.3444442749	88.5522079468	170.046356201
0.0	0.0	-54.0715522766	-100.031410217	88.9536514282	170.094924927
0.0	0.0	-55.5318946838	-104.670532227	89.3583068848	170.297683716
0.0	0.0	-56.5604896545	-109.761894226	89.8500366211	170.643493652
0.0	0.0	-57.3960151672	-113.533920288	89.5648651123	169.943069458
0.0	0.0	-56.7753372192	-114.634933472	88.5501785278	169.24520874
0.0	0.0	-53.9266433716	-114.098060608	87.7346801758	168.405197144
0.0	0.0	-32.5149726868	-112.865203857	87.0942230225	167.638015747
0.0	-0.0	13.3150444031	-110.381729126	84.7419433594	166.95539856
0.0	-0.0	58.8537597656	-107.37852478	80.856338501	166.221618652
0.0	-0.0	63.8277168274	-104.051200867	78.9871444702	166.301437378
0.0	-0.0	62.4276199341	-100.946212769	79.7286987305	165.732345581
0.0	-0.0	62.9151535034	-97.5010223389	81.9908599854	164.515762329
