0.0	-0.0	-135.210739136	-31.654214859	86.4571914673	36.138507843
0.0	-0.0	-134.21043396	-31.4940948486	86.323425293	35.926700592
0.0	-0.0	-124.904418945	-31.441865921	85.3916625977	36.0882987976
0.0	0.0	-105.968109131	-25.9620037079	79.1853637695	31.0149250031
0.0	0.0	-90.0470199585	-12.0175409317	82.8238983154	14.1775302887
0.0	0.0	-76.9708099365	-3.36987423897	89.5895843506	4.03316068649
0.0	0.0	-65.4969024658	177.265579224	89.649810791	177.830230713
0.0	0.0	-58.8305511475	179.211959839	88.5268859863	168.045562744
0.0	0.0	-58.7395935059	-175.501373291	87.5732650757	158.755203247
0.0	0.0	-60.4219055176	-168.746505737	81.5298690796	146.461837769
0.0	0.0	-63.4923095703	-164.436187744	74.2745132446	139.016784668
0.0	0.0	-65.6480941772	-164.169830322	67.3874206543	137.41847229
0.0	0.0	-66.4311981201	-168.92678833	60.987159729	132.121902466
0.0	0.0	-68.4512786865	-173.02520752	55.518081665	126.186431885
0.0	0.0	-70.6545791626	-175.844543457	48.7088737488	115.438110352
0.0	0.0	-72.055229187	-178.28843689	45.0036621094	110.417457581
0.0	0.0	-72.2842559814	-176.849349976	46.3186302185	121.067817688
0.0	0.0	-73.1204299927	-177.752334595	58.2727508545	144.349853516
0.0	0.0	-75.0382919312	175.109649658	69.4068984985	155.346832275
0.0	0.0	-77.7915039062	167.291763306	75.1187591553	141.823257446
0.0	0.0	-80.4838562012	163.227783203	70.5284500122	110.600532532
0.0	0.0	-82.5252075195	162.073516846	63.9614524841	90.9639511108
0.0	0.0	-81.0319442749	168.398696899	67.8294525146	114.378753662
0.0	0.0	-76.7301483154	168.214920044	78.4259338379	151.204208374
0.0	0.0	-70.4594039917	174.524291992	79.2206802368	163.266265869
0.0	0.0	-59.1128959656	-174.943832397	68.0360488892	177.56854248
0.0	0.0	-48.8985366821	-171.004470825	53.7965354919	162.060455322
0.0	0.0	-41.2473602295	-170.917556763	44.1085243225	142.883850098
0.0	0.0	-36.2562408447	-172.173614502	34.5854873657	117.333213806
0.0	0.0	-33.7785186768	-175.733291626	33.3781051636	110.356559753
0.0	0.0	-34.9937438965	-179.853713989	37.9870223999	122.850036621
0.0	0.0	-36.9740524292	179.870635986	41.5266189575	138.54649353
0.0	0.0	-36.3384132385	179.453323364	36.3941917419	144.367050171
0.0	0.0	-34.1705703735	-177.918151855	27.7746181488	148.09552002
0.0	0.0	-31.8686008453	-177.003585815	18.1744060516	146.889053345
0.0	0.0	-28.2532653809	-173.383132935	13.8646659851	152.243560791
0.0	0.0	-24.1108131409	-172.798797607	11.5378370285	152.462234497
0.0	0.0	-20.9918632507	-175.382522583	15.4893198013	154.278656006
0.0	0.0	-18.0606575012	178.982315063	23.0953083038	159.942230225
0.0	0.0	-16.5785617828	175.636245728	27.4723567963	167.357681274
0.0	0.0	-17.3033943176	175.974761963	29.6045055389	171.987411499
0.0	0.0	-22.0233726501	177.182312012	31.2728500366	172.848464966
0.0	0.0	-33.1431350708	178.661117554	30.7654094696	175.159576416
0.0	0.0	-42.9837875366	177.813873291	30.6563587189	176.242782593
0.0	0.0	-47.8567390442	177.145751953	31.4969768524	178.327804565
0.0	0.0	-51.3981399536	178.655273438	31.5855350494	179.772857666
