0.0	-0.0	139.799285889	87.7386245728	57.6555213928	5.80538749695
0.0	-0.0	140.109436035	87.8385162354	57.7781410217	5.48528862
0.0	-0.0	140.011001587	87.789680481	57.910949707	5.59396076202
0.0	-0.0	139.340454102	87.3426437378	57.8400726318	6.09576559067
0.0	-0.0	134.026000977	84.8583374023	58.097328186	4.83029556274
0.0	-0.0	124.058624268	76.2202682495	58.5854606628	4.30654430389
0.0	-0.0	114.198120117	66.8052520752	54.9638252258	8.95551300049
0.0	-0.0	106.202308655	59.1468467712	52.3348846436	13.1367359161
0.0	-0.0	100.633605957	54.7342643738	50.4891204834	15.5837888718
0.0	-0.0	97.4917526245	52.8323707581	48.3576622009	17.2845172882
0.0	-0.0	94.49243927	52.3267326355	44.2471961975	18.2809352875
0.0	-0.0	91.0096282959	55.2388305664	38.7558326721	17.9431056976
0.0	-0.0	88.5587081909	62.3812713623	28.0293083191	13.9906539917
0.0	-0.0	87.7281341553	69.9942398071	17.7358016968	12.4290304184
0.0	-0.0	87.0399856567	76.2434005737	10.0877075195	11.3930931091
0.0	-0.0	86.423614502	82.3711776733	3.40304589272	12.5403661728
0.0	-0.0	86.2348022461	90.1190414429	-2.77274298668	12.2574176788
0.0	-0.0	85.1923065186	92.0659103394	-9.20805454254	15.5890798569
0.0	-0.0	83.938873291	82.6650238037	-18.6583652496	28.2874660492
0.0	-0.0	82.0529632568	75.3675384521	-23.8315906525	38.3692131042
0.0	-0.0	79.6452102661	76.8874282837	-28.9362888336	40.6864433289
0.0	-0.0	77.6404571533	82.6662216187	-33.4098243713	35.401058197
0.0	-0.0	75.58959198	90.2599105835	-38.6857147217	29.8176460266
0.0	-0.0	73.9727783203	97.7565460205	-49.1388092041	24.4159545898
0.0	-0.0	72.5930633545	91.2751159668	-58.3766975403	33.1554412842
0.0	-0.0	70.3598098755	91.5510482788	-60.4092826843	34.0863227844
0.0	-0.0	67.9101257324	86.5302047729	-63.0246925354	38.6627922058
0.0	-0.0	65.4046478271	70.8341293335	-58.2344093323	52.5251579285
0.0	-0.0	65.1859207153	70.075050354	-32.0173530579	37.7510795593
0.0	-0.0	65.1882324219	84.6761169434	-21.849439621	22.3254947662
0.0	-0.0	62.7024688721	80.2925796509	-25.1362533569	27.5812244415
0.0	-0.0	60.0767784119	82.5101394653	-26.4838523865	25.8089237213
0.0	-0.0	57.052734375	77.0333633423	-26.380695343	29.852186203
0.0	-0.0	55.2869529724	75.5714263916	-29.0122241974	31.8194255829
0.0	-0.0	52.8585662842	75.2889404297	-29.9170780182	32.5371208191
0.0	-0.0	46.4546279907	75.8567276001	-28.2910861969	31.8569583893
0.0	-0.0	32.0344276428	73.6700286865	-28.1895122528	33.4225540161
0.0	-0.0	15.4666786194	71.5484848022	-28.6214351654	34.6482543945
0.0	-0.0	2.30621576309	70.7549819946	-28.5311832428	34.7019309998
0.0	0.0	-7.46024894714	72.7604446411	-27.4473590851	32.3812942505
0.0	0.0	-16.6189441681	80.4095077515	-23.2665634155	24.4762268066
0.0	0.0	-32.1705551147	89.1814117432	-16.3029270172	15.6439237595
0.0	0.0	-51.1870803833	92.2783737183	-13.321480751	13.0295381546
0.0	0.0	-66.1894073486	90.7729263306	-15.0444192886	13.6874046326
0.0	0.0	-82.9731216431	93.2258148193	-11.4968643188	9.71788311005
0.0	0.0	-98.0741958618	99.7499771118	-2.87197113037	1.71773159504
0.0	0.0	-111.444046021	99.782585144	1.86109936237	1.02014744282
0.0	0.0	-114.96346283	96.9652709961	0.301986813545	2.45793676376
0.0	0.0	-101.9323349	94.2821884155	-2.09883141518	3.31341028214
0.0	0.0	-94.0904998779	90.8837966919	-2.11598229408	5.22118091583
0.0	0.0	-98.2258987427	90.4928894043	4.75751543045	0.605266749859
0.0	0.0	-103.182197571	89.5984573364	17.2341136932	-10.0208435059
0.0	0.0	-101.070884705	82.414100647	33.6829032898	-15.1858024597
0.0	0.0	-98.4220733643	72.0622406006	57.5474700928	-20.2167873383
0.0	0.0	-97.1049118042	58.2586402893	74.5039901733	-28.0435333252
0.0	0.0	-97.0385894775	46.6780433655	72.5334701538	-23.3559780121
0.0	0.0	-99.7280578613	43.465057373	65.1506271362	-14.8891839981
0.0	0.0	-104.893722534	43.389213562	54.5393333435	2.17175364494
0.0	0.0	-107.885498047	41.4214324951	49.4715805054	10.9380903244
0.0	0.0	-108.227165222	36.3717384338	46.3465538025	20.0432682037
0.0	0.0	-108.215782166	26.2456436157	45.7935905457	28.1918869019
0.0	0.0	-107.146392822	28.4108524323	46.8861045837	23.9922637939
0.0	0.0	-106.384178162	23.4770431519	45.2698783875	27.8237819672
0.0	0.0	-106.100837708	15.1977090836	39.525932312	41.2293968201
0.0	0.0	-106.509048462	13.8042812347	34.1698722839	46.4039421082
0.0	0.0	-108.824516296	15.8059740067	31.0130443573	48.3603134155
0.0	0.0	-110.873146057	16.4748497009	31.9104061127	45.5056190491
0.0	0.0	-111.745254517	18.8156929016	31.5425720215	40.0463104248
0.0	0.0	-111.74067688	19.1762523651	30.1502799988	38.300151825
0.0	0.0	-110.898170471	19.7619915009	29.1007728577	36.1627502441
0.0	0.0	-110.097259521	21.1437110901	28.8888206482	32.7760276794
0.0	0.0	-109.724441528	22.8990249634	27.6308784485	28.4513492584
0.0	0.0	-109.473045349	22.8223686218	25.3746490479	27.5023651123
0.0	0.0	-109.288383484	24.9677677155	23.3822937012	25.411359787
0.0	0.0	-109.281898499	28.7127475739	30.5509567261	17.2749710083
0.0	0.0	-109.689720154	30.393157959	46.7935714722	-1.77688884735
0.0	0.0	-109.838989258	29.3608856201	57.7178840637	-14.5991630554
0.0	0.0	-109.74533844	20.0652046204	47.3876686096	12.0703296661
0.0	0.0	-109.021972656	9.89140224457	38.066608429	42.8217926025
0.0	0.0	-108.358154297	16.2802619934	37.3474693298	35.0523605347
0.0	0.0	-108.170318604	14.8849954605	33.6099510193	43.2681617737
0.0	0.0	-108.263282776	15.1093521118	32.0723724365	42.8211479187
0.0	0.0	-108.050285339	16.665599823	29.5161991119	41.5158843994
0.0	0.0	-107.844146729	17.5084972382	27.9238681793	37.6325073242
0.0	0.0	-107.119224548	17.8513622284	25.5150737762	35.3265419006
0.0	0.0	-106.399230957	19.3015327454	24.1357803345	31.0476551056
0.0	0.0	-105.916984558	19.8103313446	22.5827522278	30.0520915985
0.0	0.0	-105.377067566	21.1480102539	21.9596118927	27.2226428986
0.0	0.0	-105.299232483	21.3466129303	22.3049564362	24.9506282806
0.0	0.0	-105.413475037	21.4413547516	21.5683746338	24.520734787
0.0	0.0	-104.406913757	22.8282108307	18.3430023193	25.8156547546
0.0	0.0	-103.655662537	24.4380016327	9.63735294342	31.1709041595
0.0	0.0	-103.09047699	28.6892280579	3.49523210526	28.9345932007
0.0	0.0	-102.590621948	28.7466964722	1.14351606369	28.70378685
0.0	0.0	-102.647018433	31.4897842407	1.8530497551	21.8995056152
0.0	0.0	-102.464675903	32.6595077515	8.07927036285	9.32995033264
0.0	0.0	-102.42313385	29.4357910156	17.7846374512	-10.7337913513
0.0	0.0	-102.290687561	26.0835819244	19.310792923	-19.3270130157
0.0	0.0	-102.61844635	21.4630069733	15.3706359863	-5.91368770599
0.0	0.0	-105.413848877	19.3031253815	14.3008422852	0.769287347794
0.0	0.0	-107.021438599	20.0522880554	14.5599756241	0.748751223087
0.0	0.0	-104.652305603	18.8962898254	14.3212203979	2.12924289703
0.0	0.0	-97.5078735352	19.3077964783	14.539276123	1.76831066608
0.0	0.0	-87.5218811035	19.7117061615	14.6108398438	1.54037702084
0.0	0.0	-85.0896224976	21.1191692352	15.0612573624	0.00622402783483
0.0	0.0	-105.340995789	20.4236907959	15.1105108261	1.01326227188
0.0	-0.0	-132.322097778	20.6690616608	16.7089633942	0.312201648951
0.0	-0.0	-142.351928711	20.3264446259	17.2824954987	-1.5092331171
0.0	-0.0	-148.023483276	19.3103218079	18.2453536987	-1.7777504921
0.0	-0.0	-146.759353638	20.7678813934	18.2872314453	-2.72070240974
0.0	-0.0	-137.020996094	20.0666122437	18.2308368683	-2.27480721474
0.0	-0.0	-120.805786133	19.1434307098	17.7845611572	-1.34656906128
0.0	0.0	-104.824996948	20.0518817902	18.0394973755	-1.89093983173
0.0	0.0	-90.9317092896	21.0688037872	17.6477355957	-2.29464316368
0.0	0.0	-78.6687240601	22.7109203339	17.1736621857	-3.44676733017
0.0	0.0	-68.549041748	23.2944221497	17.1867904663	-3.80238342285
0.0	0.0	-59.4071578979	23.8603801727	17.5699882507	-4.00914144516
0.0	0.0	-52.540763855	23.9624614716	17.9493484497	-3.93691897392
0.0	0.0	-47.8861351013	22.8588581085	18.2034244537	-3.56329035759
0.0	0.0	-45.5735397339	22.3177890778	18.41547966	-3.99765110016
0.0	0.0	-44.8837738037	21.8098812103	19.1142120361	-4.56253147125
0.0	0.0	-45.650138855	21.8634376526	19.2509098053	-5.05342245102
0.0	0.0	-48.3688735962	21.9593162537	18.9471607208	-5.24982452393
0.0	0.0	-53.9641113281	21.4595470428	18.0529117584	-4.63605594635
0.0	0.0	-55.9216651917	21.7074184418	18.5682010651	-4.64108800888
0.0	0.0	-53.9402885437	22.0060005188	19.4581298828	-4.85033035278
0.0	0.0	-52.7078781128	21.6875972748	19.0499725342	-4.63220930099
0.0	0.0	-50.577419281	22.3355503082	18.3118057251	-4.66692066193
0.0	0.0	-43.3819465637	22.859167099	19.1490936279	-4.61502504349
0.0	0.0	-35.3302116394	23.1607265472	20.5670394897	-5.56984424591
0.0	0.0	-29.4833221436	25.007730484	22.7041568756	-13.2173538208
0.0	0.0	-26.5882225037	25.2469272614	23.6488132477	-18.1238555908
0.0	0.0	-26.0311717987	24.9098510742	24.1162090302	-20.7144680023
0.0	0.0	-27.6942577362	23.9147167206	24.0695648193	-19.9265956879
0.0	0.0	-17.5043468475	24.7315101624	23.8390808105	-20.3666152954
0.0	-0.0	14.6134843826	25.9336585999	23.4620075226	-20.5658740997
0.0	-0.0	54.0122299194	27.6353416443	22.4094772339	-21.3392677307
0.0	-0.0	75.3364868164	30.1972618103	21.2686214447	-21.6888618469
0.0	-0.0	74.6370010376	33.2839736938	21.4079208374	-22.7297401428
0.0	-0.0	59.8628997803	36.4947166443	22.0616836548	-26.9619503021
0.0	-0.0	38.7634124756	35.4372024536	21.5287971497	-27.4539489746
0.0	-0.0	30.4167156219	35.3720283508	20.8143482208	-28.6118831635
0.0	-0.0	47.478679657	37.0533676147	20.9757080078	-30.7227153778
0.0	-0.0	81.8002319336	39.9086647034	20.9276657104	-32.4831924438
0.0	-0.0	107.458396912	43.4772529602	20.9817447662	-34.7463951111
0.0	-0.0	116.267745972	44.5719528198	20.7099761963	-35.7561149597
0.0	-0.0	118.418991089	44.5486373901	20.545249939	-37.2627868652
0.0	-0.0	117.565750122	44.6747131348	20.8527374268	-38.7305145264
0.0	-0.0	119.270736694	47.4128494263	22.180185318	-43.503238678
0.0	-0.0	115.794494629	51.8435096741	23.520532608	-47.765625
0.0	-0.0	103.237678528	54.7212486267	23.8861541748	-48.4840774536
0.0	-0.0	82.1659317017	55.1264724731	23.763381958	-48.432434082
0.0	-0.0	61.6542243958	54.9831809998	24.191947937	-49.8048210144
0.0	-0.0	44.4285545349	55.0707435608	23.9631652832	-50.0749549866
0.0	-0.0	21.5145969391	55.2218894958	24.1580162048	-50.3084945679
0.0	0.0	-16.7020263672	54.7992134094	24.8631706238	-51.2192420959
0.0	0.0	-64.3482894897	52.4055709839	24.3835964203	-50.7305450439
0.0	0.0	-104.447280884	50.0427627563	24.2276344299	-50.7418441772
0.0	-0.0	-126.796478271	49.4119720459	24.6998462677	-51.3530464172
0.0	-0.0	-131.637496948	50.6529121399	24.4839401245	-52.7299537659
0.0	0.0	-108.353256226	52.7562065125	24.4833259583	-54.3143882751
0.0	0.0	-70.3841400146	53.1175994873	24.950378418	-54.4997177124
0.0	0.0	-19.1583843231	52.9991378784	25.1773357391	-55.742023468
0.0	-0.0	24.5658168793	51.7737236023	25.4610996246	-55.8122596741
0.0	-0.0	60.0995254517	51.3697242737	27.034450531	-57.6237106323
0.0	-0.0	89.8206176758	50.5814056396	32.3069343567	-64.3846435547
0.0	-0.0	103.121574402	50.8579483032	32.218875885	-62.9372520447
0.0	-0.0	101.737831116	52.7572746277	33.1912727356	-63.7800483704
0.0	-0.0	96.8984603882	52.5274810791	31.6042823792	-62.1156692505
0.0	-0.0	92.7183151245	52.0683403015	30.4089031219	-62.1894111633
0.0	-0.0	93.7131118774	52.3318824768	30.4664859772	-63.2615814209
0.0	-0.0	95.7898635864	53.1461524963	30.6210365295	-63.8604278564
0.0	-0.0	100.594726562	54.4051361084	30.274187088	-64.7509384155
0.0	-0.0	113.694717407	54.8285827637	29.770406723	-65.1256484985
0.0	-0.0	121.427703857	54.8438987732	30.3603248596	-63.8352203369
0.0	-0.0	112.517593384	56.3499298096	31.5138454437	-63.7145576477
0.0	-0.0	100.42023468	57.8500213623	30.5127506256	-67.0383071899
0.0	-0.0	94.7294082642	59.5714035034	29.5688476562	-72.0845031738
0.0	-0.0	85.1328125	59.3769645691	31.8914432526	-76.2059860229
0.0	-0.0	67.111618042	59.0728721619	33.8609313965	-76.2511291504
0.0	-0.0	59.7366142273	56.8885917664	35.1149559021	-74.1221923828
0.0	-0.0	66.5555877686	52.0731811523	32.8196144104	-65.7747573853
0.0	-0.0	71.0326690674	42.1590461731	26.5086021423	-39.7165870667
0.0	-0.0	74.2634735107	43.5185699463	27.7172412872	-40.0353050232
0.0	-0.0	75.7822875977	46.0986022949	27.4638748169	-40.9264831543
0.0	-0.0	74.9282989502	48.1523895264	25.9741420746	-42.0521316528
0.0	-0.0	74.973526001	51.9662513733	27.9743824005	-46.4726333618
0.0	-0.0	72.329460144	52.4508056641	31.5984401703	-52.7788009644
0.0	-0.0	73.0656967163	54.4384613037	33.2083625793	-56.4151763916
0.0	-0.0	81.6045837402	54.945224762	35.3902282715	-61.0588226318
0.0	-0.0	87.7320709229	55.5058937073	36.8105583191	-63.6477928162
0.0	-0.0	90.0273513794	56.4273262024	36.6000366211	-63.6279983521
0.0	-0.0	92.3419036865	58.4231681824	36.882068634	-64.1417007446
0.0	-0.0	94.8218536377	58.6786270142	37.7786445618	-66.0808944702
0.0	-0.0	95.2045669556	52.9018859863	36.3910522461	-61.3282623291
0.0	-0.0	104.45854187	52.3447990417	40.3704032898	-58.9827270508
0.0	-0.0	110.805953979	54.8418006897	42.6209411621	-59.8390083313
0.0	-0.0	112.06489563	56.2049827576	39.6198158264	-59.2399024963
0.0	-0.0	109.019302368	59.9842224121	35.7141189575	-56.7837219238
0.0	-0.0	106.260055542	65.0557403564	35.9723548889	-58.9438209534
0.0	-0.0	103.558540344	68.7480010986	38.6395835876	-61.6228637695
0.0	-0.0	99.5097351074	66.8551864624	36.2849006653	-60.7800827026
0.0	-0.0	98.7764663696	65.1545028687	34.0094337463	-55.8356933594
0.0	-0.0	100.516899109	65.0783233643	36.8781166077	-55.4981040955
0.0	-0.0	101.484428406	61.0916748047	38.0009117126	-59.6452178955
0.0	-0.0	102.103591919	55.8527908325	35.7798500061	-58.1088027954
0.0	-0.0	105.519485474	54.3548202515	33.5638847351	-56.0368080139
0.0	-0.0	116.610824585	52.7346191406	31.4039459229	-53.2172241211
0.0	-0.0	130.159378052	51.8744659424	30.7719020844	-52.8912353516
0.0	-0.0	152.373413086	53.0155220032	30.842086792	-54.4151344299
0.0	-0.0	173.440246582	54.0381393433	31.0205631256	-55.5472145081
0.0	-0.0	161.46875	53.573551178	32.9947433472	-53.7015266418
0.0	-0.0	136.155197144	54.8816947937	33.8001861572	-53.5419082642
0.0	-0.0	114.483222961	55.230342865	33.1482200623	-54.9350166321
0.0	-0.0	100.310554504	55.2454032898	33.2458000183	-56.560634613
0.0	-0.0	94.2905960083	56.8375892639	34.1199645996	-58.063999176
0.0	-0.0	92.2908325195	58.4502716064	35.2695884705	-58.9684677124
0.0	-0.0	93.2369308472	59.0384101868	34.9686126709	-59.270488739
0.0	-0.0	95.3608169556	57.825176239	32.0386238098	-52.8835296631
0.0	-0.0	97.8891143799	55.7294387817	28.4736442566	-43.8063735962
0.0	-0.0	100.58543396	53.5593605042	25.1864547729	-33.4300079346
0.0	-0.0	102.280433655	53.2624702454	25.8189563751	-35.5779685974
0.0	-0.0	102.953613281	54.4746894836	26.5019435883	-39.3832893372
0.0	-0.0	103.065307617	58.0462036133	26.9527568817	-43.2080841064
0.0	-0.0	102.79069519	63.171295166	27.1688289642	-49.411605835
0.0	-0.0	103.149002075	64.7384567261	29.9617118835	-54.9150505066
0.0	-0.0	102.930953979	62.8735618591	43.6083183289	-60.173084259
0.0	-0.0	102.366584778	63.4133758545	61.5288887024	-65.4420623779
0.0	-0.0	101.72277832	63.2160491943	55.8829231262	-55.6230888367
0.0	-0.0	101.629516602	61.5698394775	39.018611908	-37.6967811584
0.0	-0.0	101.133659363	60.275932312	33.9058380127	-35.6669044495
0.0	-0.0	100.283508301	59.6010551453	27.8996601105	-34.0443687439
0.0	-0.0	99.5479812622	59.6051292419	26.0018501282	-36.6246795654
0.0	-0.0	99.3866195679	60.8439979553	26.5054073334	-41.057849884
0.0	-0.0	99.2721786499	61.6925315857	25.7065048218	-44.6729927063
0.0	-0.0	99.4326248169	60.7847099304	24.4268035889	-46.49792099
0.0	-0.0	100.44619751	61.2527809143	27.392621994	-48.323299408
0.0	-0.0	100.760704041	63.332321167	44.0932922363	-60.4746665955
0.0	-0.0	100.758399963	63.7917175293	56.2223548889	-66.2123413086
0.0	-0.0	100.691955566	63.8638381958	52.3037109375	-61.0053825378
0.0	-0.0	100.445770264	62.8104515076	32.9512214661	-43.5019607544
0.0	-0.0	100.087631226	61.3699378967	26.1403598785	-39.4094619751
0.0	-0.0	99.8100738525	60.9503631592	22.6481819153	-39.6747131348
0.0	-0.0	100.016387939	61.0565643311	22.9827747345	-43.7110786438
0.0	-0.0	100.651046753	61.8398857117	27.1593761444	-54.7798080444
0.0	-0.0	101.432319641	60.2679901123	28.2146396637	-62.462638855
0.0	-0.0	102.063781738	59.4320831299	27.7087268829	-63.0901794434
0.0	-0.0	101.531898499	63.3750457764	32.5291519165	-66.8687515259
0.0	-0.0	100.538589478	66.0513763428	39.4812011719	-71.1304931641
0.0	-0.0	100.017341614	62.3287124634	42.9380950928	-73.8836975098
0.0	-0.0	99.5038375854	61.3970184326	43.60389328	-74.6621322632
0.0	-0.0	99.1692199707	60.6773719788	39.1395149231	-67.8548049927
0.0	-0.0	98.5399093628	60.5968055725	37.3639297485	-62.380645752
0.0	-0.0	97.5257873535	61.4938201904	37.7643051147	-61.2792472839
0.0	-0.0	95.6659317017	60.2960166931	43.1275024414	-67.7160186768
0.0	-0.0	94.4739227295	57.4390869141	49.8848609924	-77.1244430542
0.0	-0.0	93.6643066406	55.9587173462	55.5378417969	-83.2785186768
0.0	-0.0	94.3823165894	54.5221672058	49.349811554	-71.5217971802
0.0	-0.0	96.5256500244	45.0210456848	19.2496032715	-14.0604810715
0.0	-0.0	98.4065551758	45.2035102844	17.7193145752	-12.0306501389
0.0	-0.0	99.6786422729	47.8267211914	20.94099617	-18.4736480713
0.0	-0.0	100.460479736	52.5401954651	28.3879375458	-36.0660133362
0.0	-0.0	100.657844543	54.5960578918	32.2210884094	-48.4984664917
0.0	-0.0	100.644706726	55.3566818237	34.1797027588	-56.8423805237
0.0	-0.0	100.801902771	56.2539329529	34.865398407	-62.914352417
0.0	-0.0	100.617660522	56.2404823303	36.1651420593	-69.6315383911
0.0	-0.0	102.836212158	55.96352005	36.5458869934	-72.0606384277
0.0	-0.0	114.061454773	55.0741004944	37.2671127319	-74.6632385254
0.0	-0.0	122.463882446	52.7671356201	39.4358673096	-76.0027084351
0.0	-0.0	124.135848999	50.6115493774	44.2013130188	-78.5319442749
0.0	-0.0	123.489250183	53.5091400146	45.2869644165	-75.677696228
0.0	-0.0	123.515525818	62.6211853027	25.1463718414	-51.2004470825
0.0	-0.0	123.211013794	69.5717315674	6.23965644836	-36.4262008667
0.0	-0.0	122.902687073	74.7109832764	-6.20405626297	-30.5604000092
0.0	-0.0	122.571144104	75.4898681641	-20.5232410431	-21.0428314209
0.0	-0.0	121.994361877	72.8758087158	-26.5659942627	-15.7162399292
0.0	-0.0	120.871414185	73.850982666	-24.0729942322	-18.2564296722
0.0	-0.0	118.839920044	81.8780136108	-7.31028699875	-33.7732582092
0.0	-0.0	116.039558411	91.3136291504	16.8676452637	-56.6730613708
0.0	-0.0	114.267921448	97.701965332	46.8954734802	-82.0902328491
0.0	-0.0	113.153831482	105.337341309	74.6002731323	-96.6306152344
0.0	-0.0	112.324150085	113.639465332	74.3443069458	-90.1662750244
0.0	-0.0	112.391616821	115.97467041	69.2890090942	-85.9097976685
0.0	-0.0	112.00806427	113.040855408	66.7374725342	-84.5070571899
0.0	-0.0	110.947952271	103.074806213	62.0419998169	-80.654800415
0.0	-0.0	110.523010254	88.0880737305	48.9376564026	-69.4374237061
0.0	-0.0	110.503364563	63.6809501648	27.4289836884	-37.5060310364
0.0	-0.0	110.733978271	52.2932548523	18.525177002	-23.1888904572
0.0	-0.0	110.621315002	50.5653457642	18.742067337	-27.0901565552
0.0	-0.0	110.445243835	51.8326454163	19.91431427	-33.207244873
0.0	-0.0	110.58216095	54.9260215759	20.7329807281	-38.9066085815
0.0	-0.0	110.542427063	60.76902771	22.1144523621	-45.0648612976
0.0	-0.0	110.624267578	60.9447975159	21.2296829224	-43.1929931641
0.0	-0.0	104.399459839	60.3831253052	22.4354000092	-43.7107009888
0.0	-0.0	92.1477966309	62.3564300537	22.6286315918	-45.0204963684
0.0	-0.0	66.7327346802	62.6767959595	23.3367061615	-45.2229385376
0.0	-0.0	32.4879074097	62.910572052	23.3372821808	-46.044254303
0.0	0.0	-1.13675498962	62.0698394775	22.8984165192	-46.3294563293
0.0	0.0	-13.5388612747	60.262336731	22.024848938	-46.2678146362
0.0	-0.0	4.77208805084	59.5930747986	20.7980804443	-47.3174781799
0.0	-0.0	36.3100013733	59.1313705444	19.9083862305	-48.148475647
0.0	-0.0	61.4087867737	59.2913017273	19.290014267	-48.6861534119
0.0	-0.0	76.0595703125	58.6405487061	18.9511871338	-50.1817321777
0.0	-0.0	79.8742141724	58.9827728271	19.3455905914	-55.3318138123
0.0	-0.0	81.179397583	58.2577667236	19.7054920197	-61.9072265625
0.0	-0.0	83.2517242432	55.9608306885	17.0427589417	-63.6497459412
0.0	-0.0	88.8807907104	55.759563446	14.6793212891	-63.7897415161
0.0	-0.0	92.5481643677	58.8963928223	19.2364025116	-70.1536865234
0.0	-0.0	93.1265182495	59.372882843	27.228521347	-81.9349594116
0.0	-0.0	93.574432373	65.0762405396	18.2312526703	-70.8447189331
0.0	-0.0	93.3949356079	87.577507019	-10.6785678864	-52.0193252563
0.0	-0.0	92.9644088745	106.49030304	-15.3576974869	-58.5603637695
0.0	-0.0	93.3311157227	103.744865417	-2.30674624443	-62.6787261963
0.0	-0.0	92.0708084106	91.8891830444	28.7915534973	-78.8601608276
0.0	-0.0	80.9210586548	88.7492523193	30.1236133575	-76.7829971313
0.0	-0.0	63.8783035278	87.9651031494	26.5366401672	-75.9985961914
0.0	-0.0	45.5416946411	87.8574371338	23.4216251373	-75.0034408569
0.0	-0.0	26.2164573669	89.0230865479	20.446805954	-73.783782959
0.0	-0.0	14.59628582	88.9659042358	21.4218273163	-74.4129638672
0.0	-0.0	8.68748950958	87.6631317139	22.0558929443	-74.3669967651
0.0	-0.0	6.53645610809	88.2842483521	21.0392971039	-73.426651001
0.0	-0.0	6.20085716248	89.003364563	20.7914562225	-72.983757019
0.0	-0.0	6.66871786118	88.5066223145	20.1735153198	-72.4939804077
0.0	-0.0	7.82159137726	88.1058425903	20.0813007355	-72.5467681885
0.0	-0.0	11.1254358292	88.4558944702	20.0675354004	-73.5131225586
0.0	-0.0	13.8541955948	88.7112045288	19.5534877777	-74.7581863403
0.0	-0.0	2.63081407547	88.5873718262	18.1826019287	-74.3944320679
0.0	0.0	-27.5663394928	87.1047821045	18.936006546	-74.1883850098
0.0	0.0	-48.4136314392	85.9361038208	20.4248523712	-74.4364395142
0.0	0.0	-52.8874588013	85.0026168823	21.6184120178	-74.3053741455
0.0	0.0	-56.9444999695	84.1149139404	21.6380386353	-73.3667144775
0.0	0.0	-63.3414039612	84.0921630859	20.1001491547	-73.1493759155
0.0	0.0	-70.3421478271	82.5562896729	17.4186153412	-70.7565765381
0.0	0.0	-79.7140350342	80.8147964478	16.3467540741	-68.4804000854
0.0	0.0	-98.263923645	76.2528152466	16.3603725433	-65.9850540161
0.0	-0.0	-129.457244873	71.6564865112	18.4953689575	-65.8927383423
0.0	-0.0	-162.802230835	67.3817825317	21.4675121307	-67.1432647705
0.0	-0.0	-175.17300415	66.5076828003	16.7483692169	-68.0848312378
0.0	0.0	177.670639038	66.2578887939	14.8179006577	-67.3513946533
0.0	-0.0	-178.656585693	67.3319396973	14.6147861481	-67.3419799805
0.0	-0.0	-176.229110718	69.3693237305	14.5478754044	-65.6466598511
0.0	-0.0	-178.695053101	67.7954940796	16.0397968292	-64.6053848267
0.0	0.0	179.750305176	64.6485061646	13.6055145264	-62.5278358459
0.0	0.0	175.437713623	61.3478507996	9.23051548004	-57.8753318787
0.0	0.0	166.489273071	61.5217971802	9.01774692535	-59.8244934082
0.0	0.0	159.298339844	63.9850387573	7.74127197266	-64.2852630615
0.0	0.0	150.903762817	64.8480682373	8.08203887939	-66.3042373657
0.0	0.0	148.74786377	64.9161148071	10.7046661377	-68.9171600342
0.0	0.0	150.834945679	63.3862800598	12.3066930771	-71.6585235596
0.0	0.0	148.406784058	62.7026557922	13.8122158051	-72.7627716064
0.0	0.0	146.115722656	78.139755249	12.9570035934	-83.5096511841
0.0	0.0	148.273590088	116.426582336	14.4222640991	-99.8705749512
0.0	0.0	153.790466309	154.722320557	28.2619152069	-111.252029419
0.0	0.0	162.250213623	163.040939331	30.1643333435	-110.263504028
0.0	0.0	170.825637817	170.354370117	27.7233085632	-110.224983215
0.0	0.0	177.903915405	174.481872559	24.7871875763	-111.965591431
0.0	-0.0	-172.491531372	167.347091675	18.732629776	-111.093856812
0.0	-0.0	-161.806549072	156.519287109	14.325378418	-108.924034119
0.0	-0.0	-148.240890503	143.801544189	8.79515743256	-104.150680542
0.0	-0.0	-124.44757843	133.173522949	2.12503242493	-98.4258728027
0.0	0.0	-86.6569824219	127.947883606	-4.64762210846	-93.9607391357
0.0	0.0	-45.71251297	120.241096497	-14.2857255936	-87.2878036499
0.0	0.0	-18.2038860321	97.4437713623	-20.0486221313	-71.5130996704
0.0	0.0	-4.44832324982	72.7960662842	-19.1014060974	-57.6942558289
0.0	-0.0	3.56798577309	69.0468444824	-17.4340591431	-55.329990387
0.0	-0.0	6.52115631104	72.9118499756	-9.53750610352	-56.4703178406
0.0	-0.0	4.64616250992	77.3085632324	-4.07268381119	-53.7006988525
0.0	-0.0	0.427655309439	91.7301559448	-8.42030143738	-52.7013626099
0.0	0.0	-6.30597686768	112.474159241	-12.8421421051	-53.8658409119
0.0	0.0	-14.6800289154	132.895507812	-16.7911453247	-60.2416763306
0.0	0.0	-15.8042802811	133.100067139	-19.4175109863	-59.3531837463
0.0	0.0	-16.2251300812	123.991195679	-24.9785995483	-52.9455833435
0.0	0.0	-20.1568126678	114.449829102	-24.7436084747	-47.0223121643
0.0	0.0	-17.9505367279	92.2896118164	-25.7274742126	-32.6821403503
0.0	0.0	-12.6760263443	80.831489563	-23.2584228516	-27.2476062775
0.0	0.0	-9.79973697662	81.9464569092	-27.94597435	-26.2824630737
0.0	0.0	-6.50003576279	85.6778106689	-26.5327148438	-28.5259933472
0.0	0.0	-5.46613407135	89.5079803467	-23.7449951172	-31.0366153717
0.0	0.0	-10.1455192566	89.8839111328	-24.1377315521	-23.4579677582
0.0	0.0	-16.0862693787	96.4658050537	-17.5361175537	-22.7543811798
0.0	0.0	-21.2045116425	116.386650085	-8.71453666687	-34.9605178833
0.0	0.0	-25.1608810425	128.170700073	13.2981491089	-48.276386261
0.0	0.0	-27.4267616272	132.62159729	12.1263437271	-44.9494514465
0.0	0.0	-29.1625537872	144.009735107	-27.8052330017	-41.3274993896
0.0	0.0	-30.7754745483	164.506347656	-56.3276367188	-54.9343070984
0.0	0.0	-31.0526771545	-171.705474854	-70.5112915039	-74.1981506348
0.0	0.0	-31.6561985016	168.919815063	-59.5187988281	-57.6919822693
0.0	0.0	-32.3378715515	150.541732788	-52.3309516907	-42.0902748108
0.0	0.0	-32.8264274597	138.111541748	-51.3644866943	-33.6046829224
0.0	0.0	-32.4692993164	133.133789062	-50.6695785522	-31.1191883087
0.0	0.0	-31.5920467377	131.855331421	-50.5722846985	-31.6712417603
0.0	0.0	-29.6568126678	129.589172363	-53.4242248535	-30.3835029602
0.0	0.0	-27.5080528259	125.543464661	-55.4424934387	-28.4478359222
0.0	0.0	-26.0303840637	125.801177979	-51.407207489	-30.6259651184
0.0	0.0	-25.3251972198	129.360992432	-42.7483711243	-34.7220573425
0.0	0.0	-24.41639328	110.791915894	-51.1282806396	-9.3720703125
0.0	0.0	-23.8972759247	10.8994512558	-75.4896850586	97.078956604
0.0	0.0	-23.5524425507	-161.025497437	-67.6425704956	-85.699760437
0.0	0.0	-22.9406147003	170.802474976	-53.7114105225	-53.7911949158
0.0	0.0	-22.790933609	164.27557373	-41.6713142395	-43.6639633179
0.0	0.0	-22.8010578156	161.705001831	-35.2688026428	-39.1305236816
0.0	0.0	-23.1278209686	158.756622314	-33.5613937378	-35.916973114
0.0	0.0	-23.9088230133	155.309753418	-31.9945526123	-32.0558700562
0.0	0.0	-24.8793888092	161.216339111	-38.9636993408	-40.6590461731
0.0	0.0	-25.1363658905	-151.767410278	-60.2522621155	-96.896270752
0.0	0.0	-25.0908069611	-19.3215103149	-67.6713180542	123.477020264
0.0	0.0	-24.840555191	63.1985359192	-36.6182594299	25.0455551147
0.0	0.0	-24.6101818085	81.2589492798	9.61250305176	-16.7262783051
0.0	0.0	-24.3937091827	84.6794128418	67.3666687012	-64.4589767456
0.0	0.0	-24.1540164948	82.7324066162	83.7996826172	-63.4356460571
0.0	0.0	-23.9502029419	84.3087310791	73.2404785156	-53.7730789185
0.0	0.0	-23.7506637573	84.5963439941	66.8325195312	-48.6979293823
0.0	0.0	-23.8666038513	86.253364563	45.0012245178	-33.6518440247
0.0	0.0	-23.8704166412	86.1300735474	28.9686355591	-22.7812271118
0.0	0.0	-23.808347702	80.3325042725	9.59173679352	-5.27161359787
0.0	0.0	-23.9962615967	73.9777832031	-5.80243015289	8.61806869507
0.0	0.0	-24.1825885773	63.6958389282	-18.6814136505	23.4796867371
0.0	0.0	-24.5509548187	50.7123260498	-18.2250366211	37.0106773376
0.0	0.0	-25.2797813416	54.2228240967	-13.8122501373	31.0766487122
0.0	0.0	-26.0615005493	63.714012146	-10.2176361084	18.1445865631
0.0	0.0	-26.2553844452	78.3508605957	-2.30075073242	-1.5605006218
0.0	0.0	-26.7752342224	99.3415603638	20.8643188477	-34.5066146851
0.0	0.0	-27.0766544342	121.452339172	42.1612358093	-53.4620399475
0.0	0.0	-26.9476890564	147.834686279	40.6547737122	-55.7076301575
0.0	0.0	-26.28855896	165.342926025	45.1108283997	-57.2929916382
0.0	0.0	-25.5407791138	170.552352905	51.6093330383	-56.3593101501
0.0	0.0	-24.9639186859	168.134979248	51.7788581848	-54.0884590149
0.0	0.0	-24.9665184021	149.573242188	55.0672225952	-52.8450469971
0.0	0.0	-24.9548950195	115.228988647	59.1311531067	-49.4588623047
0.0	0.0	-25.6107692719	71.9434585571	54.285697937	-40.6770477295
0.0	0.0	-26.383972168	36.4665412903	50.7577285767	-38.0181083679
0.0	0.0	-27.1217365265	9.86652088165	49.5734634399	-38.2251472473
0.0	0.0	-27.659330368	-6.33416795731	44.0265541077	-33.38463974
0.0	0.0	-27.3269557953	-15.8464031219	39.5029907227	-24.4096279144
0.0	0.0	-27.1009693146	-18.2066116333	35.6834068298	-17.0422592163
0.0	0.0	-27.1393184662	-16.096446991	34.353099823	-14.8319158554
0.0	0.0	-27.3164024353	-10.7943592072	33.6179771423	-13.9705791473
0.0	0.0	-27.938539505	-5.50360584259	32.8873786926	-12.8867759705
0.0	0.0	-28.8613166809	-0.122425094247	31.3474311829	-11.6473741531
0.0	0.0	-29.9030265808	2.41380310059	29.3667697906	-8.83240509033
0.0	0.0	-30.9530448914	2.62248659134	27.7602596283	-5.43981647491
0.0	0.0	-31.1149463654	3.46869659424	28.0208339691	-5.92970275879
0.0	0.0	-31.3186225891	3.84940385818	28.238653183	-6.29081821442
0.0	0.0	-31.5646266937	4.27951478958	28.09217453	-6.39889907837
0.0	0.0	-31.7011795044	4.76239442825	28.1421432495	-6.57488203049
0.0	0.0	-32.6426696777	5.14615249634	28.7152462006	-7.18901014328
0.0	0.0	-38.7239723206	5.491127491	29.0228481293	-7.58461332321
0.0	0.0	-51.8934783936	5.58636140823	28.8248577118	-7.39972448349
0.0	0.0	-64.0941848755	5.91681337357	28.8855342865	-7.66187667847
0.0	0.0	-70.801864624	5.0471997261	29.1128101349	-7.63855600357
0.0	0.0	-73.7849197388	5.02847385406	28.3711662292	-7.56794309616
0.0	0.0	-76.1612014771	4.97970962524	26.9668617249	-6.32343482971
0.0	0.0	-77.741394043	6.17584562302	25.0244445801	-4.85104227066
0.0	0.0	-81.6032409668	6.34015703201	25.3988208771	-4.70183563232
0.0	0.0	-85.3207778931	5.94659423828	26.0062446594	-4.16911125183
0.0	0.0	-79.9638900757	6.14452409744	25.261510849	-4.61542320251
0.0	0.0	-54.3787498474	5.95900011063	23.9984130859	-4.88240337372
0.0	0.0	-18.4749889374	6.18867921829	23.2312507629	-4.87313652039
0.0	0.0	-6.63222742081	8.18197917938	23.5677394867	-5.00770378113
0.0	0.0	-15.0763015747	9.69180679321	24.6750335693	-4.99610567093
0.0	0.0	-44.4047317505	9.71374988556	25.2738113403	-4.89834356308
0.0	0.0	-83.3065109253	10.6102590561	25.7929153442	-5.97201681137
0.0	0.0	-103.157264709	10.140083313	25.5219745636	-6.08765220642
0.0	0.0	-74.1940765381	10.8644676208	25.1291599274	-8.2556552887
0.0	0.0	-24.9347801208	11.3575983047	23.8223819733	-8.47313022614
0.0	-0.0	13.645816803	15.191988945	24.3231143951	-11.0117511749
0.0	-0.0	1.74519860744	16.0581092834	24.5623493195	-9.53616523743
0.0	0.0	-48.3266410828	14.9725027084	25.6481704712	-7.38902330399
0.0	0.0	-89.8462677002	13.1478767395	25.0433425903	-7.17305040359
0.0	0.0	-65.3374176025	17.8841228485	28.4802684784	-11.8144111633
0.0	0.0	-37.6015777588	24.6144428253	19.4964523315	-7.42182159424
0.0	0.0	-49.8370895386	24.3434314728	1.21099114418	14.9800615311
0.0	0.0	-61.4289970398	39.686504364	-3.15127515793	7.9244260788
0.0	0.0	-60.1476707458	69.8770217896	3.09915947914	-16.632692337
0.0	0.0	-62.6683921814	91.0623245239	18.2102832794	-33.6962356567
0.0	0.0	-69.1989517212	87.8294754028	27.2272396088	-40.0863761902
0.0	0.0	-71.3548355103	78.9540328979	30.6244812012	-41.1976509094
0.0	0.0	-73.9353866577	67.7851715088	40.3332023621	-47.0267295837
0.0	0.0	-77.2247619629	40.9670944214	55.1063728333	-51.1950721741
0.0	0.0	-78.7413253784	25.965877533	47.6757011414	-29.9120254517
0.0	0.0	-80.16847229	15.5352010727	38.6495018005	-7.35567760468
0.0	0.0	-82.1339874268	7.61325788498	29.8020877838	14.2351350784
