-0.155806303024	0.997058153152	-0.132034540176	0.0243065357208	1.4690734148	-0.327798485756
-0.155376195908	0.997210025787	-0.130801796913	0.0243170261383	1.46955645084	-0.32664513588
-0.155323266983	0.996760129929	-0.129844784737	0.0247449874878	1.46991252899	-0.325598835945
-0.154708385468	0.9967212677	-0.12896323204	0.025514125824	1.47079765797	-0.324546813965
-0.152030467987	0.999421358109	-0.125939846039	0.0253078937531	1.47628009319	-0.323912620544
-0.146816253662	1.01018810272	-0.120041847229	0.0251550674438	1.48754131794	-0.324413776398
-0.13768529892	1.02586197853	-0.109607934952	0.0236330032349	1.4988681078	-0.326435089111
-0.123556375504	1.04078435898	-0.0964193344116	0.0224168300629	1.50794768333	-0.329377412796
-0.107009887695	1.05452179909	-0.0835521221161	0.0239865779877	1.51428925991	-0.332700848579
-0.0909285545349	1.07163584232	-0.0746983289719	0.0285120010376	1.51748180389	-0.336626529694
-0.0811247825623	1.09466540813	-0.074946641922	0.0342075824738	1.52004671097	-0.340966939926
-0.0780031681061	1.11118137836	-0.0804826021194	0.0400412082672	1.52195990086	-0.34565615654
-0.0740721225739	1.11817038059	-0.0838596820831	0.0450649261475	1.52277779579	-0.349679112434
-0.0718729496002	1.12104868889	-0.0866640806198	0.0513079166412	1.52249193192	-0.353174090385
-0.0677371025085	1.12682521343	-0.0892808437347	0.057941198349	1.52177608013	-0.356306910515
-0.0623302459717	1.13661503792	-0.0918490886688	0.0629966259003	1.52225637436	-0.359576702118
-0.0564363002777	1.14865005016	-0.0942503213882	0.0662949085236	1.52328598499	-0.3635597229
-0.050311088562	1.16158950329	-0.0965006351471	0.0683135986328	1.52341580391	-0.367025017738
-0.0464589595795	1.17264389992	-0.0995545387268	0.0695607662201	1.52257788181	-0.370111227036
-0.0443968772888	1.18104290962	-0.103385210037	0.0702846050262	1.52214860916	-0.373100161552
-0.0417354106903	1.18781411648	-0.10679936409	0.0708458423615	1.52204370499	-0.376003503799
-0.0389807224274	1.19433534145	-0.111163020134	0.0736789703369	1.52203011513	-0.377860069275
-0.0354790687561	1.19741046429	-0.115352630615	0.0775580406189	1.52006626129	-0.376719713211
-0.032475233078	1.19440937042	-0.117789030075	0.0802001953125	1.51748931408	-0.372544050217
-0.0278992652893	1.19330596924	-0.121653199196	0.0820162296295	1.51562070847	-0.367389917374
-0.0246591567993	1.19367432594	-0.123714208603	0.0831837654114	1.51270544529	-0.363221168518
-0.0235686302185	1.19853997231	-0.125283241272	0.0855982303619	1.51039874554	-0.360198378563
-0.0255153179169	1.20837593079	-0.131666302681	0.0889616012573	1.50601172447	-0.356991291046
-0.0257322788239	1.22027409077	-0.138663053513	0.0908625125885	1.49968695641	-0.352734208107
-0.0257806777954	1.23035871983	-0.145441770554	0.0907626152039	1.49787175655	-0.349037647247
-0.024099111557	1.23504447937	-0.14755666256	0.0881683826447	1.49949431419	-0.34528529644
-0.0220384597778	1.23243761063	-0.142676949501	0.0841960906982	1.50033009052	-0.341325283051
-0.0224146842957	1.22417628765	-0.134798169136	0.0802903175354	1.49989843369	-0.337460279465
-0.025369644165	1.21687912941	-0.128532409668	0.0761547088623	1.49863922596	-0.333111763
-0.0267264842987	1.21444356441	-0.123923778534	0.0719041824341	1.49842751026	-0.328343033791
-0.0261769294739	1.21391141415	-0.119814515114	0.0684323310852	1.49938428402	-0.324593067169
-0.0268349647522	1.2144844532	-0.117084503174	0.0665316581726	1.50018763542	-0.320979356766
-0.027818441391	1.21639800072	-0.115318059921	0.0651862621307	1.49963665009	-0.317308425903
-0.0285892486572	1.21889042854	-0.114281177521	0.0630333423615	1.49821352959	-0.313063144684
-0.0277779102325	1.21934330463	-0.113139152527	0.0601327419281	1.49743759632	-0.308754324913
-0.0246138572693	1.21848773956	-0.110607028008	0.0570838451385	1.49774372578	-0.3056204319
-0.0231964588165	1.21842634678	-0.109310150146	0.0552937984467	1.49805438519	-0.303724169731
-0.0236301422119	1.21982765198	-0.110645413399	0.0558307170868	1.49734199047	-0.30230140686
-0.0269904136658	1.21983921528	-0.112231969833	0.0604999065399	1.49403071404	-0.301779270172
-0.0317533016205	1.21874070168	-0.113979458809	0.0646295547485	1.49129474163	-0.302900314331
-0.0332472324371	1.21997022629	-0.116870641708	0.0637328624725	1.49413788319	-0.303990125656
-0.0296030044556	1.22060275078	-0.119789838791	0.0587878227234	1.49765348434	-0.304710388184
-0.0224056243896	1.22198331356	-0.120102405548	0.0512454509735	1.50005292892	-0.305669546127
-0.0168161392212	1.22596418858	-0.122120857239	0.0407342910767	1.50048458576	-0.3054946661
-0.0135414600372	1.23003590107	-0.126794457436	0.0314793586731	1.49793541431	-0.304143667221
-0.0125529766083	1.23129427433	-0.13051366806	0.0278308391571	1.49270153046	-0.302369594574
-0.0114743709564	1.23222494125	-0.132654905319	0.0309178829193	1.48639786243	-0.300213098526
-0.0105674266815	1.23554825783	-0.134593963623	0.0367634296417	1.4812861681	-0.298676729202
-0.00756883621216	1.23983609676	-0.134974479675	0.0416481494904	1.4781537056	-0.298908948898
-0.00310468673706	1.24456655979	-0.13711476326	0.0427100658417	1.47893190384	-0.300673365593
0.00487971305847	1.24756932259	-0.138765096664	0.040417432785	1.48152780533	-0.304586410522
0.0142862796783	1.24434161186	-0.137307882309	0.0358681678772	1.48323404789	-0.307698726654
0.0259754657745	1.23756504059	-0.132964372635	0.0304315090179	1.48342823982	-0.309762001038
0.0328478813171	1.22850477695	-0.128962993622	0.026793718338	1.4838373661	-0.310820817947
0.0332221984863	1.21680307388	-0.122804403305	0.0254735946655	1.48580479622	-0.311300754547
0.026403427124	1.21071839333	-0.118864536285	0.0270752906799	1.48965394497	-0.311277627945
0.0179245471954	1.20766687393	-0.115256547928	0.0296595096588	1.49445259571	-0.311910867691
0.00841689109802	1.20297050476	-0.112811088562	0.0316994190216	1.50016260147	-0.313393831253
-0.000954151153564	1.19461452961	-0.110317230225	0.033552646637	1.50653851032	-0.316052317619
-0.0110433101654	1.18295156956	-0.106512188911	0.0350427627563	1.51152062416	-0.31830573082
-0.0225400924683	1.16959047318	-0.102085113525	0.0369501113892	1.51345860958	-0.317568659782
-0.0362627506256	1.16223371029	-0.102197885513	0.0411365032196	1.5142840147	-0.314445257187
-0.0495588779449	1.15952920914	-0.0999271869659	0.0481858253479	1.51438343525	-0.312521696091
-0.0612354278564	1.15856337547	-0.0939862728119	0.0543751716614	1.51472842693	-0.311810731888
-0.0703310966492	1.15943467617	-0.0897251367569	0.0591349601746	1.51413738728	-0.311361789703
-0.0760369300842	1.16251718998	-0.0869615077972	0.0615673065186	1.51327109337	-0.310404539108
-0.0777516365051	1.16550707817	-0.0861014127731	0.0611350536346	1.5142390728	-0.309801578522
-0.0737297534943	1.16564130783	-0.084451675415	0.0591015815735	1.51693415642	-0.311185836792
-0.0666677951813	1.16424655914	-0.0814522504807	0.0579540729523	1.51938247681	-0.314018011093
-0.0606691837311	1.16551101208	-0.0799641609192	0.0572071075439	1.52125632763	-0.317126512527
-0.0556540489197	1.16897988319	-0.081307888031	0.055871963501	1.52428603172	-0.319914698601
-0.0517163276672	1.17013120651	-0.0832853317261	0.0522701740265	1.52852153778	-0.323408842087
-0.0493173599243	1.16893029213	-0.0840439796448	0.0509970188141	1.53056001663	-0.328002214432
-0.0480573177338	1.17020237446	-0.0860207080841	0.0524101257324	1.53121519089	-0.332189083099
-0.04731798172	1.17341756821	-0.0892173051834	0.0535173416138	1.5317056179	-0.335869312286
-0.0462062358856	1.17601001263	-0.0927101373672	0.05344581604	1.53262233734	-0.338865756989
-0.0439209938049	1.17699050903	-0.0963326692581	0.0533747673035	1.53492438793	-0.342187404633
-0.0390298366547	1.17730486393	-0.0996077060699	0.0525410175323	1.53582751751	-0.344989538193
-0.032210111618	1.17793941498	-0.100834608078	0.0531532764435	1.53535795212	-0.346740484238
-0.0267946720123	1.1795655489	-0.102033615112	0.0549349784851	1.53415882587	-0.348151564598
-0.0229060649872	1.18194723129	-0.104273796082	0.0566430091858	1.53292286396	-0.34897840023
-0.0182461738586	1.18355715275	-0.106469392776	0.0591309070587	1.5314759016	-0.348480701447
-0.0105726718903	1.18656086922	-0.109470963478	0.0628514289856	1.52865850925	-0.346049189568
-0.00153613090515	1.18949699402	-0.112604141235	0.0680589675903	1.52362585068	-0.341387271881
0.0074474811554	1.191182971	-0.115981817245	0.0750665664673	1.51644337177	-0.335935354233
0.015985250473	1.1901538372	-0.116576313972	0.0816509723663	1.51141297817	-0.330629587173
0.0218000411987	1.1876090765	-0.113988876343	0.0852906703949	1.50991392136	-0.325553655624
0.0236148834229	1.18776154518	-0.110836863518	0.0868248939514	1.51076674461	-0.321642160416
0.0222520828247	1.18900942802	-0.107883691788	0.0866911411285	1.51212108135	-0.318685054779
0.0202140808105	1.18918859959	-0.104728221893	0.0854830741882	1.51367032528	-0.316229581833
0.0204246044159	1.19094002247	-0.100670099258	0.0833172798157	1.5161908865	-0.313917398453
0.0225446224213	1.19377470016	-0.0964517593384	0.080664396286	1.51905047894	-0.311565637589
0.025025844574	1.19603931904	-0.0922787189484	0.0777156352997	1.52095615864	-0.30902504921
0.0276689529419	1.19540393353	-0.0878467559814	0.0747570991516	1.52198719978	-0.305156946182
