0.0	-0.0	144.612594604	-103.173721313	86.7362289429	-173.936019897
0.0	-0.0	143.13394165	-103.218421936	86.8183364868	-174.08152771
0.0	-0.0	143.84866333	-103.78993988	86.8600997925	-173.75769043
0.0	-0.0	142.066970825	-105.91809845	86.9599761963	-171.834060669
0.0	-0.0	132.167999268	-110.229858398	87.0735931396	-167.768722534
0.0	-0.0	103.780220032	-115.297691345	87.7950897217	-163.411941528
0.0	-0.0	96.4607086182	60.3366775513	88.2723007202	18.9276313782
0.0	-0.0	90.5802841187	56.3584594727	81.9335098267	20.5292510986
0.0	-0.0	80.2794570923	51.7518005371	74.9317932129	21.8953037262
0.0	-0.0	83.7281646729	48.1739883423	67.7887649536	22.2313556671
0.0	-0.0	84.274810791	46.0230636597	61.9814491272	21.2325515747
0.0	-0.0	79.1268310547	44.7909049988	58.2452888489	20.0178184509
0.0	-0.0	55.7321777344	44.2874412537	55.2964401245	19.5614395142
0.0	-0.0	38.0137138367	44.2221565247	53.5497169495	19.1123161316
0.0	-0.0	37.5241355896	44.3342933655	53.6085243225	18.5843772888
0.0	-0.0	46.1868515015	42.7395629883	53.7423286438	19.9204769135
0.0	-0.0	50.5219535828	38.921875	52.4234237671	21.7364387512
0.0	-0.0	56.5258522034	34.8540420532	47.3264884949	21.5709323883
0.0	-0.0	58.4099311829	33.7843818665	42.3576164246	20.8023548126
0.0	-0.0	61.6723670959	35.9848899841	36.1278381348	19.0693340302
0.0	-0.0	68.4187698364	39.7822647095	33.0966644287	16.7314090729
0.0	-0.0	72.392578125	42.5427703857	31.1754283905	15.1048955917
0.0	-0.0	71.7536697388	43.5647125244	28.9709377289	14.4506225586
0.0	-0.0	71.19165802	41.6273422241	26.4008312225	14.1854219437
0.0	-0.0	76.7399215698	37.9914245605	25.228433609	15.8568334579
0.0	-0.0	81.0478134155	31.8088169098	20.7406158447	20.2682342529
0.0	-0.0	82.3738174438	25.5699615479	17.6601734161	24.9762783051
0.0	-0.0	83.3938522339	25.3472976685	18.7480201721	26.5685977936
0.0	-0.0	84.1332015991	29.2747154236	22.8735961914	23.8276405334
0.0	-0.0	69.1465454102	34.3883628845	27.7771396637	20.8280200958
0.0	-0.0	58.4042930603	37.5334968567	29.724313736	19.1137046814
0.0	-0.0	60.9918785095	37.9450035095	30.4197425842	18.3688468933
0.0	-0.0	57.4280891418	37.7200088501	31.1686668396	18.2927570343
0.0	-0.0	48.0119628906	36.7328643799	30.5350799561	17.7932872772
0.0	-0.0	49.4636611938	29.9975166321	30.4680023193	17.8154506683
0.0	-0.0	51.9861907959	16.7475299835	31.1706161499	18.14270401
0.0	-0.0	54.9405593872	4.10381937027	32.005443573	19.0720062256
0.0	-0.0	54.8596916199	-1.04192781448	31.6738357544	20.7338123322
0.0	-0.0	56.1804504395	1.69546973705	31.1902294159	20.8376216888
0.0	-0.0	56.3901481628	12.1105613708	32.1106185913	17.4329490662
0.0	-0.0	57.7108459473	29.4224910736	34.7022666931	12.7226114273
0.0	-0.0	59.6298904419	41.8102722168	35.0077857971	9.48366165161
0.0	-0.0	58.3233070374	48.5873069763	32.854763031	5.72853565216
0.0	-0.0	58.6994667053	56.2499427795	31.240814209	0.191782638431
0.0	-0.0	58.9540519714	60.5645942688	30.5168514252	-3.08915686607
0.0	-0.0	58.5299491882	58.5619850159	30.2467536926	-2.69107508659
0.0	-0.0	59.8222236633	52.6364097595	29.9372463226	-0.379886388779
0.0	-0.0	60.5501060486	46.5417671204	29.3982448578	2.18497872353
0.0	-0.0	60.4070091248	45.4140853882	29.0101604462	3.0310549736
0.0	-0.0	75.2672348022	46.083190918	28.6200332642	2.5914285183
0.0	-0.0	102.065750122	45.9507522583	28.3576011658	2.48044133186
0.0	-0.0	101.043327332	46.0389823914	28.2623405457	2.15874409676
0.0	-0.0	98.3466262817	46.4042205811	27.7666130066	2.00122952461
0.0	-0.0	98.3651123047	44.5691490173	25.1871814728	2.52640128136
0.0	-0.0	103.224853516	37.6594314575	21.5615825653	5.14160585403
0.0	-0.0	103.859634399	34.2631454468	19.3899250031	7.08830976486
0.0	-0.0	104.885360718	36.9205856323	18.8374900818	5.99395847321
0.0	-0.0	107.795944214	40.4480552673	20.4095821381	4.85808420181
0.0	-0.0	108.107711792	40.861125946	21.8778038025	4.87753343582
0.0	-0.0	100.975074768	39.4843559265	22.134683609	5.39419126511
0.0	-0.0	58.3769035339	39.8564491272	22.9413604736	5.64008569717
0.0	-0.0	46.6151733398	39.8202590942	24.1479034424	6.21870422363
0.0	-0.0	54.8546447754	38.6825027466	24.4156036377	7.15616703033
0.0	-0.0	56.1311416626	37.4567489624	24.3680648804	7.86886072159
0.0	-0.0	60.3048019409	36.244556427	23.8102283478	8.34645652771
0.0	-0.0	60.2250747681	35.9376907349	23.0448150635	8.4744310379
0.0	-0.0	60.3852729797	36.4442558289	22.1789531708	8.0532283783
0.0	-0.0	59.5992393494	37.1421737671	21.585817337	7.71901464462
0.0	-0.0	58.4008598328	37.6046638489	20.9772472382	7.4762430191
0.0	-0.0	57.7829208374	37.2435302734	19.6868247986	7.64918041229
0.0	-0.0	58.084400177	36.6396903992	17.9034099579	7.89220428467
0.0	-0.0	57.8019714355	37.2572555542	16.6411819458	7.33457994461
0.0	-0.0	58.2536125183	37.720703125	14.8165111542	6.888276577
0.0	-0.0	58.8809432983	37.5029907227	13.5365524292	6.94650888443
0.0	-0.0	58.3209762573	37.484916687	12.2740917206	6.85727834702
0.0	-0.0	57.5438499451	37.6485214233	12.0709209442	6.72186088562
0.0	-0.0	58.2109222412	37.3886260986	12.0159015656	6.61768817902
0.0	-0.0	55.0914115906	37.281829834	11.8449602127	6.40811777115
0.0	-0.0	50.3217926025	37.4100990295	11.6217269897	6.08883810043
0.0	-0.0	53.5916442871	37.3263053894	11.8952760696	5.91736650467
0.0	-0.0	69.4570922852	37.5210876465	12.7171602249	5.44636106491
0.0	-0.0	81.6113739014	38.0041542053	13.5799436569	5.6209602356
0.0	-0.0	80.3297424316	37.5063171387	14.5469865799	6.18589067459
0.0	-0.0	95.831413269	37.1186790466	14.9824848175	6.90665626526
0.0	-0.0	158.196350098	36.679561615	14.3041477203	7.18241834641
0.0	-0.0	-164.567108154	36.8982582092	14.1064052582	6.96174144745
0.0	-0.0	145.047058105	37.0596656799	14.5190391541	6.67816162109
0.0	-0.0	94.9418106079	37.5971870422	15.1444234848	6.34900188446
0.0	-0.0	88.9085769653	37.5221672058	15.4117603302	6.43210697174
0.0	-0.0	90.3233947754	37.121761322	15.3653450012	6.41942739487
0.0	-0.0	80.2807388306	37.3525161743	12.9370603561	5.24068784714
