0.0	-0.0	135.616958618	-118.250114441	80.2250061035	176.510528564
0.0	-0.0	136.792007446	-118.318595886	81.6237487793	175.863769531
0.0	-0.0	137.073135376	-118.75541687	82.2393188477	175.776428223
0.0	-0.0	137.211425781	-119.939308167	81.6434249878	176.960235596
0.0	-0.0	124.878341675	-117.393791199	78.8480224609	177.661972046
0.0	-0.0	99.1909561157	-109.759170532	76.8083114624	175.923446655
0.0	-0.0	86.8431930542	-100.584259033	77.1719970703	173.884460449
0.0	-0.0	77.8134384155	-92.8006362915	79.7433776855	170.191589355
0.0	-0.0	70.8230514526	-86.7965240479	82.8356018066	166.330154419
0.0	-0.0	68.5214004517	-85.5378799438	84.8933105469	165.19543457
0.0	-0.0	70.0364608765	-86.873626709	85.7788009644	165.086837769
0.0	-0.0	69.7747344971	-86.7224884033	86.3103942871	165.845901489
0.0	-0.0	69.7351074219	-86.5879058838	87.5403213501	165.854721069
0.0	-0.0	71.1550598145	93.4184112549	89.9754333496	-14.4765625
