-48.7573738098	-75.2279586792	142.227127075	5.64901208878	1.06831979752	-2.98396420479
-48.0081977844	-75.2761459351	141.344589233	6.00309085846	1.21144115925	-3.01589131355
-47.7885246277	-75.0550079346	141.171676636	6.06943416595	1.32993590832	-2.9691824913
-46.8572502136	-74.9756622314	140.077880859	6.04878759384	1.27016937733	-2.83150076866
-46.4410896301	-74.8254699707	139.233901978	5.87559700012	1.54302239418	-2.58812475204
-43.5571250916	-73.516784668	135.536071777	6.12578487396	2.49451851845	-2.28029417992
-24.5217094421	-67.408821106	106.352935791	6.82812595367	4.14985847473	-1.98324692249
-8.08004283905	-47.9571723938	67.0029373169	7.32318639755	5.8817358017	-1.57975411415
-7.69366502762	-30.2285614014	41.8969993591	7.67388629913	7.63599634171	-1.24092066288
-12.8678359985	-26.0076808929	43.0497589111	7.92260599136	9.45700454712	-0.887340962887
-14.0450677872	-24.3186016083	38.0029602051	7.86207675934	11.2425909042	-0.435226380825
-13.7493133545	-23.2829589844	32.4937133789	7.55698251724	13.2111673355	-0.0895070582628
-14.3973274231	-22.9911670685	33.4518966675	7.43492889404	14.9226856232	0.204488486052
-14.402015686	-23.5264568329	37.8895988464	7.12761259079	15.7254199982	0.536431968212
-13.4447441101	-23.7157592773	39.3042221069	6.79065418243	16.466840744	0.794603168964
-12.0622014999	-24.9606685638	42.1419563293	6.5342335701	17.2218723297	0.832632303238
-10.6142177582	-30.5092468262	53.9252662659	6.66112184525	17.398223877	0.780197024345
-12.3631258011	-34.5378303528	65.4421463013	6.9483423233	17.5537643433	0.588165521622
-12.610376358	-35.4619102478	65.3293838501	7.33008384705	18.459148407	0.436494141817
-8.92112445831	-34.579372406	58.7994041443	7.40134048462	19.3856487274	0.296933323145
-5.89291954041	-37.5450630188	58.4034347534	7.65138101578	19.3169536591	0.367923170328
-4.17245054245	-47.9969863892	62.6482696533	7.90202283859	18.7788963318	0.298751026392
-4.23208141327	-54.1324272156	66.5594406128	8.00859069824	18.9098510742	0.231516242027
-2.29175114632	-57.5617256165	64.7975921631	8.07364749908	19.6974468231	0.322747021914
1.92609095573	-65.0078048706	66.0673599243	8.24324226379	19.8211975098	0.337930858135
2.20797872543	-74.7130432129	70.7221984863	8.55224990845	19.4919605255	0.340555876493
-5.73808765411	-80.7226257324	78.3881759644	8.85965156555	18.8173274994	0.281556040049
-12.5741147995	-84.132194519	84.3553237915	9.22680568695	17.9696311951	0.285216033459
-15.8713674545	-83.2466278076	86.9540176392	9.56066036224	17.1132183075	0.0843776986003
2.08190178871	-81.0865936279	66.0580291748	10.1665821075	15.8684339523	0.0147528285161
3.01745700836	-80.2413406372	62.3122329712	11.0017061234	13.9712266922	0.575098395348
-0.847841143608	-80.3672180176	64.3361129761	11.5971755981	12.4715642929	1.79911124706
3.56777381897	-73.7771759033	53.9398612976	11.188627243	12.1269254684	3.78686070442
4.65492343903	-61.2594223022	40.8381996155	9.43650817871	13.086766243	5.81143331528
7.23667383194	-49.1538162231	31.0149784088	7.91391706467	14.5477437973	7.08640956879
7.50377941132	-41.6163024902	26.3705043793	7.53096342087	15.2422065735	7.54031991959
7.04529714584	-34.4467430115	23.7840919495	8.00246047974	15.7038192749	7.45479345322
4.38755607605	-25.8656692505	22.2010612488	8.78765773773	15.9007291794	7.00399780273
4.16545963287	-17.9755477905	14.4810037613	9.65477466583	16.1874217987	6.45284175873
4.64461660385	-20.4985332489	19.7673492432	10.6446018219	16.4342365265	6.19358682632
5.42592954636	-21.797750473	20.1732330322	10.9604644775	16.3279457092	6.27130746841
5.1512799263	-27.0378627777	24.7720737457	10.7707958221	15.9667491913	6.54461669922
1.89950489998	-34.711025238	35.641620636	10.7113552094	15.1875066757	7.19491815567
-5.37882328033	-44.9559402466	57.98487854	10.5709667206	14.2403831482	7.96240997314
-10.6386117935	-46.418346405	64.6287078857	10.0023603439	15.1762361526	8.36133480072
-9.1229839325	-43.0285110474	59.8330192566	9.84208106995	17.8010978699	8.70177268982
-7.47877597809	-41.1114616394	57.3126525879	10.132443428	20.6621589661	8.91415405273
-5.09008264542	-38.2563476562	51.207233429	10.8408298492	22.0254535675	8.70916461945
-5.64624452591	-32.5572319031	46.4631652832	11.8186941147	22.2517910004	8.53952598572
-6.18060302734	-26.603471756	44.8007774353	12.7323350906	22.4288520813	8.56844139099
-4.81795120239	-25.6227798462	46.5670394897	13.3114509583	22.1857261658	8.39551067352
-3.84195399284	-27.0051841736	47.0669059753	13.5397911072	20.4126911163	7.70897245407
-2.9152674675	-28.6404819489	47.8203277588	13.9979887009	16.5417957306	6.77976131439
-2.98275780678	-29.9789943695	48.1040992737	14.4521656036	12.434595108	6.36113882065
-2.93863654137	-30.8147926331	47.5021247864	14.1541280746	9.94260025024	6.46902179718
-2.78583407402	-31.5325031281	46.9219970703	13.5240058899	8.59615898132	7.07821416855
-3.13422584534	-31.5422878265	46.8047332764	12.7948188782	7.96088171005	7.70445871353
-4.8485212326	-33.1840591431	50.2925109863	12.3101987839	7.75123023987	8.30559062958
-7.01470899582	-38.0481109619	57.5436134338	11.9357423782	7.75898170471	8.93380832672
-7.02911615372	-36.0409965515	54.1080665588	11.533949852	7.73797798157	9.33515453339
-5.60383272171	-30.2893066406	43.0169792175	11.4124622345	8.21898555756	9.46530532837
-7.35893440247	-18.7536506653	27.0108852386	11.4332075119	9.17040634155	9.55510139465
-10.1224813461	-11.6628875732	12.3376846313	11.29966259	9.73903942108	9.47158908844
-13.1265773773	-10.434217453	11.0316410065	11.0951776505	9.95150661469	9.4045381546
-13.77480793	-13.6806144714	22.5763778687	10.8633270264	10.0618972778	9.34438514709
-14.7813396454	-15.65974617	27.480463028	9.95124340057	10.1115608215	9.44498538971
-15.0619935989	-14.4300842285	23.6499538422	8.00502204895	10.5594186783	9.71127319336
-16.9400501251	-12.0741043091	18.1929244995	5.46063613892	11.0353364944	9.79107666016
-18.7562427521	-12.7614326477	21.3041534424	4.18537664413	11.1916332245	10.0874233246
-19.0706748962	-16.0761642456	28.0218486786	4.33962011337	11.4879550934	10.2252044678
-16.8768024445	-19.1212463379	31.2286224365	4.52536725998	11.6628170013	10.0444936752
-15.5009412766	-18.5481433868	29.8691272736	4.50304317474	11.9835615158	9.80810260773
-14.70262146	-10.8764133453	12.1567602158	5.07364082336	12.6523580551	9.52520656586
-17.8447990417	2.78530979156	-24.4541187286	6.50239658356	13.7415151596	9.55736732483
-14.2528362274	3.68380427361	-19.7888851166	7.52219152451	14.2582321167	9.68010520935
-11.4388504028	3.12645077705	-15.3493337631	7.81332206726	14.3475418091	9.60980701447
-10.9181375504	1.34464776516	-11.9937572479	7.84310436249	14.8520011902	9.55656814575
-12.842965126	-6.77911138535	7.20626878738	7.73334407806	15.2958164215	9.55870056152
-17.0076541901	-13.9528312683	30.1411361694	7.29245328903	15.1965379715	9.50217819214
-20.2316989899	-11.508764267	26.1499080658	6.83514070511	15.4629487991	9.51024436951
-23.9279575348	-8.46636009216	19.8798656464	6.59335422516	16.0269737244	9.56016921997
-26.7340621948	-5.88798666	9.55320262909	6.19287490845	16.6131896973	9.60877323151
-27.8469982147	-6.31212615967	8.16168117523	5.73098802567	17.1890048981	9.61302852631
-28.0337543488	-9.86110782623	18.3745174408	5.18487930298	17.6719379425	9.57670021057
-25.132358551	-13.4394235611	26.3777999878	5.16717624664	17.6278743744	9.31129169464
-24.3470497131	-19.3824768066	45.9704208374	5.61262178421	18.0236949921	9.03870582581
-20.8367671967	-15.4295330048	38.2443656921	5.97455596924	18.3378982544	8.71986103058
-17.5705108643	-11.5698337555	31.3563671112	6.55805444717	18.7709445953	8.4227399826
-13.1916694641	-8.08264255524	27.4927272797	7.22235155106	19.1633815765	8.09326648712
-9.22458076477	-4.838971138	27.3128223419	7.94833040237	19.6112194061	7.73226213455
-3.18005728722	-1.97931599617	29.5081176758	8.88624668121	19.7977771759	7.30992269516
1.76503777504	-3.53640317917	43.0090827942	9.81958866119	19.3453006744	6.82697868347
4.12213611603	-5.84326791763	46.8752632141	10.69090271	18.3880081177	6.70029401779
3.83717727661	-12.0645980835	53.6426849365	10.9876213074	18.342798233	6.99658107758
0.732926726341	-15.2589950562	59.6643638611	10.8972196579	18.8665561676	6.88816833496
-0.23006503284	-9.20252609253	54.9327926636	11.3498630524	19.4427452087	6.95527648926
1.54558241367	1.97382771969	33.9763412476	11.929356575	19.3240966797	7.04249763489
5.05825567245	9.08908939362	26.2244777679	11.998966217	18.5330352783	6.98682308197
7.07767391205	9.71255683899	34.4216079712	12.1431331635	18.1170730591	6.87914848328
5.9500412941	5.59349679947	46.194152832	12.5421228409	17.895067215	7.09044456482
4.58420848846	7.81970977783	44.9494552612	12.7472229004	18.3407669067	7.20217466354
0.89046639204	8.6057472229	47.8936958313	13.0921201706	18.8174304962	7.3489112854
-3.1213414669	5.88458871841	57.6988296509	13.0056247711	18.9799232483	7.48641109467
-3.55643701553	1.3176497221	74.6121520996	12.6951751709	18.8791542053	7.37057828903
-4.19350528717	-7.16052103043	82.4200210571	12.5373859406	18.37682724	7.14000558853
-5.15923690796	-17.521440506	80.1115875244	12.582821846	17.9990997314	6.92762708664
-2.46154689789	-20.3303050995	70.2468566895	12.9017410278	18.0891227722	6.8736281395
-2.09794831276	-17.2596759796	65.3571548462	13.0159254074	18.056344986	6.78603553772
-4.8511390686	-18.3021945953	62.4797515869	13.044921875	18.1296882629	6.82960653305
-7.31277656555	-15.2104558945	60.3660545349	13.0316829681	18.2919578552	7.02030754089
-7.06327438354	-10.3945989609	51.3547782898	12.7739725113	18.1839237213	7.15156793594
-6.38561010361	-12.1700181961	50.4217185974	12.3811473846	17.9087562561	7.27283763885
-9.8237247467	-14.3591222763	51.4862213135	12.1285943985	17.3898067474	7.33147668839
-14.7106838226	-13.7339143753	60.0326957703	12.1144542694	17.1140956879	7.40496015549
-13.4505281448	-14.1525621414	66.977355957	11.9105262756	16.9525794983	7.31751728058
-11.3268232346	-11.8515548706	65.3746261597	11.6304187775	17.6238040924	7.07569885254
-13.2473373413	-0.675867676735	60.5509185791	11.6270990372	19.2621536255	7.02280569077
-16.6412315369	6.99192380905	60.0723342896	11.6758060455	19.9565162659	6.8533706665
-16.9210605621	12.6604766846	55.0258865356	11.9401426315	19.9886016846	6.60363197327
-13.6603298187	14.3797292709	51.6642379761	12.4034023285	19.6055183411	6.40694189072
-14.2818412781	15.7155618668	55.8693771362	12.7478542328	19.1659755707	6.47379875183
-16.0876102448	16.0704841614	68.2464370728	12.6908369064	18.6180000305	6.65533590317
-15.2720689774	10.9565296173	74.6387786865	12.4059944153	17.9845123291	6.87191057205
-15.0177164078	-2.71661877632	77.7401199341	12.1668291092	17.4108810425	6.92296791077
-18.4596939087	-19.9133586884	87.7381439209	12.3226308823	17.6120872498	7.02964353561
-25.0471115112	-29.8767127991	95.0996170044	12.4541683197	18.3312664032	6.91202449799
-41.134513855	-30.8373603821	109.664291382	12.6745643616	18.8343448639	6.94280815125
-39.7485046387	-25.4941158295	108.714004517	12.6211423874	19.1902523041	7.09612846375
-21.208946228	-18.4760894775	85.3028030396	12.3201141357	19.6216411591	7.17925071716
-1.85586762428	-1.7417216301	44.6288719177	12.0689067841	20.1158981323	7.23489522934
-2.77029728889	16.1547031403	6.8041510582	12.1577882767	20.4017505646	7.25280475616
0.912896513939	13.1243000031	10.5483856201	12.0867300034	20.5489902496	7.25318050385
3.28094983101	5.3154501915	20.6431941986	12.1486740112	20.3999252319	7.15463590622
1.73031961918	1.86748540401	23.0108985901	11.8152923584	20.1516838074	7.00072717667
0.522089540958	-4.76094198227	27.6864967346	11.509095192	19.581073761	6.80083036423
-2.23524403572	-13.8146677017	32.9924201965	11.0296182632	17.4844017029	6.4518494606
-4.37596940994	-16.6775817871	33.5746192932	10.3163776398	14.9246320724	6.17534542084
-4.96474885941	-16.4408073425	32.6608695984	9.5463142395	13.150270462	6.4972949028
-5.63829421997	-15.7840414047	31.7744026184	8.27862548828	12.1383953094	7.51358556747
-7.10737323761	-17.9487800598	35.2216377258	6.65810489655	11.5979804993	8.84374046326
-7.52452230453	-19.231098175	37.5356254578	5.45646762848	11.164358139	9.95582008362
-7.49658107758	-19.7155990601	38.1390380859	5.34152746201	11.4464416504	10.4391727448
-6.73424911499	-17.592168808	34.2971611023	6.10230827332	12.4515371323	10.6180639267
-7.43431472778	-8.53695774078	19.2609157562	6.46785974503	13.4461545944	10.7078065872
-11.6585893631	1.22601127625	1.78987240791	6.4634346962	13.926361084	10.6116104126
-12.8784360886	2.95762062073	-2.70705771446	6.62684965134	14.309006691	10.5937614441
-13.9020347595	6.25614118576	-9.51958751678	6.66065883636	14.7198505402	10.5081253052
-14.837346077	10.8118619919	-17.3051834106	6.68597698212	14.8886127472	10.4864397049
-14.0755882263	13.5812711716	-20.4258842468	6.47307252884	15.0333509445	10.4314289093
-12.6567058563	14.567024231	-21.0237197876	6.33028268814	15.2844409943	10.4763965607
-12.6916179657	15.2365245819	-21.517539978	6.12147903442	15.3550424576	10.5315990448
-10.788433075	14.4225511551	-19.8962230682	5.89288425446	15.27693367	10.6476707458
-7.21846485138	1.93014991283	-1.55415892601	5.78601503372	15.2699785233	10.7308063507
-9.83536338806	-12.5878162384	21.2499275208	5.68854093552	15.4360570908	10.796541214
-10.0571136475	-23.7494773865	41.6649932861	5.93177175522	15.7847652435	10.8147087097
-12.7658519745	-29.8484783173	54.0261764526	6.16926193237	16.0170078278	10.7145109177
-19.0932102203	-33.9227638245	67.0197296143	6.44251680374	16.5661869049	10.6325263977
-12.1321582794	-22.8201808929	49.4616508484	6.90894985199	17.2230834961	10.5918607712
-8.72312355042	0.21520870924	10.9018259048	7.41065406799	17.9076938629	10.3374729156
-9.62574386597	9.64713382721	-6.93431997299	7.814909935	18.6326503754	9.98044109344
-6.12623214722	8.62300491333	-3.98046636581	7.99684381485	18.9816646576	9.66812610626
-6.74875640869	6.51339960098	-3.1902410984	7.95467185974	19.0179157257	9.22918605804
-6.73701810837	-1.65422344208	10.0576715469	8.05597877502	18.7469482422	8.68072605133
-4.44544458389	-7.03070354462	17.9521083832	7.97779273987	18.4003162384	7.96195745468
-5.51816654205	-4.42854547501	12.9186964035	8.13167381287	18.4693145752	7.24924325943
-2.84649252892	-5.34377574921	15.6090221405	8.44755458832	18.866853714	6.70850658417
0.884369790554	-13.3542060852	27.1221523285	8.73959541321	18.9586448669	6.26111268997
2.27021098137	-16.1024627686	29.6412162781	9.1746301651	18.8932495117	5.71846580505
3.54262375832	-16.2574768066	29.4764099121	9.75768947601	19.091255188	5.2623167038
5.58900737762	-18.1733589172	31.0492897034	10.0884599686	19.5480899811	4.83704471588
7.14083814621	-20.5763912201	33.0583152771	10.4856338501	19.6884689331	4.13263177872
8.85384082794	-23.5649700165	35.83543396	11.1423950195	19.4983043671	2.99680733681
10.6323919296	-25.3317680359	36.8854637146	12.2356729507	19.1984500885	1.60328841209
12.068025589	-25.4844284058	35.9735794067	13.4957227707	19.3543224335	0.710288107395
12.0708694458	-25.4569339752	35.635925293	13.7518558502	19.5196247101	0.303838729858
11.2580547333	-25.810426712	35.5789985657	13.2163009644	18.9617671967	0.267797887325
10.2909660339	-26.5521144867	36.4027748108	12.8323545456	18.0463695526	0.553001701832
9.16422843933	-26.7231311798	36.7130699158	12.6635112762	17.242811203	0.91783452034
8.25030517578	-26.5869579315	36.4573478699	12.3687448502	16.7743244171	1.26025009155
7.56830835342	-27.0641059875	37.3555450439	12.1819982529	16.3721618652	1.22897291183
6.09894371033	-30.3010063171	46.5609130859	13.0071401596	15.637711525	0.11642691493
-0.350292235613	-36.5176086426	69.6396102905	15.2448720932	15.386382103	-1.77544987202
-5.99950408936	-35.1140365601	82.6340713501	17.161649704	16.197971344	-3.02468967438
-7.85599422455	-31.6448764801	86.7977218628	18.1907672882	17.266368866	-3.79692363739
-5.24578905106	-30.2602310181	83.8207778931	19.2058811188	18.2061576843	-4.22905635834
-1.68359565735	-29.4968242645	78.6147766113	19.9850616455	18.9387073517	-4.30865335464
-0.177488610148	-29.141576767	75.9340820312	20.3442001343	19.116563797	-4.23190307617
-0.292873501778	-29.5949649811	76.6746673584	20.2962837219	18.8848209381	-4.19650888443
-0.104489803314	-29.8652515411	74.6811294556	19.7946796417	18.5474643707	-3.91834926605
1.14576256275	-29.0268344879	71.1868515015	18.6194324493	18.7133293152	-3.61281323433
3.39647245407	-27.4762382507	64.3746414185	17.0184745789	19.1778507233	-3.41134142876
