-39.8642120361	1.13655245304	14.1390943527	9.71017551422	-1.06634032726	-32.8347167969
-39.7022781372	1.0996440649	13.8458089828	9.74784374237	-1.16012835503	-32.8362007141
-39.5597686768	0.98331040144	13.7002983093	9.75697612762	-0.955961585045	-32.2261390686
-39.0301437378	0.503485739231	13.2850961685	9.53257465363	-0.69293063879	-29.3108882904
-38.5865325928	-0.311972677708	13.0149450302	8.81310939789	0.16670101881	-25.0259113312
-37.6406288147	-1.22461080551	12.3831214905	7.87957954407	1.38389706612	-20.9671363831
-37.2061843872	-1.33056020737	12.1009159088	7.03734493256	1.94320237637	-18.3820476532
-36.6240463257	-1.12897515297	11.5305919647	6.22832775116	2.05752897263	-18.0252399445
-35.7275390625	-1.49271273613	11.0593395233	6.48887634277	2.57100248337	-19.7598571777
-35.0751533508	-2.97337627411	10.1539373398	7.91424036026	3.20758008957	-22.1842288971
-34.9630012512	-3.72692990303	9.47635173798	9.41806602478	3.6399333477	-24.166601181
-34.9355201721	-4.11254835129	8.85138893127	10.0180940628	3.9465110302	-25.065328598
-34.8484230042	-4.68413448334	8.37240505219	9.7118396759	4.49546098709	-24.8046264648
-34.2879104614	-5.35821151733	7.73344993591	9.18545722961	5.67935371399	-23.423002243
-33.4559898376	-5.29180526733	6.99335622787	8.9788608551	7.67324304581	-22.3025302887
-32.6376533508	-4.98246860504	6.77948474884	9.05715179443	9.99470710754	-21.9109630585
-31.9796447754	-4.60788583755	6.2511920929	8.51187992096	12.5463085175	-21.365940094
-31.6155166626	-4.4367351532	5.42524671555	7.26349306107	15.07380867	-20.6070156097
-31.205789566	-4.20854902267	4.58246660233	5.29434633255	16.6336193085	-19.9699287415
-30.4944725037	-3.64644384384	2.54208469391	3.14964866638	17.8779735565	-18.7078914642
-30.3259124756	-3.25843501091	0.92769920826	1.46548199654	18.1470355988	-17.3808517456
-31.4171218872	-2.53743267059	1.48895764351	0.124479413033	17.6782169342	-17.0595836639
-33.1855010986	-2.09854531288	3.69334673882	-0.297456651926	17.3966655731	-17.4058837891
-33.2247428894	-1.82225763798	3.27621030807	-0.202557519078	17.692440033	-17.9345302582
-32.3754005432	-2.05576586723	2.64966416359	-0.126040220261	18.0073757172	-18.2577342987
-31.7352581024	-2.02288770676	1.9541529417	-0.385032981634	18.151884079	-18.7442131042
-31.4455070496	-1.58159220219	0.417233794928	-0.74761646986	18.2349720001	-19.0144062042
-31.6704463959	-1.76657104492	1.60271930695	-1.08060073853	18.3137798309	-19.1010875702
-31.4035549164	-1.51182603836	4.45930862427	-1.22409594059	18.2615871429	-19.1341991425
-31.1796913147	-0.787467837334	4.65226602554	-1.84648680687	17.9213066101	-20.2256069183
-31.2565898895	-0.819447398186	4.68258714676	-4.3961725235	16.7324371338	-23.069978714
-31.3835258484	-1.0902326107	4.51633453369	-8.71408843994	15.2748498917	-23.5544948578
-31.2407608032	-1.25268018246	4.00750684738	-10.9724254608	14.7301092148	-20.1925544739
-31.1365432739	-1.00323295593	4.2140212059	-10.8863649368	15.0754871368	-17.7168216705
-30.9305343628	-0.71167075634	4.00253915787	-11.0786037445	15.8321905136	-16.4140319824
