0.0	-0.0	141.388397217	-125.240257263	77.1165466309	169.561340332
0.0	-0.0	141.193435669	-124.871017456	78.3441772461	169.61807251
0.0	-0.0	140.882019043	-124.532424927	78.8444824219	169.702774048
0.0	-0.0	136.117446899	-123.08404541	77.2163696289	170.711303711
0.0	-0.0	104.419815063	-117.094764709	73.3510360718	171.964050293
0.0	-0.0	81.370513916	-106.692100525	73.4032745361	171.426681519
0.0	-0.0	83.7838058472	-94.697479248	76.1400299072	169.391082764
0.0	-0.0	84.4261932373	-85.6131973267	81.612121582	165.338592529
0.0	-0.0	82.7591018677	-79.0365066528	87.5184707642	163.107910156
0.0	-0.0	83.4455184937	-77.9821090698	89.6792144775	162.221466064
0.0	-0.0	82.9898071289	-78.8644943237	86.2773895264	163.157974243
0.0	-0.0	82.2428207397	-77.7522735596	82.5691070557	163.430709839
0.0	-0.0	90.6085510254	-75.7924880981	82.8656845093	162.588027954
0.0	-0.0	102.093704224	-74.0021896362	84.2537765503	162.170059204
0.0	-0.0	112.495262146	-72.9019775391	85.4276809692	162.156845093
0.0	-0.0	111.132972717	-72.1398773193	86.8184051514	162.129241943
0.0	-0.0	100.327308655	-73.3554077148	85.9983291626	163.179199219
0.0	-0.0	82.9275283813	-76.2244949341	83.0698852539	165.055999756
0.0	-0.0	84.1346282959	-77.5888290405	80.9221572876	166.594940186
0.0	-0.0	95.60131073	-78.040435791	81.8522949219	167.259902954
0.0	-0.0	100.945999146	-77.4033889771	83.2532272339	167.181015015
0.0	-0.0	107.358215332	-76.1534347534	84.2143096924	166.813369751
0.0	-0.0	116.927368164	-74.3837280273	87.7334823608	165.443008423
0.0	-0.0	118.996116638	107.402183533	89.4723892212	-16.057762146
0.0	-0.0	80.2931289673	-71.9371871948	85.6591339111	165.115615845
0.0	-0.0	44.0832138062	-72.3940353394	79.870010376	167.697067261
0.0	-0.0	35.3264503479	-73.0959701538	78.8807449341	168.982025146
0.0	-0.0	27.6039943695	-72.5931015015	77.7230224609	169.947494507
0.0	-0.0	24.8411006927	-73.3471679688	75.0997467041	171.60508728
0.0	-0.0	41.7038040161	-77.1020431519	72.2695541382	173.6456604
0.0	-0.0	61.5382003784	-82.4391784668	70.5846405029	175.514144897
0.0	-0.0	56.6947250366	-85.8389129639	70.1904144287	177.188476562
0.0	-0.0	62.2295722961	-86.8231277466	69.7803344727	178.709472656
0.0	-0.0	72.6622848511	-87.4017105103	71.4454650879	178.801010132
0.0	-0.0	91.4904403687	-88.0555419922	73.5632476807	178.261001587
0.0	-0.0	100.714836121	-87.771270752	74.4432754517	177.207336426
0.0	-0.0	98.6375732422	-85.9867248535	74.8285369873	175.960250854
0.0	-0.0	94.5029678345	-82.7297210693	76.6336746216	174.068969727
0.0	-0.0	94.7417068481	-78.9427032471	79.9836959839	171.453323364
0.0	-0.0	92.1000823975	-74.032585144	83.8543548584	168.40814209
0.0	-0.0	90.7479400635	-70.6338806152	84.4988937378	168.012130737
0.0	-0.0	90.5549087524	-68.7027816772	82.030960083	169.273025513
0.0	-0.0	88.5716705322	-67.2089004517	81.8041381836	169.316650391
0.0	-0.0	91.881187439	-64.2786865234	83.7185287476	168.101074219
0.0	-0.0	101.079711914	-62.93151474	84.3942642212	167.358444214
0.0	-0.0	115.935325623	-62.9754905701	85.8583450317	166.811538696
0.0	-0.0	139.792633057	-63.3731842041	86.038482666	167.035324097
0.0	-0.0	145.988113403	-65.8210220337	82.6525268555	168.596633911
0.0	-0.0	129.911621094	-68.0814208984	79.4051208496	171.232299805
0.0	-0.0	104.73790741	-69.7477416992	73.7532196045	174.74546814
0.0	-0.0	87.0137252808	-71.6336669922	66.6440811157	178.078063965
0.0	-0.0	77.8056945801	-73.1050491333	65.8890609741	-179.939346313
0.0	-0.0	76.4142608643	-73.3775405884	66.8401794434	-178.756347656
0.0	-0.0	79.0774993896	-72.8036117554	68.4873809814	-178.088027954
0.0	-0.0	83.5670776367	-71.5763549805	70.12084198	-177.534851074
0.0	-0.0	83.6672668457	-69.7199401855	72.1244506836	-177.794448853
0.0	-0.0	80.492729187	-68.2991867065	73.3387832642	-178.786849976
0.0	-0.0	80.6758499146	-67.4756393433	73.9446258545	-179.27557373
0.0	-0.0	81.260055542	-67.2221069336	75.7750473022	-179.661499023
0.0	-0.0	84.6739425659	-67.3018875122	80.5080871582	179.14453125
0.0	-0.0	83.4597930908	-67.9138870239	84.1171875	179.005386353
0.0	-0.0	82.4878692627	-67.0829772949	82.6133575439	179.647247314
0.0	-0.0	84.8187179565	-65.6734924316	81.7631530762	179.557800293
0.0	-0.0	86.4950408936	-64.5459823608	81.9345703125	179.275131226
0.0	-0.0	99.1159133911	-62.7935829163	82.5250778198	178.672271729
0.0	-0.0	111.683158875	-61.1126937866	82.4612121582	178.123931885
0.0	-0.0	116.624427795	-59.3760147095	81.5574798584	177.650970459
0.0	-0.0	100.207611084	-58.4021835327	80.4965896606	176.977920532
0.0	-0.0	73.7978591919	-58.9703102112	79.2233581543	176.734268188
0.0	-0.0	56.7537269592	-60.4147567749	77.4956970215	177.31602478
0.0	-0.0	43.5432701111	-62.4098930359	75.7247085571	178.181976318
0.0	-0.0	37.604473114	-63.9353027344	74.6644134521	178.272918701
0.0	-0.0	41.6603851318	-64.416809082	75.013343811	178.480316162
0.0	-0.0	44.4450263977	-66.0959854126	75.187210083	178.985076904
0.0	-0.0	53.0734481812	-70.4072570801	75.2603530884	-177.496261597
0.0	-0.0	63.6655311584	-73.8191146851	78.3316497803	-175.846069336
0.0	-0.0	67.780632019	-74.8419189453	80.2191848755	-175.38633728
0.0	-0.0	64.6934814453	-74.6173248291	81.6003341675	-175.661911011
0.0	-0.0	71.5046844482	-74.6145248413	82.1959686279	-176.678359985
