0.0	-0.0	132.324493408	-109.176567078	87.1462936401	-171.295440674
0.0	-0.0	132.816436768	-109.227500916	86.8906555176	-171.459411621
0.0	-0.0	130.90737915	-109.018188477	86.6929855347	-171.612487793
0.0	-0.0	124.309677124	-109.561592102	87.1404190063	-171.271591187
0.0	-0.0	102.305778503	-110.984481812	88.2900924683	-170.294372559
0.0	-0.0	77.0886764526	67.5709762573	89.9192886353	10.9057941437
0.0	-0.0	79.8574523926	65.0222625732	88.2774505615	12.5187950134
0.0	-0.0	82.502571106	62.6292533875	87.0637817383	14.3207578659
0.0	-0.0	78.3433303833	60.9345321655	86.8963775635	15.8018655777
0.0	-0.0	76.132270813	59.6877441406	83.0396575928	15.5847215652
0.0	-0.0	70.7916793823	56.3235282898	74.8042221069	15.2601442337
0.0	-0.0	60.8903617859	51.9539527893	69.4675216675	16.6288433075
0.0	-0.0	46.741153717	49.1961326599	68.2326278687	18.241689682
0.0	-0.0	44.9260902405	47.1605567932	66.8532409668	19.5318317413
0.0	-0.0	47.30103302	44.1513061523	64.7739868164	21.0793037415
0.0	-0.0	39.6720962524	41.4170074463	64.0530700684	21.4349155426
0.0	-0.0	18.3465557098	40.132850647	63.2534370422	22.1318016052
0.0	-0.0	0.908515930176	38.2717323303	62.4003982544	22.5047340393
0.0	-0.0	0.745814025402	37.313167572	61.5898742676	22.425453186
0.0	-0.0	12.9145116806	36.7451629639	60.6386451721	22.6867008209
0.0	-0.0	39.3651618958	36.1945915222	59.3356819153	23.0508041382
0.0	-0.0	63.069770813	35.3489074707	58.0925750732	23.6161117554
0.0	-0.0	59.3470077515	34.4010734558	56.6074447632	23.6278839111
0.0	-0.0	75.8311767578	34.3867874146	52.9669837952	22.6513977051
0.0	-0.0	61.2498817444	35.4356460571	47.4362182617	20.9229240417
0.0	-0.0	59.1451797485	38.536491394	43.7678909302	18.0072402954
0.0	-0.0	54.7754707336	41.4282722473	41.0101013184	15.104388237
0.0	-0.0	63.4227409363	43.7606010437	34.7313537598	13.2808094025
0.0	-0.0	74.2067184448	44.9826889038	29.0326938629	12.0952682495
0.0	-0.0	62.6162986755	45.6855506897	23.4260482788	11.4087305069
0.0	-0.0	61.6492271423	46.0195198059	22.165140152	11.2442569733
0.0	-0.0	66.4308547974	46.1240730286	22.8049736023	11.1498594284
0.0	-0.0	69.6705856323	47.1301612854	22.8175563812	10.7349596024
0.0	-0.0	70.483291626	48.0519752502	21.781211853	9.28451919556
0.0	-0.0	71.8606109619	49.3108253479	19.9779853821	7.77617025375
0.0	-0.0	72.8114929199	51.5434837341	19.5663909912	6.12839889526
0.0	-0.0	77.9830856323	58.78647995	20.4930267334	3.24160146713
0.0	-0.0	84.708442688	73.1134185791	22.104801178	-1.37046611309
0.0	-0.0	103.901130676	81.6005706787	23.6527996063	-4.38140249252
0.0	-0.0	-156.90057373	79.5107650757	22.670791626	-5.2494354248
0.0	0.0	-112.268318176	75.2995681763	21.1289825439	-4.5717086792
0.0	-0.0	22.9464321136	71.2718887329	20.2785663605	-3.7867193222
0.0	-0.0	47.9796295166	66.5463638306	20.872926712	-1.45301866531
0.0	-0.0	40.5067214966	60.3284454346	21.157453537	1.87531149387
0.0	-0.0	35.1076393127	53.8512382507	21.4017353058	5.86459875107
0.0	-0.0	24.0038719177	48.2699203491	21.5711708069	8.83059883118
0.0	-0.0	17.6988391876	45.6319351196	21.2563934326	9.93424606323
0.0	-0.0	17.1583747864	44.5535583496	21.3519535065	10.2995195389
0.0	-0.0	17.792886734	44.0323944092	21.882101059	10.1915884018
0.0	-0.0	23.7321281433	44.0103645325	22.5654716492	9.86683559418
0.0	-0.0	39.4909133911	43.3903884888	23.161485672	9.86766815186
0.0	-0.0	164.508728027	42.487701416	23.4065628052	10.4641971588
0.0	-0.0	168.659912109	41.5027313232	23.6201190948	11.3572359085
0.0	-0.0	138.989501953	40.4938545227	23.5378265381	11.889755249
0.0	-0.0	88.7925338745	38.367805481	22.4940719604	12.9611721039
0.0	-0.0	112.276176453	35.4056396484	21.0881500244	15.0869665146
0.0	-0.0	118.781692505	32.3631820679	19.3825054169	16.8306083679
0.0	-0.0	122.154563904	30.610906601	17.3862018585	17.3315601349
0.0	-0.0	144.996841431	31.7328186035	16.6555633545	16.2051944733
0.0	0.0	-88.7661056519	35.2431297302	16.8053627014	13.1234102249
0.0	0.0	-64.640953064	38.7533416748	17.6513271332	10.2480487823
0.0	0.0	-55.1436538696	39.9080352783	18.1706218719	8.81099128723
0.0	0.0	-89.8377532959	40.5383377075	18.8159351349	8.84014892578
0.0	-0.0	-150.395294189	39.1622581482	20.0016765594	10.3295946121
0.0	-0.0	-168.597839355	36.2669944763	21.9793395996	13.3570556641
0.0	-0.0	177.158554077	32.5542106628	24.5314311981	16.8179645538
0.0	-0.0	176.546569824	28.3731136322	27.2016868591	20.4398727417
0.0	-0.0	-162.128082275	23.8669185638	29.2185115814	23.9763679504
0.0	-0.0	-144.115692139	20.3602390289	30.61951828	26.8322162628
0.0	-0.0	-143.398300171	18.8414554596	31.4003105164	27.7258014679
0.0	-0.0	-149.419509888	19.4518814087	32.1005020142	27.260187149
0.0	-0.0	-170.183227539	20.9993305206	33.4085350037	26.1359367371
0.0	-0.0	98.2255935669	23.571969986	35.7089996338	24.6786651611
0.0	-0.0	59.869102478	26.0552959442	38.6896514893	23.4385814667
0.0	-0.0	35.583026886	27.7438373566	40.2736167908	22.5164833069
0.0	-0.0	40.5878105164	28.8936882019	41.1462745667	22.2909641266
0.0	-0.0	43.7413253784	29.0953369141	41.9204978943	22.3680419922
0.0	-0.0	43.0505828857	29.1647415161	41.7783851624	22.2810192108
0.0	-0.0	44.7279052734	29.6348896027	39.2518043518	21.9515457153
0.0	-0.0	45.1826896667	28.7943115234	36.3406333923	21.8814888
0.0	-0.0	47.4259681702	27.6624507904	34.056224823	21.8616695404
0.0	-0.0	49.0772819519	26.8744049072	31.972114563	21.7420482635
0.0	-0.0	51.4131622314	26.7675323486	29.7885494232	21.3806610107
0.0	-0.0	52.1362609863	27.4283847809	28.2841758728	20.6005840302
0.0	-0.0	53.5483436584	28.7823944092	26.9611053467	19.6478385925
0.0	-0.0	53.0608634949	30.558883667	25.4385967255	18.3233108521
0.0	-0.0	53.0234146118	32.8209762573	23.8661117554	16.9602222443
0.0	-0.0	52.8405075073	34.2335014343	22.4413833618	15.6666116714
0.0	-0.0	52.0350265503	34.9563446045	21.540687561	14.6636362076
0.0	-0.0	51.8324317932	35.3163719177	21.0277233124	14.06615448
0.0	-0.0	52.0649681091	35.1772232056	20.9656143188	14.0550251007
0.0	-0.0	51.8988838196	34.6038093567	21.5984325409	14.1444778442
0.0	-0.0	52.0130271912	34.4546203613	22.1387825012	14.4342565536
0.0	-0.0	51.5002975464	34.4792823792	22.0545787811	14.3415670395
0.0	-0.0	49.4437828064	34.7029418945	21.3218822479	14.151140213
0.0	-0.0	50.3326148987	35.2030906677	20.3880805969	13.7906951904
0.0	-0.0	53.8961334229	35.9651222229	20.0739955902	13.3710327148
0.0	-0.0	60.1831588745	36.2861289978	20.1468982697	13.0613021851
0.0	-0.0	68.3374633789	35.9570922852	20.508644104	13.1241960526
0.0	-0.0	72.7082061768	35.6828842163	20.7267303467	13.2593488693
0.0	-0.0	73.6261062622	35.4404411316	20.3302001953	13.4012584686
0.0	-0.0	72.0171585083	35.2752304077	19.7821483612	13.417468071
0.0	-0.0	85.8297348022	35.5671806335	19.185541153	13.3120613098
0.0	-0.0	148.836837769	35.6508598328	18.638551712	13.1633148193
0.0	-0.0	-160.406692505	36.4613456726	19.3591175079	12.6881008148
0.0	-0.0	139.841705322	37.1000671387	20.5157833099	12.1950511932
0.0	-0.0	104.631660461	36.8791732788	21.1850032806	12.1058502197
0.0	-0.0	107.670265198	35.9912834167	21.2993030548	12.2403059006
0.0	-0.0	117.533660889	35.6455459595	21.520362854	12.1832561493
0.0	-0.0	144.250091553	35.4986610413	21.544418335	12.171254158
0.0	-0.0	143.516464233	35.5628356934	22.6563243866	12.1713600159
0.0	-0.0	132.112106323	35.4899635315	27.5062713623	12.5850372314
0.0	-0.0	128.982559204	34.7683143616	37.9208946228	13.4750080109
0.0	-0.0	128.46295166	33.3722915649	50.2149734497	14.5701951981
0.0	-0.0	130.199447632	32.8880691528	55.0006217957	15.200958252
0.0	-0.0	126.786560059	32.8662719727	54.6155700684	15.2037010193
0.0	-0.0	119.92313385	32.9501571655	50.7216720581	14.499048233
0.0	-0.0	123.072006226	33.4122047424	45.2330551147	13.3677864075
0.0	-0.0	130.876922607	33.7823104858	42.0751647949	12.0980081558
0.0	-0.0	143.372085571	33.2831420898	40.8837547302	11.2622890472
0.0	-0.0	-175.210647583	33.0408096313	41.488368988	10.9146871567
0.0	-0.0	-171.791503906	33.2784538269	42.5506286621	10.9917669296
0.0	-0.0	144.461288452	33.544178009	43.1768989563	11.6187124252
0.0	-0.0	75.2861785889	33.3926048279	43.3902435303	12.1649971008
0.0	-0.0	67.6829986572	33.1527175903	43.3091926575	12.5141925812
0.0	-0.0	77.5948562622	32.8501663208	43.7427635193	13.0361585617
0.0	-0.0	96.7041244507	32.0730514526	43.970500946	13.5582990646
0.0	-0.0	136.641906738	31.7609996796	43.2967605591	13.3691577911
0.0	-0.0	171.119827271	31.9659805298	42.7711982727	13.5291576385
0.0	-0.0	174.260604858	32.1567649841	42.8739128113	13.6322975159
0.0	-0.0	146.443099976	32.3578567505	43.0378952026	13.7033557892
0.0	-0.0	77.6790618896	32.3958930969	43.7201080322	14.1974020004
0.0	-0.0	60.8395118713	31.6886329651	44.7034301758	15.0101041794
0.0	-0.0	56.6905212402	30.6582717896	45.4602355957	15.6243972778
0.0	-0.0	56.6774291992	29.7295913696	45.7310829163	16.0745563507
0.0	-0.0	64.532699585	29.2314319611	45.8416519165	16.239692688
0.0	-0.0	74.7774963379	29.4294929504	45.1274185181	16.0658302307
0.0	-0.0	94.2690963745	30.0481643677	43.6613807678	15.4812641144
0.0	-0.0	121.909492493	31.0144519806	40.8239059448	14.4139299393
0.0	-0.0	152.959976196	31.9927978516	35.4037818909	13.887011528
0.0	-0.0	150.779586792	32.4504623413	27.5477027893	13.6404333115
0.0	-0.0	149.898712158	33.120262146	20.5810489655	14.0317344666
0.0	-0.0	145.933502197	33.4883270264	13.9466791153	14.136341095
0.0	-0.0	146.856781006	34.1015396118	10.1780443192	13.8059844971
0.0	-0.0	150.016265869	35.8359794617	10.1005573273	13.585770607
0.0	-0.0	165.463012695	35.6598472595	11.5132808685	13.4620313644
0.0	-0.0	-159.900253296	34.8677711487	13.0875320435	13.5936899185
0.0	-0.0	-155.236465454	34.3976860046	13.3973712921	14.3045063019
0.0	-0.0	-167.994293213	33.8122215271	13.9803771973	15.1772460938
0.0	-0.0	162.478622437	32.898021698	14.9322795868	16.225643158
0.0	-0.0	128.531158447	31.9891834259	16.3308353424	17.2096614838
0.0	-0.0	127.89641571	30.9638786316	18.2649841309	17.8305644989
0.0	-0.0	160.920928955	29.6130867004	20.1172885895	18.4719047546
0.0	-0.0	170.861602783	28.3652763367	23.0294094086	18.6120185852
0.0	-0.0	158.989318848	27.8133506775	26.8955993652	18.5605354309
0.0	-0.0	99.8095932007	27.9778766632	31.846244812	18.2949790955
0.0	-0.0	58.2123641968	29.846282959	38.7034187317	16.7755908966
0.0	-0.0	49.5725479126	32.2084503174	40.5212020874	14.3063678741
0.0	-0.0	50.463470459	33.6374359131	40.6102638245	12.1867246628
0.0	-0.0	46.3642578125	34.8448677063	40.2158050537	9.97042179108
0.0	-0.0	52.237651825	36.5229263306	39.706199646	7.20437049866
0.0	-0.0	53.9329566956	38.0653915405	36.8183517456	4.52759552002
0.0	-0.0	53.7661437988	38.5336380005	32.2697525024	2.18585896492
0.0	-0.0	51.523235321	38.3985061646	26.4962215424	-0.909777641296
0.0	-0.0	51.4956245422	38.1739616394	21.3845043182	-3.31706905365
0.0	-0.0	54.1029510498	37.2154541016	19.3685760498	-3.29504776001
0.0	-0.0	55.6885566711	34.952381134	20.3462753296	-2.09565329552
0.0	-0.0	55.9940910339	33.3814506531	22.5038204193	-0.340234905481
0.0	-0.0	55.9658050537	32.8673286438	23.8430156708	0.964489519596
0.0	-0.0	54.7361869812	33.0467643738	23.7495536804	1.48869228363
0.0	-0.0	54.052406311	33.223941803	23.2627086639	1.48465192318
0.0	-0.0	52.971698761	33.0997848511	22.8525409698	1.4184718132
0.0	-0.0	50.4110336304	32.8120880127	22.5457077026	1.39573943615
0.0	-0.0	52.8412094116	32.1144065857	22.4887905121	2.06851434708
0.0	-0.0	76.9036178589	31.7237205505	22.4506206512	2.75604844093
0.0	-0.0	99.3748168945	31.9928569794	22.4901294708	3.24159550667
0.0	-0.0	92.3916091919	32.1102104187	22.4287891388	3.48852181435
0.0	-0.0	79.8065032959	31.9562664032	21.7224082947	3.58571434021
0.0	-0.0	78.4185562134	31.9405593872	21.0661716461	3.66934490204
0.0	-0.0	89.6190185547	32.0347442627	20.9623374939	3.66703510284
0.0	-0.0	120.063796997	32.2160415649	21.024641037	3.77032494545
0.0	0.0	-81.9262695312	32.5202102661	21.0217781067	4.20188379288
0.0	0.0	-62.9918327332	32.6895713806	20.674446106	4.53523254395
0.0	-0.0	-125.014358521	32.7712631226	20.097694397	5.01705026627
0.0	-0.0	176.718505859	32.5132637024	19.7382144928	5.35077428818
0.0	-0.0	-172.958633423	31.9811706543	19.8761386871	5.95371007919
0.0	-0.0	-167.674316406	30.9738330841	19.8598766327	6.63031339645
0.0	-0.0	-169.03604126	29.6009788513	19.5525684357	7.73385572433
0.0	-0.0	-174.744674683	29.0285587311	18.7761535645	8.29699993134
0.0	-0.0	-175.796096802	28.7181587219	19.3107051849	8.52476024628
0.0	-0.0	-168.019454956	29.055513382	20.6138038635	8.29117679596
0.0	-0.0	-157.906295776	29.8749904633	21.9546451569	7.77463817596
0.0	-0.0	-163.766204834	29.5152683258	23.499370575	7.51525115967
0.0	-0.0	113.709472656	30.1805114746	26.9346599579	7.19182682037
0.0	-0.0	63.8966064453	30.0941543579	31.480632782	7.37533140182
0.0	-0.0	49.0918235779	29.2065620422	34.2862548828	8.116563797
0.0	-0.0	55.18932724	28.0841884613	36.0758056641	9.48690223694
0.0	-0.0	53.8243865967	26.8840141296	37.4780387878	10.4097919464
0.0	-0.0	60.734046936	26.0644073486	37.6813278198	11.1073684692
0.0	-0.0	67.1069488525	25.2839012146	37.4418029785	11.9791374207
0.0	-0.0	70.4092330933	24.1335468292	36.2289772034	12.4607906342
0.0	-0.0	76.9596786499	22.8961448669	34.4359283447	13.1389036179
0.0	-0.0	86.7016906738	21.0119590759	33.3324813843	14.3330278397
0.0	-0.0	94.2440490723	20.0682601929	33.7518196106	15.3667201996
0.0	-0.0	88.7788467407	20.3303890228	35.5295448303	15.8858394623
0.0	-0.0	99.7852325439	20.5366172791	37.3331871033	16.6186141968
0.0	-0.0	96.5538330078	20.697013855	38.7592773438	17.5615272522
0.0	-0.0	95.6442718506	21.067483902	38.8286857605	17.8391342163
0.0	-0.0	114.824264526	21.3564109802	38.7744979858	18.0477638245
0.0	-0.0	179.796768188	21.5324611664	39.0924835205	17.2532501221
0.0	-0.0	-151.413101196	21.9447917938	39.1187934875	16.196439743
0.0	-0.0	-163.904281616	23.1254863739	39.5169219971	15.2539072037
0.0	-0.0	131.649490356	24.2189121246	39.5179824829	14.5261240005
0.0	-0.0	79.895362854	24.7639045715	39.3733520508	14.6110391617
0.0	-0.0	75.0896759033	25.235244751	41.4391021729	14.9232473373
0.0	-0.0	68.8752288818	26.0506629944	45.9187431335	15.2244691849
0.0	-0.0	54.5544281006	25.8750667572	49.3676719666	15.1407556534
0.0	-0.0	36.4008026123	26.6512260437	51.2035179138	14.2379665375
0.0	-0.0	25.9291858673	27.5558071136	48.8553848267	14.1457939148
0.0	-0.0	31.6232509613	27.9597053528	46.4213180542	14.7481765747
0.0	-0.0	35.6307106018	28.1420288086	45.8714408875	15.8731384277
0.0	-0.0	43.5472755432	27.4957542419	46.6329879761	17.0007133484
0.0	-0.0	54.3419303894	25.0999126434	44.9529762268	17.6515903473
0.0	-0.0	63.885017395	22.4474258423	42.726600647	18.7450580597
0.0	-0.0	76.0936050415	20.4521541595	41.3233184814	19.6680774689
0.0	-0.0	79.6247711182	19.95495224	40.70262146	20.0620594025
0.0	-0.0	70.4979171753	19.6105594635	40.9348220825	20.2550315857
0.0	-0.0	55.3047828674	19.1480178833	40.0896644592	20.2194404602
0.0	-0.0	45.944984436	19.4729061127	37.7813262939	19.9541606903
0.0	-0.0	43.1977653503	20.5559310913	35.4815750122	18.9938526154
0.0	-0.0	43.1219291687	22.6778907776	32.8520393372	17.1497154236
0.0	-0.0	42.6359786987	25.3796520233	30.5741844177	15.3140726089
0.0	-0.0	43.252620697	28.2666873932	29.2891197205	13.5379199982
0.0	-0.0	43.0922393799	30.6040534973	29.4596443176	12.1971969604
0.0	-0.0	42.9359893799	32.604095459	31.2060756683	11.109079361
0.0	-0.0	43.9520149231	33.6614608765	32.2043075562	11.0801076889
0.0	-0.0	47.121307373	33.5043716431	32.7146682739	12.1538162231
0.0	-0.0	51.4206542969	31.6265869141	33.3726348877	14.0156707764
0.0	-0.0	53.5640563965	29.8297977448	34.1082458496	15.707988739
0.0	-0.0	53.7454872131	28.8084945679	33.7957763672	16.459356308
0.0	-0.0	54.1640167236	28.8372192383	32.9851150513	16.5811805725
0.0	-0.0	53.6116371155	29.0857086182	31.1725749969	16.5765857697
0.0	-0.0	59.0610656738	29.6446743011	29.0718898773	15.398888588
0.0	-0.0	65.5621948242	31.6927852631	28.3781604767	13.9548025131
0.0	-0.0	87.8643417358	33.1287002563	29.5789527893	13.1902608871
0.0	-0.0	87.2141418457	33.1438026428	31.3542079926	13.306760788
0.0	-0.0	85.1450271606	31.9745502472	31.423166275	13.9119176865
0.0	-0.0	-155.741928101	30.8626384735	31.3120822906	14.8368940353
0.0	-0.0	151.659500122	30.6598434448	32.0323829651	15.104516983
0.0	-0.0	82.8834991455	31.3071899414	32.6600532532	14.799372673
0.0	-0.0	73.2944641113	31.1974315643	32.4491195679	14.4794073105
0.0	-0.0	84.6010437012	30.8148040771	32.8428497314	15.2911491394
0.0	-0.0	94.3820724487	30.195142746	33.4974975586	15.5767869949
0.0	-0.0	117.239852905	29.8340930939	33.5264129639	15.8662099838
0.0	-0.0	128.554946899	30.0013389587	34.3474731445	16.6102771759
0.0	-0.0	73.3466873169	29.8537063599	35.9278182983	17.1257514954
0.0	-0.0	51.4192581177	29.2497558594	35.8697891235	17.1608085632
0.0	-0.0	40.4990844727	28.8412322998	36.211265564	17.7028217316
0.0	-0.0	40.6109542847	28.5178318024	37.0367965698	17.6466503143
0.0	-0.0	42.3656234741	28.2362098694	37.4008979797	17.5313014984
0.0	-0.0	53.4840888977	28.2206172943	37.7478942871	17.613658905
0.0	-0.0	59.1387748718	27.779586792	38.1059570312	17.6186275482
0.0	-0.0	75.408493042	27.7510757446	39.1551513672	17.4782428741
0.0	-0.0	-158.617462158	27.7876930237	40.2890892029	17.409444809
0.0	-0.0	-148.713607788	27.4908905029	41.5096740723	17.2514610291
0.0	-0.0	-149.268600464	27.3402805328	42.8462524414	16.9919128418
0.0	-0.0	-156.216903687	26.324716568	43.9735717773	16.9522609711
0.0	-0.0	160.411209106	25.552406311	44.6284217834	16.9421901703
0.0	-0.0	84.3407821655	25.6902046204	45.2573051453	17.0762996674
0.0	-0.0	75.1187744141	26.5001182556	46.7988052368	17.7780666351
0.0	-0.0	48.746257782	27.6747665405	48.8656425476	17.8990306854
0.0	-0.0	43.2067489624	28.1054725647	49.3823547363	18.3672790527
0.0	-0.0	44.1571960449	27.6514205933	50.3287010193	18.4513244629
0.0	-0.0	44.469493866	27.1686592102	51.5975341797	18.5610389709
0.0	-0.0	52.6119880676	26.9484424591	49.7694511414	18.1317138672
0.0	-0.0	61.4182128906	27.3254127502	39.1854934692	17.7235794067
0.0	-0.0	64.8222885132	28.15001297	26.8776760101	17.8246536255
0.0	-0.0	65.3322296143	28.6848258972	11.001914978	18.0625572205
0.0	-0.0	68.2080078125	30.5227127075	-3.44498062134	17.1530132294
0.0	-0.0	69.2543106079	36.9411430359	-12.4859848022	12.1280326843
0.0	-0.0	71.1100540161	49.7776145935	-14.3253269196	1.7471139431
