-31.2551841736	-1.74331772327	25.2158470154	15.7278232574	5.54237794876	-33.099822998
-31.4347400665	-1.90901613235	25.2517261505	15.5749082565	5.17670726776	-32.3362388611
-31.0131454468	-2.32892560959	24.1379470825	15.0353107452	4.69751977921	-29.1851387024
-25.9092254639	1.85035729408	13.8784723282	14.4161272049	6.5002746582	-24.316450119
-19.4012641907	11.8466434479	-2.10323262215	14.2094726562	10.1828184128	-21.0923538208
-18.6107158661	14.0202035904	-3.10317492485	14.4165172577	13.6753873825	-20.3621959686
-17.4007606506	19.0667858124	-10.0793781281	14.9109592438	17.0340156555	-20.423210144
-16.6616420746	24.9441661835	-17.9034442902	15.5140705109	19.6409606934	-20.2360057831
-19.6923465729	30.2161388397	-26.2146282196	15.5720624924	21.3722019196	-20.0429935455
-23.4848575592	33.154209137	-33.1981544495	14.9447555542	22.2927150726	-19.8721427917
-22.8655548096	34.3753395081	-33.7972717285	13.9801130295	23.0995635986	-20.0844898224
-20.9139041901	35.7527084351	-34.9842987061	12.0100040436	23.7717857361	-20.9417610168
-19.7396259308	36.8137626648	-37.5060310364	9.05947208405	23.5977458954	-21.0194530487
-18.7739448547	37.0197525024	-38.6112060547	7.33088493347	24.4026222229	-18.262878418
-15.3845691681	38.0726127625	-38.4852867126	6.7288646698	24.9121952057	-15.5039930344
-12.4321784973	40.6317863464	-36.0229377747	6.75010347366	24.6300239563	-14.1369686127
-11.432847023	43.886013031	-33.106426239	7.55822277069	24.3009910583	-14.0759372711
-5.32128429413	48.0764427185	-27.3056373596	9.40458011627	24.4968109131	-14.0436868668
-2.31613469124	48.8329391479	-21.7669754028	11.2637434006	24.6971111298	-13.7085847855
-3.65641283989	47.3329200745	-19.8094978333	11.9890413284	24.4959430695	-12.9667615891
-5.60463237762	42.9163093567	-15.8833589554	12.1680355072	24.0174350739	-12.3352832794
-7.90542697906	40.6931190491	-16.356004715	12.3994874954	23.570148468	-12.3767709732
-8.95318317413	38.1187477112	-15.4299945831	12.3669672012	23.2166004181	-12.8094463348
-9.66120147705	36.2767753601	-15.1407651901	10.8787059784	22.2850017548	-14.4158678055
-8.24530124664	34.6914367676	-13.8653917313	7.30891752243	20.7852230072	-19.2954044342
-7.16867876053	33.5071601868	-12.8496322632	5.7618098259	18.8276233673	-21.5943126678
-6.18924808502	33.9676475525	-15.2093324661	8.22008037567	18.8452587128	-19.3390331268
-5.64823102951	36.5499191284	-19.2695045471	12.0663232803	19.6966838837	-16.3940811157
-4.52728033066	39.2501525879	-20.6779403687	14.7976379395	20.392118454	-13.2888259888
-3.34776115417	38.1579170227	-13.1712827682	15.4956741333	21.6387767792	-10.0619258881
-3.67706131935	31.9463272095	1.18410205841	15.0791368484	22.7891693115	-6.53852272034
-9.40935897827	27.2170772552	13.9768514633	13.9596376419	23.8741569519	-3.94933414459
-7.40083503723	27.4226551056	16.1732807159	12.0240545273	25.0235519409	-3.12464570999
-6.78565311432	27.4407176971	16.1863174438	10.8217582703	25.9457988739	-3.76596331596
-6.4751200676	26.2735595703	17.5409355164	10.7639923096	26.2064685822	-5.70330238342
-6.32040977478	24.326002121	18.857421875	11.7105007172	24.7119445801	-9.42658233643
-5.74726390839	23.4147815704	18.8689498901	13.5489673615	22.8999843597	-13.6602544785
-4.72841119766	22.7766990662	18.3909320831	15.8225336075	21.6821937561	-16.8833312988
-4.7681684494	22.5808258057	17.6064758301	17.742269516	22.0449962616	-18.7530517578
-4.83125352859	22.3965988159	16.8217945099	18.8793716431	22.6173171997	-20.2472572327
-4.10495901108	22.554359436	16.8957424164	19.5869941711	23.3469009399	-21.6394119263
-3.25743126869	23.2267627716	16.6523036957	20.0445079803	24.2515869141	-22.3384895325
-2.4714205265	23.0686035156	15.9179172516	19.8892478943	25.3178806305	-22.5478439331
-1.49924635887	20.9959640503	13.9756183624	19.6831169128	27.0487117767	-22.1360569
-0.813049137592	19.673242569	11.3088970184	19.0556774139	28.2099933624	-22.5070285797
-1.21436810493	20.761762619	6.89206123352	18.6420230865	28.5060157776	-23.0970020294
-2.62909698486	23.3134784698	4.08655977249	18.3823757172	29.0132904053	-22.9304561615
-3.28057932854	24.9184474945	3.36277532578	17.2098789215	29.7450828552	-23.4627933502
-2.64323711395	25.1753368378	2.11309695244	14.9150056839	29.0183067322	-25.2828483582
-2.04679512978	26.4021892548	-0.665625929832	13.3699741364	27.5275363922	-25.6239109039
-0.462961524725	26.4759883881	1.7736928463	14.7468538284	27.6984882355	-22.0291023254
0.57000875473	27.950712204	3.7355632782	17.19805336	28.3914813995	-19.6372413635
1.08167135715	27.8956413269	6.46118879318	17.7989311218	27.9302978516	-20.1553325653
0.489817172289	26.1697463989	9.27492237091	17.3299655914	26.5601882935	-20.7572612762
-0.522610247135	25.3568000793	10.3539037704	16.248462677	25.3189525604	-21.4870605469
-0.707495689392	25.5880756378	10.2853317261	15.1921815872	24.7411403656	-22.2729568481
-0.188069850206	25.2224788666	10.3768386841	15.4909486771	25.430316925	-22.2889156342
0.425263881683	24.6085357666	10.4224233627	15.8805866241	26.111322403	-22.2676696777
0.390644580126	25.4695911407	9.64555740356	15.6621704102	26.1138858795	-22.8501243591
-0.70647251606	29.4777297974	4.6786403656	15.2155885696	26.5368366241	-24.1983833313
-1.02933895588	29.8203983307	4.61998605728	14.1650285721	27.0408554077	-27.4981365204
-1.15219902992	29.5895442963	5.06882429123	11.1529407501	25.6481628418	-34.2807312012
-1.67904019356	29.6053085327	5.23805856705	7.12170267105	24.0847206116	-39.2145690918
-2.72634673119	28.9692211151	4.05650854111	8.36074638367	25.5078773499	-32.6142997742
-2.97419762611	28.229839325	4.21781110764	16.9216213226	31.4971752167	-19.6659355164
-2.07278728485	28.256193161	3.54437279701	34.4297409058	36.292930603	-2.01291203499
-2.45269846916	27.7240161896	3.7152633667	44.3614616394	34.7533073425	7.77831459045
-2.72154045105	27.7754383087	4.47985363007	40.456035614	34.13879776	3.67923164368
-2.63400292397	28.3919582367	4.75359773636	31.9321651459	33.8397483826	-5.45495796204
-2.91510152817	28.164691925	4.86048269272	23.654214859	31.186258316	-15.2288455963
-3.00575470924	27.6823139191	4.71381855011	20.1023082733	28.1906299591	-19.6462574005
-3.40170955658	27.1527824402	4.62288570404	20.0142383575	27.4579391479	-20.4999046326
-3.29153633118	26.6611862183	5.01394891739	17.5771064758	28.7079563141	-23.70936203
-2.71859455109	25.9958839417	5.19282197952	10.1500892639	27.8099060059	-27.9292221069
-2.26865434647	25.8203639984	4.96887731552	6.31798744202	25.4386482239	-28.6596660614
-1.83441758156	26.4072628021	5.70090436935	6.31293439865	23.2936458588	-31.513168335
-1.86078476906	27.0400524139	6.01637983322	7.75880861282	21.6681480408	-36.0334968567
-2.61666679382	26.9569225311	5.94396924973	9.85352325439	20.7528877258	-39.1402664185
-2.90521621704	26.3384742737	6.02586650848	11.7136631012	20.4266319275	-39.9214935303
-2.64350390434	26.1390247345	5.8267583847	12.7258529663	20.7824363708	-40.2516059875
-2.21135926247	26.034122467	5.71682739258	15.625995636	22.962884903	-37.9183235168
-2.22115898132	25.792798996	5.80868911743	23.871263504	28.2548389435	-31.7694911957
-2.31521368027	25.7563247681	5.88438177109	31.1367168427	29.554813385	-28.0153274536
-2.36039161682	26.0227890015	5.63846683502	30.9884033203	29.1017169952	-28.5154075623
-2.09435629845	26.1839523315	5.40599489212	27.3779716492	28.8379936218	-30.9698104858
-1.43271636963	26.1446933746	5.3705573082	24.0559959412	29.299287796	-33.3374595642
-1.60530400276	26.1366195679	5.33273410797	23.174741745	29.4217090607	-33.9740791321
-2.10749721527	26.5018119812	5.69455862045	22.6327266693	30.1482715607	-36.1660003662
-2.32980561256	26.5316524506	5.74088954926	21.2567558289	31.7277030945	-38.5043678284
-2.4545583725	26.5983390808	5.76889181137	19.8258705139	32.4901351929	-41.1342086792
-2.38270974159	27.6171150208	5.31803035736	19.2835636139	31.8422489166	-42.7867050171
-2.35190963745	27.9187698364	5.05902051926	19.6100692749	31.1208438873	-43.0318641663
-2.18790459633	27.7171802521	4.92407846451	19.9725837708	30.3436126709	-41.4861793518
-2.09168314934	27.6734886169	4.97234392166	19.5465736389	29.0354118347	-39.1038093567
-2.27862977982	27.6522006989	5.22070598602	18.9156227112	27.4362506866	-36.5804977417
-2.56927084923	27.41522789	5.48550748825	18.6531677246	26.4999656677	-33.5602798462
-2.64556741714	27.048746109	5.69570732117	18.1849136353	25.6306285858	-30.1474914551
-2.56415867805	26.9378471375	5.95688247681	17.1162528992	24.6371021271	-26.6315021515
-2.52475738525	26.8399391174	6.07280635834	15.5825052261	23.8288612366	-23.1912460327
-2.35299968719	26.7390899658	6.20860290527	13.6929588318	23.6460895538	-20.1115608215
-2.31504893303	26.7570724487	6.30904865265	11.1962347031	23.5422782898	-18.0256958008
-2.23818063736	26.9940032959	6.58132886887	8.30237293243	23.3917694092	-16.9166603088
-2.35923981667	27.217464447	6.68329238892	5.80799150467	23.3506069183	-16.1618461609
-2.58349680901	27.3382110596	6.80763244629	3.32311749458	23.226228714	-16.0359325409
-2.67982411385	27.4465026855	7.06980848312	0.769519925117	23.1585254669	-16.7853069305
-2.70160198212	27.4967021942	7.39507246017	-2.87411499023	23.5098075867	-20.6069469452
-2.40442037582	27.3595428467	7.93580341339	-7.35217046738	23.138376236	-25.9171104431
-2.45200252533	27.2800102234	7.74331474304	-6.25741100311	22.5788021088	-25.5876979828
-2.68727040291	27.4692802429	7.87618589401	-3.45238757133	23.3353443146	-25.1330108643
-2.37601804733	27.4398841858	8.42074871063	-1.09148335457	24.0693702698	-27.7117137909
-2.25582051277	27.656255722	9.06373214722	1.74087357521	24.0403423309	-32.4585990906
-2.75570964813	27.5598087311	8.60359287262	4.9177737236	23.9189167023	-35.7273979187
-3.13052797318	26.9628276825	7.45908546448	6.78297376633	24.0865402222	-32.7529335022
-2.98757410049	26.7895908356	7.22464466095	8.97589302063	25.8299312592	-29.7489566803
-2.23861718178	27.6518306732	8.14393901825	13.6515073776	28.5103645325	-33.3790206909
-2.91375207901	27.3098735809	7.98075771332	16.6888484955	29.983127594	-36.3887367249
-4.00782585144	26.5330581665	7.37075996399	16.7878608704	29.590089798	-36.2053413391
-3.92188429832	26.703207016	7.38982772827	15.3597707748	28.7725257874	-36.4841423035
-2.99895715714	27.1482772827	7.70288467407	14.8976240158	28.4400215149	-36.9444694519
-3.37303972244	26.5764122009	7.20755529404	15.1969766617	27.1751327515	-33.7480812073
-3.88488149643	26.0427341461	6.74348211288	15.5178527832	24.953868866	-26.887512207
-3.75814843178	26.0207138062	6.92033290863	15.5908136368	23.1776237488	-20.4695034027
-3.57845401764	26.1512584686	7.4978556633	15.3606500626	22.2491855621	-15.0291700363
