-45.0668029785	3.62163043022	9.10701751709	-3.76348042488	3.11585307121	-33.6498336792
-44.7235908508	3.58226633072	9.18247890472	-3.44706749916	3.17063951492	-33.5717315674
-44.4813919067	3.43477082253	8.98967456818	-2.83555865288	3.49025583267	-33.0928153992
-43.3952064514	3.78457975388	7.46254777908	-1.86317741871	5.30467367172	-31.251871109
-39.9073829651	4.67678260803	7.75666618347	-1.14407062531	8.83372116089	-27.7483329773
-40.317035675	1.49226152897	18.3805503845	-1.5804464817	11.6118373871	-24.4976272583
-34.2131385803	2.46056294441	24.203125	-3.14265704155	13.1118202209	-21.8915710449
-25.7638835907	6.7335729599	19.5971469879	-3.96787905693	14.9092273712	-19.4515094757
-19.3396492004	16.2502803802	1.37005341053	-4.38935709	17.6758537292	-17.1107807159
-18.5574398041	24.7413902283	-10.5641069412	-5.21444749832	20.2612514496	-14.2611322403
-21.1366691589	32.8931427002	-24.106294632	-5.7519159317	21.5706863403	-10.8339395523
-22.7622756958	35.5841140747	-26.0954990387	-6.13095474243	22.4927139282	-7.66894865036
-25.8730068207	34.7664070129	-26.4484634399	-6.99633550644	23.4494476318	-4.63482666016
-24.8814220428	32.4971008301	-22.3897399902	-8.23301029205	24.2286701202	-2.04759860039
-21.1340255737	32.6120643616	-20.1879634857	-9.35196781158	24.6757888794	0.164868101478
-18.2608585358	34.1606712341	-20.1621494293	-10.2929153442	24.7738628387	2.33683514595
-19.5115756989	33.1040000916	-18.5224990845	-11.0187168121	24.5911426544	4.14073562622
-22.1115226746	30.11810112	-10.4056959152	-11.8074216843	24.134059906	5.89861059189
-23.1430282593	29.4883270264	-6.71120738983	-12.599981308	23.7987823486	7.42719936371
-21.5647277832	29.6903743744	-5.75042772293	-13.1966276169	24.1491508484	8.17700004578
-21.2586307526	29.2245521545	-5.61980485916	-13.2165908813	24.6320667267	8.59995746613
-21.9909420013	28.684797287	-5.30117225647	-13.5481204987	24.4788360596	9.22981739044
-22.4309940338	28.3979949951	-5.61773729324	-14.7804450989	24.1306324005	9.74087619781
-22.1744480133	28.1512260437	-5.51758718491	-16.2926502228	23.8875427246	10.1681880951
-22.0533695221	28.0822429657	-5.41528272629	-17.8073196411	23.5989532471	10.7582702637
-22.5029296875	28.0617370605	-4.79505681992	-19.9738063812	23.1589794159	11.7630290985
-23.5376682281	28.0561103821	-5.63788223267	-22.6252193451	22.9332332611	13.6879014969
-23.699552536	27.8079719543	-5.92482566833	-24.4321403503	23.2208099365	15.815120697
