-0.0773568153381	1.23927879333	-0.0690102577209	-0.0715656280518	1.5240085125	-0.314559578896
-0.0789380073547	1.23858261108	-0.0688617229462	-0.0711841583252	1.5247989893	-0.315597772598
-0.0799162387848	1.23862588406	-0.0686515569687	-0.0714600086212	1.52481138706	-0.316235423088
-0.0812318325043	1.23796963692	-0.0689520835876	-0.0732507705688	1.52393364906	-0.31609582901
-0.0809719562531	1.23643302917	-0.069197177887	-0.0731246471405	1.52187407017	-0.314936161041
-0.076137304306	1.23744428158	-0.0679652690887	-0.0693535804749	1.52066600323	-0.314238190651
-0.0702013969421	1.2389626503	-0.0643347501755	-0.0638756752014	1.52143466473	-0.315921783447
-0.0630502700806	1.2405128479	-0.06116938591	-0.0577294826508	1.52324652672	-0.319509148598
-0.0566601753235	1.2406899929	-0.0608692169189	-0.0524053573608	1.52465546131	-0.323421955109
-0.0533819198608	1.23935842514	-0.061506986618	-0.0508048534393	1.52551245689	-0.326222062111
-0.0527601242065	1.23880875111	-0.0632603168488	-0.0512564182281	1.52587425709	-0.327505588531
-0.0519509315491	1.24044120312	-0.0653501749039	-0.0523872375488	1.52653932571	-0.328541278839
-0.0534298419952	1.24313163757	-0.0673950910568	-0.0534453392029	1.52810871601	-0.329913973808
-0.0568795204163	1.24518084526	-0.0694332122803	-0.0545971393585	1.53014051914	-0.331617116928
