-0.0948467254639	1.21714055538	-0.0764741897583	-0.0692675113678	1.52175009251	-0.313887834549
-0.0939075946808	1.21725380421	-0.0757879018784	-0.0690829753876	1.52167248726	-0.312838792801
-0.094083070755	1.2162194252	-0.0755313634872	-0.0696167945862	1.52126741409	-0.311216831207
-0.0976703166962	1.21334958076	-0.0748736858368	-0.0723555088043	1.52143275738	-0.308871746063
-0.110110044479	1.20388686657	-0.0702641010284	-0.0778014659882	1.52779638767	-0.308332443237
-0.124511241913	1.19196033478	-0.0628913640976	-0.0838084220886	1.5377831459	-0.31184720993
-0.135249614716	1.18805098534	-0.0546617507935	-0.088917016983	1.54637253284	-0.317501783371
-0.144816875458	1.19326996803	-0.0521311759949	-0.0922334194183	1.55157935619	-0.32332444191
-0.154498100281	1.20310342312	-0.053652882576	-0.0922427177429	1.55405056477	-0.326458930969
-0.160769462585	1.216386199	-0.0593583583832	-0.0908043384552	1.55502104759	-0.328452467918
-0.164788484573	1.22624754906	-0.0630142688751	-0.0896856784821	1.55550527573	-0.33025932312
-0.165456056595	1.22822487354	-0.0601465702057	-0.0887787342072	1.55624961853	-0.332391023636
-0.161044597626	1.22583854198	-0.0551910400391	-0.0881290435791	1.5571269989	-0.336446762085
-0.15695476532	1.2228730917	-0.0522153377533	-0.0874705314636	1.55779886246	-0.341557145119
-0.153869390488	1.22155606747	-0.0513701438904	-0.0875964164734	1.55823588371	-0.346527576447
-0.152394294739	1.22181403637	-0.0531504154205	-0.0878729820251	1.55898618698	-0.350198984146
-0.151377677917	1.2223379612	-0.0568525791168	-0.0878643989563	1.55986607075	-0.353315234184
-0.149996757507	1.22240638733	-0.0595592260361	-0.0863902568817	1.55927455425	-0.355694293976
-0.148881912231	1.22162973881	-0.0619375705719	-0.0837631225586	1.55831980705	-0.357991218567
-0.148513317108	1.21958661079	-0.0640614032745	-0.0816662311554	1.55730211735	-0.360658884048
-0.147833347321	1.21689939499	-0.0660743713379	-0.08269739151	1.55740702152	-0.36194396019
-0.147539615631	1.21908438206	-0.0712597370148	-0.0875675678253	1.55895388126	-0.36123752594
-0.145636796951	1.22740781307	-0.0803284645081	-0.0933775901794	1.5591905117	-0.360288262367
-0.142976999283	1.23397839069	-0.0872486829758	-0.0976922512054	1.55916965008	-0.360040068626
-0.142139434814	1.23626923561	-0.0906827449799	-0.0993270874023	1.55908131599	-0.361045122147
-0.140491962433	1.23605573177	-0.0913537740707	-0.0985789299011	1.55905067921	-0.363883972168
-0.139168739319	1.23704600334	-0.0930726528168	-0.0961675643921	1.55955135822	-0.367746114731
-0.136871814728	1.23927164078	-0.0962674617767	-0.0925178527832	1.56201851368	-0.37398815155
-0.136696577072	1.23943257332	-0.094543337822	-0.0888414382935	1.5643427372	-0.380323290825
-0.135530948639	1.24013113976	-0.0944275856018	-0.0863299369812	1.56444334984	-0.382282972336
-0.133779525757	1.24070417881	-0.0958502292633	-0.0836203098297	1.56433463097	-0.381623744965
