0.0	-0.0	149.776916504	-112.816101074	83.9919052124	174.726882935
0.0	-0.0	149.406097412	-112.700111389	83.8801422119	174.585952759
0.0	-0.0	148.523086548	-112.624320984	83.7004852295	174.628479004
0.0	-0.0	145.344558716	-112.745758057	83.502281189	174.677658081
0.0	-0.0	143.474487305	-112.43372345	83.2166137695	174.614929199
0.0	-0.0	39.0361938477	-108.644523621	82.8804626465	174.337173462
0.0	-0.0	3.77231478691	-101.701820374	82.9040374756	173.906616211
0.0	-0.0	4.90587043762	-97.3028182983	82.9314575195	172.65536499
0.0	-0.0	6.54728221893	-96.2740249634	82.9394378662	172.004135132
0.0	-0.0	6.90944004059	-97.4375457764	83.0776138306	172.056793213
0.0	-0.0	10.4117183685	-99.11743927	84.5945358276	172.772293091
0.0	-0.0	17.5654201508	-99.8624801636	87.3194732666	173.322479248
0.0	-0.0	17.6042137146	-100.02318573	89.7432785034	173.256790161
0.0	-0.0	17.770532608	-99.1420440674	89.6913375854	172.958587646
0.0	-0.0	43.6279373169	-99.0924377441	87.5126266479	172.426864624
0.0	-0.0	75.4664459229	-99.5424118042	86.864151001	172.591064453
0.0	-0.0	72.3396606445	-99.5387496948	87.2571182251	172.613479614
0.0	-0.0	84.1479034424	-98.768737793	87.1521072388	172.758163452
0.0	-0.0	156.188232422	-98.3089370728	86.7934417725	172.472396851
0.0	-0.0	177.590316772	83.8465805054	88.742805481	-9.53638267517
0.0	-0.0	179.221038818	89.1328277588	80.8190917969	-14.2973794937
0.0	-0.0	-176.363769531	98.2885131836	78.5184402466	-19.9728221893
0.0	-0.0	-166.350296021	107.38583374	82.2092056274	-23.1457233429
0.0	-0.0	-163.260116577	112.080841064	86.2889862061	-23.8113365173
0.0	-0.0	160.887863159	114.459716797	89.043548584	-23.6499729156
0.0	-0.0	65.4771881104	-64.8205032349	89.4772796631	157.569122314
0.0	-0.0	26.6563682556	-66.0889816284	88.8931503296	158.746459961
0.0	-0.0	26.9634304047	-67.9360275269	87.7170028687	160.058059692
0.0	-0.0	31.630449295	-70.0615844727	87.6371231079	160.864578247
0.0	-0.0	35.7866897583	-72.0841369629	87.9306182861	161.555450439
0.0	-0.0	45.271900177	-73.0652999878	88.6821212769	161.65725708
0.0	-0.0	54.3151817322	-73.8267288208	89.4727630615	161.451705933
0.0	-0.0	40.3840904236	-74.7305450439	89.5754318237	161.777862549
0.0	-0.0	38.944065094	-74.5862426758	89.1258010864	162.639724731
0.0	-0.0	29.1396274567	-75.8328399658	88.1655654907	164.020874023
0.0	-0.0	24.0320682526	-77.4462432861	87.4099121094	165.386642456
0.0	-0.0	24.6158771515	-79.509727478	86.8808059692	165.704040527
0.0	-0.0	35.6039505005	-81.9907455444	86.4521255493	166.183013916
0.0	-0.0	56.79164505	-83.9038238525	86.8661499023	168.237014771
0.0	-0.0	48.2278862	-85.4103622437	87.3041534424	170.344467163
0.0	-0.0	47.6897277832	-85.4578857422	88.0357131958	171.176971436
0.0	-0.0	49.3535041809	-85.0188217163	88.0089187622	171.513275146
0.0	-0.0	49.9033927917	-85.164276123	88.229637146	171.75592041
0.0	-0.0	54.3842468262	-85.5818023682	88.0142669678	171.638015747
0.0	-0.0	57.4033355713	-86.3026123047	88.0698776245	171.253677368
0.0	-0.0	58.4822311401	-87.0183029175	88.2321548462	171.069595337
0.0	-0.0	58.6641731262	-87.8329162598	87.865852356	170.902267456
0.0	-0.0	57.7647247314	-88.8573150635	87.695640564	170.901153564
