-0.170483112335	1.00155258179	-0.0935289859772	-0.0325322151184	1.48906767368	-0.301583647728
-0.169477939606	1.00072741508	-0.0975517034531	-0.0324900150299	1.48770785332	-0.305711507797
-0.169156551361	1.00203728676	-0.0997741222382	-0.0340094566345	1.48837161064	-0.308653354645
-0.16970705986	1.00482273102	-0.0992956161499	-0.0412673950195	1.49334609509	-0.309518814087
-0.170925617218	1.00610089302	-0.099820971489	-0.0544662475586	1.5042412281	-0.309947371483
-0.172173261642	1.00263237953	-0.0992565155029	-0.0685930252075	1.51829087734	-0.313541650772
-0.173117399216	1.00106859207	-0.0961761474609	-0.0784473419189	1.52985644341	-0.32013964653
-0.174763441086	1.01117420197	-0.0903413295746	-0.0810804367065	1.53544545174	-0.325348854065
-0.176968097687	1.03528046608	-0.0849097967148	-0.0799596309662	1.53700876236	-0.32718360424
-0.175421476364	1.06284725666	-0.0817410945892	-0.0807008743286	1.53666782379	-0.326366901398
-0.170167922974	1.07947468758	-0.0802335739136	-0.0835404396057	1.53705883026	-0.323877692223
-0.165281534195	1.08380305767	-0.0781307220459	-0.085111618042	1.5374174118	-0.320806026459
-0.16113114357	1.081127882	-0.0733413696289	-0.0832333564758	1.53664028645	-0.31743812561
-0.1586561203	1.08559191227	-0.0689290761948	-0.0794231891632	1.53570723534	-0.314500570297
