-0.446233034134	1.00498557091	-0.222947716713	-0.067777633667	1.48734164238	-0.352694988251
-0.444463014603	1.00572323799	-0.223602771759	-0.0675778388977	1.48763012886	-0.356141328812
-0.43955039978	1.00674390793	-0.219877958298	-0.0682208538055	1.48720741272	-0.357975840569
-0.432312250137	1.01254177094	-0.213287115097	-0.0691318511963	1.48835766315	-0.359073877335
-0.413213729858	1.02579069138	-0.193061590195	-0.0679717063904	1.49393796921	-0.361925005913
-0.39026761055	1.04499816895	-0.166863560677	-0.065767288208	1.50006496906	-0.366794586182
-0.360454082489	1.07138693333	-0.138851881027	-0.0626780986786	1.50528144836	-0.373373508453
-0.324983119965	1.09565150738	-0.11369740963	-0.0597052574158	1.5088146925	-0.380352258682
-0.289738893509	1.11781787872	-0.0960069894791	-0.0570697784424	1.5124027729	-0.386367082596
-0.2511510849	1.13815915585	-0.0809869766235	-0.0548107624054	1.51490783691	-0.390643358231
-0.21485710144	1.15257155895	-0.0707702636719	-0.0521337985992	1.5164129734	-0.393802881241
-0.186240434647	1.15926623344	-0.0661592483521	-0.047607421875	1.5167914629	-0.395767569542
-0.169491767883	1.15679168701	-0.0643939971924	-0.0418677330017	1.51639485359	-0.396511673927
-0.167364358902	1.15031671524	-0.0651080608368	-0.0361151695251	1.51479053497	-0.397060871124
-0.173630952835	1.14540171623	-0.0658440589905	-0.0319633483887	1.51441073418	-0.397017478943
-0.179203033447	1.14338886738	-0.0627764463425	-0.029096364975	1.51498734951	-0.395494222641
-0.183713674545	1.14499914646	-0.0600297451019	-0.0251207351685	1.51506602764	-0.393561601639
