-43.2082443237	-82.7632904053	148.439437866	1.54663193226	0.654640197754	-8.02726650238
-42.5025596619	-82.7125854492	147.580001831	1.47667491436	0.704293727875	-8.00522232056
-41.9750099182	-82.6144714355	147.004989624	1.38661825657	0.808652877808	-7.9259519577
-41.8926887512	-82.4388427734	146.587646484	1.17831516266	1.03995084763	-7.57199192047
-35.6936531067	-81.345085144	138.269226074	0.519835948944	1.20990335941	-6.59464216232
-30.0877552032	-78.925239563	129.367141724	-0.621229350567	1.5814473629	-5.21173858643
-30.2841663361	-76.548286438	126.757225037	-1.60706865788	2.26290106773	-3.60012602806
-34.5924072266	-74.4205169678	128.889221191	-2.35041952133	3.09674167633	-2.11990785599
-34.6813392639	-73.1550674438	126.089515686	-3.04151916504	3.49687671661	-1.1545470953
-29.7145137787	-70.7275848389	115.217460632	-3.38936066628	3.34892225266	-0.740670502186
-26.3429603577	-68.4027404785	108.947860718	-3.11291575432	2.68029117584	-0.767882764339
-25.5352840424	-67.2980728149	106.122108459	-2.52336549759	1.81040716171	-1.04079115391
-24.0937747955	-66.2277297974	103.140342712	-2.17963767052	1.05226266384	-1.09477829933
