-44.5405960083	0.211190953851	10.2620353699	3.4345562458	0.204256668687	-34.8833580017
-44.332660675	0.247139826417	10.1983413696	3.62596559525	0.3527995646	-34.2809524536
-43.4753761292	0.394668847322	8.99593830109	4.03029155731	1.27474069595	-32.1115493774
-44.3783950806	-0.650378167629	8.0475769043	5.37184762955	1.85144257545	-28.4596214294
-40.0216903687	-5.09133720398	10.2999153137	7.14873886108	0.487265229225	-25.529253006
-35.8598861694	-9.22033977509	10.9322214127	8.8168592453	-1.39272642136	-23.6123371124
-31.2548046112	-15.8278198242	14.1021900177	10.5272712708	-2.87945461273	-21.7210025787
-25.7119045258	-20.2464466095	15.0687227249	11.9010477066	-3.6745402813	-19.5135211945
-21.5782546997	-23.5329990387	15.285320282	12.6921386719	-4.44380760193	-17.1233558655
-16.3755073547	-26.0442123413	14.4540967941	12.9978914261	-4.96709394455	-15.0606279373
-11.4501800537	-27.4891014099	12.7636451721	13.2432928085	-5.22774982452	-13.3634557724
-8.14419364929	-28.4304084778	12.6051082611	14.0359487534	-5.28991365433	-12.810377121
-6.29825925827	-27.8985118866	12.6617717743	15.1829586029	-5.36109113693	-12.9577598572
-7.03234910965	-27.4334812164	14.3368406296	16.2176399231	-5.01779222488	-13.3761548996
-8.93132400513	-27.5528087616	16.0503940582	16.6317176819	-5.20716714859	-14.3609867096
-9.10338401794	-27.6626777649	16.2090435028	15.8947525024	-5.88776445389	-15.7270364761
-8.54303073883	-28.6783180237	16.2667198181	15.6827802658	-6.62763547897	-17.7437534332
