-22.7764873505	-58.475692749	130.246398926	8.90477848053	-0.820596218109	1.62905025482
-22.3667144775	-58.7513694763	129.74786377	9.17617511749	-0.746337532997	1.52081310749
-22.1649456024	-58.7626037598	129.308761597	9.17895412445	-0.944768190384	1.46885490417
-20.9070205688	-58.7021522522	127.200386047	9.07695865631	-0.940518677235	1.73505222797
-16.1292133331	-58.9405860901	118.930999756	8.73047542572	-1.18049645424	2.16005182266
-13.9587154388	-58.2468032837	113.516494751	7.94123363495	-2.5462038517	2.70797562599
-13.0659179688	-56.9017410278	106.853263855	6.57652902603	-5.54162931442	3.2724673748
-13.6482505798	-57.0826644897	103.872756958	4.56467628479	-8.67683315277	4.19300746918
-16.0608253479	-58.568031311	103.463043213	2.71474218369	-10.7285633087	5.08261919022
-18.1172943115	-59.6607437134	102.416648865	1.4649027586	-11.8132715225	5.71957159042
-18.8111877441	-59.1708335876	96.8815231323	0.523274004459	-11.8525514603	6.17261648178
-14.9995708466	-56.7286262512	78.5379104614	-0.365577876568	-11.3787403107	6.45486927032
-8.65538311005	-54.2632408142	56.9493751526	-1.10866093636	-11.0156621933	6.55323553085
-8.85440349579	-55.6067657471	51.8118095398	-1.9540336132	-10.9899873734	6.63193464279
-9.30566883087	-56.0042228699	47.3892631531	-2.71604824066	-11.1875247955	6.76745128632
-11.3203830719	-57.6998252869	47.4225196838	-3.24405550957	-11.3333406448	7.00212001801
-15.1085166931	-61.1906700134	52.0727806091	-3.88370394707	-11.5304222107	7.22058486938
-18.613073349	-63.5021438599	56.4064331055	-4.70970392227	-11.6151456833	7.71248579025
-26.116060257	-65.4200286865	65.7321014404	-5.75168228149	-11.3589506149	8.40342235565
-36.4281959534	-67.7791366577	80.0510482788	-6.44044351578	-11.1561021805	8.76130104065
-41.1592178345	-69.772605896	86.1863174438	-6.4471449852	-11.1845769882	8.70044612885
-41.322052002	-71.1760025024	86.1849060059	-5.98478412628	-11.2947387695	8.48088169098
-44.4932479858	-71.2535934448	88.525718689	-5.5345749855	-11.4610967636	8.23764610291
-49.972038269	-69.577583313	92.5300216675	-5.36340332031	-11.6985816956	8.02227497101
-50.4929046631	-69.3397827148	92.5615615845	-5.45595645905	-11.7361907959	8.08307743073
-39.6750259399	-69.876625061	80.2537994385	-5.81513929367	-11.3776597977	8.17944049835
-30.6973838806	-68.8932418823	71.1547546387	-6.22541332245	-10.5075778961	8.35140895844
-17.8167285919	-68.2651672363	59.7739372253	-6.55770778656	-9.65293598175	8.32297420502
-16.8907852173	-68.4280395508	62.7705497742	-6.75468826294	-8.55256843567	8.21614170074
-23.785112381	-65.220993042	72.101890564	-6.55284023285	-7.36572694778	7.83131170273
-27.6521377563	-56.0536804199	76.2000808716	-6.00336122513	-6.4693145752	7.65475273132
-24.1584968567	-45.5293006897	70.8090591431	-5.32015037537	-6.97924184799	7.4298286438
-23.0222892761	-43.37241745	69.2835388184	-4.88742113113	-8.94454288483	7.43190479279
-22.6033401489	-41.5159950256	67.4315795898	-4.58076953888	-11.1954803467	7.29145622253
-22.6331367493	-40.385181427	67.3455810547	-4.21794080734	-13.4518213272	6.968729496
-22.9723014832	-40.2449798584	67.600440979	-3.79381275177	-15.49077034	6.57336854935
-23.0190963745	-40.9617576599	67.974937439	-3.48870182037	-17.2719192505	6.06154489517
-23.2748374939	-42.1444854736	68.7616195679	-3.17803430557	-19.0322990417	5.41096448898
-23.4175891876	-44.1270179749	69.4418487549	-2.60046577454	-20.6521644592	4.75730609894
-23.0798397064	-46.4319381714	69.3009338379	-1.88950419426	-21.3181533813	4.2963886261
-22.8221950531	-50.2973709106	69.7476348877	-1.67513525486	-22.1049003601	3.90064954758
-22.7221031189	-51.9354324341	69.926940918	-1.51858818531	-24.2995166779	3.7267305851
-23.12449646	-51.8392105103	70.5029449463	-1.47340750694	-27.2146720886	3.56122207642
-24.5103912354	-52.49659729	72.1707382202	-0.957013428211	-30.23412323	2.98577094078
-25.7334957123	-53.2721366882	73.6195068359	0.956357479095	-32.0298271179	1.43503236771
