-61.8881988525	-50.5351600647	139.306655884	7.50580644608	2.29565000534	0.635524570942
-61.7451896667	-51.0353050232	138.91859436	7.4988489151	4.55341529846	0.939209163189
-61.2723083496	-51.0593261719	138.253417969	7.33166885376	5.12426137924	1.11423313618
-61.2116699219	-52.0175857544	136.469802856	7.02081632614	3.84909772873	1.83731389046
-58.5687446594	-58.7471580505	126.552520752	6.00721645355	0.162231206894	3.07210016251
-53.593334198	-64.4867630005	113.752960205	4.45987606049	-4.23618030548	4.43519973755
-53.2166862488	-65.2002258301	109.811058044	2.63032627106	-6.87588644028	5.63672208786
-53.5371551514	-66.4549865723	107.260643005	0.820747256279	-8.28407287598	6.50742864609
-54.8177375793	-67.6305770874	105.863975525	-0.72452712059	-9.44587612152	7.41173028946
-59.8795814514	-66.8293838501	109.971336365	-1.70767891407	-9.26448059082	7.87261295319
-62.7908477783	-67.2826690674	112.004585266	-1.2509791851	-8.01017189026	7.51722288132
-70.8719863892	-64.7587661743	121.548873901	1.02016663551	-6.42322158813	6.51277542114
-79.4725875854	-61.6395568848	131.554412842	3.59445381165	-5.77463960648	5.73195266724
-87.0958633423	-61.1743545532	138.59588623	4.05560112	-6.28651666641	5.81567335129
-97.2645950317	-57.7825622559	145.185714722	3.20778250694	-7.20491504669	5.99641132355
-107.140434265	-54.1846504211	151.502944946	2.79071235657	-8.37934494019	6.24331617355
-115.052139282	-56.9047088623	152.53338623	2.82028031349	-8.6965713501	6.61966323853
-119.86100769	-70.0825042725	142.592071533	3.22222805023	-8.32273483276	6.91250753403
-118.874107361	-73.5139846802	133.935180664	3.05643367767	-8.65277481079	7.32402133942
-118.917617798	-73.112991333	132.301269531	3.24867916107	-8.75870990753	7.23292303085
-121.273719788	-72.0096206665	134.24067688	4.50381374359	-7.85537528992	7.04442214966
-126.184608459	-69.1968917847	140.880905151	6.00522613525	-6.59217453003	7.10358428955
-129.44039917	-69.5762786865	143.143890381	6.39396762848	-5.51579141617	7.43799686432
-133.783294678	-74.96144104	142.679931641	6.23575687408	-4.85392713547	8.14485359192
-76.5775604248	-84.3383789062	72.8105163574	5.21733474731	-3.72850203514	9.4362821579
-29.2550468445	-76.8153305054	19.8992538452	4.85836982727	-2.55996489525	9.95850658417
-36.9328460693	-77.0075302124	28.9057025909	5.10450410843	-2.61315608025	10.4206886292
-35.8741531372	-76.9546127319	27.6691684723	4.42581319809	-2.32124447823	11.0439462662
-42.4671363831	-77.8801269531	35.4325485229	3.10691905022	-2.76090049744	11.239487648
-36.9507369995	-77.9858398438	31.5400314331	1.79855847359	-2.55149173737	11.8982496262
-31.5132827759	-78.5739364624	27.6986026764	0.672811567783	-1.746707201	12.1873273849
-39.8983421326	-78.6510848999	37.5788040161	0.656126558781	-0.585564672947	12.2527770996
-49.06067276	-78.6845550537	48.3213577271	1.17477309704	0.147006735206	11.9142684937
-56.2560920715	-79.731803894	57.58070755	1.94995999336	-0.119812726974	11.7067489624
-71.7314529419	-79.6441268921	75.5476303101	3.16291093826	-0.94811296463	11.105922699
-81.3932189941	-79.2519302368	87.3268814087	4.8439912796	-0.687318742275	10.5264396667
-81.8725967407	-79.0264663696	90.2595596313	6.7997841835	0.164991781116	10.0584487915
-80.5499725342	-80.0175094604	90.5264053345	8.34053611755	0.130406782031	9.47317409515
-80.1756210327	-80.5739593506	91.4152603149	8.93547439575	-0.447247087955	9.18944168091
-82.1714096069	-81.1191329956	94.0675506592	8.62394618988	-0.86567658186	8.9524230957
-84.6843566895	-81.617401123	96.7548675537	7.93946647644	-1.07726597786	8.91658115387
-87.4856338501	-81.9123153687	99.6532440186	7.47863578796	-1.15517866611	8.97198581696
-93.4090118408	-81.5145492554	105.259925842	7.68929815292	-1.13444340229	9.04658603668
-100.158302307	-80.9881973267	111.423439026	9.12186336517	-0.634885787964	8.8968372345
-105.522705078	-80.0456390381	116.536590576	13.910700798	0.280147761106	8.6240606308
-114.909225464	-78.8721466064	125.426628113	16.9882583618	0.929158091545	8.68124580383
-114.874130249	-77.5151596069	125.217475891	15.7899217606	1.61830735207	8.42786121368
-115.003326416	-78.4293289185	125.195701599	12.6373825073	2.03061127663	8.28883838654
-117.510261536	-79.9291305542	127.543869019	9.73142528534	1.6224193573	8.4321680069
-120.254211426	-79.7593841553	130.653076172	7.97425127029	1.0446908474	8.93128204346
-120.79447937	-79.0024337769	130.984161377	7.77677488327	0.712198019028	9.3980588913
-122.871688843	-77.5980682373	132.74420166	8.05581760406	-0.0249396767467	9.65754127502
-122.70980835	-73.0583114624	135.973876953	7.60073471069	-0.843048274517	9.75631141663
-107.694564819	-62.4316673279	129.585037231	6.44281673431	-1.14192926884	9.84494781494
-72.6312103271	-69.2134246826	91.7118377686	5.42860794067	-0.831985473633	9.71995449066
