-30.128578186	-76.6306381226	130.629165649	4.61166334152	2.37208461761	-1.06379711628
-29.9987335205	-76.6334533691	130.414016724	4.57836771011	2.35462522507	-1.06555449963
-28.9700489044	-76.4599227905	129.142593384	4.51099967957	2.36546158791	-1.05038511753
-22.1428527832	-76.0562973022	121.011756897	5.45964813232	2.81872630119	-1.05306100845
-6.7808470726	-75.7709197998	104.085769653	8.20673179626	3.26932024956	-1.42978012562
5.04510593414	-75.0048980713	92.4317321777	11.1355142593	3.26741456985	-1.81294751167
15.895606041	-72.9051132202	81.388168335	13.5108804703	2.8377828598	-2.38603591919
25.0356044769	-70.4766921997	72.4135742188	15.6845855713	2.33150553703	-2.94122052193
27.8505477905	-69.6484603882	70.4171295166	16.6525535583	2.17986702919	-3.30542874336
26.7994289398	-70.2532119751	71.965927124	16.6788425446	2.24507379532	-3.39412593842
24.4719924927	-70.8191986084	74.4992141724	16.7286682129	1.98574304581	-3.36785078049
