-48.3031005859	-85.3440704346	136.836074829	1.74400115013	2.68786644936	-4.06072187424
-50.197303772	-85.3578414917	138.579467773	1.70871186256	2.62495326996	-4.07485151291
-47.983669281	-85.2063827515	136.030212402	1.91404056549	2.97702527046	-4.13503932953
-33.1452789307	-84.5699462891	120.026031494	3.64760398865	4.57414674759	-4.69553041458
-21.2569084167	-84.6755447388	107.993614197	6.12081670761	7.10923051834	-5.66677522659
-15.0197896957	-84.9596710205	102.276679993	8.49426364899	8.87564086914	-6.42551279068
-11.2083387375	-84.7330169678	98.9720306396	10.2451953888	10.1029376984	-7.18002796173
-2.69127655029	-84.7046966553	90.8176803589	11.4687108994	10.9833536148	-7.79527711868
