-23.9914875031	-50.7653160095	134.741271973	9.87202358246	0.555729746819	1.71068775654
-23.5644340515	-51.2231063843	134.592773438	10.6263160706	-0.00683416659012	1.13772344589
-22.8958568573	-51.3690567017	133.85484314	10.8025989532	-0.230342969298	1.05353534222
-22.0797462463	-51.4486312866	132.47064209	10.3275976181	-0.0342849716544	1.39436817169
-20.8536148071	-51.9785232544	129.949447632	9.39527225494	0.983958005905	2.19703936577
-21.081199646	-51.6238059998	129.01701355	7.89426374435	3.23720383644	3.38523364067
-22.913318634	-49.5339126587	128.0262146	6.17322826385	5.76344919205	4.70348453522
-27.2157764435	-47.2236747742	128.964279175	4.21249389648	7.84602403641	5.72381877899
-32.970500946	-45.2218551636	130.541549683	2.33162879944	9.5810956955	6.41752290726
-37.614112854	-43.1571846008	128.539352417	0.845463395119	11.4264135361	7.01667451859
-32.4253501892	-40.1301345825	111.114677429	-0.0124541725963	13.1653470993	7.47225570679
-17.1693325043	-27.2060527802	73.2046585083	-0.717858076096	14.5057420731	7.76492166519
-14.2975234985	-10.966999054	50.6318893433	-1.24806666374	15.9245834351	7.8839931488
-15.9533872604	-5.86951732635	45.4466819763	-1.52422606945	17.0396213531	8.1265745163
-17.9155654907	-2.47240138054	37.849155426	-2.0155749321	18.0034160614	8.23232460022
-21.8523197174	-1.97930073738	34.1505966187	-2.93408250809	19.0986213684	7.86816549301
-21.615020752	-4.58824014664	37.0767440796	-3.713326931	20.3568706512	7.25862646103
-19.6595573425	-7.58686447144	41.6474227905	-4.0465388298	20.9443359375	6.75746965408
-16.4063224792	-9.61960697174	43.500919342	-3.76951336861	21.1796703339	6.14254283905
-14.5166940689	-10.9587059021	44.0693855286	-2.85056138039	21.6850337982	5.95111465454
-12.4538898468	-11.6113405228	44.1065216064	-1.93300890923	22.1988697052	5.79946517944
-9.50070476532	-11.2433328629	43.5832824707	-1.35772180557	22.6633739471	5.88409948349
-6.69797563553	-10.9309768677	42.7121734619	-0.631469845772	23.0992069244	6.14288139343
-5.17083740234	-11.5414514542	41.9490585327	0.0357029736042	23.4781608582	6.73348617554
-6.42932844162	-11.8801717758	41.2288856506	0.0484883710742	23.4647521973	7.06341171265
-9.19628238678	-11.4569711685	41.8353157043	-0.51193356514	23.4700717926	7.03768205643
-9.65937614441	-10.0909280777	43.5964202881	-1.31519949436	23.8540382385	6.99011659622
-9.42844295502	-9.70456027985	44.6977233887	-2.55447602272	24.1967411041	6.79694700241
-9.51813983917	-9.92304229736	43.8850593567	-3.78349947929	24.6811141968	6.51108026505
-9.82008457184	-10.6454572678	43.8061103821	-4.64146852493	25.1778793335	6.31251335144
-9.54216766357	-11.5493135452	44.5266532898	-6.13179969788	25.1233787537	5.92143678665
-8.80066680908	-12.3390731812	44.8109092712	-8.92512321472	24.9219436646	4.89571332932
-7.5419049263	-13.0141973495	45.1751251221	-9.63592624664	24.6454219818	4.40550804138
-5.82344102859	-13.2892417908	44.9855079651	-8.40259838104	24.2746582031	4.64462947845
-3.89731216431	-13.3307437897	44.9357910156	-7.29053068161	24.1711597443	4.83204936981
-2.49854135513	-13.4742641449	44.7729301453	-6.75126981735	24.3285560608	4.82997131348
-1.17594623566	-13.4718151093	44.9665756226	-6.22591686249	24.2644138336	4.83867025375
0.247810080647	-13.7141828537	45.2063903809	-5.41843986511	24.0411396027	4.78902721405
1.14752972126	-14.3155250549	44.8282356262	-4.22205448151	23.6119995117	4.71836996078
1.52878117561	-15.1103658676	43.5722465515	-2.98047637939	23.084526062	4.82690906525
0.0115972636268	-16.1216526031	40.904586792	-2.41615247726	22.488527298	4.93408584595
-2.35954928398	-17.3035869598	35.9672737122	-2.55686116219	22.4414386749	4.93207597733
-4.05232620239	-18.3361492157	35.0042266846	-2.72898888588	22.7819538116	4.93111419678
-4.39888858795	-18.6751651764	35.2955856323	-2.70442914963	22.978811264	5.15758562088
-4.3787522316	-18.6245956421	35.0704078674	-2.7349615097	23.3128471375	5.23907756805
-4.43933820724	-18.5945796967	35.0506744385	-2.45204353333	24.5148429871	5.39677095413
-4.36471414566	-18.4288730621	35.119102478	-1.65973556042	27.4492988586	5.74589204788
-3.96119141579	-18.1982097626	35.2566642761	-1.14009451866	29.8387832642	5.67270898819
-4.14774560928	-17.9589595795	35.6455116272	-1.05130076408	29.9960460663	5.51137924194
-4.28973245621	-17.6757049561	36.3043823242	-0.756614506245	29.6228981018	5.35719871521
-4.22065114975	-17.6960372925	36.153087616	-0.193593606353	28.3986606598	5.23343229294
-4.13675785065	-17.7957344055	36.0252227783	0.162838175893	26.8779296875	5.04703330994
-4.03887271881	-17.87159729	35.7229995728	0.358778357506	25.4490718842	5.05330991745
-3.99108362198	-17.7862052917	35.4732894897	0.383954674006	23.9237613678	5.18130350113
-4.11757278442	-17.6823692322	35.3975067139	0.202519103885	22.4600563049	5.26919031143
-3.86493802071	-17.8573455811	35.2820930481	-0.107886731625	22.2533111572	5.46737337112
-3.96169829369	-18.3071098328	35.3422546387	-0.854363679886	22.9612903595	5.82104444504
-3.97954845428	-18.7587604523	35.5332679749	-1.78799057007	23.5575122833	6.07120227814
-4.98822784424	-19.6659584045	36.2674026489	-2.41496229172	23.3263320923	6.13922309875
-9.37686538696	-19.2763195038	37.0602912903	-2.31046485901	22.8012561798	6.29332494736
-13.2580213547	-18.4370994568	37.4436531067	-2.27953696251	22.75025177	6.41763019562
-13.4162626266	-17.5263252258	37.6709861755	-2.81125807762	23.662902832	6.55257940292
-14.1457300186	-17.6883983612	37.2512969971	-4.39921331406	23.9356060028	6.62355947495
-14.4472179413	-18.0113162994	37.2673072815	-7.25043106079	23.7088394165	6.33270597458
-13.8466281891	-18.0827007294	37.4679260254	-9.56177139282	23.388420105	6.35481929779
-13.2651386261	-18.1376361847	37.5320549011	-10.6916122437	23.1046199799	6.97529649734
-13.5213518143	-18.185503006	37.511100769	-11.3214979172	22.9380455017	7.86771154404
-13.6170129776	-18.0708675385	37.8196563721	-11.8753614426	22.9474010468	8.57039833069
-13.8581504822	-18.0160903931	38.5795860291	-11.7671070099	23.3990936279	8.92475509644
-13.8283758163	-18.1150875092	39.3217506409	-9.63478946686	24.4610347748	8.88496112823
-13.5787305832	-18.4462337494	39.7950019836	-5.47048521042	25.2884216309	8.79309272766
-13.3802280426	-19.3735027313	39.7246017456	-0.814744591713	25.7500286102	8.66832542419
-12.6578454971	-20.0852088928	39.3315010071	2.096108675	25.6117248535	8.27745246887
-11.9887456894	-20.1477432251	38.8299827576	2.07075071335	25.2262077332	7.71031570435
-11.1680631638	-19.6161727905	38.7220535278	0.903436362743	25.1567249298	7.30800151825
-10.580915451	-19.6399002075	38.8753051758	0.390461176634	25.760723114	6.68904399872
-10.1628456116	-20.6199855804	39.0281639099	1.3762485981	26.4811325073	6.46410894394
-10.1308307648	-21.8955039978	38.9862709045	2.88838362694	26.4808273315	6.10684537888
-10.3263063431	-22.4599781036	38.5505981445	3.27506041527	25.8775005341	5.57960700989
-10.1615943909	-22.31731987	38.12940979	1.78493309021	25.3242454529	5.18307065964
-10.2057476044	-21.8529567719	37.6757545471	-1.78477728367	25.0613517761	4.81757926941
-10.4455661774	-21.4468860626	37.6335906982	-5.60105848312	25.1453208923	4.36697244644
-10.6539983749	-21.3280544281	37.5790977478	-7.29068040848	25.315071106	4.45820856094
-10.8635225296	-21.2764263153	38.0603713989	-6.5058927536	24.979057312	5.21275186539
-11.1958675385	-21.4110641479	37.8182868958	-5.99147367477	23.2388286591	5.57572650909
-11.1372375488	-21.4596347809	37.5330963135	-6.02381944656	21.9007568359	5.86442184448
-10.9296541214	-21.3540534973	37.2692565918	-6.00195217133	21.0360393524	6.18593597412
-10.6243991852	-21.2126064301	37.2690696716	-6.06730508804	21.1063594818	6.50620698929
-10.382856369	-21.8220005035	37.3786048889	-6.69371128082	22.4750080109	6.67519855499
-10.963643074	-22.5575199127	37.5166397095	-7.3613858223	23.0558109283	6.60932016373
-13.0851144791	-22.1979007721	38.0274162292	-7.36210727692	22.8904266357	6.79552173615
-12.788813591	-20.9295310974	40.0207443237	-7.45740222931	22.9984035492	6.83916568756
-11.1709280014	-19.1758937836	42.5648803711	-7.71277761459	23.334230423	6.80327749252
-10.669754982	-18.103219986	44.4722824097	-7.89511728287	24.0853404999	6.68618059158
-9.19689846039	-17.1487541199	46.2178726196	-7.78726148605	24.8517742157	6.55828714371
-7.63357543945	-16.5113391876	47.5400352478	-7.13021230698	25.5110454559	6.51728200912
-5.38024616241	-15.7512016296	50.5780754089	-5.77159833908	26.3222560883	6.46409225464
-2.86504864693	-15.5708780289	53.6029663086	-4.2598695755	26.9336051941	6.61162948608
-0.732528686523	-15.9636459351	52.2376022339	-3.53661799431	27.3678302765	6.48973226547
-0.463032513857	-14.3950901031	49.2238998413	-3.33528208733	27.9116897583	6.34097385406
-1.90096867085	-10.1528806686	50.6430091858	-3.14752793312	28.5633335114	6.13344764709
-2.49458265305	-8.52022266388	53.0702972412	-3.07690525055	28.9716014862	5.86897993088
-2.66267704964	-7.93897104263	55.6969223022	-2.73435401917	29.3682823181	5.55278205872
-1.71216893196	-7.06038808823	60.6873703003	-2.03381609917	29.5877876282	5.3915104866
-0.719595849514	-7.96796941757	60.1048240662	-1.01890265942	29.9605960846	5.22286891937
-0.288385719061	-8.87654972076	58.7803726196	-0.123097747564	30.3252906799	5.19478940964
0.607585370541	-9.76529407501	55.0280990601	0.534756302834	30.6526145935	5.12396717072
