-0.0482888221741	1.27026259899	-0.261651039124	-0.0587151050568	1.51626884937	-0.36942255497
-0.0474534034729	1.27003526688	-0.259628534317	-0.0579495429993	1.51550519466	-0.367270231247
-0.0473163127899	1.26849687099	-0.256447792053	-0.0576183795929	1.51498901844	-0.365049481392
-0.0464951992035	1.26831924915	-0.254035711288	-0.0579261779785	1.51629567146	-0.363373398781
-0.0463812351227	1.26793015003	-0.250900387764	-0.0579521656036	1.52335011959	-0.364379405975
-0.0482194423676	1.26706874371	-0.245890855789	-0.0579257011414	1.5325884819	-0.368817090988
-0.0507874488831	1.26728093624	-0.242518663406	-0.0592865943909	1.53831672668	-0.374848127365
-0.0527396202087	1.26908648014	-0.242508649826	-0.062183380127	1.54137957096	-0.379725456238
-0.0537276268005	1.27001607418	-0.24199461937	-0.0652408599854	1.54299557209	-0.383623600006
-0.053585767746	1.27208817005	-0.242234230042	-0.0678858757019	1.54381990433	-0.38697218895
-0.0503420829773	1.27405428886	-0.240651965141	-0.0700666904449	1.54398155212	-0.389648675919
-0.0497105121613	1.27174556255	-0.238951563835	-0.0731191635132	1.54375779629	-0.392349481583
-0.0522570610046	1.26762056351	-0.236830592155	-0.0761988162994	1.54383265972	-0.395132064819
-0.0558469295502	1.2653516531	-0.23664855957	-0.0802438259125	1.54494726658	-0.398405075073
-0.0595927238464	1.26474404335	-0.238259077072	-0.0842628479004	1.54892504215	-0.403380393982
-0.0644462108612	1.26362109184	-0.239666938782	-0.087393283844	1.5525611639	-0.40986084938
-0.0696444511414	1.26379144192	-0.242267489433	-0.0897989273071	1.55500590801	-0.416420817375
-0.07364320755	1.26415395737	-0.244839310646	-0.0915887355804	1.55609607697	-0.422429084778
-0.076322555542	1.26445126534	-0.246232509613	-0.0933856964111	1.55644214153	-0.426817893982
-0.0751953125	1.26587307453	-0.249107599258	-0.0953969955444	1.555341959	-0.428134918213
-0.0731689929962	1.26550126076	-0.250557422638	-0.0979461669922	1.55349564552	-0.426526784897
-0.0730042457581	1.26292383671	-0.249177694321	-0.100279569626	1.55103313923	-0.423382997513
-0.0739109516144	1.26042926311	-0.247760891914	-0.102359294891	1.54833650589	-0.418999910355
-0.0744385719299	1.25794994831	-0.247004985809	-0.103582859039	1.5456174612	-0.41387963295
-0.0752263069153	1.25420117378	-0.242321968079	-0.104390382767	1.54267835617	-0.408843040466
-0.0729866027832	1.25284337997	-0.237507104874	-0.104247808456	1.54124212265	-0.405050754547
-0.0717058181763	1.24984943867	-0.229356765747	-0.103108882904	1.54091894627	-0.402254104614
-0.0714116096497	1.24358582497	-0.21840596199	-0.10174870491	1.54066300392	-0.40026819706
-0.0736753940582	1.237210989	-0.209865808487	-0.100358247757	1.54056823254	-0.397993087769
-0.076840877533	1.23356580734	-0.205809593201	-0.0992412567139	1.54034590721	-0.395752429962
-0.0786283016205	1.23324716091	-0.204540371895	-0.0978448390961	1.54074394703	-0.393706560135
-0.0787034034729	1.23784518242	-0.205570220947	-0.095911026001	1.541036129	-0.392448782921
-0.0776088237762	1.25400006771	-0.212216854095	-0.0940368175507	1.54110348225	-0.390872240067
-0.0784690380096	1.27578783035	-0.223569273949	-0.0921828746796	1.54058766365	-0.389269828796
-0.0826978683472	1.29283368587	-0.235797762871	-0.0904469490051	1.53957486153	-0.388058185577
-0.0905654430389	1.30744576454	-0.247806310654	-0.0887777805328	1.53892958164	-0.387657880783
-0.0985016822815	1.32267653942	-0.254714488983	-0.0869643688202	1.53897893429	-0.387374401093
-0.104864597321	1.33182942867	-0.251820206642	-0.0863761901855	1.540792346	-0.387445211411
-0.10533118248	1.33347117901	-0.243077754974	-0.0871260166168	1.54794967175	-0.389547348022
-0.105012178421	1.32949459553	-0.230300664902	-0.0873408317566	1.55557990074	-0.39503455162
-0.104576349258	1.32506275177	-0.217741847038	-0.0870461463928	1.55963754654	-0.401207447052
-0.103829622269	1.32251000404	-0.209614515305	-0.0868120193481	1.56143987179	-0.406163930893
-0.10432434082	1.32017195225	-0.207837462425	-0.0859770774841	1.56218874454	-0.409724473953
-0.105947971344	1.31829357147	-0.210459947586	-0.0837533473969	1.56225728989	-0.411867499352
-0.105340480804	1.31857144833	-0.214316010475	-0.0797922611237	1.56246125698	-0.411810874939
-0.103635072708	1.32011282444	-0.215680837631	-0.0769181251526	1.56238222122	-0.410916090012
-0.0979557037354	1.32189846039	-0.210823774338	-0.0761563777924	1.56301629543	-0.409296751022
-0.0915448665619	1.32260918617	-0.200685501099	-0.0763070583344	1.56498908997	-0.408294796944
-0.0872280597687	1.32175147533	-0.195757269859	-0.0770273208618	1.56371760368	-0.407910227776
-0.0904788970947	1.32232511044	-0.198953151703	-0.0781021118164	1.56314241886	-0.407286643982
-0.0947365760803	1.32190287113	-0.204290151596	-0.078875541687	1.56141090393	-0.40630364418
-0.0959060192108	1.3197696209	-0.206786394119	-0.0784702301025	1.55954957008	-0.404695034027
-0.0947947502136	1.31783854961	-0.205732584	-0.0777535438538	1.55826115608	-0.403153300285
-0.0927262306213	1.31808614731	-0.204992294312	-0.0776512622833	1.55796229839	-0.402385354042
-0.0912570953369	1.31777691841	-0.20507478714	-0.0777382850647	1.55758941174	-0.402075052261
-0.0905961990356	1.31629765034	-0.204332351685	-0.0783705711365	1.5562800169	-0.401095867157
-0.0911140441895	1.31524527073	-0.205986738205	-0.0798118114471	1.55443894863	-0.398949861526
-0.0932576656342	1.31457126141	-0.208651065826	-0.0808877944946	1.55281102657	-0.396723031998
-0.0946860313416	1.31355071068	-0.209597826004	-0.0808029174805	1.55302500725	-0.395434975624
-0.0947411060333	1.31395602226	-0.209812521935	-0.0795836448669	1.55403625965	-0.39476442337
-0.0929169654846	1.31559062004	-0.210318446159	-0.0780806541443	1.55609464645	-0.394730091095
-0.0913889408112	1.31712150574	-0.211100935936	-0.0769181251526	1.55963897705	-0.396095752716
-0.0920011997223	1.31640565395	-0.209280729294	-0.0756859779358	1.56179285049	-0.399087667465
-0.0923991203308	1.31568408012	-0.206287384033	-0.0735228061676	1.56228709221	-0.40146291256
-0.091381072998	1.31604480743	-0.20649600029	-0.070072889328	1.56207942963	-0.402251720428
-0.0905003547668	1.31613433361	-0.207007884979	-0.0661902427673	1.561424613	-0.401943087578
-0.0894017219543	1.31579327583	-0.206996440887	-0.0624217987061	1.56224143505	-0.40186226368
-0.0885643959045	1.31456279755	-0.205098032951	-0.0609278678894	1.56326675415	-0.402122497559
-0.0875067710876	1.31374812126	-0.203033924103	-0.0609495639801	1.56460881233	-0.402213931084
-0.0873122215271	1.3139193058	-0.202402591705	-0.060177564621	1.56572258472	-0.402380228043
-0.0869240760803	1.31433868408	-0.202441453934	-0.0584547519684	1.56580197811	-0.403067111969
-0.0864489078522	1.31345617771	-0.201608181	-0.0562970638275	1.56601428986	-0.403723239899
-0.0845272541046	1.31366729736	-0.200317144394	-0.0540015697479	1.56648814678	-0.403911113739
-0.0818567276001	1.31405997276	-0.20020866394	-0.0518846511841	1.5666359663	-0.403821825981
-0.0810849666595	1.31363046169	-0.199949979782	-0.0504145622253	1.56683909893	-0.403066158295
-0.0817778110504	1.31261885166	-0.20026743412	-0.0481939315796	1.56755399704	-0.402774572372
-0.0817816257477	1.31234765053	-0.200199961662	-0.0456712245941	1.5669734478	-0.402962446213
-0.0814990997314	1.31285631657	-0.197515487671	-0.0449376106262	1.56543588638	-0.402393817902
-0.0797142982483	1.31401658058	-0.198240995407	-0.04634308815	1.56370234489	-0.400443196297
