-75.234413147	-87.2073364258	148.14515686	9.44704341888	-0.239239215851	1.98853909969
-79.1964035034	-87.1134033203	152.173873901	9.52093696594	-0.111855760217	1.98565149307
-77.4312973022	-87.1406707764	150.214035034	9.45984268188	-0.0445089302957	2.06512331963
-69.491065979	-86.9996109009	141.776947021	9.11515235901	-0.0406122766435	2.32215213776
-65.3694763184	-86.2570648193	136.289962769	8.41594219208	-0.0337215214968	2.90639019012
-61.8551101685	-85.8908920288	131.751785278	7.70658922195	-0.0564302094281	3.45365190506
-47.3547592163	-86.1492156982	116.709014893	7.73898124695	-0.0293629132211	3.68467354774
14.0379219055	-84.2646789551	54.8373184204	9.28443908691	0.142291203141	3.41250777245
51.1165809631	-72.3466339111	13.4552202225	11.4651699066	0.553995549679	2.70053911209
53.6431655884	-60.1490478516	4.71855068207	13.2117824554	0.907095909119	2.02057552338
54.2554016113	-58.3884506226	3.0977575779	14.0567359924	0.931627690792	1.22091400623
54.3850364685	-60.0447654724	1.84809458256	14.5345935822	0.993947207928	0.598402917385
55.0096740723	-66.3051071167	4.26440143585	14.3435993195	1.08027493954	0.561952531338
49.7518920898	-78.1266860962	17.2806835175	13.8247709274	1.16820073128	0.820762276649
38.3387451172	-84.2182388306	33.0972328186	13.87961483	1.25764763355	0.921447515488
39.8911514282	-83.4539489746	31.6838703156	14.4746484756	1.3377314806	0.936346411705
45.1395187378	-83.6973953247	27.4761791229	14.5973405838	1.29529154301	0.789693593979
26.4302043915	-86.6996688843	49.3440856934	14.6202659607	1.35036718845	0.686229348183
-27.2287254333	-87.1784591675	105.72492218	14.59953022	1.40032470226	0.5774102211
-32.5299568176	-87.1010360718	111.864624023	14.5969839096	1.42619526386	0.452469319105
-42.2771835327	-86.6993103027	123.218894958	14.8451538086	1.40483808517	0.31514814496
-2.36550807953	-85.9669113159	82.5470657349	15.1679124832	1.39076185226	0.0610270798206
12.074640274	-85.3898162842	66.9379577637	15.7236099243	1.40117156506	-0.268463015556
5.91028165817	-85.8085403442	73.8009033203	16.035993576	1.39936947823	-0.263491362333
8.5734167099	-85.9615249634	71.4206085205	16.0774459839	1.3429723978	-0.207608684897
8.28047180176	-86.0993804932	71.7781600952	16.126115799	0.932808041573	-0.263832181692
2.92255568504	-85.9600982666	77.03540802	16.1852474213	0.410699754953	-0.414427995682
-2.41860890388	-86.3193359375	82.6969604492	16.1813430786	-0.147296607494	-0.711135566235
-16.8044128418	-86.7309570312	97.6830749512	16.4420204163	-0.333521783352	-0.967071890831
-27.7034320831	-86.887512207	109.173805237	16.7738399506	-0.255872994661	-1.33978235722
-16.0346870422	-86.8886566162	97.9479980469	17.2990589142	-0.218714401126	-1.60356259346
-3.11552023888	-86.9003295898	85.0769424438	17.9208717346	-0.100264593959	-1.84916245937
