-54.7354621887	-75.1999130249	137.754852295	3.56030893326	1.32477903366	-3.72817158699
-53.8589439392	-75.133392334	136.777145386	3.6371922493	1.47197210789	-3.8092443943
-51.7205314636	-74.9762878418	134.626022339	3.70501637459	1.72375440598	-3.77487397194
-46.5585861206	-73.556930542	129.142059326	3.70825099945	2.43003773689	-3.65185236931
-36.3922309875	-66.5198974609	115.714912415	3.52657628059	4.77156400681	-3.27352952957
-29.7178535461	-54.1587181091	103.489639282	2.96484446526	7.63406085968	-3.01424264908
-25.0467472076	-43.7074012756	94.4550247192	2.53010201454	10.041724205	-2.69835829735
-20.452671051	-38.8353881836	90.1728897095	2.25817322731	12.1254806519	-2.41880178452
-18.5051403046	-37.5755462646	89.1919021606	2.01461958885	14.0021820068	-2.35203456879
-19.2354679108	-36.4856758118	90.0138626099	1.89420032501	16.4918460846	-2.29196739197
-20.3009223938	-35.4003105164	90.2755432129	1.64464342594	19.1724739075	-2.51697874069
-19.2664222717	-32.9318962097	86.5282592773	1.53367316723	21.463262558	-2.92565155029
-14.7798089981	-31.1716556549	80.774055481	1.82060801983	23.0058689117	-3.49103522301
-11.9064559937	-30.6884021759	79.2774124146	2.29037666321	24.2191352844	-3.81988239288
-11.3364057541	-30.676940918	80.3363952637	2.46445226669	24.9086856842	-3.87444996834
-12.0215425491	-31.2561836243	82.1758041382	2.54469799995	25.1459560394	-3.86035609245
-12.9168796539	-32.1923751831	83.786277771	2.83640670776	24.9549293518	-3.7689473629
-13.6578598022	-33.189907074	84.3047332764	3.04976081848	24.9442710876	-3.8591940403
-13.4040393829	-33.032749176	83.1952667236	3.2200717926	25.3434200287	-4.20207214355
-10.1499347687	-28.7212791443	74.2868728638	3.5247220993	26.194770813	-4.68558120728
-6.34014034271	-23.7954978943	69.9969787598	4.06977176666	27.2905254364	-5.10943222046
-5.24389410019	-26.5691661835	72.4840621948	4.46899938583	27.1792411804	-5.33184909821
-5.69038820267	-28.1539859772	73.5216140747	4.44585084915	26.4924163818	-5.79902553558
-6.61494827271	-28.8596534729	74.7863006592	4.91331768036	26.2554740906	-5.96818208694
-6.17468976974	-28.4076328278	74.3884658813	5.63764190674	26.583158493	-5.7432847023
-5.12562227249	-28.5412349701	74.7714080811	5.63487100601	26.1684761047	-5.75546550751
-4.08189058304	-28.7248191833	75.2638473511	5.15158510208	25.2980899811	-6.30520200729
-3.80440568924	-29.5044231415	76.7815856934	3.83127713203	23.0336532593	-6.91506147385
-2.57372426987	-29.5865154266	77.39112854	1.71607816219	19.528055191	-6.36327219009
-0.840757250786	-29.7490921021	77.3669662476	1.18960034847	18.3457241058	-5.84178733826
0.575864851475	-28.6993656158	76.1362533569	2.92354607582	18.0350837708	-4.63230085373
2.12417793274	-24.9060306549	73.9217605591	4.81022357941	17.2466659546	-3.67318511009
1.58081018925	-26.3123703003	75.9434432983	5.55735731125	17.8203620911	-3.01436662674
1.12488031387	-27.0513629913	78.2724533081	5.73650884628	19.6237049103	-2.0072991848
1.3530009985	-26.8716678619	78.4014053345	5.86701822281	21.0303440094	-1.05231773853
0.0584329105914	-27.7063560486	82.1772155762	6.06255674362	21.9032611847	-0.692840635777
-0.246921822429	-29.0196456909	81.3511047363	6.16444206238	22.7212619781	-0.347159177065
-1.40833926201	-28.8259220123	80.9749832153	6.05522155762	23.0236759186	-0.214289322495
-1.2643147707	-28.8096008301	79.9942092896	5.56308460236	22.9020614624	-0.506663322449
-3.84468531609	-31.8128910065	87.6819915771	5.43388080597	22.7732887268	-0.29184576869
-11.2496385574	-38.4437141418	107.688529968	5.60193157196	23.0369319916	0.0745789185166
-14.0363969803	-39.6134033203	114.38860321	5.96472215652	23.6537532806	0.308715969324
-6.75197219849	-35.7485923767	93.9193496704	6.65164279938	24.3385887146	0.772834897041
0.791964828968	-27.0286560059	66.551864624	6.39457941055	24.8437137604	0.970159709454
0.595849573612	-23.9894180298	61.4159507751	5.23984336853	25.2542686462	0.627341449261
-0.446763724089	-24.6760730743	63.6595458984	4.22860002518	25.2397403717	0.295060276985
-0.863393425941	-26.0198154449	67.1886901855	3.72309470177	24.8550605774	0.110631257296
-0.786041855812	-26.9219589233	70.3950424194	3.51914858818	24.75756073	-0.0806230455637
-3.60361647606	-30.598028183	85.5529785156	3.69631195068	25.3651828766	-0.835932016373
-7.48632621765	-30.7769756317	94.8516616821	3.95449233055	26.4733562469	-2.9345164299
-7.21827840805	-28.2341403961	94.5400390625	4.70282697678	27.949300766	-6.19889783859
