-46.0725479126	-59.1635360718	142.659057617	8.27615451813	-0.45010265708	-1.1003818512
-45.4972572327	-59.5300712585	142.324188232	8.40028381348	-0.591503083706	-1.09756946564
-44.8031463623	-59.854801178	141.43812561	8.51282310486	-0.580571651459	-1.04863011837
-43.602645874	-60.4322319031	139.323028564	8.09524917603	-0.771595537663	-0.873089849949
-40.1091270447	-61.6645889282	132.907852173	7.6661400795	-0.846779286861	-0.45664575696
-29.4359016418	-63.6122131348	117.00605011	8.07394981384	-0.569945216179	-0.104285776615
-2.44015789032	-62.3993301392	80.0857772827	9.37981987	-0.233342856169	-0.0805863067508
17.9782123566	-58.3087310791	53.12865448	10.5184764862	0.0433716438711	-0.11566863209
32.684551239	-57.0200576782	37.2732086182	10.8958826065	0.104249037802	-0.302806526423
37.9368057251	-66.633102417	36.4198951721	10.8840579987	0.160350516438	-0.266600847244
35.8865280151	-73.5205078125	40.8986129761	10.5473709106	0.33091828227	-0.200777709484
28.5898838043	-77.9686584473	51.4068374634	10.2850027084	0.262922078371	-0.172947496176
13.8101596832	-81.7850189209	68.0185394287	10.3444414139	0.0966851264238	-0.376563847065
-48.505317688	-85.7345275879	135.023010254	10.5651254654	0.00539652211592	-0.710906207561
-83.6206207275	-83.3186798096	174.547454834	10.7084817886	0.296730905771	-0.779714763165
-1.94467926025	-76.0403518677	75.8276443481	10.8515081406	0.517161071301	-0.790337443352
3.3978304863	-55.9528121948	51.5866737366	10.8107500076	0.868608117104	-0.576643407345
8.20606136322	-51.5218238831	46.0749969482	11.1035366058	1.02642798424	-0.364695161581
6.26277494431	-55.0382537842	53.658618927	11.8203573227	1.66764605045	-0.169749230146
0.729911983013	-61.6675033569	63.4401512146	12.7208786011	2.34464693069	-0.0156748984009
-3.58285522461	-67.8143768311	72.2897949219	13.5201282501	2.31755042076	0.163247957826
-13.1431436539	-76.9144363403	86.1101989746	14.0866603851	1.97882831097	0.257822066545
-53.7950019836	-80.4756698608	129.626022339	14.5780248642	1.99035441875	0.308597028255
-47.259677887	-71.3037033081	121.78666687	15.2446680069	2.19396781921	0.366242200136
-11.8726081848	-55.1944122314	67.4599761963	16.0487098694	1.68356716633	0.2295473665
