-0.0878882408142	1.16920399666	-0.102958083153	-0.0706207752228	1.51366817951	-0.309575676918
-0.090704202652	1.16935968399	-0.105079889297	-0.0736200809479	1.51442790031	-0.311130046844
-0.094847202301	1.16884315014	-0.107108354568	-0.0770952701569	1.51374590397	-0.31181883812
-0.101007699966	1.16707754135	-0.10884642601	-0.0824556350708	1.51352834702	-0.311617612839
-0.117954730988	1.15454924107	-0.100781679153	-0.0901966094971	1.51934206486	-0.313056707382
-0.150636196136	1.11213302612	-0.0832767486572	-0.100178718567	1.52824556828	-0.318010687828
-0.167144060135	1.07113099098	-0.0753045082092	-0.111278533936	1.5358171463	-0.32413649559
-0.176297664642	1.05586314201	-0.0732853412628	-0.123317480087	1.5422283411	-0.329763412476
-0.183498859406	1.06660842896	-0.0696026086807	-0.133845567703	1.54652523994	-0.335215091705
-0.190711975098	1.08632600307	-0.0642046928406	-0.138615608215	1.54783439636	-0.337994337082
-0.193088293076	1.11189246178	-0.0624496936798	-0.137799024582	1.54486846924	-0.336088180542
-0.189754962921	1.13775277138	-0.0686177015305	-0.134643316269	1.54012298584	-0.332497596741
-0.186336040497	1.15381276608	-0.0792319774628	-0.131318092346	1.53844368458	-0.329805612564
-0.18545794487	1.15608656406	-0.0844678878784	-0.127862453461	1.53862178326	-0.328404188156
-0.18173289299	1.15574896336	-0.0829522609711	-0.124698877335	1.53907060623	-0.326962709427
-0.175413131714	1.16116368771	-0.0841143131256	-0.122093677521	1.54212737083	-0.327253580093
-0.169366359711	1.16203129292	-0.0824067592621	-0.12028503418	1.54531478882	-0.329723119736
-0.163140535355	1.16183185577	-0.0809195041656	-0.117931365967	1.54835760593	-0.332398414612
-0.159452915192	1.16349852085	-0.0843720436096	-0.115878582001	1.54994690418	-0.336220979691
-0.160392522812	1.16536676884	-0.0875207185745	-0.115437507629	1.55024898052	-0.340000987053
-0.16033911705	1.16683375835	-0.0836615562439	-0.11624789238	1.54954588413	-0.343750476837
-0.163108587265	1.1622300148	-0.0808238983154	-0.118973493576	1.54790794849	-0.348009705544
-0.173119544983	1.15090191364	-0.084401845932	-0.123486757278	1.54528355598	-0.352190732956
-0.17990064621	1.13856422901	-0.0888369083405	-0.130051851273	1.5423926115	-0.356468439102
-0.177361965179	1.13560247421	-0.0900323390961	-0.137056589127	1.54130470753	-0.362040400505
-0.176528215408	1.13205420971	-0.0916538238525	-0.142638921738	1.54147088528	-0.367919921875
-0.178833961487	1.13183379173	-0.0977680683136	-0.146707773209	1.54112660885	-0.372535228729
-0.182800769806	1.13295280933	-0.104989290237	-0.148832321167	1.54200196266	-0.37729883194
-0.184556722641	1.13878786564	-0.107412695885	-0.147807836533	1.54478192329	-0.382442235947
-0.181491374969	1.148193717	-0.103898286819	-0.146212816238	1.54603397846	-0.386222958565
-0.179508447647	1.15666055679	-0.106193065643	-0.144984722137	1.54595732689	-0.386999130249
-0.174789428711	1.16558134556	-0.110208392143	-0.143420696259	1.54546928406	-0.385543107986
-0.167104721069	1.17287349701	-0.107791781425	-0.141615629196	1.54472577572	-0.383433818817
-0.157476186752	1.17210745811	-0.0953731536865	-0.139607429504	1.54429602623	-0.381206035614
-0.145555019379	1.16530394554	-0.0806818008423	-0.137743711472	1.54305064678	-0.378446817398
-0.138911485672	1.16087317467	-0.0729694366455	-0.137113571167	1.54203546047	-0.375293254852
-0.137522220612	1.16007971764	-0.0718936920166	-0.136961221695	1.54199898243	-0.372525811195
-0.143005371094	1.16236746311	-0.07668364048	-0.136399030685	1.54346728325	-0.369966983795
-0.150994062424	1.1615357399	-0.0812013149261	-0.134356737137	1.5457085371	-0.367773294449
-0.155867099762	1.16380190849	-0.0843825340271	-0.131089448929	1.54760682583	-0.365954875946
-0.156374692917	1.16904842854	-0.0844292640686	-0.12646150589	1.54995238781	-0.365270137787
-0.15585899353	1.17273211479	-0.0809946060181	-0.12225484848	1.55280768871	-0.365902423859
-0.155192375183	1.17705583572	-0.0777382850647	-0.119931459427	1.55455899239	-0.366461873055
-0.155933380127	1.17843163013	-0.075138926506	-0.119279384613	1.55520570278	-0.365892887115
-0.157526493073	1.17840218544	-0.0737638473511	-0.118696451187	1.55522143841	-0.364976763725
-0.157762527466	1.17895853519	-0.0740016698837	-0.117418289185	1.55544734001	-0.364812374115
-0.1565721035	1.18000984192	-0.0741226673126	-0.115326404572	1.55590713024	-0.365738391876
-0.154786348343	1.18082237244	-0.0744411945343	-0.112283706665	1.55634188652	-0.36763548851
