-0.503606319427	1.04034209251	-0.181437492371	-0.142213582993	1.48901844025	-0.302134752274
-0.50293636322	1.04133057594	-0.179731607437	-0.14014005661	1.48888218403	-0.301069617271
-0.501782655716	1.0425298214	-0.178308010101	-0.138201236725	1.48897743225	-0.29949092865
-0.49464392662	1.04296183586	-0.172338724136	-0.137555837631	1.4907399416	-0.29694890976
-0.477553844452	1.03013062477	-0.161040067673	-0.139005661011	1.49878191948	-0.295412659645
-0.449607133865	1.01857447624	-0.147431373596	-0.14024066925	1.51140487194	-0.296334028244
-0.416947841644	1.01600766182	-0.128324985504	-0.140958070755	1.52164435387	-0.299989819527
-0.385671854019	1.02190709114	-0.105992913246	-0.138782739639	1.53048419952	-0.306241750717
-0.361093044281	1.04244089127	-0.0900835990906	-0.134429454803	1.53789246082	-0.313672065735
-0.34113574028	1.06895649433	-0.0809373855591	-0.129892349243	1.54105639458	-0.320121526718
-0.323952198029	1.09054720402	-0.0765128135681	-0.124722242355	1.54158496857	-0.323647975922
-0.311557769775	1.10274708271	-0.0741437673569	-0.118116855621	1.54140710831	-0.324921369553
-0.304798841476	1.10275638103	-0.0718576908112	-0.108986377716	1.53986811638	-0.325480818748
-0.296640872955	1.09797918797	-0.0681476593018	-0.0993132591248	1.53776788712	-0.324502468109
-0.287675619125	1.09480190277	-0.0640913248062	-0.0896565914154	1.53605115414	-0.321488976479
-0.286291122437	1.09514510632	-0.0638082027435	-0.0797200202942	1.53498244286	-0.317932605743
-0.287591695786	1.09751451015	-0.0656459331512	-0.0712215900421	1.53426516056	-0.31583404541
-0.28883600235	1.09840321541	-0.0674033164978	-0.0635561943054	1.53507888317	-0.316852807999
-0.28955745697	1.09726727009	-0.0662729740143	-0.0570764541626	1.53565335274	-0.320400238037
-0.290692567825	1.09861385822	-0.0646555423737	-0.0531401634216	1.53572440147	-0.322938203812
-0.292909145355	1.10160064697	-0.0658060312271	-0.0519495010376	1.53493750095	-0.324843049049
-0.294954299927	1.10448682308	-0.0673034191132	-0.0522909164429	1.53507626057	-0.327002644539
-0.296444416046	1.10396766663	-0.0671565532684	-0.0535385608673	1.53803598881	-0.331336379051
-0.298623561859	1.10082960129	-0.0665072202682	-0.0563342571259	1.54231524467	-0.337737321854
-0.302471637726	1.10004627705	-0.0686330795288	-0.0610866546631	1.54498779774	-0.343240737915
-0.307198524475	1.10012185574	-0.0726351737976	-0.0657603740692	1.54634892941	-0.348171949387
-0.313299179077	1.09898173809	-0.0764973163605	-0.0684471130371	1.54702627659	-0.353412151337
-0.320365428925	1.10085630417	-0.0824813842773	-0.0683188438416	1.54762506485	-0.359184861183
-0.326840877533	1.10440135002	-0.0893448591232	-0.0660006999969	1.54800200462	-0.364699363708
-0.330143928528	1.10636281967	-0.09643471241	-0.0629131793976	1.54787671566	-0.370007634163
-0.330570220947	1.10600161552	-0.101609706879	-0.0603451728821	1.54698312283	-0.374970197678
-0.330392837524	1.10560107231	-0.107012987137	-0.0592699050903	1.54636597633	-0.378734111786
-0.330367565155	1.10702431202	-0.11341714859	-0.0605602264404	1.54605150223	-0.381941437721
