0.0707881450653	1.2491158247	-0.215208053589	-0.100513458252	1.51349639893	-0.32035446167
0.0717306137085	1.2495174408	-0.214979052544	-0.100195646286	1.51350855827	-0.319984197617
0.0718946456909	1.24975860119	-0.214743375778	-0.099737405777	1.51340293884	-0.319434762001
0.072270154953	1.24967241287	-0.213802337646	-0.100525856018	1.51400244236	-0.319302916527
0.0713183879852	1.24737679958	-0.210272789001	-0.105033874512	1.51513624191	-0.318907976151
0.0660107135773	1.24453210831	-0.2062728405	-0.112491607666	1.51555383205	-0.317477822304
0.057480096817	1.24375283718	-0.202985882759	-0.120085000992	1.51545166969	-0.315281867981
0.0522844791412	1.24672091007	-0.199443340302	-0.126152515411	1.51621997356	-0.313133716583
0.0472390651703	1.24901401997	-0.19584441185	-0.131214380264	1.51722586155	-0.310673594475
0.0418412685394	1.24892950058	-0.193663477898	-0.135283946991	1.51713705063	-0.308294534683
0.0381879806519	1.24847924709	-0.192572116852	-0.137523174286	1.51600861549	-0.306708455086
0.0399379730225	1.24825751781	-0.190102815628	-0.136853933334	1.51505374908	-0.305687427521
0.0476429462433	1.24831569195	-0.186328887939	-0.134316444397	1.51537799835	-0.305785179138
0.0571961402893	1.24688744545	-0.182651281357	-0.131742238998	1.51590371132	-0.306194067001
0.0665302276611	1.24495196342	-0.182275295258	-0.129675388336	1.51598632336	-0.306887865067
0.070479631424	1.24347281456	-0.182775378227	-0.128271341324	1.51580882072	-0.307910442352
