-60.050617218	-68.4202880859	141.08694458	5.77977609634	1.41036832333	-1.55107295513
-58.8961906433	-68.984336853	139.730270386	5.76173830032	1.44505870342	-1.4711534977
-58.3790359497	-69.1540145874	139.069076538	5.70526981354	1.5909705162	-1.41414618492
-58.1967544556	-68.9183120728	138.594070435	5.52458667755	2.36975836754	-1.1095482111
-58.5221977234	-69.1485366821	138.338912964	5.04103851318	3.29130935669	-0.346143633127
-57.690322876	-69.2435455322	136.2474823	3.78185296059	5.27531290054	1.09789776802
-56.048789978	-69.1263122559	132.114624023	1.0550763607	8.48795890808	4.58735609055
-49.1667976379	-68.9921722412	120.803153992	-1.54642236233	11.2666025162	6.35304498672
-37.1793937683	-67.7310333252	102.010932922	-1.8377969265	11.8167552948	6.63353633881
-18.5301532745	-60.7272186279	67.1406860352	0.0631226822734	9.82501506805	6.01890277863
-13.4805498123	-44.8197860718	39.2127456665	2.55899524689	7.71921682358	4.81737995148
-12.1079120636	-40.2791557312	32.9961738586	4.45631074905	5.39425516129	3.19141793251
-12.8501815796	-43.5715065002	41.9697341919	5.95152902603	1.64277875423	1.2141597271
-10.6846656799	-47.2608451843	43.5604057312	7.65521192551	-2.503895998	-0.979224741459
-10.5607700348	-53.0559768677	49.0207672119	9.24850559235	-5.31166791916	-2.30443716049
-9.05679988861	-57.3279685974	51.9128799438	9.91337203979	-7.69790792465	-3.02891659737
-15.371758461	-62.6643180847	66.8512878418	10.361828804	-10.6728277206	-3.89635133743
-23.0736465454	-65.3568496704	81.3029327393	10.7336816788	-12.4183712006	-4.40119981766
-35.3478660583	-67.5915756226	100.283462524	11.2479639053	-13.0516767502	-4.92773580551
-43.2075042725	-69.4373626709	113.71811676	11.7269830704	-14.1597986221	-5.60667276382
-55.4049949646	-70.1540222168	130.712173462	11.6434526443	-14.0684986115	-5.76310396194
-62.4261169434	-71.6073226929	138.146194458	11.5339365005	-12.9186229706	-5.49160194397
-47.7769393921	-73.4249725342	115.116577148	11.5031738281	-12.574379921	-5.22477579117
-14.3875398636	-55.9280929565	58.0624580383	11.4834251404	-12.5459012985	-5.13282299042
-10.778181076	-47.8424987793	55.7549171448	11.3830194473	-12.3568582535	-4.98613595963
-10.2587785721	-45.3929634094	62.5858726501	11.3033285141	-12.4004249573	-4.79135847092
-15.4612464905	-48.5890274048	81.1524810791	11.1372489929	-12.8626680374	-4.89776468277
-19.0548553467	-48.4132957458	89.0844345093	11.2767763138	-14.6971950531	-5.78471136093
-17.9812088013	-47.4578475952	86.3041915894	11.8303289413	-16.8836421967	-6.58157348633
-19.3561897278	-48.2511062622	87.7088470459	12.1095752716	-17.9337444305	-6.71790838242
-20.6865386963	-50.1804046631	91.6783905029	11.9206762314	-17.6006164551	-6.54828023911
-23.9594402313	-53.7413406372	99.832244873	12.0936126709	-17.3384361267	-6.49440002441
-26.6387424469	-56.488735199	106.654304504	12.2199468613	-18.1357746124	-6.72704744339
-28.6300239563	-58.317440033	111.038825989	12.3381214142	-19.2129840851	-6.82629013062
-29.8219661713	-62.0458335876	115.494544983	12.4304742813	-19.677564621	-6.9215669632
-32.3486022949	-67.2468032837	118.965332031	12.8258562088	-19.2701148987	-6.94985103607
-39.6466522217	-72.4575500488	126.95489502	12.9560022354	-18.4229412079	-6.75217437744
-37.453163147	-68.5657196045	119.598731995	12.6609725952	-17.4602794647	-6.39703035355
-14.8581104279	-57.2740287781	79.2233886719	12.394695282	-16.4980449677	-5.87269115448
-3.59203529358	-44.0608940125	50.9379882812	11.8972063065	-16.2288627625	-5.59612894058
-6.63083171844	-41.7531967163	52.5229148865	11.5010881424	-16.5049629211	-5.4920463562
-10.8296308517	-43.5113945007	60.7694244385	11.0257692337	-17.2208042145	-5.5803360939
