0.0316259860992	1.24175536633	-0.147826433182	-0.0160593986511	1.51989603043	-0.325634002686
0.0327475070953	1.24159300327	-0.147745609283	-0.0157470703125	1.51939678192	-0.325737953186
0.032484292984	1.24142944813	-0.147686719894	-0.0172152519226	1.51914012432	-0.325765371323
0.0273928642273	1.23931026459	-0.146201133728	-0.0239448547363	1.51938450336	-0.325425863266
0.0108723640442	1.23378837109	-0.143682479858	-0.0395851135254	1.51854026318	-0.324062347412
-0.0113325119019	1.22650885582	-0.140310645103	-0.0587089061737	1.51756966114	-0.322901248932
-0.0313038825989	1.2231938839	-0.137503147125	-0.0756931304932	1.51730167866	-0.322483778
-0.0477905273438	1.22162055969	-0.132989406586	-0.0884382724762	1.51582884789	-0.321440696716
-0.0561013221741	1.22043132782	-0.129107236862	-0.096207857132	1.51328742504	-0.319546222687
-0.0513019561768	1.22014081478	-0.123366117477	-0.098616361618	1.51254665852	-0.318286657333
-0.0330584049225	1.22465217113	-0.121043682098	-0.096479177475	1.51377391815	-0.318601608276
-0.0162034034729	1.23024463654	-0.121992349625	-0.0930511951447	1.51554012299	-0.320007562637
-0.00417399406433	1.23209345341	-0.119208216667	-0.0895748138428	1.51654338837	-0.321738839149
0.012665271759	1.2310655117	-0.117040395737	-0.0861663818359	1.51706254482	-0.323752522469
0.0331156253815	1.23300719261	-0.119345188141	-0.0835113525391	1.51611745358	-0.324278712273
0.048999786377	1.23493468761	-0.121245503426	-0.0814690589905	1.51452338696	-0.323417186737
0.0613114833832	1.23564946651	-0.122524738312	-0.0794441699982	1.51400017738	-0.322556614876
0.0731477737427	1.23443460464	-0.12054681778	-0.0781741142273	1.51506400108	-0.321901082993
0.0865414142609	1.23238480091	-0.114611268044	-0.07572889328	1.51686286926	-0.321893453598
0.10027050972	1.22920572758	-0.103255033493	-0.0715970993042	1.51777696609	-0.321892380714
0.113126993179	1.22792494297	-0.098112821579	-0.0668692588806	1.51731908321	-0.320908665657
0.111970663071	1.22666788101	-0.0980068445206	-0.0646507740021	1.51588368416	-0.318875789642
0.0887506008148	1.21868550777	-0.0938076972961	-0.0685806274414	1.5116622448	-0.314677238464
0.0579876899719	1.20231902599	-0.0819101333618	-0.0780222415924	1.50389254093	-0.308216094971
0.0285291671753	1.17342174053	-0.061420917511	-0.0885684490204	1.49721360207	-0.30151283741
-0.00540924072266	1.12580239773	-0.0484983921051	-0.0991220474243	1.49152028561	-0.296159625053
-0.0161623954773	1.09993636608	-0.049458026886	-0.109134197235	1.48724603653	-0.290039539337
-0.0125331878662	1.09037125111	-0.0500597953796	-0.117805242538	1.48326408863	-0.284144639969
0.00229930877686	1.09189474583	-0.0466990470886	-0.12438583374	1.47873997688	-0.279183626175
0.0255432128906	1.10845720768	-0.0422949790955	-0.127108097076	1.47275805473	-0.275599956512
0.0647366046906	1.14384615421	-0.0385936498642	-0.130579710007	1.46503210068	-0.272536277771
0.0982737541199	1.16764330864	-0.0378643274307	-0.128775119781	1.46053683758	-0.27018237114
0.11447930336	1.1743683815	-0.0383080244064	-0.124468564987	1.46206080914	-0.26748752594
0.11674451828	1.16943871975	-0.0370671749115	-0.120495319366	1.46407485008	-0.26553606987
0.112171411514	1.16541898251	-0.0352203845978	-0.11735868454	1.4662539959	-0.265488386154
0.110120296478	1.16774582863	-0.0326025485992	-0.114855289459	1.46860253811	-0.266298294067
0.115592956543	1.16906738281	-0.0298178195953	-0.112081766129	1.46902799606	-0.267658472061
0.135105848312	1.17227089405	-0.0296883583069	-0.110076189041	1.46820902824	-0.269265413284
0.167769193649	1.17507731915	-0.0335927009583	-0.109036445618	1.46821558475	-0.27036178112
0.198733329773	1.17667114735	-0.0410232543945	-0.107031822205	1.4678273201	-0.270323753357
0.228669166565	1.18058335781	-0.0548076629639	-0.104016542435	1.46682178974	-0.269087791443
0.253009796143	1.18029630184	-0.0694637298584	-0.101310253143	1.46661818027	-0.267653942108
0.269063234329	1.17735528946	-0.082524895668	-0.0993485450745	1.46669530869	-0.266585826874
0.276051521301	1.17364811897	-0.0907831192017	-0.0978918075562	1.46672654152	-0.266458272934
0.279417991638	1.17057180405	-0.0958137512207	-0.0970549583435	1.46690356731	-0.267692685127
0.281754970551	1.16878974438	-0.0992138385773	-0.0962674617767	1.467628479	-0.269737482071
0.281233310699	1.1700540781	-0.102389335632	-0.0956287384033	1.46817243099	-0.272386789322
0.280862808228	1.17307913303	-0.105408430099	-0.0944809913635	1.46718800068	-0.273999094963
0.278326272964	1.1787955761	-0.109033823013	-0.0933618545532	1.46562099457	-0.275239944458
0.281983137131	1.17994570732	-0.113158941269	-0.0922002792358	1.46430146694	-0.275826215744
0.288919210434	1.17848730087	-0.120503306389	-0.0906958580017	1.46319460869	-0.276585936546
0.295776605606	1.17650198936	-0.128392219543	-0.0890793800354	1.46234297752	-0.277600765228
0.30192565918	1.17541658878	-0.133890390396	-0.0882110595703	1.4616560936	-0.279255390167
0.30109834671	1.17000758648	-0.130639076233	-0.087548494339	1.46226215363	-0.281179904938
0.281327009201	1.16501557827	-0.12230348587	-0.0874075889587	1.46320939064	-0.28275346756
0.258248567581	1.16090834141	-0.118503451347	-0.0880017280579	1.46402263641	-0.284015059471
0.244086027145	1.16154110432	-0.118422627449	-0.0888965129852	1.46370029449	-0.285304784775
0.223222970963	1.15955340862	-0.115519762039	-0.0897572040558	1.46219456196	-0.286818504333
0.195290803909	1.15700435638	-0.113451480865	-0.0905654430389	1.46313297749	-0.288473129272
0.150755882263	1.14689993858	-0.112846374512	-0.0910339355469	1.46539068222	-0.290310978889
0.0908672809601	1.12076377869	-0.113992929459	-0.0915446281433	1.46666800976	-0.291971325874
0.0371472835541	1.09165763855	-0.121135950089	-0.0927271842957	1.46639382839	-0.293241500854
0.000102758407593	1.07696926594	-0.129908561707	-0.0950124263763	1.46607851982	-0.293390512466
-0.0133032798767	1.06214547157	-0.128474235535	-0.0977778434753	1.46501743793	-0.293689131737
-0.00516629219055	1.03982424736	-0.121569752693	-0.0995643138885	1.46366047859	-0.295047521591
0.00409889221191	1.01816892624	-0.118786334991	-0.0995035171509	1.46229028702	-0.297130346298
0.00487780570984	1.00437402725	-0.122961044312	-0.0988214015961	1.46051478386	-0.298808574677
-0.00232982635498	1.0155749321	-0.130726695061	-0.0986466407776	1.45814144611	-0.298916578293
-0.00481081008911	1.02240538597	-0.133505105972	-0.0988736152649	1.45631670952	-0.298814058304
0.00171852111816	1.02693653107	-0.128603696823	-0.0992548465729	1.45584595203	-0.298511743546
0.0107483863831	1.0298602581	-0.122318387032	-0.0998542308807	1.45498561859	-0.297258853912
0.0271582603455	1.03044366837	-0.116437673569	-0.100660085678	1.45260739326	-0.294922590256
0.0595588684082	1.02977108955	-0.112053155899	-0.101293563843	1.45099174976	-0.291991949081
0.0940999984741	1.0278172493	-0.114193320274	-0.100895404816	1.44914579391	-0.289071321487
0.124054431915	1.02775859833	-0.120720863342	-0.099791765213	1.44496512413	-0.286219596863
0.147416830063	1.02955126762	-0.125224113464	-0.0974292755127	1.44125318527	-0.283856153488
0.148827791214	1.03290629387	-0.124064922333	-0.0939931869507	1.43962061405	-0.28151345253
0.111537456512	1.03555679321	-0.123721718788	-0.0895566940308	1.4361448288	-0.279403686523
0.0719232559204	1.04379534721	-0.121811151505	-0.0847673416138	1.43461275101	-0.275821685791
0.0417904853821	1.05076408386	-0.118228912354	-0.0785872936249	1.43674874306	-0.272481918335
