-51.2795906067	-70.9387893677	131.958267212	9.46632862091	-2.93625545502	-0.512729108334
-52.3306732178	-71.9111862183	133.244308472	8.96989154816	-2.85847425461	-0.783563435078
-49.9075279236	-71.6524887085	130.568847656	8.74985122681	-3.01000833511	-0.733384072781
-47.4500198364	-72.1271362305	127.510948181	8.59764766693	-3.10079622269	-0.660264372826
-45.706817627	-72.3279647827	125.364631653	8.35835456848	-2.85864114761	-0.476779490709
-44.2508163452	-72.4897155762	123.669311523	8.05717563629	-2.43962049484	-0.38062158227
-41.7210693359	-73.0868225098	120.73651123	7.52675151825	-1.94465351105	-0.184571772814
-40.5811424255	-73.0120315552	119.238876343	6.94181776047	-1.52163231373	0.0981673076749
-39.5980834961	-73.0126724243	118.470329285	6.51136112213	-1.4013531208	0.201105311513
-35.201789856	-73.4487838745	113.74029541	6.88911342621	-1.16216170788	-0.113650821149
-34.4678192139	-73.4110336304	113.887130737	7.69995641708	-1.48125183582	-0.823422849178
-35.6573181152	-74.2819061279	117.109642029	8.54570674896	-2.6265976429	-1.53010976315
-37.2680358887	-75.0536651611	119.47505188	7.99949932098	-2.09083080292	-1.3729134798
-44.7348480225	-75.5145721436	128.786514282	6.84420824051	-0.165190503001	-0.774228155613
-49.5870246887	-76.4230957031	136.077819824	5.38867521286	1.08050107956	0.217902839184
-49.4713363647	-76.4108276367	137.558746338	4.31247711182	1.55411159992	0.772460103035
-49.2541999817	-76.2127075195	136.78578186	4.29135513306	1.72624528408	0.998035550117
-50.7538108826	-76.3711242676	137.810455322	4.74177312851	1.98973202705	0.827951014042
-52.2955093384	-76.657409668	139.249938965	4.96885490417	2.23711776733	0.505300462246
-50.380317688	-76.7571182251	137.472915649	5.02566289902	2.23326849937	0.321769535542
-48.800491333	-76.6707382202	135.837081909	5.33592557907	2.07477712631	0.162786319852
-48.7166213989	-76.9447250366	135.733413696	6.07781791687	2.16131901741	-0.0518874265254
-48.6074981689	-76.9928359985	135.700531006	6.67522382736	2.13552618027	-0.324455976486
-47.6721763611	-76.8582077026	134.88142395	6.9794549942	1.86866056919	-0.572835385799
-47.4755058289	-76.6724014282	134.708862305	7.26943635941	1.69124805927	-0.703068196774
-47.7396850586	-76.9859390259	135.176879883	7.49189996719	1.40896499157	-0.789464056492
-47.0412063599	-77.1228408813	134.773620605	7.87001752853	1.22530329227	-0.858975410461
-45.6904411316	-77.0775527954	133.392242432	8.04953384399	1.13233697414	-0.800284206867
-45.3596153259	-76.9942321777	132.803375244	7.71399831772	1.10641169548	-0.676309525967
-45.6445159912	-76.878578186	132.867980957	7.33461046219	0.983689427376	-0.547526299953
-45.25182724	-76.8730010986	132.320526123	7.18614053726	0.673241972923	-0.5894998312
-45.0986938477	-77.0379867554	131.922958374	7.42027759552	0.18325600028	-0.816922068596
-41.8025360107	-76.9297561646	127.821235657	7.64186286926	-0.422639936209	-1.0536493063
-39.8907699585	-76.4885635376	123.032073975	7.26909732819	-0.649566829205	-0.835261642933
-40.3763084412	-74.9119338989	117.156791687	5.56243515015	-0.0896609053016	0.0494279079139
-17.5627918243	-72.2378082275	79.0061340332	2.05520606041	0.425519198179	1.20335173607
-7.81905508041	-65.9131546021	59.4234542847	-2.72574734688	0.967825293541	2.17246198654
-8.91223335266	-63.2589149475	54.7910499573	-7.62184381485	0.861469745636	3.30140376091
-13.2178697586	-63.3692474365	56.4062385559	-12.3679800034	0.992146968842	4.62200212479
-17.9540157318	-64.246711731	62.4684104919	-15.8626031876	1.7130355835	5.61373710632
-15.9232025146	-63.5068702698	60.1897125244	-17.5894947052	1.85332083702	6.12596511841
-15.1380434036	-63.5025672913	60.2065925598	-17.6071605682	1.77619946003	6.12613010406
-19.0462398529	-66.1514663696	69.3949356079	-16.7529201508	1.66874873638	5.79438781738
-21.6123390198	-67.7270050049	73.7600708008	-16.1564311981	1.34924387932	5.49561786652
-31.9455070496	-70.326751709	89.5093917847	-16.0732097626	1.27131199837	5.36973285675
-39.5036201477	-70.8585205078	99.9403533936	-16.6813716888	1.1309261322	5.3856048584
-38.0863227844	-70.8678665161	98.3745651245	-17.3207073212	0.938278019428	5.51671648026
-38.8189582825	-71.2389297485	98.8408355713	-17.9670143127	0.767695724964	5.74839687347
-40.9070587158	-71.4918060303	100.685440063	-19.010137558	0.778921484947	6.02603340149
-41.7814178467	-71.9197769165	101.129600525	-20.2651939392	0.866898298264	6.35134029388
-44.8090019226	-72.4490814209	103.954078674	-21.4856510162	0.723483324051	6.73954772949
-48.5280418396	-73.2805252075	107.20841217	-21.7438240051	0.967051565647	7.13394165039
-49.1192588806	-72.9962921143	104.198234558	-20.73412323	1.41678142548	7.38782596588
-36.560131073	-70.8773498535	79.8306655884	-18.5368118286	1.56152701378	7.76531744003
