0.0	-0.0	131.847717285	-116.684455872	84.8163299561	176.288574219
0.0	-0.0	129.402526855	-116.399536133	85.554977417	175.703857422
0.0	-0.0	127.612426758	-116.4870224	84.4995498657	176.496841431
0.0	-0.0	122.550178528	-118.435882568	81.9171295166	178.752349854
0.0	-0.0	114.009666443	-121.465278625	81.129486084	-179.225723267
0.0	-0.0	97.0327148438	-125.116600037	82.0763778687	-176.892425537
0.0	-0.0	88.1085281372	-129.658828735	84.0960540771	-173.838928223
0.0	-0.0	85.9938201904	-134.896148682	86.1575088501	-170.431655884
0.0	-0.0	86.1996841431	-138.938369751	86.6060028076	-167.373458862
0.0	-0.0	84.4536132812	-140.121536255	86.4609527588	-165.782394409
0.0	-0.0	78.5786743164	-138.108520508	86.1956329346	-165.275741577
