0.0137548446655	1.24261987209	-0.284327983856	-0.171634197235	1.50507545471	-0.41031908989
0.0136036872864	1.24315142632	-0.285108923912	-0.171538829803	1.50509357452	-0.410962581635
0.0134806632996	1.24348008633	-0.285303592682	-0.171458005905	1.50520610809	-0.412045836449
0.0112407207489	1.24388575554	-0.285803556442	-0.173047780991	1.50576746464	-0.413032531738
0.00231122970581	1.2415368557	-0.280890226364	-0.179613828659	1.50647270679	-0.412521004677
-0.0231747627258	1.23182082176	-0.274565815926	-0.189223766327	1.50709426403	-0.411882400513
