0.0	-0.0	139.405090332	-99.2726974487	86.5523529053	-166.642715454
0.0	-0.0	139.232421875	-99.3300704956	86.360496521	-166.7890625
0.0	-0.0	139.271896362	-99.7875976562	86.4250640869	-166.838821411
0.0	-0.0	138.194274902	-100.388977051	86.5398330688	-166.834655762
0.0	-0.0	138.342483521	-101.384094238	86.652885437	-166.566741943
0.0	-0.0	138.365005493	-102.899932861	86.9311904907	-165.764526367
0.0	-0.0	136.160736084	-105.07951355	87.332244873	-164.716567993
0.0	-0.0	133.096359253	-108.341461182	87.8059844971	-163.278625488
0.0	-0.0	128.487472534	-112.671737671	88.4550552368	-162.373825073
0.0	-0.0	125.612121582	-116.136108398	89.0274429321	-161.188934326
0.0	-0.0	123.431915283	-118.090644836	88.70652771	-159.976608276
0.0	-0.0	117.562828064	-118.112106323	87.6559906006	-159.190383911
0.0	-0.0	102.758537292	-117.567398071	86.8327407837	-158.959350586
0.0	-0.0	94.1006011963	-117.74533844	86.7402267456	-158.87663269
0.0	-0.0	95.630027771	-119.04876709	86.7289657593	-158.978240967
0.0	-0.0	94.8526229858	-120.266944885	86.2950286865	-158.817138672
0.0	-0.0	95.3534164429	-119.492126465	86.828918457	-158.793395996
0.0	-0.0	93.7281112671	-118.308792114	86.9093475342	-158.489974976
0.0	-0.0	87.2284469604	-118.464248657	87.2311477661	-157.920898438
