-46.7095451355	-73.3869781494	131.484832764	6.76001930237	4.29240703583	-2.22981309891
-47.4317855835	-73.2043609619	131.873123169	6.40242862701	4.17474508286	-1.93253695965
-47.8352050781	-72.8782196045	131.65512085	5.94155168533	4.57306432724	-1.57138955593
-44.5506439209	-72.1077957153	125.707862854	5.13239622116	4.77922296524	-0.877675294876
-32.3073272705	-63.8094558716	102.738258362	3.73069643974	2.03146624565	-0.0638763904572
-29.8038825989	-41.4862518311	81.3771286011	1.69354212284	-2.30051112175	0.794882535934
-27.6143856049	-29.1333503723	71.1383209229	-0.660233974457	-6.32268476486	1.76901507378
-28.017747879	-24.9850349426	70.8432312012	-3.89080476761	-10.0217046738	2.95650529861
-28.7391204834	-26.5665416718	70.0166244507	-7.03245401382	-12.9109840393	4.04939460754
-29.1458263397	-30.6238555908	70.3242340088	-8.46842098236	-13.7802028656	4.04562187195
-27.6064052582	-36.1938323975	67.6930923462	-7.99618339539	-12.2155704498	3.65810823441
-25.8791866302	-42.7711753845	65.1084442139	-7.22904777527	-9.61044883728	3.52125477791
-28.2042179108	-47.5637702942	67.3518295288	-7.02341556549	-8.60866832733	3.40050601959
-30.95819664	-46.8958854675	67.9652404785	-6.67536640167	-8.67962169647	3.10259914398
-28.8923492432	-44.1328010559	63.3898620605	-6.05642986298	-8.93895530701	2.71055412292
-30.0864715576	-50.0376739502	74.3067932129	-5.50253582001	-10.7954702377	2.02239871025
-32.4947738647	-55.5211448669	86.5225067139	-5.3041138649	-12.9275388718	1.40791726112
-34.8597373962	-59.2084388733	95.9075393677	-5.13709354401	-14.9487161636	0.617555856705
-41.626335144	-62.7129821777	107.754318237	-5.24266290665	-16.2350654602	0.354281127453
-47.525188446	-62.6812667847	113.434829712	-6.03130865097	-16.5770606995	0.714026033878
-32.7145576477	-56.7817306519	84.5602722168	-6.77924060822	-16.1024990082	1.38456845284
-26.040971756	-46.3804702759	63.8655509949	-7.52506113052	-14.8970823288	2.18363189697
-29.4005966187	-36.0503997803	55.5241546631	-8.48556900024	-13.0808973312	2.98246002197
-31.7429084778	-28.0012283325	52.8679122925	-9.59431362152	-11.0989294052	3.95408368111
-28.9979991913	-26.5497703552	51.1046943665	-10.4023351669	-10.3858537674	4.74100446701
-28.0545349121	-25.0837650299	51.8256721497	-10.599738121	-10.3333272934	5.34178543091
-29.7740592957	-24.8033161163	53.6320075989	-10.641535759	-10.1267299652	5.72198963165
-31.0506134033	-24.4667854309	52.4908218384	-10.7175178528	-10.6899642944	5.57096529007
-30.2379074097	-26.9108562469	53.8604812622	-10.8002281189	-12.3335390091	4.87889146805
-27.8141117096	-33.4123687744	61.0923995972	-10.9731044769	-13.4223957062	4.540122509
-30.7415161133	-42.881061554	76.4676513672	-11.2103185654	-13.5706672668	4.23038196564
-31.4182415009	-49.4241943359	82.1493453979	-11.2201356888	-13.2153320312	3.9450674057
-24.8774871826	-50.2814750671	72.4659500122	-10.7904548645	-12.7358760834	3.81019854546
-15.0508794785	-40.5469741821	50.3390007019	-10.0844535828	-12.2868108749	3.36143112183
-9.85682201385	-29.4632053375	32.9004859924	-9.20957660675	-11.5196619034	3.09228229523
-9.54900169373	-24.1976699829	25.8646278381	-8.89381122589	-10.7595300674	3.0790913105
-9.59322834015	-24.7926425934	28.1816234589	-8.74888038635	-10.7146587372	3.0196723938
-11.7884569168	-31.9544219971	41.6391334534	-8.41661548615	-11.5680332184	2.66493391991
-15.6450223923	-37.9509277344	54.2578887939	-7.77000761032	-12.9344539642	1.92577731609
-18.5668048859	-43.3438148499	63.128993988	-7.08481693268	-14.4455747604	0.940524995327
-19.176820755	-46.7317352295	65.2231903076	-6.57488965988	-16.3383350372	-0.112124845386
-18.728723526	-48.4729156494	64.7466049194	-6.58898639679	-18.6822471619	-0.651908099651
-18.2482795715	-50.1153182983	64.6378326416	-7.32441759109	-20.3488502502	-0.641037285328
-18.7134971619	-50.819896698	65.4526672363	-7.9384059906	-21.0055046082	-0.538845658302
-19.4641723633	-51.1311531067	66.5795059204	-7.97071123123	-21.107383728	-0.595622837543
-20.292755127	-52.6645088196	69.3727416992	-7.82356500626	-21.3542461395	-0.786811470985
-21.0428466797	-55.2218513489	73.3771972656	-7.62199783325	-21.8439369202	-1.08890914917
-21.1677112579	-56.7163696289	74.9865264893	-7.34465122223	-22.5946617126	-1.50123178959
