0.0	-0.0	138.878250122	-110.712097168	85.7989654541	-179.943405151
0.0	-0.0	139.599487305	-110.299339294	85.983253479	179.713439941
0.0	-0.0	139.590789795	-109.847251892	86.0132904053	179.536361694
0.0	-0.0	138.168426514	-108.738700867	86.458114624	179.306594849
0.0	-0.0	131.063140869	-105.232276917	86.5158309937	179.068572998
0.0	-0.0	126.65927124	-99.9199829102	86.6136779785	178.5809021
0.0	-0.0	118.690299988	-94.0685882568	87.6306991577	178.122131348
0.0	-0.0	105.786758423	-89.8312225342	88.7018890381	177.755447388
0.0	-0.0	74.4492950439	-86.8506317139	89.8036727905	177.059936523
