-5.72203111649	-80.8609848022	139.704681396	12.8640193939	6.061647892	5.36887788773
-4.87452173233	-81.0564041138	138.967254639	12.9406919479	6.04307937622	5.34183979034
-5.2538189888	-81.2424087524	139.398132324	13.0206451416	6.12964963913	5.3678817749
-5.04140043259	-81.2887268066	139.087097168	12.6253385544	5.92481851578	5.37176322937
-2.07656860352	-80.7472305298	135.395965576	11.1725320816	5.26150989532	5.99479484558
1.30056118965	-79.8384933472	129.715560913	9.00322341919	4.85798978806	6.9083738327
-7.69182062149	-79.4198150635	137.849456787	7.22492265701	4.77888584137	7.75173902512
-12.4690656662	-79.4953079224	141.570678711	6.32905006409	4.45382118225	8.50662708282
-15.4078683853	-79.2830963135	143.506134033	5.79447507858	3.96035051346	9.19440555573
-17.8053150177	-78.7657089233	144.818023682	5.41647577286	3.94727039337	9.79625606537
-20.7026367188	-77.880241394	147.374221802	5.39085817337	4.47339057922	10.2300758362
-14.077091217	-76.5494995117	139.637283325	6.18941068649	4.89461326599	10.2825489044
1.4623875618	-74.340927124	122.066818237	7.07175159454	4.79536056519	10.1278610229
15.0967531204	-71.0391159058	105.466011047	7.55752563477	4.53886127472	9.7637052536
23.4665222168	-69.2525482178	96.2712783813	7.91636323929	4.53169631958	9.38326072693
25.0043373108	-68.998626709	95.6037597656	8.17076683044	4.62287330627	9.24279212952
