-54.6904029846	0.630484163761	1.98409152031	-15.5122747421	-1.19307243824	-34.8899917603
-55.1673736572	0.55543076992	2.09181785583	-15.7158889771	-1.08701360226	-34.768573761
-55.4247207642	0.141685083508	2.10406827927	-15.4461345673	-0.971843540668	-34.5761184692
-54.7781944275	-0.270292073488	1.99727058411	-14.3418769836	-0.237810105085	-33.8625602722
-52.5134773254	-0.41569045186	1.53361713886	-11.9210767746	2.02002549171	-31.9572792053
-48.8698196411	0.957184255123	-0.881471276283	-9.11194896698	6.38513183594	-28.253200531
-44.0981788635	6.10885810852	-6.45091533661	-6.76950836182	11.725066185	-23.3865814209
-41.0969924927	8.34901618958	-4.77568244934	-4.84275913239	15.6128530502	-18.9880104065
-36.9315681458	8.37527275085	9.54491901398	-3.36320090294	18.0069580078	-14.7036113739
-28.0791416168	8.81511211395	22.5948753357	-2.52589607239	19.100227356	-10.7333374023
-19.9634628296	11.1999998093	24.8041973114	-2.10846757889	19.8345489502	-8.25154399872
-15.6758518219	14.0086565018	24.2966327667	-2.88084673882	20.8108062744	-7.78062105179
-15.2522325516	19.0974807739	16.037399292	-4.26109790802	22.3847770691	-8.3132610321
-16.8631267548	22.7635936737	7.91046571732	-4.79678440094	23.3501033783	-8.60087490082
-20.1564388275	23.4777507782	5.59739637375	-5.01443862915	23.7383327484	-8.61152648926
-22.4104747772	22.5825176239	4.5232167244	-5.41947698593	23.976858139	-8.91136360168
-24.4149093628	21.689863205	3.74600625038	-6.10684204102	24.4194736481	-9.25880146027
-25.8180980682	20.5055770874	8.48603343964	-6.97956800461	24.9776763916	-9.59066200256
-24.5306816101	19.9185848236	15.9068527222	-7.62535905838	25.3661746979	-9.86845397949
-22.6492156982	19.6557273865	17.4271755219	-7.92516374588	26.0765266418	-10.1419467926
-21.5088787079	19.3896045685	18.2972621918	-7.81132793427	27.2220954895	-10.6860876083
-21.4606704712	19.7829055786	17.0892391205	-7.72108316422	29.2488670349	-12.4885969162
-21.761182785	19.9510784149	16.560333252	-7.6781539917	30.5481815338	-14.1264925003
-23.1403388977	20.644826889	15.7327928543	-7.66851329803	31.0437488556	-15.0964889526
-26.445728302	22.1028823853	9.4950094223	-7.52246618271	30.796672821	-15.322842598
-33.4792480469	24.3430404663	-5.30687999725	-7.23271417618	29.8687057495	-15.0395526886
-40.2828788757	24.3700027466	-8.88208961487	-6.85261917114	28.4997768402	-14.2847909927
-44.4508743286	23.342792511	-6.46869754791	-6.96378850937	27.5954284668	-13.6707639694
-46.1434936523	21.0216884613	1.00034844875	-7.41144037247	27.1350765228	-13.2365970612
-51.0696716309	22.7380199432	18.337677002	-8.01560783386	27.1695785522	-12.9248895645
-52.7532424927	25.1049022675	24.3553123474	-8.56387805939	27.3040599823	-12.8506879807
-51.3238677979	24.3553695679	25.484954834	-8.85324668884	27.279920578	-13.0918083191
-49.1231651306	22.6290931702	25.964050293	-8.55727386475	27.1019554138	-13.3824872971
-46.8797492981	21.7214069366	26.6273002625	-8.03716087341	27.357635498	-13.6171588898
-44.431060791	21.183713913	26.7054328918	-7.28093004227	28.4408187866	-13.9923477173
-41.5904502869	21.1017971039	24.8655738831	-6.21566963196	29.2696342468	-14.3076133728
-40.0789146423	21.3860378265	22.5709629059	-5.72933721542	29.4744548798	-14.5507030487
-39.7344589233	21.127620697	22.4455814362	-5.93306684494	29.7009086609	-15.0296325684
-39.2814369202	20.6024417877	22.1494026184	-6.14149618149	30.1209526062	-15.3481740952
-39.0468482971	20.4089565277	22.1379070282	-6.250020504	30.331401825	-15.6539096832
-39.2866020203	20.6099739075	21.9223384857	-6.30903100967	30.8229980469	-15.9567518234
-39.1220855713	20.7886295319	22.0855998993	-6.48825216293	31.4906425476	-16.3982582092
-39.168712616	21.1245365143	21.0335388184	-6.21643590927	31.7322235107	-16.568365097
-39.2855033875	21.2044143677	20.5463447571	-6.0482378006	31.8810844421	-16.7494697571
-39.2059707642	21.1823444366	19.7965946198	-6.09889936447	31.885717392	-16.9963512421
-39.0681304932	21.0492401123	19.5619106293	-6.15948677063	31.900346756	-17.4320545197
-39.1844024658	21.1087970734	19.5293560028	-6.42879152298	32.6835365295	-18.9613571167
-39.0395507812	21.1410541534	19.2355632782	-7.19445228577	33.45703125	-19.3470458984
-38.9331893921	20.7186164856	18.7025661469	-7.00184011459	31.5187034607	-15.5498752594
-38.8387870789	20.6815567017	18.4008674622	-6.58621454239	29.3569030762	-10.8072490692
-38.7798881531	20.6968021393	18.7108955383	-7.18636226654	28.5301532745	-8.91659736633
-38.8173103333	20.7253170013	18.9717025757	-7.97751188278	27.8706531525	-9.48807144165
-39.0995979309	20.883020401	19.1059894562	-7.78804540634	27.0088882446	-10.5434036255
-39.2784729004	20.9118309021	19.014623642	-7.75355482101	26.2173748016	-11.8687381744
-39.177898407	21.0066432953	18.8741817474	-7.5191192627	24.9410572052	-13.1270446777
-38.8845100403	21.1197967529	18.7861824036	-7.00629138947	24.0404853821	-14.1168203354
-39.410118103	21.1958503723	17.9780292511	-6.38788843155	23.7248687744	-14.8463068008
-40.8960571289	21.6451301575	16.5792598724	-5.99408626556	23.9727191925	-15.3054447174
-43.1242141724	22.4375610352	12.1176958084	-5.97022676468	24.1714096069	-15.7335309982
-44.5889587402	22.7658424377	9.4870967865	-6.13271188736	24.3217773438	-15.8191432953
-46.7523345947	22.9682445526	7.86413383484	-6.70132017136	24.3674087524	-15.7595129013
-47.746471405	22.8131637573	9.78713226318	-7.51077079773	24.1754245758	-15.7502374649
-49.0628509521	22.8698883057	10.9447488785	-8.2187833786	23.9113273621	-15.7442178726
-51.1785469055	23.2545185089	9.92722034454	-8.83240890503	24.0285377502	-15.8203401566
-53.8584861755	23.597951889	6.65565156937	-9.33530521393	24.1047725677	-15.9265937805
-55.847278595	23.4996623993	4.62715673447	-9.57797336578	23.9967498779	-15.9914588928
-56.7899971008	23.1462192535	4.10481739044	-9.59008789062	24.1623191833	-16.0691757202
-57.2719497681	22.8809432983	3.79212999344	-9.61654376984	24.4558506012	-16.1948547363
-57.5951538086	22.869436264	2.86316728592	-9.52592563629	24.7195396423	-16.2745571136
-57.5301399231	22.9706325531	0.535833656788	-9.37540435791	25.4511909485	-16.5432929993
-58.8436355591	22.352684021	-8.1741104126	-9.11211872101	26.5758266449	-16.9033412933
-59.4861373901	21.4044780731	-12.9397792816	-8.84185791016	26.824344635	-16.7145996094
-57.651889801	21.1379489899	-6.57938671112	-8.87953567505	26.6594982147	-16.5795269012
-54.5923423767	20.926027298	-1.99321818352	-8.84858226776	26.6895961761	-16.4295768738
-53.6037979126	21.1797199249	-8.26209640503	-9.05570220947	27.177110672	-16.5662612915
-54.3863525391	20.9590682983	-22.6987762451	-9.07833385468	27.3665409088	-16.7964172363
-53.2233352661	19.411907196	-21.6657962799	-8.68179893494	27.2117061615	-16.6360359192
-52.565776825	19.5794258118	-18.2756080627	-8.52529144287	27.0316848755	-16.5958194733
-52.5634841919	20.2498931885	-18.0594329834	-8.43416786194	27.2614002228	-17.1150150299
-53.1109924316	20.5353832245	-17.8277168274	-8.25583076477	27.3123416901	-19.5296859741
-53.5637626648	20.8312702179	-17.4272193909	-7.9675989151	26.4207439423	-22.341709137
-53.161907196	20.358417511	-17.6444969177	-7.78961372375	26.8190422058	-19.7511577606
-52.6068534851	19.4057369232	-17.831905365	-7.62332677841	30.2771148682	-9.66087532043
-51.8459091187	18.4283390045	-17.8585987091	-5.59918022156	32.6894187927	5.0608086586
-51.4479522705	18.1637859344	-17.9417972565	-4.34612321854	32.0680541992	15.472650528
-51.1290473938	18.7295207977	-17.1615715027	-4.88355541229	30.9779891968	19.3951969147
-51.5216407776	18.9999008179	-16.0279922485	-5.27956819534	30.9646224976	21.1781578064
-52.9147911072	19.0586605072	-16.1038227081	-5.11985588074	31.5115699768	23.4198703766
-53.9640083313	19.4075717926	-15.6789979935	-5.32335233688	32.1912612915	25.5584945679
-54.0129051208	20.2227687836	-14.6734380722	-5.50031280518	33.2014198303	27.3914299011
-53.3144073486	21.8015289307	-12.6205015182	-5.37043428421	34.3466644287	28.3089752197
-52.7309074402	23.0571250916	-8.76278305054	-4.92682123184	35.2114753723	28.4480457306
-51.3896789551	24.1974697113	-5.55779981613	-4.38496494293	36.006603241	28.94789505
-49.4990348816	25.446346283	-3.31024050713	-3.45461034775	36.5588951111	29.98736763
-48.4092826843	25.8250331879	-1.98167431355	-3.09705209732	36.3924102783	29.7816791534
-47.3512802124	25.6548080444	-1.18066287041	-3.74819016457	36.4333381653	27.0555839539
-46.1774787903	25.2295379639	-0.743976712227	-6.28899431229	37.4267959595	18.6960754395
-45.4966163635	24.3457393646	-0.84883671999	-10.3544769287	39.0565872192	10.1918849945
-44.9265022278	23.3857040405	-1.15892970562	-13.5979290009	38.9157028198	4.3152346611
-45.1703453064	23.3097324371	-1.64300906658	-14.242609024	37.486946106	0.721841275692
-45.0050735474	23.3811454773	-1.61086988449	-13.6878976822	36.5441398621	-1.26467776299
-44.8164825439	23.2488594055	-1.78598737717	-12.7918567657	36.3698577881	-2.22462654114
-44.7286758423	23.1989307404	-1.81190025806	-12.4826726913	36.3704032898	-3.13000631332
-44.5177078247	23.4971351624	-1.68173015118	-13.1658554077	35.8198471069	-4.68675947189
-44.6622581482	23.9692726135	-1.57821321487	-15.6965751648	33.8776245117	-8.75701332092
-45.2067108154	24.2143573761	-1.84698402882	-19.5279350281	29.9269676208	-14.7600507736
-45.5200920105	23.7053871155	-1.83851790428	-22.3732891083	26.0777053833	-18.5766792297
-45.3920211792	22.1116523743	-1.19295907021	-21.290763855	25.7298984528	-12.7761535645
-45.5125961304	20.9499225616	-0.884579539299	-12.8556442261	27.5545005798	2.27785634995
-46.0062980652	20.9944438934	0.831430315971	-1.44932281971	25.9097118378	17.3728790283
-45.6392822266	21.3582305908	2.14969301224	3.00833082199	23.0435161591	22.306394577
-45.532951355	21.0872821808	3.6913766861	3.48700976372	22.5789489746	23.3599262238
-45.3784141541	19.9294643402	3.75093269348	3.01475596428	23.8292942047	27.0370807648
-45.373550415	19.437002182	3.57572841644	2.1689646244	25.1518688202	32.4613685608
-45.817237854	20.6716060638	4.45765304565	0.18125371635	25.7915782928	35.314201355
-45.7670059204	22.0517520905	4.87161302567	-1.54717934132	25.8411140442	35.0441360474
-44.1049880981	22.3204345703	4.21078872681	-1.69569015503	25.3680667877	35.8962211609
-41.444393158	22.1000289917	0.0299176666886	-1.97621488571	25.2015800476	37.3270874023
-39.4547119141	21.7238388062	-4.5794172287	-3.00124692917	25.503288269	36.6557693481
-38.7371520996	20.6617736816	-8.15973186493	-2.7425301075	26.1527633667	36.0021286011
-37.5153884888	20.0401763916	-8.51410484314	-1.47582161427	27.0002613068	36.6523780823
-36.3811569214	20.5319404602	-7.27724885941	-0.886201858521	27.725189209	37.1426353455
-35.7649688721	21.5768356323	-4.0180182457	-0.961145997047	28.094543457	37.3703384399
-35.7257537842	22.6450328827	-2.63264656067	-1.41000819206	28.3067817688	37.2369728088
-36.3524360657	23.4151096344	-5.33391237259	-1.7826499939	28.779592514	36.5710716248
-38.7626075745	23.9919872284	-16.6878318787	-2.76140713692	29.3677139282	34.9888877869
-39.9253120422	24.4852046967	-18.8939228058	-3.81574940681	29.970539093	33.6029968262
-39.3911933899	24.9495582581	-18.8269290924	-4.01103258133	30.1585292816	33.588092804
-38.2951812744	25.5340366364	-18.3453502655	-4.00524330139	30.7193622589	33.8731651306
-37.9417495728	26.38073349	-17.4592266083	-3.70900964737	31.8800830841	34.7703971863
-37.1879005432	27.1235675812	-16.1222763062	-3.80435848236	32.682762146	36.7216148376
-37.3278656006	27.2191410065	-15.434173584	-5.2334022522	32.9789466858	37.779586792
-36.8194313049	27.359998703	-13.186545372	-8.12334251404	32.5525627136	36.4004364014
-36.2499427795	27.4311161041	-12.6634159088	-12.792224884	31.905418396	33.3039665222
-35.5710601807	27.0277519226	-12.876159668	-16.301733017	31.589723587	33.4635162354
-35.2498245239	26.6764793396	-13.2380514145	-17.424123764	31.4538402557	35.5345878601
-34.7537193298	26.5969104767	-12.5343170166	-17.8542308807	31.091714859	37.5352783203
-33.9462432861	27.0719184875	-11.9847269058	-18.2909889221	30.5182380676	37.7159881592
-32.9651031494	27.3260040283	-11.4838666916	-17.5283966064	30.5052280426	37.9792900085
-32.4537506104	27.5971755981	-11.3914604187	-16.4663200378	30.4438037872	37.2575912476
-32.5502281189	27.8502826691	-11.1391601562	-15.4193973541	30.1523513794	35.5783462524
-32.4036521912	27.7328567505	-11.3727312088	-14.7686166763	29.9027442932	33.7013320923
-31.9802322388	27.3744697571	-11.7936353683	-14.2214479446	30.0851287842	31.8557949066
-31.632768631	27.2553977966	-12.0063171387	-13.3096609116	30.4475097656	30.2016181946
-31.1461200714	27.2185058594	-12.0899906158	-12.0131921768	30.6088161469	28.248916626
-30.5863819122	27.2045230865	-11.739033699	-10.5073280334	30.5040779114	25.2608127594
-29.9827270508	27.0616455078	-11.3486776352	-9.39771270752	29.9315452576	21.226360321
-29.234828949	26.7012615204	-11.2767791748	-8.43413925171	29.5012588501	17.7674770355
-29.0745162964	26.4451999664	-11.5516061783	-7.64185237885	29.0265712738	15.8346910477
-29.2163028717	26.5173015594	-11.7811660767	-6.7959728241	28.8372955322	15.3651237488
-29.3188438416	26.6592941284	-12.1337881088	-6.84298229218	28.6823577881	14.9904050827
-29.1317996979	26.9693775177	-12.0780582428	-7.89437532425	28.1028404236	14.1535377502
-29.2286567688	27.1345386505	-12.0452127457	-10.7393493652	26.9981193542	11.0303201675
-28.9573688507	27.1795387268	-12.025103569	-15.652422905	24.9863166809	5.64793539047
-28.7985782623	27.1046943665	-11.8921146393	-20.3135166168	22.3323554993	0.813580930233
-28.9471817017	26.7832221985	-12.1039094925	-21.1939582825	20.9067764282	0.291799068451
-29.0176715851	26.3002033234	-12.5525770187	-16.3767662048	21.693157196	5.24561357498
-28.8740367889	26.1115455627	-12.6772899628	-6.58156013489	22.6702423096	14.2649612427
-28.3198432922	26.1378898621	-12.2542648315	-0.283386558294	21.2889060974	20.4445285797
-27.5992698669	26.3129062653	-11.6765880585	0.202897280455	20.2272968292	21.583316803
-27.0064544678	26.4355926514	-11.4049596786	-1.66406750679	20.3748435974	21.1637516022
-27.4878692627	26.442483902	-11.7548522949	-3.20187401772	20.9049625397	21.4227027893
-28.6557731628	26.3978729248	-12.1911649704	-4.63095569611	21.2839698792	21.6084976196
-30.1788101196	26.2733764648	-12.2607917786	-5.94757986069	21.6227836609	21.5755519867
-31.3430938721	26.2936096191	-12.2506103516	-6.80228281021	22.1576118469	21.9479637146
-32.2163696289	26.3786888123	-12.1762018204	-7.66505289078	22.8765506744	22.3158359528
-32.4531288147	26.6001358032	-11.8081922531	-8.33883953094	23.6190853119	22.4324455261
-32.5218887329	26.9720573425	-11.4233283997	-8.27690792084	24.4354476929	22.8246135712
-32.5008964539	27.341085434	-11.1133680344	-7.97254180908	25.3010387421	23.2586994171
-32.3208618164	27.7905368805	-10.7225971222	-7.46017551422	26.538602829	23.8325004578
-32.0891342163	27.9074630737	-10.7392644882	-6.40521526337	27.7142314911	25.4342708588
-31.64295578	28.0852661133	-10.6349020004	-5.88075494766	28.0391044617	26.5475578308
-31.2124671936	28.3681621552	-10.3906040192	-6.66884088516	28.0731601715	24.8064956665
-30.7356281281	28.2411594391	-10.5812044144	-7.37173032761	28.5963726044	22.3553390503
