-29.2864570618	2.72395396233	22.7437210083	1.5092946291	-4.46819067001	-33.7169303894
-29.2021255493	2.86940574646	22.7550201416	1.69409787655	-4.50751495361	-33.837146759
-29.136548996	2.74795007706	22.6677379608	1.73799872398	-4.08581638336	-33.1405334473
-29.3840122223	2.56288909912	22.3444423676	0.347077608109	-2.71030545235	-30.1013565063
-30.9934062958	2.90108752251	22.9975681305	-2.42254471779	-0.193640649319	-25.3198204041
-31.0669059753	2.28977847099	24.0914440155	-5.97787570953	1.77316975594	-20.4065284729
-29.8046455383	1.95733368397	24.3337516785	-8.53430080414	3.7304444313	-16.2148475647
-28.9263706207	1.94713938236	24.6585693359	-10.5487270355	5.96905136108	-13.4634475708
-28.3145313263	2.12496185303	25.1194629669	-11.9274845123	8.07736873627	-11.6083860397
-28.0968399048	2.37382769585	25.3864917755	-13.4361953735	10.166636467	-9.60771560669
-28.40275383	2.10655832291	25.8492431641	-15.1973133087	11.4553890228	-7.77906036377
-28.6825790405	1.41871225834	26.2215957642	-17.1015834808	12.1292390823	-6.12603473663
-28.8637199402	0.828829407692	26.4110031128	-19.2919063568	12.271478653	-4.18852424622
-29.026140213	0.575774848461	26.5140857697	-20.9971446991	12.4625530243	-1.99519252777
-29.0985736847	0.494446158409	26.6244029999	-22.118139267	12.67669487	-0.316250294447
-29.0878181458	0.659280598164	26.8464508057	-22.5651016235	12.9084196091	0.412710815668
-29.2165660858	0.578214943409	27.2797260284	-22.097202301	13.5808734894	0.527291715145
-28.7709236145	0.497370332479	27.78865242	-20.7436828613	14.479640007	-0.177776068449
-27.6257076263	0.762396216393	28.2722034454	-18.928565979	15.0572605133	-1.57527327538
-26.5183944702	0.961544036865	28.4234313965	-17.1141281128	15.5620756149	-3.39325904846
-25.3970794678	0.752586841583	28.1950416565	-15.6695575714	15.5994672775	-5.16736030579
-24.8237133026	0.138045608997	28.6920471191	-15.1828584671	15.7274475098	-6.76544904709
-25.1759281158	-0.950687468052	30.4076404572	-14.8783855438	15.7104196548	-7.30368089676
-23.9192790985	-1.11249315739	31.1332035065	-14.444275856	15.6178531647	-7.23388338089
-21.5750141144	0.280869424343	29.7165584564	-14.2413377762	15.6234855652	-7.81443214417
-20.534942627	0.969352841377	29.3779163361	-14.1969385147	15.1683502197	-11.008392334
-21.4365844727	1.17327928543	30.4034233093	-14.893330574	13.5416593552	-19.9425163269
-22.457988739	0.782693505287	30.9636611938	-16.4915924072	12.4240655899	-27.5452632904
-22.7133522034	-0.282196968794	30.290304184	-17.6858558655	12.8939027786	-24.8706378937
-23.0434551239	-0.980681836605	30.0621433258	-18.4198360443	14.9346370697	-17.6949424744
-23.0515060425	-1.73935091496	30.2890872955	-19.7987136841	16.6460533142	-11.9040575027
-22.4022102356	-2.36903715134	29.9001865387	-21.4995594025	17.3102703094	-7.87258815765
-22.4515285492	-2.67868685722	29.0905857086	-23.0395622253	16.9844169617	-5.26529407501
-22.8412151337	-2.99370980263	28.5207538605	-23.3271198273	16.7297210693	-3.63710832596
-22.5635128021	-3.45736885071	28.0789489746	-23.3866405487	17.0953292847	-2.9280807972
-21.1294345856	-3.56135082245	27.3027877808	-23.587682724	17.9579944611	-3.1007797718
-18.9349689484	-2.96556258202	26.218170166	-22.6523208618	19.3867797852	-3.07450032234
-17.3236923218	-2.23091983795	25.8674125671	-20.9555454254	21.156879425	-2.02695775032
-16.1902103424	-1.48800122738	26.2975978851	-20.2226448059	22.8786754608	0.222853392363
-15.2516088486	-0.748241186142	26.6802101135	-20.0758018494	24.2962722778	3.127202034
-14.6261425018	-0.436054617167	27.3186035156	-19.8772220612	25.0759773254	6.23047494888
-14.4132556915	0.121938936412	28.3616523743	-20.1753292084	24.8570899963	8.47104358673
-14.6909475327	0.0714042782784	29.0448360443	-20.7800331116	24.5918731689	9.8328371048
-15.0790691376	-0.213012740016	29.4145717621	-21.0968437195	24.1572399139	11.0064888
-15.4590101242	-0.518771708012	29.5305690765	-21.3921070099	23.9091300964	11.5624933243
-15.9542732239	-0.713289260864	29.2399711609	-21.4348278046	23.7561683655	11.4334754944
-16.0922546387	-0.847649157047	29.1526050568	-20.85297966	23.5563259125	10.9643115997
-15.4283742905	-0.799718022346	29.1903209686	-20.2129440308	23.4966964722	9.86728954315
-14.7213516235	-0.837622225285	29.0429382324	-19.463180542	23.6084671021	8.98686313629
-14.0537519455	-0.719182610512	28.0839691162	-18.8054141998	23.2933826447	8.86914539337
-15.3337755203	-1.45033025742	27.2565135956	-18.8839244843	22.6903152466	8.73542976379
-16.5787315369	-1.82693350315	28.3436584473	-18.6096611023	22.5254764557	8.84134578705
-15.8881502151	-1.47304236889	29.0528793335	-18.1197338104	22.8079853058	9.22162437439
-15.1954698563	-1.64337563515	29.2774066925	-17.8898582458	22.7638568878	9.19419765472
-15.1250238419	-1.86164104939	29.5126667023	-17.647359848	22.5103683472	8.48479175568
-15.0309467316	-1.99819600582	29.2911014557	-17.5736598969	22.2371311188	6.54959726334
-14.0928764343	-2.28023672104	28.8253040314	-18.8296833038	22.212896347	1.42371666431
-13.2621936798	-2.55507445335	28.0194454193	-21.9307365417	21.9303913116	-6.84150266647
-12.9720821381	-2.84692502022	27.667219162	-24.1339740753	20.4121875763	-12.7625331879
-13.0241785049	-2.5849275589	28.3048419952	-26.7492809296	18.6277656555	-18.9468002319
-13.7657165527	-1.08576834202	28.6931018829	-28.2850914001	17.3523597717	-20.6408748627
-14.602388382	-0.316484987736	27.9444847107	-29.4366817474	17.555065155	-19.4097366333
-15.919552803	-0.723805248737	28.818693161	-36.5093269348	17.7810783386	-24.4580001831
-15.7675304413	-0.951777160168	30.2717208862	-39.68359375	17.7171268463	-24.924495697
-15.9212751389	0.678559064865	30.9509181976	-37.5287284851	18.3234100342	-23.322599411
-17.5667686462	0.442560136318	32.6166152954	-33.1882972717	18.5615577698	-21.2849197388
-18.392583847	-0.279818385839	34.5656814575	-26.6993751526	18.5084762573	-20.2270641327
-18.323343277	-0.288277029991	35.6416549683	-19.8859577179	17.998796463	-21.6929206848
-18.128818512	0.697220206261	36.328994751	-16.5038547516	17.1374988556	-24.8829517365
-18.566286087	2.91740369797	34.5028190613	-16.3244838715	16.3603286743	-27.6656837463
-17.9883060455	2.41122364998	33.0330734253	-15.3517341614	15.8637542725	-26.3756027222
-18.3513660431	2.28368711472	34.9333534241	-14.7928466797	15.4183969498	-24.6720371246
-18.7301864624	2.69602799416	36.0107879639	-16.0195217133	16.2386493683	-22.596452713
-18.9177131653	2.89666175842	35.8558158875	-18.7045383453	16.0561847687	-18.5500469208
-19.9232673645	4.34813117981	36.1046829224	-23.2500743866	13.1356201172	-14.9325437546
-21.9466991425	5.07304906845	37.4937438965	-27.29063797	12.5400505066	-10.7491760254
-22.8506164551	4.51102590561	38.182888031	-30.5183048248	13.3933238983	-6.35000276566
-23.5363483429	4.17813444138	38.80027771	-32.3119163513	14.2274780273	-3.72945332527
-24.6613559723	4.61710548401	39.3200416565	-32.6572990417	14.4063148499	-3.16227698326
-25.2005939484	4.2832942009	40.2068138123	-31.6027145386	14.6795578003	-3.66233229637
-24.4298019409	3.35919737816	40.5493431091	-30.0175056458	14.6547088623	-4.84264373779
-23.6046619415	2.92670178413	40.3176574707	-28.1787395477	14.0130395889	-6.3536157608
-23.2950706482	2.92156815529	40.0492935181	-26.6460838318	13.1582479477	-7.60959863663
-22.8918151855	2.64788770676	39.7094993591	-25.685874939	12.4561634064	-8.19540596008
-22.343208313	2.36841440201	39.9155082703	-24.7721843719	12.1289644241	-8.6066942215
-22.2401599884	1.43181812763	35.4099807739	-23.7892074585	12.2273511887	-8.77544975281
-22.5271663666	0.928689062595	35.5410766602	-23.4549865723	12.3760786057	-8.83594322205
-21.8262863159	0.95404446125	34.9537200928	-23.4401035309	12.8631019592	-8.77711009979
-20.8055648804	1.46092426777	36.6078910828	-23.4898319244	13.5626974106	-8.70056915283
-19.9925823212	2.07577180862	37.0812110901	-23.5771446228	14.0241718292	-8.51974487305
-19.4026813507	1.98344063759	35.642414093	-23.471321106	14.3166027069	-8.261510849
-17.574886322	0.479464292526	32.124797821	-22.826915741	14.5094165802	-8.10737991333
-14.4968624115	0.504593849182	25.249288559	-20.938867569	14.8371658325	-7.96678256989
-11.376955986	0.805665254593	23.4714031219	-18.84349823	15.0348882675	-7.93738460541
-9.44157123566	0.514347434044	16.7373352051	-16.7744579315	15.3052148819	-8.0388879776
-9.57442855835	0.31581133604	11.3791894913	-14.7463541031	15.8289585114	-7.87376785278
-10.3324222565	0.0123381316662	8.21544551849	-13.7199516296	15.7931756973	-7.87820100784
-10.5609388351	-0.431384384632	5.59526109695	-13.2873458862	15.7028417587	-8.02074623108
-9.96602153778	-0.4575958848	0.688762009144	-12.7697944641	15.6157894135	-7.9479842186
-10.3604183197	-0.187094643712	-5.16001987457	-11.6068353653	15.2641944885	-7.67574453354
-11.5145645142	-0.392556279898	-8.47444152832	-10.0065107346	14.549738884	-7.18118858337
-12.0558567047	-2.6927292347	-8.00650882721	-8.21415138245	13.649394989	-6.68667173386
-12.3544740677	-3.77683806419	-10.0476894379	-6.79109287262	12.8629188538	-6.31452274323
-11.4157466888	0.128749877214	-12.3744907379	-6.13442611694	11.8981199265	-6.22503805161
-11.3976869583	7.23729705811	-15.6877231598	-6.10185337067	11.5786418915	-6.10006189346
-11.6599197388	11.34760952	-14.5445966721	-6.24253129959	11.9037132263	-5.93585538864
-11.6796941757	12.8184976578	-12.5925779343	-6.61861419678	12.1613464355	-5.7204656601
-10.272400856	13.8696546555	-9.81727027893	-7.02353525162	12.1985435486	-5.36080598831
-9.22768688202	9.28608798981	6.72015142441	-7.32497406006	12.1986141205	-4.96759319305
-7.6872048378	5.96191310883	18.2682495117	-7.73388147354	12.5928840637	-5.08972930908
-6.40408754349	7.34484004974	16.0790271759	-8.68186187744	13.3757781982	-5.93182277679
-5.78783464432	6.89711141586	17.6234054565	-10.4755487442	13.7624578476	-7.40956354141
-6.0601849556	6.71393013	17.1782741547	-12.6375198364	13.9906816483	-8.96639919281
-7.13301515579	6.58522748947	17.7686901093	-14.1843271255	14.6126155853	-9.3038520813
-9.09073162079	6.15913581848	19.9618167877	-15.0832433701	15.4378490448	-8.64656066895
-11.3142728806	4.76228618622	23.3182048798	-15.7267837524	15.8795404434	-7.8660492897
-12.0063648224	4.00805425644	24.1625289917	-16.1659927368	16.3504428864	-7.37399482727
-12.3842935562	4.20054531097	24.5233592987	-16.8050041199	17.1500797272	-7.38725805283
-12.7960472107	4.07853460312	25.0352096558	-17.8456897736	18.1923465729	-7.9037232399
-13.0283174515	3.54247283936	25.6563968658	-21.0982093811	19.0612220764	-12.3338308334
-13.1993246078	2.26507878304	26.0965156555	-27.1188850403	19.7503299713	-20.3455104828
-13.0578117371	2.14808630943	24.9191226959	-30.1467895508	19.1314487457	-25.1082687378
-13.6975221634	3.03617572784	23.3135356903	-30.263999939	19.5770072937	-25.2425556183
-15.1306266785	3.58090758324	22.9835357666	-29.0163536072	20.3247394562	-20.1625881195
-15.5302762985	3.46282482147	23.5723934174	-28.0015907288	21.3233680725	-13.1147279739
-15.3495750427	2.89148664474	24.3146629333	-28.3306922913	21.8522377014	-7.7895565033
-15.0606746674	1.9900701046	25.1762390137	-29.5143165588	21.3294677734	-4.37065458298
-14.7543201447	1.17466413975	25.2882957458	-29.6672019958	21.2891941071	-1.46067655087
-14.7357330322	0.730937957764	24.9440593719	-28.8037452698	21.4652309418	1.79578149319
-14.9143896103	0.855987250805	23.8138332367	-25.5309677124	20.2776546478	8.24099349976
-15.9333438873	1.92720258236	23.1947231293	-24.5255050659	19.7837181091	11.56001091
-16.6721496582	2.01926755905	23.020608902	-25.6997718811	20.1743068695	10.5891084671
-16.0893039703	2.13567399979	22.6183795929	-26.3320484161	19.9896602631	9.77060127258
-16.5282115936	1.99119830132	22.6677742004	-27.1204624176	19.9938240051	10.2749814987
-17.2471218109	1.24993240833	22.5115222931	-28.2453956604	19.7612419128	11.6971635818
-17.0888900757	0.874591886997	22.4721870422	-29.2528781891	19.6583900452	13.1186208725
-16.577337265	0.662897288799	22.1536846161	-29.5932559967	19.3453903198	14.0486288071
