-0.0538160800934	1.20530605316	-0.166548490524	-0.0838007926941	1.51996684074	-0.315866947174
-0.0550525188446	1.20532643795	-0.166421890259	-0.0845258235931	1.51945066452	-0.315480828285
-0.0561580657959	1.2050498724	-0.166321516037	-0.0846333503723	1.51837921143	-0.314467906952
-0.0564813613892	1.20522284508	-0.165928125381	-0.0811522006989	1.51500701904	-0.312301635742
-0.0549533367157	1.20656573772	-0.164942502975	-0.0730736255646	1.5103700161	-0.310157775879
-0.0556180477142	1.20715546608	-0.165561914444	-0.0634870529175	1.50624644756	-0.309301495552
-0.0562129020691	1.2081810236	-0.167937397957	-0.0549697875977	1.50309419632	-0.308669805527
-0.0548837184906	1.20878553391	-0.169642448425	-0.0462431907654	1.49963080883	-0.307812690735
-0.0495829582214	1.21003699303	-0.169657826424	-0.037328004837	1.49601471424	-0.307144880295
-0.0418920516968	1.21328186989	-0.16678071022	-0.0296361446381	1.49255466461	-0.30645608902
-0.0359263420105	1.21688818932	-0.164469003677	-0.0256731510162	1.49050712585	-0.30487370491
-0.0351011753082	1.21861851215	-0.164201498032	-0.0252025127411	1.4897236824	-0.30299782753
-0.0346693992615	1.22004592419	-0.165307998657	-0.0267605781555	1.48962581158	-0.301145076752
-0.0344331264496	1.22157907486	-0.166654825211	-0.0290484428406	1.4908105135	-0.300020217896
-0.0347142219543	1.22418642044	-0.16844534874	-0.0315034389496	1.49299788475	-0.298905134201
-0.033931016922	1.2263212204	-0.169622182846	-0.0335624217987	1.49474453926	-0.297257661819
-0.0306370258331	1.22692584991	-0.169411540031	-0.0348935127258	1.49600255489	-0.295561075211
-0.0267577171326	1.22747981548	-0.167951107025	-0.0350728034973	1.49733424187	-0.293860435486
-0.0228214263916	1.23041903973	-0.166624307632	-0.0338718891144	1.49751031399	-0.292088031769
-0.0192451477051	1.23328876495	-0.163883924484	-0.0315163135529	1.49616634846	-0.289400339127
-0.0159382820129	1.23454785347	-0.163009405136	-0.0292942523956	1.4951198101	-0.285599470139
-0.0135860443115	1.23658692837	-0.165558099747	-0.0275540351868	1.49480509758	-0.281361222267
-0.0112709999084	1.24025964737	-0.169744372368	-0.0253851413727	1.49423491955	-0.275518417358
-0.00931930541992	1.242192626	-0.173081874847	-0.0222856998444	1.49247527122	-0.2690513134
-0.00688934326172	1.24200987816	-0.175557732582	-0.0183358192444	1.49158668518	-0.262432098389
-0.00557899475098	1.24192035198	-0.178263545036	-0.013284444809	1.4918756485	-0.256509661674
-0.00366711616516	1.24291944504	-0.178561210632	-0.00833415985107	1.49103116989	-0.252207517624
-0.00219583511353	1.24395632744	-0.178112506866	-0.00430727005005	1.49014568329	-0.250712871552
-0.00155687332153	1.24557805061	-0.178988456726	-0.00195741653442	1.48996269703	-0.253038406372
-0.00166535377502	1.24854719639	-0.180965065956	0.00075888633728	1.49132633209	-0.257245779037
-0.00283646583557	1.25296080112	-0.184843659401	0.0038275718689	1.49319159985	-0.261051893234
-0.00474262237549	1.25441908836	-0.187512874603	0.00646710395813	1.49296331406	-0.263539910316
-0.00401258468628	1.25443637371	-0.187611818314	0.00851035118103	1.4921476841	-0.265078544617
-0.00141668319702	1.25582325459	-0.187133312225	0.0109360218048	1.49011623859	-0.267120599747
-0.00120615959167	1.25832951069	-0.187956690788	0.0128636360168	1.48847782612	-0.270159363747
-0.00164699554443	1.26102042198	-0.189896941185	0.0122494697571	1.48774921894	-0.273959755898
-0.000811100006104	1.26415097713	-0.190350651741	0.0101099014282	1.48714876175	-0.277557373047
0.000125408172607	1.26542687416	-0.190813064575	0.00502061843872	1.48762607574	-0.280560255051
-0.00440263748169	1.26566898823	-0.192491650581	-0.00208783149719	1.49048376083	-0.281704187393
-0.00991106033325	1.26820623875	-0.201724052429	-0.0117347240448	1.49228537083	-0.283650875092
