-51.1910400391	4.93554353714	1.2254858017	-4.28663063049	18.3517723083	-34.970993042
-51.0626869202	4.84967136383	1.1729991436	-4.55036687851	18.2970314026	-34.9358787537
-51.0340080261	4.65608406067	1.24486863613	-4.11871528625	18.310344696	-34.1932983398
-49.6597328186	3.32008171082	1.35043668747	-1.25866317749	18.231086731	-30.8728618622
-46.8656997681	1.22100877762	1.1540722847	3.23393774033	17.6281147003	-28.2111968994
-43.8861465454	-1.90513300896	0.194527491927	8.35589122772	17.1438770294	-26.4448947906
-40.1135978699	-6.25382852554	-1.68242490292	13.1897211075	16.3106155396	-24.5828819275
-35.1487808228	-10.4232282639	-4.4214515686	16.7179222107	15.3689889908	-23.4966926575
-29.5675849915	-12.5670804977	-7.97582530975	18.5836315155	15.2351284027	-23.46301651
-23.6812667847	-13.1489191055	-12.471818924	19.1273975372	15.9465932846	-23.7658252716
-19.9025020599	-13.0566148758	-14.7339544296	19.6913547516	16.2881317139	-23.6231880188
-17.8478050232	-12.7094726562	-16.1830406189	20.0660133362	16.5152683258	-23.5696640015
-16.8896312714	-12.5109729767	-18.434091568	19.9292907715	16.6680202484	-23.4704303741
-16.480764389	-11.8474597931	-21.5974712372	19.824508667	17.0607624054	-23.3552799225
-14.1139039993	-9.21625328064	-22.2215442657	20.0043296814	17.1017913818	-23.3641242981
-9.93942260742	-4.71325397491	-22.0781955719	20.1821708679	17.0705032349	-23.5183067322
-6.80313396454	-2.3838531971	-21.9708423615	20.2613430023	17.5873603821	-23.8451480865
-3.63987064362	-0.642851173878	-23.4686088562	20.3370952606	18.1443843842	-24.1910953522
-2.79557180405	-0.542291224003	-22.9607105255	20.2832164764	18.3571968079	-24.3651618958
-3.7337076664	-0.669313788414	-23.223526001	20.128742218	18.4307365417	-24.6985473633
-5.1107468605	-1.63047254086	-22.1616287231	19.9030895233	18.7309093475	-25.653924942
-5.92506122589	-2.12178325653	-21.7621135712	19.4627914429	19.2131671906	-26.0575656891
-6.15499639511	-2.85778307915	-21.1598014832	19.3622074127	19.3624687195	-23.9850006104
-6.43574905396	-3.00668740273	-21.1083812714	19.3374900818	20.0718231201	-18.6995830536
-6.2576007843	-3.11260795593	-21.3241043091	19.4051380157	21.0324440002	-12.7888250351
-6.09463500977	-2.94746422768	-21.1345615387	19.023557663	21.8774414062	-8.96034622192
-6.24270963669	-2.52974867821	-21.4518127441	17.9565315247	23.0108108521	-6.83690929413
-7.21229124069	-2.85704183578	-21.448217392	16.4037628174	24.6574478149	-5.0123333931
-8.20038795471	-2.70602679253	-21.4826831818	15.2658214569	25.8888816833	-3.08514428139
-8.66057014465	-2.30798435211	-21.9859371185	14.2071962357	26.5766735077	-2.03616786003
-8.69858932495	-1.48008108139	-22.7001018524	13.327539444	27.1049880981	-1.35113835335
-9.06952190399	-1.25192499161	-22.7991504669	12.6914625168	27.3634662628	-0.720641791821
-10.3351860046	-1.15911185741	-22.3008918762	12.2626495361	27.0760173798	-0.63138794899
-11.9972915649	-1.20618724823	-21.3476772308	12.0873508453	26.7853450775	-0.62120038271
-13.9236135483	-1.56684410572	-20.6767921448	12.0661449432	26.7135982513	-0.768784284592
-14.3284511566	-4.38252592087	-17.160036087	11.9295854568	26.5395431519	-0.957789242268
-14.1149368286	-4.75302219391	-16.3243236542	11.8751821518	26.5912685394	-1.04016566277
-13.6198177338	-3.43577885628	-15.8748922348	11.9854784012	26.6268539429	-1.19005298615
-12.9562015533	-1.92684149742	-15.8164205551	12.1843891144	26.5761508942	-1.2922103405
-13.2407073975	-1.50813472271	-14.4924383163	12.3581237793	26.117401123	-1.50505983829
-13.4329490662	-2.58871269226	-10.740983963	12.641749382	25.3538303375	-1.61289620399
-12.5133781433	-1.90610253811	-9.47155666351	12.7002973557	24.6747817993	-1.82236158848
-12.5032072067	0.0981867983937	-8.81538772583	12.6314649582	24.7116546631	-2.2078704834
-12.327878952	6.48073625565	-11.203543663	12.6757144928	25.030254364	-2.2881603241
-11.9494342804	11.0306711197	-14.118265152	12.545759201	25.0250816345	-2.46072125435
-12.9774522781	8.6170463562	-11.7712221146	12.5902080536	24.8992805481	-2.41416478157
-13.5433855057	6.17965126038	-9.27196979523	12.4931278229	24.9165229797	-2.55055165291
-13.7468585968	3.59246969223	-6.66890525818	12.2870016098	24.6460895538	-3.06665897369
-13.4103441238	2.97486948967	-5.91795825958	12.2758522034	24.4673442841	-3.43529224396
-12.7392635345	3.84000921249	-6.52647018433	12.5925073624	24.6263389587	-3.69113564491
-11.9111909866	4.59522008896	-7.67818784714	12.9613161087	24.8498306274	-3.90412211418
-11.1807003021	3.59187030792	-7.06133890152	13.1261386871	24.956609726	-4.14647769928
-10.8789491653	2.3512775898	-5.86592245102	13.230047226	24.9135417938	-4.35878562927
-10.2046060562	1.84488093853	-5.16565895081	13.2117033005	25.0549259186	-4.6765370369
-9.4753446579	2.50480556488	-5.707508564	13.3803014755	25.270565033	-4.8658657074
-8.02449798584	2.43017697334	-6.05922937393	13.5604543686	25.4132080078	-4.98691654205
-7.4249958992	1.73100507259	-5.83943843842	13.6821174622	25.4769763947	-5.11474323273
-7.33305454254	1.32232296467	-5.51986074448	13.8493099213	25.3972225189	-5.21415567398
-7.35294437408	0.661416053772	-4.95097208023	13.9310073853	25.4153347015	-5.31589508057
-7.44432783127	0.536712706089	-4.57949829102	13.9676361084	25.4829044342	-5.38681125641
-7.19386100769	0.51592952013	-4.65797758102	14.0038318634	25.4894046783	-5.48373413086
-6.20072317123	0.504483222961	-4.9209318161	14.1102046967	25.6199111938	-5.6232008934
-4.5805516243	0.871438860893	-5.40447378159	14.0233917236	25.6944904327	-5.74064445496
-3.43460798264	1.58436918259	-5.84116888046	13.8504095078	25.7145805359	-5.91647720337
-3.99429297447	1.93585002422	-6.05190563202	13.8069963455	25.7219905853	-6.05401039124
-4.69343948364	1.43758559227	-5.70111608505	13.5728816986	25.6366024017	-6.283639431
-5.2591843605	0.791042745113	-5.2220454216	13.3458194733	25.3795642853	-6.60538005829
-5.40508890152	0.994884729385	-5.24270057678	13.3359355927	25.2455177307	-6.8411231041
-5.37627696991	1.23896944523	-5.27780532837	13.2412796021	25.1609325409	-7.30271673203
-5.50911092758	1.34270906448	-5.04864835739	12.7761487961	25.1440620422	-8.7365655899
-5.69193267822	1.43849146366	-4.62273597717	12.1095056534	24.9231643677	-10.4609651566
