-44.2661552429	-73.7815933228	138.998031616	7.88922214508	1.05415785313	0.932191371918
-43.7564544678	-73.8222579956	138.601638794	8.04251289368	0.993760824203	0.801747858524
-43.6839179993	-73.8793334961	138.494155884	8.22418498993	1.00711739063	0.622278273106
-43.0518226624	-73.9480514526	137.778244019	8.31899166107	1.0126388073	0.542846381664
-42.2811889648	-73.886932373	136.978561401	8.31176567078	1.0079382658	0.521574616432
-42.4036636353	-74.0404129028	136.99887085	8.27115821838	0.968170940876	0.422504156828
-42.3498878479	-74.1393661499	136.718200684	8.29289340973	1.03381431103	0.399030208588
-43.3581695557	-73.955657959	137.339584351	8.10258960724	1.26283574104	0.427769869566
-42.4299736023	-70.61302948	134.569061279	7.87398052216	1.71167159081	0.672394871712
-41.4925193787	-65.1020965576	131.05519104	7.31740427017	2.14086675644	0.92362755537
-34.4329528809	-59.8850631714	117.102539062	6.36372947693	3.04481220245	1.27532660961
-27.8877296448	-52.2176132202	99.3732833862	4.70582485199	4.79917383194	1.97853922844
-28.8215751648	-43.9674911499	91.8468856812	2.58852171898	6.49225330353	3.00398349762
-27.1867103577	-37.0290145874	81.0260238647	0.433399230242	7.76692056656	4.04134654999
-25.9422302246	-33.7933425903	76.2929992676	-1.25472962856	8.97937202454	4.94913578033
-25.8361778259	-33.2218284607	75.1501998901	-2.42847299576	10.4990377426	5.54588603973
-27.8694763184	-31.6903247833	72.8284378052	-2.98849153519	11.838965416	5.78996896744
-29.9325199127	-30.1969871521	72.2540588379	-3.17119765282	12.8751974106	6.04365873337
-30.1394519806	-28.2913131714	67.7276535034	-3.23917651176	13.852107048	6.24911165237
-30.3020305634	-25.7056846619	57.6461906433	-3.41823673248	14.9865474701	6.30334997177
-29.4565906525	-20.7370929718	38.9650306702	-3.64497280121	15.9933719635	6.30239295959
-29.3294219971	-16.1087379456	28.979057312	-3.80710244179	16.6391544342	6.44491052628
-28.6185302734	-16.8670692444	31.7765789032	-4.10838651657	16.8119182587	6.55203437805
-28.449131012	-17.3628044128	38.3560256958	-4.38524198532	16.7099399567	6.75846290588
-29.5604457855	-17.3480644226	43.3688659668	-4.70274114609	16.7820167542	6.81435918808
-31.8650817871	-17.7800312042	53.1743812561	-4.72523403168	17.4759464264	6.8995552063
-34.1574859619	-17.1581039429	59.8761787415	-4.65369224548	18.1808357239	6.82784748077
-33.2118186951	-16.2178020477	63.8357810974	-4.50276422501	18.7806816101	6.83210897446
-29.2604064941	-15.4122333527	52.9310340881	-4.40650224686	19.7692470551	6.92083740234
-28.918296814	-13.673913002	32.7610015869	-4.56216812134	20.7136611938	6.99099779129
-30.9278278351	-15.0118112564	26.3530502319	-4.8234038353	20.8627357483	7.00325107574
-31.1256580353	-15.4290752411	29.5615997314	-5.15232086182	20.7384262085	7.11996173859
-30.2564811707	-15.2898902893	30.333147049	-5.7744474411	20.6618022919	7.45563030243
-30.2819595337	-15.6131305695	30.1068229675	-6.64833927155	20.9887123108	7.88750696182
-29.9491577148	-16.0098762512	32.782283783	-7.27497577667	20.9180355072	8.06070613861
-27.9441394806	-16.718755722	38.0413589478	-6.96509647369	21.0122489929	7.76576709747
-27.4849319458	-16.8158626556	56.3272171021	-5.30023241043	21.3888645172	7.01137781143
-25.6003036499	-14.1776075363	61.9994621277	-3.09730887413	21.802980423	5.9585442543
-24.3907318115	-11.4178886414	56.9829406738	-1.71373260021	22.6266880035	4.46233987808
-25.6805782318	-10.4279918671	47.5385971069	-0.8400375247	23.7233715057	3.72772741318
-26.95744133	-10.8918609619	45.9935188293	-0.809224963188	24.0118713379	3.63259959221
-27.3670806885	-11.6553535461	42.1295089722	-1.4747248888	23.9590816498	3.5700712204
-28.1772117615	-13.227060318	39.3264846802	-2.2710313797	23.9677009583	3.73279857635
-28.7707920074	-14.5962409973	36.9805107117	-3.29331254959	23.9767723083	3.98774266243
-29.2089176178	-15.8952188492	37.4328536987	-4.69104099274	23.6118221283	4.15413951874
-29.223772049	-16.9099273682	37.5606689453	-6.32455873489	22.9926395416	4.59270381927
-27.3928165436	-16.3046226501	42.829246521	-7.75964260101	22.6004199982	5.27237081528
-25.7796325684	-12.8517503738	59.4326629639	-8.2376499176	22.6259784698	5.89074039459
-22.7742538452	-7.67497587204	60.1796112061	-7.94184589386	22.9243583679	5.88649749756
-18.0322704315	-1.3544203043	70.6882171631	-7.28217172623	23.577583313	5.88316679001
-13.2239952087	3.77065372467	65.8036727905	-7.18073797226	23.8681106567	5.93988370895
-14.7007274628	2.40793466568	48.8644981384	-7.27835035324	24.3287887573	5.68464326859
-15.6555938721	0.371657282114	40.4134407043	-6.77771568298	24.6807899475	5.65806245804
-14.3396425247	-1.89193344116	35.5620613098	-6.37917041779	24.5686454773	5.60239362717
-13.9139633179	-4.51597070694	34.7688598633	-6.33715772629	24.3423519135	5.66949415207
-13.950712204	-6.83676195145	35.0742263794	-6.7370929718	24.4465484619	5.61256504059
-13.5082883835	-7.9454407692	36.0850868225	-7.31721067429	25.158744812	4.81508255005
-12.1721391678	-8.05095100403	37.3299674988	-7.60987091064	25.5003585815	1.02512145042
-11.3333740234	-9.35218048096	36.9027061462	-5.58210134506	24.5116958618	-2.54670739174
-9.95289516449	-10.8835020065	37.0361557007	-1.83636915684	23.6135940552	-2.97109627724
-9.80760669708	-11.1202478409	36.560459137	-0.598658382893	20.281042099	-2.65248060226
-10.1674165726	-10.0119810104	36.4456481934	-1.23868715763	16.2258815765	-1.60077893734
-11.0236616135	-9.32392120361	36.2744178772	-3.1687734127	15.482129097	0.0619079247117
-13.2335729599	-9.8828496933	37.2698707581	-5.24866771698	16.04945755	1.59208381176
-14.1973848343	-10.8275165558	37.1744346619	-6.04792165756	15.7323551178	2.33466815948
-14.2634162903	-11.4315023422	37.1975250244	-5.93538093567	15.4254550934	2.65485405922
-15.8421316147	-11.6754608154	34.9609069824	-5.82960128784	15.5269384384	2.90697383881
-17.6198654175	-11.4308776855	33.3659896851	-6.03480386734	15.9272794724	2.97599864006
-19.3090991974	-9.87572956085	33.1048240662	-5.97779941559	16.3195495605	3.02589821815
-20.4975185394	-8.72939872742	30.8867797852	-5.92477369308	16.8178539276	3.15775203705
-23.0676136017	-8.8950214386	28.8622169495	-6.09663057327	17.2395915985	3.38298654556
-24.925693512	-9.06939697266	27.8538856506	-6.40816307068	17.3856010437	3.67206764221
-26.63621521	-9.37587928772	27.4479827881	-6.91862392426	17.2850475311	4.00749158859
-28.5524234772	-9.88796806335	27.2953338623	-7.56412649155	17.2989406586	4.26727056503
-29.7427520752	-10.5694198608	27.1719970703	-7.89979124069	17.5233097076	4.50704288483
-30.3341503143	-10.9274225235	29.1093616486	-7.97927713394	17.7697067261	4.69393014908
-30.2614822388	-10.7281141281	37.5325050354	-7.78260755539	17.9332790375	4.77764701843
-29.0124473572	-8.50938415527	47.6037216187	-7.40279769897	18.2428359985	4.64346075058
-27.0112400055	-6.47376489639	47.2500305176	-6.74373626709	18.8624782562	4.53220462799
-26.962972641	-5.1714258194	44.2250061035	-6.25689697266	19.709526062	4.48528528214
-30.6165065765	-5.051445961	32.7344436646	-6.09020328522	19.891828537	4.5929274559
-34.0008926392	-8.32217597961	27.603427887	-6.32930231094	19.9187374115	4.65449094772
-33.6756706238	-8.88128662109	30.6236515045	-6.4838218689	19.9436264038	4.84780216217
-32.1418991089	-8.32130336761	34.8998527527	-6.8678984642	19.9048347473	5.11786413193
-31.8071727753	-7.60500812531	42.9405479431	-7.47866916656	20.1789283752	5.30192327499
-29.3801136017	-3.71687674522	61.9013404846	-7.5833234787	20.518901825	5.35102653503
-25.894569397	2.15658259392	82.0090789795	-7.13396453857	20.8077659607	5.20700359344
-22.1847324371	7.68680095673	72.3818969727	-6.39968967438	21.3167743683	5.18492603302
-25.6858844757	8.56150531769	41.9877471924	-6.01510381699	22.0183734894	5.03393936157
-29.4273796082	5.02545309067	31.7578735352	-5.90055084229	22.7418556213	4.94421005249
-27.2345180511	3.55688619614	31.1617965698	-5.58303546906	23.1366786957	5.03169393539
-26.4148769379	1.90954303741	28.5568599701	-5.66429138184	23.1720046997	5.14122152328
-26.6566352844	0.951306700706	28.2301197052	-6.17868947983	23.2880725861	5.234998703
-25.9608345032	0.342953592539	27.7709503174	-6.52519416809	23.4428977966	5.27936029434
-24.2437782288	-0.0912149474025	27.3874931335	-6.8182387352	23.5051898956	5.12761354446
-23.6251869202	-1.70177996159	27.5114402771	-6.86644124985	23.382856369	4.88482666016
-21.7049789429	-3.64910769463	26.4101161957	-6.43856143951	23.0880222321	4.68340396881
-19.4327907562	-5.44686365128	26.6714267731	-5.99338054657	22.2975902557	4.44088029861
-17.7721195221	-6.69978570938	26.3050174713	-5.56698799133	20.9910411835	4.32801485062
-17.0115509033	-7.26815271378	30.5885429382	-5.19318199158	20.0396690369	4.40766620636
-15.8681077957	-6.7553563118	29.4991531372	-4.90431928635	20.0561923981	4.55114841461
-16.3689346313	-7.29749250412	27.0739936829	-4.69648694992	20.5685920715	4.56516933441
-17.9609279633	-8.2159576416	24.42096138	-4.37557125092	21.1058082581	4.65649557114
-20.8056659698	-9.82278633118	27.5467529297	-4.37742042542	21.2330665588	4.71931648254
-23.0082836151	-9.09049034119	40.6703453064	-4.66487789154	21.3140048981	4.82417678833
-23.3333377838	-7.43790960312	43.4843864441	-5.11175203323	21.6026268005	4.89865398407
-23.7148799896	-7.08798217773	43.1837348938	-5.42687225342	21.9432640076	5.04862165451
-24.6557693481	-7.23206138611	40.7189979553	-5.6012339592	22.1007919312	5.27469444275
-26.8776626587	-6.27076721191	45.5522041321	-5.97039461136	21.5509128571	5.45180511475
-33.6381187439	-9.69479465485	40.0131797791	-5.95483541489	21.1461353302	5.35448217392
-34.6939468384	-10.6387834549	37.0097122192	-5.20988988876	21.5736541748	5.38613176346
-33.9406394958	-8.58260154724	36.578956604	-4.62958192825	21.9861679077	5.44201946259
-34.45728302	-7.77979278564	29.346830368	-4.68064069748	22.1774578094	5.44801473618
-35.5508384705	-6.55333900452	26.4267997742	-4.7193980217	21.9539413452	5.66950702667
-31.2483348846	-3.12409520149	31.6648826599	-4.73157119751	21.5392837524	6.06638002396
-28.3078765869	-1.24607622623	34.1542320251	-4.66115808487	21.0458812714	6.60758924484
-27.4655704498	0.3002859056	30.4931526184	-4.65136384964	21.2427711487	7.16681671143
-30.9456214905	3.11263751984	25.8878555298	-4.59152746201	21.9706935883	7.58322906494
-34.158870697	4.77377653122	19.8955860138	-4.57322311401	22.8792438507	8.18377304077
-35.8641777039	5.13759899139	18.0974025726	-4.9479765892	23.7007808685	8.83128547668
-36.4142875671	3.67167162895	17.1555042267	-5.56118917465	24.4960136414	9.57833194733
-36.805393219	1.07462072372	17.7757816315	-6.3192949295	24.52551651	9.78353214264
-35.5631942749	-1.36830461025	22.2119121552	-6.21856975555	23.3623123169	9.29174900055
-32.688621521	-2.72025036812	38.4406814575	-5.19128322601	21.9115066528	8.28642463684
-33.2424812317	-5.64359092712	59.5050811768	-3.62732028961	20.3712558746	6.67520427704
-32.5139083862	-8.08348941803	68.9727172852	-2.18882584572	19.3333015442	4.58761644363
-23.8946228027	-11.6914329529	54.6605300903	-1.16976690292	18.9847679138	3.16809296608
-20.5185470581	-9.31024265289	34.7223777771	-0.573412656784	18.8536911011	2.81153035164
-21.0056629181	-5.75927972794	38.6868438721	-0.75439286232	18.3753490448	2.98918843269
-19.820728302	-4.346139431	38.8559837341	-1.23109090328	17.5499248505	3.60002303123
-20.6459636688	-1.18688154221	52.1620635986	-1.4781165123	16.9994316101	4.63611364365
-25.9294090271	6.81533336639	42.6541671753	-1.77196109295	17.7027683258	5.55992460251
-34.3313446045	10.2352600098	40.4388618469	-2.62649917603	20.8224277496	5.72707796097
-36.666217804	11.6607275009	42.4903640747	-3.33449172974	23.7760276794	5.76674842834
-35.5877494812	10.9052610397	42.7996635437	-3.79373478889	25.210111618	5.45515441895
-33.7602500916	8.60444545746	44.8005332947	-3.48613333702	25.8974533081	5.32231760025
-31.9716358185	5.91147613525	50.5740852356	-2.58609127998	25.5393810272	5.12855148315
-31.2762966156	4.98692512512	55.1543731689	-1.72198307514	25.1798591614	4.72763776779
-32.7639198303	5.73395347595	55.625202179	-1.10689866543	25.2737522125	4.46115732193
-33.952507019	7.47548484802	50.2256851196	-1.08624362946	25.5625801086	4.39514636993
-35.9756317139	7.29134273529	44.3789482117	-2.24088859558	25.6529273987	4.26474714279
-36.0326118469	4.63482141495	41.6077613831	-4.01320409775	26.00365448	4.11251878738
-35.368019104	1.8504846096	38.8410949707	-4.63718175888	25.8156700134	4.28398799896
-35.6898269653	0.0277104303241	40.9127922058	-3.80397796631	25.4704246521	4.66043376923
-36.1791801453	-1.51867592335	47.3424301147	-3.29537129402	25.386680603	4.83521556854
-37.2976608276	-3.12993144989	50.5525436401	-3.47399044037	25.2176799774	4.97510004044
-37.3243370056	-5.21765422821	50.094078064	-4.02487945557	25.0681972504	5.19546031952
-36.0692062378	-6.30943870544	51.289276123	-4.8320684433	25.0107860565	5.73489332199
-34.4372825623	-7.54323339462	50.7652168274	-5.70211744308	25.2070503235	6.40486240387
-33.3384971619	-7.53690385818	50.3708000183	-6.15893697739	25.5558109283	6.52315282822
-31.6054573059	-5.13577318192	44.9083366394	-5.77449464798	25.8372592926	6.07326364517
-34.5070915222	-3.65751266479	44.1089935303	-5.05671644211	25.9306812286	5.58407211304
-34.4547233582	-3.97655296326	44.3491744995	-4.86309528351	25.8226528168	5.67537164688
-33.1394081116	-4.97272109985	44.4304885864	-5.43420267105	25.1898651123	5.70990562439
-33.1163444519	-5.92690181732	46.3923301697	-5.50220489502	24.5255336761	5.73729658127
-33.940071106	-5.20150709152	54.4148674011	-5.04346036911	23.993932724	5.92596721649
-33.5173912048	-0.388254910707	64.5837860107	-4.74194097519	23.8942642212	5.96240472794
-32.6415328979	4.72992706299	61.6938781738	-4.49287080765	24.3632164001	5.73249292374
-33.0657958984	8.85735034943	56.2973060608	-4.2297873497	25.0428390503	5.61515903473
-32.9328842163	9.72175979614	53.604133606	-4.62973594666	25.6077804565	5.33975172043
-32.6981124878	9.1539106369	53.3749847412	-4.97996759415	25.5400352478	5.2302107811
-33.834941864	7.7258515358	56.033290863	-5.26514959335	24.538482666	5.29632806778
-34.6415023804	7.44543933868	61.1708030701	-5.55897569656	23.2444496155	5.61413049698
-35.6348876953	11.6460485458	71.3286590576	-5.42539310455	22.5841999054	5.94733667374
-31.3838329315	17.2962646484	69.5588378906	-4.88553524017	22.4449367523	6.09529161453
-27.2752761841	16.4644699097	62.7745056152	-4.79410505295	22.8970966339	6.15888929367
-20.5489521027	10.6563549042	50.9071578979	-4.6620721817	23.6048603058	6.18963909149
-12.4378347397	5.10685777664	28.0251293182	-4.26655101776	23.8544712067	6.18519687653
-11.1443338394	1.29810523987	8.72693538666	-3.84596180916	24.0061798096	5.89718151093
-13.8722953796	-1.19232177734	-3.75192093849	-3.21870398521	24.0062961578	5.86068916321
-17.1914405823	-4.09014844894	-6.45158529282	-3.1558470726	23.9576644897	6.00707054138
-18.4826660156	-7.20443677902	-5.40118551254	-3.49986624718	24.2897720337	6.58891010284
-19.9128818512	-11.0246725082	-3.8125975132	-4.26939153671	24.3509254456	7.41451835632
-21.8359088898	-14.9374170303	-6.79708433151	-5.77741718292	23.9750595093	8.02241325378
-22.2284507751	-18.2324542999	-9.6530456543	-7.3356757164	23.8756961823	8.5701751709
-23.2062606812	-20.2419490814	-8.20108222961	-8.27571582794	23.8198280334	9.15316104889
-21.6945552826	-21.6479148865	-9.34802436829	-9.00177001953	23.4777488708	9.62456989288
-20.4909667969	-23.0353984833	-6.93536233902	-9.51027870178	22.6209278107	9.94676685333
-18.9069404602	-23.41065979	-8.14981460571	-9.56182575226	21.121011734	10.4524812698
-17.8114547729	-23.1701335907	-8.5614566803	-9.64754772186	19.8524799347	10.9533987045
-17.6995830536	-22.9271316528	-8.3111448288	-9.60739517212	19.2740573883	11.2990779877
-18.9146881104	-21.3112659454	1.03349149227	-8.83177471161	19.9746322632	11.1118602753
-19.1356258392	-17.2581977844	15.1853275299	-7.91067743301	19.7951774597	10.4667711258
-21.9029693604	-18.1912574768	43.0095977783	-7.39351415634	18.4777622223	8.74981784821
-26.7131252289	-17.8463077545	64.9093399048	-7.16744041443	17.4411888123	7.37525749207
-31.899389267	-12.2535219193	80.6669311523	-6.80125331879	17.5336112976	6.96047067642
-36.8723945618	-7.62912416458	93.4071578979	-6.5003194809	19.3199615479	6.64514255524
-38.7632980347	-4.32753562927	105.253540039	-6.50889062881	23.7515449524	4.80815505981
-38.1242637634	-2.31099033356	111.261703491	-6.36421442032	26.6360282898	0.75461769104
-36.8937187195	-0.279118061066	111.770133972	-5.20339918137	26.722782135	-0.897089719772
-36.0255279541	0.210355326533	111.378890991	-4.80571985245	27.3021678925	-0.802382707596
-34.9722938538	-0.169637843966	107.987113953	-6.14915704727	29.8616695404	-1.22456967831
-34.1298065186	-2.30208158493	98.3507080078	-6.66433095932	32.3551254272	-2.07388949394
-34.3815040588	-5.44963216782	91.0310974121	-5.80719280243	32.7667312622	-1.46088373661
-34.3374824524	-8.04368019104	87.4435501099	-5.15133619308	32.1346855164	-1.11189329624
-33.0238723755	-13.6403303146	84.0138931274	-4.0995721817	31.2522163391	-0.72727650404
-34.1948890686	-18.3355674744	81.1929931641	-3.16762161255	31.4899768829	-0.0594381801784
-35.3539428711	-21.8363304138	77.7694549561	-3.26961493492	31.699174881	0.0986611992121
-36.1146125793	-24.1820735931	75.4249038696	-3.54847979546	32.251750946	-0.230391204357
-36.6901893616	-26.5433063507	72.9483261108	-2.86198997498	33.2190895081	-0.292429327965
-36.2291793823	-29.1773071289	69.6108398438	-1.97719335556	33.899810791	-0.00804880447686
-32.3525619507	-31.3176231384	60.9529457092	-1.26828074455	34.1318855286	0.350687026978
-27.312713623	-34.7311058044	56.8696670532	-0.398852825165	34.1963882446	0.889552056789
-23.0427570343	-38.2762069702	53.5410995483	-0.622494518757	33.9936523438	0.841812551022
-22.9439735413	-41.1286888123	58.7401275635	-1.14176368713	33.8707008362	0.72833609581
-23.0458183289	-45.5876693726	62.7017097473	-1.13108325005	33.647315979	0.826263129711
-23.0182380676	-48.9934806824	68.0233078003	-0.988792002201	33.4605903625	0.952444374561
-22.9855632782	-51.8283042908	74.2088928223	-0.673650741577	33.4848403931	1.0412954092
-21.3623123169	-46.8510093689	67.4919204712	-0.406064629555	33.4128646851	1.02076888084
-12.1287260056	-41.5297241211	51.2126541138	-0.0949048027396	33.2559280396	1.08931696415
1.11254620552	-33.1526679993	27.7910690308	0.00396143225953	33.266494751	1.05797290802
7.15683889389	-32.0327529907	24.6788368225	0.160508513451	33.2048873901	1.13212311268
9.44367218018	-38.2539901733	24.0988883972	0.0530520603061	32.9535942078	0.892314612865
9.26580047607	-44.3529548645	26.5349712372	0.130485773087	32.8575210571	0.111612528563
7.57315683365	-48.5088844299	28.5276374817	0.539186477661	30.6549491882	-1.13608729839
4.37247896194	-50.2816505432	30.8558692932	1.36203169823	29.1785297394	-1.80616188049
2.36168646812	-51.7658081055	32.4472427368	2.37498235703	28.0871124268	-2.31172823906
1.12879741192	-52.6668891907	33.6867752075	2.41721081734	25.4277439117	-2.05149698257
2.24588799477	-51.2714691162	32.2667503357	0.435506224632	24.4766273499	-1.46013474464
2.44841623306	-50.9349975586	32.2253112793	-3.44059491158	24.9643802643	-0.928859591484
1.71066105366	-51.2788543701	33.6741714478	-6.33881902695	24.1874294281	-0.837512254715
0.922527372837	-51.5519790649	34.52394104	-6.93829154968	23.0707588196	-0.630015254021
0.275592535734	-52.1210784912	34.9414596558	-6.07413482666	22.9607696533	0.0376874618232
0.370070397854	-52.6454582214	34.6474609375	-5.97320127487	22.9166297913	0.541809439659
0.0163059849292	-52.7340621948	35.1761817932	-7.22704839706	22.6178894043	0.865993559361
0.408675909042	-52.1642456055	35.349105835	-8.9296169281	21.6063613892	0.962868511677
0.704400777817	-52.1769104004	35.640789032	-9.13382816315	21.0505447388	0.802074193954
-1.84808766842	-55.5059776306	41.4969024658	-7.38441038132	21.9044742584	0.806526303291
-17.7240085602	-60.3427009583	64.7334213257	-6.10639619827	22.6195106506	0.789456188679
-27.0673465729	-60.8357658386	76.7344207764	-6.05921411514	22.8865966797	0.533236980438
-21.1406078339	-59.2442398071	69.678604126	-5.81435203552	23.3563747406	0.52214628458
-14.4496612549	-57.1647872925	61.0291976929	-5.41712617874	24.4608402252	0.622774243355
-8.07444763184	-55.4745941162	54.7215652466	-5.64506864548	26.3271064758	0.786345303059
-6.61958217621	-55.394203186	54.3520965576	-6.18657922745	25.0387439728	0.917429029942
-7.67531967163	-56.5784797668	55.7066993713	-6.35688018799	24.6087303162	0.929208219051
-6.66120147705	-56.836063385	53.9278907776	-6.11090564728	25.0398216248	1.12173354626
-4.82790899277	-56.963394165	52.1927490234	-6.22896575928	25.1399078369	1.15493035316
-3.44177222252	-57.4138946533	51.1230354309	-6.34634542465	25.0897502899	1.01867878437
-2.06708550453	-57.5872497559	49.7966880798	-6.26174449921	25.2985115051	0.967026293278
-1.81537365913	-57.6146125793	49.4247627258	-6.2251124382	25.2645244598	0.958774209023
-1.9842813015	-57.6470336914	49.7911643982	-5.92202329636	24.3543014526	1.19576144218
-1.22146522999	-57.5837936401	48.6069297791	-5.91172742844	23.3044300079	1.5039832592
0.0406346842647	-57.6870117188	46.7033462524	-6.51122093201	23.0931987762	1.72323906422
-0.475056320429	-58.8994178772	47.8952865601	-7.3121008873	23.4788665771	1.98213398457
