-41.558216095	-0.848312437534	10.4442472458	5.66942739487	12.3152246475	-34.0855445862
-41.3465995789	-1.03126466274	10.4592227936	5.85079574585	12.186706543	-34.0374336243
-41.2579116821	-1.30286097527	10.0143022537	6.06300163269	12.2766475677	-32.9600753784
-38.3297233582	-1.17428278923	4.70944690704	7.27721166611	14.0181722641	-29.4973640442
-34.0891227722	1.99628973007	-1.74215221405	9.22015857697	17.1630630493	-24.6145820618
-32.5830841064	2.81051087379	-4.68962478638	10.5853509903	19.2965641022	-19.0844917297
-27.8223400116	4.63493299484	-8.51951789856	10.6618785858	20.1279144287	-13.829003334
-20.6319313049	6.97416305542	-10.9565258026	9.95608615875	19.0759754181	-10.3511781693
-11.013633728	8.81929016113	-12.6677265167	9.38358974457	17.8930149078	-8.97120666504
-1.59118282795	17.3822383881	-17.1800785065	10.3400821686	18.7072124481	-8.97709178925
4.11104106903	21.6358718872	-14.0229501724	12.5481376648	20.3607063293	-10.0783061981
3.46091723442	28.4282741547	-15.4216985703	15.325592041	21.4092502594	-10.5579195023
-2.4261033535	35.5613288879	-21.6477394104	17.3167304993	21.5387058258	-10.3416070938
-10.5970239639	38.7745285034	-29.8467159271	17.7398586273	21.9087200165	-9.89909076691
-18.1032352448	37.5241279602	-36.9099273682	17.2602729797	22.8885917664	-9.56445884705
-18.2045440674	35.1158218384	-33.3776931763	16.1476287842	23.7893257141	-9.56514930725
-16.6744270325	34.5848121643	-30.2509880066	14.8932342529	24.4504108429	-10.6639270782
-17.7282104492	34.6529426575	-28.2010002136	14.0114088058	24.8452835083	-12.3423118591
-20.8896770477	31.9663619995	-21.3768615723	13.2965040207	24.3337516785	-11.9867115021
-18.5904273987	26.9619979858	-13.366727829	13.0518426895	23.6443424225	-9.17830276489
-17.1945228577	26.7146530151	-11.8731307983	12.8025131226	23.4834194183	-5.78016471863
-16.6201133728	27.7171192169	-10.5474615097	11.979678154	23.9101333618	-3.0394179821
-17.6470222473	28.7223358154	-9.86695480347	11.0131101608	25.0226154327	-1.52843511105
-20.2870998383	29.2575092316	-9.72323322296	10.0395650864	25.66588974	-1.82021260262
-21.2833995819	27.6173744202	-7.81130456924	9.3617477417	24.7832145691	-3.25757026672
-21.6305160522	25.8070049286	-7.17998552322	9.73119831085	23.4884262085	-5.00766134262
-20.7383670807	24.6706619263	-6.95643997192	10.7952461243	22.8912277222	-6.57437610626
-20.3177986145	23.9438400269	-7.12124919891	12.0443077087	22.6848106384	-7.83842468262
-20.9508914948	24.5610103607	-8.47875118256	12.798992157	23.3714447021	-9.90912723541
-21.7229499817	25.8734645844	-9.70460033417	13.1717262268	24.1864585876	-14.3533697128
-22.0973262787	26.906375885	-9.70881175995	14.0883684158	24.6205501556	-20.5434436798
-23.1914024353	27.112991333	-9.56625461578	14.8345956802	24.5777893066	-22.3181819916
-24.1181297302	26.4557170868	-9.46056652069	14.0791482925	24.7357463837	-18.3780097961
-23.9593963623	25.6901493073	-9.05998420715	13.9510545731	26.6598548889	-10.0555143356
-23.406337738	25.0428161621	-8.66940116882	15.2391338348	29.243434906	-0.0276957768947
-23.7366504669	25.2668800354	-8.2431678772	14.689991951	29.3764133453	3.26965904236
-24.2362041473	25.5633983612	-7.25329065323	13.4298143387	29.0254249573	2.20302176476
-24.8866214752	25.5446529388	-6.45260381699	13.6884841919	28.3128070831	0.552874684334
-25.3502922058	26.0167446136	-6.50684165955	14.6264257431	27.9633846283	-1.55707371235
-25.8517971039	26.8513908386	-8.17988300323	15.5814294815	27.7031974792	-4.61473464966
-26.8115348816	27.2853336334	-10.2523298264	17.1188087463	25.8167247772	-7.70973777771
-28.5640010834	27.091791153	-9.94293880463	18.7362861633	23.494436264	-9.72590351105
-30.5798587799	27.4932823181	-9.58517837524	19.7937164307	21.708190918	-11.872636795
-31.3687667847	28.3735580444	-10.7172317505	20.6199874878	19.95129776	-14.4355134964
-30.9006824493	29.271068573	-14.4997529984	21.3419189453	18.2454872131	-16.19581604
-29.8856468201	29.8417301178	-14.5611133575	21.5362243652	17.9449062347	-17.007440567
-30.6650810242	28.9494819641	-10.3523406982	21.2236404419	19.0874328613	-16.4419250488
-30.1718330383	20.3083992004	5.54185056686	20.3050003052	19.5249176025	-16.7524776459
-27.9800453186	11.0083446503	13.6459054947	19.7683734894	19.6849250793	-16.7807769775
-25.1527442932	1.98941016197	20.6565628052	19.7808589935	20.1467609406	-16.0740356445
-19.3566570282	-5.86602020264	24.4359664917	19.4805011749	20.6285839081	-15.0336713791
-5.79414463043	-4.2474064827	21.4330863953	19.1053695679	21.4897899628	-13.1807804108
2.29467248917	13.0701122284	7.31281805038	18.3784942627	22.5823230743	-11.8401575089
-0.0465843491256	27.2910003662	-6.69973278046	18.0659942627	24.3177871704	-11.1705036163
-8.80653190613	36.152179718	-17.3888683319	17.5934810638	25.4885845184	-10.6416330338
-10.452214241	32.8445320129	-11.5104970932	16.9328632355	25.748336792	-10.906955719
-12.8295650482	31.6110916138	-13.201010704	16.8024559021	25.3024501801	-11.4019069672
-15.9180860519	30.3725662231	-14.1578426361	16.7304668427	25.2000217438	-11.9750261307
-16.5061130524	29.584356308	-13.0848817825	16.5363521576	25.0776367188	-12.4509859085
-18.1166477203	30.7125530243	-13.9556999207	16.2401447296	24.78008461	-13.1254482269
-20.1725502014	32.0558547974	-14.412021637	16.105966568	24.8241901398	-13.3964776993
-19.9864826202	29.7945156097	-5.39487934113	15.5668611526	24.7567996979	-13.5500535965
