0.0	-0.0	138.231002808	-119.454750061	88.7706832886	172.93397522
0.0	-0.0	134.058486938	60.1351165771	89.5958633423	-7.85262060165
0.0	-0.0	131.397659302	60.3311309814	88.4480056763	-8.34659576416
0.0	-0.0	131.831039429	60.3367843628	88.9697647095	-7.6227889061
0.0	-0.0	125.458099365	-121.110145569	86.1585998535	174.81237793
0.0	-0.0	119.503723145	-123.972610474	82.517250061	178.571914673
0.0	-0.0	119.546440125	-127.548103333	82.7857055664	-177.915313721
0.0	-0.0	113.781990051	-131.053039551	82.7777099609	-174.020614624
0.0	-0.0	110.063346863	-135.095291138	81.545791626	-169.853744507
0.0	-0.0	99.4365005493	-138.405960083	80.9110031128	-166.644226074
0.0	-0.0	87.3876037598	-139.487976074	80.7403411865	-164.839752197
0.0	-0.0	83.3083190918	-139.118148804	79.9784927368	-163.703323364
0.0	-0.0	82.1989059448	-140.608261108	79.1549301147	-163.230178833
0.0	-0.0	73.9840545654	-142.719116211	80.7649078369	-164.094055176
0.0	-0.0	73.4418106079	-142.574813843	82.986541748	-166.454101562
0.0	-0.0	71.387802124	-140.99836731	85.4207229614	-169.069824219
