-22.6512947083	-79.2351455688	133.099090576	4.62975740433	0.572575688362	-3.81604266167
-21.4464912415	-79.2616348267	131.675827026	4.23814058304	0.420989692211	-3.88713812828
-19.903295517	-78.9177627563	129.925796509	4.14893245697	0.459620922804	-3.90108060837
-18.1393756866	-78.3455123901	127.460098267	4.01533412933	0.82244181633	-3.57732462883
-15.138504982	-76.619682312	121.301826477	3.19253158569	1.4463301897	-2.44018769264
-14.8517465591	-71.9725952148	114.15687561	0.569479346275	2.42883372307	-0.18135613203
-22.2082977295	-67.4351196289	114.816833496	-3.83948683739	2.35045623779	2.04444599152
-25.4949855804	-63.8515930176	112.316246033	-8.6158914566	2.37696027756	3.92178344727
-25.9549942017	-62.4412956238	108.378067017	-12.3406677246	3.05028629303	5.3273267746
-30.1962928772	-62.9687271118	110.579734802	-15.31848526	3.87830448151	6.18980264664
-32.3108177185	-63.1885032654	109.88483429	-17.6153736115	4.03108930588	6.29726886749
-28.2118053436	-60.4769859314	97.3660583496	-18.615694046	4.70356225967	6.39581918716
-25.3156776428	-54.9231185913	81.3832855225	-19.3202476501	5.60431241989	6.62498569489
-24.9041175842	-54.4714012146	78.9662857056	-19.6615943909	5.96524238586	6.69176530838
-24.874994278	-55.2159461975	79.6297683716	-19.4174003601	5.8873925209	6.77642631531
-22.9609279633	-54.837146759	78.2433853149	-19.007270813	4.9237651825	6.64305448532
-21.736125946	-54.5643005371	76.8269500732	-18.8004665375	2.73579287529	6.38490056992
