-0.178647518158	1.02311062813	-0.139258384705	-0.00973701477051	1.46870779991	-0.303973555565
-0.178785562515	1.0233297348	-0.139605879784	-0.00932550430298	1.46872484684	-0.304513216019
-0.177231788635	1.0238263607	-0.138058900833	-0.00898838043213	1.47025930882	-0.304615736008
-0.172896385193	1.02660727501	-0.132808685303	-0.00882792472839	1.47380638123	-0.30596280098
-0.164270401001	1.02810239792	-0.122604250908	-0.00907564163208	1.47530651093	-0.307884454727
-0.152246236801	1.0230717659	-0.110239505768	-0.00936555862427	1.4749045372	-0.309152245522
-0.143180608749	1.01357102394	-0.103653311729	-0.0111050605774	1.47427260876	-0.309476137161
-0.134872436523	1.0004928112	-0.0996978282928	-0.0153677463531	1.47298693657	-0.308977842331
-0.130774259567	0.988720178604	-0.102161407471	-0.0219776630402	1.47101974487	-0.307621479034
-0.131880521774	0.986148834229	-0.108777046204	-0.0298590660095	1.46915781498	-0.30571937561
-0.139672756195	0.988667964935	-0.120053529739	-0.0373389720917	1.46719992161	-0.303876280785
-0.148983001709	0.993037462234	-0.134757518768	-0.0439553260803	1.46562695503	-0.30241560936
-0.152301073074	0.995044469833	-0.147158622742	-0.0491876602173	1.46366393566	-0.30178463459
-0.14198756218	0.990401744843	-0.143946409225	-0.0522339344025	1.46041989326	-0.301894426346
-0.123560667038	0.979896306992	-0.127925157547	-0.0528311729431	1.45738470554	-0.301946163177
-0.107419967651	0.976491451263	-0.116008400917	-0.0526444911957	1.45439720154	-0.302488565445
-0.0951011180878	0.977148532867	-0.109561800957	-0.052591085434	1.44986355305	-0.303087711334
-0.0866062641144	0.979466915131	-0.108294010162	-0.0528373718262	1.44512951374	-0.302531957626
-0.0861830711365	0.98862361908	-0.112549304962	-0.0540690422058	1.44208610058	-0.301174521446
-0.0864191055298	0.995628833771	-0.116510868073	-0.0568361282349	1.43936908245	-0.299859285355
-0.0851268768311	0.998843193054	-0.117623806	-0.0599627494812	1.43617510796	-0.298584938049
-0.0798780918121	0.992100477219	-0.114130735397	-0.0631492137909	1.43324708939	-0.297423839569
-0.070752620697	0.982009410858	-0.109192371368	-0.0657653808594	1.43207287788	-0.296694278717
-0.0661482810974	0.972412824631	-0.106693983078	-0.0671124458313	1.43110275269	-0.296180486679
-0.0663299560547	0.965504407883	-0.106615781784	-0.0675854682922	1.42983913422	-0.29579102993
-0.0665228366852	0.962511777878	-0.105901479721	-0.0676712989807	1.42916345596	-0.294963359833
-0.0653264522552	0.961188316345	-0.104429125786	-0.0664827823639	1.42831790447	-0.29414331913
-0.063488483429	0.961170911789	-0.102600336075	-0.064875125885	1.42739796638	-0.293407678604
-0.0620722770691	0.96077466011	-0.101655006409	-0.0635395050049	1.42633831501	-0.29295027256
-0.0621573925018	0.961757421494	-0.101729750633	-0.0642671585083	1.42529201508	-0.292563676834
-0.0615396499634	0.961844205856	-0.102249622345	-0.0652492046356	1.422991395	-0.292640089989
-0.0602509975433	0.961630821228	-0.101558089256	-0.0657019615173	1.42037367821	-0.292244791985
-0.0605850219727	0.9618268013	-0.101374387741	-0.06409740448	1.41761767864	-0.291703462601
-0.0634145736694	0.961966991425	-0.102926969528	-0.0607976913452	1.41432201862	-0.291110873222
-0.0649397373199	0.962276697159	-0.104845046997	-0.0541892051697	1.40823245049	-0.290530920029
-0.0642263889313	0.961725234985	-0.105596065521	-0.04652094841	1.40308868885	-0.290028572083
-0.0630366802216	0.961154937744	-0.106932282448	-0.0404636859894	1.39887046814	-0.290948629379
-0.0614862442017	0.961472272873	-0.107715845108	-0.038551568985	1.39788877964	-0.292404413223
-0.057995557785	0.959596395493	-0.10732793808	-0.0417966842651	1.39840018749	-0.294131755829
-0.0565025806427	0.956429243088	-0.110830545425	-0.0470914840698	1.3993639946	-0.295412063599
-0.0556254386902	0.951200962067	-0.113213181496	-0.0520732402802	1.40212869644	-0.296113014221
-0.0582175254822	0.950439214706	-0.114676237106	-0.0559105873108	1.4037566185	-0.296878099442
-0.0615048408508	0.95280957222	-0.114076375961	-0.057578086853	1.40422081947	-0.296789765358
-0.0641419887543	0.953769445419	-0.114412784576	-0.0571024417877	1.40385735035	-0.296984672546
-0.065354347229	0.951989412308	-0.116676211357	-0.0539174079895	1.40358114243	-0.297544956207
-0.0655338764191	0.950294733047	-0.11850976944	-0.0491070747375	1.40373957157	-0.298335671425
-0.0663886070251	0.951687812805	-0.118895888329	-0.0465497970581	1.40388965607	-0.299947977066
-0.0654101371765	0.954810857773	-0.117640376091	-0.0493226051331	1.40475583076	-0.301589012146
-0.0637793540955	0.955751419067	-0.117683172226	-0.0550518035889	1.40557169914	-0.303935170174
-0.0619828701019	0.95449256897	-0.118046283722	-0.0597505569458	1.40575993061	-0.306308507919
-0.0627408027649	0.95436501503	-0.118718862534	-0.0624923706055	1.4055659771	-0.30882525444
-0.0649964809418	0.956218719482	-0.118837118149	-0.0647277832031	1.40413749218	-0.311521172523
-0.0663907527924	0.957505226135	-0.119755506516	-0.0641920566559	1.40258967876	-0.313336849213
-0.0658915042877	0.957317113876	-0.121284008026	-0.0619823932648	1.39976716042	-0.314177513123
-0.063952922821	0.957010507584	-0.122273802757	-0.0595202445984	1.39733159542	-0.314099788666
-0.0614547729492	0.956966876984	-0.123624205589	-0.0572488307953	1.39684951305	-0.313970327377
-0.0598623752594	0.958120584488	-0.124305486679	-0.0563771724701	1.39779174328	-0.31379365921
-0.0574057102203	0.958110332489	-0.123731374741	-0.0564002990723	1.39986383915	-0.313655853271
-0.0559828281403	0.956312179565	-0.123510837555	-0.0562686920166	1.40106344223	-0.314430117607
-0.0585117340088	0.954896450043	-0.126434445381	-0.0559277534485	1.40106809139	-0.315687417984
-0.0612571239471	0.952400684357	-0.129361987114	-0.0562305450439	1.40115559101	-0.316063761711
-0.0623555183411	0.950155735016	-0.132190465927	-0.0560536384583	1.40105807781	-0.315951108932
-0.0621559619904	0.948815345764	-0.132657408714	-0.0547351837158	1.40163886547	-0.314854383469
-0.0595376491547	0.946798563004	-0.131624221802	-0.0512619018555	1.40258038044	-0.31324338913
-0.0577726364136	0.946283578873	-0.13161444664	-0.0458750724792	1.40301263332	-0.311687231064
-0.0553984642029	0.946579456329	-0.130499601364	-0.0398528575897	1.40297925472	-0.310567259789
-0.0531144142151	0.946833848953	-0.129321932793	-0.035059928894	1.40348315239	-0.309869766235
-0.0509929656982	0.947276353836	-0.128078937531	-0.032103061676	1.40448307991	-0.309463739395
-0.0496447086334	0.947359323502	-0.127116441727	-0.029931306839	1.40569293499	-0.308784008026
-0.0497722625732	0.94696855545	-0.126791954041	-0.0278685092926	1.40657019615	-0.308083295822
-0.050448179245	0.945963144302	-0.126810669899	-0.0258324146271	1.40662741661	-0.307193756104
-0.0497794151306	0.94409942627	-0.125673413277	-0.0221469402313	1.40802419186	-0.305809259415
-0.0484330654144	0.943467855453	-0.12253677845	-0.0175592899323	1.41168749332	-0.304353237152
-0.0484693050385	0.943908214569	-0.120112299919	-0.0138163566589	1.41480123997	-0.303615570068
-0.051102399826	0.945391178131	-0.121344685555	-0.0113930702209	1.41579568386	-0.303389072418
-0.0521998405457	0.947788238525	-0.121309995651	-0.0100953578949	1.4171500206	-0.302726984024
-0.0546262264252	0.95108795166	-0.121417760849	-0.0103189945221	1.42049598694	-0.301861405373
-0.0579700469971	0.952162504196	-0.1212413311	-0.0123918056488	1.42357957363	-0.300717830658
-0.059152841568	0.949090003967	-0.121044039726	-0.0147640705109	1.42511892319	-0.299769997597
-0.0581836700439	0.943341255188	-0.121869564056	-0.0168271064758	1.42621970177	-0.299184322357
-0.0554773807526	0.939524888992	-0.119604587555	-0.0180270671844	1.42727780342	-0.29878282547
-0.0528819561005	0.936223506927	-0.116877794266	-0.018500328064	1.42903959751	-0.298825025558
-0.0514712333679	0.93297290802	-0.116075873375	-0.0178575515747	1.43197321892	-0.299142479897
-0.0501163005829	0.927552461624	-0.115892887115	-0.0162177085876	1.43550431728	-0.299095869064
-0.0498313903809	0.9224588871	-0.116400837898	-0.0150759220123	1.43855416775	-0.298503160477
-0.0486710071564	0.92100071907	-0.116792082787	-0.0153045654297	1.44165575504	-0.297241687775
-0.0426712036133	0.921079397202	-0.11383330822	-0.0155324935913	1.44334208965	-0.295765399933
-0.0351846218109	0.926112890244	-0.108338832855	-0.0152633190155	1.44366323948	-0.29423058033
-0.0295641422272	0.932785749435	-0.104604721069	-0.0156235694885	1.44412577152	-0.293173551559
-0.0290110111237	0.937650203705	-0.108910322189	-0.0164494514465	1.44527494907	-0.293820142746
-0.0381410121918	0.942698478699	-0.119895339012	-0.0173676013947	1.44621300697	-0.295365571976
-0.0485997200012	0.948760986328	-0.128406882286	-0.0180804729462	1.44641363621	-0.298106074333
-0.0539309978485	0.951147317886	-0.13179397583	-0.0186266899109	1.44531393051	-0.301773309708
-0.0533494949341	0.953411817551	-0.131975054741	-0.0194268226624	1.44294786453	-0.305063724518
-0.051451921463	0.954591274261	-0.132356524467	-0.0208671092987	1.44016587734	-0.308068037033
-0.0455422401428	0.952162504196	-0.130652189255	-0.0219070911407	1.43866956234	-0.310751914978
-0.0396842956543	0.949448823929	-0.129688739777	-0.0219087600708	1.43779695034	-0.312737226486
-0.0360043048859	0.945625782013	-0.130083322525	-0.0218045711517	1.43680167198	-0.314089894295
-0.0302143096924	0.940488100052	-0.129997372627	-0.0218632221222	1.4357098341	-0.314426422119
-0.022664308548	0.933610439301	-0.129211544991	-0.0222821235657	1.43550622463	-0.314120292664
-0.016880273819	0.928939580917	-0.128767728806	-0.0223813056946	1.4346203804	-0.31350684166
-0.0154759883881	0.928749799728	-0.127988815308	-0.0214629173279	1.43243598938	-0.312595129013
-0.0176067352295	0.929916143417	-0.127640843391	-0.0223412513733	1.42993402481	-0.312283158302
-0.0186285972595	0.931235313416	-0.127863407135	-0.0247359275818	1.42300844193	-0.3144967556
-0.0174260139465	0.932012319565	-0.127773761749	-0.0253715515137	1.41576528549	-0.31680727005
-0.015575170517	0.932699918747	-0.126873731613	-0.0261478424072	1.41466712952	-0.317578792572
-0.0179970264435	0.934278726578	-0.127035617828	-0.0285918712616	1.414047122	-0.319465994835
-0.0209529399872	0.935289382935	-0.12861430645	-0.0304582118988	1.41368079185	-0.321458816528
-0.0211923122406	0.934053421021	-0.131113886833	-0.0312361717224	1.41275560856	-0.323863625526
-0.0197081565857	0.93411231041	-0.131456255913	-0.0321042537689	1.41153430939	-0.326190471649
-0.0210349559784	0.937536478043	-0.131459474564	-0.0371186733246	1.41140270233	-0.328483104706
-0.0226473808289	0.939423322678	-0.132882714272	-0.046098947525	1.41172635555	-0.330489635468
-0.0208425521851	0.937210083008	-0.134525775909	-0.0536029338837	1.41251373291	-0.332698702812
-0.0179908275604	0.934655189514	-0.134268641472	-0.0601704120636	1.41393280029	-0.335266828537
-0.0200746059418	0.934555768967	-0.135462760925	-0.0617520809174	1.41531229019	-0.33798635006
-0.025669336319	0.93737745285	-0.136075258255	-0.0577397346497	1.41703653336	-0.338495731354
-0.0290341377258	0.943153142929	-0.133213996887	-0.0496923923492	1.42042732239	-0.336929798126
-0.0288813114166	0.948918104172	-0.129640698433	-0.0395104885101	1.42338085175	-0.334534049034
-0.0255556106567	0.950329780579	-0.128524899483	-0.0294308662415	1.42558896542	-0.331668138504
-0.0184943675995	0.946606636047	-0.128823280334	-0.0200345516205	1.4276163578	-0.329040646553
-0.00900316238403	0.944719791412	-0.125104427338	-0.00976920127869	1.42963552475	-0.326159477234
-0.00307774543762	0.94661450386	-0.118773698807	0.00261306762695	1.42991864681	-0.323260903358
-0.00330209732056	0.948800086975	-0.114251852036	0.0145027637482	1.42877018452	-0.320611715317
-0.00589060783386	0.94793510437	-0.113825321198	0.0234868526459	1.4286301136	-0.317976474762
-0.00689768791199	0.94441819191	-0.114417672157	0.0277450084686	1.42783772945	-0.315735220909
-0.00690412521362	0.94300699234	-0.113791942596	0.0289015769958	1.42559790611	-0.313845872879
-0.0112950801849	0.944205284119	-0.115671157837	0.0286145210266	1.42363107204	-0.312298774719
-0.0164084434509	0.945074558258	-0.117047548294	0.0277903079987	1.42420971394	-0.310539960861
-0.0128903388977	0.940272331238	-0.11363697052	0.0262498855591	1.42591285706	-0.309005022049
-0.00190210342407	0.935218572617	-0.107997775078	0.0242373943329	1.42844283581	-0.307662606239
0.00714373588562	0.927664756775	-0.102690458298	0.0221493244171	1.43143343925	-0.307204008102
0.00907635688782	0.904589891434	-0.102699518204	0.0189056396484	1.43395876884	-0.307488918304
0.00369548797607	0.879322528839	-0.110133171082	0.0146870613098	1.43606889248	-0.306594014168
-0.00367760658264	0.865089893341	-0.118850469589	0.00988674163818	1.43809556961	-0.304147481918
-0.00996804237366	0.865556240082	-0.121533036232	0.00326228141785	1.43964362144	-0.300635814667
-0.0134644508362	0.869491100311	-0.120434761047	-0.00489330291748	1.43978381157	-0.298248291016
-0.0176384449005	0.87357211113	-0.120523929596	-0.0132946968079	1.43799388409	-0.298128604889
-0.0206251144409	0.875910997391	-0.120843648911	-0.0206010341644	1.43682742119	-0.299366950989
-0.0207870006561	0.877904653549	-0.120717048645	-0.0272717475891	1.4365427494	-0.302022337914
-0.0190436840057	0.881263256073	-0.119670152664	-0.0329554080963	1.4349257946	-0.306180000305
-0.0174379348755	0.885073900223	-0.118390917778	-0.0375170707703	1.43258655071	-0.310323953629
-0.0155341625214	0.886407136917	-0.119809985161	-0.0418009757996	1.43110501766	-0.314163088799
-0.0138173103333	0.885572195053	-0.122311472893	-0.0449209213257	1.42976307869	-0.318034648895
-0.0138466358185	0.886815071106	-0.123175859451	-0.0456659793854	1.42765581608	-0.321715831757
-0.0158662796021	0.889762401581	-0.124295115471	-0.0444180965424	1.42499482632	-0.324732303619
-0.0163159370422	0.89180803299	-0.124920487404	-0.0429046154022	1.42298638821	-0.326964020729
-0.0157487392426	0.892121076584	-0.126085877419	-0.0386428833008	1.41921365261	-0.328270077705
-0.0157663822174	0.892642498016	-0.127526879311	-0.0300023555756	1.41715788841	-0.327443957329
-0.0169224739075	0.893603563309	-0.128261804581	-0.0198261737823	1.41403865814	-0.327013134956
-0.0180439949036	0.895175933838	-0.128443956375	-0.0113253593445	1.40917921066	-0.327751636505
-0.0168318748474	0.895457029343	-0.129984378815	-0.00697827339172	1.40445363522	-0.328797459602
-0.0144753456116	0.893159627914	-0.133070588112	-0.00755453109741	1.40258300304	-0.328790426254
-0.0129435062408	0.889403581619	-0.135801911354	-0.0120875835419	1.40279066563	-0.328990340233
-0.0137887001038	0.889604091644	-0.13506925106	-0.0195531845093	1.40292692184	-0.329494953156
-0.016720533371	0.891730308533	-0.13441324234	-0.0289044380188	1.40219795704	-0.330370545387
-0.0188074111938	0.891684293747	-0.134234428406	-0.0383248329163	1.40220808983	-0.331146478653
-0.0208313465118	0.890712976456	-0.133817195892	-0.0459146499634	1.40209174156	-0.331819534302
-0.0233104228973	0.890921354294	-0.133414268494	-0.0499255657196	1.40175318718	-0.331979751587
