0.0	-0.0	-139.496139526	-25.4552879333	82.3887863159	45.4159545898
0.0	-0.0	-140.152572632	-25.7113323212	81.4777450562	45.0713157654
0.0	-0.0	-138.325714111	-25.5765533447	81.0782699585	44.8380851746
0.0	-0.0	-130.056991577	-25.005437851	80.3210754395	43.9416465759
0.0	0.0	-118.116905212	-23.9071216583	79.3418960571	42.6802101135
0.0	0.0	-103.47026062	-22.8387928009	78.6985321045	42.2801971436
0.0	0.0	-88.6743774414	-22.5093631744	78.3052215576	41.9906921387
0.0	0.0	-73.341796875	-22.1564121246	77.8233795166	41.6803894043
0.0	0.0	-62.1979866028	-21.507900238	77.2835998535	41.3589363098
0.0	0.0	-59.048084259	-21.0461387634	77.3310394287	41.6880149841
0.0	0.0	-64.8538131714	-21.4342269897	76.9294586182	42.1742897034
0.0	0.0	-72.2911529541	-22.8895435333	74.5752029419	40.862247467
0.0	0.0	-73.1313171387	-22.4087772369	72.8934707642	32.4988250732
0.0	0.0	-66.6479721069	-19.5171203613	70.1898574829	22.6571369171
0.0	0.0	-57.8019447327	-16.1794300079	66.2988586426	15.9666624069
0.0	0.0	-50.4403381348	-13.4144515991	65.1533737183	10.3054885864
0.0	0.0	-44.1643409729	-10.7765598297	67.6122207642	2.7535378933
0.0	0.0	-41.7126159668	-10.4776153564	74.2532653809	-8.08291530609
0.0	0.0	-41.744884491	-14.8001174927	77.4411621094	-8.2899274826
0.0	0.0	-42.4185066223	-19.5178031921	80.5723266602	-6.47152280807
0.0	0.0	-43.1079864502	-20.9121513367	82.4239654541	-5.13352918625
0.0	0.0	-44.3281402588	-21.6094875336	83.1675567627	-3.93287944794
0.0	0.0	-46.4655799866	-22.6417617798	84.7310333252	-4.74455499649
0.0	0.0	-49.3858413696	-24.6880760193	85.6469192505	-5.01611185074
0.0	0.0	-52.038734436	-26.2723350525	87.1234283447	-4.87219047546
0.0	0.0	-55.1419372559	-28.1645145416	87.9534378052	-5.46846294403
