0.0	-0.0	-137.978515625	-77.7006912231	83.5447235107	-12.4899463654
0.0	-0.0	-138.518051147	-78.5055770874	83.2268676758	-12.6545314789
0.0	-0.0	-136.281555176	-79.4767303467	83.0854187012	-12.7734746933
0.0	0.0	-115.118713379	-79.7890930176	82.3636016846	-12.564043045
0.0	0.0	-79.0881576538	-77.8690261841	81.9051818848	-11.3918180466
0.0	0.0	-52.0509567261	-72.4747238159	78.7533798218	-9.21538829803
0.0	0.0	-38.3701934814	-64.1214599609	72.0997924805	-8.22290992737
0.0	0.0	-39.9495391846	-49.9767150879	63.5448951721	-14.6788835526
0.0	0.0	-48.7810249329	-36.4632453918	56.8889427185	-23.2909069061
0.0	0.0	-54.14818573	-22.8208656311	53.899471283	-36.4203605652
0.0	0.0	-57.7077178955	-11.240521431	53.0870933533	-48.3664131165
0.0	0.0	-60.6422195435	0.382582575083	52.5024032593	-60.2071723938
0.0	0.0	-62.1841659546	11.012345314	57.0912666321	-71.0194549561
0.0	0.0	-62.886428833	13.4617872238	65.160118103	-63.1725883484
0.0	0.0	-64.163848877	13.5058116913	79.4541549683	-63.4229011536
0.0	0.0	-64.490852356	-164.57824707	88.0847396851	111.267852783
0.0	0.0	-63.2643241882	-163.38218689	78.5047836304	107.073905945
0.0	0.0	-61.7518119812	-160.375915527	64.6120376587	99.5280838013
0.0	0.0	-60.0708694458	-156.751678467	62.5047492981	112.165527344
0.0	0.0	-57.250164032	-156.03767395	72.2287597656	133.302368164
0.0	0.0	-52.8432044983	-153.290649414	80.4763870239	159.425979614
0.0	0.0	-48.7542724609	-152.164016724	78.7850036621	176.464080811
0.0	0.0	-46.6578712463	-144.227981567	60.9249382019	152.829605103
0.0	0.0	-45.2542228699	-144.640365601	34.4994850159	116.974113464
0.0	0.0	-44.8311882019	-150.870193481	33.1882133484	115.531028748
0.0	0.0	-44.6418762207	-161.857925415	39.640296936	120.261779785
0.0	0.0	-45.0090179443	-170.41583252	50.4525680542	137.429214478
0.0	0.0	-46.3704681396	-173.802749634	57.2079277039	148.628417969
0.0	0.0	-47.9129600525	-171.709945679	52.3492164612	137.799087524
0.0	0.0	-50.4729003906	-166.593475342	46.5094871521	132.482070923
0.0	0.0	-52.0889625549	-162.749649048	44.0888671875	132.996948242
0.0	0.0	-53.0590362549	-157.96395874	41.1144561768	128.000808716
0.0	0.0	-53.2649650574	-150.67565918	49.526096344	153.517379761
0.0	0.0	-51.5676803589	-153.371078491	65.1522521973	-173.934860229
0.0	0.0	-49.7858390808	-155.716415405	71.1844100952	-159.357315063
0.0	0.0	-48.9602012634	-155.195007324	72.9452590942	-156.447494507
0.0	0.0	-48.9014816284	-152.092498779	68.9997558594	-166.888656616
0.0	0.0	-48.7299385071	-151.791992188	61.9200286865	175.731307983
0.0	0.0	-47.3076477051	-154.428085327	55.218006134	158.44052124
0.0	0.0	-46.275302887	-157.730911255	54.4578590393	147.947158813
0.0	0.0	-46.2644195557	-160.105728149	55.7593803406	144.074020386
0.0	0.0	-46.080657959	-161.369033813	61.9462280273	159.723495483
0.0	0.0	-45.4592857361	-163.270889282	63.5271453857	171.866424561
0.0	0.0	-41.8952713013	-162.18586731	53.1300544739	155.281005859
0.0	0.0	-31.5253429413	-164.904174805	46.9979934692	143.266098022
0.0	0.0	-27.5751667023	-169.936279297	42.0570640564	127.074638367
0.0	0.0	-27.8774261475	-178.387573242	40.9115066528	114.13457489
0.0	0.0	-27.1685256958	174.733856201	46.4434127808	120.109352112
0.0	0.0	-26.4488563538	175.997543335	61.84582901	159.275253296
0.0	0.0	-25.1353969574	176.069610596	75.3184967041	-149.626998901
0.0	0.0	-23.8643398285	-178.475082397	73.0730361938	-149.084716797
0.0	0.0	-22.9654178619	-172.833023071	68.0204315186	-155.010528564
0.0	0.0	-22.523191452	-170.954071045	60.0846672058	-170.348876953
0.0	0.0	-22.8357543945	-170.949020386	57.9028930664	-176.920623779
0.0	0.0	-22.8524608612	-171.737045288	56.9033088684	175.593917847
0.0	0.0	-22.90184021	-172.319274902	55.1267280579	168.499359131
0.0	0.0	-24.144071579	-173.024703979	53.0911598206	161.527267456
0.0	0.0	-24.8472881317	-173.614974976	52.6964607239	158.851776123
0.0	0.0	-25.2539024353	-174.820724487	48.9666023254	154.155197144
0.0	0.0	-25.4944343567	-175.676834106	42.7615852356	146.133987427
0.0	0.0	-25.901008606	-176.358108521	40.1469039917	141.384857178
0.0	0.0	-26.6354522705	-178.322921753	42.1086959839	142.091461182
0.0	0.0	-27.9402370453	-179.312164307	48.2806472778	156.222900391
0.0	0.0	-29.5894775391	179.891662598	48.6304206848	161.978424072
0.0	0.0	-30.9407691956	-178.858596802	43.5988121033	157.315673828
0.0	0.0	-31.6097507477	179.000167847	34.8314781189	149.786422729
0.0	0.0	-30.3710746765	170.175323486	32.2457580566	145.181564331
0.0	0.0	-29.9613895416	165.697769165	33.2386474609	141.574920654
0.0	0.0	-30.2322788239	163.251556396	36.2216873169	136.550033569
0.0	0.0	-30.527721405	162.944412231	49.9696044922	170.462982178
0.0	0.0	-32.3119544983	162.448364258	57.2035903931	-163.877029419
0.0	0.0	-42.8437919617	162.457977295	54.5249862671	-168.389602661
0.0	0.0	-65.2607574463	161.976760864	52.2381439209	-169.111633301
0.0	0.0	-78.1569213867	162.875091553	52.2934379578	-171.852172852
0.0	0.0	-84.4642944336	164.594512939	53.164932251	-175.381332397
0.0	0.0	-104.369697571	165.520004272	52.1006813049	-178.067169189
0.0	0.0	-119.120231628	165.769454956	50.6874008179	-179.115509033
0.0	0.0	-111.344978333	164.584320068	52.0538215637	179.342132568
0.0	0.0	-90.7472686768	164.656723022	54.0230484009	176.815933228
0.0	0.0	-67.8410491943	165.795501709	54.0457496643	172.2943573
0.0	0.0	-47.7468109131	167.019256592	54.1436653137	165.751754761
0.0	0.0	-46.6766242981	166.995193481	52.9152565002	158.403060913
0.0	0.0	-57.9905815125	166.669128418	50.1078262329	148.097076416
0.0	0.0	-62.1670722961	167.105026245	50.1610412598	146.243804932
0.0	0.0	-44.897644043	167.803009033	54.543888092	157.835327148
0.0	0.0	-18.560503006	168.281677246	55.5527114868	159.555450439
0.0	-0.0	5.1004242897	168.8724823	55.6309585571	160.016876221
0.0	-0.0	26.5095653534	168.936157227	54.7940635681	158.365341187
0.0	-0.0	38.6507110596	168.842514038	53.675037384	153.913742065
0.0	-0.0	41.4711608887	169.614212036	51.3427581787	146.491363525
0.0	-0.0	40.9997138977	170.697799683	45.9103813171	135.394973755
0.0	-0.0	40.5659828186	174.035995483	41.2982139587	130.222930908
0.0	-0.0	39.9500961304	175.808105469	38.3157463074	127.247306824
0.0	-0.0	39.3482322693	176.962509155	38.1425476074	127.071098328
0.0	-0.0	38.9976119995	176.518600464	39.2327613831	127.778999329
0.0	-0.0	35.2374954224	174.852920532	39.0031089783	127.200004578
0.0	-0.0	23.8848400116	174.426544189	37.6496925354	125.811416626
0.0	-0.0	18.9014434814	175.166656494	37.0503959656	124.041969299
0.0	-0.0	15.6260852814	174.983123779	38.4638938904	126.975952148
0.0	-0.0	14.2482299805	174.980255127	38.5636787415	126.647239685
0.0	-0.0	20.6477794647	175.266967773	38.6422653198	126.247344971
0.0	-0.0	33.9733657837	175.910339355	38.8405761719	125.830612183
0.0	-0.0	46.7671394348	176.704055786	39.1307640076	125.831443787
0.0	-0.0	53.8334884644	176.654937744	39.4545860291	126.103103638
0.0	-0.0	58.3856735229	176.118972778	40.0363616943	126.222290039
0.0	-0.0	62.0278282166	176.060287476	40.2747764587	126.380905151
0.0	-0.0	62.2676582336	176.21257019	40.1785011292	126.606163025
0.0	-0.0	59.5053253174	176.560409546	40.4895591736	126.62828064
0.0	-0.0	57.4056892395	176.469802856	41.0577392578	126.463188171
0.0	-0.0	57.2507095337	176.933532715	40.5510177612	125.82019043
0.0	-0.0	56.7610054016	177.428421021	39.8793411255	127.064620972
0.0	-0.0	56.1389389038	179.082763672	37.3775482178	128.49256897
