-57.3285064697	-7.6170501709	-4.74876594543	-12.9508199692	22.7940330505	-33.3558120728
-57.2530479431	-7.65806913376	-4.69324064255	-12.8596715927	22.857717514	-33.3784446716
-57.030872345	-7.84432077408	-4.58207178116	-12.1673355103	22.6975517273	-33.084903717
-55.1366271973	-8.5954656601	-4.60135221481	-9.08283805847	21.8340415955	-31.6270599365
-50.9276733398	-9.39493179321	-5.50224304199	-3.86867785454	20.6528720856	-29.4969043732
-47.6640434265	-10.6843147278	-5.45597648621	1.45870792866	18.4590816498	-27.2252616882
-44.4383087158	-13.0715293884	-3.53112435341	5.21785879135	14.42000103	-25.2942848206
-41.893737793	-15.924038887	2.81776642799	6.95685434341	10.1160306931	-24.3311214447
-39.1916656494	-17.4455413818	5.14830303192	7.60344648361	5.78272342682	-24.0161437988
-36.71641922	-18.5573749542	8.77543354034	8.2734079361	1.86575615406	-23.9839115143
-33.7080307007	-19.3185482025	8.71361160278	9.16923618317	-0.899451255798	-23.8785743713
-31.4529514313	-21.9762039185	10.0983762741	9.77594947815	-2.73587822914	-23.7746715546
-29.2135562897	-25.6110496521	9.66206645966	10.185379982	-4.24012899399	-23.9658851624
-27.4631233215	-30.847410202	11.5310163498	10.508441925	-4.95598745346	-24.3946437836
-25.2263431549	-34.074306488	11.146982193	10.7001085281	-5.19512796402	-24.846912384
-25.0081577301	-34.0916252136	10.7444391251	10.8053808212	-5.25002479553	-25.079164505
-25.1593971252	-34.0620880127	10.4316864014	10.9542293549	-5.3894033432	-25.3209400177
-25.197883606	-34.9557609558	10.9149169922	11.1730594635	-5.86616659164	-25.5504074097
-24.9603309631	-36.3717193604	11.7061700821	11.3584518433	-6.16605949402	-25.690404892
-24.4560394287	-37.5798873901	11.9472312927	11.5266990662	-6.3728094101	-25.6348056793
-24.0901641846	-38.6205062866	12.2599687576	11.6055898666	-6.50279903412	-25.6823234558
-23.1837787628	-39.8737411499	12.0917100906	11.8230772018	-6.24883508682	-25.6947193146
-22.1203193665	-40.1945457458	10.6042509079	12.0121183395	-4.97880315781	-25.5773563385
-21.851858139	-40.4720153809	10.425904274	13.0557279587	-5.50011110306	-26.3068599701
-21.7491188049	-39.9063911438	9.86156654358	14.1909389496	-8.11851406097	-27.3560733795
-21.9925365448	-39.0834197998	9.78284263611	14.5694684982	-9.72622871399	-28.5146350861
-21.8398685455	-39.0235939026	9.47451496124	14.6096897125	-9.37102890015	-28.3423271179
-21.8408355713	-39.5008811951	9.30033016205	14.9162111282	-9.52137088776	-27.3977298737
-21.938911438	-39.3344039917	9.41545200348	15.2159738541	-9.60944461823	-28.219865799
-21.9042816162	-39.0208129883	9.43359565735	15.3287992477	-8.43169021606	-33.339881897
-22.0440006256	-39.5938529968	9.1475276947	15.2944097519	-6.78297615051	-37.9318313599
-22.11369133	-40.6277351379	8.25874233246	15.287776947	-6.5543422699	-38.1471481323
-22.2384586334	-40.8094558716	7.85178995132	15.3327379227	-8.16799449921	-34.3124694824
-21.5415039062	-40.5251121521	6.63805484772	15.7672224045	-9.88222694397	-25.9485778809
-21.6194763184	-40.7873382568	6.16344308853	14.8934612274	-10.4716339111	-16.9437255859
-21.5318603516	-41.0161399841	5.90915822983	11.873213768	-10.7904996872	-9.27268981934
-21.4909915924	-40.6791763306	5.75962543488	9.3068447113	-9.8189163208	-5.06223630905
-21.8220252991	-40.3021507263	5.65457439423	7.30319356918	-6.94107151031	-4.40519857407
-21.9019851685	-40.3340415955	4.59853792191	5.21329927444	-2.61672973633	-6.23318910599
-21.4106788635	-39.6887741089	0.577741324902	2.67879390717	1.78086483479	-9.30782222748
-20.8794746399	-39.6337203979	-1.97248113155	0.611968159676	4.3873758316	-12.6724815369
-19.5974006653	-39.1800994873	-5.03503274918	0.11477471143	4.53619098663	-14.5598192215
-19.0704631805	-38.4449958801	-6.08252334595	-1.02663302422	4.65815925598	-16.1737995148
-19.2861652374	-38.2530632019	-5.27313804626	-3.66377019882	5.90431165695	-18.6650390625
-20.4024009705	-39.5529670715	1.17201805115	-5.07205104828	5.66190910339	-19.6025295258
-21.0036525726	-38.5509147644	1.8359811306	-5.95300006866	5.1034116745	-20.4623126984
-20.6703510284	-38.5796279907	1.42241597176	-6.30268383026	5.3720035553	-20.8786277771
-20.7829360962	-38.5152320862	1.21128225327	-6.41377401352	5.72384548187	-21.2628078461
-21.1638889313	-38.6057167053	1.55333685875	-7.49155378342	5.50330257416	-22.2538490295
-21.1550216675	-39.030002594	2.99192810059	-9.44761657715	4.43056821823	-23.6691246033
-22.3980369568	-40.1315116882	7.57323217392	-10.5540685654	2.95892739296	-24.3212890625
-22.6579494476	-40.0386428833	7.86935758591	-9.77997970581	1.46311080456	-23.653459549
-22.8176803589	-40.0812492371	7.79857587814	-9.10583305359	0.0570708662271	-23.6705265045
-23.0142555237	-40.3258972168	7.77890777588	-9.72740077972	-1.75360655785	-25.2513217926
-23.4708652496	-40.92445755	8.24270534515	-10.7951822281	-3.87981653214	-27.2668800354
-23.6027183533	-40.9964447021	8.19113254547	-10.9127702713	-5.10000038147	-28.4004058838
-23.7619380951	-40.870880127	7.96974563599	-9.98923206329	-5.13586378098	-28.6377391815
-23.9364299774	-41.036907196	7.8497262001	-9.31790828705	-4.9413895607	-28.5705165863
-23.2455158234	-42.6071434021	9.10081005096	-9.11301040649	-4.94945383072	-28.4499797821
-24.1089172363	-44.2391815186	12.5493822098	-9.09095573425	-4.86642837524	-28.4763126373
-24.2002410889	-45.0102462769	13.0500907898	-9.10286521912	-4.55234861374	-28.5551643372
-26.8165054321	-47.8496284485	18.9478492737	-8.89946651459	-4.23792457581	-28.4155197144
-29.6774539948	-50.3130493164	23.6049766541	-8.71609592438	-4.1633143425	-28.3863925934
-30.3538627625	-51.1912536621	23.7378177643	-8.39257717133	-3.93715524673	-28.3796081543
-30.0378227234	-51.0957107544	22.4489002228	-7.95541477203	-3.77852058411	-28.4745769501
-26.3384075165	-49.2078018188	13.3895750046	-7.71204805374	-3.61680674553	-28.505273819
-22.7045326233	-48.3880767822	2.99337506294	-7.47278165817	-3.36314320564	-28.4703903198
-21.2029953003	-48.1379508972	-5.19620895386	-7.27134656906	-3.1184194088	-28.5741710663
-22.0422325134	-49.6118621826	-2.95748448372	-6.90799856186	-2.91715741158	-28.6866989136
-23.0274868011	-50.3732147217	1.49369060993	-6.44599628448	-2.88349199295	-28.6591796875
-25.8565998077	-50.9113121033	8.32804965973	-6.11410331726	-2.99408054352	-28.5984973907
-30.1390171051	-51.5353088379	16.068277359	-6.00912284851	-3.07034516335	-28.4980983734
-35.4383468628	-51.8489990234	24.2090473175	-5.98988723755	-3.00815415382	-28.4059333801
-39.1618766785	-51.9554481506	29.7406101227	-5.85709905624	-2.84034514427	-28.29322052
-40.0347061157	-51.9367141724	30.8550605774	-5.60109996796	-2.60838294029	-28.1619510651
-38.5882072449	-51.7651596069	29.3560962677	-4.84867525101	-2.09665679932	-28.2014732361
-36.5052452087	-51.1563720703	26.8172950745	-3.06904172897	-1.34019958973	-28.8336410522
-32.7985458374	-50.1368751526	22.2452087402	0.343079984188	-0.348848640919	-30.3933238983
-28.082201004	-49.136882782	15.5279254913	5.22962808609	0.897459328175	-32.9671211243
-25.3037414551	-48.4690246582	11.5121545792	10.8127222061	2.32067370415	-36.0221557617
-24.8745574951	-48.9451713562	11.6323633194	15.2839670181	2.97571468353	-37.4921913147
-24.4448490143	-49.3126983643	11.3547811508	18.0535373688	0.9455037117	-35.2070808411
-23.5372314453	-49.4868927002	10.5867738724	19.5105400085	-3.53065776825	-30.9040203094
-22.8199367523	-49.4240608215	9.70729064941	18.7111206055	-7.33591079712	-27.6381950378
-23.3264961243	-49.8795585632	9.61413002014	17.357635498	-9.43777656555	-25.0939826965
-23.7546348572	-50.6021575928	8.97873210907	15.6546087265	-11.151096344	-22.6857719421
-24.5109767914	-51.3462524414	9.9233751297	13.7242565155	-12.2906389236	-20.7359809875
-23.9095840454	-52.5355300903	11.375875473	12.2433595657	-12.2787160873	-19.6950531006
-20.5823974609	-53.2926177979	9.7206659317	11.6992645264	-11.6700315475	-19.5798625946
-16.8101596832	-54.2833213806	8.31308555603	11.713511467	-10.8391180038	-19.7780799866
-9.6631565094	-54.5745697021	3.09119224548	11.7151432037	-10.3223009109	-20.0072593689
-4.0611410141	-51.8103599548	-5.0132188797	11.8136701584	-9.85562992096	-20.2997322083
1.8602565527	-47.7909126282	-8.37598991394	11.9761381149	-9.35580825806	-20.5035514832
8.44291210175	-42.2504348755	-13.3894701004	12.0984401703	-9.13094329834	-20.5894851685
13.6772403717	-38.3834762573	-16.3129310608	12.0090112686	-9.12128639221	-20.8047237396
15.805437088	-38.1983032227	-15.573223114	11.7377023697	-9.080950737	-20.8431491852
15.523481369	-37.1160163879	-15.8795385361	11.403594017	-8.79734039307	-20.7284812927
14.1146612167	-36.9646339417	-14.3449344635	11.1276111603	-8.47173118591	-20.8144702911
10.7740945816	-37.4829826355	-9.69717502594	10.9679269791	-8.32533168793	-20.9706516266
4.99094676971	-38.7751045227	-3.37008523941	10.9436597824	-8.1371307373	-21.1129970551
1.73122799397	-38.5649909973	-1.23474514484	10.9251289368	-7.80490350723	-21.1841011047
-0.742566227913	-37.9256210327	0.114514119923	10.9301118851	-7.44139719009	-21.3922214508
-3.65408849716	-38.6428642273	3.93886137009	10.9417991638	-7.2952170372	-21.5822696686
-6.19403553009	-40.0154914856	8.81569480896	10.8303794861	-7.26997709274	-21.5919055939
-7.82193565369	-40.7026367188	11.7160606384	10.6825742722	-7.32086181641	-21.6619300842
-8.86388111115	-41.2525177002	13.1882162094	10.7053499222	-7.30197715759	-21.7860450745
-10.0142173767	-41.7370948792	14.6468725204	10.823135376	-7.15485811234	-21.9125099182
-11.5582675934	-42.542339325	16.8377304077	10.895275116	-6.97182512283	-21.9778652191
-12.7736625671	-43.4021034241	19.2578334808	10.9308776855	-6.72844648361	-22.0636501312
-15.8397293091	-46.0833473206	26.6733531952	10.9253196716	-6.57380580902	-22.1824455261
-19.8754234314	-48.0997772217	34.590385437	10.9395980835	-6.52740430832	-22.3908519745
-22.3877658844	-49.3796882629	39.3102684021	11.0089836121	-6.50485897064	-22.5343551636
-20.1305961609	-48.9334602356	35.1329689026	11.123333931	-6.48386240005	-22.7072296143
-13.0165615082	-46.0250968933	21.5458507538	11.3083705902	-6.3782749176	-22.9084453583
-7.14384365082	-42.8074417114	9.27330207825	11.4140748978	-6.19043636322	-23.050031662
-4.73773670197	-42.0507240295	5.72505378723	11.4732618332	-5.95191335678	-23.0915584564
-3.59306669235	-41.8499641418	4.04711771011	11.5367441177	-5.66469812393	-23.1710014343
-3.58232831955	-41.8162002563	3.87601709366	11.5171976089	-5.48078966141	-23.1754207611
-3.38838386536	-41.8004608154	3.94451284409	11.5206947327	-5.40415525436	-23.482088089
-3.32114505768	-41.7250175476	4.17659568787	10.7137975693	-5.44361543655	-25.6859741211
-2.9704914093	-41.7824287415	3.82085347176	8.14081954956	-5.4832034111	-27.437997818
-2.80845594406	-42.1323814392	3.20505690575	4.24259376526	-5.76284360886	-25.8154830933
-2.94207549095	-42.1749916077	2.84587645531	-1.46757149696	-5.83507347107	-21.516330719
-2.63118839264	-42.1272659302	2.25746417046	-6.33353185654	-4.83456039429	-16.5322341919
-2.69041824341	-42.3061332703	1.75273668766	-9.24844741821	-2.57194161415	-10.5002212524
-3.45533490181	-42.6429977417	1.91760575771	-10.8756666183	0.51850694418	-4.13652849197
-3.92187976837	-42.8029632568	1.87003719807	-10.6765108109	4.03897047043	1.91592526436
-4.20593976974	-42.9352836609	1.87559080124	-8.95263290405	8.02110481262	7.38881397247
-3.93836593628	-43.2428092957	1.53963160515	-7.09244585037	11.2229413986	10.0591697693
-3.17128396034	-43.2852630615	0.664327442646	-6.4797077179	12.4974031448	8.02005577087
-1.39394164085	-42.8374557495	-1.77184057236	-6.10029363632	13.6507434845	2.45288681984
0.382285743952	-41.3922462463	-5.60103559494	-5.7771487236	14.1793441772	-5.58452701569
0.926748752594	-39.6522407532	-7.17379999161	-4.48171663284	13.7143688202	-14.7580909729
1.17158663273	-37.7748947144	-8.67680740356	-1.96962296963	13.8563299179	-24.6214351654
0.389313310385	-37.4360580444	-8.09381008148	1.71447443962	14.815205574	-34.4899024963
0.277492463589	-37.8474388123	-8.40517139435	5.6582493782	16.024887085	-39.2041664124
0.0053721354343	-38.5803565979	-8.06223487854	7.37369585037	15.9239759445	-39.3378829956
-0.0815837085247	-39.277381897	-8.50786781311	6.74394655228	14.4918432236	-39.7111244202
2.49404883385	-39.4437255859	-13.8398208618	5.75090503693	12.7619457245	-39.5270195007
6.2435336113	-38.718711853	-18.585893631	5.41091251373	10.6256895065	-37.9680137634
14.0799350739	-38.6426849365	-21.1199054718	5.51029729843	8.51309490204	-36.2329101562
22.8668766022	-34.3764915466	-23.822259903	5.56275653839	7.05540275574	-34.6346168518
29.542427063	-25.5100536346	-30.3022003174	5.94994783401	6.11979007721	-33.692237854
34.7203483582	-18.0555419922	-34.7204284668	6.74238204956	5.94445228577	-33.3892478943
37.3451042175	-12.5089540482	-37.2541236877	7.50445795059	6.41173458099	-33.3295669556
39.6014785767	-12.1495494843	-36.7674636841	7.86859560013	6.85818004608	-33.3189697266
42.1752738953	-12.5351629257	-36.7943649292	7.96344423294	6.89794683456	-33.376335144
44.5131759644	-13.951294899	-36.5058403015	8.04818344116	6.9274020195	-33.3359336853
46.6059494019	-15.6769351959	-35.9225463867	8.11849975586	6.94828128815	-33.0930480957
47.5595474243	-16.750919342	-35.2438354492	7.98887681961	6.83502817154	-32.7511711121
47.665019989	-14.2067966461	-37.1723251343	8.04814052582	6.78542232513	-32.4685592651
47.6673736572	-9.55884838104	-40.1386184692	8.36113262177	6.57157182693	-32.4890708923
50.819480896	-4.35988283157	-41.1074905396	8.72083282471	6.35216093063	-32.4428291321
56.8432731628	-2.43298125267	-40.5126686096	8.82930374146	5.93813943863	-32.3206939697
64.4847412109	-3.97123599052	-38.1394691467	8.46762943268	5.65943622589	-32.4207763672
69.9422531128	-7.23644685745	-35.6105308533	8.15469074249	5.4134888649	-32.3947982788
69.4995346069	-10.5106697083	-35.3888626099	8.04354953766	5.27973413467	-32.1942024231
62.8402099609	-13.0293750763	-35.2320022583	8.06874656677	5.22855854034	-31.8798294067
47.1331138611	-17.0489959717	-32.5655784607	8.23355388641	5.1887960434	-31.61693573
31.2678375244	-22.7682800293	-26.7001552582	8.40425300598	5.21629333496	-31.5338249207
16.2656211853	-25.3467922211	-20.6687850952	8.39971446991	5.36774158478	-31.4785823822
2.32715845108	-23.9703121185	-18.7167320251	8.30492115021	5.58950519562	-31.6264629364
-13.421172142	-22.1967506409	-15.5209751129	8.25603675842	5.65662288666	-31.8787136078
-30.7274894714	-19.8782291412	-11.7180500031	8.24774646759	5.68149662018	-32.0267829895
-36.486743927	-21.745010376	-6.56445503235	8.38597869873	5.60689878464	-32.0546264648
-34.0888977051	-22.2278499603	-4.06515169144	8.43634605408	5.62303352356	-32.036529541
-30.8031730652	-22.7353916168	-3.12976574898	8.71472358704	5.43215370178	-32.079536438
-27.9280986786	-24.2244338989	-0.158815056086	8.95559978485	5.19047927856	-32.0048179626
-25.3746013641	-26.3842563629	4.27866172791	9.14164638519	4.87634897232	-31.9865627289
-24.8226470947	-29.8679199219	16.9818458557	10.0358324051	2.89303994179	-32.5264892578
-24.2824134827	-32.2159118652	18.7590198517	10.8998374939	-0.121876962483	-34.0792884827
-23.9826068878	-34.01612854	19.015996933	11.287651062	-3.06165361404	-35.8331794739
-24.3937263489	-35.0697441101	18.9899082184	11.8297748566	-4.64452457428	-35.085231781
-24.6520748138	-34.8349533081	19.0394897461	12.1728668213	-4.28918647766	-33.7460594177
-24.3455715179	-34.7494850159	19.1698970795	11.9732809067	-3.58359575272	-35.4342956543
-23.1133079529	-35.279384613	17.9941253662	11.9834260941	-3.43397068977	-36.1326522827
-23.8398685455	-35.3600006104	18.1676673889	11.9774093628	-3.37589621544	-36.2170448303
-23.4122047424	-35.4784851074	17.6940555573	11.8932971954	-3.24532055855	-35.0270690918
-23.45744133	-35.562286377	17.6452217102	12.3178281784	-2.75283432007	-30.7366523743
-24.0635414124	-35.9254684448	17.9924354553	13.1205196381	-2.01512217522	-24.5822257996
-24.1015701294	-36.3379669189	18.1952629089	13.7710475922	-1.00688481331	-17.8549461365
-24.1478557587	-36.6601104736	18.4204692841	14.6309509277	0.189779475331	-9.19979953766
-24.182800293	-37.0374145508	18.4534244537	14.7651443481	1.21774578094	-0.94857186079
-23.9583702087	-37.4408493042	18.3463535309	14.4666061401	2.60162520409	5.01175117493
-22.4259300232	-37.796333313	16.9946346283	13.3078889847	3.57073235512	6.1944270134
-19.1088066101	-38.0490188599	12.997045517	12.4915771484	4.47458410263	2.55010080338
-15.5089759827	-38.5402793884	6.22372245789	12.1376514435	5.36433792114	-2.16776847839
-13.662314415	-38.7274894714	-0.736535429955	12.0035276413	5.43524980545	-5.81890487671
-12.5620384216	-38.3060035706	-5.13490390778	11.6283998489	5.17583036423	-9.46196746826
-10.3093948364	-37.5564956665	-9.80353355408	10.8382444382	4.86930751801	-13.7695245743
-8.90256690979	-36.100730896	-13.5667867661	9.90618896484	4.84355783463	-19.1364860535
-8.90070724487	-36.1438751221	-13.3951950073	8.85915756226	4.81005573273	-24.215171814
-9.19572639465	-36.5086517334	-12.4926395416	7.63511371613	4.45870685577	-27.0999641418
-9.99519729614	-35.77734375	-8.60950279236	5.92496061325	3.90262007713	-29.0977535248
-9.50433254242	-34.0769538879	-8.43781852722	3.90101933479	3.62963700294	-30.9538822174
-9.82153701782	-32.8153343201	-8.2678976059	1.77691030502	3.82762885094	-32.8459472656
-11.774600029	-32.5419197083	-7.46615600586	-0.279806792736	3.97941994667	-34.2505989075
-15.5940513611	-31.4111194611	-5.12111949921	-1.18034875393	4.55145645142	-34.3154754639
-21.9987697601	-30.3157501221	1.18696594238	-0.355469107628	5.37198829651	-33.500415802
-27.1230049133	-28.5711727142	9.43689727783	0.784210622311	5.84329080582	-33.0228424072
-27.8787326813	-26.2475395203	12.8730325699	1.27572715282	6.00974798203	-32.8227806091
-26.705247879	-26.3881492615	13.9563827515	1.48779022694	5.87971305847	-32.8235702515
-25.7341556549	-27.7853908539	14.1160573959	1.95465278625	5.58679008484	-32.8717918396
-24.8246040344	-29.1844329834	13.8559894562	3.02609801292	3.90053510666	-33.0160942078
-24.3600521088	-30.2625102997	14.3774194717	4.27942705154	0.46983358264	-33.8567237854
-24.6561794281	-31.7234630585	14.8252601624	4.87836408615	-3.86721134186	-33.9898605347
-25.2614517212	-33.0794487	15.5576648712	4.95533561707	-6.32921504974	-32.1429290771
-25.2579898834	-34.3711204529	15.801987648	5.5987329483	-6.77325534821	-28.9891967773
-24.6119937897	-35.1992950439	15.1687774658	6.38357973099	-6.69150781631	-24.2455539703
-24.4157905579	-35.5450363159	14.9028959274	7.00119781494	-6.14837169647	-19.5411930084
-23.9294128418	-35.7986984253	14.8615808487	6.9726433754	-5.59412527084	-17.7857074738
-22.9219379425	-36.1595535278	13.7686519623	6.84508562088	-4.56896400452	-18.8255195618
-23.1981449127	-36.6610183716	13.2395658493	7.33377170563	-1.81312131882	-22.2701587677
-23.4859676361	-37.5290374756	12.7770090103	8.12371921539	-0.198402106762	-25.7790260315
-23.3865451813	-37.9699783325	12.0347509384	8.4639043808	-0.0411894544959	-27.3733406067
-22.2156581879	-38.0014801025	11.0916976929	8.66007614136	-0.201702773571	-27.9278717041
-20.892988205	-38.1452522278	9.5715045929	9.04228973389	-0.604223966599	-28.5099506378
-20.8962440491	-38.4155540466	9.25705337524	9.69345092773	-2.1802983284	-29.3198165894
-21.3647403717	-38.7113647461	9.55244445801	10.2007074356	-4.41543531418	-30.1243362427
-21.0689640045	-38.9947052002	9.93559932709	10.5588569641	-4.93781042099	-30.8998527527
-20.2461109161	-40.6300964355	8.99859142303	11.4934148788	-3.04940009117	-30.7270050049
-17.1702899933	-39.3200836182	6.85426282883	12.1107902527	-1.7801220417	-30.2331352234
-13.0288515091	-35.1560020447	3.59307360649	12.196931839	-1.53258216381	-30.3872528076
-7.85274076462	-26.8141727448	-6.06054496765	12.0845823288	-1.18530881405	-30.5098609924
-7.04349136353	-22.8119926453	-9.03848934174	11.7279415131	-1.01097679138	-30.5350933075
-8.14668083191	-23.4989795685	-8.80559539795	11.2772703171	-0.877169787884	-30.4327735901
-10.1883907318	-26.8604316711	-4.65146160126	11.0315294266	-0.633350670338	-30.3420162201
-11.3059129715	-28.2298641205	-1.36926603317	11.0988636017	-0.583057045937	-30.358039856
-10.9575634003	-28.1156101227	-1.63252770901	11.2221355438	-0.364633530378	-30.2330360413
-10.4965934753	-27.9892520905	-0.750220119953	11.1919441223	-0.00241655693389	-30.2018623352
-9.88728713989	-29.6023750305	2.8495349884	11.1849975586	0.262132883072	-30.1923866272
-8.86492156982	-34.1462478638	6.85102033615	11.2154893875	0.412587970495	-30.2328510284
-8.59893321991	-42.9841156006	13.7150306702	11.2176465988	0.531450390816	-30.3352947235
-8.5441236496	-49.4428443909	17.4875888824	11.3344230652	0.783039152622	-30.3850975037
-6.03789615631	-51.1608161926	13.4393415451	11.5122785568	1.12097918987	-30.4548149109
-5.23851633072	-50.6314468384	12.1654663086	11.5976829529	1.48390591145	-30.4820079803
-3.41460800171	-48.3521194458	8.98838806152	11.6261081696	1.87117874622	-30.7869682312
-1.56951141357	-43.8398208618	3.57487034798	11.5508584976	2.76360082626	-31.5694561005
-1.22286760807	-35.6944885254	-5.52092695236	11.1877832413	4.94664144516	-33.2286376953
0.16832780838	-26.4226589203	-16.229227066	11.2463274002	6.33417797089	-34.1350975037
0.533827364445	-22.434923172	-19.6373844147	11.3901004791	6.58076906204	-34.3153381348
0.478193819523	-21.1438865662	-20.2065238953	11.3341608047	6.61723804474	-34.4005012512
0.0436985678971	-22.3048877716	-17.861114502	11.3389148712	6.70935964584	-34.2682189941
-1.31574654579	-25.2544403076	-11.2360620499	11.4457139969	7.27973794937	-33.6288719177
-2.09262037277	-26.3988666534	-8.27119159698	11.5902166367	8.1905632019	-32.4282073975
-2.32759094238	-26.3197383881	-7.25549793243	11.7788238525	9.50140476227	-31.2750396729
-3.28275108337	-26.3559112549	-5.6517663002	12.2112016678	12.4652700424	-29.0336799622
-3.20503020287	-27.448474884	-3.58670735359	12.157623291	16.8011875153	-25.6920413971
-3.24957323074	-28.4946403503	-1.14398300648	11.6173095703	18.7270679474	-23.006734848
-4.31190252304	-27.3389644623	1.11677026749	10.1717300415	16.9462528229	-22.4419879913
-7.5044875145	-19.2112045288	1.91251730919	9.08188724518	14.1630353928	-22.2517910004
-7.34626722336	-10.3979072571	-3.23022770882	8.4401102066	11.7818155289	-22.5125541687
-7.90912485123	-7.79227161407	-6.42306280136	8.23811340332	10.5813131332	-22.729019165
-8.04518985748	-6.31913518906	-9.38118743896	8.41497707367	10.5913047791	-22.939491272
-9.63159656525	-5.85691976547	-9.55850982666	8.9114112854	10.7759647369	-23.0443344116
-9.84463310242	-6.88849830627	-7.47209215164	9.20750713348	10.6334762573	-23.0383033752
-9.34732151031	-8.42988300323	-4.22576856613	9.08168983459	10.4202079773	-23.1740951538
-8.37330150604	-10.8644371033	-1.82147336006	8.89026641846	10.0916614532	-23.3778877258
-8.61191749573	-14.3305530548	4.3631939888	8.76251125336	9.33780193329	-23.4447250366
-9.4688835144	-17.4783058167	9.89205551147	8.6192073822	8.39869308472	-23.6312732697
-9.9747838974	-18.0755748749	9.55365371704	8.37002086639	7.67004585266	-23.8552379608
-9.98735237122	-19.0055065155	9.4577703476	8.33877754211	7.21034622192	-24.0864639282
-9.94478225708	-20.4364147186	10.5871353149	8.25780200958	6.57755422592	-24.2252025604
-10.1644573212	-21.4157238007	12.7238073349	7.63019275665	5.55484676361	-24.6609306335
-10.0769519806	-21.3508701324	12.5925884247	6.94330406189	4.3960185051	-25.964799881
-10.5164690018	-21.8022613525	13.456492424	5.71604537964	2.02562785149	-29.416267395
-11.2236471176	-22.536283493	14.6766366959	3.64471149445	-0.772547364235	-33.0003890991
-11.4767532349	-22.9504318237	14.6685810089	3.23447871208	-1.81807076931	-33.7180328369
-11.8835916519	-23.6363601685	14.969045639	5.25810670853	-3.0790002346	-32.5570716858
-11.7115659714	-23.7121238708	14.7269887924	7.59013319016	-5.19477176666	-30.8877277374
-12.1247472763	-23.6547985077	14.9370832443	8.61902618408	-7.18973445892	-30.4373836517
-11.9907341003	-24.0541687012	14.4907531738	8.87303638458	-9.2629108429	-29.6608905792
-12.0656003952	-24.5422096252	14.3754091263	8.93450927734	-11.8540811539	-28.2080974579
-11.7019414902	-24.9514217377	14.0845689774	8.28542041779	-14.0926876068	-25.2240142822
-11.6163358688	-25.0042438507	13.771273613	7.05443191528	-14.4614067078	-20.8019771576
-11.724108696	-25.3937854767	13.6346883774	6.12866258621	-14.4698152542	-16.5841693878
-11.5454740524	-25.9363250732	13.7205667496	5.23463439941	-14.5229711533	-14.1615791321
-11.6431941986	-26.4518737793	13.8080883026	4.44918870926	-14.7207622528	-13.3710803986
-12.0907878876	-26.6956329346	14.1340103149	4.53823518753	-14.7229146957	-13.7507009506
-12.0837955475	-27.0379295349	14.5115537643	5.48363351822	-14.3296499252	-14.8627347946
-11.7072286606	-27.5196285248	15.0420236588	6.92818880081	-13.9834709167	-16.9826641083
