0.0	-0.0	-140.212860107	-23.8327026367	84.2311477661	34.6851272583
0.0	-0.0	-139.208343506	-24.0342178345	84.9122848511	34.9960670471
0.0	-0.0	-137.361923218	-24.4720172882	85.0929336548	35.3407974243
0.0	-0.0	-130.424545288	-24.263299942	84.4627380371	34.8009490967
0.0	0.0	-119.136047363	-23.1768989563	83.7175292969	32.9363594055
0.0	0.0	-105.478416443	-19.6574573517	83.6995162964	26.3460636139
0.0	0.0	-85.9416885376	-15.7079105377	83.2692260742	5.02814769745
0.0	0.0	-72.1585998535	-9.33396148682	80.3651580811	-5.10008811951
0.0	0.0	-66.0514526367	-3.75694704056	80.6840209961	-11.0657806396
0.0	0.0	-62.8659248352	2.39171981812	77.5634231567	-3.02491235733
0.0	0.0	-59.2768135071	7.99962568283	67.1151351929	31.3560295105
0.0	0.0	-57.7780036926	16.0918979645	77.8695526123	22.814245224
0.0	0.0	-57.2551612854	23.0722312927	89.9897155762	6.29883575439
0.0	0.0	-56.4301185608	-151.846084595	69.2659912109	157.15184021
0.0	0.0	-56.4693374634	-151.52973938	64.3973922729	162.771514893
0.0	0.0	-56.0393371582	-152.248825073	65.283706665	-177.918762207
0.0	0.0	-56.9458503723	-148.109512329	59.9695510864	179.206390381
0.0	0.0	-59.6704597473	-142.344665527	61.9236907959	-178.469497681
0.0	0.0	-62.2479171753	-143.529449463	60.8392524719	-178.316680908
0.0	0.0	-65.5814743042	-152.372024536	57.0667037964	179.706039429
0.0	0.0	-69.1380386353	-159.398590088	56.3976745605	177.904266357
0.0	0.0	-72.5688247681	-163.809143066	58.8262825012	179.960067749
0.0	0.0	-75.7503890991	-167.003295898	58.8052558899	179.911117554
0.0	0.0	-74.810508728	-170.918167114	56.9602088928	178.022186279
0.0	0.0	-70.4912414551	-174.991439819	55.5610084534	176.07472229
0.0	0.0	-64.6486358643	-175.828735352	58.9334487915	179.740768433
0.0	0.0	-57.3903846741	-173.578491211	66.4910736084	-168.125228882
0.0	0.0	-48.2508468628	-168.617416382	70.2110061646	-157.652679443
0.0	0.0	-36.6161003113	-165.596466064	72.0599212646	-146.086181641
0.0	0.0	-23.6390457153	-161.185440063	79.6252975464	-128.982040405
0.0	0.0	-10.3182096481	21.4414749146	89.8892059326	64.4143829346
0.0	0.0	-0.600804567337	-152.54246521	88.6504364014	-117.917152405
0.0	-0.0	1.92470347881	-142.035430908	66.6137695312	-160.759765625
0.0	-0.0	1.09518301487	-142.843566895	45.2582244873	167.416244507
0.0	0.0	-0.468696296215	-151.98260498	34.5537338257	154.931091309
0.0	0.0	-2.68348360062	-154.648040771	35.8810539246	155.761184692
0.0	0.0	-5.76342725754	-154.472381592	39.9358901978	161.976882935
0.0	0.0	-10.0234680176	-154.768600464	42.2254257202	165.562240601
0.0	0.0	-14.4258899689	-157.029495239	43.0363731384	167.471893311
0.0	0.0	-19.4356269836	-160.823684692	42.2856407166	167.055480957
0.0	0.0	-26.075460434	-164.235595703	42.3813781738	167.729995728
0.0	0.0	-33.1412277222	-167.038742065	42.9062080383	169.919692993
0.0	0.0	-39.7798194885	-171.40725708	43.4063415527	171.38142395
0.0	0.0	-45.2228927612	-174.147140503	43.392364502	172.359024048
0.0	0.0	-50.9923057556	-175.907531738	43.1321105957	173.308364868
0.0	0.0	-61.3200035095	-177.25340271	42.3503799438	174.059143066
0.0	0.0	-68.2221221924	-179.962524414	41.7660140991	174.08505249
0.0	0.0	-70.7841186523	175.498657227	41.5207366943	171.842956543
0.0	0.0	-73.2168884277	170.592041016	43.5943145752	167.95098877
0.0	0.0	-76.2202148438	167.73387146	45.5476646423	164.04977417
0.0	0.0	-77.6257095337	168.555175781	48.5374794006	162.841293335
0.0	0.0	-79.3075256348	172.293716431	49.9341430664	164.643325806
0.0	0.0	-85.1942138672	177.62298584	48.8892745972	168.448059082
0.0	0.0	-110.121055603	-175.990081787	47.7247161865	173.9427948
0.0	-0.0	-137.611572266	-168.762130737	48.3030433655	177.873336792
0.0	-0.0	-132.360855103	-163.366104126	49.3907165527	179.028076172
0.0	0.0	-108.098854065	-162.652801514	50.5159950256	179.901260376
0.0	0.0	-76.5079727173	-161.827041626	52.1586151123	-179.876098633
0.0	0.0	-45.9467010498	-159.403884888	53.5993041992	178.931564331
0.0	0.0	-25.7678279877	-158.869659424	54.5081977844	178.058486938
0.0	0.0	-20.0230293274	-158.371185303	54.7873840332	177.427368164
0.0	0.0	-24.0073108673	-158.874069214	54.4613113403	176.936080933
0.0	0.0	-31.5547618866	-161.561981201	53.945514679	175.917282104
0.0	0.0	-41.4675712585	-164.452209473	55.4287261963	176.720962524
0.0	0.0	-45.5815963745	-164.111129761	59.400188446	-174.556396484
0.0	0.0	-39.3151130676	-167.351608276	53.2586021423	-174.950439453
0.0	0.0	-31.2657356262	-164.391403198	41.2662239075	171.978744507
0.0	0.0	-23.726644516	-164.540634155	36.7926063538	169.107269287
0.0	0.0	-19.402305603	-164.687805176	36.3749580383	169.241622925
0.0	0.0	-18.1675415039	-164.792144775	37.5646591187	169.499984741
0.0	0.0	-17.6957778931	-165.769622803	38.7416915894	170.754974365
0.0	0.0	-16.9769420624	-167.271987915	38.4252319336	170.879501343
0.0	0.0	-17.6010551453	-168.29359436	37.7430496216	170.806213379
0.0	0.0	-19.6999092102	-169.723510742	37.9289360046	170.063064575
0.0	0.0	-23.3340587616	-171.231109619	37.8946800232	170.11100769
0.0	0.0	-42.2767601013	-173.708648682	36.5019302368	170.96887207
0.0	0.0	-52.8971328735	-176.820205688	35.3007469177	170.675430298
0.0	0.0	-52.6042251587	-178.192184448	35.6180229187	170.168121338
0.0	0.0	-66.9965057373	-178.951187134	34.4738883972	171.611923218
0.0	0.0	-105.931846619	-178.873321533	32.0876235962	174.854156494
0.0	0.0	-118.304405212	-179.643417358	31.4892997742	175.769424438
0.0	0.0	-96.1813583374	178.690032959	32.8241920471	175.640182495
0.0	0.0	-57.6211967468	179.643188477	33.3130149841	175.565734863
0.0	0.0	-11.0342292786	-176.958358765	34.8852119446	175.209320068
0.0	0.0	-2.77083444595	-174.764343262	37.2780075073	176.431793213
0.0	0.0	-18.7976875305	-174.699249268	36.8260421753	178.973815918
0.0	0.0	-37.8584403992	-174.318374634	36.1461486816	178.8853302
0.0	0.0	-49.0897407532	-174.571899414	36.1707839966	179.550674438
0.0	0.0	-54.9619750977	-174.305618286	36.6492042542	-179.789642334
0.0	0.0	-57.7757911682	-175.260299683	37.2228965759	-179.340682983
0.0	0.0	-56.9398040771	-173.600952148	37.1679458618	-178.806594849
0.0	0.0	-56.5121383667	-171.512130737	37.6054191589	179.952575684
0.0	0.0	-53.3018989563	-170.294387817	36.9631500244	-179.875427246
0.0	0.0	-52.3086662292	-170.851425171	36.6692848206	-179.499603271
0.0	0.0	-52.593120575	-172.505279541	36.5186653137	-178.777832031
0.0	0.0	-55.4215965271	-173.997390747	36.0849075317	-177.888046265
