0.0	-0.0	131.880218506	-112.162826538	79.9119415283	179.932571411
0.0	-0.0	131.774337769	-112.072990417	79.2727355957	-179.998794556
0.0	-0.0	131.307510376	-112.917289734	78.8399276733	-179.017410278
0.0	-0.0	126.79649353	-116.72845459	79.0023193359	-174.619842529
0.0	-0.0	117.286079407	-126.867919922	78.4244766235	-166.416732788
0.0	-0.0	109.309089661	-139.475509644	77.2800598145	-159.817764282
0.0	-0.0	108.538566589	-147.173629761	76.9604797363	-154.166168213
0.0	-0.0	106.762748718	-149.855682373	75.0806427002	-151.323867798
0.0	-0.0	100.485748291	-148.299880981	71.4976196289	-149.530609131
0.0	-0.0	85.730255127	-145.017105103	70.1807479858	-150.579162598
0.0	-0.0	70.8576583862	-141.03944397	70.8222579956	-152.967269897
0.0	-0.0	66.0951919556	-138.479141235	72.4053421021	-154.354385376
0.0	-0.0	72.1776046753	-137.698379517	73.7275161743	-155.744262695
0.0	-0.0	82.6443328857	-136.646774292	74.8102416992	-156.550628662
0.0	-0.0	85.2671966553	-135.114776611	74.3460693359	-157.09664917
0.0	-0.0	76.9377670288	-133.198104858	72.4103927612	-158.341659546
0.0	-0.0	66.5022964478	-130.659286499	71.4767303467	-160.079467773
0.0	-0.0	69.6549758911	-130.190338135	72.4444656372	-161.307113647
0.0	-0.0	81.5575942993	-130.673446655	74.7934036255	-162.549041748
0.0	-0.0	93.8306808472	-130.416885376	76.7322387695	-163.987228394
0.0	-0.0	90.5635986328	-129.293457031	76.6838912964	-164.748855591
0.0	-0.0	94.346862793	-129.055114746	75.2236251831	-164.436981201
0.0	-0.0	125.27771759	-133.01083374	70.664100647	-162.031539917
0.0	-0.0	139.934127808	-140.70664978	61.0582885742	-159.275192261
0.0	-0.0	112.183647156	-145.940460205	52.4156723022	-156.642913818
0.0	-0.0	83.034576416	-147.419891357	44.6977233887	-154.285522461
0.0	-0.0	68.8378219604	-149.006988525	39.2063598633	-152.186035156
0.0	-0.0	62.4961738586	-150.839309692	34.0760154724	-149.814987183
0.0	-0.0	60.3644752502	-153.42086792	29.2009525299	-147.131286621
0.0	-0.0	47.1579284668	-156.430953979	23.1217861176	-145.364151001
0.0	-0.0	23.2545394897	-161.87852478	17.2169895172	-138.374786377
0.0	-0.0	22.6436595917	-168.660446167	11.0090847015	-142.31854248
0.0	-0.0	17.7509155273	-169.075149536	11.3311834335	-146.029830933
0.0	-0.0	23.569393158	-165.321853638	13.0849304199	-147.103378296
0.0	-0.0	28.1439495087	-163.264007568	15.0495786667	-148.364212036
0.0	-0.0	30.3699798584	-164.1431427	17.1877403259	-151.081863403
0.0	-0.0	34.6851196289	-164.626159668	17.7636260986	-153.238082886
0.0	-0.0	39.774848938	-164.610488892	17.0854816437	-154.351333618
0.0	-0.0	42.2682380676	-165.964157104	17.2312240601	-156.003051758
0.0	-0.0	42.0678749084	-165.661392212	17.0033817291	-158.217956543
0.0	-0.0	43.4760246277	-163.227371216	15.8557348251	-160.193893433
0.0	-0.0	43.9659767151	-160.440719604	15.3334980011	-161.90473938
0.0	-0.0	44.0047798157	-158.075714111	15.2946872711	-163.464691162
0.0	-0.0	43.860912323	-155.789916992	15.1338768005	-164.732650757
0.0	-0.0	44.466217041	-153.494003296	15.0664234161	-165.300506592
0.0	-0.0	48.7626266479	-150.980697632	15.6038227081	-165.675064087
0.0	-0.0	59.8809051514	-148.175109863	16.2121353149	-165.973052979
0.0	-0.0	69.6742401123	-146.371139526	15.3021459579	-166.602279663
0.0	-0.0	78.1581726074	-144.644714355	13.4867506027	-167.113342285
0.0	-0.0	82.3634490967	-144.158706665	11.8527488708	-167.897293091
0.0	-0.0	80.4030990601	-143.424072266	10.4049005508	-168.691162109
0.0	-0.0	77.286239624	-142.533584595	9.3753862381	-169.600875854
0.0	-0.0	71.399307251	-141.979934692	8.66154956818	-169.901397705
0.0	-0.0	62.6848373413	-141.695114136	9.19155788422	-170.040008545
0.0	-0.0	68.9166183472	-140.161300659	10.4820690155	-169.310180664
0.0	-0.0	78.3012313843	-138.872894287	11.3761672974	-168.436233521
0.0	-0.0	78.7607574463	-137.523605347	11.1136817932	-167.077789307
0.0	-0.0	74.3512420654	-135.946212769	9.3759727478	-165.295761108
0.0	-0.0	64.4173736572	-134.644012451	10.2685823441	-163.770553589
0.0	-0.0	50.2206726074	-133.796768188	13.248541832	-163.007171631
0.0	-0.0	49.5163230896	-132.814147949	15.5594244003	-161.781784058
0.0	-0.0	43.9183311462	-132.258789062	15.7116155624	-161.062026978
0.0	-0.0	39.5867385864	-132.983200073	15.9856834412	-160.644561768
0.0	-0.0	72.6104354858	-133.888626099	15.7996988297	-160.175491333
0.0	-0.0	101.473983765	-134.394363403	14.4142074585	-159.804794312
0.0	-0.0	117.331710815	-133.79850769	12.6719083786	-159.285293579
0.0	-0.0	98.9770355225	-132.796875	10.7119989395	-158.533294678
0.0	-0.0	62.1684913635	-134.323959351	8.12863063812	-158.452331543
0.0	-0.0	56.22290802	-136.709197998	6.18415737152	-159.251983643
0.0	-0.0	50.7166976929	-138.728927612	5.45773983002	-160.18359375
0.0	-0.0	53.085357666	-141.000061035	4.24566841125	-161.580718994
0.0	-0.0	60.5619125366	-143.01020813	1.48151791096	-162.159606934
0.0	-0.0	66.6531982422	-143.96282959	-0.385500848293	-163.04447937
0.0	-0.0	70.1579589844	-143.015304565	-2.20218062401	-163.293197632
0.0	-0.0	71.3377838135	-142.400924683	-5.85883188248	-163.595108032
0.0	-0.0	70.4771575928	-141.3331604	-8.90345668793	-164.406906128
0.0	-0.0	64.3494033813	-140.127227783	-9.8571023941	-165.561584473
0.0	-0.0	54.8240356445	-137.458465576	-13.3571367264	-166.272369385
0.0	-0.0	51.8231925964	-132.715957642	-15.6450862885	-166.160568237
0.0	-0.0	50.736946106	-127.081695557	-14.4012002945	-168.24432373
