-22.9455242157	-83.410194397	131.117980957	-1.59694135189	1.2469098568	-9.71783447266
-21.8871631622	-83.4647140503	130.021911621	-1.50856089592	1.39315104485	-9.61595249176
-21.0641937256	-83.4217910767	129.134506226	-1.27184021473	1.80444526672	-9.46662807465
-19.4474773407	-82.5661849976	126.261650085	-0.696171283722	3.28427839279	-9.2033033371
-14.5665559769	-78.1385345459	115.586013794	0.133171290159	6.70299243927	-8.72849273682
-11.9818916321	-69.6968536377	101.474967957	0.621754169464	11.2064170837	-8.14829063416
-9.53524589539	-63.9749717712	92.8781433105	0.741863906384	15.0940465927	-7.7490105629
-5.84682655334	-62.5225563049	91.1660995483	1.03203034401	17.3493824005	-7.81595468521
-4.79333734512	-61.8740272522	90.2998123169	1.34169018269	19.341966629	-7.94061899185
-5.81846046448	-61.8577461243	91.4728164673	1.51695656776	21.5512332916	-8.09765148163
-6.02373695374	-62.2664375305	92.3299331665	1.68319499493	23.2195777893	-8.29114627838
