0.0	-0.0	133.270568848	-122.576095581	86.0101089478	174.981124878
0.0	-0.0	133.729858398	-122.619384766	85.6516952515	175.042480469
0.0	-0.0	132.060852051	-123.194862366	85.0421066284	176.020843506
0.0	-0.0	128.277191162	-126.700088501	83.9796218872	179.81628418
0.0	-0.0	123.053573608	-135.386276245	84.5303726196	-173.050308228
0.0	-0.0	121.582542419	-151.264373779	89.7543945312	-164.025268555
0.0	-0.0	119.80695343	9.70825481415	83.8471221924	23.2433948517
0.0	-0.0	119.926193237	-1.66728425026	81.3883590698	26.2922992706
0.0	-0.0	116.514038086	-4.37387943268	79.1196212769	24.9104175568
0.0	-0.0	104.72718811	-4.78712272644	76.1461334229	22.2281761169
0.0	-0.0	94.0731506348	-4.42010879517	71.4390487671	19.451007843
0.0	-0.0	89.8421096802	-3.1813416481	67.447303772	16.7665538788
0.0	-0.0	88.9109268188	-1.47567021847	65.0765533447	14.3177518845
0.0	-0.0	86.1684417725	-0.452790796757	63.1852645874	12.7854700089
0.0	-0.0	83.8776245117	-0.0563664324582	60.7942504883	12.1618032455
0.0	-0.0	82.5952682495	-1.01484489441	58.4654541016	11.7513141632
0.0	-0.0	81.88331604	-2.15796041489	57.9372787476	10.7321691513
0.0	-0.0	81.0184555054	-0.943130373955	58.2851524353	8.93352794647
0.0	-0.0	79.3782577515	1.88991808891	58.8447036743	6.74330615997
0.0	-0.0	80.9789428711	3.03286194801	60.6535568237	6.45774173737
0.0	-0.0	80.344367981	1.15737867355	60.3321304321	6.11963272095
0.0	-0.0	82.0268707275	-0.152879551053	60.8400268555	5.49141645432
0.0	-0.0	86.9724502563	1.64835500717	60.7092857361	4.65779781342
0.0	-0.0	88.6823120117	3.93019890785	58.3218460083	4.22245740891
0.0	-0.0	90.9821014404	5.9129076004	52.4437522888	3.94225978851
0.0	-0.0	89.7462081909	5.81668233871	49.5271568298	4.40428638458
0.0	-0.0	89.0992507935	5.10332965851	50.1068077087	5.83610391617
0.0	-0.0	91.8866500854	3.36445665359	51.4824295044	7.16804265976
0.0	-0.0	95.3698196411	1.03487420082	51.4931907654	8.68538761139
0.0	-0.0	95.7875137329	0.216942861676	50.8417282104	9.0742816925
