-39.5101661682	0.55383169651	12.4963283539	2.09737420082	15.5329341888	-33.7801818848
-39.195110321	0.701233565807	12.4571113586	2.5021584034	15.7440166473	-33.5401382446
-38.5989646912	0.624397695065	12.28901577	2.81643843651	14.9481525421	-30.9523887634
-36.7852210999	-0.319539576769	11.3506155014	2.95773625374	13.0573892593	-21.9259128571
-32.6236991882	0.532127022743	9.82572841644	2.18667602539	13.0839824677	-11.6326799393
-30.7961864471	8.38719177246	5.28239583969	-0.218447864056	14.2487306595	-3.66297101974
-28.1000289917	15.2382545471	3.72584676743	-2.98253107071	15.5146627426	1.5335996151
-20.4229335785	19.8774337769	1.90080022812	-4.43049621582	16.4124126434	5.98696517944
-16.1788864136	21.8008708954	4.30236721039	-5.17095661163	17.2647819519	10.233496666
-14.7405538559	22.0055866241	5.90983104706	-6.1728925705	18.4767932892	14.0230894089
-14.7560691833	21.831287384	6.1997013092	-7.5893535614	19.3182621002	17.2987670898
-15.1734266281	20.9409713745	8.10298156738	-8.70526599884	20.4551029205	20.4600772858
-14.8557691574	20.5012245178	8.31128978729	-9.20770645142	21.3916244507	23.2508106232
-15.4434146881	19.916973114	8.5855884552	-9.61485290527	22.5698871613	25.3462924957
-16.7712287903	19.8984642029	8.3209695816	-10.2738752365	23.7772331238	26.7459926605
-18.7089443207	19.8619441986	8.39466094971	-11.1247396469	24.7667140961	27.8154449463
-21.2731342316	19.7700614929	9.52229309082	-11.5992794037	25.9444522858	28.5525989532
-23.8941364288	21.2990436554	7.18957424164	-11.6691484451	26.8435134888	28.9093017578
-27.2424259186	23.7106666565	4.39310836792	-11.3042154312	27.4521560669	28.974155426
-27.7151260376	24.3140983582	5.13398504257	-10.7778816223	27.5563488007	29.3138790131
-26.6682758331	23.8662662506	5.24835157394	-10.6066551208	28.0888614655	30.5375156403
-25.7675495148	23.4373092651	5.76020145416	-10.2368125916	29.7426872253	31.6981735229
-25.4955024719	23.4236679077	6.63913393021	-10.2361831665	31.6397323608	29.4492893219
-25.073682785	22.862487793	7.86562633514	-11.8423509598	31.5374908447	22.2913990021
-23.9353103638	21.7837810516	8.32924842834	-13.8990926743	28.9975147247	14.2353334427
-22.5394248962	21.1477394104	7.94587564468	-14.2779846191	28.2521266937	7.33707714081
-22.0161170959	20.5653400421	7.29744768143	-14.7535190582	28.0361938477	0.328282564878
-22.2908744812	20.6776065826	6.73219823837	-15.2389621735	26.7745437622	-6.62475299835
-22.7818202972	20.8230667114	5.74436998367	-15.1500282288	25.6779270172	-6.66411495209
-23.3275299072	20.7792415619	4.22174739838	-14.3685178757	26.5633144379	0.433740913868
-23.9618186951	20.9308948517	3.79824781418	-13.7411279678	27.668182373	8.85947799683
-24.3665523529	21.4634990692	4.20441389084	-13.0484848022	27.8678741455	16.6111869812
-25.0685749054	21.5922031403	4.82296562195	-12.7384166718	26.7797718048	24.0866794586
-25.9081306458	21.3483390808	5.83338403702	-13.0469875336	25.7349948883	31.0965328217
-26.4060878754	21.8535919189	6.5810546875	-13.6970682144	24.9810848236	37.0283508301
-26.7997817993	23.2747077942	7.31239700317	-14.4710464478	24.6259822845	41.6617088318
-27.5037593842	24.9102249146	7.96646881104	-15.4454984665	24.1257457733	44.2861862183
-30.0247077942	26.4115524292	9.08116722107	-16.5183963776	23.870634079	45.4725952148
-32.4417304993	26.3685646057	12.1592273712	-17.5420341492	23.9365272522	45.5602989197
-33.1332015991	26.6881713867	13.8560991287	-17.3452911377	24.1777324677	45.2163047791
-31.1442661285	28.0335426331	16.1590919495	-16.7630214691	24.320098877	45.0137443542
-29.1380710602	28.6471004486	20.0466861725	-16.8611888885	25.1949310303	45.295917511
-27.4876747131	28.9779453278	22.3213157654	-17.9785728455	26.7493362427	45.8153839111
-25.5643539429	28.8355846405	23.568983078	-20.5157260895	28.1704864502	45.5204353333
-24.3857402802	28.5415668488	23.5068149567	-21.8627796173	28.1965942383	45.6685791016
-24.0256786346	28.1474246979	23.3728885651	-21.34034729	27.6165046692	45.7306289673
-23.6174373627	27.6835823059	23.1480140686	-19.7363967896	26.9453258514	44.0607528687
-23.0301513672	27.183134079	22.5862445831	-17.508026123	25.7376365662	40.6098098755
-22.3802433014	26.5868167877	21.6938152313	-15.0198764801	24.4736309052	36.9517211914
-21.5770797729	26.2872028351	20.8554019928	-12.9528570175	24.1303348541	32.9007987976
-20.6407222748	26.2326946259	20.035238266	-11.2682828903	24.7141895294	28.2678871155
-20.1949329376	26.4448356628	19.4448013306	-9.82380104065	25.7518177032	22.7650623322
-19.9111881256	26.8399486542	19.2968578339	-9.47703933716	26.3693943024	15.8636083603
-19.778219223	27.1665172577	19.4550189972	-9.24897480011	26.2139892578	8.72397136688
-19.5835704803	27.2930774689	19.7186756134	-9.71198749542	26.0621185303	0.639060854912
-19.4295711517	27.2177505493	19.8317584991	-9.68897533417	25.3456382751	-7.13286828995
-19.1246795654	26.8167190552	19.6322803497	-8.87649822235	24.6605491638	-12.7031917572
-19.0904006958	26.6921825409	19.1013298035	-7.25596666336	24.1239299774	-15.5613241196
-19.2823238373	27.1214752197	18.8299407959	-5.94540786743	24.3192558289	-18.1145458221
-19.6732578278	27.8720283508	18.5672454834	-5.44937610626	24.952753067	-21.2533512115
-20.4246864319	28.2481460571	18.4697875977	-5.4205121994	25.5467281342	-23.423002243
-23.8773155212	27.6668071747	17.3855857849	-5.74427652359	25.0687847137	-23.1481342316
-28.1289405823	26.5390090942	16.3783245087	-6.7688627243	24.1278514862	-22.911945343
-33.6914634705	26.142786026	14.6742677689	-7.55883979797	23.7710857391	-23.1693019867
-37.4977760315	25.1609649658	13.9708185196	-7.73232841492	23.989862442	-23.0111904144
-40.7839584351	24.2276515961	14.2841644287	-8.01852703094	24.5555419922	-22.7834072113
-42.7491722107	24.2919559479	15.0229139328	-8.57093238831	25.189031601	-22.8000965118
-44.1075325012	24.2423038483	15.6347303391	-9.17625522614	25.555770874	-23.2092723846
-45.5465698242	24.4550628662	15.516749382	-9.96007347107	25.3454303741	-25.0526580811
-46.8274688721	25.2102966309	15.4731817245	-10.9434194565	23.8321552277	-29.153383255
-47.6527824402	25.3619651794	15.8286046982	-10.9835596085	21.5878429413	-32.1934394836
-47.3345680237	24.5364513397	16.0352916718	-9.98509979248	20.3272132874	-32.3326301575
-47.1130714417	23.9319820404	15.4878158569	-9.34052467346	20.5743217468	-30.1540222168
-46.4939918518	23.3244838715	15.0067882538	-8.86627864838	23.8463134766	-24.8999919891
-45.2140655518	22.37550354	15.0271453857	-9.53263950348	29.8097782135	-19.0365200043
-43.730758667	21.7385692596	15.3261804581	-10.0591220856	34.9811248779	-13.7084140778
-42.7027587891	21.9043560028	15.3445520401	-10.3732738495	36.2019996643	-11.526594162
-42.7040061951	22.8565158844	15.685500145	-10.6293201447	36.5036430359	-11.7521591187
-42.4662971497	23.2439937592	16.0969200134	-10.2692251205	36.5351409912	-12.9707622528
-42.2232551575	22.7651977539	16.372341156	-9.81189537048	36.3420639038	-14.4390039444
-42.2204933167	22.3345241547	16.2292613983	-9.21478176117	35.9294319153	-15.3706493378
-42.1733703613	22.1845226288	15.9473390579	-8.99444389343	35.5431671143	-16.199388504
-42.1294708252	22.1693840027	15.8021373749	-9.02818393707	35.1856994629	-17.2805919647
-42.1798057556	22.3109741211	15.7766580582	-10.0817937851	34.3715705872	-19.2752017975
-42.0341758728	22.022895813	15.5415048599	-12.925743103	32.9949188232	-19.3291149139
-41.7577438354	21.5896320343	15.0759878159	-15.0439662933	32.3536071777	-15.175994873
-41.7604408264	21.6049747467	14.98579216	-14.0587673187	33.2078666687	-8.79114055634
-42.5407142639	21.4471549988	15.4788618088	-11.6718301773	33.4393234253	-2.04912734032
-42.9045677185	21.391040802	16.4032249451	-10.4381551743	32.6946678162	0.870148897171
-43.2828063965	21.5611057281	17.1458110809	-10.5744085312	32.4077377319	-0.505518913269
-43.4189796448	21.6175613403	17.5843162537	-10.6429672241	32.8691215515	-4.06547498703
-43.6639556885	21.7408752441	17.3032016754	-10.1214609146	32.9060325623	-8.5699968338
-43.3612823486	21.7899036407	16.8185501099	-8.97014427185	32.3932266235	-12.5439043045
-42.7330436707	21.6767730713	16.4556388855	-7.60572862625	31.624382019	-15.3089914322
-41.9394073486	21.3823127747	16.0852489471	-6.38967514038	30.8292102814	-17.5943222046
-41.6703834534	21.3773994446	15.8849086761	-4.99113941193	30.2941055298	-19.6351051331
-41.8163909912	22.0590858459	15.2996196747	-4.22733020782	30.0405387878	-21.5091838837
-41.1790046692	22.9098854065	13.6670370102	-3.83300852776	30.3533363342	-22.1385993958
-40.9811477661	24.5639915466	9.51709842682	-3.79740405083	30.8304004669	-21.8816413879
-41.411026001	26.9075260162	3.42903637886	-4.34187078476	30.93151474	-21.4108276367
-42.8096237183	28.7956771851	-3.62898206711	-5.46329021454	30.546667099	-20.9833602905
-43.8984870911	29.1179103851	-5.2424454689	-6.82412338257	30.3451194763	-20.4700965881
-43.0469322205	28.3601093292	-0.847106575966	-7.94486808777	30.3191070557	-19.9027023315
-42.4230461121	26.2823047638	7.66832637787	-9.11171627045	30.4909191132	-19.5490665436
-42.4481582642	25.8839797974	9.4215669632	-10.2509727478	31.0329723358	-19.7101249695
-42.6970176697	25.8690166473	10.0174036026	-10.8414850235	31.636472702	-20.1351127625
-43.336555481	26.2122573853	9.3797492981	-11.3184242249	32.1629600525	-20.6133842468
-43.6818389893	26.2264137268	9.12057304382	-11.8694419861	32.0046806335	-21.5250968933
-43.4828300476	26.5170955658	9.02460670471	-12.4237880707	30.6145401001	-24.7622394562
-43.5830078125	27.1518363953	9.45020008087	-11.6006698608	28.3020248413	-29.8587913513
-43.6764221191	27.1112880707	9.74957275391	-7.41958189011	27.4849853516	-31.0360660553
-43.3068313599	26.4200401306	9.41369915009	-2.07857632637	29.0784912109	-29.7196846008
-42.9291114807	26.3134288788	9.46710300446	-0.525400042534	30.8490581512	-32.2271957397
-42.4737243652	26.5000724792	9.74136543274	-0.53060144186	31.5364398956	-34.8940505981
-42.3774833679	26.3224334717	9.45503330231	-0.348225951195	31.1991481781	-35.2918357849
-42.3136558533	26.2864284515	9.16107273102	-0.407226741314	30.6596221924	-34.154094696
-41.982585907	26.1550579071	9.05631446838	-0.460698485374	29.7790679932	-29.376077652
-41.7534179688	26.0905208588	9.00367450714	-0.577344894409	28.9190940857	-22.1596221924
-41.6167030334	26.1924571991	9.13744544983	-1.2046662569	28.5000839233	-15.7462663651
-41.6000328064	26.4371109009	9.52474498749	-2.11444091797	28.4150466919	-10.8054504395
-41.7205085754	26.6483020782	9.84214305878	-4.02351331711	28.2823066711	-7.30965423584
-41.9055976868	26.7989845276	9.87014579773	-6.10242891312	28.3128662109	-5.04658699036
-42.1501274109	27.0340633392	9.96991729736	-7.69629192352	28.5439987183	-4.06285333633
-42.2973442078	27.1961307526	10.2089347839	-8.29785251617	28.7345409393	-3.93147587776
-42.4994659424	27.0876045227	10.3310651779	-8.46200561523	28.2177963257	-3.65553593636
-42.5871810913	26.5981864929	10.4052028656	-8.95083999634	26.3637542725	-2.81874227524
-42.5341644287	25.6413898468	11.3467159271	-9.63277626038	23.7634086609	-1.8140963316
-42.1061096191	25.1953086853	11.5713071823	-9.9137802124	22.1742897034	-1.19423878193
-41.0008087158	25.1173267365	12.267578125	-9.10927581787	22.1568813324	-1.56156992912
-40.0582199097	24.7801437378	12.8014631271	-7.27117681503	22.5417671204	-3.04778003693
-39.1323127747	24.6071586609	12.7010669708	-4.85373687744	22.1095790863	-5.06362724304
-38.754825592	24.4443225861	12.5555562973	-3.3559896946	21.3710651398	-6.75351810455
-38.6938400269	24.0572223663	12.1705064774	-2.8329679966	20.4725818634	-8.06342792511
-38.7194213867	23.6993293762	11.8879776001	-2.31367111206	19.7683963776	-8.95184707642
-38.8429603577	23.6242027283	11.7247858047	-2.05551624298	18.9469203949	-9.7613697052
-39.2630958557	23.770324707	11.3292064667	-2.08518266678	17.648103714	-10.540268898
-40.1040878296	23.457365036	11.1024236679	-2.56884431839	15.6978588104	-11.8487253189
-40.3007469177	22.8723945618	10.9964532852	-3.37624168396	14.5028495789	-13.0497236252
-40.0566482544	22.4016036987	11.1425504684	-3.98089575768	14.4461107254	-13.134765625
-39.9812278748	22.2391910553	11.1792449951	-4.41857910156	15.0401620865	-11.9934492111
-40.1984405518	22.7623958588	10.8083629608	-4.96966505051	14.6611270905	-10.7639408112
-39.7870025635	22.6349048615	11.1581048965	-5.59320354462	15.5641613007	-10.0046443939
-38.9962310791	21.9720993042	10.4404649734	-5.25300741196	15.9123315811	-10.1205749512
-38.6457138062	21.6206169128	10.480638504	-4.31051921844	15.4453792572	-10.4195585251
-38.675037384	21.6594619751	10.5316028595	-3.50695705414	15.7998142242	-10.7102575302
-37.8639640808	21.3718395233	9.23446750641	-3.34474730492	16.7260951996	-10.5736236572
-36.1047554016	20.7232322693	8.00611877441	-3.73932647705	17.8664360046	-9.31880950928
-35.7792282104	21.357509613	7.74575519562	-3.76562547684	18.8180141449	-8.02175331116
-35.1647834778	21.6085186005	8.00699901581	-3.3023276329	19.1288204193	-6.20694303513
-34.3291625977	21.0713024139	7.95153808594	-2.99236679077	19.2505283356	-4.27392911911
-34.1867904663	20.875295639	8.75309562683	-3.11843419075	19.9990844727	-2.62833237648
-34.5726699829	20.5866336823	9.25181674957	-3.6129386425	19.8844127655	-1.69641804695
-34.677696228	20.5043716431	9.99742984772	-4.17467546463	20.4492340088	-1.69477915764
-35.1273345947	20.523727417	10.3662776947	-4.13706493378	21.4205989838	-2.8430109024
-36.0518989563	20.7318572998	12.1619262695	-3.92664027214	22.250825882	-7.01241064072
-37.3490905762	20.181137085	13.6591186523	-3.18617415428	24.4895877838	-12.9830446243
-37.3896560669	18.9728870392	12.6855039597	-1.78983592987	25.4810218811	-17.2799911499
-37.5303535461	18.7724819183	11.444108963	-1.18924880028	26.2168388367	-20.8159236908
-37.460144043	19.1609268188	12.4604511261	-1.9421287775	28.1672821045	-23.777141571
-37.2452697754	18.1137084961	13.6346693039	-2.74617314339	32.4241905212	-24.2285022736
-36.7711753845	16.7052288055	13.7563657761	-2.88790369034	34.9941902161	-22.960609436
-37.4306182861	16.1618785858	13.0928516388	-3.72364902496	35.4591598511	-21.5982723236
-38.1051063538	16.3270359039	9.43386650085	-4.20137882233	34.1362190247	-18.2124481201
-40.1398658752	17.4047870636	6.91727876663	-3.54348683357	32.8591384888	-10.7238521576
-40.6084861755	17.4920806885	7.24789857864	-2.31628656387	32.5000419617	-1.03111600876
-39.479511261	16.8141994476	7.99275445938	-2.92871117592	32.241481781	3.49672627449
-38.7111091614	17.2085647583	8.61714363098	-3.87508893013	31.3192539215	5.57882070541
-38.4313583374	17.3471832275	8.62763118744	-4.28461790085	30.3966617584	8.01507282257
-39.2658081055	17.7072696686	7.0047545433	-4.93298196793	27.5991897583	10.6350011826
-40.5894470215	19.0889892578	2.60496211052	-6.08834648132	25.3529224396	12.9360647202
-42.068359375	21.1825695038	-0.358462125063	-6.61406564713	25.1949977875	14.8913879395
-42.3462104797	22.1694011688	0.268003284931	-6.81189870834	25.3518981934	15.885843277
-41.944770813	22.0473594666	0.615453124046	-7.12658691406	24.93724823	16.422410965
-41.326625824	21.6863574982	1.79222822189	-7.09160900116	24.4695949554	16.4333839417
-42.4778747559	21.0099563599	4.92287397385	-7.69660425186	24.1419239044	15.0047292709
-42.2393989563	20.1578521729	6.16122961044	-7.54819059372	23.81848526	12.856174469
-41.6702537537	19.6666069031	6.29516220093	-6.82974672318	22.9012374878	10.4139766693
-41.8134613037	19.568031311	5.25327014923	-6.16729021072	22.2241325378	6.5741314888
-41.5389137268	19.6331062317	5.95473623276	-5.60162067413	20.3334465027	1.38364207745
-41.0882492065	19.1345043182	4.89084911346	-4.28603506088	18.7611103058	-3.04422879219
-41.1140327454	18.7302265167	4.89512586594	-2.60027313232	17.9717674255	-6.38964080811
-40.6035270691	18.2183990479	4.58880567551	-1.01780974865	17.3318557739	-8.50535011292
-40.7196006775	18.4334487915	4.12877130508	0.563861787319	16.6869449615	-10.4927930832
-40.7109909058	19.4669895172	3.473279953	1.8334980011	17.0751647949	-14.7864351273
-39.860458374	21.8795280457	-0.397433549166	2.47495698929	19.573589325	-23.1151123047
-39.4095840454	24.1886100769	-5.130651474	2.84109282494	22.3715209961	-32.6203689575
-38.029335022	25.3949050903	-9.83899211884	1.26530122757	24.4965248108	-41.7495231628
-37.4656181335	26.349395752	-12.6333971024	0.688945055008	23.4647331238	-47.0737342834
-37.0497169495	26.1382293701	-13.5099916458	2.22547674179	22.6045875549	-46.1756439209
-37.3863792419	26.087480545	-13.268901825	3.3823363781	20.3523769379	-44.6482200623
-36.6878204346	26.0451507568	-12.2431163788	3.3612947464	18.4701576233	-43.5784873962
-35.1379318237	25.0138683319	-12.4949769974	4.06022453308	18.2415294647	-42.9534492493
-35.2063484192	23.8762989044	-14.8588972092	6.01454114914	17.1823215485	-42.37134552
-36.2358169556	22.8292751312	-16.1389198303	7.45334196091	15.9939594269	-42.1119689941
-36.7595367432	22.7631626129	-16.9886417389	8.72638225555	15.3333187103	-41.5199966431
-36.0914611816	23.2488098145	-16.178401947	8.79547214508	16.0434265137	-40.2443656921
-34.2718238831	24.0647773743	-15.906042099	8.4728975296	16.8707847595	-39.1121520996
-32.9534492493	25.0415763855	-15.4498624802	8.39005565643	17.7982444763	-37.7066230774
-32.1100158691	25.6164665222	-15.2669181824	7.72732496262	19.0812416077	-36.9148254395
-26.9388160706	25.502866745	-14.0868215561	7.61103439331	18.8565807343	-34.7788276672
-25.4838104248	26.0772285461	-13.5993976593	6.77338790894	18.4583778381	-33.0104522705
-25.8834247589	26.7960262299	-13.4347810745	4.10931968689	19.3237895966	-32.3758125305
-26.9471435547	27.2998409271	-13.6090488434	-0.457831889391	24.0197486877	-34.2140350342
-27.1118221283	29.8424510956	-14.8941040039	-5.04245662689	28.0240249634	-39.2103271484
-26.4236011505	32.8840408325	-15.9911346436	-6.95372629166	29.2814750671	-42.9079971313
-28.2011642456	35.5969772339	-15.8641147614	-6.50784349442	28.1482315063	-45.0518722534
-29.7226333618	33.7900810242	-15.2437152863	-5.8250784874	26.7811279297	-43.9643630981
-29.7764358521	31.5236415863	-13.5419845581	-4.53274250031	26.4226207733	-39.6516571045
-29.4964332581	29.7401809692	-13.7589931488	-2.01020121574	26.68019104	-30.5707988739
-28.7808589935	28.6648445129	-12.2768001556	-1.34410154819	27.1660461426	-22.845495224
-27.7445831299	29.1279010773	-10.1265296936	0.0485950522125	26.6304149628	-16.2312641144
-27.275642395	29.6379051208	-9.35116863251	0.353595227003	24.6478805542	-11.4398574829
-27.2629585266	29.6288337708	-9.92073535919	-0.296699613333	23.0176811218	-5.98017883301
-27.058298111	30.0248451233	-9.21021556854	-0.925605297089	21.6145324707	0.69591408968
-27.992099762	30.8664531708	-9.70943832397	-1.03297007084	20.230173111	8.88571071625
-28.2695274353	30.5832710266	-8.1467628479	-1.63964378834	19.0650539398	16.0625762939
