-34.421421051	-2.83510899544	17.3811340332	8.35996055603	1.31225860119	-35.0196037292
-34.5617446899	-2.54801893234	17.5308837891	8.08219242096	1.29929685593	-34.7743339539
-34.7642059326	-2.48606991768	17.6545753479	7.91985797882	1.44990873337	-34.223575592
-34.5708999634	-2.79113078117	17.3533210754	8.52930831909	3.0965256691	-32.3073196411
-33.968170166	-3.26464247704	16.3195991516	10.0415010452	7.64009857178	-29.4689903259
-32.1065139771	-2.85751271248	12.0621109009	11.6520748138	13.3639326096	-25.8896427155
-29.97797966	-3.55335235596	1.72272837162	12.8483400345	17.6908512115	-20.9393310547
-26.8412895203	-4.86510038376	-2.9095416069	13.0503473282	19.5995807648	-17.8123168945
-24.0432014465	-4.6813082695	-5.55178976059	12.6639413834	21.7387008667	-16.4013366699
-21.0218467712	-6.655605793	-0.304680079222	12.4576997757	23.4147319794	-15.6361522675
-17.9790859222	-11.1380195618	15.9832191467	12.6045532227	24.2051849365	-14.7444629669
-14.0267152786	-5.49307060242	10.9281578064	12.8501911163	23.8049278259	-14.4254608154
-10.598950386	1.04016649723	1.70104849339	13.2950086594	23.9890613556	-14.2747526169
-8.26727581024	11.4022693634	-12.760225296	13.908662796	24.540769577	-14.1188106537
-8.4899148941	12.3145561218	-6.71397542953	14.8213405609	24.9484920502	-14.0987939835
-8.49698352814	12.8303031921	0.35283023119	15.7785367966	24.9105396271	-14.0183534622
-6.36457490921	14.9719028473	0.196073323488	16.2891082764	24.9255371094	-14.2817268372
-3.51921963692	13.9977436066	0.829810380936	16.5232830048	25.1217021942	-14.9871015549
-4.63699102402	14.7341852188	0.780246198177	16.5333347321	25.3671607971	-15.6401662827
-9.12011814117	16.602563858	-0.353955626488	15.9214200974	25.4995040894	-16.5050125122
-12.4610328674	16.6835079193	-1.0150449276	15.0769376755	25.662322998	-17.3910293579
-14.5813074112	15.5136814117	0.064731836319	14.4415102005	25.9506797791	-18.2363166809
-16.201467514	15.6735181808	-0.11187171191	13.8337211609	26.0156764984	-18.9732971191
-18.1715869904	16.5953502655	-1.1589256525	13.4252109528	25.8224105835	-18.6183242798
-20.1990261078	17.1385345459	-1.90113580227	12.9932498932	25.9194278717	-17.47681427
-20.3593177795	15.2027597427	0.355270475149	12.5463733673	25.7702083588	-15.9830846786
-19.0721664429	11.361992836	6.70587682724	12.0903224945	25.0865097046	-14.1087913513
-16.5984268188	10.0031471252	11.2891530991	11.4761734009	24.2801570892	-11.7723484039
-15.1086788177	8.60422611237	18.0760612488	11.1373100281	24.0712032318	-8.83202457428
-12.7514181137	4.7478890419	25.925743103	11.0924520493	23.6875934601	-5.52057790756
-11.7055568695	-0.67937117815	32.8580551147	11.2969055176	23.7338619232	-2.23380374908
-8.21085357666	1.47420501709	29.7186985016	11.2745943069	24.3108272552	0.0388005487621
-3.23822259903	13.1346139908	7.48276662827	11.297501564	25.3796463013	0.480456858873
-4.31125974655	23.3272399902	-7.39554548264	11.8448181152	26.7671070099	0.231692671776
-8.74592399597	27.8463382721	-12.8353366852	12.3178777695	27.6859054565	-0.174937918782
-9.88968753815	26.826467514	-11.8334951401	12.4853801727	28.1600170135	-0.736017405987
-9.66401004791	24.8678913116	-8.74827861786	12.31985569	28.3506412506	-1.54597306252
-9.99219417572	23.7969532013	-7.08542490005	12.2397279739	28.4985942841	-2.63915467262
-11.1905355453	23.5016880035	-6.24235677719	12.7342367172	28.3091449738	-3.72840929031
-13.0969467163	23.8597564697	-6.44420528412	13.2473649979	27.6433143616	-5.03886985779
-14.7596521378	23.7966632843	-6.07035493851	13.4456634521	27.0088405609	-6.71604394913
-16.2474384308	23.4690532684	-4.93084287643	13.7821836472	26.6955966949	-8.46383285522
-18.3825111389	23.3044376373	-4.21223020554	13.9189367294	26.5934715271	-10.1101284027
-19.7205238342	23.2909469604	-3.79161310196	13.7823982239	26.6161327362	-11.4459524155
-20.5311050415	23.4349422455	-3.30008840561	14.0090990067	26.7370872498	-12.9205141068
-21.2033214569	23.912935257	-2.91260433197	15.2797088623	27.0695991516	-15.6773586273
-22.670671463	24.1516609192	-2.98908662796	16.9248924255	28.0114250183	-17.1618461609
-25.0307826996	24.2085990906	-4.28351974487	16.3757743835	29.2947330475	-17.7655887604
-27.1707553864	23.2089710236	-6.03901720047	14.3328313828	30.1356086731	-18.4101486206
-28.7844295502	22.0965690613	-8.31303787231	12.2186155319	30.5069618225	-19.1181144714
-28.0126152039	20.5533390045	-8.48148727417	10.5653877258	29.7156639099	-19.4359970093
-26.117811203	20.067440033	-7.47547531128	9.51091098785	27.9424877167	-19.8929481506
-23.394235611	20.6252250671	-5.5392370224	8.458319664	27.028842926	-21.6345539093
-20.1483955383	21.0961780548	-2.71765685081	5.04988431931	29.0718021393	-28.5400886536
-16.4817333221	20.7269210815	-0.919766187668	1.48669433594	30.9974212646	-34.6025619507
-14.0272493362	20.2752475739	-0.513579249382	3.64879608154	29.6294384003	-32.5738296509
-13.8350839615	19.6614627838	0.028224973008	8.38465213776	28.0067996979	-26.2028980255
-13.2726554871	18.8379745483	0.0206547826529	13.2886152267	26.2809448242	-18.198059082
-12.123749733	18.1480331421	-0.59094530344	16.8047084808	25.2646465302	-10.7236442566
-11.8972473145	17.7202510834	-1.0366910696	18.4566020966	24.6298561096	-6.08996009827
-11.7096261978	17.6153869629	-1.32725799084	18.1047401428	23.5801086426	-5.0361661911
-12.0206537247	17.797044754	-1.58317828178	17.0528583527	22.5035991669	-6.15839290619
-13.4775791168	18.0400695801	-2.00443601608	16.1474056244	21.2659950256	-8.1459608078
-14.7008171082	17.0075340271	-1.20358431339	14.8169021606	19.8209953308	-10.6225414276
-14.746515274	15.2519550323	2.95378041267	13.4441108704	19.0669708252	-11.3312797546
-15.7179555893	19.2200965881	1.34139120579	12.974486351	19.9981651306	-9.60001182556
-14.6527357101	24.6190605164	-4.18499755859	12.9712686539	20.8192806244	-7.5875043869
-14.8588981628	26.7085533142	-5.65534305573	13.1062831879	21.5868663788	-5.76355218887
-14.811378479	26.7719478607	-5.25691747665	13.1241083145	21.9804859161	-4.79213619232
-14.8925218582	26.1532325745	-5.251080513	12.947022438	22.3933868408	-4.52178192139
-15.4562692642	25.5862445831	-4.53648996353	12.9240674973	22.8265323639	-4.40058422089
-16.2154693604	25.8514041901	-4.64627933502	12.9434185028	22.7713241577	-4.24106264114
-16.680847168	26.1079158783	-4.61726665497	12.6484117508	22.7519035339	-4.44310808182
-17.4496574402	26.0248584747	-4.98767089844	12.4122228622	23.1465930939	-5.00328493118
-18.2221031189	26.0793418884	-4.91783952713	12.3783864975	23.5816688538	-6.06980514526
-19.5694656372	26.888250351	-4.4783706665	9.5580701828	22.9633979797	-11.1209859848
-20.9879417419	27.3486785889	-4.72562503815	8.79074764252	22.3630886078	-13.2342414856
-21.6677207947	27.2030963898	-4.89356374741	9.52338695526	23.0572547913	-13.2338838577
-21.9730224609	27.9063739777	-4.06338214874	8.80635738373	24.3581809998	-17.6919136047
-21.9468135834	29.0355491638	-2.45592951775	7.70820045471	24.1922740936	-27.3264198303
-22.419178009	29.2105369568	-2.10983419418	10.0583362579	23.5908851624	-29.2422027588
-23.1988773346	28.5381069183	-2.18578338623	12.7584056854	24.8487186432	-23.1674995422
-22.550245285	28.2931880951	-2.2210252285	15.8972358704	29.1066188812	-13.1086206436
-20.7756023407	27.3942012787	-2.29158568382	22.3929233551	32.922958374	-2.10230135918
-19.8093318939	26.3206367493	-1.65210008621	23.8867511749	32.8551597595	-0.977940499783
-19.8098049164	26.6522979736	-0.492909729481	21.2552700043	32.1619224548	-5.22336149216
-19.6136627197	26.9514884949	-0.512074053288	19.0995388031	30.5863285065	-9.88050365448
-19.772813797	26.8829650879	-0.179881617427	19.3044815063	29.5174102783	-12.4481525421
-19.7100601196	26.6383953094	0.0775371789932	19.8984565735	28.8242454529	-13.8545484543
-20.1221675873	26.3844413757	0.345381885767	20.1406669617	28.2514286041	-14.433883667
-19.1629619598	26.4239444733	0.627333402634	20.4902648926	27.7172698975	-14.2095460892
-18.1230697632	26.2183265686	-0.133455321193	20.8055934906	27.5458049774	-14.0889759064
-17.6772670746	26.4774627686	0.225032135844	21.6371650696	28.481918335	-13.2254257202
-17.9954090118	26.698890686	0.203688368201	21.7473392487	28.2916507721	-13.0865497589
-18.8615646362	26.7567462921	0.68734395504	20.3435077667	27.6266403198	-13.1744127274
-19.5508174896	27.0380783081	1.0953296423	18.9255905151	27.3256168365	-14.0006465912
