-38.2956428528	-1.73154556751	18.0254440308	3.39533877373	15.0627717972	-33.7808837891
-38.2845687866	-1.88167691231	18.0029792786	3.36426544189	14.8927364349	-33.4471702576
-38.1536407471	-2.42871594429	17.9849090576	3.7309486866	14.6926431656	-30.7326183319
-34.8691368103	-5.71931028366	15.29936409	5.63555908203	16.6508216858	-25.9686183929
-27.7290992737	-2.90341424942	5.83946418762	8.1867685318	19.9890003204	-22.0998096466
-24.1873836517	-0.217887014151	1.79141879082	10.7797870636	22.959066391	-18.9136447906
-23.8762893677	0.31098601222	-1.68011152744	13.2136421204	24.5960140228	-16.1023025513
-22.6292686462	0.717325150967	-6.28416347504	14.2869720459	25.3976783752	-14.6420402527
-19.83228302	1.3970066309	-11.3574390411	14.2802591324	25.3090267181	-14.7311735153
-16.6538276672	4.68995714188	-17.4638786316	14.2639942169	25.233631134	-15.1684846878
-14.5613584518	8.11868572235	-20.2965602875	14.2519655228	25.4062957764	-15.9409074783
-14.7558317184	11.7382392883	-21.7384548187	14.1709775925	25.4804496765	-16.4361763
-17.2197494507	14.8399391174	-24.1976127625	13.5687360764	25.4206047058	-16.6521034241
-19.1354732513	17.5647830963	-27.3543205261	12.7085485458	25.3753681183	-17.1814441681
-20.6401805878	20.9029884338	-32.7215652466	11.9043779373	25.1713848114	-17.7161598206
-21.6799697876	22.5173568726	-34.4525871277	11.5788049698	24.9213867188	-18.0326728821
-20.8423557281	21.3499202728	-28.1004199982	11.6681289673	24.9420452118	-18.0812683105
-21.5395088196	15.1560573578	-16.9452056885	11.8185930252	25.1524505615	-18.3222198486
-25.7109603882	9.71436882019	-12.3124237061	11.8818473816	25.8302841187	-18.8200950623
-29.3127098083	7.46972799301	-20.4608211517	11.7007369995	26.8505516052	-19.505487442
-30.9456329346	9.94297218323	-35.5774269104	11.6306209564	27.5887088776	-20.1913070679
-31.4107513428	13.1992511749	-44.7318611145	11.5775184631	27.5960254669	-20.6381607056
-28.0538215637	10.6752185822	-30.9225025177	11.4783582687	27.0886459351	-20.1886558533
-28.3605155945	5.19026994705	-12.1197080612	11.587679863	26.5142173767	-19.0471191406
-24.8881492615	5.69218349457	-7.89774799347	11.8731384277	26.2167358398	-17.3584499359
-19.1937389374	11.9062242508	-2.10803365707	12.0815410614	26.0596313477	-14.4451322556
-17.9052333832	18.7718868256	-9.86730098724	11.6897907257	25.9425315857	-11.9541826248
-17.8703765869	23.7033576965	-20.1427173615	10.7694444656	26.5944194794	-10.1160669327
-18.7344207764	27.8636264801	-32.0103340149	9.43192195892	27.6769695282	-8.9669084549
-20.5648593903	28.1536903381	-34.5879821777	7.97158479691	28.0522174835	-8.43623733521
-22.640209198	25.4996414185	-27.0110683441	6.40126657486	28.2340240479	-8.8165178299
-22.6807880402	24.0602703094	-19.7377548218	5.19275331497	28.7283096313	-9.28551864624
-22.9147510529	27.4529685974	-17.7418785095	4.76653671265	28.9749126434	-9.02655124664
-21.4613990784	31.5789909363	-15.7703094482	4.58043527603	28.8357429504	-8.50249004364
-20.981388092	36.3955955505	-16.6853485107	4.31983995438	28.7665214539	-7.87347745895
-19.1490116119	38.207069397	-13.8003816605	4.13834238052	28.6518783569	-6.95830965042
-18.8822822571	39.2740211487	-13.6773147583	3.69784808159	28.7499217987	-5.93094873428
-20.6047725677	36.9008140564	-12.8167638779	3.12427616119	28.7001895905	-5.16457748413
-23.3011322021	33.0675621033	-9.60363483429	2.9002161026	28.8366737366	-4.46239805222
-24.7821140289	31.0889720917	-6.09618520737	3.04937672615	29.0354824066	-4.1368393898
-24.4597644806	30.1127376556	-3.8029024601	2.82027363777	28.7564582825	-4.40514373779
-23.7954330444	29.3709564209	-3.46178197861	2.73915195465	27.9457626343	-5.74519014359
-23.1754455566	29.6629905701	-2.40187811852	3.65723729134	26.6217594147	-8.63894557953
-23.6654853821	29.6309509277	-1.78586757183	5.41753053665	24.4402008057	-10.9302101135
-23.8893947601	29.2320976257	-0.753235638142	6.6545343399	22.5904579163	-12.0762052536
-23.0441493988	29.2564868927	-0.0678576081991	7.41816902161	20.556722641	-12.9268417358
