0.133899211884	1.4804751873	0.0704214572906	0.0844078063965	1.65208745003	-0.124646186829
0.1335978508	1.48089027405	0.0696890354156	0.0841102600098	1.65216481686	-0.125205636024
0.133696317673	1.48072040081	0.0692209005356	0.0838778018951	1.65240514278	-0.126103043556
0.133198022842	1.48002231121	0.0696938037872	0.082691192627	1.65206325054	-0.126517415047
0.132744073868	1.47980117798	0.0697442293167	0.0800967216492	1.65160858631	-0.126548051834
