-63.5851707458	-76.9893264771	141.166107178	16.2595043182	-5.98206043243	6.93730354309
-62.7534599304	-76.9496765137	140.376373291	16.1138477325	-6.0321393013	7.09351015091
-61.2468948364	-76.7061462402	138.673217773	15.9772539139	-6.18680286407	7.32676839828
-60.5190658569	-76.8093948364	137.654342651	15.266705513	-6.02198600769	7.70559072495
-60.9214096069	-76.7021713257	137.877502441	12.719045639	-4.48927354813	8.9206161499
-61.2877922058	-76.4108810425	137.820648193	8.72395133972	-1.45074594021	10.8411560059
-61.0283927917	-76.1674041748	136.820785522	4.84317207336	1.30742359161	12.8008575439
-60.3016014099	-75.6937713623	135.122650146	1.60433089733	4.53757190704	14.9535579681
-57.7237701416	-75.0796890259	130.129455566	-1.10330235958	9.24716758728	16.6220531464
-52.1271858215	-73.7776260376	117.866157532	-3.16316604614	12.5817079544	17.6381797791
-44.3073005676	-71.6665725708	100.906982422	-4.09087324142	14.0836248398	18.3459777832
-36.5902900696	-68.9615020752	83.5689468384	-4.34031963348	15.2164726257	18.8769168854
-28.0714607239	-65.2266082764	64.8203125	-4.59284448624	16.4058532715	19.1408023834
-23.5117416382	-59.7784004211	49.7163124084	-5.23456096649	17.5033111572	19.3285617828
-21.4017429352	-52.9411849976	36.5398864746	-6.06951570511	18.3851127625	19.4008102417
-19.4769306183	-46.7436218262	21.2154045105	-7.11984777451	19.614944458	19.157541275
-19.5080776215	-40.2464523315	8.09735202789	-8.07276725769	20.6389560699	18.8834228516
-20.598695755	-33.5593566895	-5.72448205948	-8.66951274872	21.1387844086	18.7100124359
-22.6059150696	-28.2246646881	-18.1677513123	-8.76147079468	21.2478027344	18.7239208221
-24.789686203	-24.0657653809	-26.7147483826	-8.7741985321	21.280828476	18.6479930878
-26.3490886688	-20.5034618378	-35.2286682129	-8.79852581024	21.3588790894	18.5414009094
-26.8837165833	-17.4200363159	-40.9237861633	-8.99385166168	21.3989486694	18.4657230377
-26.9864025116	-14.9973182678	-44.5892906189	-10.0050077438	21.4858264923	18.2547225952
-26.9384555817	-13.2656431198	-47.7755012512	-12.1206922531	21.3905944824	17.793510437
