0.0	-0.0	136.930786133	-71.0038757324	74.4591445923	-141.285583496
0.0	-0.0	136.562179565	-71.6444320679	74.4300842285	-141.173370361
0.0	-0.0	134.436126709	-72.8504867554	74.0117263794	-140.997146606
0.0	-0.0	134.962631226	-74.9053878784	76.4333190918	-140.639846802
0.0	-0.0	130.753189087	-75.6009063721	83.9953231812	-140.416992188
0.0	-0.0	121.179878235	104.447647095	86.5483016968	40.6264305115
0.0	-0.0	110.864128113	101.897239685	76.6828308105	42.6730728149
0.0	-0.0	106.158988953	97.7239227295	63.2243270874	46.2202987671
0.0	-0.0	84.2766342163	92.745803833	50.7363548279	50.6626358032
0.0	-0.0	71.3540344238	89.3914413452	43.3593215942	54.5585594177
0.0	-0.0	62.2459182739	87.4130783081	39.2719497681	57.3979225159
0.0	-0.0	51.9174232483	87.2110061646	36.0916824341	60.4559555054
0.0	-0.0	41.4675750732	86.8823318481	32.6125869751	64.0589752197
0.0	-0.0	30.4624385834	85.7420806885	28.5691108704	67.012512207
0.0	-0.0	20.9229488373	85.2752914429	26.0015563965	68.8341064453
0.0	-0.0	12.2131786346	86.5691986084	24.8917484283	69.0192565918
0.0	-0.0	1.87433993816	90.3195724487	24.9960174561	67.786567688
0.0	0.0	-8.8200340271	95.0799255371	26.1768474579	65.6614074707
0.0	0.0	-16.5951080322	98.6065368652	24.763458252	65.0554962158
0.0	0.0	-24.710187912	99.7771148682	20.2857704163	66.2563323975
0.0	0.0	-33.7122039795	100.573860168	18.3512649536	67.0749282837
0.0	0.0	-38.407333374	102.543434143	19.9236030579	66.7877578735
0.0	0.0	-44.0631866455	103.999183655	21.8029537201	66.5738220215
0.0	0.0	-44.3769187927	103.673339844	22.3533725739	66.663772583
0.0	0.0	-46.8121452332	102.199394226	21.4223384857	66.6069793701
0.0	0.0	-46.8832015991	100.93447113	20.6171607971	66.6629714966
0.0	0.0	-48.5943527222	101.259864807	19.3648090363	65.7657241821
0.0	0.0	-49.6227035522	103.547233582	17.1901092529	63.5883522034
0.0	0.0	-44.1603622437	104.724136353	16.1433334351	62.0771903992
0.0	0.0	-44.6452713013	105.575584412	16.2494258881	61.6320419312
0.0	0.0	-50.8564567566	106.949935913	16.8992462158	61.0196151733
