-30.2489929199	-72.824005127	132.665176392	21.1560096741	-2.75785684586	14.7243347168
-29.7701396942	-72.9062347412	131.778030396	21.1666278839	-2.73596096039	14.6882505417
-28.8767662048	-73.0010757446	130.523193359	20.9337081909	-3.02662491798	14.5862894058
-27.2916240692	-72.713470459	127.411117554	19.3143844604	-3.90534853935	14.2286682129
-23.8211746216	-72.4452819824	119.121681213	15.933257103	-5.79861974716	13.5630636215
-21.1332817078	-72.4756698608	114.240783691	11.8948841095	-8.54949569702	13.173075676
-18.9542808533	-72.4901885986	110.147895813	7.86010551453	-11.9377536774	13.4436922073
-17.2993736267	-72.9285125732	105.040161133	3.71315956116	-16.0823192596	14.5815935135
-12.4166374207	-72.7489929199	94.4130630493	0.0331006161869	-20.1112823486	16.2360343933
-2.97293972969	-71.967048645	73.1296005249	-1.93822896481	-22.4987258911	17.53647995
3.05444717407	-69.7625808716	53.6752471924	-2.2089984417	-23.2265167236	18.0774936676
4.13500022888	-65.0229110718	38.4545021057	-1.89723050594	-23.2725601196	18.1150760651
-0.912954688072	-57.4708595276	25.1716365814	-2.03841423988	-23.2353591919	18.4663524628
-5.42728185654	-48.2998771667	6.80012845993	-3.28497242928	-23.4445762634	19.3738040924
-13.8104963303	-40.7121505737	-12.1014766693	-4.94021129608	-23.3078231812	20.3064460754
-20.1526603699	-38.1437263489	-23.2895584106	-6.32000827789	-22.5303001404	21.0962238312
-27.4017677307	-37.167678833	-36.4946060181	-7.58512020111	-21.3739509583	21.6353359222
-28.2422542572	-36.3158836365	-45.3715209961	-9.07496166229	-20.6310253143	21.8610782623
-29.8018398285	-37.3321380615	-50.6711578369	-9.93845844269	-20.5819320679	21.8532848358
-30.1429843903	-37.4380073547	-57.9108009338	-9.62991714478	-20.8581066132	21.5072994232
-29.5981845856	-37.5561904907	-64.2481231689	-9.11229038239	-21.0184631348	21.2944145203
-29.2149047852	-38.5573234558	-66.9768676758	-8.68070793152	-21.2515010834	21.2534103394
-28.8717002869	-38.9033126831	-70.1989517212	-9.13070297241	-21.4083576202	21.6938686371
-28.2467460632	-38.9341278076	-72.5950698853	-9.92640113831	-21.3141365051	22.3735637665
