-0.0119915008545	1.48271906376	0.148110151291	0.0140595436096	1.64933240414	-0.0748927593231
-0.0123109817505	1.48229932785	0.14821600914	0.0139877796173	1.64925587177	-0.0741193294525
-0.0123429298401	1.48290348053	0.14804828167	0.0137996673584	1.64920449257	-0.0736606121063
-0.0122666358948	1.48262989521	0.147894620895	0.0139193534851	1.64908826351	-0.0738677978516
-0.0124228000641	1.48218250275	0.147223234177	0.0138261318207	1.64934647083	-0.0746614933014
-0.0119833946228	1.48246359825	0.145447254181	0.0137591362	1.65068721771	-0.0763405561447
-0.0125112533569	1.48227477074	0.142701148987	0.0140383243561	1.65396106243	-0.0797367095947
-0.0135571956635	1.48214375973	0.139956474304	0.0142314434052	1.65885305405	-0.0850485563278
-0.0147490501404	1.48210918903	0.136883497238	0.0145599842072	1.66442883015	-0.0921683311462
-0.0154662132263	1.48199868202	0.133153557777	0.0146219730377	1.66956746578	-0.0999071598053
-0.0154030323029	1.48232138157	0.129762411118	0.0150563716888	1.67302203178	-0.106636762619
-0.01429438591	1.48332631588	0.125689148903	0.0163938999176	1.67493188381	-0.111583948135
-0.0138204097748	1.48388779163	0.122799873352	0.0195279121399	1.67543077469	-0.114485621452
-0.0120902061462	1.48521149158	0.121782898903	0.0243713855743	1.67523539066	-0.115433692932
-0.0105364322662	1.48518919945	0.120587468147	0.0286469459534	1.67486071587	-0.115242123604
-0.0105519294739	1.48344421387	0.120981812477	0.0303978919983	1.67517256737	-0.114024162292
-0.00993084907532	1.48139083385	0.122557878494	0.0306103229523	1.6756207943	-0.112368583679
-0.00930070877075	1.47978258133	0.123759388924	0.0309524536133	1.67644202709	-0.110682725906
-0.00705742835999	1.47973811626	0.123045802116	0.0313038825989	1.67818963528	-0.109496116638
-0.00615763664246	1.47917091846	0.123758554459	0.0315442085266	1.6799544096	-0.10843038559
-0.0063214302063	1.47715306282	0.12522315979	0.0322895050049	1.68033576012	-0.106630325317
-0.00618529319763	1.4761633873	0.124998807907	0.0336439609528	1.67961585522	-0.103885412216
-0.00720763206482	1.47636210918	0.12490773201	0.0347118377686	1.67781293392	-0.100542068481
-0.00780701637268	1.47521352768	0.125072717667	0.0339729785919	1.67594885826	-0.0969188213348
-0.00731873512268	1.47413241863	0.124348402023	0.0317723751068	1.67443192005	-0.0941014289856
-0.00731992721558	1.47360289097	0.122647762299	0.0285468101501	1.67388653755	-0.092355132103
-0.0103566646576	1.47097623348	0.121827840805	0.0252344608307	1.67411029339	-0.0915365219116
-0.00984168052673	1.46940970421	0.121373414993	0.0229325294495	1.67464017868	-0.0910867452621
-0.00935864448547	1.46972596645	0.120419383049	0.0216913223267	1.67494988441	-0.0908657312393
-0.00877404212952	1.47029209137	0.118127465248	0.0209572315216	1.67529940605	-0.0908842086792
-0.0108349323273	1.47008466721	0.11969602108	0.0205664634705	1.67592120171	-0.0915009975433
-0.0151884555817	1.46891486645	0.125297546387	0.0201916694641	1.67645025253	-0.091845035553
-0.017617225647	1.46777904034	0.127581954002	0.0194728374481	1.67687666416	-0.092303276062
-0.0216519832611	1.46710407734	0.130576848984	0.0178644657135	1.67789304256	-0.0927121639252
-0.0253953933716	1.46557962894	0.133976221085	0.0153021812439	1.67940545082	-0.0938819646835
-0.029116153717	1.46408140659	0.135453701019	0.0132601261139	1.68020188808	-0.095219373703
-0.0289971828461	1.46590828896	0.134928822517	0.0127458572388	1.67994451523	-0.0965141057968
-0.0288755893707	1.4674577713	0.132503509521	0.012610912323	1.67939031124	-0.0974295139313
-0.0264544487	1.46819257736	0.126832723618	0.0116813182831	1.67731142044	-0.0980780124664
-0.0307838916779	1.46398961544	0.12227499485	0.00853037834167	1.67289686203	-0.0971794128418
-0.0369293689728	1.45636749268	0.118406295776	0.00576782226562	1.67081618309	-0.0962094068527
-0.0361280441284	1.45496416092	0.110720992088	0.00371909141541	1.67051839828	-0.0967242717743
-0.0364964008331	1.45563435555	0.106048345566	0.00309014320374	1.67088186741	-0.098206281662
-0.0401637554169	1.45565593243	0.107980728149	0.00242781639099	1.67154943943	-0.100253939629
-0.0445721149445	1.45225131512	0.107568383217	0.00210022926331	1.67209994793	-0.102577209473
-0.0430364608765	1.45396351814	0.104012966156	0.00237441062927	1.67242050171	-0.104649543762
-0.0363485813141	1.45787513256	0.101716160774	0.00311756134033	1.67211186886	-0.106702804565
-0.0309166908264	1.4526913166	0.100754976273	0.00372982025146	1.67167758942	-0.108758926392
-0.028609752655	1.44899010658	0.100075960159	0.00373077392578	1.67207312584	-0.11085152626
-0.0280563831329	1.44755005836	0.0958721637726	0.00372076034546	1.67234945297	-0.112452864647
-0.0240323543549	1.44414448738	0.0871455669403	0.00385499000549	1.67243850231	-0.114128112793
-0.0207092761993	1.44406044483	0.0834305286407	0.00359511375427	1.67280447483	-0.115992546082
-0.0266923904419	1.44377398491	0.0878678560257	0.00257802009583	1.67292666435	-0.118188381195
-0.0399534702301	1.43991231918	0.0930382013321	0.000619888305664	1.67342340946	-0.120799183846
-0.0432105064392	1.44358181953	0.0948280096054	-0.00109624862671	1.67374944687	-0.123098611832
-0.0462563037872	1.44603848457	0.0945144891739	-0.00176072120667	1.67409586906	-0.125024557114
-0.0463659763336	1.44954586029	0.0940918922424	-0.00156259536743	1.67433547974	-0.126357555389
-0.0462455749512	1.44955456257	0.0927972793579	-0.000516891479492	1.67435228825	-0.126847982407
-0.0445287227631	1.4496216774	0.0922501087189	0.000275611877441	1.67428040504	-0.12722826004
-0.0455441474915	1.45037388802	0.0965453386307	0.000898599624634	1.67427480221	-0.127628326416
-0.0551843643188	1.44464850426	0.101913332939	0.00135159492493	1.67436850071	-0.12803709507
-0.0584599971771	1.44671845436	0.104036450386	0.00177955627441	1.67413389683	-0.128481864929
-0.0601124763489	1.4499515295	0.105250477791	0.00228881835938	1.6741887331	-0.128714561462
-0.057537317276	1.45592260361	0.104348540306	0.00296473503113	1.67431950569	-0.128747224808
-0.056202173233	1.45838582516	0.103652596474	0.00366282463074	1.6742310524	-0.128547668457
-0.0556168556213	1.45870876312	0.101491093636	0.00411486625671	1.67421984673	-0.127995491028
-0.0553650856018	1.45834779739	0.099485874176	0.00445914268494	1.67410349846	-0.127410292625
-0.0519604682922	1.45943331718	0.0966604948044	0.00509166717529	1.67393732071	-0.127119779587
-0.0458450317383	1.45783174038	0.0907292366028	0.00588226318359	1.6735522747	-0.127082586288
-0.0431995391846	1.45655632019	0.0872143507004	0.00635266304016	1.67354166508	-0.127533197403
-0.0404446125031	1.45686924458	0.085188627243	0.00722050666809	1.67351090908	-0.127676129341
-0.037962436676	1.45464098454	0.0830363035202	0.00827884674072	1.6733045578	-0.128298044205
-0.0334732532501	1.45121538639	0.0834988355637	0.00896263122559	1.67327058315	-0.129231214523
-0.0266633033752	1.44646465778	0.0835559368134	0.00901198387146	1.67328226566	-0.130422592163
-0.0225276947021	1.44315195084	0.0843473672867	0.00861310958862	1.67367422581	-0.131079673767
-0.0201270580292	1.44296884537	0.0844212770462	0.0083122253418	1.67349278927	-0.131389975548
-0.0185196399689	1.44293725491	0.083610534668	0.00828266143799	1.67296409607	-0.131806850433
-0.0184795856476	1.44299292564	0.0867345333099	0.00866413116455	1.6722663641	-0.132758617401
-0.0204727649689	1.44187307358	0.0925652980804	0.00879430770874	1.67176997662	-0.133853912354
-0.0197560787201	1.44125783443	0.0960273742676	0.00799632072449	1.67146158218	-0.134778618813
-0.0216243267059	1.43910753727	0.0965809822083	0.006183385849	1.67128884792	-0.135372877121
-0.0210475921631	1.43710422516	0.0976321697235	0.00420713424683	1.67002522945	-0.135526895523
-0.017391204834	1.43438100815	0.0995839834213	0.00311136245728	1.66882240772	-0.135835289955
-0.0209903717041	1.43282949924	0.103333234787	0.00240516662598	1.66848027706	-0.136215925217
-0.0233204364777	1.43109619617	0.105196714401	0.00156664848328	1.66839182377	-0.136641263962
-0.0269536972046	1.43248009682	0.110902905464	0.000958919525146	1.66827857494	-0.137057542801
-0.0344252586365	1.43437159061	0.118053913116	0.000654697418213	1.66816544533	-0.137441515923
-0.0378601551056	1.43383657932	0.122109651566	0.000166893005371	1.66788744926	-0.137279987335
-0.0427050590515	1.43333315849	0.128663778305	-0.00103163719177	1.66726839542	-0.136144399643
-0.0440595149994	1.43232584	0.132128000259	-0.00273537635803	1.66642892361	-0.134464740753
-0.0474193096161	1.43096101284	0.133993864059	-0.00492882728577	1.66535437107	-0.132428884506
-0.0512330532074	1.42947757244	0.13366997242	-0.00829887390137	1.66395521164	-0.130904436111
-0.0535492897034	1.42858326435	0.131990551949	-0.0120456218719	1.66354560852	-0.130390405655
-0.0548799037933	1.42885112762	0.130299687386	-0.0138919353485	1.66427004337	-0.131110191345
-0.0544972419739	1.42982375622	0.13125705719	-0.0136342048645	1.66527020931	-0.131819486618
-0.052472114563	1.43163764477	0.133386850357	-0.0131924152374	1.665807724	-0.132204055786
-0.0491101741791	1.4342893362	0.133638620377	-0.0135390758514	1.66587150097	-0.132026076317
-0.0467894077301	1.43709504604	0.133946895599	-0.0133786201477	1.66584467888	-0.131366252899
-0.0445652008057	1.43823337555	0.134501695633	-0.0125615596771	1.6656242609	-0.130373716354
-0.0448188781738	1.44101524353	0.132064580917	-0.0120069980621	1.66560602188	-0.129083275795
-0.045437335968	1.44881236553	0.128584623337	-0.0119113922119	1.66567850113	-0.127006530762
-0.0419554710388	1.45402026176	0.124588012695	-0.0110669136047	1.66498827934	-0.124425172806
-0.0345196723938	1.4604729414	0.127802610397	-0.00874495506287	1.66446709633	-0.122179985046
-0.0314588546753	1.46374261379	0.129351615906	-0.00563430786133	1.66432201862	-0.120888829231
-0.0244693756104	1.47154819965	0.124341011047	-0.00277233123779	1.66546487808	-0.120463371277
-0.0196623802185	1.47567546368	0.118740558624	3.86238098145e-05	1.6691917181	-0.122639894485
-0.0181028842926	1.4753433466	0.116505146027	0.00482153892517	1.6759468317	-0.129548549652
-0.0177838802338	1.47509086132	0.117866635323	0.011599779129	1.68057692051	-0.138377428055
