0.113864421844	1.45792198181	-0.0116105079651	-0.000378370285034	1.64504623413	-0.0976388454437
0.113623380661	1.45864403248	-0.0123281478882	-0.00123143196106	1.64554429054	-0.0980637073517
0.113514184952	1.45862114429	-0.0123335123062	-0.00182175636292	1.64553916454	-0.0975816249847
0.114478588104	1.45931863785	-0.0111186504364	-0.0010232925415	1.64531958103	-0.0965926647186
0.115490674973	1.45843958855	-0.00858640670776	0.00212407112122	1.64503717422	-0.0958592891693
0.116039037704	1.45776414871	-0.0069500207901	0.00732207298279	1.64463067055	-0.0955741405487
0.116867780685	1.45799338818	-0.00688576698303	0.0135145187378	1.64435470104	-0.0962462425232
0.117643356323	1.45772528648	-0.00632834434509	0.0191624164581	1.64441537857	-0.0965890884399
0.118560791016	1.4575574398	-0.00539708137512	0.0225217342377	1.64435303211	-0.0960295200348
0.117901325226	1.4569401741	-0.00458228588104	0.0236291885376	1.64396476746	-0.0940382480621
0.11864066124	1.45675635338	-0.00332617759705	0.023871421814	1.64400029182	-0.0913684368134
0.119884967804	1.4568451643	-0.000844717025757	0.0241754055023	1.64399182796	-0.0880482196808
0.119131803513	1.45605242252	0.00170528888702	0.0242369174957	1.64337944984	-0.0842022895813
0.118410348892	1.45470046997	0.00490927696228	0.0240864753723	1.64267063141	-0.0795058012009
0.118528604507	1.45332670212	0.00835275650024	0.0242276191711	1.64199900627	-0.0745214223862
0.118775606155	1.4519084692	0.0121431350708	0.0250837802887	1.64174187183	-0.0694472789764
0.119372367859	1.45032095909	0.0163788795471	0.0258293151855	1.64136636257	-0.0638202428818
0.118799448013	1.44877290726	0.0187585353851	0.0258228778839	1.6404967308	-0.0590170621872
0.119367837906	1.44859349728	0.021014213562	0.0260441303253	1.63979446888	-0.0560513734818
0.120189428329	1.44899880886	0.0227154493332	0.0265536308289	1.63956642151	-0.0543327331543
0.121855974197	1.44891560078	0.0241942405701	0.0278503894806	1.63958191872	-0.0531969070435
0.123052597046	1.44809520245	0.0248878002167	0.0295124053955	1.63947308064	-0.0522873401642
0.124787092209	1.4471950531	0.0253893136978	0.0316095352173	1.6395304203	-0.0517137050629
0.126711368561	1.44642412663	0.0250179767609	0.033360004425	1.63950622082	-0.0510601997375
0.128256320953	1.44607675076	0.0245906114578	0.0338709354401	1.63899290562	-0.0507831573486
0.12934422493	1.44633173943	0.0238717794418	0.0336656570435	1.63844537735	-0.0508954524994
0.128931999207	1.44618403912	0.0233216285706	0.0324356555939	1.63823282719	-0.0509337186813
0.128606557846	1.44555032253	0.0231306552887	0.0310025215149	1.63766050339	-0.0507674217224
