0.144777297974	1.46755254269	0.0667750835419	0.0368218421936	1.65018856525	-0.170317411423
0.145711421967	1.46787524223	0.065596818924	0.0369918346405	1.65059387684	-0.171241998672
0.146643877029	1.46799433231	0.0653495788574	0.0372121334076	1.65050268173	-0.172014832497
0.147885560989	1.46786022186	0.0653049945831	0.0381851196289	1.65022885799	-0.172461032867
0.148972034454	1.4684458971	0.0650724172592	0.0414144992828	1.65041410923	-0.174004673958
0.148170232773	1.46834647655	0.0641530752182	0.0459568500519	1.65090346336	-0.176086425781
0.146821260452	1.46759331226	0.0635716915131	0.0500435829163	1.65088379383	-0.178271412849
0.146001815796	1.46754264832	0.0629955530167	0.0535817146301	1.65106010437	-0.180704593658
0.145315647125	1.4678581953	0.0619304180145	0.0563862323761	1.65157985687	-0.182886600494
0.14549612999	1.46872472763	0.0611357688904	0.0574021339417	1.65155613422	-0.184000372887
0.146842241287	1.46925103664	0.0610239505768	0.0581212043762	1.65176534653	-0.184401154518
0.14813041687	1.4689797163	0.0618495941162	0.0599281787872	1.65212452412	-0.184791564941
0.149050951004	1.46869170666	0.0626507997513	0.0614664554596	1.65210437775	-0.184562206268
0.14874124527	1.46845114231	0.0633523464203	0.0619432926178	1.65156900883	-0.18290579319
0.149059057236	1.46765315533	0.0637942552567	0.0620241165161	1.65109467506	-0.180608034134
0.149968862534	1.46662640572	0.0642764568329	0.063081741333	1.65082919598	-0.178342103958
0.149795532227	1.46585452557	0.0648677349091	0.0646066665649	1.65031480789	-0.176645040512
0.150423765182	1.46480572224	0.0657243728638	0.0668547153473	1.65021502972	-0.17532992363
0.151692867279	1.46420395374	0.0667371749878	0.0689544677734	1.65014541149	-0.173464775085
0.153186798096	1.46331572533	0.0673921108246	0.0706374645233	1.64982557297	-0.171445846558
0.154582738876	1.462703228	0.0679341554642	0.071968793869	1.64907932281	-0.169586896896
0.156629800797	1.46237230301	0.0687268972397	0.0736477375031	1.64844036102	-0.167892217636
0.15793800354	1.46210551262	0.0688736438751	0.0748982429504	1.64818072319	-0.166654109955
0.158805847168	1.46176588535	0.0687586069107	0.0745656490326	1.64859116077	-0.165257096291
0.158202171326	1.46147084236	0.0684313774109	0.0718185901642	1.64936888218	-0.162946939468
0.157057285309	1.46117973328	0.0683250427246	0.0671916007996	1.65006458759	-0.160819768906
0.156645536423	1.46118104458	0.0682593584061	0.0645923614502	1.65041995049	-0.160575151443
0.156115293503	1.46133255959	0.0678045749664	0.06480884552	1.6507383585	-0.161297559738
0.155236244202	1.46149730682	0.0664753913879	0.0655739307404	1.65067505836	-0.162542819977
0.154079437256	1.46182787418	0.0637724399567	0.0655517578125	1.65071213245	-0.163293838501
0.152724981308	1.46137690544	0.0604373216629	0.0648412704468	1.65097212791	-0.163806200027
0.151571035385	1.46066665649	0.057904958725	0.0639684200287	1.65090370178	-0.164015889168
0.148456573486	1.45988464355	0.0535480976105	0.0625336170197	1.65058779716	-0.163984537125
0.144654989243	1.45936071873	0.0487560033798	0.0601234436035	1.64983379841	-0.163624048233
0.144394397736	1.46046054363	0.0467112064362	0.0571990013123	1.64918100834	-0.163019895554
0.146414279938	1.46214091778	0.0465919971466	0.0560576915741	1.64900016785	-0.163568139076
0.148159980774	1.46306276321	0.0554375648499	0.0572905540466	1.64913702011	-0.165027618408
0.150312185287	1.46305549145	0.0582277774811	0.0580701828003	1.64901435375	-0.166428923607
0.149875640869	1.46309280396	0.0571841001511	0.0582621097565	1.64917123318	-0.16752743721
0.149102210999	1.4631165266	0.0547859668732	0.0583071708679	1.6491060257	-0.168375730515
0.146430253983	1.4626237154	0.0516574382782	0.0582032203674	1.64909017086	-0.168953418732
0.142140388489	1.4618653059	0.0469486713409	0.0578079223633	1.64914596081	-0.169102668762
0.138450622559	1.46112155914	0.0433814525604	0.0572383403778	1.64880013466	-0.168723106384
0.136312484741	1.46121823788	0.0413156747818	0.0564572811127	1.64884722233	-0.168329954147
0.136630773544	1.46169042587	0.0399334430695	0.0556652545929	1.64901125431	-0.167872428894
0.1383228302	1.46276676655	0.0384066104889	0.0552592277527	1.64906227589	-0.167157411575
0.138685703278	1.46293950081	0.0368573665619	0.0549838542938	1.64886832237	-0.166582345963
0.138400316238	1.46271121502	0.0373470783234	0.054722070694	1.648889184	-0.165872812271
0.139869213104	1.46242403984	0.0381435155869	0.0541660785675	1.64908218384	-0.165346622467
0.144035816193	1.46308910847	0.0399175882339	0.053555727005	1.64888858795	-0.16476213932
0.147409915924	1.46299660206	0.0426247119904	0.0531275272369	1.64871025085	-0.164356470108
0.150752067566	1.46204209328	0.0479784011841	0.0523507595062	1.64855062962	-0.164132833481
0.15124130249	1.46007788181	0.05189204216	0.051477432251	1.64882564545	-0.163851737976
0.151625156403	1.45834612846	0.0554722547531	0.0508525371552	1.64928328991	-0.164122819901
0.152635335922	1.45763397217	0.0579783916473	0.0507755279541	1.64979565144	-0.165222883224
0.155120849609	1.45752489567	0.0607583522797	0.0508437156677	1.65063369274	-0.166538357735
0.158544540405	1.45813953876	0.06463098526	0.0510740280151	1.65115296841	-0.167459726334
0.162090778351	1.45858979225	0.0677845478058	0.0517299175262	1.65135300159	-0.167765974998
0.165096759796	1.45883703232	0.0701456069946	0.0520944595337	1.65070974827	-0.167239665985
0.166777610779	1.45818531513	0.0731177330017	0.0517199039459	1.64969837666	-0.166087388992
0.166255950928	1.45739090443	0.074439406395	0.0499637126923	1.64925146103	-0.163971424103
0.166895866394	1.45786964893	0.0735576152802	0.0482530593872	1.64924323559	-0.162092208862
0.167192459106	1.45929336548	0.0734314918518	0.0483629703522	1.6493909359	-0.161174297333
0.167658805847	1.45971858501	0.0744777917862	0.0493454933167	1.64939939976	-0.160631656647
0.168528079987	1.46036756039	0.0753195285797	0.0502736568451	1.64964210987	-0.160575628281
0.169446229935	1.46031248569	0.076446056366	0.0502498149872	1.64983701706	-0.159986376762
0.17125082016	1.46110963821	0.077178478241	0.0502254962921	1.64945113659	-0.158823132515
0.172032356262	1.46226406097	0.0764889717102	0.0512080192566	1.64903187752	-0.157478451729
0.172929286957	1.46298527718	0.0787525177002	0.0526587963104	1.64878809452	-0.156374931335
0.174217939377	1.46258366108	0.0804487466812	0.0549070835114	1.64928257465	-0.155821561813
0.175649642944	1.46233689785	0.0836613178253	0.0592432022095	1.65055942535	-0.156370162964
