0.0	-0.0	141.431152344	93.8232955933	72.0760574341	20.6735477448
0.0	-0.0	140.645553589	93.3997879028	71.8956222534	21.1778430939
0.0	-0.0	139.035385132	93.0284118652	71.4828872681	21.9160385132
0.0	-0.0	137.58366394	91.2608566284	71.7363510132	22.863779068
0.0	-0.0	138.11807251	84.2677001953	75.7790679932	26.2424144745
0.0	-0.0	137.836120605	72.542350769	84.5929489136	31.9138908386
0.0	-0.0	136.932891846	-119.276321411	86.9703216553	-142.277526855
0.0	-0.0	135.587844849	-129.177932739	77.7025680542	-135.857543945
0.0	-0.0	130.761764526	-137.489562988	63.826965332	-130.643371582
0.0	-0.0	119.665061951	-143.980758667	52.953742981	-127.373039246
0.0	-0.0	102.266845703	-147.120910645	48.0760688782	-125.211616516
0.0	-0.0	85.7492828369	-147.974594116	44.6612358093	-123.453361511
0.0	-0.0	66.9618606567	-148.642700195	41.2681732178	-122.693031311
0.0	-0.0	51.2630081177	-150.48197937	37.8294372559	-122.050895691
0.0	-0.0	37.690990448	-152.896942139	35.2066040039	-121.760154724
0.0	-0.0	23.3354187012	-155.97567749	31.6391677856	-122.465148926
0.0	-0.0	10.1395177841	-158.919006348	28.3269882202	-123.298995972
0.0	0.0	-3.74747204781	-160.906234741	26.6725101471	-123.844497681
0.0	0.0	-16.2327461243	-161.235473633	26.2812805176	-123.787612915
0.0	0.0	-25.4164161682	-161.324996948	26.1653575897	-124.046562195
0.0	0.0	-34.2889595032	-161.402252197	25.9303970337	-124.340965271
0.0	0.0	-40.3356323242	-161.871612549	25.8381633759	-124.518081665
0.0	0.0	-44.473613739	-164.397827148	25.5622940063	-125.07371521
0.0	0.0	-47.6226730347	-170.532211304	25.8226718903	-126.404426575
