0.15146112442	1.44242560863	0.022855758667	0.0577909946442	1.64351963997	-0.181163311005
0.151024341583	1.44245028496	0.0229930877686	0.0576250553131	1.64346885681	-0.180740118027
0.150826931	1.44238424301	0.0231955051422	0.057240486145	1.64322280884	-0.180394411087
0.14998292923	1.44250679016	0.0233107805252	0.0564169883728	1.64339411259	-0.180026531219
0.149681806564	1.44267308712	0.0238683223724	0.0548253059387	1.64333188534	-0.178920984268
0.148513317108	1.44230973721	0.0254139900208	0.0515558719635	1.64273881912	-0.176597595215
0.147143125534	1.4417027235	0.0268001556396	0.0463736057281	1.64169740677	-0.173702955246
0.14556479454	1.44055891037	0.0289213657379	0.0404076576233	1.64028000832	-0.170522451401
0.143807649612	1.44000566006	0.0308977365494	0.0326905250549	1.63778734207	-0.166967988014
0.142087936401	1.44003140926	0.0327017307281	0.0235090255737	1.63344359398	-0.163868427277
0.139508962631	1.44022572041	0.0344095230103	0.0148644447327	1.62873673439	-0.161579012871
0.136193990707	1.4406491518	0.0353585481644	0.00789666175842	1.62322103977	-0.159582853317
0.134989976883	1.44070851803	0.0382232666016	0.00262904167175	1.61684453487	-0.157789707184
0.13484287262	1.43952250481	0.0425233840942	-0.0011203289032	1.61108219624	-0.156496763229
0.134558916092	1.43533730507	0.0511857271194	-0.00380110740662	1.60734605789	-0.15548992157
0.132061719894	1.43055832386	0.056121468544	-0.00568628311157	1.60502016544	-0.15475487709
0.128515005112	1.42538321018	0.0596784353256	-0.00740742683411	1.60207605362	-0.154918909073
0.127712726593	1.42529332638	0.0520220994949	-0.0098569393158	1.60007882118	-0.155874609947
0.13106751442	1.4238755703	0.0434187650681	-0.0130984783173	1.60081493855	-0.157569408417
0.12980723381	1.41914641857	0.0409371852875	-0.0162196159363	1.6009747982	-0.160045266151
0.13127207756	1.4121273756	0.044709444046	-0.0183815956116	1.60077893734	-0.161947727203
0.131091117859	1.40548062325	0.041965842247	-0.0192263126373	1.60077416897	-0.163271665573
