0.0	-0.0	144.97958374	83.0930175781	76.5672607422	22.0951385498
0.0	-0.0	145.019073486	82.5804367065	76.6484527588	21.9555454254
0.0	-0.0	144.79914856	82.5281677246	76.6085891724	21.6591453552
0.0	-0.0	144.843948364	82.6352081299	76.8511276245	21.5043506622
0.0	-0.0	144.595855713	82.8448867798	77.3759994507	21.2873516083
0.0	-0.0	144.588592529	82.8806381226	77.5165100098	21.3340740204
0.0	-0.0	144.616226196	82.7600021362	77.5971221924	21.3070774078
0.0	-0.0	144.623901367	82.6545715332	77.3886642456	21.5707836151
0.0	-0.0	143.45173645	82.8447647095	75.4751663208	21.4913272858
0.0	-0.0	143.176208496	84.0316925049	69.5779495239	20.9159259796
0.0	-0.0	141.186157227	85.2092208862	62.7350387573	20.1249809265
0.0	-0.0	137.079101562	86.2870025635	56.8942260742	19.0921859741
0.0	-0.0	131.299911499	87.6313400269	52.767829895	18.186258316
0.0	-0.0	127.046257019	89.3304367065	50.5292472839	17.0798931122
0.0	-0.0	123.439048767	91.9840316772	47.4957466125	15.6107854843
0.0	-0.0	120.744682312	94.7548446655	42.7096824646	13.6249370575
0.0	-0.0	115.755615234	97.0244140625	37.913848877	11.9083337784
0.0	-0.0	115.579681396	97.4565429688	33.0634155273	10.7543506622
0.0	-0.0	113.517127991	96.0301818848	28.923002243	10.1410884857
0.0	-0.0	111.024032593	95.0465545654	25.1926212311	9.57203006744
0.0	-0.0	108.820175171	95.3882827759	24.0097923279	8.79967594147
0.0	-0.0	107.142227173	98.1496887207	26.6721324921	7.64344072342
0.0	-0.0	101.647445679	104.002151489	31.6913928986	5.82835865021
0.0	-0.0	97.6602783203	110.277137756	35.3307991028	4.06223344803
0.0	-0.0	94.6918029785	111.503440857	36.1723861694	3.62651705742
0.0	-0.0	92.0843963623	108.618110657	35.8015975952	4.20767974854
0.0	-0.0	90.322769165	105.049690247	35.988822937	4.95704936981
0.0	-0.0	87.5718002319	101.159179688	37.4359893799	5.47565889359
0.0	-0.0	85.584854126	97.533493042	41.266960144	6.44359970093
0.0	-0.0	83.5671691895	94.9621810913	46.8168067932	8.0842218399
0.0	-0.0	85.5059738159	92.485458374	49.7434959412	10.2445497513
0.0	-0.0	85.94165802	91.3527069092	49.9151115417	10.9696302414
0.0	-0.0	86.6139297485	90.4332733154	49.4109077454	11.572684288
0.0	-0.0	90.3037719727	89.6484680176	49.0190200806	12.1116809845
0.0	-0.0	93.6544494629	89.0234451294	48.1797714233	12.0903139114
0.0	-0.0	99.6405639648	89.1875686646	46.4756164551	11.8431901932
0.0	-0.0	109.39339447	89.266960144	45.6684799194	11.9606714249
0.0	-0.0	108.112678528	89.3175964355	47.2965202332	12.0530748367
0.0	-0.0	105.933448792	89.4772796631	49.7460327148	12.1214694977
0.0	-0.0	104.709983826	89.119468689	50.1780319214	12.588312149
0.0	-0.0	101.690795898	89.3011016846	49.182308197	12.2425022125
0.0	-0.0	97.6166915894	89.6398544312	48.2082519531	12.1641569138
0.0	-0.0	102.920272827	89.7455673218	47.0252456665	12.2745132446
0.0	-0.0	104.298500061	89.8935928345	41.6416473389	11.9404525757
0.0	-0.0	103.817687988	90.0013122559	35.7400512695	11.5382852554
0.0	-0.0	102.530250549	90.5113601685	34.6629104614	11.1751022339
0.0	-0.0	102.517730713	92.475479126	32.1978225708	10.4405422211
0.0	-0.0	102.038963318	94.4815216064	25.4918441772	8.6777639389
0.0	-0.0	101.679336548	96.0648422241	18.5594673157	7.12046146393
0.0	-0.0	101.163902283	99.2519760132	16.4283332825	5.07061290741
0.0	-0.0	101.502357483	104.26348877	18.3354148865	3.62812876701
0.0	-0.0	101.510658264	107.401412964	19.0399837494	2.89563322067
0.0	-0.0	101.845756531	109.904777527	14.4615335464	1.54705691338
0.0	-0.0	101.482086182	109.853050232	5.8925113678	0.795145988464
0.0	-0.0	101.072601318	110.452056885	0.516317367554	-0.636667609215
0.0	-0.0	101.417411804	113.49055481	-0.899700343609	-1.64007127285
0.0	-0.0	101.515701294	118.058761597	-0.583396732807	-3.17704534531
0.0	-0.0	101.782211304	126.591438293	-0.044923581183	-6.01988983154
0.0	-0.0	102.513946533	132.894058228	-0.9827439785	-7.59383678436
0.0	-0.0	102.449241638	135.370254517	-5.21359634399	-8.31514263153
0.0	-0.0	102.444442749	136.654876709	-11.5196685791	-8.84308719635
0.0	-0.0	104.414405823	138.130142212	-17.1334438324	-9.39179801941
0.0	-0.0	105.341293335	132.915939331	-14.9954013824	-6.69383525848
0.0	-0.0	107.298080444	124.596664429	-7.55673933029	-0.902405142784
0.0	-0.0	113.125343323	117.982292175	-3.833558321	3.6809592247
0.0	-0.0	117.329574585	117.420730591	-4.44533729553	4.53017854691
0.0	-0.0	117.387077332	118.269584656	-6.71440935135	4.21401166916
0.0	-0.0	118.183326721	118.223197937	-9.76773929596	4.03058052063
0.0	-0.0	117.426712036	116.921768188	-8.74975299835	4.49308538437
0.0	-0.0	112.778160095	112.542396545	-0.78009802103	7.267121315
0.0	-0.0	113.385528564	105.718360901	10.2890119553	11.0288181305
0.0	-0.0	113.262367249	102.321372986	19.453868866	13.0710258484
0.0	-0.0	113.672843933	102.161613464	21.8702945709	13.8948812485
0.0	-0.0	113.591712952	103.764152527	17.1499252319	12.8418769836
0.0	-0.0	110.15990448	105.966011047	13.2488279343	11.5420436859
0.0	-0.0	111.067993164	106.716415405	12.1234827042	10.3121824265
0.0	-0.0	119.486808777	107.264137268	12.3090076447	10.0877895355
0.0	-0.0	120.059082031	107.757255554	12.2353200912	9.54005241394
0.0	-0.0	117.386962891	107.686782837	11.9743766785	9.55827522278
0.0	-0.0	115.159996033	107.64402771	12.6146965027	9.56380939484
0.0	-0.0	112.863571167	107.706184387	13.3078546524	9.57630252838
0.0	-0.0	106.354400635	107.489212036	13.458823204	9.73694801331
0.0	-0.0	102.140518188	106.92288208	13.9264535904	9.7301568985
0.0	-0.0	97.4205780029	106.385620117	14.7270383835	10.0616865158
0.0	-0.0	93.501914978	106.244735718	15.4816236496	9.93920230865
0.0	-0.0	87.5361404419	106.25995636	15.7860803604	10.0191841125
0.0	-0.0	84.0231628418	105.739311218	16.5768299103	10.2232675552
0.0	-0.0	81.5936355591	105.216255188	17.8832244873	10.3533611298
0.0	-0.0	77.8259124756	105.574920654	18.8789234161	10.3302736282
0.0	-0.0	71.6517868042	105.655654907	19.4631481171	10.3796796799
0.0	-0.0	68.4768753052	105.547821045	20.2278671265	10.6428232193
0.0	-0.0	65.5088424683	105.19355011	21.0085868835	11.0433511734
0.0	-0.0	62.5002937317	105.029144287	22.2506065369	11.4048976898
0.0	-0.0	57.9453239441	104.3539505	24.100353241	12.0545597076
0.0	-0.0	52.8803291321	102.840888977	25.8318958282	13.3720817566
0.0	-0.0	49.3720321655	101.301185608	26.4330673218	14.5957403183
0.0	-0.0	45.6033477783	99.9609832764	26.0450534821	15.3761873245
0.0	-0.0	40.4868927002	98.7899246216	26.0076904297	16.2881336212
0.0	-0.0	36.9973945618	98.3077850342	26.2866516113	16.6987075806
0.0	-0.0	36.0156707764	98.0412521362	26.4162273407	16.8630695343
0.0	-0.0	32.1051712036	97.8353042603	26.5951309204	17.1452465057
0.0	-0.0	29.8270454407	97.7313156128	27.1839408875	17.2607307434
0.0	-0.0	29.6777687073	97.5340423584	27.6854534149	17.6651554108
0.0	-0.0	29.2016906738	96.8748092651	28.4992179871	18.030582428
0.0	-0.0	28.982465744	95.3882217407	30.3030166626	18.6699752808
0.0	-0.0	28.5294322968	93.4294204712	33.5234031677	19.7536087036
0.0	-0.0	29.1382007599	91.2790985107	35.3254432678	21.2375202179
0.0	-0.0	28.5501155853	90.4058990479	34.3736915588	21.8312416077
0.0	-0.0	25.384180069	90.4525604248	32.3427886963	21.4591159821
0.0	-0.0	22.9526119232	90.6117401123	30.654460907	21.3462772369
0.0	-0.0	22.4703655243	90.2267990112	29.2523975372	21.5973796844
0.0	-0.0	21.7465591431	89.6970977783	26.9583969116	22.0124416351
0.0	-0.0	20.7233753204	89.5163879395	24.2806434631	22.1802997589
0.0	-0.0	20.3299732208	89.6858215332	23.1059055328	22.2722835541
0.0	-0.0	20.1261386871	90.4127731323	23.2023258209	22.1231193542
0.0	-0.0	19.9590854645	91.4775695801	22.050743103	21.0569896698
0.0	-0.0	19.8232688904	91.9453964233	20.691532135	19.9312458038
0.0	-0.0	19.6020927429	92.5916671753	19.5545330048	18.7599372864
0.0	-0.0	19.3873558044	94.4068374634	17.928943634	17.3485507965
0.0	-0.0	19.1619606018	95.5893554688	17.355682373	16.3581905365
0.0	-0.0	18.7928218842	96.2617645264	19.7071800232	16.3146495819
0.0	-0.0	23.5996856689	96.9897232056	21.7615222931	16.5672187805
0.0	-0.0	25.2758522034	96.7423400879	22.5996437073	16.7866230011
0.0	-0.0	25.2913951874	96.9356842041	22.9284000397	16.668012619
0.0	-0.0	25.2346477509	97.0445785522	22.9320068359	16.6888980865
0.0	-0.0	23.8228359222	96.7815093994	22.2659397125	16.7041950226
0.0	-0.0	29.6180877686	96.8030014038	21.82954216	16.6955757141
0.0	-0.0	31.0803928375	96.6419754028	22.1892528534	16.7826919556
0.0	-0.0	30.3801574707	97.0024871826	22.6614360809	16.5999908447
0.0	-0.0	31.2418766022	97.4866714478	23.0170631409	16.5903682709
0.0	-0.0	31.5332202911	97.6717147827	23.8985061646	16.3645458221
0.0	-0.0	31.5750141144	98.0656661987	24.4415645599	16.2173366547
0.0	-0.0	35.0367431641	97.8855056763	24.722864151	16.1089992523
0.0	-0.0	38.9619827271	98.0023498535	25.0916538239	16.0597438812
0.0	-0.0	40.3113975525	99.5676879883	25.2610836029	15.2771482468
0.0	-0.0	40.6809577942	101.981155396	25.2477607727	14.3815259933
0.0	-0.0	40.1031761169	104.685707092	24.2407550812	13.1812639236
0.0	-0.0	40.6555862427	106.924697876	21.8677387238	11.7994413376
0.0	-0.0	42.0898780823	108.697853088	20.3259124756	10.4828224182
0.0	-0.0	44.1825180054	110.381492615	20.7172031403	9.25057601929
0.0	-0.0	48.2413902283	112.854133606	22.2541007996	7.7632393837
0.0	-0.0	52.024356842	114.090286255	23.3141937256	7.36598205566
0.0	-0.0	53.2222213745	113.556106567	24.1037158966	7.66861248016
0.0	-0.0	57.6587486267	113.99622345	24.5074977875	7.47200918198
0.0	-0.0	60.1167373657	114.769393921	24.592540741	7.40151119232
0.0	-0.0	67.3746643066	115.160324097	24.3202991486	6.9284081459
0.0	-0.0	69.7049484253	115.306800842	24.0150318146	6.52081680298
0.0	-0.0	64.1876144409	115.220397949	23.5949668884	6.41191339493
0.0	-0.0	57.6898803711	114.658157349	22.9056415558	6.69393634796
0.0	-0.0	54.4922676086	113.661720276	22.9827327728	7.43409442902
0.0	-0.0	54.4791564941	113.032081604	23.7753295898	7.78416728973
0.0	-0.0	50.4191474915	112.438201904	24.2424716949	8.23107051849
0.0	-0.0	48.7969017029	111.468154907	24.7818832397	8.68759822845
0.0	-0.0	46.5614471436	109.740608215	25.4657440186	9.4146490097
0.0	-0.0	53.1752128601	109.155181885	26.7021102905	9.97316360474
0.0	-0.0	50.8293151855	109.111480713	27.995262146	10.3427238464
0.0	-0.0	55.1388015747	109.14125061	28.2382926941	10.4730739594
0.0	-0.0	63.5388641357	109.15196228	28.1595172882	10.5709276199
0.0	-0.0	75.1527709961	108.886726379	27.8069095612	10.1584854126
0.0	-0.0	97.702331543	108.061134338	26.8729629517	9.96786785126
0.0	-0.0	128.60244751	107.413887024	26.572183609	9.9049949646
0.0	-0.0	140.708267212	107.692298889	26.8841400146	9.60934448242
0.0	-0.0	122.777160645	107.830757141	27.7526092529	9.705286026
0.0	-0.0	98.1898956299	107.618392944	28.8296642303	9.68085575104
0.0	-0.0	97.6165084839	107.235069275	29.679189682	9.93606853485
0.0	-0.0	85.6185302734	107.011505127	30.9328937531	9.83549880981
0.0	-0.0	69.9217834473	107.407081604	31.7209777832	9.71253108978
0.0	-0.0	64.3591918945	107.554084778	32.6889610291	9.71590900421
0.0	-0.0	58.3606758118	107.501983643	33.7047576904	9.97967433929
0.0	-0.0	53.1187858582	107.196121216	34.5231323242	10.4331102371
0.0	-0.0	50.5457267761	105.874221802	34.6183738708	11.5346059799
0.0	-0.0	49.0930404663	103.168540955	34.5039710999	12.5008058548
0.0	-0.0	49.8870353699	99.3464584351	34.2177772522	13.5690641403
0.0	-0.0	52.5044441223	95.326713562	33.6777381897	14.4844245911
0.0	-0.0	54.6134529114	92.737159729	31.8743362427	15.2905111313
0.0	-0.0	54.9883804321	91.2936401367	29.6423549652	15.5032348633
0.0	-0.0	52.0702056885	91.2433166504	28.0196971893	15.1489658356
0.0	-0.0	52.2767333984	90.982170105	27.2139968872	15.3636550903
0.0	-0.0	52.120059967	90.6954727173	27.5244407654	15.7748012543
0.0	-0.0	41.5622444153	90.390296936	27.7209262848	16.34116745
0.0	-0.0	33.891330719	90.1434326172	28.1214370728	16.720287323
0.0	-0.0	29.5827407837	89.8266143799	28.5234355927	17.1085910797
0.0	-0.0	21.8945274353	89.5532226562	29.0596179962	17.4028224945
0.0	-0.0	14.6744213104	89.7848358154	30.1703777313	17.4741802216
0.0	-0.0	7.15652894974	89.4675064087	30.7460289001	17.7782669067
0.0	-0.0	1.65039682388	88.8142776489	30.8832588196	18.2318096161
0.0	0.0	-2.53606557846	87.8227844238	30.818944931	18.7778453827
0.0	0.0	-3.982380867	86.1801071167	31.2975978851	19.8233375549
0.0	0.0	-3.80347442627	83.8298034668	32.7799911499	20.8340549469
0.0	0.0	-3.79832482338	80.5137710571	34.538066864	21.9035110474
0.0	0.0	-3.35879063606	73.9883880615	36.6525917053	24.9233322144
0.0	0.0	-2.62488126755	64.9019470215	40.2285919189	29.0824642181
0.0	0.0	-3.03645348549	60.8795585632	42.6695404053	31.9839458466
0.0	0.0	-7.37579393387	62.5594520569	43.5692977905	32.3071250916
0.0	0.0	-16.9320526123	64.1650543213	43.4776649475	31.884979248
0.0	0.0	-21.1842880249	63.9730606079	42.9156265259	32.0727348328
0.0	0.0	-23.9241085052	63.8941688538	43.6429672241	32.2090263367
0.0	0.0	-29.4109191895	63.1327400208	44.8286895752	32.5029373169
0.0	0.0	-29.9656600952	62.2832298279	45.5934371948	32.5592422485
0.0	0.0	-31.4248256683	60.1375007629	45.4709701538	33.5700645447
0.0	0.0	-34.3805656433	57.5825233459	45.8951072693	35.0077514648
0.0	0.0	-34.8054924011	54.7609329224	44.7555007935	36.7609786987
0.0	0.0	-36.5583229065	52.6598358154	43.9192810059	38.5704078674
0.0	0.0	-43.5369873047	49.7174797058	43.4124145508	40.8147964478
0.0	0.0	-42.7004814148	48.7006454468	43.5227622986	41.4885292053
0.0	0.0	-29.9046630859	49.2860794067	44.2044868469	41.7302513123
0.0	0.0	-23.3775596619	50.1827735901	44.8600006104	41.534324646
0.0	0.0	-5.69531345367	51.2249183655	44.5963973999	41.3450622559
0.0	-0.0	24.3266220093	52.7511253357	44.3093566895	40.9294700623
0.0	-0.0	40.6286849976	55.1789360046	44.9477844238	40.0980682373
0.0	-0.0	58.7489738464	58.9255523682	45.0545272827	38.3278465271
0.0	-0.0	79.6098709106	64.6134567261	43.7634849548	35.2834205627
0.0	-0.0	76.1499557495	70.9999084473	39.4298171997	31.2362327576
0.0	-0.0	87.6145248413	76.3265228271	31.1744022369	25.279592514
0.0	-0.0	94.9974594116	82.7692565918	22.3766651154	17.6218719482
0.0	-0.0	108.050239563	93.8772125244	15.4155168533	8.33372402191
0.0	-0.0	121.745323181	104.894332886	9.92630672455	0.4612390697
0.0	-0.0	136.849838257	107.172027588	8.07340145111	-2.23408436775
0.0	-0.0	92.7627487183	104.483177185	12.2406578064	-1.35044693947
