0.147599458694	1.49391424656	0.0358456373215	0.0392048358917	1.64898109436	-0.192648887634
0.148497104645	1.49370181561	0.0362212657928	0.0391011238098	1.64887726307	-0.192275166512
0.147989988327	1.49384140968	0.0359563827515	0.0386822223663	1.64885628223	-0.192038536072
0.147261619568	1.49386906624	0.0363349914551	0.0380744934082	1.6488391161	-0.191768288612
0.146697759628	1.49429523945	0.0369181632996	0.0368173122406	1.64892232418	-0.191348314285
0.145659208298	1.4940019846	0.0381773710251	0.0321695804596	1.6485530138	-0.190410614014
0.14292383194	1.49294042587	0.0398850440979	0.0233824253082	1.64780807495	-0.188567996025
0.140470027924	1.49179816246	0.0416885614395	0.013192653656	1.646443367	-0.187078595161
0.137835741043	1.4911980629	0.0427914857864	0.00315403938293	1.64519810677	-0.185859918594
0.135497093201	1.49092578888	0.0433087348938	-0.00517797470093	1.64391744137	-0.185242056847
0.135852813721	1.49032282829	0.0438299179077	-0.00922298431396	1.64331960678	-0.185288906097
0.138906478882	1.48856472969	0.046201467514	-0.0102179050446	1.64326238632	-0.184958696365
0.144210577011	1.48712575436	0.0491011142731	-0.0100538730621	1.64293682575	-0.184389829636
