-66.3046417236	-78.9334030151	146.767990112	20.3850345612	-2.5679705143	11.6158390045
-66.4980621338	-78.8400726318	147.181442261	20.6075172424	-2.73962640762	11.5535049438
-65.9913253784	-79.1318130493	146.656845093	20.5819129944	-2.77985811234	11.5785188675
-66.2694168091	-79.1520690918	146.802276611	20.2858638763	-2.75894641876	11.6220121384
-65.5029373169	-79.0950088501	145.70703125	19.1042613983	-2.57161617279	11.8531084061
-64.3990783691	-79.0930633545	144.131362915	15.7726726532	-1.61429572105	12.564414978
-64.1617660522	-78.83644104	143.121841431	11.3704242706	-0.6269069314	14.1294250488
-63.1875953674	-78.371963501	140.813796997	7.00709676743	1.08079659939	16.0513019562
-62.2213859558	-77.8525543213	137.9896698	2.92527770996	4.13828039169	18.7758636475
-58.9298667908	-77.4272232056	131.727493286	-1.29225635529	7.52668046951	21.0563259125
-45.7386360168	-76.5085525513	111.055755615	-4.92386960983	10.1384067535	22.0594100952
-37.0963020325	-75.2217636108	97.0191497803	-7.31859445572	11.6600923538	22.2616863251
-26.1326007843	-73.1998443604	80.1282806396	-8.00489711761	12.5904636383	22.1007213593
-15.9387598038	-68.5714263916	62.2323074341	-7.54094600677	13.6117725372	21.6176948547
-7.44909191132	-61.0787582397	45.3850212097	-7.15202474594	15.3012990952	21.1695556641
-6.140853405	-54.9767494202	40.1190185547	-7.78334283829	17.0690002441	20.9409656525
-5.64280128479	-47.6970367432	32.6484375	-9.76573944092	18.590719223	20.6870174408
-4.6532125473	-37.7805290222	15.8199625015	-11.6097602844	19.8629398346	20.1111297607
-5.76997947693	-31.7840003967	2.3851017952	-12.3284664154	20.8363857269	20.0757465363
-7.1573548317	-26.985490799	-10.4834489822	-12.6370983124	21.5947532654	20.2938041687
-8.0996055603	-22.6680679321	-21.7904052734	-12.9419307709	22.0794563293	20.2857589722
-9.09179115295	-18.5001907349	-35.9861335754	-13.2103719711	22.5134525299	20.1251506805
-6.99878072739	-17.4203929901	-45.6242027283	-13.6066856384	22.9952774048	19.9285831451
-4.93896722794	-16.7583732605	-50.2009544373	-13.8186941147	23.0112743378	19.6612358093
-4.86784124374	-17.4749069214	-50.7043571472	-13.8794898987	22.7712287903	19.5509796143
-5.15248155594	-18.0840148926	-49.9650268555	-13.756193161	22.4152183533	19.5537815094
