0.197811841965	1.50062322617	0.14709854126	0.0786590576172	1.65682601929	-0.156993627548
0.197329998016	1.50111794472	0.147055149078	0.0786380767822	1.65696775913	-0.157237768173
0.196369171143	1.50098967552	0.146614074707	0.0782630443573	1.65694642067	-0.157214403152
0.195588111877	1.50092959404	0.146529912949	0.0773305892944	1.65628290176	-0.156761884689
0.193707466125	1.5003169775	0.147156476974	0.0747392177582	1.65408813953	-0.155165672302
0.191256523132	1.49980759621	0.147390127182	0.0709137916565	1.65065479279	-0.151431441307
0.18820810318	1.49933934212	0.146796703339	0.0662217140198	1.64602005482	-0.146602153778
0.185423135757	1.49790859222	0.146685481071	0.0610725879669	1.64052343369	-0.141414165497
0.182205915451	1.49570977688	0.146672487259	0.0568222999573	1.63349890709	-0.136308908463
0.177346229553	1.49354481697	0.146501541138	0.0546448230743	1.62636125088	-0.132228970528
0.17381811142	1.49245333672	0.147278189659	0.0540153980255	1.6231212616	-0.129903197289
0.17169380188	1.49106740952	0.14978313446	0.0532612800598	1.62295341492	-0.12899518013
0.170675516129	1.48844480515	0.155806183815	0.0517354011536	1.6214979887	-0.128710269928
0.169399261475	1.48662114143	0.159187793732	0.0491006374359	1.62027108669	-0.128467321396
0.16975069046	1.48609185219	0.163031816483	0.045307636261	1.6193498373	-0.127974390984
0.170266628265	1.48417985439	0.169800639153	0.0405290126801	1.61587643623	-0.127774953842
0.169140100479	1.47833859921	0.179009795189	0.0352566242218	1.61159729958	-0.128256559372
0.168671607971	1.46890926361	0.187990665436	0.0299544334412	1.61046087742	-0.129351139069
0.165375709534	1.45737791061	0.196650743484	0.0247225761414	1.61001420021	-0.130752086639
0.161906957626	1.44835102558	0.203187465668	0.018928527832	1.60917317867	-0.132603168488
0.160264968872	1.43954229355	0.210122585297	0.0143609046936	1.60820424557	-0.134358525276
0.160424232483	1.43219506741	0.214919447899	0.0113835334778	1.60674762726	-0.136444211006
0.159343719482	1.42956101894	0.212323904037	0.00895428657532	1.60617697239	-0.137798905373
0.154906988144	1.42488217354	0.210946440697	0.00583624839783	1.60602557659	-0.139441490173
0.152422428131	1.41769480705	0.213701844215	0.00274443626404	1.60559630394	-0.141924262047
0.153758049011	1.40733146667	0.218893051147	-0.00108671188354	1.60541152954	-0.144435167313
0.155123472214	1.39771556854	0.222637176514	-0.00414991378784	1.60519850254	-0.146220445633
0.154253005981	1.38802874088	0.228037118912	-0.00570130348206	1.60445129871	-0.146483063698
