-59.1951522827	-78.9088745117	135.161636353	21.664308548	-2.00246143341	15.107129097
-57.0983810425	-78.8016586304	133.125167847	21.4003982544	-2.07217502594	15.3552417755
-55.8689422607	-78.8765335083	131.78767395	21.1137580872	-2.07652711868	15.3612861633
-54.9414596558	-78.643447876	130.213760376	20.6155452728	-1.93240523338	15.3983736038
-47.4479942322	-78.8473815918	120.61907196	18.6501083374	-1.19901323318	15.6698055267
-40.7153663635	-78.7930297852	109.452163696	14.2960948944	0.400241196156	15.6491880417
-19.8620643616	-77.1900405884	76.546257019	8.44622612	1.82381105423	14.943570137
-13.4755783081	-74.4849472046	53.0810928345	3.35909223557	2.75745201111	14.3012857437
-5.24180412292	-69.5666427612	18.8948631287	-0.390396475792	3.96482849121	13.3716449738
-8.54873752594	-63.5885505676	-7.86163377762	-3.5921857357	5.60532569885	11.8446416855
-17.3021183014	-61.512298584	-22.0985813141	-5.79200792313	6.93776035309	10.1902246475
-23.670501709	-64.4123382568	-36.2243919373	-6.56207942963	7.53765058517	8.66773509979
-20.0390148163	-65.7867736816	-58.2886047363	-6.61341810226	8.31719589233	6.77541875839
-13.9723176956	-68.170463562	-77.63671875	-5.72119379044	9.28640842438	5.37116622925
