0.110018730164	1.40146684647	0.0647166967392	0.0104954242706	1.64222586155	-0.139320492744
0.110326766968	1.40208637714	0.0656400918961	0.0107202529907	1.64209103584	-0.138122081757
0.110203742981	1.40209126472	0.0666636228561	0.0108375549316	1.64209747314	-0.136794924736
0.110042333603	1.40173685551	0.0678057670593	0.0106956958771	1.64323985577	-0.135625958443
0.110366344452	1.40150594711	0.0679190158844	0.00994086265564	1.64849102497	-0.135914564133
0.110159635544	1.40149581432	0.068664431572	0.00759983062744	1.65563154221	-0.138358831406
0.109839916229	1.40195322037	0.0707892179489	0.00214052200317	1.66292452812	-0.141857147217
0.109276771545	1.40327179432	0.07202231884	-0.00523233413696	1.66994071007	-0.146631002426
0.107422590256	1.40437030792	0.0736875534058	-0.0106747150421	1.67364799976	-0.150815963745
0.103481531143	1.40580749512	0.0734694004059	-0.0129487514496	1.67484271526	-0.153002500534
0.102839708328	1.40688455105	0.0749526023865	-0.0141241550446	1.6761496067	-0.15449488163
0.0999636650085	1.4067158699	0.0783364772797	-0.0130503177643	1.67761850357	-0.155872344971
0.0985083580017	1.40445744991	0.0843026638031	-0.0104973316193	1.67851209641	-0.156031131744
0.0950264930725	1.40375494957	0.0853558778763	-0.00828814506531	1.67925155163	-0.155693054199
0.0943312644958	1.40353572369	0.084899187088	-0.0074450969696	1.67970705032	-0.155353069305
0.0926489830017	1.40297603607	0.0841181278229	-0.00887370109558	1.67995011806	-0.15440928936
0.0914776325226	1.40306568146	0.0810782909393	-0.0114288330078	1.67992663383	-0.153708815575
0.0967588424683	1.40289843082	0.0812110900879	-0.0128746032715	1.67999875546	-0.153777599335
0.101504087448	1.40374112129	0.0787864923477	-0.0128753185272	1.68013894558	-0.154323339462
0.106181621552	1.40274107456	0.0801242589951	-0.0129315853119	1.68035757542	-0.154907941818
0.109841346741	1.39991402626	0.0856149196625	-0.0147264003754	1.68029689789	-0.154540061951
0.111575603485	1.39689314365	0.0897080898285	-0.0174181461334	1.67962872982	-0.153268814087
0.112633466721	1.3946300745	0.091893196106	-0.0185678005219	1.67883753777	-0.151437520981
0.114349603653	1.39461898804	0.091564655304	-0.0183038711548	1.6784734726	-0.150374054909
0.11438703537	1.3940782547	0.0917177200317	-0.0187165737152	1.67844450474	-0.149284601212
0.114449977875	1.39239263535	0.0927042961121	-0.0199432373047	1.67850840092	-0.147833108902
0.115435123444	1.39119803905	0.0941177606583	-0.0223546028137	1.67814326286	-0.145543336868
0.11990737915	1.39162743092	0.0943763256073	-0.0259685516357	1.67746496201	-0.142918109894
0.122884273529	1.39317834377	0.092570066452	-0.0296592712402	1.67721056938	-0.14058637619
0.123161077499	1.39518392086	0.0891973972321	-0.0321018695831	1.67737722397	-0.139425516129
0.121194839478	1.39604008198	0.0881581306458	-0.0320694446564	1.67776572704	-0.139137506485
0.119965314865	1.39569222927	0.0880239009857	-0.0295901298523	1.67885518074	-0.140005588531
