0.0	-0.0	143.666671753	94.5525283813	75.7981414795	24.2895336151
0.0	-0.0	142.70930481	94.4109725952	76.1384735107	24.4462127686
0.0	-0.0	143.667709351	94.0886077881	76.3053359985	24.5127868652
0.0	-0.0	142.039505005	93.9264907837	76.2272720337	24.6408195496
0.0	-0.0	141.659332275	93.367149353	75.9545516968	24.8823013306
0.0	-0.0	140.091918945	92.7185134888	75.8530273438	25.126707077
0.0	-0.0	139.080886841	92.1720275879	75.9699325562	25.3785419464
0.0	-0.0	133.570281982	90.611831665	75.8032302856	25.7056941986
0.0	-0.0	122.862030029	86.8697128296	76.1162796021	26.3511829376
0.0	-0.0	102.013496399	83.6497573853	76.5074081421	27.2697792053
0.0	-0.0	86.4920959473	81.1022109985	78.807510376	28.1707286835
0.0	-0.0	71.7073135376	78.4184265137	81.9216156006	28.9680271149
0.0	-0.0	70.1710281372	75.7120056152	85.025138855	29.738571167
0.0	-0.0	70.6578826904	73.7949447632	87.2606124878	30.5698070526
