0.0	-0.0	142.744873047	86.8996047974	70.2662887573	26.3959789276
0.0	-0.0	142.526321411	86.8096160889	70.4574661255	26.7063751221
0.0	-0.0	142.378128052	86.7275772095	70.7901687622	27.1053581238
0.0	-0.0	142.297119141	86.9397964478	70.9661178589	27.2817058563
0.0	-0.0	142.096221924	87.3851776123	71.353843689	27.1847324371
0.0	-0.0	142.137420654	88.740447998	71.2602233887	27.1631965637
0.0	-0.0	141.001495361	91.5136032104	70.8969573975	27.1476345062
0.0	-0.0	139.205917358	94.4078521729	70.7389450073	27.2542057037
0.0	-0.0	124.771179199	93.2192764282	71.4167633057	27.4398021698
0.0	-0.0	113.174819946	90.1084060669	72.1392822266	28.3064651489
0.0	-0.0	110.205162048	86.5213165283	74.2226867676	29.3454971313
0.0	-0.0	103.772697449	82.3191680908	77.1066665649	30.1258563995
0.0	-0.0	97.9152908325	78.7990646362	79.5092773438	30.4335842133
0.0	-0.0	78.2239990234	78.017906189	81.623046875	30.5326652527
0.0	-0.0	50.1192245483	78.0320129395	83.4190292358	30.5049972534
0.0	-0.0	56.0245056152	77.5968017578	85.7366714478	30.7731876373
0.0	-0.0	55.8190155029	76.4710617065	87.0898742676	30.9872360229
0.0	-0.0	58.3486862183	72.6970062256	87.909614563	31.4182605743
