0.011679649353	1.14310348034	0.21168422699	0.0304439067841	1.60411381721	-0.0354208946228
0.0124077796936	1.14254403114	0.213758945465	0.0299952030182	1.60385203362	-0.0336265563965
0.0120544433594	1.14244258404	0.215721845627	0.0293641090393	1.60418367386	-0.0315831899643
0.0105702877045	1.1419839859	0.216795921326	0.0267343521118	1.60678243637	-0.03031873703
0.00825500488281	1.14420604706	0.217804908752	0.020658493042	1.61169528961	-0.0298353433609
0.00610995292664	1.14726090431	0.219630122185	0.0138258934021	1.61812126637	-0.0307024717331
0.00292611122131	1.15258347988	0.221765875816	0.00777268409729	1.62588632107	-0.0333631038666
-0.00103545188904	1.15995573997	0.222668528557	0.00267124176025	1.63465857506	-0.0372439622879
-0.00330233573914	1.17285728455	0.223085403442	-0.00162386894226	1.64179694653	-0.0416792631149
-0.00465726852417	1.18713533878	0.222803354263	-0.00453114509583	1.64640271664	-0.0458652973175
-0.00523447990417	1.20173871517	0.222365736961	-0.00632214546204	1.65023946762	-0.0495332479477
-0.00488328933716	1.21482717991	0.221459388733	-0.00766229629517	1.65337598324	-0.052404999733
-0.005051612854	1.22450196743	0.219999074936	-0.00789403915405	1.65411019325	-0.0532472133636
-0.00751519203186	1.22981774807	0.217166423798	-0.00790190696716	1.65444839001	-0.0526401996613
-0.0113658905029	1.23239791393	0.21339225769	-0.00838780403137	1.65432369709	-0.0524840354919
-0.0150983333588	1.23745107651	0.208144426346	-0.00916433334351	1.65487658978	-0.0524592399597
-0.0193207263947	1.24365746975	0.202503800392	-0.0102965831757	1.65586519241	-0.0534473657608
-0.0231125354767	1.24935996532	0.197481513023	-0.0122787952423	1.65799927711	-0.0547313690186
-0.0278337001801	1.25292778015	0.192745685577	-0.0150725841522	1.65832161903	-0.0560214519501
-0.0314538478851	1.25369262695	0.189808726311	-0.0173146724701	1.65603756905	-0.0563979148865
-0.0334134101868	1.25316631794	0.188897371292	-0.0173997879028	1.65458106995	-0.0565493106842
-0.0344476699829	1.25234723091	0.18879532814	-0.0144622325897	1.65505230427	-0.0561270713806
-0.0357182025909	1.25219094753	0.18779861927	-0.0106928348541	1.65561234951	-0.0554423332214
-0.0371930599213	1.25196969509	0.18638920784	-0.00827479362488	1.65487039089	-0.054518699646
-0.0391597747803	1.25103580952	0.184620380402	-0.00832796096802	1.65356957912	-0.0542485713959
-0.0407755374908	1.24677693844	0.1858907938	-0.00908732414246	1.65282273293	-0.0541784763336
-0.0415689945221	1.24397599697	0.186982035637	-0.0101881027222	1.65181064606	-0.0542452335358
-0.0419180393219	1.24402654171	0.186639308929	-0.0115370750427	1.65048205853	-0.0542203187943
-0.0427243709564	1.24415123463	0.185765862465	-0.0125622749329	1.65018987656	-0.0546441078186
-0.0428245067596	1.24345397949	0.185616254807	-0.0127630233765	1.65049469471	-0.0551129579544
-0.0414505004883	1.24368703365	0.185727357864	-0.0125317573547	1.65117275715	-0.0562057495117
-0.0389533042908	1.24633347988	0.188190221786	-0.0124146938324	1.65179753304	-0.0572695732117
-0.0377035140991	1.24996912479	0.189469695091	-0.0125665664673	1.65254986286	-0.0585988759995
-0.0375673770905	1.25447595119	0.188463926315	-0.0128147602081	1.65326213837	-0.0599966049194
-0.0390067100525	1.25709056854	0.185436606407	-0.0137431621552	1.65364325047	-0.0613260269165
-0.0419838428497	1.25751972198	0.18105328083	-0.0150961875916	1.65508913994	-0.0637278556824
-0.043098449707	1.25846755505	0.178637504578	-0.0173718929291	1.65743494034	-0.0668215751648
-0.0439755916595	1.25921404362	0.177434325218	-0.0202574729919	1.65944063663	-0.0702342987061
-0.0447852611542	1.26086330414	0.175637960434	-0.0230534076691	1.66085875034	-0.073926448822
-0.0461802482605	1.26184678078	0.173768758774	-0.0254034996033	1.6610699892	-0.0768783092499
-0.0475919246674	1.26267802715	0.171749591827	-0.0270204544067	1.66080498695	-0.079118013382
-0.0477826595306	1.26162159443	0.170649766922	-0.0281167030334	1.66061890125	-0.0808715820312
-0.0464882850647	1.26193809509	0.169827461243	-0.0287113189697	1.66050374508	-0.0824892520905
-0.0421969890594	1.26798987389	0.168657541275	-0.028804063797	1.66045570374	-0.0839493274689
-0.0402462482452	1.27577805519	0.165134429932	-0.0283296108246	1.66023313999	-0.0857262611389
-0.0424761772156	1.27842462063	0.159701943398	-0.0277605056763	1.66000294685	-0.0875461101532
-0.0460863113403	1.27868592739	0.153411507607	-0.0277996063232	1.65936553478	-0.0894167423248
-0.0500609874725	1.27893579006	0.146292686462	-0.0279092788696	1.6585829258	-0.0912156105042
-0.0526485443115	1.27946472168	0.141251087189	-0.0282001495361	1.65854465961	-0.0934810638428
-0.05260014534	1.27754151821	0.141242623329	-0.0283272266388	1.65800058842	-0.0958050489426
-0.0523443222046	1.27569401264	0.139930725098	-0.0274302959442	1.6555866003	-0.0973613262177
-0.0511875152588	1.27450823784	0.138556480408	-0.0259931087494	1.65197408199	-0.0983803272247
-0.0507717132568	1.27489101887	0.135783433914	-0.0231885910034	1.65091395378	-0.0985615253448
-0.0500032901764	1.27516460419	0.134513139725	-0.0206127166748	1.64865958691	-0.0982112884521
-0.0494558811188	1.27431535721	0.133725881577	-0.02006316185	1.64331996441	-0.0975823402405
-0.0499737262726	1.27115797997	0.133052110672	-0.0210738182068	1.63797926903	-0.0969550609589
-0.0532901287079	1.26785266399	0.130101442337	-0.0227227210999	1.63545715809	-0.0966300964355
-0.0580978393555	1.26155042648	0.128481149673	-0.024197101593	1.63380634785	-0.0967838764191
-0.0608723163605	1.25869786739	0.126236319542	-0.0254838466644	1.63211894035	-0.0968582630157
-0.0612015724182	1.25761342049	0.126896619797	-0.0264341831207	1.6298917532	-0.0969117879868
-0.0608904361725	1.25629603863	0.128996491432	-0.0266213417053	1.62863123417	-0.0960378646851
-0.0612852573395	1.25454235077	0.129260659218	-0.0269792079926	1.6286585331	-0.0943292379379
-0.0616657733917	1.253677845	0.128481507301	-0.028392791748	1.62983572483	-0.0918848514557
-0.0620031356812	1.25212585926	0.129247188568	-0.0285503864288	1.63110733032	-0.0898053646088
-0.0627429485321	1.25139939785	0.130875468254	-0.0263192653656	1.63330304623	-0.0876846313477
-0.0644409656525	1.25145232677	0.131736278534	-0.0234529972076	1.63444638252	-0.0857502222061
-0.065881729126	1.25235712528	0.13185095787	-0.0214490890503	1.63509500027	-0.0845282077789
-0.0665454864502	1.25324368477	0.133333563805	-0.0200805664062	1.63602852821	-0.0843080282211
-0.0668025016785	1.25311970711	0.135487914085	-0.0196695327759	1.63798999786	-0.0850106477737
-0.0675168037415	1.25300371647	0.137239336967	-0.0203711986542	1.64007890224	-0.086466550827
