0.0	-0.0	134.037506104	84.8164596558	64.9245986938	22.059720993
0.0	-0.0	133.935287476	84.1929092407	65.3963546753	22.1841011047
0.0	-0.0	133.095275879	84.4942855835	65.6860046387	22.3276882172
0.0	-0.0	131.775436401	84.5297164917	66.5835037231	22.1153049469
0.0	-0.0	131.506256104	84.732170105	68.2849502563	22.210231781
0.0	-0.0	129.550857544	83.7951889038	69.0859909058	22.8251171112
0.0	-0.0	121.841705322	82.2237014771	69.2294921875	23.0957603455
0.0	-0.0	102.218559265	81.7924499512	69.7039794922	23.2073230743
0.0	-0.0	96.9776916504	81.3355712891	70.8689727783	23.9090232849
0.0	-0.0	85.6488113403	80.0456848145	72.7620925903	24.4437465668
0.0	-0.0	77.693572998	78.0349807739	75.384979248	25.3927974701
0.0	-0.0	70.8320083618	75.7079315186	78.1712036133	26.5533714294
0.0	-0.0	71.1220932007	72.8490982056	80.4397201538	27.8921546936
