0.152143001556	1.49015796185	0.0853301286697	0.0839586257935	1.64619350433	-0.153730630875
0.152134180069	1.49028038979	0.0857527256012	0.0837438106537	1.64661037922	-0.153788566589
0.152460098267	1.49015116692	0.085965514183	0.0837435722351	1.64671707153	-0.153805732727
0.152761936188	1.49020326138	0.0861785411835	0.0840797424316	1.64651381969	-0.153670549393
0.153447389603	1.49076998234	0.0854684114456	0.0843589305878	1.64654612541	-0.153736829758
0.153631210327	1.49019873142	0.0857670307159	0.0842957496643	1.64639472961	-0.153642177582
0.15320110321	1.48990345001	0.0863482952118	0.082738161087	1.64592421055	-0.152284622192
0.152416706085	1.48952150345	0.0865297317505	0.0793454647064	1.64501476288	-0.150493502617
0.151696920395	1.48905682564	0.0873560905457	0.0756213665009	1.64425647259	-0.148661732674
0.150705099106	1.48901951313	0.0881768465042	0.0731060504913	1.6438845396	-0.14711856842
0.150889873505	1.48951542377	0.0893100500107	0.072603225708	1.64366412163	-0.146496295929
