0.0	-0.0	133.612609863	97.3251037598	67.9849853516	26.1672649384
0.0	-0.0	134.53843689	96.7174606323	67.6908340454	26.513671875
0.0	-0.0	133.999755859	95.9368896484	67.3983230591	26.6184139252
0.0	-0.0	134.255828857	95.3801193237	66.9734802246	26.8216381073
0.0	-0.0	130.597381592	94.2203598022	66.0014648438	26.4868869781
0.0	-0.0	127.317268372	91.6781463623	62.574256897	25.6067066193
0.0	-0.0	124.188766479	87.9955444336	58.2385520935	24.5023403168
0.0	-0.0	123.548805237	82.9024658203	52.0004768372	23.2813873291
0.0	-0.0	122.703842163	75.7560882568	43.8521881104	22.0358181
0.0	-0.0	122.334228516	67.1117019653	35.1348876953	21.6672897339
0.0	-0.0	115.732978821	59.483165741	27.8676071167	21.2982063293
0.0	-0.0	101.51714325	53.6883430481	21.5352878571	21.2096347809
0.0	-0.0	98.764541626	49.2291603088	16.6529788971	22.0346012115
0.0	-0.0	97.4435577393	46.0518836975	13.2594213486	22.6223640442
0.0	-0.0	84.680015564	45.4756240845	9.34114170074	22.2488212585
0.0	-0.0	68.4526748657	46.6625404358	5.99705219269	21.5951004028
0.0	-0.0	67.8102035522	48.4459762573	4.825984478	20.8177757263
0.0	-0.0	66.0936660767	51.4184875488	5.09423971176	19.5372943878
0.0	-0.0	58.6571769714	56.0818748474	4.02285051346	16.9874610901
0.0	-0.0	55.7058525085	59.8742256165	1.96281683445	14.3723707199
0.0	-0.0	54.2377510071	59.1497344971	1.46402537823	14.1271696091
0.0	-0.0	51.5406608582	55.9865264893	1.87542963028	14.5300712585
0.0	-0.0	41.4248962402	54.3195343018	2.54883933067	14.3670940399
0.0	-0.0	39.5764274597	53.5482902527	3.44555878639	14.5013666153
0.0	-0.0	38.4106674194	52.525642395	4.23660230637	15.1504125595
0.0	-0.0	39.2857627869	51.7026939392	4.92418003082	16.0998592377
0.0	-0.0	42.4502410889	51.1233253479	5.57081127167	17.593957901
0.0	-0.0	54.5813064575	48.3298606873	6.3924407959	21.187297821
0.0	-0.0	64.5374832153	38.9408721924	7.39370965958	31.3115653992
0.0	-0.0	74.7993927002	28.2721939087	9.52487182617	42.0515823364
0.0	-0.0	49.1728515625	23.4782409668	12.0209712982	48.2060890198
0.0	-0.0	52.5480766296	23.428358078	12.6081066132	50.0247077942
0.0	-0.0	51.8875198364	21.5365314484	9.57705307007	52.6194381714
0.0	-0.0	43.3590240479	21.3399562836	6.91385030746	52.2127838135
0.0	-0.0	23.5554561615	27.1995544434	8.27508544922	48.7808609009
0.0	-0.0	16.7788906097	36.4767036438	9.43068695068	45.2252845764
0.0	-0.0	13.4905815125	43.1515655518	10.3102397919	44.2989311218
0.0	-0.0	14.6888122559	46.3263244629	10.6679697037	44.5562171936
0.0	-0.0	12.4799785614	45.6495704651	10.1258811951	45.069694519
0.0	-0.0	10.2917661667	44.6175346375	7.8756980896	45.5821495056
0.0	-0.0	6.6780796051	44.9345817566	5.37991428375	45.202293396
0.0	-0.0	4.11585569382	48.0323867798	2.02694940567	43.1873855591
0.0	-0.0	4.45372104645	52.3488349915	-0.516471862793	40.6519241333
0.0	-0.0	4.77047777176	52.8758163452	-2.21003031731	40.4304046631
0.0	-0.0	5.16108226776	51.8099403381	-2.79096102715	41.104850769
0.0	-0.0	5.78773164749	52.0316505432	-2.75649261475	41.3805923462
0.0	-0.0	2.93103766441	53.3593063354	-3.45256781578	40.1804351807
0.0	0.0	-3.15538048744	55.8362884521	-2.55055522919	38.8484268188
0.0	0.0	-6.6604681015	58.0532341003	-1.08285677433	37.6137428284
0.0	0.0	-5.16549634933	57.478099823	0.20020262897	38.3553352356
0.0	0.0	-6.17607736588	56.6494407654	0.328148573637	39.1280899048
0.0	0.0	-10.4418449402	56.2762718201	-0.615321099758	39.0211524963
0.0	0.0	-15.241104126	56.0170898438	-1.2528014183	38.9864120483
0.0	0.0	-26.7965373993	55.5378570557	2.02448439598	38.9583435059
0.0	0.0	-40.9487686157	56.0161323547	10.1919183731	39.8737335205
0.0	0.0	-51.397808075	55.026638031	17.1284694672	40.6574325562
0.0	0.0	-46.4034156799	54.0634422302	19.3979282379	41.3395576477
0.0	0.0	-31.9368515015	53.1323852539	19.4250526428	41.3268661499
0.0	0.0	-15.3359146118	51.5061607361	19.4053878784	41.6223449707
0.0	-0.0	78.1007919312	49.3204879761	19.3831577301	42.7088699341
0.0	-0.0	161.824783325	46.0077323914	19.0303516388	44.2182769775
0.0	-0.0	-170.843521118	44.9509162903	18.1489753723	45.4953155518
0.0	-0.0	-165.203552246	44.7649230957	17.2460098267	46.0243339539
0.0	-0.0	-167.60446167	44.4398498535	17.4581108093	45.8617744446
0.0	-0.0	-173.148590088	42.0003623962	17.6402359009	46.3862342834
0.0	-0.0	167.845809937	34.436466217	16.3124256134	47.7540512085
0.0	-0.0	153.653167725	22.9290122986	14.3832559586	50.2314910889
0.0	-0.0	112.194122314	14.3421163559	13.1630353928	52.2849731445
0.0	-0.0	61.6196670532	13.4630918503	13.8633794785	51.8162345886
0.0	-0.0	48.6822547913	19.0438098907	16.0989246368	48.6211090088
0.0	-0.0	45.3145179749	28.2221240997	18.3042068481	45.0178489685
0.0	-0.0	46.0054969788	37.5098419189	20.0507850647	41.4414825439
0.0	-0.0	42.6276855469	45.3075675964	19.8502941132	37.9167175293
0.0	-0.0	37.4051628113	48.5320854187	17.9339103699	36.6306610107
0.0	-0.0	29.0241451263	47.481174469	16.742805481	36.8617095947
0.0	-0.0	23.8287506104	47.1969108582	16.1535129547	36.9695167542
0.0	-0.0	24.2036266327	46.8990592957	16.0228843689	36.835521698
0.0	-0.0	23.1428012848	46.3313674927	16.072467804	36.6154136658
0.0	-0.0	22.728937149	45.8100318909	16.4487075806	36.5766792297
0.0	-0.0	18.1729297638	45.4822235107	16.7480564117	36.5121917725
0.0	-0.0	13.8270606995	45.6022796631	16.8464984894	36.3208885193
0.0	-0.0	14.0116930008	45.5591621399	17.0030384064	36.3011283875
0.0	-0.0	16.8662490845	44.4004173279	17.522228241	36.3368721008
0.0	-0.0	18.9789581299	41.1133880615	17.9996604919	37.2711639404
0.0	-0.0	20.1565437317	36.8178253174	16.3060970306	38.1600532532
0.0	-0.0	19.8071365356	34.1126480103	14.8344907761	38.4512710571
0.0	-0.0	21.3712844849	30.4505901337	13.8678073883	38.858543396
0.0	-0.0	21.8686294556	26.4489746094	13.2419939041	39.8110923767
0.0	-0.0	21.4766807556	24.5113754272	11.9929733276	40.1340332031
0.0	-0.0	18.7951774597	24.6449069977	10.2205562592	39.4994316101
0.0	-0.0	15.5022287369	25.4242362976	8.91224193573	38.6532173157
0.0	-0.0	14.0753793716	26.9571304321	8.08592700958	37.9519996643
0.0	-0.0	15.4810066223	29.6826114655	8.44830799103	36.6565170288
0.0	-0.0	19.2273654938	32.9728164673	8.90691375732	35.2726745605
0.0	-0.0	22.4694957733	35.0030860901	9.72545337677	34.6028556824
0.0	-0.0	27.7448120117	35.3924331665	10.2336511612	34.4661979675
0.0	-0.0	30.7488594055	35.9592056274	9.90974330902	34.3412055969
0.0	-0.0	40.992389679	37.5483589172	9.51285552979	33.535774231
0.0	-0.0	64.76902771	39.186050415	9.93247795105	32.5169525146
0.0	-0.0	83.3542785645	40.7491455078	11.3514814377	31.995098114
0.0	-0.0	94.5886306763	42.5685691833	13.0645313263	31.7529144287
0.0	-0.0	118.910522461	43.5205116272	14.1985826492	31.4195384979
0.0	-0.0	138.743331909	44.027545929	15.6904735565	31.3841228485
0.0	-0.0	141.865097046	43.9176139832	16.6539268494	31.7694263458
0.0	-0.0	140.360626221	44.1030464172	16.8236598969	31.6634635925
0.0	-0.0	148.160095215	44.3663825989	16.2708625793	31.6927146912
0.0	-0.0	156.532150269	44.6698989868	16.7779159546	31.5076961517
0.0	-0.0	155.767364502	45.3514900208	18.2616062164	31.5126399994
0.0	-0.0	125.646385193	45.9980201721	19.7588691711	31.4589710236
0.0	-0.0	46.842124939	46.5605735779	21.3279724121	31.2884178162
0.0	-0.0	15.8018159866	46.7528266907	22.1879615784	30.8433132172
0.0	-0.0	9.84466648102	45.9692726135	22.9083843231	31.2726764679
0.0	-0.0	8.99410820007	45.5188522339	24.1218280792	31.3035316467
0.0	-0.0	10.1519756317	45.1780815125	23.8755168915	31.285238266
0.0	-0.0	16.8137321472	43.0263977051	20.1754779816	31.3262290955
0.0	-0.0	27.4184894562	39.0754585266	14.2770433426	31.5006389618
0.0	-0.0	69.3693389893	37.0552482605	8.88253211975	31.8640441895
0.0	-0.0	78.0178833008	37.324092865	2.98691368103	31.0143089294
0.0	-0.0	58.1015586853	38.1171569824	-2.88707113266	29.9631881714
0.0	-0.0	15.1249647141	39.3802909851	-6.97831058502	28.7767124176
0.0	-0.0	3.20459032059	40.9201660156	-8.23822402954	27.625377655
0.0	-0.0	0.189846619964	43.9962387085	-6.69088125229	25.6236763
0.0	-0.0	5.50929689407	48.9105529785	-3.12590098381	23.112493515
0.0	-0.0	6.6555981636	54.4708404541	3.12333250046	21.0283432007
0.0	-0.0	9.48756027222	56.1791687012	7.56943178177	20.9820594788
0.0	-0.0	11.3762140274	54.4109268188	8.89060020447	22.043510437
0.0	-0.0	18.4801616669	52.8331832886	9.11974620819	23.2641162872
0.0	-0.0	34.2234039307	51.4145317078	8.87341785431	23.9500656128
0.0	-0.0	40.0490036011	50.4073410034	8.74596500397	24.5955371857
0.0	-0.0	42.2628135681	49.877658844	8.95454978943	24.9687900543
0.0	-0.0	37.5437507629	50.1358222961	8.22979259491	24.8451271057
0.0	-0.0	38.2312278748	50.1501693726	5.9093003273	24.9194583893
0.0	-0.0	43.9226074219	48.8649215698	3.19077944756	25.3775196075
0.0	-0.0	67.1884918213	46.3857803345	1.47417020798	26.5136814117
0.0	-0.0	60.818977356	44.2043151855	0.603132247925	27.6156387329
0.0	-0.0	51.9966812134	42.7491874695	0.504902303219	28.3588180542
0.0	-0.0	43.8868560791	42.2254333496	1.00544917583	28.7712345123
0.0	-0.0	52.5235061646	42.3726768494	2.501101017	28.9855461121
0.0	-0.0	81.2133636475	42.7127532959	4.10824584961	29.2309703827
0.0	-0.0	113.893531799	42.5998001099	5.36162567139	29.7560806274
0.0	-0.0	105.787658691	42.7230186462	6.42474222183	29.8453655243
0.0	-0.0	70.5814743042	42.7651023865	7.41632032394	30.1247215271
0.0	-0.0	42.5915756226	42.4039382935	7.71978378296	30.4212284088
0.0	-0.0	30.7403182983	42.1664619446	8.39273071289	30.7588062286
0.0	-0.0	25.9047813416	42.0419006348	9.14832210541	31.0546913147
0.0	-0.0	22.6350460052	41.6941795349	8.58804225922	31.2779407501
0.0	-0.0	21.6281967163	41.3161048889	6.32420969009	31.1084423065
0.0	-0.0	16.4588127136	40.366268158	3.64408540726	31.4168357849
0.0	-0.0	13.8207521439	39.4568214417	2.24402666092	31.8137741089
0.0	-0.0	14.644701004	38.8612785339	1.91620969772	31.9514350891
0.0	-0.0	17.780128479	38.6324386597	2.12512803078	32.1869277954
0.0	-0.0	20.2371616364	39.2867012024	2.12246227264	31.8973121643
0.0	-0.0	23.9728889465	39.5949211121	2.07913398743	31.9984836578
0.0	-0.0	37.4297790527	40.2885665894	1.81170368195	31.7497730255
0.0	-0.0	54.7527770996	45.1329803467	1.70313751698	29.7436389923
0.0	-0.0	60.7613220215	52.1110229492	1.58000612259	26.5437755585
0.0	-0.0	85.4591369629	52.0131759644	1.44153213501	25.7879943848
0.0	-0.0	85.9277572632	50.6237487793	1.29367482662	26.3331356049
0.0	-0.0	62.1826477051	51.3452148438	2.12327337265	25.9988670349
0.0	-0.0	27.0887870789	51.8472061157	2.9866104126	25.6739711761
0.0	-0.0	7.16023540497	51.2173156738	3.34828424454	25.5811767578
0.0	-0.0	4.66410160065	50.577091217	3.60352182388	25.9454479218
0.0	-0.0	2.42349171638	49.9884300232	4.07446432114	26.2668094635
0.0	-0.0	5.10570001602	50.0884513855	5.00762033463	26.6538124084
0.0	-0.0	4.51367664337	51.0415534973	6.77587556839	26.6421356201
0.0	0.0	-1.50187849998	50.5349693298	9.40011405945	28.9233379364
0.0	0.0	-2.61820554733	43.8039131165	12.2273263931	35.3789901733
0.0	0.0	-0.961249947548	37.2629814148	14.1647663116	39.8134918213
0.0	0.0	-4.99030351639	37.1171073914	13.5141115189	40.2065925598
0.0	0.0	-1.78615498543	38.5833892822	12.8660593033	39.0899391174
0.0	0.0	-0.602217495441	39.333946228	13.3051538467	38.5837860107
0.0	0.0	-3.32488226891	40.344455719	14.4417629242	38.0924606323
0.0	-0.0	6.72078990936	42.1121101379	14.344201088	37.2197685242
0.0	0.0	-3.46137595177	43.0472831726	14.2389917374	36.7170906067
0.0	0.0	-31.470741272	44.0014801025	14.0793409348	35.9742164612
0.0	0.0	-55.9905815125	44.242603302	13.799697876	35.1375083923
0.0	0.0	-66.0084075928	43.7995300293	14.3281784058	34.7952766418
0.0	0.0	-64.4180374146	42.9855957031	15.3950281143	34.688243866
0.0	0.0	-58.9582328796	40.418548584	17.116481781	36.3798522949
0.0	0.0	-53.4565353394	34.0227851868	20.6450328827	41.7435798645
0.0	0.0	-51.1476287842	23.6173477173	26.9625797272	51.4537200928
0.0	0.0	-50.6994056702	15.3082675934	33.786655426	59.7288513184
0.0	0.0	-49.4339790344	13.8830986023	34.6537399292	62.003578186
0.0	0.0	-48.3508071899	15.1204357147	31.5883979797	61.7331771851
0.0	0.0	-49.7685279846	16.844871521	28.6415958405	61.2587928772
0.0	0.0	-51.428981781	18.0706672668	26.5688381195	60.5263137817
0.0	0.0	-54.6380729675	18.9239215851	24.1516475677	60.6670265198
