0.0949521064758	1.36390173435	0.0851980447769	0.0301458835602	1.64610612392	-0.150406002998
0.0948510169983	1.36425602436	0.0862916707993	0.030172586441	1.6458517313	-0.149115085602
0.0940229892731	1.36463963985	0.0870583057404	0.0297751426697	1.64564800262	-0.148019313812
0.0927863121033	1.36473417282	0.087796330452	0.0280117988586	1.64611196518	-0.14747440815
0.0905601978302	1.36514151096	0.0879428386688	0.0238842964172	1.64596533775	-0.147125124931
0.0875911712646	1.36580967903	0.0873816013336	0.0202054977417	1.6434648037	-0.1466319561
0.0839338302612	1.36856174469	0.0849757194519	0.0168044567108	1.64202904701	-0.146661281586
0.0761024951935	1.37094736099	0.0808231830597	0.0101339817047	1.64000666142	-0.14609336853
0.064216375351	1.37147676945	0.0754926204681	0.00265550613403	1.6375221014	-0.145357012749
0.0545525550842	1.37214159966	0.0689284801483	-0.000858783721924	1.63608109951	-0.145829677582
0.0474529266357	1.373005867	0.0654888153076	-0.00074577331543	1.63574230671	-0.14747273922
0.0423402786255	1.37357831001	0.063960313797	-8.39233398438e-05	1.6349542141	-0.149286866188
0.0403180122375	1.37531888485	0.0596919059753	0.00068736076355	1.63361740112	-0.151148557663
0.0383338928223	1.3790525198	0.0519366264343	0.00218558311462	1.6330395937	-0.152971744537
0.0374932289124	1.38309049606	0.0439600944519	0.00350713729858	1.63289308548	-0.155398368835
0.0351979732513	1.38386714458	0.0395027399063	0.00379395484924	1.6324788332	-0.158331036568
0.0381050109863	1.38347184658	0.0388376712799	0.00264596939087	1.63246631622	-0.161664485931
0.0433919429779	1.38071119785	0.0445255041122	0.00025749206543	1.63210093975	-0.165041327477
0.0486240386963	1.37615656853	0.0522309541702	-0.00184392929077	1.63125109673	-0.168084144592
0.0568449497223	1.371722579	0.058182477951	-0.00193047523499	1.6301535368	-0.170408010483
0.0602211952209	1.36994683743	0.0611009597778	0.000480651855469	1.62904274464	-0.170946359634
0.0629148483276	1.36675333977	0.0667080879211	0.00328373908997	1.6272367239	-0.170249938965
0.0642104148865	1.36369562149	0.0723776817322	0.00484704971313	1.62531197071	-0.168406367302
