0.133014440536	1.47229266167	0.0579526424408	0.0784611701965	1.65016520023	-0.11205971241
0.133464336395	1.47287023067	0.0570524930954	0.07843542099	1.65045714378	-0.113305568695
0.133340835571	1.47344493866	0.0562940835953	0.0782322883606	1.65068972111	-0.114665269852
0.133137702942	1.47321796417	0.0555610656738	0.0779910087585	1.65103197098	-0.116110444069
0.132358074188	1.47238230705	0.0560981035233	0.0759179592133	1.65207266808	-0.117285013199
0.135304927826	1.4719877243	0.0591254234314	0.0703339576721	1.65380978584	-0.118327140808
0.13684129715	1.47164261341	0.0623117685318	0.0611345767975	1.65442490578	-0.11942589283
0.134145498276	1.47178530693	0.0607295036316	0.0516822338104	1.6543366909	-0.121257066727
0.132807254791	1.47172904015	0.0645098686218	0.0452475547791	1.65403723717	-0.123990774155
0.12949180603	1.47023129463	0.068510890007	0.0427551269531	1.65417277813	-0.127428531647
0.128264665604	1.46599519253	0.0724821090698	0.0438404083252	1.65429103374	-0.130565881729
0.131442785263	1.46413493156	0.0729471445084	0.0476243495941	1.65467345715	-0.133471012115
0.137723922729	1.46597647667	0.0699750185013	0.0533108711243	1.65567564964	-0.136441707611
0.142132520676	1.46753036976	0.0672883987427	0.0602395534515	1.65808463097	-0.140600919724
0.149006605148	1.46684622765	0.0674464702606	0.066216468811	1.66059601307	-0.144896745682
0.153753042221	1.46539485455	0.0674256086349	0.0679552555084	1.66028118134	-0.147590994835
0.159211874008	1.46488857269	0.0660207271576	0.0655720233917	1.6591578722	-0.147854924202
0.164024353027	1.46530008316	0.0638060569763	0.061995267868	1.65762245655	-0.146803855896
0.166192770004	1.46555507183	0.0614646673203	0.0573971271515	1.65614032745	-0.144767999649
0.16383266449	1.46623325348	0.0588445663452	0.0528702735901	1.65600919724	-0.142606258392
0.162580013275	1.4655277729	0.0573341846466	0.0511424541473	1.65667068958	-0.141448259354
0.163319826126	1.46424996853	0.0587290525436	0.0511879920959	1.65699613094	-0.141175985336
0.167269229889	1.46361839771	0.05896961689	0.0505459308624	1.65752446651	-0.141189098358
0.174567222595	1.46308815479	0.0578873157501	0.0488641262054	1.65766727924	-0.141341924667
