-61.6583747864	-83.9558105469	137.721969604	24.4638233185	1.25300085545	15.7066478729
-62.6549339294	-83.8998260498	138.718963623	24.3116092682	1.20629763603	15.745680809
-63.2484016418	-83.7337646484	139.314590454	23.7113571167	1.11587893963	15.7271299362
-63.0284614563	-83.6586456299	138.461776733	21.7557544708	0.128844827414	15.5566978455
-60.4751586914	-83.9153366089	134.891677856	18.4834365845	-1.88533806801	15.4733438492
-58.3900985718	-83.9653930664	131.647796631	14.8799657822	-4.66119098663	16.1234493256
-44.4979515076	-84.3840866089	114.480049133	10.7843027115	-8.10068511963	17.2135753632
-18.8545303345	-84.2879104614	82.5376586914	6.72058820724	-11.911980629	19.4907474518
15.8371629715	-77.6172027588	34.0884094238	4.32668781281	-15.0470695496	22.7529468536
20.6503505707	-66.8394241333	11.376994133	5.13332128525	-16.6907329559	25.8197498322
16.8678512573	-60.3969306946	1.48178958893	6.6165599823	-18.687084198	27.759475708
8.73629283905	-51.5400047302	-11.2814655304	6.86406230927	-20.9138870239	29.4336280823
-5.67640686035	-45.6696662903	-25.5057983398	6.02761220932	-23.0761966705	30.1727294922
-13.0600776672	-43.3054428101	-42.9659309387	3.31874322891	-24.6292152405	29.3497409821
-12.3902416229	-46.2975769043	-59.8123931885	2.62965464592	-24.7829990387	27.2022037506
-9.86422920227	-50.5950241089	-73.7991867065	6.12836647034	-23.4169902802	24.7841892242
-3.85043334961	-55.0564804077	-87.1341781616	8.44056034088	-22.715265274	24.0118122101
-3.72211146355	-58.8546981812	-88.4369812012	7.89867353439	-22.4454746246	24.142326355
-3.4792265892	-60.5307846069	-89.3915328979	6.98287916183	-22.8875980377	24.9342346191
-0.941662788391	-60.1110534668	-92.9455718994	6.10737895966	-24.0131454468	26.4928607941
2.42112541199	-59.9284858704	-98.6298141479	6.24283266068	-25.551864624	27.8429946899
4.44788742065	-60.6294555664	-101.838775635	7.95360517502	-26.7803382874	27.2628440857
3.07849264145	-60.7742500305	-99.4847106934	9.20532131195	-27.6693019867	26.859003067
2.16284108162	-61.0004386902	-98.1670074463	9.14121627808	-28.9075050354	27.2226848602
1.70044755936	-61.438911438	-97.0114822388	8.70287322998	-30.2909107208	27.4599628448
1.73901307583	-61.1386032104	-96.7459945679	8.70859622955	-31.4045333862	27.298242569
1.92223954201	-60.7688827515	-96.6635513306	9.27582263947	-31.9667453766	26.5833320618
1.98035562038	-61.3053665161	-96.0917434692	10.0199346542	-32.0830993652	25.7725601196
1.55554783344	-61.9266395569	-94.7066192627	11.0910329819	-31.9223823547	24.7947769165
1.95663928986	-62.4490242004	-94.2630996704	12.4692811966	-31.8444213867	23.7501239777
