0.0228595733643	1.40255558491	0.13573384285	-0.0325248241425	1.64657640457	-0.0979125499725
0.02263879776	1.40221500397	0.136032938957	-0.0327014923096	1.64674532413	-0.0971167087555
0.0226345062256	1.40197658539	0.136608481407	-0.0327577590942	1.6464676857	-0.0960249900818
0.022846698761	1.40141069889	0.13695371151	-0.0328209400177	1.64640974998	-0.0952146053314
0.0233554840088	1.40118789673	0.137727737427	-0.0327296257019	1.64628183842	-0.0942561626434
0.0237743854523	1.40077102184	0.138530015945	-0.0326244831085	1.64616942406	-0.0928612947464
0.0240199565887	1.4004663229	0.1391248703	-0.0325212478638	1.64616239071	-0.0917627811432
0.0243308544159	1.40011465549	0.139931440353	-0.0324718952179	1.64593076706	-0.0906589031219
0.0245220661163	1.39985191822	0.140710353851	-0.0324437618256	1.64567780495	-0.0894429683685
0.0245068073273	1.39941203594	0.141387820244	-0.0324673652649	1.64562022686	-0.0881884098053
0.0242147445679	1.39933466911	0.141678452492	-0.0325779914856	1.64556360245	-0.0871866941452
0.0239546298981	1.39976966381	0.141294956207	-0.0323352813721	1.64609932899	-0.0863275527954
0.0239429473877	1.40020465851	0.141339659691	-0.0318698883057	1.64854133129	-0.0860469341278
0.0244076251984	1.40043568611	0.142109394073	-0.03173828125	1.65215992928	-0.0868544578552
0.0247421264648	1.40103709698	0.143493890762	-0.0318632125854	1.65554976463	-0.0878610610962
0.0244915485382	1.40127694607	0.144720196724	-0.0320343971252	1.65800368786	-0.0891299247742
0.0243935585022	1.40161812305	0.145501613617	-0.0321810245514	1.65911448002	-0.0897685289383
0.0240440368652	1.4021396637	0.145927667618	-0.0322203636169	1.66162860394	-0.090409040451
0.0238654613495	1.40190422535	0.147034168243	-0.032621383667	1.66579437256	-0.0915718078613
0.0232920646667	1.4014775753	0.148103475571	-0.0329070091248	1.66860544682	-0.0932302474976
0.0229711532593	1.40165805817	0.149272203445	-0.0326676368713	1.66847801208	-0.094041466713
0.021710395813	1.40219855309	0.150188922882	-0.0322630405426	1.66743218899	-0.0940319299698
0.0195360183716	1.40174102783	0.151145100594	-0.0319018363953	1.6672437191	-0.0941742658615
0.0187315940857	1.40087878704	0.151921629906	-0.0316917896271	1.66731977463	-0.0944223403931
0.0169086456299	1.39925277233	0.152754664421	-0.0316958427429	1.66706323624	-0.0947090387344
0.0153679847717	1.39824390411	0.152701854706	-0.0318102836609	1.66666090488	-0.0954654216766
0.0126390457153	1.39624488354	0.154082298279	-0.0320267677307	1.66648983955	-0.096524477005
0.00980257987976	1.39363515377	0.155126214027	-0.032395362854	1.66671276093	-0.0977621078491
0.00556015968323	1.38993322849	0.156980156898	-0.0328900814056	1.6672693491	-0.0990592241287
0.00203537940979	1.38582801819	0.157836318016	-0.03355717659	1.66841638088	-0.100981712341
-0.00206136703491	1.38067245483	0.159152746201	-0.0344586372375	1.67007958889	-0.103407382965
-0.00634551048279	1.37565612793	0.160053730011	-0.0354759693146	1.67184901237	-0.106131911278
-0.0103809833527	1.37162697315	0.160949587822	-0.0364007949829	1.6731364727	-0.108585596085
-0.0128059387207	1.36868011951	0.162157058716	-0.0367858409882	1.67310130596	-0.110012292862
-0.0156481266022	1.36665201187	0.161863684654	-0.0363914966583	1.67222571373	-0.110287189484
-0.0196919441223	1.36305749416	0.1609852314	-0.0355911254883	1.67134916782	-0.110373735428
-0.0227379798889	1.36054897308	0.159774780273	-0.0357224941254	1.67137348652	-0.110426664352
-0.0264523029327	1.3533821106	0.158036231995	-0.0366368293762	1.67173111439	-0.111011147499
-0.0294649600983	1.34826469421	0.155833721161	-0.0378799438477	1.6723304987	-0.112048625946
-0.0336098670959	1.34305429459	0.152215600014	-0.0388238430023	1.67286396027	-0.113194227219
-0.0369181632996	1.33814394474	0.152254462242	-0.0396349430084	1.67319583893	-0.114306926727
-0.0377972126007	1.33431386948	0.154812932014	-0.040271282196	1.67315602303	-0.114792227745
-0.0362143516541	1.33436131477	0.157181620598	-0.0407378673553	1.67308604717	-0.115178346634
-0.0349614620209	1.34229278564	0.156192660332	-0.0408375263214	1.67293429375	-0.115513324738
-0.03413438797	1.34601759911	0.155700683594	-0.0403141975403	1.67283320427	-0.115431070328
-0.0328266620636	1.34938335419	0.155320882797	-0.0400404930115	1.67261219025	-0.11555147171
-0.0321354866028	1.35318315029	0.154257655144	-0.0402805805206	1.67237222195	-0.115844488144
-0.0303349494934	1.36049902439	0.152452349663	-0.0411703586578	1.67228293419	-0.116086244583
-0.0297284126282	1.36549818516	0.151368737221	-0.0424103736877	1.67193448544	-0.116103768349
-0.027759552002	1.37219488621	0.150241374969	-0.0436859130859	1.67187964916	-0.115956068039
-0.0245156288147	1.3797506094	0.148910999298	-0.0447807312012	1.67201578617	-0.11602473259
-0.0202765464783	1.38595831394	0.147098064423	-0.0451090335846	1.67222058773	-0.115909576416
-0.0157680511475	1.39081215858	0.146020412445	-0.0448529720306	1.67230987549	-0.115430235863
-0.0147788524628	1.3900822401	0.148159742355	-0.0440680980682	1.67219293118	-0.115014076233
-0.0158772468567	1.38677155972	0.148737192154	-0.0432868003845	1.67206203938	-0.114627122879
-0.0160121917725	1.38534486294	0.149672627449	-0.0429227352142	1.67177379131	-0.114090681076
-0.0177850723267	1.38213145733	0.149751901627	-0.0425202846527	1.67160058022	-0.113546133041
-0.0209360122681	1.37833452225	0.14920258522	-0.0423612594604	1.67130506039	-0.113205552101
-0.0255122184753	1.37334561348	0.1477612257	-0.0419938564301	1.67097198963	-0.112793445587
-0.0285522937775	1.36943972111	0.145128130913	-0.0418577194214	1.67068207264	-0.112758040428
-0.0306062698364	1.36607313156	0.143544077873	-0.0415904521942	1.67033314705	-0.1124792099
-0.0318267345428	1.36280179024	0.14070057869	-0.0414171218872	1.67010247707	-0.112196683884
-0.0326333045959	1.36223185062	0.135832190514	-0.0411677360535	1.6698038578	-0.111936330795
-0.0330505371094	1.36330795288	0.132522940636	-0.0407037734985	1.6698205471	-0.111700534821
-0.0322651863098	1.36664247513	0.131403207779	-0.0403394699097	1.66991019249	-0.11138343811
-0.0305058956146	1.37124848366	0.130106449127	-0.0402281284332	1.67001438141	-0.111701250076
-0.027854681015	1.37659907341	0.129338979721	-0.0402801036835	1.6701322794	-0.111937761307
-0.0262959003448	1.38001728058	0.129469633102	-0.039891242981	1.67010807991	-0.112031698227
-0.0310640335083	1.37391936779	0.1320489645	-0.0396919250488	1.67003858089	-0.112477898598
-0.0337057113647	1.36898708344	0.134148359299	-0.0396435260773	1.67002296448	-0.112734079361
-0.0318756103516	1.37067985535	0.137135505676	-0.0397384166718	1.670145154	-0.112923741341
-0.0289506912231	1.37468028069	0.141371965408	-0.0398678779602	1.66992294788	-0.112988233566
-0.0279533863068	1.37567484379	0.145026564598	-0.0401051044464	1.66971683502	-0.112905979156
-0.0286202430725	1.37497520447	0.146732211113	-0.0403723716736	1.66971755028	-0.11314535141
-0.0265591144562	1.37879920006	0.145094633102	-0.040851354599	1.66974699497	-0.113187551498
-0.0250720977783	1.38272821903	0.143548250198	-0.0409026145935	1.66975915432	-0.113122224808
-0.0256390571594	1.38118445873	0.149195551872	-0.0409111976624	1.66960704327	-0.112849354744
-0.0261204242706	1.37732338905	0.15259885788	-0.0410115718842	1.66963124275	-0.112703800201
-0.0268795490265	1.37214112282	0.156373977661	-0.0413720607758	1.66903686523	-0.112243413925
-0.0267510414124	1.36805593967	0.158767223358	-0.0420155525208	1.66736078262	-0.111209511757
-0.0261325836182	1.36481499672	0.161905288696	-0.043301820755	1.66448092461	-0.109445571899
-0.0251071453094	1.36374187469	0.16330742836	-0.0438623428345	1.66364169121	-0.107839584351
-0.0236208438873	1.36759138107	0.161090612411	-0.0439846515656	1.66537034512	-0.107530474663
-0.0262115001678	1.36889755726	0.159425377846	-0.0439367294312	1.66864860058	-0.108137726784
-0.0257570743561	1.37209439278	0.159051656723	-0.0442237854004	1.6730877161	-0.110008478165
-0.0223400592804	1.37575018406	0.160715341568	-0.04412150383	1.67538547516	-0.111886024475
-0.0205943584442	1.37916362286	0.159651279449	-0.0437009334564	1.67505836487	-0.112763047218
-0.0190806388855	1.38356637955	0.157755732536	-0.0423152446747	1.67514741421	-0.113613605499
-0.0168952941895	1.38630819321	0.157599806786	-0.0397779941559	1.67521321774	-0.11480820179
-0.0159974098206	1.38719081879	0.156297564507	-0.0381515026093	1.67537593842	-0.115863800049
-0.0126740932465	1.3898280859	0.155575752258	-0.0380990505219	1.6753385067	-0.1167948246
-0.0118274688721	1.38990855217	0.157002091408	-0.0379648208618	1.67499780655	-0.117796421051
-0.0143132209778	1.38606667519	0.159255504608	-0.0378596782684	1.67494285107	-0.119443655014
-0.0145256519318	1.38249266148	0.162493228912	-0.0380966663361	1.67486453056	-0.12099981308
-0.0165455341339	1.37602591515	0.165074467659	-0.0385813713074	1.67473876476	-0.122451305389
-0.0178024768829	1.37053644657	0.167147159576	-0.0391530990601	1.67461788654	-0.123705744743
-0.0168895721436	1.37281501293	0.165756225586	-0.0396082401276	1.67424058914	-0.124784946442
-0.0148260593414	1.38100969791	0.161452054977	-0.0398592948914	1.67368483543	-0.125588178635
-0.0128526687622	1.3865301609	0.160789608955	-0.0401005744934	1.67343401909	-0.126441597939
-0.00873684883118	1.39066922665	0.164155483246	-0.040723323822	1.67336523533	-0.127236604691
-0.00417041778564	1.39523124695	0.165339589119	-0.0413439273834	1.67324900627	-0.127537250519
-0.00069260597229	1.40021789074	0.162590265274	-0.0418953895569	1.67325842381	-0.127636432648
0.00137639045715	1.40464043617	0.157233476639	-0.0420203208923	1.67347896099	-0.127197027206
-0.00263619422913	1.40444862843	0.153471469879	-0.0418899059296	1.67323684692	-0.126676082611
-0.00927257537842	1.40361118317	0.147686600685	-0.0416135787964	1.67325854301	-0.126019716263
-0.0139212608337	1.40302598476	0.141641139984	-0.0412368774414	1.67330157757	-0.125579118729
-0.016473531723	1.40249717236	0.138939738274	-0.040952205658	1.67322552204	-0.124445438385
-0.0178074836731	1.4023911953	0.137070894241	-0.0408186912537	1.67296552658	-0.123162150383
-0.0189499855042	1.40181648731	0.138198971748	-0.0407166481018	1.67264282703	-0.121958374977
-0.0185642242432	1.40139091015	0.140459537506	-0.0404086112976	1.67237794399	-0.121176481247
-0.0168898105621	1.40274608135	0.140919685364	-0.0403032302856	1.67225897312	-0.120524525642
-0.0180191993713	1.40198361874	0.138041496277	-0.0404064655304	1.6722869873	-0.119866967201
-0.0200099945068	1.40069639683	0.135736465454	-0.0402846336365	1.67208468914	-0.119379043579
-0.0216343402863	1.40047466755	0.13183760643	-0.0401518344879	1.67210292816	-0.118851423264
-0.0221738815308	1.4010797739	0.127144813538	-0.040177822113	1.67194736004	-0.118260622025
-0.0217223167419	1.40247273445	0.124442815781	-0.0403277873993	1.67165529728	-0.117600440979
-0.0206382274628	1.40245449543	0.125029802322	-0.040580034256	1.67151331902	-0.117259263992
-0.0203988552094	1.40146934986	0.125277400017	-0.041154384613	1.67133522034	-0.117206096649
-0.0223388671875	1.39926826954	0.12330365181	-0.0416505336761	1.6712603569	-0.117047309875
-0.0228087902069	1.39866685867	0.117277145386	-0.041880607605	1.6710704565	-0.11730992794
-0.0238046646118	1.39775061607	0.110817670822	-0.0421061515808	1.67101716995	-0.117627620697
-0.0240535736084	1.39725255966	0.105601072311	-0.0422511100769	1.67088246346	-0.117911458015
-0.0251960754395	1.39529621601	0.100331068039	-0.0424156188965	1.67081928253	-0.118280410767
-0.0257353782654	1.39585328102	0.0986921787262	-0.0426547527313	1.67059195042	-0.118725538254
-0.0270965099335	1.39659059048	0.100482225418	-0.0429639816284	1.67028558254	-0.119219064713
-0.0346312522888	1.39544320107	0.109125971794	-0.0433230400085	1.67034339905	-0.119839191437
-0.0384488105774	1.3957875967	0.113736867905	-0.0435216426849	1.67045724392	-0.120802640915
-0.0401964187622	1.39716029167	0.11783516407	-0.0439920425415	1.67040836811	-0.121457338333
-0.0429131984711	1.39685726166	0.121380805969	-0.0444207191467	1.67046010494	-0.122201561928
-0.0443158149719	1.39736509323	0.126972317696	-0.04523396492	1.67053163052	-0.12272977829
-0.0436172485352	1.39903020859	0.132291913033	-0.0460031032562	1.67078900337	-0.123225808144
-0.0422964096069	1.39941728115	0.140854120255	-0.04660820961	1.67066121101	-0.123559713364
-0.0389659404755	1.39852690697	0.149372935295	-0.0471255779266	1.67070269585	-0.123796105385
-0.0338046550751	1.39549601078	0.159690260887	-0.0475587844849	1.67089188099	-0.124048471451
-0.0263643264771	1.39312005043	0.169760942459	-0.0479302406311	1.67111241817	-0.124026894569
-0.0208730697632	1.38976848125	0.178702950478	-0.0480935573578	1.67092716694	-0.123284220695
-0.0115535259247	1.38974308968	0.185909628868	-0.0480468273163	1.67067551613	-0.1225720644
-0.00371670722961	1.39137649536	0.190620660782	-0.0481307506561	1.67060410976	-0.121673226357
-0.000219345092773	1.39264833927	0.193034887314	-0.0481071472168	1.67041480541	-0.121073842049
-0.000690460205078	1.39300394058	0.19445168972	-0.0478105545044	1.67039573193	-0.120522737503
-0.00399541854858	1.39242100716	0.195495128632	-0.0474808216095	1.67044258118	-0.120160579681
-0.00459098815918	1.39357364178	0.195528507233	-0.0473258495331	1.67049849033	-0.119934558868
-0.00652432441711	1.39521610737	0.192795038223	-0.0469148159027	1.67052125931	-0.119589686394
-0.00482773780823	1.39736413956	0.189683437347	-0.0466661453247	1.67013514042	-0.119058966637
-0.00575518608093	1.40101253986	0.182858109474	-0.0463905334473	1.66993737221	-0.11851477623
-0.000507354736328	1.4063128233	0.17976140976	-0.04585313797	1.66949772835	-0.118129253387
-0.000186920166016	1.40479838848	0.180899381638	-0.0450663566589	1.6692712307	-0.117785930634
0.00755882263184	1.40627217293	0.17978644371	-0.0442411899567	1.66904878616	-0.117624998093
0.0142097473145	1.41028869152	0.177660346031	-0.0434322357178	1.66879892349	-0.117300748825
0.0163841247559	1.40791916847	0.17628121376	-0.0427014827728	1.66837465763	-0.117152690887
0.0175704956055	1.40706288815	0.178383231163	-0.0423452854156	1.66787695885	-0.117414355278
0.0133075714111	1.4028866291	0.17929148674	-0.0425686836243	1.66781151295	-0.117458581924
0.014883518219	1.40278637409	0.180718183517	-0.0430157184601	1.6678647995	-0.117580890656
0.0142061710358	1.40374743938	0.179699540138	-0.0435049533844	1.66789543629	-0.117819309235
0.0132687091827	1.40391385555	0.17892742157	-0.0438168048859	1.66789364815	-0.118047237396
0.0106453895569	1.40223681927	0.178994655609	-0.0440964698792	1.66789388657	-0.118069887161
0.00925493240356	1.39945423603	0.180115818977	-0.0446083545685	1.66793012619	-0.118436813354
0.00680017471313	1.39721083641	0.180405497551	-0.0450563430786	1.66800010204	-0.118861913681
0.00520992279053	1.39692831039	0.179282188416	-0.0453870296478	1.66819024086	-0.119147062302
0.0010929107666	1.39760422707	0.174700975418	-0.0457284450531	1.66810750961	-0.119803786278
-4.31537628174e-05	1.39884674549	0.172404170036	-0.0457322597504	1.668222785	-0.120163202286
0.000816822052002	1.39893162251	0.172762870789	-0.0454666614532	1.66830766201	-0.120710968971
0.000807285308838	1.3986171484	0.17189848423	-0.0452394485474	1.66824924946	-0.121206521988
7.89165496826e-05	1.39864575863	0.170240163803	-0.0450208187103	1.66840231419	-0.121739625931
-0.000389575958252	1.39861607552	0.169030189514	-0.0445847511292	1.66830611229	-0.122269153595
-0.00283980369568	1.39809477329	0.16677904129	-0.0443120002747	1.66845083237	-0.122581243515
-0.00641870498657	1.39788079262	0.163581848145	-0.0441749095917	1.66836643219	-0.123097419739
-0.0108368396759	1.3985145092	0.158381342888	-0.0439465045929	1.66842210293	-0.123715639114
-0.0146231651306	1.39862656593	0.153222680092	-0.0434927940369	1.66844677925	-0.124013900757
-0.0147218704224	1.40006530285	0.150996685028	-0.0432858467102	1.6684949398	-0.124479055405
-0.014963388443	1.40202772617	0.148613572121	-0.0430631637573	1.66866052151	-0.12507724762
-0.0164108276367	1.40084195137	0.148922085762	-0.0434646606445	1.6687785387	-0.125514268875
-0.0159864425659	1.40173256397	0.148460865021	-0.044234752655	1.66909170151	-0.12601017952
-0.015869140625	1.40367257595	0.147068738937	-0.0447549819946	1.66899383068	-0.12644302845
-0.0176420211792	1.40549385548	0.143601179123	-0.0455875396729	1.66929829121	-0.126928925514
-0.020007610321	1.40761852264	0.137331724167	-0.0465705394745	1.66974008083	-0.127519130707
-0.022575378418	1.4083712101	0.133142113686	-0.04745054245	1.66968035698	-0.127891659737
-0.0244812965393	1.40958917141	0.130383729935	-0.0481233596802	1.66967833042	-0.128199338913
-0.0268106460571	1.41081786156	0.124216556549	-0.0487387180328	1.66962742805	-0.1284263134
-0.0258088111877	1.41323459148	0.120968580246	-0.0490031242371	1.66966938972	-0.12841629982
-0.0229954719543	1.41590774059	0.119133710861	-0.0493686199188	1.66955828667	-0.128474354744
-0.0237421989441	1.4159938097	0.117701292038	-0.0495309829712	1.6696523428	-0.128158330917
-0.0239760875702	1.41561102867	0.118666887283	-0.0497839450836	1.66982424259	-0.128066301346
-0.0238881111145	1.41535794735	0.118876338005	-0.0506784915924	1.67003953457	-0.127802610397
-0.0252480506897	1.41522562504	0.117520570755	-0.0524785518646	1.67037141323	-0.12700009346
-0.0253188610077	1.41614854336	0.116912722588	-0.0565979480743	1.67095029354	-0.126304864883
-0.024861574173	1.41692090034	0.116906642914	-0.0594546794891	1.67189896107	-0.126196980476
-0.0234990119934	1.41768395901	0.115943908691	-0.0597534179688	1.6724268198	-0.126109361649
-0.0209405422211	1.41927444935	0.114048838615	-0.0601797103882	1.67232012749	-0.125483989716
-0.018262386322	1.42079734802	0.11348772049	-0.0617241859436	1.67146325111	-0.124316453934
-0.0135581493378	1.42287921906	0.114767670631	-0.0636925697327	1.67042469978	-0.123108506203
-0.00905823707581	1.42480230331	0.115799307823	-0.0653932094574	1.6695663929	-0.121688723564
-0.00934505462646	1.42459893227	0.116549015045	-0.0654792785645	1.66941213608	-0.120451688766
-0.0062415599823	1.4246275425	0.116918563843	-0.0648574829102	1.66927218437	-0.119398117065
-0.00167083740234	1.42496335506	0.11779654026	-0.0645871162415	1.66890621185	-0.118557095528
0.00228953361511	1.42516458035	0.118867874146	-0.064624786377	1.66835284233	-0.117821931839
0.00501298904419	1.42578935623	0.118601322174	-0.0655364990234	1.66871762276	-0.117856502533
0.00896215438843	1.42600297928	0.119784832001	-0.0678234100342	1.66944289207	-0.118302345276
0.012603521347	1.42512059212	0.122010231018	-0.0711364746094	1.66940963268	-0.119071245193
0.0169036388397	1.42475688457	0.124957561493	-0.0736532211304	1.66829097271	-0.119493484497
0.0199925899506	1.42542016506	0.126846313477	-0.0732524394989	1.66750597954	-0.1203520298
0.0224893093109	1.42671430111	0.127058029175	-0.0691664218903	1.66877198219	-0.122344255447
0.021692276001	1.42681789398	0.125678300858	-0.0659575462341	1.67156553268	-0.126138210297
0.0218658447266	1.42726767063	0.124694466591	-0.0661408901215	1.67293775082	-0.128502368927
0.0221014022827	1.4285351038	0.124159574509	-0.0645680427551	1.67331576347	-0.130534529686
0.0234341621399	1.43074178696	0.123140931129	-0.0592839717865	1.67297315598	-0.132658362389
0.0230052471161	1.43214452267	0.120846509933	-0.0581965446472	1.67208480835	-0.133017539978
0.0230357646942	1.43157505989	0.119518518448	-0.0613017082214	1.67097496986	-0.132254600525
0.023647069931	1.4293718338	0.12108206749	-0.0655090808868	1.66826021671	-0.130797386169
0.0239818096161	1.4280642271	0.122443318367	-0.0701780319214	1.66405153275	-0.128320455551
0.0242025852203	1.4277176857	0.1184694767	-0.0759263038635	1.66430389881	-0.128358364105
0.0225479602814	1.42592835426	0.113031148911	-0.0807528495789	1.66568887234	-0.130023360252
0.0234854221344	1.42624485493	0.109178185463	-0.0825664997101	1.66612005234	-0.131693482399
0.0244946479797	1.42872154713	0.104400515556	-0.0832047462463	1.66609978676	-0.133362531662
0.0240023136139	1.43151295185	0.100622415543	-0.0843737125397	1.66604530811	-0.134974122047
0.0221211910248	1.43369841576	0.103681087494	-0.0868067741394	1.66641819477	-0.136507034302
0.0174446105957	1.43515896797	0.110304474831	-0.088306427002	1.66678357124	-0.138262987137
0.0160748958588	1.43650531769	0.118024230003	-0.0883445739746	1.66714131832	-0.139579534531
0.0119230747223	1.43706977367	0.116965413094	-0.0869588851929	1.66736912727	-0.140212893486
0.00606203079224	1.43675327301	0.113442182541	-0.0840971469879	1.66765367985	-0.140332937241
-0.00245881080627	1.43715822697	0.108473420143	-0.0794687271118	1.66888868809	-0.140898108482
-0.0137312412262	1.43918597698	0.101108551025	-0.0739831924438	1.67191958427	-0.142687082291
-0.0190854072571	1.44213020802	0.0934727191925	-0.0700333118439	1.67368614674	-0.144595146179
-0.0176155567169	1.44384026527	0.0937563180923	-0.0655362606049	1.67471897602	-0.146464347839
-0.0197644233704	1.4414255619	0.0925363302231	-0.0601935386658	1.67724144459	-0.150120735168
-0.0201008319855	1.44031834602	0.0938361883163	-0.0590393543243	1.67948174477	-0.152710914612
-0.0214331150055	1.43953227997	0.0945414304733	-0.0610806941986	1.68040847778	-0.154560565948
-0.0205557346344	1.44079244137	0.0950534343719	-0.0638451576233	1.68166434765	-0.156539440155
-0.0192933082581	1.44234871864	0.0939487218857	-0.0655689239502	1.68367147446	-0.159569501877
-0.0205147266388	1.44281733036	0.0950214862823	-0.0639369487762	1.68285524845	-0.160257697105
-0.0234417915344	1.4431732893	0.0940304994583	-0.0592558383942	1.68097114563	-0.158782482147
-0.0261538028717	1.44313561916	0.0924236774445	-0.0533030033112	1.68076014519	-0.157131195068
-0.0281283855438	1.44200527668	0.0915567874908	-0.050390958786	1.68344521523	-0.155720591545
-0.0291392803192	1.43923819065	0.0915107727051	-0.0534994602203	1.68816149235	-0.155165195465
-0.0267555713654	1.43686056137	0.0939056873322	-0.0573983192444	1.69266092777	-0.156608581543
-0.0273430347443	1.43493795395	0.0962501764297	-0.060537815094	1.69242787361	-0.15655040741
-0.0339457988739	1.43167901039	0.0932737588882	-0.0635645389557	1.6876026392	-0.149864435196
-0.0399334430695	1.42865633965	0.0876183509827	-0.0653443336487	1.68066334724	-0.141041755676
-0.0434956550598	1.4269412756	0.0838825702667	-0.0670595169067	1.67507374287	-0.132534742355
-0.0464611053467	1.42455410957	0.0838658809662	-0.06884765625	1.67212080956	-0.125308990479
-0.0504593849182	1.41950666904	0.0877208709717	-0.0693912506104	1.67075920105	-0.119168281555
-0.0546448230743	1.41343426704	0.0894820690155	-0.0678672790527	1.6712924242	-0.114294528961
-0.0567524433136	1.41066980362	0.0928311347961	-0.0649673938751	1.67261576653	-0.110727548599
-0.0587720870972	1.40990650654	0.0990828275681	-0.0617170333862	1.67298603058	-0.108156442642
-0.0595331192017	1.41171860695	0.105672597885	-0.0586400032043	1.67252230644	-0.10656785965
-0.0551435947418	1.4176504612	0.10432612896	-0.0566012859344	1.67202329636	-0.105667948723
-0.0458061695099	1.42470002174	0.102039933205	-0.0559780597687	1.67180240154	-0.105524778366
-0.0385231971741	1.42732799053	0.0979657173157	-0.0562036037445	1.67235326767	-0.106669187546
-0.0338456630707	1.42673099041	0.0913654565811	-0.0561535358429	1.67300701141	-0.108662247658
-0.030749797821	1.42724406719	0.0893697738647	-0.0555300712585	1.67325115204	-0.111310601234
-0.0264925956726	1.42659902573	0.0847527980804	-0.0541770458221	1.6730401516	-0.115297555923
-0.0240895748138	1.42378270626	0.0818930864334	-0.0521519184113	1.67408120632	-0.120416164398
-0.0237693786621	1.42186677456	0.0827685594559	-0.0510103702545	1.67456293106	-0.125151991844
-0.0217957496643	1.42251706123	0.0813100337982	-0.0500240325928	1.67482948303	-0.129790067673
-0.020320892334	1.42427861691	0.0785307884216	-0.0487148761749	1.67510187626	-0.135503768921
-0.0179505348206	1.4261302948	0.0762543678284	-0.0476884841919	1.67586362362	-0.142930150032
-0.0167310237885	1.42779409885	0.0750608444214	-0.0470428466797	1.67677521706	-0.15264749527
-0.0144104957581	1.4313018322	0.0741813182831	-0.046603679657	1.67758536339	-0.163370370865
-0.01282787323	1.43583142757	0.0708789825439	-0.0459506511688	1.67691755295	-0.17349755764
-0.0132324695587	1.43964731693	0.0665557384491	-0.0436935424805	1.67435956001	-0.182679176331
-0.013641834259	1.44246447086	0.0628147125244	-0.0410957336426	1.67051267624	-0.191340923309
-0.0136857032776	1.44511675835	0.056861281395	-0.0391356945038	1.66644668579	-0.20062983036
-0.0126166343689	1.44828474522	0.0503611564636	-0.0385625362396	1.66307687759	-0.209744215012
-0.0122740268707	1.45133650303	0.0437471866608	-0.0391812324524	1.65858745575	-0.216527938843
-0.0127174854279	1.45240175724	0.038015127182	-0.0405929088593	1.65852355957	-0.221849799156
-0.0138120651245	1.45128798485	0.0362749099731	-0.0423002243042	1.66233706474	-0.227713704109
-0.0138642787933	1.45013701916	0.0389037132263	-0.0446283817291	1.66520524025	-0.231256723404
-0.014413356781	1.44952440262	0.0417592525482	-0.046448469162	1.66724562645	-0.233703494072
-0.01655626297	1.44831299782	0.0435619354248	-0.0483043193817	1.67074084282	-0.236483931541
-0.0180997848511	1.44723427296	0.0456103086472	-0.0497584342957	1.67357420921	-0.238485097885
-0.0185449123383	1.4459900856	0.0488319396973	-0.0506153106689	1.67399430275	-0.237770318985
-0.0192413330078	1.44489252567	0.0490216016769	-0.0496797561646	1.67142009735	-0.231890916824
-0.018949508667	1.44702804089	0.0462703704834	-0.0465290546417	1.66700971127	-0.224468827248
-0.0176270008087	1.45030009747	0.0424599647522	-0.0435719490051	1.66442632675	-0.219729661942
-0.017124414444	1.4499771595	0.0417828559875	-0.0423276424408	1.66481971741	-0.219042181969
-0.0158865451813	1.4478700161	0.0440173149109	-0.0421776771545	1.66534113884	-0.219019889832
-0.0145909786224	1.44614112377	0.0459604263306	-0.0421805381775	1.66525042057	-0.219806551933
-0.013640165329	1.44681918621	0.046481013298	-0.0420017242432	1.66476535797	-0.219908714294
-0.013204574585	1.44816946983	0.0457153320312	-0.0417466163635	1.66387057304	-0.21982216835
-0.0130808353424	1.44900512695	0.0460151433945	-0.0419614315033	1.66349601746	-0.219265222549
-0.0130124092102	1.44921433926	0.0475890636444	-0.0428419113159	1.66375088692	-0.219059944153
-0.0142142772675	1.44920647144	0.0487558841705	-0.0445351600647	1.66388905048	-0.219305276871
-0.015679359436	1.45040869713	0.0488793849945	-0.0463070869446	1.66390478611	-0.219649553299
-0.016889333725	1.45079135895	0.0488159656525	-0.0474629402161	1.66522502899	-0.221070766449
-0.0173945426941	1.45017802715	0.0495316982269	-0.048318862915	1.66669070721	-0.222729682922
-0.0171480178833	1.44856142998	0.050444483757	-0.0479984283447	1.66750144958	-0.224140167236
-0.0168797969818	1.44796359539	0.0507936477661	-0.0463874340057	1.66778564453	-0.224638581276
-0.0157492160797	1.4488556385	0.0503823757172	-0.0449619293213	1.66697645187	-0.22390639782
