-92.0701904297	-83.0037460327	136.62071228	12.4143562317	-5.06672620773	4.32274246216
-91.5761642456	-83.0057678223	135.783798218	12.365398407	-5.15889406204	4.53934574127
-90.5294799805	-83.1630020142	134.325714111	12.2607870102	-5.30810546875	4.73517751694
-88.9463577271	-83.2416992188	132.479858398	12.1579608917	-5.43297863007	4.85429239273
-86.7842712402	-83.1294631958	130.121765137	11.7972402573	-5.52127933502	5.08389091492
-86.0877380371	-83.1551361084	129.114685059	10.8630723953	-5.21902418137	5.51807546616
-84.8126831055	-83.0473709106	127.43825531	9.5810136795	-4.36657953262	5.79655504227
-83.0572128296	-83.0163726807	125.287246704	9.12207698822	-2.9243285656	6.23158502579
-80.7668991089	-82.8102493286	122.426361084	8.85376548767	-1.08733761311	7.11738204956
-77.9236373901	-82.553062439	119.055465698	8.18515300751	1.50409018993	8.12675762177
-73.0586929321	-82.3173217773	113.255737305	7.5268330574	4.39770364761	9.20241260529
-69.5083847046	-81.9211654663	109.273117065	7.24636125565	6.93265247345	10.3135242462
-65.1161956787	-81.6381607056	104.069000244	7.13121700287	10.032705307	11.0047483444
-62.5567779541	-81.3745346069	100.906822205	7.21224117279	14.1619625092	11.3077936172
-55.3766136169	-81.1254653931	91.9645385742	7.69398021698	16.2902908325	11.218793869
-22.6693077087	-78.8197784424	50.3242874146	8.3586063385	16.2317619324	11.0919246674
-15.1434440613	-75.2570800781	35.7676925659	8.85379695892	16.2152767181	11.1372556686
-13.7119598389	-74.0163192749	31.7282161713	9.23810863495	15.9972887039	11.1325235367
-11.9805383682	-72.6475219727	28.0395488739	9.4710855484	15.8581724167	11.2343254089
-8.79883575439	-69.6952209473	20.6438083649	9.38550758362	16.0180053711	11.3282203674
-6.05795574188	-66.1398162842	11.5714788437	9.17128944397	16.2473773956	11.4722499847
-5.17890453339	-62.3860473633	1.93851363659	8.68480300903	16.6637878418	11.5423078537
-5.0634393692	-59.2160797119	-7.66177511215	7.7974357605	17.237033844	11.5411682129
-5.68277025223	-57.1163253784	-15.6007165909	6.96048688889	17.6809482574	11.5512590408
-8.03415107727	-56.0273513794	-21.4890022278	6.84587097168	17.8210334778	11.5508184433
-10.7701272964	-55.0036811829	-26.0826969147	7.07404613495	17.8355484009	11.6027030945
-10.8492031097	-54.1178398132	-29.0058097839	7.03684329987	17.7681999207	11.6996955872
-11.7270488739	-53.420539856	-33.7707366943	6.56518602371	17.7121162415	11.9883871078
-14.5516815186	-52.8082199097	-37.4882240295	5.76045846939	17.6738910675	12.3382139206
-15.3227033615	-52.6294441223	-46.6582298279	4.71098947525	17.64686203	12.8154478073
-14.6772975922	-52.5613059998	-50.2886505127	3.68455648422	17.8004207611	13.4368534088
-14.9256658554	-53.4624862671	-54.7151107788	2.78573155403	17.790019989	14.5140342712
-15.3490848541	-53.328742981	-57.9034042358	2.87457871437	17.4446525574	15.5957746506
-15.5827312469	-52.3729896545	-58.9987678528	4.31719684601	17.0859184265	16.3727645874
-15.1182098389	-51.6654853821	-61.4073410034	5.25038957596	17.3514003754	16.4239330292
-14.0081357956	-50.1635246277	-65.2956542969	5.36581087112	17.9904575348	15.9788713455
