0.140285491943	1.43939650059	0.022748708725	-0.000899314880371	1.64397883415	-0.0771458148956
0.14041686058	1.43987298012	0.0228676795959	-0.00120759010315	1.64378941059	-0.0770616531372
0.140567779541	1.43959271908	0.0231884717941	-0.00145411491394	1.64362716675	-0.0772979259491
0.139237165451	1.43935656548	0.023662686348	-0.00167655944824	1.64369809628	-0.0772089958191
0.137727022171	1.43901848793	0.023694396019	-0.00257968902588	1.64359307289	-0.0764238834381
0.136734962463	1.43893992901	0.0241684913635	-0.00442314147949	1.64292001724	-0.0748343467712
0.136173725128	1.43906247616	0.0242351293564	-0.00684595108032	1.64198803902	-0.0730473995209
0.135732889175	1.4391657114	0.0246200561523	-0.00854301452637	1.64108920097	-0.0715777873993
0.134649276733	1.43921923637	0.0240287780762	-0.00985646247864	1.64021217823	-0.0703403949738
0.134016513824	1.43919336796	0.0240824222565	-0.0103242397308	1.6394957304	-0.0691583156586
0.133435726166	1.43879497051	0.0229932069778	-0.0108897686005	1.63884365559	-0.0682353973389
