-0.0262484550476	1.15943813324	0.19174182415	-0.00516295433044	1.63053715229	-0.0955290794373
-0.0264222621918	1.15863108635	0.19262111187	-0.00441527366638	1.63044285774	-0.0947115421295
-0.0271594524384	1.15778970718	0.193134903908	-0.00334548950195	1.63040173054	-0.0936422348022
-0.0267295837402	1.15772402287	0.194012641907	-0.00207924842834	1.63008010387	-0.0923726558685
-0.026239156723	1.15635943413	0.195466995239	-0.00191903114319	1.62908029556	-0.0900993347168
-0.0260009765625	1.15421724319	0.194903612137	-0.00528740882874	1.62553286552	-0.0871412754059
-0.0277259349823	1.15386092663	0.194349169731	-0.010556936264	1.62179899216	-0.0844912528992
-0.0311458110809	1.15436291695	0.193802475929	-0.0148777961731	1.61962890625	-0.0829296112061
-0.0347266197205	1.15496695042	0.193139910698	-0.0170788764954	1.61862754822	-0.0813542604446
-0.0379803180695	1.15541148186	0.193353414536	-0.0175130367279	1.61796879768	-0.0790901184082
-0.0406165122986	1.15380382538	0.193727016449	-0.0187304019928	1.61659812927	-0.0766016244888
-0.0422947406769	1.15344023705	0.194048285484	-0.0208628177643	1.61480629444	-0.0736031532288
-0.0434772968292	1.15180337429	0.194941997528	-0.0213305950165	1.61347281933	-0.0711333751678
-0.0437908172607	1.15019094944	0.196545958519	-0.0209765434265	1.61271166801	-0.0691299438477
-0.0426166057587	1.1493550539	0.198781251907	-0.0200519561768	1.61192834377	-0.0673565864563
-0.0406160354614	1.14865112305	0.201203584671	-0.0164639949799	1.61230123043	-0.0661588907242
-0.0398144721985	1.14748215675	0.201729297638	-0.0115828514099	1.6129784584	-0.0656579732895
-0.0392861366272	1.14783346653	0.20189666748	-0.00832295417786	1.61375796795	-0.0655090808868
-0.039440870285	1.14839065075	0.200652480125	-0.00710415840149	1.6147223711	-0.0658965110779
-0.0399661064148	1.14837729931	0.199854254723	-0.00779175758362	1.615275383	-0.0672278404236
-0.0405240058899	1.14862382412	0.198999166489	-0.00769257545471	1.61565244198	-0.0694303512573
-0.0407485961914	1.14844667912	0.198464632034	-0.00601434707642	1.61628365517	-0.0711731910706
-0.041464805603	1.14842569828	0.197494029999	-0.00210165977478	1.61703050137	-0.073147892952
-0.0430855751038	1.14949584007	0.196398258209	0.0044412612915	1.61746883392	-0.0747983455658
-0.0446472167969	1.15029680729	0.194699287415	0.0121302604675	1.61737203598	-0.0764644145966
-0.0454897880554	1.15000188351	0.193832397461	0.0206570625305	1.61635792255	-0.0779144763947
-0.0459270477295	1.15110254288	0.192752599716	0.0280435085297	1.6152857542	-0.0799670219421
-0.0461883544922	1.15095174313	0.191884756088	0.0345530509949	1.61386036873	-0.082169175148
