0.0	-0.0	145.301391602	-76.424697876	85.1339645386	-151.057022095
0.0	-0.0	146.285598755	-76.4788513184	85.6460800171	-151.108474731
0.0	-0.0	146.318069458	-76.6097640991	85.8140945435	-151.076889038
0.0	-0.0	146.002929688	-76.7450027466	86.1141891479	-151.018630981
0.0	-0.0	146.215774536	-77.000038147	86.0593185425	-151.066558838
0.0	-0.0	146.224777222	-76.7396392822	86.2186889648	-151.094726562
0.0	-0.0	146.483322144	-76.5475234985	86.5598754883	-151.1769104
0.0	-0.0	146.246353149	-75.8271865845	86.3847961426	-151.190856934
0.0	-0.0	145.551971436	-74.1132583618	86.5374832153	-151.452468872
0.0	-0.0	144.609420776	-66.6429443359	87.9068527222	-151.873672485
0.0	-0.0	144.209503174	-52.7693557739	89.837059021	-152.216049194
0.0	-0.0	141.299453735	139.963653564	88.644569397	27.1568775177
0.0	-0.0	134.276245117	149.023696899	86.4023132324	26.4808254242
0.0	-0.0	130.18572998	153.598953247	85.1534042358	26.1240501404
0.0	-0.0	126.827102661	155.451705933	85.199546814	25.7498703003
0.0	-0.0	105.688766479	157.642211914	84.9551315308	25.1069545746
0.0	-0.0	88.9508666992	159.014175415	84.3636398315	24.2389717102
0.0	-0.0	86.6893692017	158.123062134	84.5992660522	23.9178123474
0.0	-0.0	86.7291183472	154.900482178	85.7823181152	24.1077880859
0.0	-0.0	89.4489593506	150.436294556	86.6621017456	24.5322647095
0.0	-0.0	96.6407852173	145.598220825	87.135635376	24.849527359
0.0	-0.0	100.484436035	141.719909668	87.376159668	25.0249862671
0.0	-0.0	97.7901153564	141.859024048	87.2324447632	24.8313827515
0.0	-0.0	97.6670761108	145.257843018	87.3250350952	24.0837039948
0.0	-0.0	94.9603118896	147.829437256	87.7451553345	23.6059513092
0.0	-0.0	95.0714492798	148.688278198	88.0834350586	23.2547779083
0.0	-0.0	95.431602478	148.382232666	88.4006881714	23.1138248444
0.0	-0.0	89.8082199097	147.679916382	88.6751480103	23.3188285828
0.0	-0.0	92.5594177246	146.682418823	89.434135437	23.5040740967
0.0	-0.0	98.7997207642	-36.0305709839	89.3378372192	-156.140365601
0.0	-0.0	103.838775635	-41.3260307312	88.6007385254	-156.150985718
0.0	-0.0	108.999649048	-45.3032951355	88.3264923096	-155.985946655
0.0	-0.0	111.05381012	-46.5869216919	88.252532959	-155.431549072
0.0	-0.0	109.489494324	-46.7662277222	88.0650634766	-155.063613892
0.0	-0.0	103.577697754	-46.3508491516	87.970085144	-154.987319946
0.0	-0.0	91.4398956299	-45.8316078186	87.9217376709	-154.613098145
0.0	-0.0	87.1790924072	-45.933719635	87.6466674805	-154.180969238
0.0	-0.0	86.7183837891	-47.9633674622	86.7409439087	-153.718856812
0.0	-0.0	82.7916259766	-52.6023826599	86.0237731934	-153.591629028
0.0	-0.0	78.3957214355	-57.0995864868	85.5375976562	-153.56211853
0.0	-0.0	80.580581665	-57.8957252502	85.0255279541	-153.192382812
0.0	-0.0	82.6162109375	-57.3828392029	84.6182098389	-153.628845215
0.0	-0.0	76.1527404785	-56.7174873352	85.084236145	-153.790542603
0.0	-0.0	80.6535720825	-55.7643928528	86.209777832	-153.636734009
0.0	-0.0	90.7655487061	-55.6207542419	87.1196212769	-153.352630615
0.0	-0.0	89.6342391968	-55.9232139587	87.6331176758	-153.158370972
0.0	-0.0	89.8416061401	-55.4975814819	87.7374649048	-153.063964844
0.0	-0.0	93.5846710205	-55.1703681946	87.852897644	-153.254425049
0.0	-0.0	83.9649963379	-55.1779098511	87.9408416748	-153.272674561
