0.0	-0.0	141.798080444	41.1669692993	81.5531768799	-36.4178924561
0.0	-0.0	141.10269165	40.9020195007	82.0471420288	-36.8414039612
0.0	-0.0	140.167984009	40.5195655823	82.0626754761	-36.8412132263
0.0	-0.0	138.786407471	40.5464935303	82.3628463745	-36.7997817993
0.0	-0.0	136.662506104	42.641330719	83.2195205688	-37.9878349304
0.0	-0.0	135.593734741	44.1403999329	83.3956375122	-40.8100090027
0.0	-0.0	131.927444458	46.4164962769	84.4289627075	-45.159992218
0.0	-0.0	125.049316406	49.249912262	83.0783996582	-49.7241973877
0.0	-0.0	114.400863647	50.4571228027	82.597328186	-56.3364334106
0.0	-0.0	106.113082886	49.5651512146	80.8514480591	-61.3917732239
0.0	-0.0	102.265472412	48.4579353333	79.8560409546	-64.9950332642
0.0	-0.0	98.6572418213	47.0314826965	81.7217407227	-72.0312805176
0.0	-0.0	95.4948425293	45.4073219299	83.8235168457	-74.9518356323
0.0	-0.0	93.7369232178	44.4902992249	83.7501144409	-73.6371841431
0.0	-0.0	91.6775283813	43.4810142517	84.2317733765	-66.529624939
0.0	-0.0	88.3202362061	43.4996833801	85.976524353	-64.6669998169
0.0	-0.0	85.5226516724	44.6011924744	87.3458023071	-64.8238754272
0.0	-0.0	82.9932174683	44.4653015137	88.0864028931	-65.7002563477
0.0	-0.0	81.3530349731	44.9311714172	88.5911712646	-66.7010803223
0.0	-0.0	80.5395278931	45.4079284668	89.1825027466	-67.2499465942
0.0	-0.0	79.8662185669	-134.264678955	89.2341690063	113.495140076
