0.0251214504242	1.16640734673	0.226278305054	-0.0201406478882	1.59835767746	-0.054615020752
0.0260624885559	1.1653137207	0.228131771088	-0.0210266113281	1.5985070467	-0.0538297891617
0.0266675949097	1.16474270821	0.229536294937	-0.0213778018951	1.59898900986	-0.0533027648926
0.0263779163361	1.16573083401	0.230648398399	-0.0217332839966	1.59973061085	-0.0533616542816
0.0254814624786	1.16602647305	0.231376886368	-0.0221486091614	1.60095250607	-0.0541546344757
0.0227680206299	1.16700637341	0.230616569519	-0.0236058235168	1.60184490681	-0.0557546615601
0.0220890045166	1.16735947132	0.229870915413	-0.0250751972198	1.60212051868	-0.0571157932281
0.0223450660706	1.16519677639	0.230139136314	-0.0261189937592	1.6016112566	-0.0582345724106
0.0215501785278	1.16490936279	0.229194521904	-0.0290062427521	1.60004174709	-0.0598751306534
0.0181412696838	1.16657817364	0.227900505066	-0.0346946716309	1.59739923477	-0.0628798007965
0.0124363899231	1.16645896435	0.225152492523	-0.0423607826233	1.5953425169	-0.0674748420715
0.00531935691833	1.16392159462	0.221525430679	-0.049159526825	1.59373939037	-0.0719714164734
-0.00220727920532	1.15882909298	0.218858838081	-0.0541958808899	1.59091520309	-0.0753610134125
-0.00970983505249	1.15399253368	0.214693546295	-0.0587961673737	1.58547616005	-0.0776860713959
-0.0152680873871	1.15085554123	0.210938096046	-0.0640399456024	1.5794916153	-0.0797163248062
-0.0190644264221	1.14662003517	0.206840395927	-0.0702962875366	1.57463252544	-0.0825245380402
-0.022931098938	1.14105498791	0.203298091888	-0.0752389431	1.57229113579	-0.0840443372726
-0.0267601013184	1.13828110695	0.199854254723	-0.0799968242645	1.5705422163	-0.0851657390594
-0.0307612419128	1.13656258583	0.196344852448	-0.0843119621277	1.56921839714	-0.0856913328171
-0.0329976081848	1.1330640316	0.194158315659	-0.0871818065643	1.56938755512	-0.084953546524
-0.0324590206146	1.12962162495	0.195456624031	-0.0886399745941	1.57132411003	-0.0832917690277
-0.0323867797852	1.124969244	0.196315526962	-0.0888078212738	1.57397067547	-0.0811078548431
-0.0333168506622	1.12321841717	0.196004390717	-0.0882360935211	1.57595145702	-0.0795297622681
-0.0360949039459	1.1243840456	0.194861769676	-0.0886776447296	1.57698369026	-0.0788290500641
-0.0414037704468	1.12871408463	0.192646503448	-0.0893034934998	1.57803797722	-0.0788021087646
-0.047390460968	1.13190793991	0.190143823624	-0.0905952453613	1.5793517828	-0.0794006586075
-0.0529716014862	1.13236236572	0.18736577034	-0.0921852588654	1.58076810837	-0.0806381702423
-0.0573616027832	1.13250803947	0.185998678207	-0.0930399894714	1.58274364471	-0.0814921855927
-0.0602068901062	1.1326726675	0.185377240181	-0.0934970378876	1.58504414558	-0.0822249650955
-0.0610420703888	1.13262307644	0.185089826584	-0.0938873291016	1.58668231964	-0.0829858779907
-0.0613553524017	1.13076496124	0.184169411659	-0.0958156585693	1.58761918545	-0.084188580513
-0.0606467723846	1.12932705879	0.182750105858	-0.0996341705322	1.58855998516	-0.0867505073547
-0.0594537258148	1.12773168087	0.181849479675	-0.103350639343	1.5893253088	-0.0895978212357
-0.0582938194275	1.1270891428	0.182908654213	-0.104450464249	1.58997261524	-0.0913918018341
-0.05832862854	1.13000106812	0.184065580368	-0.103771448135	1.59093463421	-0.0917046070099
-0.0588409900665	1.13262784481	0.184317111969	-0.104052782059	1.5921651125	-0.0932978391647
-0.0578987598419	1.13222396374	0.184799671173	-0.106631755829	1.59247159958	-0.0986454486847
-0.0573949813843	1.13057422638	0.185124158859	-0.109429121017	1.59078514576	-0.103820443153
-0.0579967498779	1.13001477718	0.184280276299	-0.110695362091	1.5892406702	-0.105348944664
-0.0579254627228	1.13096106052	0.185093283653	-0.109004259109	1.59034717083	-0.102818846703
-0.0565593242645	1.1320258379	0.1867800951	-0.10435795784	1.59269976616	-0.0989289283752
-0.0535259246826	1.13200044632	0.187834262848	-0.0987401008606	1.59506559372	-0.0946197509766
-0.0475220680237	1.13177001476	0.189297437668	-0.0923829078674	1.59683632851	-0.0910376310349
-0.0390634536743	1.13150954247	0.191570878029	-0.0846507549286	1.59889185429	-0.0862348079681
-0.0279195308685	1.13131117821	0.195568799973	-0.0758163928986	1.60100531578	-0.080589056015
-0.0193169116974	1.13172876835	0.200014948845	-0.0687956809998	1.60151302814	-0.0767265558243
-0.0275850296021	1.1367868185	0.195031285286	-0.0661215782166	1.60115802288	-0.0757749080658
-0.0452306270599	1.13974642754	0.182755947113	-0.0658042430878	1.60083854198	-0.0766549110413
