0.0	-0.0	130.384399414	94.0645370483	59.8094406128	26.6852302551
0.0	-0.0	129.458023071	93.6755905151	60.1455688477	26.5752391815
0.0	-0.0	129.028594971	93.1816558838	60.2365570068	26.6907844543
0.0	-0.0	127.592987061	92.6444778442	59.971572876	27.2095222473
0.0	-0.0	126.923248291	92.1769943237	60.1144142151	27.3092899323
0.0	-0.0	125.148872375	91.3398895264	60.0234565735	27.2523822784
0.0	-0.0	119.256446838	89.958152771	60.1119689941	27.4738712311
0.0	-0.0	114.013694763	88.0911483765	60.4974479675	27.8044776917
0.0	-0.0	109.898735046	85.539604187	61.2418251038	28.2052516937
0.0	-0.0	108.286598206	82.4573516846	61.0620269775	29.6000041962
0.0	-0.0	109.299423218	79.6356124878	60.8023719788	31.5598163605
0.0	-0.0	110.574440002	77.3870010376	59.960308075	32.7674217224
0.0	-0.0	108.396896362	75.1103820801	60.2411994934	32.834728241
0.0	-0.0	104.291435242	72.3354873657	59.7324066162	32.1709365845
0.0	-0.0	99.97215271	68.8379974365	59.6191062927	31.5140171051
0.0	-0.0	96.4557113647	64.88331604	59.2125892639	31.8580112457
0.0	-0.0	95.6655349731	61.4309272766	58.5594520569	31.5050106049
0.0	-0.0	95.858581543	57.6850814819	57.2008056641	31.7599506378
0.0	-0.0	95.0037918091	53.206703186	56.2058181763	31.6544132233
0.0	-0.0	93.7155303955	48.9980659485	55.9181938171	30.4256973267
0.0	-0.0	89.7814788818	44.1927757263	55.2963562012	30.2151165009
0.0	-0.0	87.2463302612	38.7920074463	54.8164520264	29.8644657135
0.0	-0.0	86.337852478	34.8663215637	53.7504730225	29.4809951782
0.0	-0.0	85.9934158325	30.828119278	53.9675979614	28.9076938629
0.0	-0.0	85.40599823	27.3537101746	54.8027000427	28.0205669403
0.0	-0.0	85.8157119751	23.951051712	55.2027320862	29.0294151306
0.0	-0.0	85.0182342529	20.1914672852	57.2059059143	29.2382259369
0.0	-0.0	84.5026397705	17.4613857269	58.7221069336	29.4805107117
0.0	-0.0	84.0966949463	16.0161895752	60.0282173157	29.1330776215
0.0	-0.0	85.266204834	13.0414304733	61.2884101868	29.8063812256
0.0	-0.0	89.6700439453	12.2515830994	63.1397209167	27.7203941345
0.0	-0.0	90.6685714722	9.64748668671	64.5326004028	29.3731098175
0.0	-0.0	90.5892944336	8.77301883698	66.422416687	29.6359386444
0.0	-0.0	90.7243041992	7.34915733337	67.3677139282	29.5874652863
0.0	-0.0	88.7527084351	5.64981603622	68.9659194946	28.6558189392
0.0	-0.0	87.168762207	5.75502109528	71.421875	25.7775020599
0.0	-0.0	86.0629196167	5.85727596283	72.2263412476	24.2355861664
0.0	-0.0	85.2401123047	5.5779633522	72.8388214111	22.85405159
0.0	-0.0	85.0008163452	4.54538297653	74.632850647	21.9853134155
0.0	-0.0	84.727897644	3.8343603611	75.2334213257	21.7880897522
0.0	-0.0	84.3962020874	2.68705272675	76.0838699341	21.1605854034
0.0	-0.0	84.4868850708	1.47997438908	77.4784088135	20.1035518646
0.0	-0.0	84.4294433594	0.0536581613123	78.7839126587	19.6006069183
0.0	-0.0	84.8887939453	-2.10588431358	80.7353591919	18.9114170074
0.0	-0.0	86.311088562	-5.15205669403	83.0670623779	18.7212562561
0.0	-0.0	86.7247848511	-6.18662595749	85.6842803955	15.7791957855
0.0	-0.0	87.467590332	-7.26267623901	88.1772079468	13.012254715
0.0	-0.0	87.6988525391	171.393051147	89.7679977417	-169.421646118
0.0	-0.0	88.783416748	170.785339355	89.7878189087	-169.612869263
0.0	-0.0	89.1090393066	169.469177246	89.0022735596	-172.413619995
0.0	-0.0	89.4027175903	166.913101196	89.3968200684	-174.809371948
0.0	-0.0	88.4653625488	164.718414307	89.5769958496	-176.627670288
0.0	-0.0	86.7412567139	-16.7445430756	89.8420333862	3.10680937767
0.0	-0.0	84.818977356	-17.9380321503	89.4242553711	2.1738524437
0.0	-0.0	82.9253845215	-18.6310405731	88.9515686035	1.57686972618
0.0	-0.0	80.7154464722	-18.6475009918	88.8298110962	1.0504938364
0.0	-0.0	80.3677368164	-18.5779895782	88.5339508057	0.49453753233
0.0	-0.0	77.4836044312	-18.353805542	88.3463439941	0.177747070789
0.0	-0.0	73.0293045044	-17.8432025909	88.9260940552	0.436672627926
0.0	-0.0	70.4105834961	-18.8640117645	89.0184020996	-0.188917830586
