0.0809059143066	1.10219597816	0.225056290627	0.0648355484009	1.63353085518	-0.0920045375824
0.0803079605103	1.1036875248	0.22557425499	0.0637965202332	1.63365197182	-0.0921895503998
0.0796644687653	1.10296928883	0.224968075752	0.0625982284546	1.63330638409	-0.0921434164047
0.0773916244507	1.10191917419	0.224044203758	0.0598793029785	1.63296031952	-0.0917205810547
0.0730268955231	1.1011223793	0.222756266594	0.0553693771362	1.63210523129	-0.0906327962875
0.067883014679	1.10091114044	0.221657991409	0.0499048233032	1.63001227379	-0.089019536972
0.0619142055511	1.10239636898	0.220632433891	0.0433688163757	1.62719237804	-0.0875569581985
0.0554759502411	1.10631096363	0.219076871872	0.0378439426422	1.62453842163	-0.0870708227158
0.0496225357056	1.10831284523	0.217578887939	0.0350432395935	1.62324154377	-0.0868465900421
0.0462400913239	1.10783696175	0.216165661812	0.0328261852264	1.62301945686	-0.0864279270172
0.0452160835266	1.10653567314	0.215631008148	0.0290060043335	1.62268674374	-0.0844688415527
0.0449073314667	1.10479164124	0.214686870575	0.0246257781982	1.62174940109	-0.0821974277496
0.0439538955688	1.10382139683	0.213808655739	0.0203762054443	1.62028300762	-0.0805559158325
0.0425670146942	1.10315001011	0.213765382767	0.0181241035461	1.6192677021	-0.0794717073441
0.0396523475647	1.10437190533	0.214123487473	0.0166101455688	1.61873531342	-0.0784568786621
0.0355195999146	1.10607600212	0.214518904686	0.0145497322083	1.61810219288	-0.0777447223663
0.031259059906	1.10785007477	0.215027689934	0.0125229358673	1.61718869209	-0.077052116394
0.0271770954132	1.108471632	0.215494513512	0.0115661621094	1.61644291878	-0.0764826536179
0.023508310318	1.106808424	0.215436935425	0.0113158226013	1.61590051651	-0.07599401474
0.0224730968475	1.10172390938	0.215998053551	0.0109078884125	1.61542987823	-0.0757670402527
0.0233476161957	1.09883415699	0.217485070229	0.0106565952301	1.61488413811	-0.07526242733
0.0248017311096	1.09695696831	0.219608783722	0.0108833312988	1.61507308483	-0.0745897293091
0.024614572525	1.09734690189	0.221714735031	0.0113325119019	1.61508858204	-0.0736601352692
0.0235657691956	1.09872186184	0.223769783974	0.0117316246033	1.61498129368	-0.0723247528076
0.0225877761841	1.10031652451	0.225580334663	0.011892080307	1.61516284943	-0.0709240436554
0.0208716392517	1.10185658932	0.22659277916	0.0118863582611	1.61550080776	-0.0692480802536
0.019624710083	1.10256993771	0.227114081383	0.0117592811584	1.61555314064	-0.0673998594284
0.0188295841217	1.10183501244	0.227319598198	0.0117356777191	1.61587023735	-0.0658785104752
0.0187013149261	1.10045588017	0.227567791939	0.0111117362976	1.61787700653	-0.0631785392761
0.0194988250732	1.09903371334	0.226868152618	0.00925087928772	1.6231482029	-0.0599055290222
0.0198273658752	1.09746336937	0.227018713951	0.00687384605408	1.62267124653	-0.0577414035797
0.0199241638184	1.09663665295	0.227023005486	0.00218605995178	1.62039339542	-0.0570697784424
0.0195541381836	1.09613597393	0.227307915688	-0.000802278518677	1.62040567398	-0.0568441152573
0.0183455944061	1.09601783752	0.228138923645	-0.00212645530701	1.6205855608	-0.0561790466309
0.0155732631683	1.09777247906	0.229063034058	-0.00328993797302	1.61994028091	-0.0554546117783
0.01247215271	1.10049974918	0.229617118835	-0.0040500164032	1.61947643757	-0.0548160076141
0.00703930854797	1.10395145416	0.22723031044	-0.00456380844116	1.61910378933	-0.0540915727615
0.00488924980164	1.10423231125	0.226626634598	-0.00458097457886	1.61911857128	-0.0535225868225
0.00432395935059	1.10374975204	0.226849555969	-0.00465178489685	1.6188403368	-0.0531134605408
0.00503182411194	1.10132002831	0.22708439827	-0.00470376014709	1.61891198158	-0.0528656244278
0.00636506080627	1.09903430939	0.227267146111	-0.00495386123657	1.61879086494	-0.0524733066559
0.0073516368866	1.09796607494	0.227382540703	-0.00506258010864	1.6189032793	-0.0524549484253
0.00711846351624	1.09806466103	0.227051377296	-0.00477480888367	1.61937987804	-0.0529851913452
0.00581359863281	1.0996478796	0.22658598423	-0.00503134727478	1.61979198456	-0.0540091991425
0.00536155700684	1.1009169817	0.2265406847	-0.00590801239014	1.61996245384	-0.0556461811066
0.00601530075073	1.10078394413	0.226562261581	-0.00703287124634	1.62019062042	-0.0573899745941
0.00627875328064	1.10011208057	0.226345777512	-0.0076425075531	1.62029731274	-0.058652639389
0.004958152771	1.09999060631	0.224947452545	-0.00822353363037	1.61993551254	-0.0598363876343
0.00380110740662	1.10061383247	0.22362601757	-0.0100879669189	1.61966896057	-0.061356306076
0.00307202339172	1.10110652447	0.222964286804	-0.0114510059357	1.6196308136	-0.062833070755
0.00184488296509	1.10157978535	0.222714185715	-0.00855994224548	1.62024450302	-0.0622425079346
0.000653028488159	1.10167634487	0.221820831299	-0.0048656463623	1.62064564228	-0.0611097812653
