-59.0858001709	-87.2743377686	142.599990845	19.8317813873	0.677787959576	10.202331543
-57.4664535522	-87.1852493286	140.897705078	19.7472553253	0.701559782028	10.2903966904
-58.2292861938	-87.3497619629	141.648498535	19.5390625	0.613670170307	10.3345031738
-54.0136985779	-87.0707397461	137.195251465	17.745880127	0.100896127522	10.6878252029
-39.749797821	-86.9521789551	121.743873596	13.5607118607	-1.36445569992	11.3397321701
-20.7568283081	-86.3404693604	100.565460205	7.89012241364	-3.37260556221	12.6654777527
-6.65443086624	-85.2079162598	81.8151016235	1.5699826479	-5.45948457718	14.2608356476
16.4121456146	-82.3275222778	49.3540916443	-4.22152519226	-7.79710817337	16.9060688019
15.8348560333	-75.8239135742	33.1363258362	-8.7877407074	-10.7320365906	21.4053764343
8.08098888397	-66.397605896	16.5848903656	-11.1025352478	-13.0768642426	27.5769405365
-1.29138064384	-57.795539856	-0.969334721565	-11.5246925354	-14.5924596786	33.5096855164
-14.9666309357	-51.6077346802	-15.3266944885	-11.0025653839	-15.0433864594	35.3082542419
-25.9888954163	-52.0786514282	-36.3453865051	-9.10332107544	-15.846950531	34.3410949707
-32.4522285461	-61.9837837219	-55.0106811523	-6.29403543472	-16.9303741455	33.5509490967
-53.6070022583	-76.4525909424	-47.9309692383	-3.62741780281	-18.9986495972	33.1073188782
-72.8311004639	-80.3117141724	-33.311214447	-0.529872536659	-21.5230751038	33.2728385925
-64.5628509521	-81.7172622681	-46.0375480652	5.93105792999	-23.4139347076	31.1736869812
-55.8873062134	-79.963180542	-53.4922218323	11.3950605392	-22.8610935211	27.1588344574
-51.3296279907	-78.3059082031	-57.0451698303	12.4957141876	-22.0942726135	25.2014808655
-53.7266273499	-78.6184387207	-54.1181755066	12.312754631	-23.3469543457	24.737121582
-51.5909614563	-79.083732605	-55.955039978	12.3886499405	-26.1293640137	23.9414653778
-48.4641838074	-79.3177185059	-58.5134925842	12.7531194687	-28.6229305267	22.7712364197
-47.3318443298	-78.8542175293	-58.9626197815	13.19789505	-29.9240207672	22.102230072
-49.2018661499	-79.0628433228	-56.7949867249	12.7731399536	-30.8285598755	21.7992801666
-51.2327346802	-79.688949585	-54.3106040955	12.0873203278	-32.690536499	21.5552253723
-48.0641555786	-80.5527572632	-58.2332000732	12.1303005219	-33.9586715698	20.7768001556
-35.863822937	-79.6503067017	-65.4984436035	12.8998918533	-33.091178894	19.925989151
-23.8466968536	-77.2442932129	-70.7330703735	13.5135192871	-31.8335838318	19.7495422363
-17.6915531158	-76.7862930298	-73.5579071045	13.4363136292	-31.8205318451	19.768371582
-13.4541559219	-75.941986084	-77.5210113525	13.158364296	-32.0422744751	19.8206787109
-4.87802171707	-72.8370819092	-85.2769393921	13.2655496597	-31.8408851624	19.7808895111
0.357062608004	-67.5101242065	-90.0767440796	13.6827135086	-31.6355648041	19.4676246643
1.23228180408	-64.6995544434	-90.1399307251	13.7677946091	-31.4806919098	19.2986488342
2.85032248497	-63.2836952209	-91.1636886597	13.5457305908	-30.4423389435	18.9147586823
3.92691373825	-62.6237640381	-92.1851348877	13.2002639771	-28.1888809204	18.0671424866
3.89043426514	-62.9471244812	-91.8708724976	12.1639528275	-25.6238288879	17.4805908203
3.56669712067	-63.3848876953	-91.5859680176	11.1962881088	-23.9132671356	17.3405380249
2.93137693405	-64.0982055664	-90.9524230957	10.0685310364	-23.3720817566	17.8375854492
2.9707300663	-64.9727020264	-90.6700515747	8.5892868042	-23.0206165314	18.5538864136
2.69772315025	-64.7680130005	-90.1471481323	7.23130893707	-21.640581131	19.2043495178
1.95422804356	-65.1223678589	-89.3534088135	5.76114654541	-20.5502815247	20.2102642059
1.8687851429	-65.5762252808	-88.6398620605	3.85538601875	-20.815788269	21.7510890961
2.37179350853	-65.7297668457	-88.8747253418	3.23903846741	-21.4701805115	22.5197601318
2.18180179596	-65.3551635742	-88.402885437	3.37372970581	-21.8662204742	22.8385639191
2.38214302063	-65.3774032593	-88.6737594604	2.55157232285	-22.5449390411	23.4953365326
1.78364944458	-65.3100814819	-88.6443328857	1.84659433365	-23.0726165771	23.8360233307
1.52250516415	-65.0991897583	-89.9431610107	1.98580980301	-23.202747345	23.8865509033
1.36533498764	-65.2947692871	-89.7055511475	2.11585187912	-23.1536750793	23.7934570312
1.44857001305	-65.4992294312	-90.3816299438	2.00745725632	-23.2588214874	23.8491573334
1.49757647514	-65.4065704346	-90.7577896118	1.88275134563	-23.8462257385	23.9429988861
