0.0819056034088	1.41640412807	0.111507773399	0.0237827301025	1.64851605892	-0.118191599846
0.0818276405334	1.41782295704	0.111429929733	0.0231504440308	1.6486389637	-0.118431329727
0.0803644657135	1.41896283627	0.110588908195	0.0225508213043	1.64881849289	-0.118816494942
0.0796172618866	1.41997647285	0.110039234161	0.0218589305878	1.64944946766	-0.119758367538
0.0806543827057	1.42000281811	0.110653758049	0.0210702419281	1.65219926834	-0.12139749527
0.0819878578186	1.41980981827	0.110561609268	0.0189127922058	1.65728569031	-0.124769210815
0.0839416980743	1.41966938972	0.111272335052	0.0148818492889	1.6637212038	-0.129371166229
0.0837516784668	1.41943943501	0.11229634285	0.0100927352905	1.66918158531	-0.13504743576
0.0814566612244	1.4199347496	0.112639904022	0.00698375701904	1.67220795155	-0.139573097229
0.0788934230804	1.42193984985	0.111110091209	0.00524640083313	1.67409539223	-0.143172264099
0.0772275924683	1.42251181602	0.113072633743	0.00525331497192	1.67628908157	-0.146537780762
0.0773525238037	1.42085063457	0.116435050964	0.00535535812378	1.67807137966	-0.148540377617
0.0789661407471	1.41859996319	0.11838889122	0.00280141830444	1.67823696136	-0.147976398468
0.0822508335114	1.41659283638	0.119727015495	-0.00229167938232	1.67853534222	-0.145414590836
0.0878653526306	1.41536331177	0.120511770248	-0.00819492340088	1.6790984869	-0.143164396286
0.0921864509583	1.41528773308	0.119634747505	-0.0110578536987	1.68045687675	-0.142368555069
0.0963816642761	1.41591227055	0.12058031559	-0.0101172924042	1.68145704269	-0.142799139023
0.105874538422	1.41717016697	0.123152732849	-0.00736093521118	1.6818779707	-0.143397808075
0.116120576859	1.41760468483	0.125601649284	-0.00634479522705	1.68167614937	-0.143049716949
