5.18155050278	-8.51513004303	-5.58121013641	23.580909729	6.9312338829	34.5834617615
5.64010620117	-8.62775039673	-5.50854063034	23.6115226746	6.89863681793	34.5351142883
5.79644680023	-8.66386508942	-5.50565385818	23.6195812225	6.86377000809	34.4918670654
5.94260835648	-8.6854467392	-5.47787666321	23.5931930542	6.86978340149	34.3772010803
5.87560415268	-8.66229724884	-5.41705226898	23.554233551	6.82276725769	34.4420089722
5.74416589737	-8.71841907501	-5.41002035141	23.4591350555	6.87154531479	34.4710159302
5.6497426033	-8.72450733185	-5.36103105545	23.303144455	6.82959222794	34.5799598694
5.60288906097	-8.82325839996	-5.35447120667	22.9752025604	6.72459411621	34.57787323
5.29212999344	-8.80443954468	-5.27010917664	22.3900356293	6.60685920715	34.5100517273
4.92408752441	-8.85402965546	-5.08264350891	20.8304576874	6.42348957062	34.1973342896
4.48115158081	-8.87242794037	-5.08384799957	18.2766647339	6.41495418549	34.0631752014
3.94256019592	-8.84411430359	-5.10163927078	16.0668392181	6.5890417099	34.4540786743
3.35723185539	-8.89427661896	-4.98557519913	14.2816905975	6.74521970749	34.5272865295
2.69098901749	-8.9877166748	-4.80566978455	12.9436283112	6.87113428116	34.3762512207
1.57602369785	-9.21073150635	-4.43585538864	11.8396034241	7.0290594101	34.113910675
0.20472086966	-9.40596866608	-3.9808921814	10.73802948	7.47319221497	33.7541427612
-0.7527769804	-9.44888114929	-3.95392489433	9.03182029724	8.16246128082	33.3279838562
-1.49475383759	-9.68323230743	-3.64476084709	7.20257997513	8.68080711365	33.0157279968
-2.59307050705	-9.81472396851	-3.17428970337	4.5099272728	9.76873207092	32.2611083984
-3.98758006096	-10.0063514709	-2.75896906853	1.28445959091	10.9336624146	31.5179805756
-5.18874788284	-10.0048713684	-2.48721814156	-1.09111881256	11.3928699493	31.1979560852
-6.20262432098	-10.0199365616	-2.37107014656	-2.18140077591	11.4029340744	31.1770782471
-7.39638614655	-10.0518541336	-2.05723118782	-3.18118977547	11.6483278275	31.0645465851
-8.42367267609	-10.0561933517	-1.93355751038	-4.97696304321	12.2797203064	30.6943073273
-9.19181156158	-10.1204051971	-1.86086940765	-7.68298768997	13.2418193817	29.7859992981
-9.98802280426	-9.94690322876	-1.72752189636	-10.773519516	14.3434247971	28.2115345001
-10.6335830688	-9.98437213898	-1.85608565807	-12.9138259888	14.828458786	27.5428409576
-11.3525333405	-9.87503910065	-1.75349807739	-12.7828712463	14.4576749802	27.8392848969
-12.1882810593	-9.77733421326	-1.61897575855	-12.4846076965	14.1034049988	27.8706054688
-12.1489248276	-9.8081035614	-1.58082664013	-12.7921295166	14.1017179489	27.7512397766
-12.3402404785	-9.68324279785	-1.55164933205	-13.8837013245	14.5988912582	27.2719459534
-12.4386320114	-9.54989147186	-1.64274096489	-16.3323535919	15.4926815033	26.1964187622
-12.5305099487	-9.28291320801	-1.65110146999	-18.2096652985	16.0375347137	25.3497447968
-12.9947757721	-9.20558452606	-1.70044028759	-18.2378520966	15.954864502	25.3697986603
-12.9906339645	-9.22274017334	-1.6797118187	-17.7172889709	15.68998909	25.4321479797
-12.9121217728	-9.31204605103	-1.69632804394	-17.1376113892	15.3025465012	25.3404750824
-12.7784986496	-9.20380592346	-1.81414556503	-16.3198413849	14.9636268616	25.3102245331
-12.5087404251	-9.16645526886	-1.84378576279	-15.7646589279	14.8785924911	25.4049358368
-11.6163635254	-9.1669549942	-1.80845320225	-15.6474256516	14.9463148117	25.4847774506
-10.694439888	-9.22235870361	-1.85893595219	-15.5659132004	14.9571456909	25.6289634705
-9.48156547546	-9.41784667969	-2.06719326973	-15.4686536789	14.9242944717	25.5469245911
-9.5588722229	-9.70772457123	-2.09964227676	-15.34055233	14.8681087494	25.6557006836
-9.55365753174	-9.81461238861	-2.13894295692	-15.3237800598	14.8040180206	25.5686130524
-9.67748737335	-9.87209415436	-2.159491539	-15.3348636627	14.7734689713	25.5788974762
-9.69859790802	-9.82888221741	-2.16086983681	-15.3635578156	14.7982215881	25.546957016
-9.6651134491	-9.8262834549	-2.12193870544	-15.2821464539	14.8483428955	25.4597988129
-9.63304901123	-9.82615089417	-2.10640096664	-15.1427602768	14.8326721191	25.4158840179
-9.66197681427	-9.81103038788	-2.18268418312	-15.0638904572	14.8031759262	25.4608478546
-9.65396404266	-9.70241928101	-2.18247008324	-15.0177173615	14.8059654236	25.3899402618
-9.6622505188	-9.79447364807	-2.1620619297	-14.950668335	14.7540826797	25.4069080353
-9.58866691589	-9.85763549805	-2.17723536491	-14.9301042557	14.6949663162	25.3977012634
-9.70464324951	-9.88309669495	-2.17487978935	-14.8396167755	14.6801662445	25.3905849457
-9.76543807983	-9.86081790924	-2.27043223381	-14.7342424393	14.7080078125	25.3800849915
-9.90673065186	-9.86803627014	-2.23696994781	-14.7073631287	14.7233133316	25.386920929
-10.3715324402	-9.75229644775	-2.20865011215	-14.7233762741	14.7608652115	25.3667106628
-11.237859726	-9.48596668243	-2.07642030716	-14.7085762024	14.8063173294	25.4047813416
-12.9961433411	-9.17259693146	-1.45351588726	-14.6887512207	14.8934774399	25.2853031158
-15.7189664841	-8.70316314697	-1.33249533176	-14.6151237488	14.9245042801	25.3208847046
-17.6598682404	-8.27024364471	-1.16548871994	-14.6157836914	14.9073381424	25.2907905579
-19.4963302612	-7.98987865448	-0.826144397259	-14.6112499237	14.9393749237	25.3734817505
-21.5605278015	-7.63695716858	-0.354103565216	-14.6782665253	15.0555171967	25.4214000702
-23.6319828033	-7.04286956787	-0.063454836607	-14.7250652313	15.1928243637	25.4757728577
-26.16847229	-6.49801635742	0.256262987852	-14.8979501724	15.3268699646	25.5067977905
-28.8218002319	-5.85745573044	0.114429391921	-15.0552186966	15.4435768127	25.5065364838
-30.5052165985	-5.52232074738	-0.117050372064	-15.646033287	15.702963829	25.1207046509
-31.2909755707	-5.27827787399	-0.247756659985	-16.6163520813	16.1161174774	24.7779159546
-31.9500598907	-5.10469245911	-0.338298350573	-17.708612442	16.6313171387	24.4883995056
-32.5002784729	-4.75459384918	-0.287539124489	-18.4859523773	17.0363407135	24.4674415588
-32.8825683594	-4.62665176392	-0.427584052086	-19.1733322144	17.3532352448	24.6267108917
-33.2997360229	-4.51879501343	-0.504974544048	-19.6104831696	17.4581851959	24.736530304
-33.9611244202	-4.21804380417	-0.464106202126	-19.8692111969	17.5760726929	24.8822288513
-35.4082870483	-3.8064520359	0.0318624898791	-19.9765815735	17.621919632	24.9136447906
-38.0637283325	-2.9716861248	-0.0610296390951	-19.9487953186	17.5169448853	24.8636760712
-39.2648658752	-2.56421852112	-0.103675253689	-19.8089199066	17.3550300598	24.8551502228
-38.8427276611	-2.43668794632	0.409583866596	-19.8036823273	17.2129249573	24.6787414551
-38.4478530884	-2.43172550201	-0.345180630684	-19.7145023346	16.9392948151	24.6159534454
-38.4599266052	-2.2835149765	-1.07996797562	-19.6328849792	16.6976108551	24.5717887878
-38.3518981934	-2.17549085617	-2.76673126221	-19.6373119354	16.643201828	24.6374015808
-38.6148872375	-2.18450307846	-2.77902603149	-19.6845207214	16.5822658539	24.6487941742
-38.5971031189	-2.30536365509	-2.49226331711	-19.728553772	16.4883747101	24.7441062927
-38.5657043457	-2.2908115387	-2.50180459023	-19.8471240997	16.4393463135	24.6963863373
-38.5637130737	-2.27942919731	-2.69380092621	-19.9237632751	16.3561916351	24.7215328217
-38.5884780884	-2.01302242279	-3.11165165901	-20.2263469696	16.3757629395	24.5989227295
-38.6399116516	-1.81661450863	-3.51102805138	-20.8416690826	16.5869750977	24.3117218018
-38.6339950562	-1.85578072071	-3.59587430954	-21.8386363983	16.655254364	23.6187553406
-38.4606285095	-1.8213391304	-3.55905342102	-22.6335754395	16.4925365448	22.8100566864
-38.3515663147	-1.79470741749	-3.58634710312	-22.7632827759	16.5555152893	22.3828411102
-38.3048400879	-1.75724005699	-3.58404803276	-22.6217842102	16.9238166809	22.0073108673
-38.2952384949	-1.86645901203	-3.64743995667	-24.3084125519	17.6314907074	20.8403339386
