0.0252475738525	1.4797706604	0.0458390712738	0.0133471488953	1.65785264969	-0.16182756424
0.025542974472	1.47948646545	0.0455218553543	0.0135231018066	1.65814399719	-0.162292957306
0.0262503623962	1.47985982895	0.0457534790039	0.0136544704437	1.65826666355	-0.162432193756
0.0263185501099	1.4798938036	0.0456831455231	0.013768196106	1.65820646286	-0.162240505219
0.0252633094788	1.47870910168	0.0462419986725	0.0130460262299	1.65732860565	-0.161926031113
0.023026227951	1.47622513771	0.0491147041321	0.00904703140259	1.65527498722	-0.159890055656
0.0200266838074	1.47439837456	0.0510127544403	0.000938653945923	1.65173065662	-0.15581870079
0.0157449245453	1.4732042551	0.0515828132629	-0.0094313621521	1.64810562134	-0.151005983353
0.0106241703033	1.47132587433	0.0525376796722	-0.0216274261475	1.64274048805	-0.145954608917
0.00606870651245	1.46862316132	0.0540487766266	-0.0334198474884	1.63411998749	-0.141296863556
0.00273752212524	1.46678364277	0.0550887584686	-0.0415351390839	1.6269595623	-0.137227535248
0.000631332397461	1.46489131451	0.0578329563141	-0.0435426235199	1.62383770943	-0.134202003479
0.000535011291504	1.4627404213	0.0634372234344	-0.0421054363251	1.62278079987	-0.131476163864
-0.000176668167114	1.45949852467	0.0689619779587	-0.0405805110931	1.62096369267	-0.129757165909
0.000804424285889	1.45625257492	0.0740847587585	-0.0408520698547	1.61930835247	-0.128796577454
0.00252437591553	1.45379400253	0.0795439481735	-0.0423219203949	1.6189687252	-0.128076553345
0.00422763824463	1.45079982281	0.0874581336975	-0.0441198348999	1.61779987812	-0.127635478973
0.00599908828735	1.44678914547	0.0968079566956	-0.047084569931	1.61495387554	-0.126793980598
0.00677680969238	1.44249641895	0.105914473534	-0.0500595569611	1.61138737202	-0.125564932823
0.00676965713501	1.4409532547	0.111371636391	-0.0532140731812	1.60790991783	-0.124453306198
0.00381374359131	1.43786847591	0.11465716362	-0.0568909645081	1.60468995571	-0.124096155167
0.00020432472229	1.43469190598	0.114431500435	-0.0582284927368	1.60400998592	-0.123123168945
-0.00209426879883	1.43254351616	0.113362431526	-0.0562615394592	1.60495960712	-0.12153339386
-0.00108909606934	1.43299472332	0.112640619278	-0.0546159744263	1.60751032829	-0.120171546936
-0.00116872787476	1.43170809746	0.113536477089	-0.0533485412598	1.61076593399	-0.119969844818
5.72204589844e-05	1.42971241474	0.11564874649	-0.0517022609711	1.6141782999	-0.120960593224
-0.000144958496094	1.4279499054	0.116591572762	-0.0507147312164	1.61780583858	-0.122687339783
-0.000404119491577	1.4275932312	0.115989327431	-0.0513184070587	1.62040293217	-0.125176668167
-0.00126123428345	1.42773497105	0.115346670151	-0.053596496582	1.62082433701	-0.127607345581
-0.000385284423828	1.42844331264	0.116119384766	-0.0577704906464	1.61919724941	-0.130813241005
