0.0779025554657	1.42796885967	0.0215065479279	0.0152626037598	1.65337848663	-0.159749150276
0.0780184268951	1.42810738087	0.0211887359619	0.0151906013489	1.65344905853	-0.159749031067
0.0776350498199	1.42789912224	0.0215129852295	0.0150499343872	1.65346872807	-0.159732818604
0.0769226551056	1.42735624313	0.0221792459488	0.0139172077179	1.65365743637	-0.159446120262
0.0751345157623	1.42677617073	0.0226838588715	0.0112814903259	1.65499854088	-0.159425258636
0.0739464759827	1.42608118057	0.0235984325409	0.00706696510315	1.65643405914	-0.159454345703
0.0729248523712	1.42558526993	0.0246820449829	0.00124549865723	1.65817320347	-0.159706115723
0.0730776786804	1.42568266392	0.0249394178391	-0.00657272338867	1.66095936298	-0.160413146019
0.0738749504089	1.42531573772	0.0247528553009	-0.0138647556305	1.66568434238	-0.162654161453
0.0742390155792	1.42409670353	0.0258321762085	-0.0168809890747	1.67030858994	-0.165939807892
0.0750432014465	1.42381727695	0.0262371301651	-0.0180809497833	1.6747713089	-0.170371174812
0.0753557682037	1.42442822456	0.0253926515579	-0.0195116996765	1.67926836014	-0.176455020905
0.0781311988831	1.42564845085	0.0263955593109	-0.0195705890656	1.68257153034	-0.183089017868
0.0788946151733	1.42560577393	0.0289113521576	-0.0180196762085	1.68380379677	-0.189200282097
0.0781965255737	1.4259314537	0.0286282300949	-0.0172245502472	1.68476426601	-0.194880366325
0.0791110992432	1.42589080334	0.0315909385681	-0.0181114673615	1.68613088131	-0.201148748398
0.0807611942291	1.424071908	0.0387766361237	-0.0200986862183	1.68743276596	-0.207298874855
0.0789933204651	1.42334771156	0.0421184301376	-0.0220658779144	1.68663442135	-0.210597753525
0.0783638954163	1.42267084122	0.0440180301666	-0.0244882106781	1.68462693691	-0.211362361908
0.078498840332	1.42169868946	0.0450637340546	-0.0272123813629	1.68307065964	-0.211724996567
0.0775682926178	1.41995668411	0.0464514493942	-0.0296728610992	1.68228709698	-0.21181166172
0.079071521759	1.41613590717	0.0489642620087	-0.031760931015	1.68165206909	-0.211535453796
0.0832753181458	1.41199803352	0.0497267246246	-0.0336191654205	1.68109512329	-0.211204409599
0.0904817581177	1.40911889076	0.0527336597443	-0.0353994369507	1.68073403835	-0.21098279953
0.0986709594727	1.40623044968	0.056804060936	-0.0374336242676	1.68039381504	-0.210950613022
