0.0	-0.0	140.035934448	-71.0961380005	89.7331314087	-146.275772095
0.0	-0.0	136.341384888	-71.1644744873	89.7112350464	-146.178466797
0.0	-0.0	135.112442017	-71.3109512329	89.7702026367	-146.188796997
0.0	-0.0	136.333236694	108.472541809	89.903427124	33.8773612976
0.0	-0.0	134.105941772	107.906021118	89.3059158325	33.9151344299
0.0	-0.0	125.818214417	107.791175842	87.5891036987	33.7448425293
0.0	-0.0	123.800537109	106.149543762	82.88722229	33.8203659058
0.0	-0.0	115.024330139	100.137863159	73.2639389038	34.573551178
0.0	-0.0	105.360473633	90.1771850586	63.4761810303	37.3019294739
0.0	-0.0	96.6969985962	79.8075942993	55.1573295593	41.5153770447
0.0	-0.0	72.8827590942	73.9719238281	49.6300086975	44.6873092651
0.0	-0.0	51.7905387878	73.8046875	46.2445640564	45.8320159912
0.0	-0.0	39.2887535095	77.4312362671	43.6557273865	45.8955612183
0.0	-0.0	33.961391449	83.2328109741	39.9828796387	45.6735534668
0.0	-0.0	25.4515094757	88.5204467773	36.5316009521	44.9864959717
0.0	-0.0	17.4121360779	90.9616241455	34.0027885437	44.7482223511
0.0	-0.0	8.03921985626	92.3637008667	31.520362854	44.8941459656
0.0	0.0	-1.69649302959	91.2269439697	28.471950531	46.7606315613
0.0	0.0	-9.68194675446	88.0949630737	26.6522293091	49.6383094788
0.0	0.0	-23.6204891205	87.4758834839	26.1553668976	51.8345146179
0.0	0.0	-38.4659233093	89.9734344482	25.7183570862	52.383518219
0.0	0.0	-48.2588195801	91.6687164307	25.3574237823	51.98595047
