0.0659284591675	1.48390614986	0.0236008167267	-0.00987434387207	1.64701914787	-0.121751308441
0.0661537647247	1.48395109177	0.0225994586945	-0.00677633285522	1.64788842201	-0.123563528061
0.066002368927	1.48385095596	0.0220082998276	-0.00488758087158	1.64783239365	-0.124966621399
0.0658812522888	1.48422789574	0.0206437110901	-0.00547862052917	1.64768111706	-0.125673651695
0.0654351711273	1.48486113548	0.0202798843384	-0.00697803497314	1.64847445488	-0.125924825668
0.0649507045746	1.48514997959	0.0208666324615	-0.00944566726685	1.65165531635	-0.126514673233
0.0639274120331	1.48459875584	0.0223615169525	-0.012451171875	1.65655064583	-0.128260135651
0.0629029273987	1.48486864567	0.0237625837326	-0.0153975486755	1.66091275215	-0.131252527237
0.0621070861816	1.48569083214	0.0242609977722	-0.0181465148926	1.66475832462	-0.134892821312
0.0609154701233	1.48623943329	0.0246133804321	-0.0209259986877	1.66810154915	-0.139231681824
0.0597367286682	1.4872841835	0.024557352066	-0.0235743522644	1.67076575756	-0.143469929695
0.0598876476288	1.48889791965	0.0231232643127	-0.0257654190063	1.67217707634	-0.14709353447
0.0592725276947	1.49019730091	0.0218093395233	-0.027473449707	1.67353284359	-0.150380134583
0.0588397979736	1.49051523209	0.0213702917099	-0.0292148590088	1.67570984364	-0.154613494873
0.0590116977692	1.48989129066	0.0215276479721	-0.0304250717163	1.67821526527	-0.159807920456
0.0597450733185	1.48975741863	0.0217154026031	-0.030483007431	1.6804407835	-0.165222406387
0.0608870983124	1.49077248573	0.0201022624969	-0.0287981033325	1.68147170544	-0.170466423035
0.0610415935516	1.49202978611	0.0164601802826	-0.026163816452	1.68134796619	-0.17481982708
0.0608716011047	1.49319911003	0.0129268169403	-0.0241723060608	1.68089151382	-0.178620815277
0.0615346431732	1.49382865429	0.00996708869934	-0.0244288444519	1.68096268177	-0.183313846588
0.0617535114288	1.49403643608	0.00790953636169	-0.026252746582	1.68158149719	-0.189112186432
0.0625536441803	1.49491906166	0.00588870048523	-0.0280249118805	1.68194019794	-0.195700526237
0.0623273849487	1.49637258053	0.00201332569122	-0.028795003891	1.68161785603	-0.202700376511
0.0625393390656	1.49873757362	-0.00237083435059	-0.0287523269653	1.6797465086	-0.208864212036
0.0619127750397	1.50017309189	-0.00686514377594	-0.0278527736664	1.67793345451	-0.212262392044
0.0610730648041	1.5011241436	-0.011198759079	-0.0271799564362	1.67743301392	-0.214812994003
0.0616202354431	1.50134134293	-0.0135328769684	-0.0278527736664	1.67783594131	-0.217857599258
0.0619428157806	1.50170695782	-0.0144288539886	-0.0290715694427	1.67841410637	-0.221058368683
0.0612421035767	1.50253689289	-0.0170147418976	-0.0303373336792	1.67894566059	-0.22441637516
0.0593712329865	1.50248646736	-0.0188460350037	-0.0319392681122	1.67851805687	-0.226201534271
0.0585098266602	1.50253152847	-0.020322561264	-0.0334179401398	1.67813396454	-0.227868914604
0.0594956874847	1.50354778767	-0.0191560983658	-0.0344805717468	1.67810165882	-0.22950220108
0.0632457733154	1.50539469719	-0.0156208276749	-0.0360150337219	1.67763960361	-0.230015993118
0.0642275810242	1.50607347488	-0.0131921768188	-0.0380575656891	1.67706167698	-0.229607701302
0.063444852829	1.50646269321	-0.0117820501328	-0.0404155254364	1.6767539978	-0.228966474533
0.0626676082611	1.50589597225	-0.00830554962158	-0.0425562858582	1.67666888237	-0.228146791458
0.0596053600311	1.50407576561	-0.00659561157227	-0.0454747676849	1.67625617981	-0.226952552795
0.0586466789246	1.50290179253	-0.00639200210571	-0.0498297214508	1.67540466785	-0.224747657776
0.0611164569855	1.50317800045	-0.00323748588562	-0.0538904666901	1.67425024509	-0.222073554993
0.0641906261444	1.50262618065	0.00229525566101	-0.0559768676758	1.67354869843	-0.219002008438
0.0681953430176	1.50229454041	0.00892901420593	-0.0578675270081	1.6727836132	-0.215177893639
0.0704665184021	1.50090169907	0.0145030021667	-0.0618903636932	1.67167770863	-0.211332321167
0.0733518600464	1.49862873554	0.021369934082	-0.0679285526276	1.66988611221	-0.20724606514
0.0794413089752	1.49691212177	0.0290890932083	-0.0717749595642	1.66880476475	-0.203595161438
0.0864403247833	1.49450910091	0.0327498912811	-0.0717632770538	1.66951692104	-0.201499700546
0.0921051502228	1.49275386333	0.0415269136429	-0.0715689659119	1.6699000597	-0.199372291565
0.0950546264648	1.48955643177	0.0429356098175	-0.0723288059235	1.66976928711	-0.197387933731
0.0974729061127	1.48510956764	0.0425407886505	-0.0731546878815	1.66977000237	-0.196454524994
0.098646402359	1.48142278194	0.0365703105927	-0.0740427970886	1.66989779472	-0.195939064026
0.0958304405212	1.48147118092	0.0334539413452	-0.0742716789246	1.67044532299	-0.196323394775
0.0883684158325	1.48440659046	0.0349206924438	-0.0724778175354	1.67248809338	-0.198667883873
0.0850813388824	1.48640072346	0.0408321619034	-0.067714214325	1.67483210564	-0.201379776001
0.0847308635712	1.48636507988	0.0468847751617	-0.0634870529175	1.67599010468	-0.202466487885
0.0836110115051	1.4862267971	0.0488568544388	-0.0640156269073	1.67547035217	-0.201274514198
0.0825726985931	1.48491811752	0.04443359375	-0.0650677680969	1.67519295216	-0.200142383575
0.0836341381073	1.48442161083	0.0449945926666	-0.0649666786194	1.67546403408	-0.200429439545
0.0859479904175	1.48415243626	0.0494492053986	-0.065012216568	1.67607176304	-0.201551198959
0.0874395370483	1.48198699951	0.0551164150238	-0.0656440258026	1.67652308941	-0.202603459358
0.0876843929291	1.47906064987	0.0605379343033	-0.0682554244995	1.67624545097	-0.203590154648
0.0888192653656	1.47752380371	0.0583715438843	-0.0713939666748	1.67562031746	-0.204062461853
0.0901880264282	1.47817838192	0.0557259321213	-0.0733418464661	1.6753462553	-0.203856468201
0.0903282165527	1.47792077065	0.0500258207321	-0.0738792419434	1.6753911972	-0.203420639038
0.0880506038666	1.47860622406	0.0511132478714	-0.0734922885895	1.67579376698	-0.202725410461
0.0856504440308	1.48057079315	0.0569732189178	-0.0719337463379	1.67637777328	-0.202048540115
0.0802972316742	1.483694911	0.0682961940765	-0.0709571838379	1.6767526865	-0.199827432632
0.0775864124298	1.48603081703	0.0664591789246	-0.0709080696106	1.67622745037	-0.197217822075
0.0720882415771	1.48742961884	0.0594055652618	-0.0713722705841	1.67590939999	-0.194350481033
0.0651814937592	1.48855483532	0.0519359111786	-0.071469783783	1.67565202713	-0.191733241081
0.0583198070526	1.48942279816	0.0448729991913	-0.0713856220245	1.6756991148	-0.189881801605
0.0545728206635	1.49086880684	0.0376131534576	-0.0716426372528	1.67560994625	-0.188287377357
0.0568535327911	1.49292933941	0.0359060764313	-0.0713195800781	1.67530596256	-0.186814188957
0.0608830451965	1.49379396439	0.0380070209503	-0.0704953670502	1.67512106895	-0.185820698738
0.0597929954529	1.49364376068	0.0419173240662	-0.0685975551605	1.67552804947	-0.18513250351
0.0494110584259	1.4902369976	0.0467700958252	-0.0652673244476	1.67588531971	-0.183902978897
0.0448520183563	1.48916399479	0.0513005256653	-0.0616903305054	1.67548310757	-0.181209802628
0.0466041564941	1.48967587948	0.0486031770706	-0.0591511726379	1.67507553101	-0.178263068199
0.0542197227478	1.49155008793	0.0482075214386	-0.0572047233582	1.67567944527	-0.177064061165
0.0607178211212	1.49375998974	0.0472815036774	-0.0553343296051	1.67739975452	-0.177882194519
0.0604238510132	1.49512135983	0.0449444055557	-0.0534887313843	1.67882716656	-0.180488467216
0.051971912384	1.49169528484	0.0440590381622	-0.0516202449799	1.67969596386	-0.183877229691
0.0489633083344	1.4917730093	0.0412439107895	-0.0503513813019	1.68023300171	-0.18639421463
0.0505249500275	1.49430191517	0.0371897220612	-0.0499656200409	1.67986214161	-0.187211036682
0.0541172027588	1.49415957928	0.0378046035767	-0.0507237911224	1.67838060856	-0.185738801956
0.0544204711914	1.48910105228	0.0389881134033	-0.0519461631775	1.67695617676	-0.183507561684
0.057514667511	1.47893762589	0.03435754776	-0.0529520511627	1.67581069469	-0.181655168533
0.0641620159149	1.46799683571	0.0284377336502	-0.0538716316223	1.67505192757	-0.180035352707
0.058030128479	1.45926582813	0.0269176959991	-0.0550467967987	1.6741797924	-0.17806661129
0.0398247241974	1.45803308487	0.0271130800247	-0.0566985607147	1.67298913002	-0.17523765564
0.0207521915436	1.45999085903	0.0287110805511	-0.0586423873901	1.67120599747	-0.17165851593
0.0177567005157	1.46566832066	0.0282802581787	-0.059805393219	1.66930687428	-0.168398022652
0.0234746932983	1.47221672535	0.0295786857605	-0.0598196983337	1.66823732853	-0.165372848511
0.0285489559174	1.47448074818	0.0366436243057	-0.0585124492645	1.66635525227	-0.161341428757
0.034440279007	1.47459459305	0.04516518116	-0.0563993453979	1.66292440891	-0.155102133751
0.048168182373	1.47975289822	0.0570223331451	-0.0529174804688	1.65843784809	-0.147629976273
0.0595836639404	1.48810565472	0.0688951015472	-0.0492670536041	1.65641582012	-0.141842484474
0.0578031539917	1.4897172451	0.0685851573944	-0.0477259159088	1.65386247635	-0.139204740524
0.057788848877	1.48395085335	0.0682075023651	-0.0472555160522	1.65320694447	-0.138806343079
0.0575456619263	1.47891581059	0.0703661441803	-0.0468289852142	1.65575456619	-0.139926552773
0.0559146404266	1.47883188725	0.0703467130661	-0.0458829402924	1.65958964825	-0.142463207245
0.0461761951447	1.4792714119	0.0653896331787	-0.0452792644501	1.66224145889	-0.145266652107
0.0381321907043	1.48184192181	0.0618669986725	-0.0454213619232	1.66326498985	-0.148186683655
0.0319354534149	1.48362195492	0.0547037124634	-0.0461916923523	1.66400575638	-0.151736021042
0.0298297405243	1.48692417145	0.0482411384583	-0.0463604927063	1.66443026066	-0.155929088593
0.0315639972687	1.49041986465	0.043248295784	-0.0454185009003	1.6650480032	-0.161106109619
0.0328252315521	1.49274086952	0.0399177074432	-0.0439834594727	1.66644728184	-0.16665148735
0.0339782238007	1.49385821819	0.0367437601089	-0.0417666435242	1.66820681095	-0.172765254974
0.0334489345551	1.49426805973	0.0323818922043	-0.0388326644897	1.67081534863	-0.179260492325
0.0342049598694	1.49539065361	0.0272922515869	-0.0353493690491	1.67280972004	-0.18532538414
0.0356116294861	1.49775505066	0.0211790800095	-0.0320174694061	1.67419540882	-0.19039273262
0.0350742340088	1.49848401546	0.0162223577499	-0.0300426483154	1.67447829247	-0.19420838356
0.0356240272522	1.49951028824	0.0136951208115	-0.0296123027802	1.67446196079	-0.197093844414
0.03604388237	1.500831604	0.0115571022034	-0.0301249027252	1.6745673418	-0.199702739716
0.0357780456543	1.50202703476	0.00997483730316	-0.0302512645721	1.67573618889	-0.203135251999
0.0360324382782	1.50347220898	0.0101960897446	-0.0300600528717	1.67697453499	-0.207211732864
0.0365853309631	1.50507068634	0.010270357132	-0.0294504165649	1.6778113842	-0.21129155159
0.0379402637482	1.50810146332	0.00873494148254	-0.0282888412476	1.6780179739	-0.21587228775
0.0396363735199	1.51214325428	0.00469839572906	-0.0267882347107	1.67761957645	-0.221015930176
0.0409247875214	1.51546478271	-0.00025486946106	-0.0250923633575	1.67741274834	-0.226144790649
0.0426697731018	1.51787114143	-0.00293779373169	-0.0235712528229	1.67748939991	-0.231038808823
0.0444130897522	1.51914012432	-0.00402450561523	-0.0224032402039	1.67770957947	-0.234689474106
0.0466570854187	1.51974308491	-0.00466871261597	-0.0214152336121	1.67769563198	-0.236753225327
0.0491721630096	1.51996278763	-0.0062962770462	-0.0202751159668	1.67748498917	-0.23787522316
0.0503764152527	1.51986050606	-0.00867819786072	-0.0192322731018	1.67706608772	-0.238259315491
0.0516571998596	1.51885020733	-0.00970232486725	-0.0184931755066	1.67658305168	-0.238797187805
0.0533132553101	1.51806044579	-0.00930881500244	-0.0177981853485	1.67638206482	-0.239949703217
0.0554540157318	1.51834583282	-0.0099276304245	-0.0172135829926	1.6764279604	-0.242061853409
0.0577380657196	1.51910018921	-0.010463476181	-0.0171620845795	1.67634499073	-0.244517683983
0.058878660202	1.52042639256	-0.010751247406	-0.0175638198853	1.67616069317	-0.247914433479
0.0583460330963	1.52143085003	-0.0130405426025	-0.0184741020203	1.6752358675	-0.253150939941
0.0566000938416	1.52171611786	-0.0168843269348	-0.0198576450348	1.67428398132	-0.258679866791
0.0547456741333	1.52222061157	-0.0216807126999	-0.0214307308197	1.67279577255	-0.264674901962
0.0534217357635	1.52372968197	-0.0271480083466	-0.0231118202209	1.67055213451	-0.271472334862
0.0528366565704	1.5250480175	-0.0340175628662	-0.0244183540344	1.66843056679	-0.279364347458
0.0537929534912	1.52587449551	-0.0398116111755	-0.0250110626221	1.6667675972	-0.286271095276
0.0561566352844	1.52691161633	-0.044269323349	-0.0242354869843	1.66495835781	-0.291016340256
0.0596668720245	1.52803909779	-0.0470905303955	-0.0238103866577	1.6642844677	-0.292177915573
0.0636749267578	1.52836310863	-0.0469044446945	-0.0251958370209	1.66407501698	-0.289603114128
0.0646057128906	1.52704393864	-0.0426576137543	-0.0272579193115	1.66422629356	-0.284061670303
0.0627992153168	1.52486157417	-0.0372022390366	-0.0289096832275	1.66439080238	-0.277810692787
0.0609016418457	1.52348935604	-0.0314204692841	-0.0304596424103	1.6645206213	-0.271716117859
0.058366060257	1.52195751667	-0.026477098465	-0.0326895713806	1.66508293152	-0.265729904175
0.0554187297821	1.52103412151	-0.02205991745	-0.0353140830994	1.66532981396	-0.259941339493
0.0516304969788	1.52052366734	-0.0189614295959	-0.0378921031952	1.66567409039	-0.254920363426
0.0502505302429	1.52082359791	-0.0192513465881	-0.0395500659943	1.66633439064	-0.2505017519
0.049681186676	1.5215357542	-0.0177271366119	-0.0404710769653	1.6667535305	-0.246029496193
0.0500221252441	1.52182400227	-0.0159547328949	-0.0408937931061	1.66746938229	-0.241784334183
0.0476710796356	1.5201830864	-0.0209798812866	-0.0409104824066	1.66792464256	-0.237752199173
0.0490188598633	1.52111935616	-0.024320602417	-0.0408136844635	1.6677519083	-0.234724640846
0.0490398406982	1.52023398876	-0.0223461389542	-0.04026222229	1.66777133942	-0.233175754547
0.0494892597198	1.51916670799	-0.0185658931732	-0.0401690006256	1.66837418079	-0.232784152031
0.0464825630188	1.51750552654	-0.0192152261734	-0.0400998592377	1.66901040077	-0.232704520226
0.0432353019714	1.5172971487	-0.0228879451752	-0.0402715206146	1.66926181316	-0.232578992844
0.042754650116	1.5181787014	-0.0232721567154	-0.0408208370209	1.66912615299	-0.232292413712
0.0409381389618	1.51799881458	-0.022735118866	-0.0417807102203	1.66933083534	-0.232424020767
0.039954662323	1.51879775524	-0.0264337062836	-0.0424296855927	1.6697063446	-0.233336806297
0.0387506484985	1.51957213879	-0.0310451984406	-0.0424292087555	1.67084205151	-0.236351490021
0.0377814769745	1.51966834068	-0.0329872369766	-0.0423212051392	1.67186236382	-0.240706086159
0.0372347831726	1.51817584038	-0.032993555069	-0.0424394607544	1.67268419266	-0.244441747665
0.0336167812347	1.51461899281	-0.0341866016388	-0.0422134399414	1.67401742935	-0.248151063919
0.0303349494934	1.51217746735	-0.03635430336	-0.0420789718628	1.67511487007	-0.251551985741
0.0273442268372	1.51112353802	-0.0384286642075	-0.0415382385254	1.67563927174	-0.254992961884
0.0229804515839	1.50702393055	-0.0408544540405	-0.0406901836395	1.67572307587	-0.258045434952
0.0205171108246	1.50079071522	-0.0446714162827	-0.0407366752625	1.67523694038	-0.259575843811
0.0201916694641	1.49661660194	-0.0454813241959	-0.0413956642151	1.67474806309	-0.259705543518
0.0198905467987	1.49353384972	-0.044802069664	-0.0414106845856	1.67472064495	-0.259073734283
0.0218663215637	1.49204742908	-0.0437936782837	-0.0411686897278	1.6745223999	-0.258269667625
0.0202341079712	1.4912558794	-0.0407712459564	-0.0409944057465	1.67408502102	-0.25699365139
0.0155637264252	1.49199473858	-0.0388411283493	-0.04061460495	1.67358458042	-0.255980730057
0.0147037506104	1.49486935139	-0.0373094081879	-0.0385479927063	1.67309451103	-0.254909038544
0.0157277584076	1.49819970131	-0.0364058017731	-0.034795999527	1.67328178883	-0.253970503807
0.018589258194	1.50032579899	-0.0364406108856	-0.0327942371368	1.67351138592	-0.253348350525
0.0220172405243	1.5001360178	-0.0364257097244	-0.0329370498657	1.67450714111	-0.253663063049
0.0229139328003	1.49878680706	-0.0348224639893	-0.0320234298706	1.67562556267	-0.255164027214
0.0236163139343	1.49857389927	-0.0343509912491	-0.0305645465851	1.67625534534	-0.257705211639
0.0245051383972	1.49822711945	-0.0357935428619	-0.0300030708313	1.67693769932	-0.260610699654
0.0242209434509	1.49760317802	-0.0379548072815	-0.0305788516998	1.67730212212	-0.263332128525
0.0225088596344	1.49695420265	-0.0397753715515	-0.0305209159851	1.67834818363	-0.2670981884
0.0213918685913	1.49660634995	-0.0413391590118	-0.030088186264	1.67885744572	-0.271150112152
0.0226457118988	1.49680256844	-0.0430338382721	-0.0290772914886	1.67895340919	-0.275337338448
0.0252015590668	1.49761617184	-0.0437389612198	-0.0281627178192	1.67753744125	-0.276904225349
0.0282769203186	1.49840831757	-0.043683052063	-0.027761220932	1.67590451241	-0.274906873703
