7.21026849747	-3.11713147163	-7.42781305313	17.2184753418	-2.52544522285	34.8364028931
7.16074705124	-3.19875884056	-7.23712444305	16.9247951508	-2.30849385262	34.8568344116
7.00124073029	-3.32087659836	-7.19266080856	16.7748622894	-2.14592051506	34.7529258728
6.96393060684	-3.29259967804	-7.05229663849	16.5343227386	-2.04030704498	34.7368621826
6.63707637787	-3.12030053139	-6.99080514908	16.146566391	-1.84407258034	34.6506118774
6.48569869995	-3.12089109421	-7.03866863251	15.3690319061	-1.70055496693	34.5343360901
6.21351242065	-3.14743375778	-7.07761335373	14.9019765854	-1.88531076908	34.4406890869
5.33794307709	-4.71211528778	-6.76398611069	14.4519672394	-2.98216748238	33.9572143555
3.96438550949	-5.87216758728	-7.74339103699	13.9208936691	-4.84746074677	33.0328407288
3.2184612751	-7.46002531052	-7.60178661346	13.7981748581	-6.41759109497	32.9465408325
2.40604448318	-8.97022151947	-7.45613384247	13.6798563004	-9.48330116272	33.0145606995
2.00684905052	-10.6276865005	-7.19010257721	13.3214673996	-13.0913057327	33.2629470825
1.58748364449	-11.7324018478	-10.0430660248	13.2011604309	-15.2337465286	33.6216926575
-0.242449566722	-14.8692550659	-13.1070156097	12.8602466583	-16.1328830719	33.8862304688
-2.89217829704	-17.9502429962	-16.1999454498	11.9140892029	-17.0793437958	34.3104553223
-6.08068275452	-21.4913463593	-17.6980514526	9.96519184113	-17.9789428711	34.9048347473
-9.36443328857	-22.8757400513	-20.6368522644	8.06526470184	-18.1042480469	35.3180274963
-12.4860649109	-24.6039962769	-20.9518203735	6.91091156006	-18.0204029083	35.5279006958
-14.1564769745	-24.6118297577	-21.0250205994	6.58725786209	-17.2047595978	34.5109367371
-14.9030017853	-24.6871643066	-20.5771026611	5.91819667816	-16.0459022522	31.9613723755
-14.9303207397	-24.4458255768	-20.8290615082	6.2322807312	-15.7510700226	30.2077522278
-15.261341095	-24.5825767517	-20.5903491974	7.37578058243	-15.8090114594	29.0739154816
-15.4377727509	-24.7138309479	-20.6253051758	9.08105945587	-16.6795272827	28.6440448761
-15.1576843262	-23.8921604156	-22.3119678497	10.8144330978	-17.7489109039	28.4486694336
-14.5491113663	-22.6529216766	-24.8863372803	11.8334369659	-18.4683036804	27.8918037415
-14.6734962463	-22.1818122864	-25.4113693237	12.0133857727	-19.1986503601	27.280500412
-15.1509380341	-21.6231040955	-25.7763977051	11.4776287079	-20.7291297913	26.3681621552
-15.847492218	-21.7192668915	-26.107673645	10.2793102264	-22.8425331116	25.4574813843
-16.2250404358	-21.7011089325	-26.509349823	8.89842891693	-24.5746231079	25.2352867126
-16.4111804962	-21.9301681519	-26.6065559387	8.11822891235	-25.2298812866	25.5271244049
-16.6550693512	-21.7451705933	-26.6362304688	8.05640411377	-25.45271492	24.2669811249
-16.8741989136	-21.9848804474	-26.8663597107	8.51810359955	-25.8452892303	22.4175720215
-17.2448863983	-22.1881637573	-27.0772666931	9.05053424835	-26.3537540436	20.7718296051
-17.3327693939	-22.3197917938	-27.3073158264	9.35321331024	-27.0932731628	19.540348053
-16.9486045837	-22.2052078247	-27.6630439758	9.45670413971	-28.2098655701	18.5615215302
-16.8629684448	-22.0702285767	-27.8520908356	8.883852005	-29.607711792	18.4897079468
-17.5042133331	-23.0519866943	-25.605846405	7.83433389664	-30.7013034821	19.4541378021
-16.7139987946	-23.9240341187	-24.8611602783	7.02078104019	-31.677532196	20.347442627
-15.9235963821	-25.292804718	-24.4194526672	6.65306663513	-32.1253967285	21.04870224
-14.80073452	-26.9921646118	-24.859992981	6.54767560959	-32.0696640015	21.3538074493
-13.6576137543	-27.993024826	-25.9042224884	6.78700447083	-31.9693050385	21.3493652344
-12.5076379776	-29.0309371948	-26.9842967987	7.1362195015	-31.8522853851	21.1782188416
-11.4778928757	-29.5865402222	-27.9834899902	7.53664636612	-31.8402099609	20.9537181854
-11.1365680695	-29.8891372681	-28.6347885132	7.91489839554	-32.3358230591	20.6297550201
-11.7071876526	-29.5696105957	-28.9909515381	7.96326065063	-32.9557952881	20.4312477112
-11.9016561508	-29.1828613281	-29.6350345612	7.63725471497	-33.1203536987	20.3582038879
-12.300611496	-28.6999206543	-29.8204574585	7.33432674408	-32.1145629883	20.1405563354
-12.4302244186	-28.4325065613	-29.4521026611	6.55137109756	-29.9368114471	19.8413600922
-12.4213571548	-28.4761199951	-29.5661220551	5.52963256836	-27.775636673	19.7517604828
-12.6723823547	-28.4441299438	-29.4579181671	5.04507446289	-26.2921791077	19.8089752197
-12.7355966568	-28.2743167877	-29.2870445251	4.62342309952	-25.363817215	19.7268638611
-12.7384204865	-28.0041542053	-29.3945598602	3.79057598114	-24.740272522	19.7613258362
-12.9146060944	-27.7442455292	-29.1817550659	2.96519732475	-24.2112808228	20.0938415527
-12.9464740753	-27.677690506	-29.0563468933	2.61496472359	-24.0762329102	20.5674991608
-13.037320137	-27.6407375336	-28.7987480164	2.38602614403	-23.9778137207	20.9354152679
-12.9559869766	-27.7672576904	-28.7545719147	2.17607235909	-24.1374206543	21.2744522095
-13.0227937698	-27.7081222534	-28.6566963196	2.15181303024	-24.4511871338	21.2769832611
-12.9721851349	-27.5220069885	-29.0721340179	2.15061378479	-24.6825771332	21.1463356018
-13.4360408783	-27.2871704102	-28.7216358185	2.35320878029	-24.5834236145	20.9246807098
-13.4714717865	-27.0319309235	-28.3510665894	2.4728345871	-24.4532871246	20.8132991791
-13.2551059723	-27.3433227539	-28.3792896271	2.55682754517	-24.2972679138	20.7316646576
-13.0989637375	-27.4471874237	-28.4790363312	2.65568065643	-24.171459198	20.7182312012
-13.197924614	-26.9306316376	-28.343667984	2.73256969452	-24.0544052124	20.5900993347
-13.597117424	-26.4242305756	-27.6561889648	2.59460687637	-24.0797405243	20.5575733185
-13.8759307861	-26.3292598724	-27.5653686523	2.40239739418	-23.9803962708	20.5081882477
-13.6937961578	-26.6681308746	-27.6930961609	2.3100733757	-23.9760456085	20.5889663696
-13.6120290756	-26.5166301727	-27.6835079193	2.39259386063	-23.9324436188	20.5276660919
-13.3828935623	-26.2912368774	-27.2854309082	2.51183509827	-23.8370094299	20.4588832855
-12.9178600311	-26.9825553894	-27.8165454865	2.58311796188	-23.7761268616	20.4102630615
-12.502820015	-28.0998973846	-29.0372562408	2.57389354706	-23.6768417358	20.5662841797
-12.3789424896	-28.8033161163	-29.8356456757	2.50045776367	-23.6414031982	20.5848789215
-12.5231218338	-29.5380744934	-29.7426929474	2.47283411026	-23.7369289398	20.6673736572
-12.6750802994	-29.6473064423	-29.6850814819	2.35799622536	-23.7970619202	20.6885280609
-12.9030866623	-29.8701019287	-29.5392532349	2.22162461281	-23.8529510498	20.7488555908
-13.0930633545	-29.8117847443	-29.6134872437	1.94504034519	-23.552022934	20.6949272156
-13.572725296	-29.9172668457	-29.5902347565	1.30204641819	-22.3745155334	20.7198963165
