0.0	-0.0	146.127563477	111.164848328	66.7677230835	40.7550544739
0.0	-0.0	147.528656006	110.600219727	66.6679840088	40.9832420349
0.0	-0.0	147.478286743	110.074012756	66.9494934082	41.4904632568
0.0	-0.0	147.378311157	108.227561951	67.870010376	42.3806190491
0.0	-0.0	146.282989502	100.631538391	70.6037597656	43.7962799072
0.0	-0.0	144.829101562	87.4023742676	71.6093292236	45.0085525513
0.0	-0.0	139.812408447	70.4071121216	69.7761230469	45.7892723083
0.0	-0.0	130.924240112	52.5533218384	66.0181350708	46.3269271851
0.0	-0.0	128.802597046	38.0491523743	61.5978813171	46.4359092712
0.0	-0.0	118.155181885	29.4737319946	56.213180542	45.2425460815
0.0	-0.0	89.6814041138	26.7803039551	50.5473251343	42.5891990662
0.0	-0.0	63.2773170471	28.0007514954	46.3646354675	38.7527732849
0.0	-0.0	51.0663719177	31.6689472198	43.8100509644	35.6243934631
0.0	-0.0	48.3848190308	34.2848625183	42.1286621094	34.1932029724
0.0	-0.0	46.6165618896	33.4943351746	40.1538162231	34.5210914612
0.0	-0.0	40.9232940674	30.1436443329	38.4288635254	35.3177871704
0.0	-0.0	37.6424942017	25.1054649353	39.573589325	36.5303077698
0.0	-0.0	35.3904457092	17.9033508301	41.1352729797	37.4575424194
0.0	-0.0	34.9120826721	12.2344112396	43.2583274841	37.8664588928
0.0	-0.0	37.4286460876	8.98112392426	44.0888671875	38.3561630249
0.0	-0.0	49.1457328796	6.05076646805	44.0493354797	39.6314353943
0.0	-0.0	68.4123306274	3.39967179298	42.8841514587	40.7958602905
0.0	-0.0	83.9455490112	1.36424195766	38.4776802063	40.7023162842
0.0	-0.0	94.5295410156	0.541434764862	29.1867351532	36.3681106567
0.0	-0.0	68.7493438721	5.39649677277	26.2511787415	28.6251754761
0.0	-0.0	50.4984970093	14.3106527328	27.4549312592	21.1225662231
0.0	-0.0	61.4145469666	23.269569397	30.9368228912	17.7058238983
0.0	-0.0	61.5912628174	26.8121929169	34.6681671143	19.5763492584
0.0	-0.0	66.8048706055	25.2459049225	37.3265914917	21.7070732117
0.0	-0.0	67.7810440063	23.8174171448	39.4548149109	24.0799179077
0.0	-0.0	70.9441757202	22.6867256165	40.5816307068	25.8605976105
0.0	-0.0	70.630241394	21.8946151733	40.3387451172	26.8294391632
0.0	-0.0	71.1365356445	21.3754272461	39.7293701172	27.5060482025
0.0	-0.0	81.7289123535	21.0331878662	39.2362251282	28.0158843994
0.0	-0.0	123.431274414	20.969329834	39.0083885193	28.4969825745
0.0	-0.0	128.759460449	21.1714878082	39.1619491577	28.4583930969
0.0	-0.0	128.050415039	21.23645401	38.9352607727	28.9707355499
0.0	-0.0	126.791603088	20.9777393341	38.4973106384	29.4124488831
0.0	-0.0	133.687805176	20.8896026611	37.4118652344	29.7269992828
0.0	-0.0	131.549377441	18.8740730286	34.9117965698	29.5566520691
0.0	-0.0	124.855102539	10.4513254166	35.4057769775	30.1068897247
0.0	-0.0	122.323112488	4.18461322784	38.8049430847	30.6140079498
0.0	-0.0	118.642051697	4.84964132309	40.2617683411	30.1770458221
0.0	-0.0	111.625541687	6.6262011528	39.3714179993	30.2848091125
0.0	-0.0	97.7248153687	7.453125	38.7226295471	30.369354248
0.0	-0.0	96.1551208496	8.581990242	39.0299987793	30.7039699554
0.0	-0.0	93.3479385376	9.63957500458	39.5190200806	31.0066585541
0.0	-0.0	98.4996185303	10.5450000763	39.2207260132	31.1989631653
0.0	-0.0	97.7337265015	11.5564613342	39.5675849915	30.4690628052
0.0	-0.0	104.106628418	13.5771350861	39.8236427307	28.4960002899
0.0	-0.0	103.361221313	18.0730991364	39.7295303345	25.0988311768
0.0	-0.0	91.6858596802	22.9625968933	39.6285629272	21.9438819885
0.0	-0.0	90.4799575806	25.4415645599	39.4133415222	20.7857761383
0.0	-0.0	88.7801589966	25.9086265564	39.6817131042	21.0564804077
0.0	-0.0	90.1083908081	24.8882484436	40.138469696	21.8270339966
0.0	-0.0	91.0524902344	23.5338916779	40.6864128113	22.3590869904
0.0	-0.0	95.6562423706	22.7561283112	41.2683372498	22.5004425049
0.0	-0.0	99.3120574951	22.801322937	40.8854370117	22.2271118164
0.0	-0.0	79.4669342041	22.3366394043	39.1772689819	22.2594490051
0.0	-0.0	79.3177947998	20.7497406006	36.7666053772	21.960893631
0.0	-0.0	39.3348999023	18.4970226288	35.5929069519	21.7264251709
0.0	-0.0	4.55481863022	16.1689929962	34.783782959	21.3449420929
0.0	-0.0	5.82998323441	14.9439573288	34.9713668823	20.8119678497
0.0	0.0	-36.3545341492	14.7447662354	35.8968429565	20.729932785
0.0	-0.0	-159.981765747	14.1487255096	37.1088066101	20.7170753479
0.0	-0.0	173.314682007	13.7806177139	39.4206047058	21.7466678619
0.0	-0.0	-170.364624023	12.1612577438	43.9471588135	25.3216552734
0.0	-0.0	-160.270767212	6.81619548798	49.0660514832	28.7213459015
0.0	-0.0	-154.255447388	0.845310509205	55.8431053162	30.2683506012
0.0	-0.0	-166.032028198	-6.36656141281	65.3415374756	29.8390789032
0.0	-0.0	-151.807617188	-15.044634819	79.3309402466	28.9027862549
0.0	-0.0	66.7141876221	157.843292236	87.5764694214	-150.927932739
0.0	-0.0	49.2450027466	157.851394653	85.6628875732	-149.394515991
0.0	-0.0	32.0680809021	161.18107605	87.6266860962	-149.379150391
0.0	-0.0	26.2470169067	-15.9199256897	89.9095458984	29.8033981323
0.0	-0.0	26.6615276337	-14.8079767227	89.4158477783	29.7046947479
0.0	-0.0	28.6941719055	-14.05448246	89.3990478516	29.1342849731
0.0	-0.0	25.0473690033	-11.5390224457	88.7128143311	25.607301712
0.0	-0.0	23.1299667358	-1.25148010254	87.2858505249	17.8924674988
0.0	-0.0	19.47797966	13.0040121078	84.7492752075	12.1792840958
0.0	-0.0	17.4449234009	19.4234313965	83.8858795166	9.95533657074
0.0	-0.0	16.9387073517	18.6055011749	84.4959106445	10.4504508972
0.0	-0.0	14.8160619736	17.4643936157	85.0774536133	11.8212537766
0.0	-0.0	13.4289989471	16.7921733856	85.3674316406	13.3691129684
0.0	-0.0	26.9822158813	15.4883489609	85.325630188	14.9684495926
0.0	-0.0	67.7466583252	14.7867507935	85.858581543	15.8057088852
0.0	-0.0	77.5895614624	14.4361820221	87.7164535522	16.6540184021
0.0	-0.0	75.7059860229	14.0600709915	88.8535461426	16.9693965912
0.0	-0.0	46.8478279114	13.65280056	88.8309402466	17.3629589081
0.0	-0.0	39.7334518433	13.0383148193	88.2692489624	17.8228225708
0.0	-0.0	32.2016105652	12.8361368179	88.2372360229	18.3591098785
0.0	-0.0	65.7669219971	13.0779695511	88.8084106445	18.8816623688
0.0	-0.0	42.2108573914	-165.917175293	89.6057739258	-160.915847778
0.0	-0.0	27.7033462524	-164.754684448	88.6531982422	-160.899307251
0.0	-0.0	41.3454475403	-163.244125366	87.9770889282	-161.011108398
0.0	0.0	-77.511505127	-161.786056519	86.9756698608	-161.371322632
0.0	0.0	-93.651008606	-161.648849487	87.6857223511	-161.908889771
0.0	0.0	-79.8781204224	-162.255096436	88.7621078491	-160.229660034
0.0	-0.0	-124.999061584	-163.901748657	87.7119598389	-158.327636719
0.0	0.0	-110.935943604	-164.573776245	86.2302780151	-158.239959717
0.0	-0.0	-127.787414551	-164.015869141	86.9342269897	-157.446914673
0.0	-0.0	178.287231445	-165.181945801	87.3490371704	-157.048019409
0.0	-0.0	149.203094482	-168.459823608	88.4671630859	-156.522598267
0.0	-0.0	168.188110352	-172.441696167	89.6741485596	-156.106231689
0.0	-0.0	176.659912109	4.73986816406	89.8631362915	24.4340419769
0.0	-0.0	170.066192627	-175.562133789	89.9901580811	-155.403503418
0.0	-0.0	160.613616943	5.1639790535	89.9443435669	24.9380073547
0.0	-0.0	120.532676697	5.46617984772	89.989692688	25.133556366
0.0	-0.0	68.5725021362	-174.217605591	89.9371414185	-154.775650024
0.0	-0.0	55.2421531677	5.8758597374	89.6270446777	25.6990413666
0.0	-0.0	65.5980377197	5.63758182526	89.1758041382	25.9897575378
0.0	-0.0	66.0774765015	5.11427211761	88.2682189941	26.1626739502
0.0	-0.0	67.1962432861	3.33721852303	85.7590179443	24.8173561096
0.0	-0.0	62.350402832	0.949862241745	80.9322433472	21.790851593
0.0	-0.0	59.6985740662	0.515364706516	75.2008361816	17.7378692627
0.0	-0.0	38.1375007629	2.59379410744	72.2902526855	15.5165710449
0.0	-0.0	26.5066146851	4.38914012909	70.1509933472	13.2190952301
0.0	-0.0	23.8874645233	5.15812540054	67.0120544434	11.1821870804
0.0	-0.0	51.5984077454	5.35514783859	65.2656326294	11.0490655899
0.0	-0.0	84.7147750854	5.6234588623	65.6516189575	11.6167287827
0.0	0.0	-69.2125396729	5.48755121231	66.8239059448	12.2449016571
0.0	0.0	-93.1515197754	5.17429018021	67.5757446289	12.8507661819
0.0	-0.0	-128.717147827	4.99307250977	67.8232421875	13.7608327866
0.0	-0.0	-175.366348267	4.82495450974	67.8290023804	14.0250453949
0.0	-0.0	173.222518921	4.77801275253	67.99584198	14.2169723511
0.0	-0.0	-179.802734375	4.39151573181	68.1116714478	14.2667284012
0.0	-0.0	-173.742279053	3.92762184143	68.4511108398	14.4177246094
0.0	-0.0	-168.434585571	3.86368370056	68.7243728638	14.8257331848
0.0	-0.0	-143.650436401	4.04950332642	69.0844039917	15.1731548309
0.0	0.0	-100.859092712	4.49230527878	70.0621871948	16.0110816956
0.0	0.0	-81.2322921753	5.84014081955	71.6316070557	16.7214317322
0.0	0.0	-83.5699462891	6.82476091385	72.2891464233	17.8707695007
0.0	-0.0	-150.247268677	7.20537281036	72.1535568237	19.5539455414
0.0	0.0	-110.277053833	7.5498008728	71.8443374634	20.1365776062
0.0	0.0	-59.5127716064	7.2333483696	71.8596954346	20.6185798645
0.0	0.0	-68.7715606689	7.54905033112	71.6610946655	20.7236385345
0.0	0.0	-61.4973335266	8.15068340302	72.2085952759	20.8853054047
0.0	0.0	-78.4202651978	7.96118879318	72.3341140747	21.5157756805
0.0	0.0	-65.7280578613	7.23785352707	72.8745880127	21.8324947357
0.0	0.0	-74.6384963989	6.75439357758	73.3718261719	21.9648227692
0.0	0.0	-79.5421447754	7.04787731171	73.9069213867	22.0993480682
0.0	0.0	-84.8437652588	7.2414317131	73.6691055298	22.4102516174
0.0	0.0	-34.2036781311	6.24274730682	73.6770782471	22.5121269226
0.0	0.0	-26.8998451233	5.3646812439	72.6649932861	21.8481063843
0.0	-0.0	36.7688598633	6.60222482681	71.9405136108	20.5697135925
0.0	-0.0	-169.250610352	9.16076278687	71.0399780273	19.5439682007
0.0	-0.0	-176.541534424	10.1511077881	70.80519104	19.0406074524
0.0	-0.0	-171.945159912	10.6949958801	70.58177948	19.0000648499
0.0	-0.0	-165.478652954	11.3135185242	70.4591522217	18.8562660217
0.0	-0.0	-165.624603271	11.6469659805	70.5998840332	18.909160614
0.0	-0.0	171.932220459	14.2201395035	70.6155929565	18.8903846741
0.0	-0.0	151.188980103	21.8452663422	71.7528457642	19.8520641327
0.0	-0.0	149.737411499	26.9769096375	73.2466812134	20.3507347107
0.0	-0.0	148.77885437	26.2999477386	74.4074783325	20.484998703
0.0	-0.0	127.431030273	22.9442405701	74.2308502197	20.4029750824
0.0	-0.0	100.694877625	19.4861469269	73.7823638916	20.3245506287
0.0	-0.0	86.3437042236	17.1896476746	73.8220062256	20.5023956299
0.0	-0.0	76.2936172485	16.0173015594	73.9030380249	19.9692707062
0.0	-0.0	76.9223403931	13.9815654755	72.225479126	18.8269462585
0.0	-0.0	78.7326660156	10.6491193771	68.5791168213	17.5076408386
0.0	-0.0	77.4471054077	6.87556505203	64.5366439819	16.9073543549
0.0	-0.0	81.2768936157	4.95252466202	60.8758811951	16.3853168488
0.0	-0.0	75.4354476929	5.11483430862	56.2472991943	15.4068508148
0.0	-0.0	72.4127502441	6.14661169052	50.6557044983	14.0996112823
0.0	-0.0	71.6738891602	6.41085290909	47.0807762146	13.9626903534
0.0	-0.0	72.8476867676	5.05831098557	45.2000236511	14.7616462708
0.0	-0.0	69.8788375854	3.05970168114	44.7825469971	16.2203941345
0.0	-0.0	71.0799255371	1.72197771072	45.0173377991	17.2214641571
0.0	-0.0	79.959236145	1.58768165112	44.3247108459	17.9296455383
0.0	-0.0	-174.129653931	1.23208880424	42.7993774414	18.2817058563
0.0	-0.0	-142.738876343	1.1893504858	41.283203125	18.4020824432
0.0	-0.0	-144.279006958	1.11345899105	40.5614891052	18.4390621185
0.0	-0.0	-145.30645752	1.01418924332	40.4360275269	18.4236030579
0.0	-0.0	-137.721801758	0.394673675299	40.5840072632	18.5924301147
0.0	-0.0	-126.812469482	-0.248477786779	40.8575515747	18.9664897919
0.0	-0.0	34.9111328125	-1.11337590218	41.9342765808	19.2738666534
0.0	-0.0	39.7965927124	-2.35370874405	43.9115905762	19.7429943085
0.0	-0.0	42.2557754517	-3.24203157425	46.3402137756	19.7833881378
0.0	-0.0	62.6226272583	-3.55292677879	49.1020278931	19.6828479767
0.0	-0.0	66.8847198486	-2.52985143661	52.1066246033	19.5040130615
0.0	-0.0	78.210647583	-0.953890502453	53.9522132874	19.0902805328
0.0	-0.0	78.2246322632	-0.759413719177	54.5026435852	19.2563800812
0.0	-0.0	62.6755332947	-1.19147360325	54.3503341675	19.6304893494
0.0	-0.0	77.71534729	-0.850598692894	53.9274635315	19.7020606995
0.0	-0.0	75.1481323242	-0.37186858058	54.077205658	19.4870681763
0.0	-0.0	77.7141952515	-0.0957253351808	54.065448761	19.1965332031
0.0	-0.0	90.090675354	0.614376664162	53.6614723206	18.7101669312
0.0	-0.0	84.6348190308	3.02293658257	52.8685264587	17.7354507446
0.0	-0.0	76.030380249	7.43155479431	52.1951179504	16.0886383057
0.0	-0.0	78.6310348511	12.5715913773	51.7263069153	14.1043300629
0.0	-0.0	75.8790969849	15.5952634811	51.7753334045	12.4450645447
0.0	-0.0	73.0814361572	15.6268997192	52.2339401245	11.8325252533
0.0	-0.0	75.0103530884	15.2900381088	51.5201644897	10.8639583588
0.0	-0.0	77.4833068848	15.4228506088	50.2786636353	9.78238296509
0.0	-0.0	63.7816238403	15.5853433609	49.0547904968	9.22852993011
0.0	-0.0	69.4465255737	15.1939535141	49.0122184753	9.12790679932
0.0	-0.0	80.7916564941	14.6354484558	50.1871566772	9.33775138855
0.0	-0.0	96.9616241455	13.7731695175	52.5381202698	9.9290895462
0.0	-0.0	117.634010315	12.2020969391	54.8172874451	10.8366556168
0.0	-0.0	113.513702393	10.7413702011	56.1325721741	11.5996837616
0.0	-0.0	119.308799744	10.7991323471	56.2040519714	12.1012897491
0.0	-0.0	155.816833496	12.1128768921	56.1717071533	12.2073764801
0.0	-0.0	-137.101593018	14.4464216232	56.3945045471	12.4899692535
0.0	0.0	-101.23891449	16.7220115662	57.1715240479	12.9048280716
0.0	0.0	-94.3139724731	17.7475166321	58.4944190979	13.2603349686
0.0	0.0	-88.5324401855	17.7732334137	60.9879722595	14.3803949356
0.0	0.0	-67.0646209717	17.4584369659	63.1802940369	15.5640668869
0.0	0.0	-42.7194595337	18.0867118835	66.9314422607	17.2551460266
0.0	0.0	-24.1389923096	18.1646156311	69.2231369019	17.1957473755
0.0	0.0	-14.2266712189	18.9877967834	70.1418380737	16.1479911804
0.0	0.0	-11.24522686	19.8297767639	69.3460845947	15.7244005203
0.0	0.0	-3.36889743805	19.9684238434	68.1932983398	15.639046669
0.0	-0.0	1.64643287659	20.8966903687	67.5734176636	16.2180938721
0.0	-0.0	29.1342468262	23.9428043365	72.5058517456	16.253446579
0.0	-0.0	47.0168838501	26.8773822784	77.1269836426	16.5117549896
0.0	-0.0	39.4209976196	27.931394577	79.2455062866	18.2668647766
0.0	0.0	-1.54002761841	26.4111652374	79.871421814	21.2586574554
0.0	0.0	-20.3987236023	22.8211975098	79.0585708618	24.3045539856
0.0	0.0	-20.0009288788	20.7097568512	78.6588058472	23.6928215027
0.0	0.0	-27.519569397	21.8745441437	80.1144866943	23.7162685394
0.0	0.0	-14.4059448242	22.0767478943	82.5627365112	23.4581890106
0.0	-0.0	2.26530218124	24.280544281	84.8490905762	21.7629985809
0.0	-0.0	2.43594670296	31.994468689	87.9855117798	19.9855270386
0.0	0.0	-3.58033418655	34.6753540039	87.2913208008	19.3075695038
0.0	0.0	-19.0775356293	30.3817043304	84.7941513062	21.4633197784
0.0	0.0	-8.39945697784	27.0504951477	85.4877471924	22.6187591553
0.0	-0.0	11.2272891998	27.7599925995	86.6878967285	22.2804374695
0.0	-0.0	10.1908597946	28.5597858429	84.1719741821	22.2030544281
0.0	-0.0	3.44921064377	27.4948673248	82.7690963745	21.5643863678
0.0	0.0	-10.7582187653	25.5051345825	80.197227478	20.8539733887
0.0	0.0	-74.9384994507	21.9757995605	77.5517501831	20.8972568512
0.0	-0.0	69.5394821167	20.5758743286	75.7363891602	20.7046375275
0.0	-0.0	34.7164611816	24.8879718781	78.0303192139	19.6847019196
0.0	-0.0	25.9911804199	28.6216125488	78.9530792236	19.085395813
0.0	-0.0	19.6437606812	28.0105705261	79.2655258179	19.5601119995
0.0	-0.0	31.6810035706	24.6025161743	80.4426498413	20.2919311523
0.0	-0.0	43.3680496216	21.4088611603	80.4352416992	20.9703216553
0.0	-0.0	52.0426139832	19.283700943	79.8394927979	21.6715507507
0.0	-0.0	18.588432312	17.9325904846	79.5363006592	21.6488876343
0.0	0.0	-8.48869895935	15.7291536331	78.150680542	20.9877319336
0.0	-0.0	12.5059299469	13.8687448502	74.1371002197	18.0727539062
0.0	-0.0	28.7570304871	14.8511667252	72.388168335	15.2953853607
0.0	-0.0	19.5951862335	17.5206012726	72.9611282349	14.5810861588
0.0	-0.0	-139.702835083	18.7413463593	73.8014526367	14.4010772705
0.0	-0.0	-153.882202148	19.0107727051	74.6845397949	14.671128273
0.0	-0.0	-150.188293457	18.6270256042	75.2444915771	15.5912103653
0.0	-0.0	-153.299087524	17.7561569214	75.1708602905	16.371307373
0.0	-0.0	-157.385269165	16.8484191895	75.1619338989	16.9659557343
0.0	-0.0	38.411567688	15.7828493118	74.5721435547	17.2879886627
0.0	-0.0	54.758014679	14.3871154785	73.7107086182	17.3350658417
0.0	-0.0	76.9784622192	12.790356636	73.4164733887	17.7355232239
0.0	-0.0	111.077590942	11.214094162	73.9181365967	18.0953903198
0.0	-0.0	114.164772034	10.819486618	73.6061401367	18.025812149
0.0	-0.0	1.97236824036	11.23320961	72.6598434448	17.9750156403
0.0	0.0	-9.46237659454	11.8746471405	71.8838424683	17.8514442444
0.0	0.0	-11.6582317352	12.3879423141	71.4713592529	17.7094554901
0.0	0.0	-14.7685213089	12.4862804413	71.3908920288	17.8546047211
0.0	0.0	-18.4224052429	12.5307283401	71.6926651001	18.0808353424
0.0	0.0	-26.3108787537	12.7429571152	71.4690246582	18.6647529602
0.0	0.0	-81.6079101562	13.0968389511	70.7846221924	19.9768733978
0.0	0.0	-117.462165833	15.2764663696	74.0822067261	20.0750732422
0.0	-0.0	-135.752029419	20.328414917	77.740524292	19.6129131317
0.0	-0.0	-131.26171875	25.6857681274	78.9646530151	19.1133384705
0.0	-0.0	-125.534095764	33.9828491211	78.9362945557	17.9636268616
0.0	0.0	-100.01007843	45.0114784241	79.3699493408	16.6845207214
0.0	0.0	-99.3008346558	52.6676368713	81.6598434448	16.3079910278
0.0	0.0	-115.264762878	55.3708457947	82.2527999878	17.7640686035
0.0	-0.0	165.988952637	55.4216995239	83.2796478271	19.0257854462
0.0	-0.0	145.418518066	54.1928329468	84.0531158447	20.3189620972
0.0	-0.0	143.904556274	52.0726966858	84.5348205566	21.3463249207
0.0	-0.0	100.171401978	50.8013687134	84.8700256348	21.9034862518
0.0	-0.0	66.6447296143	48.989780426	84.0356826782	22.4556617737
0.0	-0.0	49.9156265259	43.5315551758	82.3079071045	22.2836608887
0.0	-0.0	43.6286125183	37.5624694824	80.1494903564	22.4759044647
0.0	-0.0	45.7832260132	33.175945282	77.3950958252	22.3837165833
0.0	-0.0	46.1271438599	28.702501297	73.0966186523	21.9936695099
0.0	-0.0	34.5096626282	24.3284912109	68.5424194336	21.3431949615
0.0	-0.0	23.427728653	20.3724651337	63.9945373535	19.9276123047
0.0	-0.0	17.2765750885	18.0612640381	62.7201576233	19.4552669525
0.0	-0.0	18.618139267	17.4058475494	63.7490272522	20.0112514496
0.0	0.0	-0.610981404781	16.8804988861	65.435798645	20.6221466064
0.0	-0.0	-133.532241821	17.315864563	66.2290649414	21.2456245422
0.0	-0.0	-133.809417725	17.1329994202	66.4122467041	21.6808624268
0.0	-0.0	-134.151596069	17.2588615417	66.4079055786	21.8108844757
0.0	-0.0	-133.41267395	17.6825447083	66.5598678589	21.7121677399
0.0	-0.0	-127.322555542	18.0881309509	66.6964035034	21.6780509949
0.0	-0.0	-125.666412354	18.4978847504	67.1581878662	21.5872821808
0.0	-0.0	-143.750213623	19.1944046021	67.3550491333	21.1748790741
0.0	-0.0	-159.638946533	21.3775577545	67.1418533325	20.6056613922
0.0	-0.0	-176.104476929	26.7638607025	67.4678955078	19.6625671387
0.0	-0.0	170.983779907	34.3087005615	67.7323074341	18.9454288483
0.0	-0.0	148.783508301	39.4546470642	68.6361312866	18.5873241425
0.0	-0.0	133.070388794	40.6389274597	69.3792800903	18.7174892426
0.0	-0.0	129.583175659	38.7724075317	69.8491134644	19.7106075287
0.0	-0.0	120.150512695	35.1663780212	69.8328857422	20.594367981
0.0	-0.0	110.692840576	31.0890026093	69.28565979	21.1204929352
0.0	-0.0	101.59021759	25.4532432556	68.1283874512	21.0900440216
0.0	-0.0	94.5360565186	19.0398159027	66.3062362671	20.7367324829
0.0	-0.0	85.599319458	13.7511301041	63.1938171387	20.8781166077
0.0	-0.0	78.6222686768	9.89842796326	60.1143531799	20.8940906525
0.0	-0.0	81.6745452881	7.51096057892	57.8805160522	20.624124527
0.0	-0.0	80.0864944458	5.82423114777	54.3456993103	19.5251846313
0.0	-0.0	80.2660980225	5.2974152565	49.8810653687	19.1788024902
0.0	-0.0	80.5250549316	6.03325080872	46.4021720886	19.3512535095
0.0	-0.0	82.0629348755	7.89574384689	43.6222076416	19.2557735443
0.0	-0.0	83.7366790771	12.0988092422	41.6572151184	18.9500293732
0.0	-0.0	85.678855896	15.5067129135	39.8384780884	18.7263393402
0.0	-0.0	88.7933044434	16.3869132996	37.8647079468	18.3911743164
0.0	-0.0	91.1905288696	16.087387085	34.9107170105	18.4914417267
