-24.3392028809	-3.09190106392	-35.4961051941	19.5319290161	3.20116519928	35.0894050598
-24.3509407043	-3.02835798264	-35.2967300415	19.5121326447	3.44637703896	34.9805107117
-24.2253303528	-3.05378770828	-35.2068634033	19.2818431854	3.66780757904	34.8620452881
-24.229970932	-2.98410820961	-34.7041854858	18.8590927124	3.9186501503	34.6544685364
-24.3095989227	-3.00662899017	-34.5674095154	18.3833141327	4.0256319046	34.7355499268
-24.475725174	-3.07533383369	-34.5403137207	17.8600978851	4.18615484238	34.83436203
-24.4635372162	-2.80899262428	-34.7294807434	17.6174373627	4.61943626404	34.6568756104
-23.8300380707	-1.73711228371	-36.6220169067	17.644657135	4.90320968628	34.5471611023
-21.5879821777	1.11626327038	-40.1870765686	17.3718338013	5.30987596512	34.3935546875
-19.4402198792	3.54965090752	-41.3037757874	17.073633194	5.90681552887	34.1512413025
-17.8422050476	6.66140127182	-44.3733673096	16.6972084045	6.54565763474	33.9378814697
-16.4130115509	12.2493906021	-50.2626113892	16.394197464	7.02029275894	33.801361084
-15.1898756027	18.5488090515	-55.2047195435	16.2783813477	7.36504411697	33.7765655518
-14.3895254135	21.9483509064	-56.7773475647	16.1613044739	7.81545543671	33.6918182373
-14.137011528	22.8217773438	-56.4654083252	15.9434671402	8.41155719757	33.4408111572
-13.6361255646	24.2455310822	-54.9426689148	15.8672389984	9.09654808044	33.1238174438
-12.1697273254	25.4739665985	-52.4196662903	15.338517189	9.96908569336	32.4932785034
-11.3856420517	26.3921413422	-51.0797615051	14.5800056458	11.1544780731	31.7652397156
-10.667675972	26.9450645447	-50.0891876221	14.3066062927	13.1933383942	30.9582767487
-10.4466600418	26.8854122162	-49.397026062	14.148724556	16.863817215	29.6564941406
-10.2319526672	26.5821285248	-48.9521217346	13.5817623138	20.1089668274	28.3372344971
-9.97581481934	26.6887226105	-48.5614585876	13.4704961777	21.8128967285	28.0055503845
-9.29184627533	26.4093589783	-47.1465759277	12.7027826309	23.1820163727	27.483297348
-8.81348514557	25.8942775726	-45.439125061	11.4454183578	24.7990665436	26.630563736
-8.92952442169	26.0266189575	-44.841999054	9.91959476471	26.6874465942	25.5997772217
-8.99668979645	25.9564838409	-44.4956359863	7.94664716721	28.8655223846	24.3302688599
-9.42117214203	25.5944576263	-43.995891571	5.51703500748	30.4741840363	22.8099746704
-9.69118022919	25.5170764923	-43.6652374268	3.27696990967	31.2274074554	21.2300128937
-9.85046958923	25.4403171539	-42.6811103821	2.24194860458	31.5315914154	20.4358253479
-10.2404556274	25.5376224518	-42.4496803284	2.6375772953	31.4366416931	20.5091819763
-10.3294363022	25.4665050507	-41.4220199585	3.01026010513	31.3786144257	20.5828399658
-10.1829957962	25.0874195099	-39.3711242676	2.98669528961	31.5560894012	20.4926128387
-10.045800209	24.8068294525	-37.0676994324	2.71149420738	31.8503036499	20.4442806244
-9.74169254303	25.6948356628	-36.0643806458	2.22422647476	32.2620773315	20.3273162842
-9.48626422882	26.6620464325	-35.779132843	1.84019768238	32.7300071716	20.2346458435
-8.9257068634	26.4880504608	-33.8253364563	1.31948304176	33.2221412659	19.9166889191
-8.61835193634	26.7227153778	-32.4402389526	0.689315319061	33.6069984436	19.490228653
-8.84583091736	27.1762008667	-32.1278457642	0.380829840899	33.8208007812	19.3150672913
-9.13843250275	26.99467659	-31.7034893036	0.215994775295	33.9379997253	19.2082996368
-9.52716636658	26.5957393646	-30.3281745911	0.122555181384	34.0556259155	19.0764751434
