-54.3842277527	-83.9281692505	142.480606079	17.6388492584	-3.61275410652	11.9011898041
-54.7875022888	-84.1437454224	142.660827637	17.6708030701	-3.70181179047	11.9606924057
-54.9386405945	-84.1020355225	142.68057251	17.5639209747	-3.711987257	11.9423065186
-51.6929626465	-83.8418579102	138.916717529	16.7109603882	-2.91039299965	12.0913076401
-41.2952537537	-83.3650131226	126.530319214	15.4563941956	-1.37873864174	12.5018177032
-22.3212909698	-81.795501709	102.267959595	13.9771442413	0.665990531445	13.3456773758
-8.22098731995	-78.4510192871	78.2649993896	11.754535675	3.13204264641	14.2934522629
2.72304725647	-72.3508300781	55.0276756287	9.20404815674	6.02861595154	14.2910614014
8.76680374146	-66.3478088379	37.4793167114	6.41245174408	8.87155628204	13.3208742142
10.0025253296	-59.7743148804	20.9266147614	3.76300787926	10.4405078888	11.9973087311
6.2426571846	-53.2236175537	6.64403343201	1.52659738064	11.0025539398	10.7850732803
1.30764460564	-47.2335357666	-10.3726596832	0.109249047935	11.4991407394	9.65822696686
-4.32021474838	-44.3763809204	-25.2446708679	-0.222905114293	12.0745744705	8.71291160583
-7.89902734756	-42.8162155151	-35.1431236267	0.0350288487971	12.7822999954	8.381316185
-9.04058837891	-41.3033332825	-44.3505249023	-0.120221883059	13.137969017	8.32228183746
-10.1336193085	-40.2532424927	-54.0069274902	-0.853771924973	13.3659572601	8.28514194489
-9.73308181763	-38.0187835693	-65.9174957275	-2.23201870918	13.9259471893	8.13112354279
-7.56919670105	-36.0177879333	-72.6819915771	-3.51396799088	14.9138708115	7.85817146301
