0.166791915894	1.48784923553	0.139066576958	0.0501511096954	1.65302240849	-0.179923415184
0.167001962662	1.48801493645	0.13841688633	0.0501742362976	1.65304803848	-0.18049454689
0.167214870453	1.48802697659	0.13818526268	0.0501449108124	1.65294003487	-0.180626392365
0.167669534683	1.48772549629	0.137941360474	0.0501863956451	1.65220069885	-0.180461883545
0.166449308395	1.48599326611	0.138347029686	0.0492055416107	1.6500531435	-0.179425001144
0.16512465477	1.48406302929	0.138644099236	0.047206401825	1.6471452713	-0.177629351616
0.163003206253	1.48280072212	0.139526128769	0.044296503067	1.64326906204	-0.175431728363
0.159190177917	1.48281157017	0.139875769615	0.0400450229645	1.63880109787	-0.172692537308
0.154848814011	1.48347556591	0.14004945755	0.0346672534943	1.63507938385	-0.170514345169
0.151633501053	1.4843211174	0.140775918961	0.0291469097137	1.6318385601	-0.168806910515
0.148204088211	1.48449373245	0.141469359398	0.0261843204498	1.62879228592	-0.167804002762
0.145467042923	1.48447418213	0.143003582954	0.0267481803894	1.62720179558	-0.167440056801
0.146013021469	1.48495149612	0.143564581871	0.0282547473907	1.62654006481	-0.167483448982
0.14740228653	1.48536801338	0.145559549332	0.0284786224365	1.62605571747	-0.167728185654
0.151153087616	1.48515546322	0.148714661598	0.0269026756287	1.62468862534	-0.168233156204
0.156556129456	1.48393511772	0.152823448181	0.0243463516235	1.62242996693	-0.168497681618
0.162253141403	1.48252248764	0.156387925148	0.0213770866394	1.6200991869	-0.168947935104
0.163936376572	1.48063981533	0.158337593079	0.0198636054993	1.61943566799	-0.169592142105
0.162845849991	1.48015010357	0.158250570297	0.0195803642273	1.61956465244	-0.170125007629
0.16455078125	1.47835659981	0.160847663879	0.0182025432587	1.61928725243	-0.170573353767
0.165775060654	1.47567784786	0.165019273758	0.0169241428375	1.61861872673	-0.170802354813
0.167771100998	1.4764456749	0.164064407349	0.0164885520935	1.61856484413	-0.170986771584
0.166831016541	1.48002243042	0.160309553146	0.016223192215	1.61889708042	-0.170927524567
0.165815830231	1.480509758	0.160751700401	0.0160830020905	1.61887681484	-0.170825004578
