-64.7920379639	-84.1293716431	146.305953979	26.7103824615	-2.65608406067	17.5007324219
-64.7371444702	-84.1150283813	146.214675903	26.7058067322	-2.58108186722	17.584274292
-63.2414970398	-84.193687439	144.54234314	26.2806224823	-2.4704105854	17.6232681274
-59.9103279114	-84.1114730835	140.721328735	24.2484779358	-2.79304265976	17.2954120636
-47.0245437622	-84.1719360352	126.073272705	19.9545917511	-4.24933195114	16.6954956055
-30.9649448395	-84.0355453491	107.824081421	15.8620662689	-7.05931758881	16.8319129944
-26.3143615723	-83.7208862305	100.976234436	12.618765831	-9.80202007294	17.4331493378
-19.8539085388	-83.1812057495	90.4811630249	8.21546649933	-12.6955404282	18.1090068817
-5.75618457794	-80.1084747314	66.7849655151	2.70602321625	-15.7223167419	19.2366771698
2.32613396645	-76.6652755737	48.2531394958	-2.4272108078	-18.4684829712	20.8626804352
6.52873420715	-69.0859451294	27.5349311829	-6.63682079315	-21.2802009583	23.6786136627
2.19427108765	-52.9323387146	2.66973686218	-9.44183349609	-23.3210983276	25.9292583466
-13.3790340424	-44.3126068115	-16.1519985199	-9.10394001007	-23.8929100037	26.6346817017
-28.0296573639	-45.621925354	-32.069644928	-5.07776546478	-23.2734069824	25.534204483
-36.3305473328	-52.5963172913	-39.106918335	0.946705281734	-23.5476360321	23.5433883667
-46.6360359192	-61.6662864685	-39.7838439941	5.01760339737	-24.9685001373	22.2092895508
-54.326133728	-67.7182388306	-39.5198440552	7.32333993912	-26.1789512634	21.6699256897
-48.2312889099	-69.0880355835	-48.5678329468	8.34674835205	-26.4109020233	21.454706192
-35.7961769104	-68.4687194824	-64.5016555786	8.78520202637	-26.6919460297	21.696352005
-27.3246974945	-65.5620117188	-74.3850250244	7.00240516663	-25.950334549	22.321521759
-25.6052761078	-65.2204971313	-77.8684310913	4.9227809906	-24.9396877289	23.3439903259
-23.8375434875	-66.1066665649	-82.4943618774	4.34958267212	-24.2714881897	23.6948890686
-23.6082897186	-67.4778289795	-85.0168228149	4.72054052353	-24.0010910034	23.5184745789
-27.0535335541	-69.007484436	-82.8649139404	4.5667886734	-23.9987506866	23.5655517578
-29.8744411469	-69.4485397339	-80.2726821899	3.91300845146	-24.3960552216	23.8999958038
-29.0498256683	-69.40675354	-80.9551391602	3.44153189659	-25.1245136261	24.2955150604
-27.5915546417	-68.784538269	-82.3339920044	3.65311050415	-25.3799705505	24.2832431793
-28.5714225769	-68.8006820679	-81.2697143555	4.76316404343	-25.3326778412	23.968914032
-29.8470039368	-68.7614822388	-79.7167510986	7.69924259186	-25.7833461761	22.4426212311
-31.6709079742	-68.5269927979	-77.1088180542	11.6079845428	-26.7286758423	19.9466838837
-31.2971591949	-68.2128982544	-77.2728118896	12.0348939896	-26.8092575073	19.4665241241
-30.8912277222	-68.4551620483	-77.8152542114	9.97542476654	-26.4035816193	20.639509201
-31.5553627014	-68.5458145142	-77.3709182739	9.0725030899	-26.4321079254	21.1031017303
-31.1729621887	-68.3932342529	-78.2694549561	10.161696434	-27.0383911133	20.2640895844
-30.4237098694	-68.2003555298	-79.5771560669	11.1190223694	-28.1385746002	19.240114212
-30.3000469208	-68.7779922485	-80.3089675903	10.4685983658	-28.9157104492	19.1521949768
-27.2571048737	-69.1522827148	-84.5477142334	9.54856872559	-28.5377655029	19.4117450714
-25.056760788	-69.2162475586	-86.3609695435	9.49341201782	-27.8341617584	19.4059867859
-22.8471927643	-68.9999694824	-87.521194458	9.31384181976	-27.0512390137	19.527557373
-21.455198288	-68.2547988892	-87.9202575684	8.49792480469	-25.7831802368	19.7637863159
-21.6687278748	-67.6700210571	-87.1059494019	6.63616466522	-23.6603870392	20.2690410614
-23.1515007019	-67.8962860107	-85.4349822998	5.28102588654	-22.9002513885	20.8494415283
-23.7540245056	-67.474319458	-84.6241455078	3.39748072624	-22.6718502045	21.6522750854
-23.5762443542	-67.4697799683	-84.8890838623	2.59629678726	-22.8506813049	22.1762180328
-23.907913208	-67.51171875	-84.7415313721	2.46000695229	-23.2495498657	22.3950405121
-23.128162384	-67.2710647583	-85.9386444092	2.61751651764	-23.4607696533	22.3774681091
