0.0498144626617	1.45259833336	0.046571969986	0.0131506919861	1.65394544601	-0.174381971359
0.0491089820862	1.4526911974	0.0466742515564	0.0122241973877	1.65397143364	-0.175368905067
0.0487217903137	1.45260989666	0.0467612743378	0.0109004974365	1.65451669693	-0.176043987274
0.0481197834015	1.45184278488	0.0472655296326	0.0070366859436	1.65456056595	-0.175464868546
0.0469977855682	1.45078372955	0.0478658676147	-0.00263833999634	1.65313541889	-0.172714829445
0.0454244613647	1.44902873039	0.0498291254044	-0.0150492191315	1.65078544617	-0.169560074806
0.0446400642395	1.44761168957	0.0520691871643	-0.026563167572	1.64876425266	-0.167356729507
0.0418434143066	1.44655489922	0.0540201663971	-0.0353705883026	1.64742612839	-0.165656089783
0.0399758815765	1.44618618488	0.0546411275864	-0.0409786701202	1.64581096172	-0.164092540741
0.0386989116669	1.44600701332	0.0540697574615	-0.0435566902161	1.64494800568	-0.16247522831
0.0386433601379	1.44603121281	0.0542460680008	-0.0432925224304	1.64497494698	-0.160684108734
0.0395340919495	1.44560885429	0.0546211004257	-0.0425977706909	1.64499938488	-0.159281373024
