-103.35710144	-82.1122894287	139.165466309	16.7846431732	-7.34483480453	8.88361930847
-103.198806763	-82.1479187012	138.989730835	16.6561565399	-7.39588832855	8.89050102234
-102.326156616	-82.2467575073	138.121322632	16.6478748322	-7.29130220413	8.89089012146
-102.322212219	-82.3706512451	138.068496704	16.6045856476	-7.24459409714	8.85836982727
-101.900382996	-82.3405609131	137.585647583	16.3731212616	-7.13480234146	9.02019405365
-101.676597595	-82.5036697388	137.205978394	15.4721984863	-7.09130048752	9.43523216248
-102.068603516	-82.5062942505	137.347473145	13.9345321655	-7.1703619957	9.60209751129
-101.696411133	-82.4240264893	136.75579834	11.9200639725	-7.06202077866	9.84481525421
-102.469398499	-82.3531265259	137.082336426	9.17874526978	-6.72173118591	10.1066627502
-104.085655212	-82.3877029419	138.428894043	6.76677894592	-6.33766460419	10.2317590714
-104.087265015	-82.4689102173	138.178878784	5.19781112671	-6.1564540863	10.4665622711
-104.017585754	-82.4991073608	137.710342407	3.2669069767	-5.69778203964	10.6471986771
-98.1863327026	-82.9501495361	130.005493164	0.536362886429	-5.10843706131	10.7773923874
-96.693031311	-82.9496307373	128.25352478	-2.62190842628	-4.57794857025	10.9309139252
-88.9563598633	-83.6236114502	118.843887329	-5.39010334015	-3.95885181427	11.2592077255
-85.3984680176	-83.8066711426	114.402458191	-7.16666507721	-3.62762737274	11.5294513702
-76.0295028687	-84.053565979	103.177825928	-8.37882614136	-3.43126726151	11.6310939789
-65.3582077026	-84.1147079468	90.2643814087	-9.87565803528	-3.33911585808	11.6305837631
