-126.732284546	-80.6276321411	137.206848145	10.0680370331	-6.11160707474	3.6427154541
-126.895187378	-80.4791870117	137.359344482	10.0987100601	-5.82536506653	3.65338015556
-126.666374207	-80.4801177979	137.130554199	10.0301990509	-5.64841461182	3.54800009727
-127.021087646	-80.4962310791	137.644973755	10.0889492035	-5.86071157455	3.63174939156
-127.334747314	-80.5528488159	138.087173462	10.5344400406	-6.59825086594	3.74856829643
-121.733795166	-81.4453582764	129.708480835	11.1416568756	-7.61867570877	3.66696190834
-120.443565369	-80.970199585	125.266647339	11.5060606003	-9.68421077728	3.41053342819
-120.512008667	-79.8859863281	122.906227112	11.7212991714	-13.0954656601	2.6743850708
-121.488899231	-78.9580307007	122.562164307	11.7734985352	-16.8081550598	1.98777556419
-122.581962585	-78.5999450684	121.92225647	11.9846143723	-19.5440635681	1.20972800255
-120.355880737	-79.4755477905	114.182487488	12.9573974609	-20.9970188141	0.232514485717
-113.930809021	-79.1147155762	99.5365219116	15.6547584534	-21.518404007	-1.28683567047
-114.545455933	-78.5441894531	94.1503295898	19.969203949	-21.5958480835	-3.23639082909
-113.608779907	-78.2992172241	89.4122467041	22.4994945526	-21.4470806122	-4.17763090134
-115.683898926	-77.3355178833	90.629447937	22.534948349	-21.9375648499	-4.14612770081
-115.326904297	-76.9588470459	90.4440078735	21.7152290344	-22.6149673462	-3.89124321938
-116.169662476	-76.6324539185	91.2535324097	21.4080963135	-24.0315475464	-3.90764594078
-118.284553528	-76.1982879639	92.4669723511	21.4815311432	-25.4968280792	-3.94405245781
-119.499160767	-75.6963348389	92.7358322144	21.4989299774	-26.4129238129	-4.00372886658
-120.413574219	-75.5252532959	92.4589767456	21.7834396362	-27.1751251221	-4.19166755676
-120.655296326	-75.5868606567	89.5622329712	22.0662555695	-27.8030261993	-4.41543865204
-117.414611816	-75.1858139038	84.6512756348	21.8889713287	-27.6201400757	-4.41261005402
-111.76524353	-73.566619873	76.8313369751	21.9187164307	-26.715839386	-4.20843553543
-108.48538208	-72.1042251587	72.255027771	22.1596889496	-25.7271881104	-3.84105372429
-107.40990448	-71.5703353882	70.6234359741	22.315700531	-24.9535675049	-3.61882257462
-107.58203125	-71.4347686768	70.316986084	21.8480682373	-24.1800994873	-3.25055575371
-108.182556152	-71.399520874	70.0207366943	21.6007404327	-23.2661094666	-2.96385455132
-108.808677673	-71.2611999512	70.0525817871	21.1713199615	-22.3938579559	-2.56059288979
