5.8845334053	-3.32388758659	-6.36349201202	10.8758993149	1.56341207027	35.4741821289
6.04868984222	-3.03484249115	-6.3462138176	10.9112558365	1.6232663393	35.4933013916
6.15239858627	-3.0243973732	-6.30842924118	10.9383449554	1.74313163757	35.3456268311
6.14091444016	-3.16769814491	-6.17760038376	10.795583725	1.89806771278	35.2158317566
5.97503232956	-2.96894788742	-6.23403596878	9.98905563354	1.82052302361	35.2125282288
5.43669223785	-2.84506559372	-6.31470632553	8.32043266296	1.44908857346	35.1569633484
4.51278162003	-3.16364431381	-6.26063156128	5.22777175903	0.421636909246	34.8844337463
3.10999560356	-4.18542957306	-5.73242521286	1.36968708038	-1.28174781799	34.569858551
0.72783190012	-6.58426761627	-4.53887701035	-2.8117120266	-3.41182994843	34.5686607361
-2.22661280632	-10.0110654831	-3.02360844612	-6.7242193222	-5.07922935486	35.0408821106
-4.65894937515	-14.1187677383	-1.95551669598	-8.80236148834	-6.57304573059	36.293384552
-6.56850624084	-17.1697349548	-2.09708333015	-9.73679828644	-9.02413368225	38.5301017761
-8.46063613892	-19.3253059387	-3.05773711205	-10.0002584457	-11.1400718689	39.5404167175
-11.1541519165	-21.4145278931	-4.29417562485	-10.5454063416	-12.437338829	39.0265884399
-12.9169387817	-22.5667629242	-4.23017883301	-11.5693540573	-13.1095895767	38.4075546265
-14.3618583679	-26.5639858246	1.2997559309	-12.3583459854	-13.5463886261	38.081413269
-14.1567411423	-28.4460601807	4.71074008942	-12.8169651031	-13.6392612457	37.2200508118
-15.1378479004	-30.0528392792	7.28728485107	-13.8738441467	-12.46007061	34.9045753479
-15.2429513931	-30.0281829834	7.27430343628	-15.2647533417	-11.2844457626	32.3013534546
-15.5178146362	-30.5077571869	6.76815700531	-13.9873065948	-11.2684059143	31.2745189667
-16.4453449249	-30.6070194244	6.77914237976	-10.5456495285	-12.0233392715	30.02917099
-16.7582149506	-30.9381523132	6.75900793076	-8.40221405029	-12.9336357117	28.1257019043
-16.6790904999	-31.1634464264	6.52442455292	-7.50555419922	-13.7129392624	26.6346683502
-16.7026157379	-31.3423194885	6.50619602203	-6.41851949692	-14.1404380798	25.9490375519
-16.6277561188	-31.4152812958	6.55877971649	-5.30983114243	-14.1410751343	25.6753501892
-16.4810333252	-31.3537158966	6.45494890213	-3.26213788986	-14.4498500824	25.4233093262
-16.4479293823	-31.293548584	6.42362070084	-0.540393650532	-14.9628992081	24.5577068329
-16.5090370178	-31.2310523987	6.32627105713	1.85841691494	-15.3304662704	23.4017810822
-16.6674041748	-31.3598918915	6.31743478775	3.23631691933	-16.3003501892	22.2644882202
-16.6561965942	-31.2537250519	6.09650945663	3.90326976776	-18.0055713654	20.8860912323
-16.389175415	-30.7050704956	5.2507481575	4.85758590698	-19.3213806152	18.8497982025
-16.5131893158	-30.5599651337	4.94477272034	6.60980033875	-19.3126354218	15.9847993851
-16.6530723572	-30.9031333923	4.59760951996	7.86287355423	-18.7067775726	14.2891988754
-16.9006214142	-31.169511795	4.43107223511	8.49675750732	-18.4089164734	13.2700595856
-16.6462001801	-31.2912158966	4.49214792252	8.96037578583	-18.5918254852	12.3782091141
-16.2337493896	-30.8391094208	4.18354892731	9.03573226929	-18.6063327789	11.899682045
-15.2933511734	-30.3662242889	3.70636844635	9.06865787506	-18.5168914795	11.8983755112
-15.1561374664	-30.6509227753	3.52072167397	8.72113037109	-18.2923755646	12.1445550919
-14.8096475601	-31.3861980438	3.54095578194	8.67160511017	-18.3775444031	12.3583126068
-13.8150434494	-32.3008880615	3.22532296181	8.682264328	-18.7286624908	12.2959442139
-13.128288269	-32.7307510376	2.71662783623	8.91333866119	-19.5237407684	12.0640039444
-13.2114562988	-33.1592483521	2.82022666931	8.71115970612	-20.2907600403	12.0572500229
-13.269036293	-33.9649009705	3.0691883564	8.13367080688	-20.2751712799	12.4588708878
