0.177624940872	1.48039245605	0.103001356125	0.0810878276825	1.6468180418	-0.134003281593
0.176622867584	1.48130488396	0.102445483208	0.0802874565125	1.64697778225	-0.134652614594
0.175598621368	1.48145210743	0.102253437042	0.0791976451874	1.64716768265	-0.135137319565
0.17481637001	1.48120427132	0.10310792923	0.0783619880676	1.64745485783	-0.135490655899
0.174334526062	1.48146128654	0.10270011425	0.0780220031738	1.64713764191	-0.135551691055
0.172598838806	1.48157775402	0.101610422134	0.0773460865021	1.64653074741	-0.134892702103
0.172021865845	1.4812489748	0.101181745529	0.0764772891998	1.64632415771	-0.134150266647
0.170572757721	1.48099577427	0.101514339447	0.0754613876343	1.6459249258	-0.133489370346
0.169011592865	1.48038935661	0.101890325546	0.0736932754517	1.64528381824	-0.13272023201
