-8.46790885925	-2.13774871826	-26.3853111267	-7.02939796448	0.902960002422	35.4074668884
-8.58827400208	-2.1509001255	-26.1981887817	-7.20032072067	0.979629278183	35.6048431396
-8.68274974823	-2.35558700562	-26.0431900024	-7.32264471054	1.116776824	35.7136611938
-8.97191429138	-2.57871460915	-25.8655223846	-7.27803707123	1.49054968357	35.7506637573
-8.5842628479	-1.32355105877	-26.4590263367	-6.8455247879	3.06992506981	35.3560600281
-8.65185451508	-0.186240002513	-27.5556240082	-6.51466846466	4.80390405655	34.7555618286
-8.53430938721	1.62378489971	-29.384979248	-6.25991868973	6.62267827988	33.8576431274
-7.77665376663	4.83021354675	-31.6700744629	-6.44472312927	9.37501525879	32.3220787048
-7.17070102692	6.82532310486	-33.1426353455	-7.16882753372	12.3951053619	30.3075332642
-6.77882099152	8.73245429993	-34.6910438538	-7.96920394897	15.5317211151	28.0018749237
-7.27424573898	11.2228374481	-37.3049736023	-8.80860900879	18.9827213287	25.3580360413
-7.21883058548	13.2681913376	-38.7114601135	-8.8895111084	21.1331176758	23.4749965668
-7.08021020889	13.5948200226	-38.8617172241	-8.71544933319	22.3408718109	22.6134395599
-7.3595032692	13.4543247223	-39.0685462952	-9.38980388641	23.3720474243	21.8150444031
-7.55887460709	13.4074754715	-39.3216514587	-11.4917802811	25.0294895172	20.2528896332
-7.69399785995	13.5463762283	-39.2085418701	-14.8306932449	27.1772098541	17.5126228333
-7.54842710495	12.199798584	-37.4405174255	-16.4078178406	27.7805671692	15.9142799377
-7.03077983856	8.63949584961	-33.4852485657	-15.0747117996	27.2179412842	16.3904190063
-6.94341468811	7.57575273514	-32.8066978455	-12.9829540253	26.5618877411	17.2565174103
-6.92467975616	5.38250875473	-29.5680904388	-11.225189209	25.5287971497	17.8435134888
-7.07216691971	6.28781843185	-27.9409923553	-10.0578165054	24.7536716461	18.1292324066
-8.85828971863	9.08737373352	-28.0470561981	-9.60748291016	24.3694324493	18.3816299438
-10.415553093	14.1060256958	-30.6761283875	-9.58431339264	24.2453479767	18.5410060883
-12.8648824692	16.3253993988	-33.7341575623	-9.88788986206	24.1933822632	18.5417613983
-13.6530637741	17.548740387	-35.2593955994	-10.2649078369	24.3063983917	18.4896602631
-15.3207044601	19.6346645355	-38.3877906799	-10.480225563	24.4163169861	18.3977394104
-16.3289985657	19.7406597137	-38.8439216614	-10.5570402145	24.4832210541	18.3573608398
-16.00922966	17.8185443878	-35.7620811462	-10.5214214325	24.4625110626	18.3219184875
-15.0723352432	16.6020927429	-34.8898506165	-10.4082937241	24.5428104401	18.3197116852
-14.5330696106	16.3608093262	-34.8522071838	-10.5216741562	24.6634082794	18.1633224487
-14.3141212463	16.4106082916	-34.8462295532	-10.5452365875	24.7364120483	18.1253433228
-14.2610855103	16.6246109009	-35.049369812	-10.4693746567	24.7671165466	18.0918712616
-14.3578901291	16.3458538055	-35.2664375305	-10.3557891846	24.7310009003	18.0531635284
-14.3021383286	16.0438632965	-35.3331222534	-10.3149852753	24.7363700867	17.9808120728
-14.3224163055	16.0435085297	-35.5128593445	-10.2864046097	24.686378479	18.0565090179
-14.4481906891	15.7868652344	-35.889919281	-10.2955875397	24.6261672974	18.0988769531
-14.5333347321	15.6680679321	-37.3496131897	-10.2454090118	24.5833053589	18.2062187195
-17.0549354553	19.3733673096	-40.3446426392	-10.1417007446	24.4715385437	18.2458953857
-18.7824821472	19.2560176849	-40.465057373	-10.249666214	24.3158111572	18.1887569427
-18.1032791138	17.7006664276	-39.1977539062	-10.4613285065	24.4390544891	18.1587162018
-15.3620872498	14.3116350174	-35.0457496643	-10.3404474258	24.5570716858	18.1255092621
-12.5009784698	9.97304344177	-32.3013954163	-10.1707201004	24.6241111755	18.2019329071
-10.1424837112	7.07343196869	-29.8430652618	-10.0586681366	24.7305831909	18.3336772919
-8.87508106232	5.82054805756	-28.6832504272	-9.89213180542	24.8148460388	18.5722751617
-10.6239862442	11.8079385757	-32.1897506714	-9.76903438568	24.8286533356	18.6492137909
-15.912733078	15.9979467392	-38.3532333374	-9.84325695038	24.8923473358	18.723493576
-17.9173164368	18.6477966309	-41.16015625	-9.97320842743	25.0165786743	18.6119346619
-19.1201133728	20.2304782867	-43.5076675415	-10.087266922	25.0784378052	18.5068035126
-19.7651004791	20.4942073822	-43.2958297729	-10.3052806854	25.0372867584	18.4504070282
-19.9985599518	20.0236816406	-43.871837616	-10.3404445648	25.0481987	18.4630069733
-20.0669746399	21.1142215729	-45.2641677856	-10.1731958389	25.0893306732	18.4025745392
-21.452922821	22.4244174957	-47.9306373596	-9.97759532928	25.0953884125	18.3999423981
-22.6136856079	23.0983562469	-48.9917678833	-9.88725090027	25.0551166534	18.3295249939
-22.1291465759	23.1367301941	-47.1296882629	-9.86858844757	25.0319519043	18.3457546234
-19.6138191223	21.1276950836	-41.2237205505	-9.94720745087	25.0146656036	18.1926841736
-16.7407360077	17.8712100983	-35.9759407043	-9.86730098724	24.9219665527	18.1732349396
-14.3510856628	14.4688882828	-34.1448898315	-9.75293445587	24.8099498749	18.2068328857
-12.2220773697	13.5049819946	-34.6587562561	-9.6128578186	24.7398815155	18.2925758362
-11.0376672745	12.6840286255	-34.7310943604	-9.55657577515	24.680770874	18.272605896
-10.0800228119	11.700463295	-34.6507644653	-9.46926593781	24.7223720551	18.3912773132
-9.50049591064	9.84207057953	-34.2985801697	-9.59497642517	24.7984905243	18.3452148438
-9.25824451447	9.13846588135	-34.0670318604	-9.66431236267	24.8223800659	18.2979106903
-9.00365447998	6.92467927933	-32.7960968018	-9.62189483643	24.8350353241	18.1650772095
-7.6988697052	1.7571823597	-31.7231712341	-9.61741828918	24.8109931946	18.0174255371
-5.3527340889	-5.26787996292	-33.6545066833	-9.39653396606	24.7165145874	18.0062599182
-2.65092349052	-4.66295719147	-38.9494247437	-8.92709732056	24.5874423981	18.2313461304
-2.18941426277	-1.33910620213	-40.8576660156	-8.65582275391	24.2600574493	18.2025623322
-2.30194687843	3.3184056282	-40.966342926	-8.7454662323	23.850812912	18.1936378479
-4.85835266113	6.12417173386	-42.0634498596	-9.0018453598	23.967124939	18.0927410126
-7.58515071869	11.0258588791	-43.7444229126	-9.12761592865	24.0849628448	17.8345623016
-11.0429697037	14.5957918167	-43.609664917	-9.09034442902	24.195526123	17.6733722687
-15.4047298431	17.6664867401	-41.6090011597	-8.85053730011	24.3579826355	17.6863479614
-20.8927955627	23.0045566559	-38.4349479675	-8.61559391022	24.4639797211	17.7055015564
-24.1967773438	27.5485954285	-33.8582267761	-8.58648967743	24.4459972382	17.8326721191
-24.2180614471	28.591802597	-34.7281494141	-8.75942134857	24.6539821625	17.9954586029
