-93.215423584	-69.1330795288	145.243621826	19.5212268829	-6.0662946701	11.5146484375
-93.2516937256	-69.2038269043	145.211639404	19.1776695251	-5.9807009697	11.5866546631
-93.0026702881	-69.4370803833	144.716064453	18.9065685272	-5.99862098694	11.5692472458
-93.3207931519	-69.486831665	144.859924316	18.6879653931	-5.99511861801	11.4748077393
-93.3441772461	-69.397819519	144.837203979	18.5181388855	-5.9025759697	11.3942394257
-92.8889312744	-69.5662536621	144.17980957	18.3091049194	-5.77147197723	11.3021936417
-92.8007278442	-69.6797866821	143.92376709	17.9314575195	-5.71950960159	11.1659908295
-92.0389633179	-70.1645355225	142.104690552	16.7625236511	-6.20286607742	10.7156419754
-88.6329498291	-71.0018234253	135.799377441	14.6787643433	-7.5148191452	9.94714260101
-88.7836990356	-70.9105987549	135.41595459	12.3415203094	-9.05866622925	9.38386631012
-87.1785202026	-71.4327926636	131.996398926	10.0988636017	-10.5759382248	8.70953655243
-82.7232208252	-72.1996612549	123.980674744	7.6949634552	-12.0074043274	7.8156580925
-80.9480438232	-72.5752105713	118.931922913	5.20609712601	-13.2219953537	7.33022022247
-73.6973953247	-73.4959640503	105.161384583	3.13660907745	-14.7022924423	6.94845962524
-70.0057144165	-73.8880691528	96.2656860352	1.86126983166	-16.6574897766	6.3408203125
-69.4013442993	-74.1539764404	94.666595459	1.05259466171	-18.801902771	5.83775663376
-68.7738418579	-74.5923614502	93.4265899658	0.234386995435	-20.9590053558	5.56344032288
-69.0168914795	-74.6776885986	92.8590621948	-0.456680834293	-23.1391048431	5.48211717606
-66.7310714722	-75.0040588379	88.7989349365	-0.409606069326	-25.4126873016	5.03848218918
-55.1131782532	-75.010848999	71.8761291504	0.824418842793	-28.0700435638	4.06707525253
-52.3417739868	-75.0435409546	65.7587051392	2.81483101845	-30.0781555176	2.90090703964
-53.8056259155	-75.2215576172	67.0005950928	3.55787467957	-30.8352241516	2.55131244659
-54.0771560669	-75.3831481934	66.8640823364	3.34119272232	-31.2880821228	2.72061491013
-52.9350776672	-75.2177963257	64.3514328003	3.09377384186	-32.3894729614	2.8260705471
