-67.373878479	-83.8030929565	147.969009399	22.1981544495	0.478153526783	12.9754552841
-68.1155471802	-83.8098068237	148.380950928	22.1784648895	0.52022600174	12.9715528488
-68.7948226929	-83.909866333	149.000167847	22.132982254	0.511801660061	12.9051971436
-55.1253585815	-84.4750366211	132.497497559	22.0048065186	-0.17809471488	12.8123970032
-24.9851589203	-84.6882705688	96.6862564087	21.3218841553	-3.21338057518	13.3740272522
-2.3145840168	-82.3361282349	67.2147827148	19.2605113983	-6.93564319611	15.4522724152
10.3791313171	-77.947807312	44.5770072937	14.7790908813	-8.99871635437	18.6518173218
13.8709001541	-71.7076797485	27.5715084076	10.6232185364	-9.53918838501	20.832649231
9.9192276001	-60.6629753113	5.39150381088	7.09400224686	-9.40860462189	24.1628952026
-5.10972833633	-53.3607330322	-14.3325023651	2.95978403091	-8.85063838959	26.7745132446
-13.6523475647	-53.5973434448	-30.6827144623	1.2355966568	-7.53486299515	27.0293273926
-17.448217392	-56.9829444885	-46.3018951416	3.21778249741	-6.64045095444	25.7385234833
-15.7198047638	-61.7839546204	-64.6151046753	6.51230096817	-6.11882591248	24.342508316
-9.89788913727	-70.9464263916	-82.8327560425	9.31322860718	-5.89904546738	23.2790050507
-5.15655755997	-74.982749939	-91.1301498413	10.680560112	-5.77741146088	22.7101173401
-4.4797873497	-74.4843139648	-94.4388885498	11.2661876678	-5.6839261055	22.5748271942
-2.45483779907	-74.0808410645	-98.3526611328	11.5617485046	-6.00763845444	22.708990097
0.237669974566	-72.7626342773	-101.195976257	12.0426530838	-6.98686408997	23.0162162781
