-50.3109436035	-73.1968841553	139.01965332	22.405878067	0.759412944317	13.5712270737
-49.3765144348	-73.3471221924	137.700439453	22.3854408264	0.725855886936	13.5897436142
-49.3715286255	-73.2284240723	137.479141235	22.318447113	0.720741093159	13.5455207825
-49.0260047913	-73.3065795898	137.092727661	22.2268104553	0.750526368618	13.6028280258
-48.1623535156	-73.2560424805	133.872695923	22.3254814148	0.766221106052	13.4777336121
-39.4347229004	-73.2782745361	115.057556152	23.4760837555	0.642078578472	13.1953811646
-30.9340801239	-72.687789917	99.7877426147	25.4916667938	0.537766754627	12.7046022415
-30.9442577362	-72.8687667847	98.1094818115	27.742105484	0.37714856863	12.1644544601
-29.885843277	-73.0097198486	93.1509857178	30.2653236389	-0.0219021793455	11.6030750275
-26.6805210114	-72.6018295288	85.514793396	32.5215034485	-0.594112336636	11.0691556931
-25.420173645	-72.1242294312	79.9244384766	33.6781044006	-0.923043906689	10.6553583145
-26.2234630585	-72.0001220703	79.6254730225	33.1639823914	-0.783381044865	10.5789718628
