0.0	-0.0	127.969017029	100.285087585	87.5495529175	32.6449775696
0.0	-0.0	131.380187988	100.112770081	87.6606140137	32.788356781
0.0	-0.0	134.066619873	99.9419631958	87.7774200439	32.9698028564
0.0	-0.0	119.709754944	99.3972396851	87.5473632812	33.1634521484
0.0	-0.0	118.290313721	97.8813095093	87.9882049561	33.1671218872
0.0	-0.0	113.249816895	96.9844741821	88.8202896118	33.5578727722
0.0	-0.0	94.3291091919	-85.9555664062	89.0074920654	-145.221313477
0.0	-0.0	62.2239685059	-91.1015701294	85.1208114624	-144.280105591
0.0	-0.0	40.7933769226	-96.9736862183	79.6388015747	-145.225021362
0.0	-0.0	40.1899795532	-104.120239258	73.7752456665	-147.727035522
0.0	-0.0	35.0985488892	-111.393211365	69.6160049438	-150.396286011
0.0	-0.0	27.803150177	-117.062637329	64.8767700195	-153.909545898
0.0	-0.0	20.3513507843	-121.301948547	59.3598594666	-157.446228027
0.0	-0.0	15.2724657059	-125.488090515	54.6158676147	-161.02394104
0.0	-0.0	10.164440155	-131.231063843	50.2775001526	-164.442138672
0.0	-0.0	4.96392965317	-137.25553894	47.4204559326	-167.375167847
0.0	-0.0	0.372583329678	-140.786209106	46.4767112732	-169.658737183
0.0	0.0	-4.10971212387	-143.719100952	47.2683334351	-170.845901489
0.0	0.0	-9.7965965271	-145.972366333	46.8580322266	-170.674728394
0.0	0.0	-17.5694255829	-147.538467407	45.349899292	-169.868179321
0.0	0.0	-26.671541214	-150.032653809	43.9040374756	-168.877304077
0.0	0.0	-34.4308815002	-152.656997681	43.0083580017	-167.682601929
0.0	0.0	-45.1595115662	-156.538467407	41.5422592163	-166.810745239
0.0	0.0	-54.0160064697	-161.509506226	39.2632408142	-166.026702881
