-83.8209075928	-87.8127670288	142.966964722	20.4378471375	-3.39323949814	11.8502092361
-85.2507247925	-87.7610931396	144.336364746	20.4260540009	-3.37795972824	11.8991136551
-82.5682296753	-87.7456054688	141.634780884	20.3194580078	-3.35287380219	11.9496068954
-77.2250518799	-87.8650054932	136.149398804	19.7255439758	-3.25535130501	12.092464447
-76.2675552368	-87.8047332764	135.082046509	18.7133369446	-3.20674157143	12.3579359055
-77.0017471313	-87.8897247314	135.51449585	18.3959007263	-3.48978948593	12.569653511
-73.0316085815	-87.7376861572	130.746444702	18.9407520294	-4.97101259232	12.7907676697
-55.5633468628	-87.8084640503	111.436775208	19.7089920044	-8.01057434082	13.1804018021
-39.4090576172	-87.331161499	93.0378189087	20.2088432312	-11.8046035767	13.7094488144
-15.3988361359	-85.9989929199	63.8823928833	20.0516281128	-15.7624540329	14.7647943497
-6.05246353149	-84.353805542	49.6693878174	19.0567874908	-18.6513252258	16.3310222626
-5.65065717697	-83.6635055542	47.317905426	17.6162242889	-19.997713089	18.4323825836
4.0021276474	-81.8070983887	33.9459190369	15.7142658234	-21.2487850189	21.6406421661
5.10445547104	-76.3893203735	22.4114971161	14.719707489	-22.0892562866	23.9859523773
5.05775403976	-68.6634597778	9.41306591034	15.1664266586	-22.3190021515	24.7364597321
0.650731801987	-64.1035079956	0.460282802582	16.1675415039	-22.4511032104	25.0031223297
-3.79662036896	-61.5136680603	-6.92869997025	17.0853042603	-22.9184875488	25.6408176422
-13.4343776703	-59.6003417969	-18.0237121582	17.3364391327	-23.4347572327	26.8428401947
-15.9980926514	-57.0591430664	-29.9111709595	16.7630405426	-22.7549190521	27.6181983948
-19.787103653	-58.8810462952	-32.4899139404	15.8455247879	-20.3537406921	26.6053218842
-24.7014636993	-60.9576683044	-31.1304187775	15.5328321457	-18.9486541748	24.0730876923
-31.786365509	-63.3712425232	-28.4137325287	18.4738445282	-19.9427890778	23.1269607544
-36.797454834	-64.8649597168	-27.1255950928	21.0634593964	-20.7079868317	22.4963741302
-41.1348152161	-66.3076248169	-26.7400302887	23.1094226837	-21.2987785339	21.9997024536
-48.1734619141	-68.2593612671	-22.6802387238	25.2011890411	-22.8680324554	21.7663383484
-51.6903533936	-69.5173568726	-20.8427085876	26.1294517517	-25.2749633789	22.1833381653
-52.9903488159	-70.2291793823	-21.2793579102	25.3209705353	-28.2350997925	23.1208705902
-53.2503242493	-70.8635101318	-21.4696178436	24.3258342743	-31.0185241699	23.5890102386
-46.920627594	-68.8732223511	-21.6306095123	23.2493171692	-30.6866912842	23.4571685791
-35.9845428467	-67.4134902954	-20.559720993	21.7068347931	-28.5334835052	23.2507095337
-23.4111042023	-66.8445129395	-24.339099884	20.5241394043	-27.3916358948	22.946100235
-18.8634529114	-69.4435958862	-21.1061134338	20.4897880554	-27.1450405121	22.5878982544
-18.8694820404	-72.0133743286	-14.9170160294	20.5439300537	-27.0254039764	21.9132843018
-13.8025465012	-73.2579421997	-14.6302471161	20.7487831116	-26.170343399	20.5854263306
-10.622882843	-74.9678955078	-13.7507600784	20.8477058411	-24.9983577728	19.1818141937
-12.6506767273	-75.090675354	-11.9016141891	21.6078453064	-25.1296825409	18.6052398682
-14.4032278061	-74.825553894	-10.5417585373	22.8477363586	-26.6155109406	18.8173351288
-15.3076372147	-74.3015441895	-10.662437439	23.7335453033	-28.2899627686	18.8841896057
-11.9004993439	-72.8861923218	-15.7588558197	24.2016372681	-29.7655353546	18.5596237183
-12.2395410538	-71.7753677368	-21.111492157	24.2383384705	-30.8014316559	18.4184398651
-7.38774681091	-70.4618911743	-29.0762691498	24.1089992523	-31.4475212097	18.2062110901
-5.48646068573	-70.0036087036	-36.3527336121	24.5946025848	-31.5604858398	17.5852394104
-2.96677803993	-68.6286773682	-41.502456665	25.2799682617	-31.3144435883	16.8454608917
-2.11077547073	-68.0132522583	-43.7488937378	25.7365474701	-30.5616512299	16.1921405792
-2.00099825859	-69.5267410278	-38.3307685852	25.5008144379	-29.3736305237	16.0314445496
-6.71636867523	-71.266166687	-30.5397777557	25.7376060486	-27.6767425537	15.9056749344
-9.94652748108	-72.7037963867	-26.5808982849	25.8630313873	-26.0404186249	15.7733917236
-11.771112442	-73.5182647705	-24.2211322784	25.7174911499	-25.4031066895	15.8787136078
-14.1978063583	-73.782699585	-21.3879413605	25.5965518951	-25.671503067	15.9198713303
-12.5523633957	-73.5077209473	-23.7702388763	25.3785991669	-25.6492576599	16.1302566528
-9.72811222076	-72.9139328003	-27.7567481995	24.9745178223	-24.9998912811	16.4553375244
-6.98388576508	-72.6541900635	-32.4763145447	24.4456882477	-24.2815856934	16.9825935364
-5.82497692108	-72.4384307861	-35.333026886	23.8534297943	-23.8561515808	17.4760570526
-4.77127313614	-72.2191925049	-38.0100364685	23.0422840118	-23.3989257812	18.0048904419
-4.27487564087	-72.4154129028	-40.0100631714	22.216796875	-23.0448112488	18.614906311
-5.24537467957	-72.9426345825	-39.9528656006	21.1488895416	-22.8117141724	19.3363170624
-7.47188949585	-73.3191223145	-38.7428855896	20.7141361237	-22.9792251587	19.7780952454
-8.180352211	-73.3872833252	-38.5844078064	20.709602356	-23.3443183899	19.8978843689
-7.78412437439	-73.3122940063	-40.3684387207	20.6151199341	-23.8096694946	19.9910392761
-5.40625143051	-73.0329742432	-45.648311615	20.2073059082	-24.1577911377	20.4057693481
-2.93086218834	-72.7389984131	-51.8526878357	19.7709579468	-24.2767391205	20.7846794128
-0.587729990482	-72.4305038452	-55.6407051086	19.7124614716	-24.4391918182	20.8653202057
