-105.442977905	-83.1475982666	139.379364014	14.5341691971	-4.47767305374	9.20774745941
-105.989448547	-83.0303115845	139.923324585	14.359705925	-4.55472898483	9.32083320618
-105.754905701	-83.1670608521	139.717025757	14.263420105	-4.71360731125	9.25905132294
-105.432640076	-83.1865921021	139.371627808	14.2889451981	-4.94864273071	9.22340202332
-97.7829360962	-83.5506668091	130.437957764	14.5785255432	-5.42059755325	8.9673242569
-80.7331771851	-84.1235809326	110.052017212	14.5654039383	-5.31111764908	8.79801559448
-75.6422958374	-83.7548675537	104.610389709	14.3963804245	-5.02256584167	8.75407505035
-68.1923828125	-83.9530715942	96.2104949951	13.5270042419	-4.41143226624	8.72343730927
-62.8446350098	-83.9588241577	89.8781509399	11.8237943649	-3.64635634422	8.63547229767
-67.3273544312	-83.7827301025	94.3220901489	9.76064300537	-2.97348308563	8.75955867767
-63.6319732666	-83.6508483887	89.6012039185	8.11048793793	-2.50841593742	8.97826099396
