-53.2003822327	-83.6858825684	142.284973145	24.1223888397	-0.511804223061	13.7868747711
-53.1015968323	-83.5770339966	141.742858887	24.0490150452	-0.448286354542	13.8256635666
-53.1261940002	-83.8162841797	141.318069458	23.4174823761	-0.47335088253	13.7969331741
-51.1172599792	-83.7210540771	138.678756714	20.4708042145	-0.00868029799312	13.4903764725
-46.2358016968	-83.6194000244	133.035476685	14.7143888474	1.47468757629	12.9257831573
-42.3888587952	-83.6720352173	127.978927612	7.82916116714	3.08571171761	13.1854248047
-35.1294364929	-83.4979705811	118.195487976	1.95897614956	4.52505397797	14.0430879593
-13.2007627487	-82.3182830811	89.2826919556	-1.75202667713	5.52290773392	15.5444440842
-11.7993965149	-81.275894165	83.6700057983	-4.29391098022	6.50715684891	18.1054134369
-15.4362478256	-80.8253707886	85.3720779419	-7.64684677124	8.50108242035	20.9272975922
-17.5797023773	-80.2760848999	86.9200515747	-10.9290142059	9.59584331512	22.1251163483
-16.7149772644	-79.6834945679	84.9928817749	-13.2133369446	9.59121704102	22.3960075378
-16.0804595947	-79.0862884521	83.1707305908	-14.3653736115	10.1903448105	22.3628311157
-15.7159976959	-77.5786514282	80.0973739624	-14.7972412109	11.7936353683	22.4821071625
-10.3740377426	-75.535446167	68.1880187988	-15.7808685303	12.9939308167	23.064786911
-8.44723510742	-72.6700439453	59.5413398743	-17.8479652405	14.1123189926	24.4599723816
-8.60861873627	-71.3497848511	55.9635276794	-20.4119968414	16.6881408691	25.7841377258
-13.7851610184	-70.4699020386	55.4908561707	-21.6625270844	17.5636901855	25.9697227478
-8.9707660675	-64.6231460571	33.8942108154	-20.9692726135	16.8299465179	26.1673564911
-12.2683439255	-54.419506073	4.84367132187	-19.6130256653	16.7842445374	26.1797447205
-19.5835895538	-50.2690162659	-15.2815122604	-18.403137207	16.8891525269	26.0007858276
-26.7863349915	-49.1770248413	-34.8565254211	-17.4833889008	16.7829666138	25.9209136963
-25.1265544891	-46.1936721802	-51.9334220886	-17.3563346863	16.7607059479	25.8671340942
-24.0096321106	-47.129650116	-64.8686904907	-17.7198562622	16.8038864136	26.0027580261
-22.8226146698	-50.8650894165	-74.9338912964	-18.669593811	16.8138103485	26.1339588165
-18.4945259094	-52.1654968262	-83.3123855591	-21.095867157	16.8667793274	25.7994155884
-14.7292976379	-51.9202766418	-90.350692749	-24.2233867645	16.7821655273	25.2349033356
-13.7014341354	-53.1093864441	-93.9869003296	-26.4157924652	15.7218952179	24.9562149048
-15.0013656616	-54.4261741638	-94.0181655884	-26.9524898529	14.1618041992	25.1891651154
-15.6694068909	-54.7533950806	-93.5450286865	-26.876499176	12.2039928436	25.2002468109
