0.0	-0.0	136.850845337	100.660453796	73.1449661255	30.8464946747
0.0	-0.0	135.117340088	100.19960022	72.8381195068	30.8666534424
0.0	-0.0	133.848297119	99.1071243286	72.9713897705	31.0133991241
0.0	-0.0	132.753036499	97.3055801392	72.6460037231	30.7971515656
0.0	-0.0	130.874893188	95.0028762817	71.7615661621	30.5731506348
0.0	-0.0	131.16796875	91.7771606445	70.2853088379	30.6657752991
0.0	-0.0	132.170272827	87.0745239258	68.9168701172	31.0907974243
0.0	-0.0	132.62020874	80.8529891968	68.9256515503	32.331287384
0.0	-0.0	132.675720215	71.8746032715	69.8860626221	33.882724762
0.0	-0.0	132.447387695	65.0219497681	71.1789779663	35.8611297607
0.0	-0.0	131.572402954	62.6913719177	73.2315673828	37.0231819153
0.0	-0.0	123.00276947	61.633682251	79.2294311523	36.9958839417
0.0	-0.0	122.410186768	60.3901901245	86.5540924072	38.0144882202
0.0	-0.0	118.376113892	-121.716926575	86.3881759644	-140.050598145
0.0	-0.0	112.631896973	-125.004615784	80.1106338501	-138.479736328
0.0	-0.0	108.347290039	-127.418464661	76.515663147	-137.09387207
0.0	-0.0	102.752944946	-128.681442261	73.8558425903	-135.767944336
0.0	-0.0	99.3583755493	-131.633392334	66.5983428955	-132.961090088
0.0	-0.0	92.0435256958	-137.549987793	55.5508918762	-129.732299805
0.0	-0.0	79.7156066895	-146.991256714	42.6354522705	-125.971786499
0.0	-0.0	68.6532669067	-156.593536377	30.8113479614	-126.214004517
0.0	-0.0	46.8572502136	-158.811981201	27.3757343292	-126.512825012
0.0	-0.0	21.1060428619	-154.676925659	28.7742729187	-125.316864014
0.0	-0.0	2.67054653168	-149.739608765	29.9910030365	-125.193695068
0.0	0.0	-7.84920692444	-147.060134888	28.977399826	-125.042060852
0.0	0.0	-23.4189453125	-150.940887451	27.2476425171	-125.607406616
0.0	0.0	-42.4900588989	-159.392211914	25.3579730988	-128.433441162
0.0	0.0	-60.7649536133	-163.194778442	24.4742031097	-129.099029541
0.0	0.0	-70.9331817627	-162.418304443	23.4999294281	-128.507965088
0.0	0.0	-74.6776733398	-162.984558105	22.4620132446	-128.467178345
0.0	0.0	-77.8167724609	-166.197158813	20.6187915802	-128.881134033
0.0	0.0	-81.0139770508	-173.181930542	19.3186683655	-129.74836731
