0.0310211181641	1.25315821171	0.193825364113	0.0018482208252	1.59354066849	-0.0675022602081
0.0307416915894	1.25310838223	0.194217443466	0.0021231174469	1.59309601784	-0.0658292770386
0.0304570198059	1.2532556057	0.19432759285	0.00261092185974	1.59268319607	-0.0644863843918
0.0286860466003	1.25118458271	0.195030093193	0.00203633308411	1.59157478809	-0.0633461475372
0.0234234333038	1.2410261631	0.195062994957	-0.000895023345947	1.58893632889	-0.0624536275864
0.0144448280334	1.22559428215	0.193177461624	-0.00576066970825	1.58596313	-0.0619159936905
0.00504589080811	1.2073444128	0.189378619194	-0.0101742744446	1.58303368092	-0.0613145828247
-0.00600981712341	1.18534290791	0.182380437851	-0.0146763324738	1.57893812656	-0.0610740184784
-0.0192728042603	1.1616808176	0.171764492989	-0.0199987888336	1.57452821732	-0.0608706474304
-0.0328664779663	1.14042067528	0.158383965492	-0.0251064300537	1.57026350498	-0.0601642131805
-0.0474569797516	1.12225580215	0.141538858414	-0.0295519828796	1.56583201885	-0.0585508346558
-0.0604362487793	1.11128091812	0.126516580582	-0.0336179733276	1.56161475182	-0.0562298297882
-0.0707097053528	1.10748279095	0.116955280304	-0.0367548465729	1.55935895443	-0.0535562038422
-0.0778563022614	1.10688722134	0.112246990204	-0.0377655029297	1.55852425098	-0.0513231754303
-0.0812749862671	1.10819303989	0.110597252846	-0.0381166934967	1.55806922913	-0.0504643917084
-0.0831391811371	1.10719263554	0.107003808022	-0.0369806289673	1.55786514282	-0.050510764122
-0.0824861526489	1.10521578789	0.105611085892	-0.0356731414795	1.55827081203	-0.0510362386703
-0.080575466156	1.10432696342	0.106109619141	-0.034562587738	1.55839645863	-0.0525125265121
-0.0774371623993	1.10086226463	0.103847503662	-0.0335648059845	1.55813491344	-0.0544698238373
-0.0734798908234	1.0946199894	0.100630879402	-0.032648563385	1.55755734444	-0.0564949512482
-0.0703985691071	1.09069216251	0.0972281694412	-0.0313589572906	1.55631828308	-0.0584999322891
-0.0684704780579	1.08714675903	0.0931191444397	-0.0303325653076	1.55399680138	-0.0608353614807
-0.0672311782837	1.08364880085	0.0893732309341	-0.0303156375885	1.55117714405	-0.063010931015
-0.0656290054321	1.08172786236	0.0877256393433	-0.0323259830475	1.54847836494	-0.0656623840332
-0.0653500556946	1.07946515083	0.0835791826248	-0.0351195335388	1.5456110239	-0.0683560371399
-0.0653665065765	1.07747924328	0.0790188312531	-0.0378544330597	1.54337441921	-0.0707397460938
-0.065669298172	1.07693421841	0.0777974128723	-0.0398602485657	1.5426543951	-0.072557091713
-0.0665006637573	1.07606935501	0.0757579803467	-0.04097032547	1.54169845581	-0.074387550354
-0.066558599472	1.07398498058	0.0743079185486	-0.041659116745	1.54083383083	-0.0755198001862
-0.0653731822968	1.07025837898	0.0727101564407	-0.0426409244537	1.53927361965	-0.0768265724182
-0.0642282962799	1.06700217724	0.0721664428711	-0.044620513916	1.53760206699	-0.0779528617859
-0.0643839836121	1.06656825542	0.0710147619247	-0.0477876663208	1.53672850132	-0.0782351493835
-0.0648684501648	1.06589007378	0.0699472427368	-0.050164937973	1.53619229794	-0.0781753063202
-0.0657815933228	1.06578683853	0.0692954063416	-0.0518126487732	1.53488171101	-0.0782988071442
-0.0655844211578	1.06511878967	0.0694537162781	-0.0525729656219	1.53421449661	-0.0777764320374
-0.0655536651611	1.06348693371	0.0702785253525	-0.0531158447266	1.53367400169	-0.0770133733749
-0.0659494400024	1.06211650372	0.0709755420685	-0.0536017417908	1.53354275227	-0.0759274959564
-0.067051410675	1.06101930141	0.0711462497711	-0.054176568985	1.53327035904	-0.0747245550156
-0.0678508281708	1.05976343155	0.0710202455521	-0.0547618865967	1.53254663944	-0.0733752250671
-0.068336725235	1.05823278427	0.0712747573853	-0.0553498268127	1.5323086977	-0.0715298652649
-0.0682363510132	1.05720591545	0.0724294185638	-0.0554931163788	1.53260362148	-0.0695216655731
-0.0679183006287	1.05705046654	0.0737016201019	-0.0550186634064	1.5326513052	-0.0677087306976
-0.0680527687073	1.05681157112	0.0741856098175	-0.0544221401215	1.5329887867	-0.066108584404
-0.0681798458099	1.05503129959	0.0747961997986	-0.0540287494659	1.53312504292	-0.0642666816711
-0.068480014801	1.05317997932	0.0754115581512	-0.053426027298	1.53282248974	-0.0624417066574
-0.0689787864685	1.05146574974	0.0765442848206	-0.0531671047211	1.53285944462	-0.0600852966309
-0.0691447257996	1.0504026413	0.0785677433014	-0.0529446601868	1.5331414938	-0.0581564903259
-0.0687694549561	1.05135631561	0.0809777975082	-0.052374124527	1.53337180614	-0.0567147731781
-0.0679898262024	1.05058050156	0.0825560092926	-0.0519931316376	1.53374838829	-0.0551605224609
-0.0671758651733	1.04983925819	0.0835011005402	-0.0509860515594	1.53385078907	-0.0534648895264
-0.0664193630219	1.0494787693	0.0847158432007	-0.0499558448792	1.53457427025	-0.0507884025574
-0.0661635398865	1.04910063744	0.0861701965332	-0.0488221645355	1.53589642048	-0.047824382782
-0.066157579422	1.04880309105	0.0873084068298	-0.0465078353882	1.53735911846	-0.0447845458984
-0.0664627552032	1.04811644554	0.0875945091248	-0.0408449172974	1.53913116455	-0.0411013364792
-0.0667762756348	1.04778647423	0.0879426002502	-0.0329301357269	1.541410923	-0.0372431278229
-0.0676028728485	1.04785823822	0.0884653329849	-0.0260212421417	1.54462623596	-0.0337572097778
-0.0695073604584	1.04881381989	0.0883507728577	-0.0232801437378	1.54573571682	-0.0326671600342
-0.0708334445953	1.05025815964	0.0891733169556	-0.0229392051697	1.54576170444	-0.032311797142
-0.0711784362793	1.05074048042	0.0891605615616	-0.0208733081818	1.54655539989	-0.031506061554
-0.0712461471558	1.05023050308	0.0893750190735	-0.0168559551239	1.54839897156	-0.0302307605743
-0.0718791484833	1.05020189285	0.0891555547714	-0.0119338035583	1.55028140545	-0.0295858383179
