0.148476362228	1.47089958191	0.102138161659	0.0870289802551	1.6393866539	-0.1263256073
0.148768186569	1.47143769264	0.101655364037	0.0868561267853	1.639316082	-0.125896930695
0.149178981781	1.47166132927	0.101569414139	0.0867886543274	1.6391838789	-0.125142335892
0.148686647415	1.47086024284	0.102439045906	0.0853981971741	1.6387758255	-0.123789548874
0.148196935654	1.46957778931	0.102616786957	0.0804855823517	1.63866186142	-0.121622681618
0.148564815521	1.46823382378	0.104613661766	0.0744245052338	1.63813221455	-0.119354009628
0.147440433502	1.46766424179	0.105320215225	0.0707876682281	1.63751554489	-0.118198156357
0.148057460785	1.46794092655	0.107322216034	0.0708577632904	1.63703477383	-0.118005037308
