-18.938867569	-79.0792007446	139.535766602	19.5597572327	-5.78330087662	10.6534500122
-18.7018165588	-79.0223007202	138.94670105	19.4341182709	-5.84047937393	10.6080379486
-19.0697498322	-79.0676651001	139.230194092	19.1187648773	-5.71835041046	10.5492620468
-18.1319408417	-78.9449539185	137.937271118	17.9838142395	-4.96426916122	10.6779556274
-16.9462203979	-78.8756942749	136.377822876	14.7311325073	-3.08864617348	11.0739192963
-16.9596672058	-78.3567962646	135.793014526	10.9433174133	-0.550983965397	12.2214002609
-14.4744577408	-77.7877578735	131.285064697	8.03948783875	1.11389482021	13.8278312683
-15.0270738602	-76.787109375	130.339248657	5.18185138702	2.44023370743	16.0762424469
-17.0343456268	-76.1245269775	130.862701416	1.55652105808	5.00460481644	18.8043041229
-19.3811740875	-75.0214157104	131.21685791	-1.69325554371	8.7305021286	21.2733306885
-22.3766422272	-74.3967590332	132.313690186	-2.94686412811	11.1137704849	22.9600410461
-25.8348274231	-73.6584701538	131.019866943	-3.41745615005	11.8886213303	24.0897941589
-28.8719367981	-71.0986175537	125.334991455	-4.34002304077	12.5765790939	25.3971748352
-26.2404670715	-67.5253829956	114.448265076	-5.8491897583	14.0550146103	27.6483249664
-27.4571399689	-65.1465911865	109.263275146	-7.90996837616	16.2713775635	30.5512523651
-29.7702255249	-64.3440093994	109.76864624	-9.6375951767	16.4586105347	31.0032863617
-28.8919239044	-63.8512458801	106.337257385	-10.053278923	15.3774900436	30.7956066132
-30.3936901093	-63.9705734253	106.528999329	-9.89377784729	14.7480239868	30.1545066833
-31.9828529358	-63.7341461182	107.567710876	-9.1961183548	14.4327249527	28.9933071136
-31.0166778564	-63.7359962463	106.999839783	-7.79796123505	15.0226430893	27.3076515198
-31.1081886292	-63.1712532043	107.629150391	-4.92671632767	17.1308631897	25.7863941193
-31.5778007507	-62.9453277588	108.596740723	-0.41475006938	20.8555793762	24.8834209442
-30.9701328278	-62.4836921692	108.228942871	4.00558233261	22.9240493774	24.0369281769
-29.4742984772	-61.7951164246	107.214820862	6.44722175598	22.8860778809	23.5369720459
-28.4516105652	-61.5174026489	106.20501709	5.7405538559	22.4346199036	22.6495113373
-27.2293586731	-61.600528717	105.182167053	1.75277876854	21.901512146	21.1885986328
-26.6475944519	-61.868057251	104.563514709	-5.93444156647	22.4831295013	19.3703975677
-26.5852584839	-62.0324287415	103.556678772	-14.1261320114	24.983297348	19.0946311951
-28.1563854218	-62.1807174683	103.564201355	-19.6174221039	28.2965736389	20.7105388641
-30.5972747803	-61.9652328491	104.579689026	-21.0116558075	30.7695884705	21.6249828339
-33.6811599731	-61.5131530762	106.098487854	-18.2887630463	31.8202762604	22.7360744476
-33.2587432861	-60.8784103394	103.5598526	-13.7859449387	29.4974689484	24.2320919037
-30.8612308502	-60.2382011414	99.3244400024	-10.4452877045	27.1245594025	25.5121250153
-31.1448631287	-60.0757446289	98.9585723877	-10.026134491	25.7611198425	25.845664978
-27.929441452	-58.858215332	93.0403060913	-9.80148220062	25.1791954041	25.9213180542
-22.2280712128	-57.0666275024	82.9629821777	-8.82897472382	24.8805580139	26.2876319885
-17.5680942535	-54.6082267761	71.9066162109	-8.24100399017	24.9978637695	26.4764232635
-11.6762695312	-48.2383232117	54.8140106201	-8.21925830841	25.4690189362	26.4863777161
-11.6920499802	-45.3708190918	50.5423049927	-8.85168838501	26.177696228	26.9279518127
-11.978302002	-41.43932724	44.75623703	-10.7196931839	28.4192276001	27.7216567993
-10.9064292908	-38.8383865356	38.542175293	-12.4342451096	29.8656272888	27.5634326935
-10.1922693253	-37.3288803101	33.8435173035	-12.2676973343	28.8210830688	27.4081783295
-9.6571264267	-35.2021636963	28.0919075012	-11.0836486816	28.3503837585	27.262430191
-10.8227481842	-31.5194721222	23.557472229	-9.32425880432	29.5987224579	26.4426898956
-11.1381082535	-25.6295871735	14.7796888351	-7.46299552917	31.7591533661	26.4191093445
-12.0054855347	-20.8300151825	5.87945985794	-6.53745079041	34.0708770752	26.7600803375
-12.2159776688	-12.1352186203	-5.509370327	-6.46971940994	34.7737045288	26.76612854
-10.5867843628	-5.51134252548	-14.1595191956	-6.62215280533	34.2440376282	26.618429184
-8.10273742676	1.46328318119	-26.4636325836	-6.70196723938	33.7045288086	26.4790630341
-1.9756128788	12.6917171478	-38.6328811646	-6.30961179733	33.693195343	26.4376716614
8.04108142853	23.7262153625	-40.4067344666	-4.96610164642	33.7596588135	26.8145656586
7.8097448349	23.006444931	-46.0524597168	-2.63847494125	32.9694328308	27.9739513397
4.53082466125	22.921005249	-52.2903404236	-0.0194951016456	32.5404853821	29.9093513489
3.6243391037	28.0455207825	-53.7661132812	0.121677957475	33.2025680542	30.6792488098
6.54768753052	27.8403663635	-53.0008811951	-1.26862442493	33.74974823	30.0709133148
13.0550661087	28.2377929688	-44.465133667	-2.4137980938	34.022315979	29.8328208923
9.33778476715	30.8078899384	-47.4562835693	-2.84373354912	34.0827865601	30.0539779663
12.7593507767	33.4994773865	-41.7464065552	-3.22621655464	34.0314712524	29.7844085693
21.9251270294	24.6296825409	-18.325006485	-3.96068453789	33.261756897	29.029542923
24.4557723999	10.1939601898	5.42689657211	-7.38659143448	30.2874221802	24.3733577728
19.9129734039	-13.9557933807	30.8488044739	-9.47704410553	23.528547287	19.8175067902
8.11576271057	-40.8025932312	65.9922103882	-7.05413484573	16.0690002441	17.8941631317
0.503105580807	-50.6193771362	84.6409225464	-2.57221889496	12.0853643417	16.0624351501
-4.96162509918	-55.4783859253	95.7594451904	0.44276753068	11.5125551224	15.6720209122
-12.4237575531	-60.4763793945	108.852096558	1.31642508507	11.1141691208	15.9233436584
-17.57771492	-62.4776802063	111.781776428	0.699620127678	11.2977247238	16.0849246979
-22.5550041199	-63.784160614	114.096488953	-0.115038461983	11.7704496384	16.1146621704
-19.2765731812	-66.186050415	109.548980713	-0.566117107868	11.3600196838	16.1031665802
-8.19212055206	-69.1902084351	100.405799866	-0.532335042953	11.5908079147	15.9813966751
-0.946884930134	-73.2986068726	95.6084747314	-0.308812171221	12.205201149	15.7599077225
-13.4658164978	-76.1959686279	107.774337769	0.0825166553259	12.8350763321	15.4025163651
-12.4948272705	-76.7345581055	103.749633789	0.180162504315	12.6254587173	15.2655696869
-11.625667572	-80.6547241211	102.479255676	-0.157494544983	12.3326940536	15.2613534927
-23.7082939148	-80.0686416626	117.607757568	-0.727492332458	12.327290535	15.5352983475
-10.8656215668	-60.8661117554	99.5360641479	-1.36105442047	12.3286323547	15.6373929977
-10.3946809769	-47.275062561	90.7384185791	-1.43784415722	12.5058279037	15.7229976654
-11.0351648331	-46.834400177	93.8781661987	-1.24800050259	12.6245222092	15.8062763214
-11.362862587	-48.2458076477	93.1934051514	-0.984073340893	12.7740440369	15.8665065765
-13.1628541946	-49.8082580566	94.0362014771	-0.78657501936	12.8505649567	16.0072612762
-14.3637475967	-49.9819412231	94.9887390137	-1.10711991787	13.0902681351	16.6028270721
-15.0955152512	-50.2699279785	94.6215591431	-2.40206050873	13.6165390015	18.2360134125
-16.6464653015	-50.427822113	95.1243362427	-4.44311141968	14.6292905807	20.8950462341
-18.6191272736	-50.3164787292	96.0082702637	-6.8052687645	15.3519945145	22.1805171967
-19.1136169434	-50.4767456055	95.6216125488	-8.53781604767	15.429189682	22.454492569
-19.4431800842	-50.9960403442	95.4622421265	-9.04263591766	14.4779014587	22.3595504761
-19.4294395447	-51.2496376038	95.1270828247	-8.49503517151	10.0643959045	21.6986865997
-18.3595867157	-52.0774116516	94.026763916	-5.00292348862	3.59119844437	20.8282966614
-17.824886322	-53.8070793152	93.9202880859	0.0702232941985	-0.860130369663	19.8574352264
-17.1035175323	-55.0199813843	93.0769042969	3.53749155998	-3.6189467907	19.443983078
-17.4069385529	-55.6937065125	93.2534637451	3.52706813812	-4.06452274323	19.6148223877
-18.0034275055	-55.8685188293	93.7224884033	2.50244617462	-2.92621064186	19.9543056488
-18.4296360016	-56.1754875183	94.0366210938	2.18653798103	-3.39803576469	20.7812347412
-18.9064388275	-56.0680389404	94.2313995361	1.79274690151	-4.58052062988	22.0027008057
-19.6072463989	-56.3346977234	94.2932510376	0.791979670525	-4.49634027481	24.6547775269
-20.9385643005	-56.4583282471	94.6301574707	-0.455841034651	-2.33557868004	29.4025440216
-22.8314399719	-56.2308731079	95.6643371582	-0.122909024358	-0.262836694717	33.3245887756
-24.2319488525	-56.0301856995	96.8178939819	0.554139554501	-0.842826128006	34.5002708435
-25.2870826721	-56.2958526611	97.1151809692	0.610582232475	-0.785380244255	36.9278564453
-26.3972816467	-56.545009613	97.8384246826	0.462946802378	0.0183735769242	38.4963417053
-28.202703476	-56.4554481506	99.0469360352	0.742002606392	0.589486420155	39.2985839844
-29.4157390594	-56.4156723022	99.9102325439	0.577002465725	1.00295102596	39.342628479
-29.6655635834	-56.6215438843	100.125778198	-1.08663737774	0.870188355446	38.1072769165
-29.3813896179	-56.6789894104	99.7284240723	-3.17066264153	1.35998690128	36.7094726562
-28.9983024597	-56.6977386475	99.3189849854	-3.73752641678	1.68299365044	35.2444381714
-28.4370384216	-56.9512176514	98.5175857544	-1.64169669151	1.52632164955	34.0871658325
-28.351732254	-57.0487861633	98.0377578735	1.67451524734	1.45357275009	32.705909729
-27.9420585632	-56.8516120911	97.3812942505	5.42813014984	2.20329880714	29.8641529083
-27.2677841187	-56.8615074158	96.7612228394	7.73814153671	2.67051815987	25.9211215973
-25.8295173645	-57.1228942871	95.4140090942	7.1271739006	3.51325130463	22.7590446472
-24.7968101501	-57.1228179932	94.2518844604	4.66701221466	4.67010736465	21.4188346863
-24.6681861877	-57.1582260132	94.1735305786	4.1609416008	5.33332014084	21.9587841034
-24.9368610382	-57.1268577576	94.3531341553	4.61883401871	5.42309045792	23.1792621613
-24.8741836548	-57.0955276489	94.2154388428	4.13089609146	5.36426305771	23.9122600555
-25.3956546783	-57.1967658997	94.4652633667	2.20711612701	4.71505308151	25.5972614288
-25.7938728333	-57.2354545593	94.5839614868	0.179646939039	3.2446346283	28.9267692566
-26.4092464447	-56.9155731201	95.1750793457	0.354270994663	2.23013281822	32.4935646057
-26.7909984589	-56.9399337769	95.5598068237	2.15211319923	2.08421254158	35.8550567627
-28.0142192841	-57.1232833862	96.4686126709	3.86465787888	1.4998434782	39.6872215271
-29.2130279541	-56.9259643555	97.3963928223	5.04210996628	1.15296649933	42.3731079102
-30.2624759674	-56.4874687195	98.4105377197	4.39699602127	2.21885704994	43.6571846008
-29.8877429962	-56.0540924072	98.1626663208	2.19014525414	3.48385858536	42.8223342896
-28.4223098755	-55.9602470398	96.4498825073	0.123739719391	4.43880367279	41.4122200012
-27.7413253784	-55.9441604614	95.4937210083	-2.01955962181	5.59297323227	37.307723999
-26.2645072937	-56.002155304	93.8443145752	-3.445053339	6.75813865662	31.041053772
-24.6404075623	-56.1770362854	91.8923950195	-3.65895867348	7.56200504303	24.6346149445
-22.9261245728	-56.2237701416	89.8319168091	-3.63990616798	8.53220462799	17.4889621735
-21.4226913452	-56.201915741	88.0632095337	-3.41704821587	10.9485692978	12.0317773819
-20.2650222778	-56.2781715393	86.4607162476	-2.48574471474	13.6347923279	11.0389480591
-19.2376823425	-55.5638961792	84.5975646973	-2.70365858078	14.536523819	11.7207641602
-18.3060951233	-54.9211807251	84.2524871826	-3.30517196655	15.5458145142	11.9676656723
-17.6315917969	-54.6509094238	83.7973861694	-3.23639750481	17.0288085938	12.4264335632
-17.9549541473	-54.5049171448	83.5293197632	-3.85739660263	18.5038642883	12.6289215088
-18.6943817139	-54.7032318115	83.8561401367	-6.39585447311	20.2447032928	11.5842990875
-19.0831413269	-54.8385620117	83.5592880249	-8.59953308105	21.6484489441	10.9510564804
-19.5888004303	-54.5751991272	83.543548584	-9.73886585236	22.4071216583	10.0410442352
-19.0468559265	-54.2684936523	82.1966705322	-9.27198982239	22.9429244995	9.33374023438
-16.2581062317	-52.2877464294	75.4041900635	-8.48285293579	23.3774738312	9.28963470459
-12.8936796188	-47.7935028076	63.3562088013	-8.27613544464	23.9100799561	9.02113437653
-9.59189891815	-43.4459953308	49.9975166321	-7.97341108322	24.3496742249	9.02388572693
-8.34360980988	-39.4602775574	35.1268310547	-7.42251491547	24.4488162994	9.32231616974
-9.15683078766	-37.2908935547	24.8228397369	-6.8213968277	24.3602085114	9.45697307587
-8.852850914	-35.4577522278	18.1383171082	-6.35085582733	23.9405727386	9.52513980865
-8.97062683105	-34.4543609619	15.0047464371	-6.43246650696	22.7502498627	9.2265625
-8.72210216522	-31.5835437775	10.5933132172	-7.33641862869	21.8896198273	8.72098827362
-8.24732112885	-30.0962409973	8.95190620422	-9.44233512878	20.6653060913	7.53947544098
-7.86779594421	-29.2349357605	8.27393341064	-11.753610611	19.2054481506	6.27467107773
-7.71735477448	-28.6216411591	7.53538417816	-14.1253223419	18.4222278595	5.29324913025
-7.9590716362	-27.7743396759	7.17274188995	-16.1202716827	18.381029129	4.46155500412
-8.23425197601	-27.2996673584	6.81551742554	-16.533208847	18.1459178925	4.42838430405
-8.50296497345	-26.6771697998	4.60990190506	-18.1295948029	17.4695339203	4.14253377914
-8.88918113708	-25.2031135559	1.27843129635	-21.2526760101	16.9446296692	3.56418132782
-9.64913654327	-23.0037975311	-3.49413466454	-24.0399494171	17.2492218018	2.92736434937
-10.6552886963	-21.8573970795	-14.072763443	-25.3831520081	17.4588737488	2.49440431595
-10.078458786	-25.6869621277	-27.9416770935	-26.9401874542	16.9516296387	2.06309247017
-10.9697208405	-28.2893104553	-36.5884017944	-29.6335544586	16.6516590118	1.78820312023
-10.1607074738	-27.393705368	-40.8443641663	-32.7783164978	16.5531330109	1.99082016945
-11.0674858093	-25.860042572	-43.1399040222	-35.4987564087	17.0205535889	2.16408371925
-11.7186746597	-23.6569728851	-47.4695701599	-36.893699646	17.6351909637	1.79860877991
-11.4858121872	-23.5122280121	-52.1642456055	-36.9241943359	17.1152973175	1.39886474609
-10.7550258636	-22.5212955475	-56.2941093445	-37.1351928711	16.1193733215	0.812019467354
-8.65938854218	-20.4986228943	-50.5917053223	-35.8848342896	15.7053804398	0.455270051956
-2.56938028336	-16.2827320099	-35.9479217529	-33.258266449	16.5712928772	0.417915761471
1.92213630676	-16.775384903	-26.2186660767	-31.1700954437	16.9331054688	0.379678964615
7.13379049301	-19.6868934631	-12.7218236923	-25.62641716	16.8252334595	1.100954175
10.694814682	-23.8895893097	-2.73887252808	-18.3257598877	17.0045280457	2.61172628403
12.9028596878	-27.6091537476	10.0686922073	-12.0623416901	17.8657798767	3.75287675858
15.443198204	-30.5864677429	29.7665348053	-6.88828468323	18.285369873	4.97319793701
15.7802200317	-41.0856552124	52.2253646851	-4.17483329773	18.563167572	5.67600917816
15.7075185776	-41.7879180908	57.4473190308	-3.62833213806	19.5003948212	5.61381292343
15.3196849823	-42.5124816895	58.2929611206	-3.53931570053	20.4091682434	6.10137653351
13.8762149811	-39.4843978882	55.4992599487	-5.22509241104	20.5692119598	6.95838356018
13.6509399414	-41.1549072266	58.5584564209	-8.46369361877	20.6580371857	7.66651391983
12.6929664612	-40.8805122375	58.3244895935	-13.0422401428	20.8279266357	8.41837692261
11.2012243271	-39.8848228455	58.0533332825	-17.0013885498	21.858455658	8.40901756287
10.2597322464	-39.9009284973	58.2775230408	-17.4623565674	23.2610931396	8.89654636383
8.27285861969	-37.8718223572	54.0486526489	-15.7306270599	22.8944778442	9.47658920288
5.77782201767	-33.7685012817	48.7370109558	-14.3514575958	22.8576774597	9.76867961884
3.64330482483	-30.9827671051	45.3318862915	-14.4165029526	22.976360321	9.80567550659
2.01695513725	-29.9943885803	43.4685783386	-14.757232666	22.844669342	9.7338142395
-1.09802103043	-26.6316833496	32.1968727112	-14.2507772446	22.6620407104	9.85287857056
-3.40382957458	-25.0278491974	25.2171592712	-13.7826213837	22.5942955017	10.0068693161
-5.06158494949	-24.7513122559	19.8761863708	-13.638212204	22.3875198364	9.98316192627
-9.56528282166	-23.0691890717	10.6697349548	-12.9200162888	21.7290897369	9.62414073944
-13.1743459702	-22.2836532593	3.40152001381	-11.581867218	20.9858264923	9.66924190521
-13.9795742035	-22.251531601	3.86834669113	-11.5110988617	20.4626426697	9.57703304291
-14.474697113	-21.9510993958	4.92162656784	-12.2619581223	19.9982318878	9.48652935028
-15.2640066147	-21.2173461914	4.17722654343	-14.164814949	19.3664722443	9.10284423828
-16.329957962	-20.1383571625	2.54862570763	-17.5685768127	19.3026714325	8.42056369781
-18.1409187317	-18.9745750427	0.860591769218	-21.5589084625	18.9412975311	7.698366642
-18.4316196442	-19.3567657471	1.31654155254	-23.1658420563	18.4221916199	7.43922901154
-19.0512104034	-18.8743629456	-1.64716660976	-21.7782249451	18.236869812	7.56886291504
-20.7676124573	-17.4126415253	-7.54256916046	-18.9939498901	17.2299957275	8.22555732727
-24.0036964417	-16.977098465	-13.4975309372	-18.1582374573	15.8354473114	8.57483005524
-26.0321140289	-17.1118755341	-19.1246967316	-18.756072998	14.8715744019	8.68376731873
-27.0226707458	-16.5113353729	-22.2213096619	-19.8621177673	14.6233739853	8.93352222443
-26.9656143188	-14.3215780258	-25.6947536469	-21.3530960083	14.8652601242	9.12051010132
-26.8650951385	-13.0378408432	-28.1464481354	-22.2333278656	15.6784305573	9.43571281433
-26.9795341492	-12.6433515549	-30.7970504761	-24.1096725464	16.8148994446	10.0534124374
-26.8507537842	-13.2795000076	-34.2516784668	-27.2927017212	17.4896278381	10.6610431671
-26.0745849609	-14.3145952225	-31.4160823822	-29.4152145386	17.3172969818	10.8412036896
-26.2663707733	-13.7251176834	-27.0553150177	-29.2551631927	17.9268531799	10.9150972366
-26.5516471863	-13.3904628754	-24.3593883514	-27.9156551361	18.3558120728	10.7671508789
-25.8389358521	-13.5901594162	-21.8261165619	-25.8768348694	18.8773078918	10.5510606766
-24.8144378662	-12.5607566833	-23.0007534027	-23.9469680786	19.0202388763	10.4825258255
-25.0570201874	-12.9198083878	-26.4259319305	-21.9959850311	18.4667243958	10.7741575241
-24.65873909	-12.4246120453	-26.6168727875	-19.8209991455	18.3140468597	10.9890499115
-24.0889167786	-10.6076498032	-26.0186672211	-19.0687828064	18.3932971954	11.0161905289
-24.0277957916	-9.67629241943	-25.1224441528	-19.3021812439	18.3920841217	10.9757671356
-23.7877025604	-9.50684642792	-23.2454528809	-18.8996620178	18.3182849884	10.7433786392
-19.1403942108	-11.7500171661	-12.5163249969	-16.0523643494	17.1144046783	10.2882909775
-15.6286993027	-12.5780324936	-3.18754601479	-11.3315200806	16.7537536621	9.99140167236
-11.1518106461	-13.0823631287	9.9708480835	-4.73961734772	16.9299030304	9.42210102081
-9.27726364136	-14.1611967087	33.7253112793	2.12869739532	18.0172958374	8.70650482178
-8.00819015503	-23.2412719727	68.0255355835	6.29115581512	20.7538509369	7.87796354294
-8.15541172028	-26.8172035217	81.2533340454	8.51790904999	22.7124958038	7.21814393997
-8.81829357147	-28.2753238678	88.1937942505	10.7277259827	24.5388011932	6.17285633087
-9.08556079865	-26.2330570221	78.5518875122	10.0094051361	23.6828479767	6.16294813156
-9.30404567719	-23.7821350098	75.4023666382	6.41032981873	23.2734928131	5.60118246078
-10.2725172043	-27.5266113281	90.2500228882	3.69682621956	23.3552627563	5.63994216919
-13.6881866455	-35.2429466248	110.862983704	1.83614695072	22.5912151337	6.53201055527
-20.3829555511	-39.1049575806	129.170669556	-0.533285558224	21.9961490631	7.22426605225
-25.7209377289	-39.8833618164	132.996078491	-2.44620394707	22.2760238647	7.73961162567
-29.1847801208	-38.3127593994	129.83152771	-3.76336860657	22.4874515533	8.86892318726
-34.2745475769	-37.8332977295	136.230392456	-7.0037021637	22.0727481842	10.7447395325
-33.9353103638	-37.5989837646	132.403259277	-12.6316337585	22.1612453461	13.3789596558
-33.5742340088	-37.7474441528	127.603309631	-18.1598644257	23.0912055969	16.374879837
-33.7174377441	-37.3121833801	121.663101196	-22.6276702881	24.3300037384	18.1989040375
-30.6920261383	-33.7714881897	98.0204696655	-24.8729114532	25.9988670349	18.9354438782
-24.7827415466	-26.1567897797	60.5091438293	-24.2032794952	26.0659694672	19.7327480316
-30.4623527527	-20.1107749939	36.3614501953	-23.8130130768	26.3162307739	20.2694721222
-32.7154273987	-15.2009353638	5.6324634552	-23.5166873932	26.3997592926	20.3202838898
-31.00141716	-12.9862394333	-14.4961395264	-22.5698432922	26.1106929779	20.1552791595
-25.7260456085	-16.7754535675	-28.2260417938	-20.0549564362	25.1064434052	19.8049201965
-26.5479259491	-22.3621311188	-35.1666717529	-17.1220397949	24.2429580688	19.5697231293
-23.88804245	-23.136138916	-45.2397575378	-14.8044147491	23.8754024506	19.266544342
-27.1043567657	-24.2941646576	-49.1654510498	-14.1915388107	24.0750217438	18.8222064972
-26.4706344604	-23.5741615295	-54.3559875488	-14.3247814178	24.0792217255	18.5536460876
-25.9246673584	-24.126209259	-55.3601150513	-14.6854782104	23.7993106842	18.5045871735
-26.2742156982	-24.0783596039	-54.8475036621	-16.4905376434	22.8969135284	18.3165073395
-27.0076217651	-24.2472229004	-55.5360145569	-19.3626689911	21.9482746124	18.4632148743
-27.8561573029	-25.5035915375	-57.3312492371	-21.1323680878	21.2902202606	18.8208675385
-28.7730941772	-27.4589271545	-59.1332626343	-20.7270755768	20.5788764954	19.4907093048
-29.6075286865	-31.3322715759	-61.1745147705	-19.9679641724	19.5369644165	19.8853855133
-30.8389911652	-32.5053062439	-61.3212814331	-19.2718925476	18.7910175323	20.1721687317
-30.6950359344	-31.7158069611	-62.0484466553	-18.5639019012	18.9533672333	20.1581001282
