0.164142847061	1.42961907387	0.10805439949	0.0747292041779	1.64097058773	-0.124633550644
0.164686203003	1.43017828465	0.107400178909	0.0753884315491	1.6407020092	-0.12524330616
0.166414260864	1.43117666245	0.106727004051	0.0751693248749	1.64089012146	-0.125144720078
0.166421413422	1.43138110638	0.106432437897	0.0733299255371	1.64327383041	-0.124757528305
0.164778709412	1.42998838425	0.107587337494	0.0668261051178	1.64906919003	-0.125087499619
0.161596059799	1.42745625973	0.111787557602	0.0561497211456	1.65459263325	-0.126189947128
0.155302047729	1.42689728737	0.114977359772	0.0426399707794	1.65942537785	-0.128599643707
0.148505210876	1.42778801918	0.122118711472	0.029198884964	1.66490995884	-0.133569478989
0.141770124435	1.42563831806	0.138171195984	0.0198402404785	1.66989696026	-0.140424132347
0.130367279053	1.41507327557	0.159034252167	0.0118556022644	1.67316699028	-0.147015094757
0.114353179932	1.41144514084	0.151378393173	0.0028772354126	1.67296719551	-0.151462554932
0.119976043701	1.41010773182	0.138951063156	-0.00767469406128	1.66987407207	-0.153045892715
0.137758493423	1.41039872169	0.122467160225	-0.0113987922668	1.66648948193	-0.149878978729
0.132152080536	1.41876852512	0.121988654137	-0.00530982017517	1.66643798351	-0.143577337265
0.123528242111	1.429869771	0.109019160271	0.0058605670929	1.66940069199	-0.139123678207
0.120397090912	1.43723678589	0.0973143577576	0.0180113315582	1.67357468605	-0.138366580009
0.123029708862	1.43927848339	0.0912955999374	0.026148557663	1.67738771439	-0.139985561371
0.1262383461	1.43719363213	0.091301202774	0.029972076416	1.68011260033	-0.141947746277
0.127310037613	1.43340194225	0.0953311920166	0.0298504829407	1.68055033684	-0.142790317535
0.12895321846	1.43148195744	0.100179076195	0.0280575752258	1.6802700758	-0.142789721489
0.130744218826	1.4315251112	0.104817390442	0.0278084278107	1.68059360981	-0.144370436668
0.135626077652	1.43451154232	0.113930702209	0.028626203537	1.68050694466	-0.145869731903
0.140323400497	1.44172930717	0.124650001526	0.0291709899902	1.678596735	-0.145962238312
0.146564483643	1.45298147202	0.143460512161	0.028450012207	1.67575001717	-0.144644975662
0.144332647324	1.46005606651	0.153472185135	0.0277564525604	1.67369484901	-0.143458843231
0.138549089432	1.46178710461	0.161961317062	0.0261943340302	1.67319023609	-0.143495798111
0.131635904312	1.46033275127	0.161418914795	0.0230236053467	1.67390608788	-0.144936561584
0.127317905426	1.4594656229	0.161012887955	0.0202639102936	1.67448318005	-0.147345304489
0.12664270401	1.46144783497	0.161567091942	0.0181031227112	1.67515790462	-0.150259494781
0.126981496811	1.46509039402	0.160916805267	0.0158579349518	1.67598843575	-0.154001832008
0.127952575684	1.46868050098	0.162914037704	0.0126707553864	1.67675578594	-0.157731533051
0.128048181534	1.47079658508	0.167577505112	0.0101494789124	1.67705333233	-0.161088228226
0.123427152634	1.47176671028	0.173872709274	0.0086145401001	1.67668890953	-0.162777423859
0.119672775269	1.4716578722	0.174422979355	0.00868988037109	1.6761354208	-0.16377556324
0.11764550209	1.47153091431	0.174769759178	0.00854516029358	1.67563545704	-0.164149284363
0.117042779922	1.47250211239	0.180827617645	0.0084867477417	1.6754206419	-0.164309382439
0.117380142212	1.47413337231	0.186708688736	0.00797653198242	1.67517125607	-0.164059400558
0.109016418457	1.47619724274	0.189614772797	0.00671029090881	1.6749767065	-0.164104700089
0.104012012482	1.47647249699	0.187349319458	0.00571322441101	1.67500269413	-0.164826750755
0.107846260071	1.4748942852	0.180809497833	0.00529074668884	1.67507696152	-0.165597438812
0.111025810242	1.47575604916	0.165117263794	0.00523591041565	1.67513334751	-0.165973782539
0.101881504059	1.48385369778	0.157334327698	0.00572538375854	1.67498314381	-0.165346384048
0.0953252315521	1.48761260509	0.15233039856	0.00655102729797	1.67448174953	-0.164328694344
0.0976591110229	1.48863315582	0.151516199112	0.00768828392029	1.67427027225	-0.163535118103
0.0959923267365	1.48901391029	0.1569262743	0.00897455215454	1.67443609238	-0.162899017334
0.0874216556549	1.48856592178	0.158311009407	0.00976371765137	1.67475163937	-0.161575198174
0.0809373855591	1.48628139496	0.158955216408	0.0120987892151	1.67519366741	-0.159700155258
0.0881536006927	1.48477447033	0.160923600197	0.0201826095581	1.676410079	-0.158809423447
0.100311279297	1.48566186428	0.165895104408	0.0328104496002	1.67756044865	-0.159366846085
0.107841491699	1.48759579659	0.161548495293	0.0440742969513	1.67742645741	-0.15987598896
0.112555503845	1.48939347267	0.151230573654	0.0485217571259	1.67544531822	-0.158014535904
0.119044065475	1.49198925495	0.14490032196	0.0494256019592	1.67299377918	-0.154615402222
0.12570810318	1.49379384518	0.139824271202	0.0504400730133	1.67029094696	-0.152356863022
0.128197193146	1.49433028698	0.140745162964	0.0515220165253	1.66922581196	-0.151207089424
0.130629777908	1.4935580492	0.138722658157	0.0511221885681	1.66876471043	-0.150088787079
0.127769470215	1.49219834805	0.135008573532	0.0477321147919	1.66830849648	-0.148423433304
0.12481880188	1.49213397503	0.137519598007	0.0397291183472	1.668410182	-0.146692991257
0.121329545975	1.49194920063	0.139739274979	0.0276489257812	1.66920268536	-0.147301435471
0.114775896072	1.49100220203	0.137845039368	0.0160624980927	1.6701682806	-0.14974963665
0.106991052628	1.48897695541	0.138303041458	0.0110890865326	1.6709523201	-0.151956439018
0.104562282562	1.48844349384	0.14038670063	0.0102195739746	1.67197048664	-0.15332865715
0.103979110718	1.48932301998	0.140228033066	0.00823211669922	1.67363345623	-0.155596256256
0.105130672455	1.49033153057	0.139030337334	0.00590062141418	1.67704355717	-0.158181190491
0.106654882431	1.48999047279	0.138230085373	0.00451564788818	1.68251037598	-0.159828662872
0.107800006866	1.48846447468	0.138205289841	0.00511980056763	1.6856251955	-0.160058021545
0.10812664032	1.48680567741	0.14013838768	0.00733041763306	1.68492257595	-0.156076669693
0.107188940048	1.48549723625	0.140891551971	0.00880193710327	1.68210601807	-0.14960193634
0.10461306572	1.48483479023	0.136209130287	0.0103526115417	1.68021726608	-0.144204854965
0.101744174957	1.48611748219	0.131322622299	0.0118923187256	1.68012237549	-0.141220808029
0.100966691971	1.48763036728	0.127768874168	0.0127539634705	1.68124318123	-0.140757799149
0.0995028018951	1.48842358589	0.124000668526	0.0124850273132	1.68243515491	-0.141813278198
0.0982086658478	1.48828673363	0.120725274086	0.0112707614899	1.68178427219	-0.142526865005
0.099378824234	1.49001920223	0.117406845093	0.0107226371765	1.68046593666	-0.142410159111
0.0922384262085	1.49040961266	0.115287542343	0.0107793807983	1.67881023884	-0.142481327057
0.0845439434052	1.48810088634	0.111374974251	0.0113658905029	1.67805719376	-0.142432928085
0.0799334049225	1.48432123661	0.107721328735	0.0118229389191	1.6780025959	-0.142298936844
0.0784432888031	1.48253118992	0.107909202576	0.0118536949158	1.67807650566	-0.142308473587
0.0745587348938	1.48005890846	0.108070254326	0.0119261741638	1.67814087868	-0.14292371273
0.0718240737915	1.47892701626	0.101712942123	0.0122401714325	1.67807006836	-0.143766403198
0.0604112148285	1.47045552731	0.0864633321762	0.0129787921906	1.67808687687	-0.144635915756
0.047150850296	1.46525871754	0.0841314792633	0.0136859416962	1.67812800407	-0.145451307297
0.0442152023315	1.46700334549	0.0938881635666	0.0142905712128	1.67793726921	-0.146572709084
0.0648005008698	1.47912704945	0.0918526649475	0.0146188735962	1.67796385288	-0.147442102432
0.0871706008911	1.4874150753	0.0772709846497	0.0150017738342	1.67778241634	-0.147963166237
