0.0621089935303	1.48745846748	0.0898214578629	0.000874042510986	1.65023899078	-0.0944049358368
0.0612983703613	1.48757779598	0.0899928808212	0.000295400619507	1.65012061596	-0.0945158004761
0.0611033439636	1.48758268356	0.0899052619934	-0.000189781188965	1.6501352787	-0.0944194793701
0.0609562397003	1.48754990101	0.0903739929199	-0.00046968460083	1.65026116371	-0.0942885875702
0.0609946250916	1.48745632172	0.0913089513779	-0.000589609146118	1.65031254292	-0.0939924716949
0.060840845108	1.48728585243	0.0918107032776	-0.00131678581238	1.65232646465	-0.0945754051208
0.0601315498352	1.48622000217	0.0932780504227	-0.00300097465515	1.65563511848	-0.096027135849
0.0596721172333	1.4855966568	0.0949341058731	-0.00512766838074	1.65819168091	-0.0969995260239
0.0592308044434	1.48567819595	0.0956305265427	-0.00782704353333	1.6612226963	-0.098685503006
0.0589022636414	1.48565232754	0.097060918808	-0.0111331939697	1.66506493092	-0.100968003273
0.0585370063782	1.48499286175	0.098660826683	-0.0145938396454	1.66838598251	-0.103520870209
0.0585739612579	1.48433506489	0.0997463464737	-0.0172543525696	1.67171561718	-0.106660962105
0.0589380264282	1.4838218689	0.100843429565	-0.0194451808929	1.67436182499	-0.109694004059
0.0589346885681	1.48363864422	0.101249456406	-0.0208201408386	1.67599213123	-0.112241029739
0.0584604740143	1.48298215866	0.100818157196	-0.0207765102386	1.67727732658	-0.114073991776
0.0582084655762	1.48336422443	0.100852608681	-0.0198471546173	1.6782323122	-0.116329908371
0.0563759803772	1.4827606678	0.0995712280273	-0.0189445018768	1.67930912971	-0.118757963181
0.0561859607697	1.4829877615	0.0985028743744	-0.0187153816223	1.6797208786	-0.121255874634
0.056421995163	1.48379409313	0.0973733663559	-0.0187504291534	1.67978560925	-0.123345255852
0.0562045574188	1.4845354557	0.0948901176453	-0.0188345909119	1.67973947525	-0.12549829483
0.0561308860779	1.48549807072	0.0924112796783	-0.0190732479095	1.67969274521	-0.127637624741
0.0566062927246	1.48663008213	0.0915107727051	-0.0194318294525	1.67996108532	-0.130178928375
0.0574939250946	1.48758101463	0.0911450386047	-0.0200095176697	1.68071460724	-0.133673429489
0.0586137771606	1.48868358135	0.0913460254669	-0.0204622745514	1.68120825291	-0.138352394104
0.0585474967957	1.48971736431	0.0900543928146	-0.020806312561	1.68168210983	-0.143619537354
0.0583608150482	1.49068903923	0.0873959064484	-0.0214593410492	1.6817586422	-0.149079084396
0.0579075813293	1.49204385281	0.08343064785	-0.0223948955536	1.68129968643	-0.154309272766
0.0578064918518	1.49420070648	0.0804526805878	-0.0231173038483	1.68108940125	-0.160132646561
0.0588982105255	1.49626266956	0.0767831802368	-0.0232083797455	1.6803176403	-0.166247844696
0.0583996772766	1.49834311008	0.0738744735718	-0.0216159820557	1.67802786827	-0.170882463455
0.057116985321	1.49999368191	0.0699634552002	-0.0201687812805	1.67609286308	-0.174959540367
0.0558698177338	1.50109279156	0.0654060840607	-0.0211691856384	1.67529785633	-0.179241895676
0.0559048652649	1.50201940536	0.0634415149689	-0.0224845409393	1.67506682873	-0.18244099617
0.0575180053711	1.50277137756	0.0626029968262	-0.0227811336517	1.67484712601	-0.183725118637
0.0588390827179	1.50320708752	0.0621606111526	-0.0227370262146	1.67408072948	-0.183050513268
0.0583536624908	1.50240170956	0.0626102685928	-0.0233194828033	1.67342638969	-0.181088685989
0.0567364692688	1.50052952766	0.0632057189941	-0.0247325897217	1.6728490591	-0.178614616394
0.0555055141449	1.49870812893	0.0649185180664	-0.0268111228943	1.67255938053	-0.176160335541
0.0542984008789	1.49743855	0.0677855014801	-0.0290350914001	1.67263484001	-0.173777341843
0.0534880161285	1.49708175659	0.0706423521042	-0.0310072898865	1.6724973917	-0.170805692673
0.0483276844025	1.49540841579	0.0691684484482	-0.0323538780212	1.67247676849	-0.167565226555
0.0465149879456	1.49468302727	0.0669497251511	-0.032731294632	1.67309272289	-0.164681315422
0.047159910202	1.49471700191	0.0647296905518	-0.0322904586792	1.67405939102	-0.162021398544
0.0475034713745	1.49392342567	0.0653837919235	-0.0331029891968	1.67477297783	-0.160307049751
0.0471799373627	1.49228990078	0.0675963163376	-0.035019159317	1.67569160461	-0.15941119194
0.0461597442627	1.49041712284	0.0672659873962	-0.0397908687592	1.67687237263	-0.159770965576
0.0453357696533	1.48946714401	0.0674308538437	-0.0461630821228	1.6763702631	-0.160707473755
0.0465240478516	1.4903677702	0.0682744979858	-0.0503959655762	1.67475473881	-0.160239577293
0.0481150150299	1.49194061756	0.067859172821	-0.0531287193298	1.67417514324	-0.161071062088
0.0505647659302	1.49362254143	0.0689322948456	-0.0530173778534	1.67518317699	-0.162864089012
0.0542051792145	1.49531900883	0.0695159435272	-0.0519058704376	1.67556345463	-0.164149165154
0.0508036613464	1.49417865276	0.0695315599442	-0.0514850616455	1.67461490631	-0.16382920742
0.047114610672	1.49208033085	0.0660783052444	-0.0509202480316	1.67405939102	-0.163191795349
0.0444915294647	1.49090719223	0.0630818605423	-0.0504593849182	1.67404878139	-0.162537336349
0.0447587966919	1.49109494686	0.0633721351624	-0.0496559143066	1.67439174652	-0.162249803543
0.0463545322418	1.49271702766	0.0659332275391	-0.0463812351227	1.67509531975	-0.16153717041
0.0478281974792	1.49418330193	0.0676348209381	-0.0386004447937	1.67566049099	-0.160086393356
0.0465927124023	1.49397552013	0.0651082992554	-0.0353653430939	1.67551290989	-0.159216403961
0.0449755191803	1.49227762222	0.0629198551178	-0.0380275249481	1.67532634735	-0.159067630768
0.0466244220734	1.49169790745	0.0630729198456	-0.0394537448883	1.67560589314	-0.159668922424
0.0472242832184	1.49213850498	0.0622140169144	-0.0386953353882	1.67639756203	-0.160668134689
0.0473618507385	1.49132192135	0.0569438934326	-0.0369358062744	1.67682158947	-0.161233901978
0.046826839447	1.48950707912	0.0502626895905	-0.034042596817	1.6772569418	-0.160989046097
0.0459764003754	1.48809766769	0.0445082187653	-0.0304317474365	1.67706644535	-0.159975528717
0.0425362586975	1.4865950346	0.0435788631439	-0.0272753238678	1.67588317394	-0.157965183258
0.0427484512329	1.48743474483	0.0460958480835	-0.0228748321533	1.6738550663	-0.154628992081
0.0442981719971	1.48901963234	0.0474455356598	-0.0176372528076	1.67200171947	-0.15150141716
0.0455176830292	1.49059474468	0.0481333732605	-0.0155861377716	1.67125928402	-0.148640394211
0.0470364093781	1.4901061058	0.0485002994537	-0.0152833461761	1.67091357708	-0.147284507751
0.0470502376556	1.48862230778	0.0502086877823	-0.0151431560516	1.67051994801	-0.146716356277
0.0480141639709	1.48863708973	0.050795674324	-0.0154628753662	1.67072701454	-0.14746940136
0.0493302345276	1.48907649517	0.0509724617004	-0.0156786441803	1.6710909605	-0.14892077446
0.0488362312317	1.49037873745	0.050178527832	-0.0156486034393	1.67138624191	-0.150881290436
0.0519881248474	1.49376249313	0.0493708848953	-0.0157361030579	1.6715439558	-0.153023004532
0.0533003807068	1.49518859386	0.0470564365387	-0.0158717632294	1.67206585407	-0.155801057816
0.051568031311	1.49459064007	0.0465927124023	-0.0160171985626	1.67293834686	-0.158303499222
0.0491409301758	1.49354147911	0.0463501214981	-0.0164880752563	1.67343389988	-0.160169243813
0.0502388477325	1.49539971352	0.0467834472656	-0.0165967941284	1.67355954647	-0.161383152008
0.0524308681488	1.49635028839	0.0481966733932	-0.0165483951569	1.67439258099	-0.162504911423
0.0543067455292	1.49754881859	0.0492281913757	-0.0170440673828	1.6754963398	-0.16360616684
0.056117773056	1.49849450588	0.0514626502991	-0.0170698165894	1.67619287968	-0.163998007774
0.0572834014893	1.4984023571	0.0501766204834	-0.0166039466858	1.67671096325	-0.163908243179
0.0567193031311	1.49747955799	0.0461258888245	-0.0161097049713	1.67728352547	-0.164072751999
0.0563757419586	1.49714112282	0.0452196598053	-0.0161471366882	1.67747879028	-0.164160490036
0.0570652484894	1.4976888895	0.0468645095825	-0.0167186260223	1.67800343037	-0.165130257607
0.0586569309235	1.49897801876	0.0483405590057	-0.0170392990112	1.67871069908	-0.166585922241
0.0620951652527	1.50074732304	0.0486736297607	-0.0170245170593	1.6785992384	-0.167675018311
0.06551861763	1.50179052353	0.047844171524	-0.0170965194702	1.67818772793	-0.167525291443
0.0672452449799	1.50235974789	0.0468099117279	-0.0169153213501	1.67786252499	-0.16709113121
0.0654580593109	1.50161588192	0.0485507249832	-0.0166265964508	1.67777502537	-0.166414022446
0.0581946372986	1.49948775768	0.0544493198395	-0.0169758796692	1.67727792263	-0.165409088135
0.0537719726562	1.49689698219	0.0549954175949	-0.0178022384644	1.67697954178	-0.165055751801
0.0540065765381	1.4973577261	0.0551961660385	-0.0189871788025	1.67717468739	-0.165337085724
0.0530004501343	1.49810600281	0.0553708076477	-0.021003484726	1.67694056034	-0.166337251663
0.0494892597198	1.49837040901	0.0565795898438	-0.0230183601379	1.67659842968	-0.167572498322
0.0509326457977	1.49959754944	0.0546735525131	-0.0235507488251	1.67648804188	-0.169106721878
0.0547971725464	1.5011138916	0.0518178939819	-0.0230555534363	1.676607728	-0.170161724091
0.0580089092255	1.5020172596	0.0512064695358	-0.0235810279846	1.67651534081	-0.170725464821
0.0616095066071	1.50320720673	0.0531070232391	-0.0243146419525	1.67649269104	-0.171385526657
0.0647208690643	1.50410950184	0.0568989515305	-0.0252907276154	1.67645561695	-0.171892046928
0.067097902298	1.50504231453	0.0602911710739	-0.0267775058746	1.67639553547	-0.172699928284
0.0690116882324	1.50647997856	0.0616449117661	-0.0284812450409	1.67616939545	-0.173397064209
0.0664172172546	1.50672459602	0.062884926796	-0.030440568924	1.67560100555	-0.173390626907
0.0590195655823	1.50535285473	0.0629756450653	-0.0337917804718	1.67451345921	-0.172540426254
0.0550589561462	1.50522136688	0.0617033243179	-0.0380883216858	1.67328464985	-0.171600103378
0.0506157875061	1.50419533253	0.0598993301392	-0.0417900085449	1.67291593552	-0.171269416809
0.0496456623077	1.50425970554	0.0601785182953	-0.0435945987701	1.67303442955	-0.171342849731
0.0520408153534	1.50508821011	0.061387181282	-0.0418605804443	1.6733891964	-0.170596837997
0.0577876567841	1.50662279129	0.066792845726	-0.0389432907104	1.67349803448	-0.169517874718
0.0614340305328	1.5063970089	0.0653760433197	-0.0371658802032	1.6736985445	-0.168401002884
0.0634059906006	1.5065472126	0.065771818161	-0.0367295742035	1.67351448536	-0.167174100876
0.06618309021	1.50717973709	0.0664628744125	-0.0364031791687	1.67333519459	-0.166326522827
0.0697908401489	1.50792038441	0.0685713291168	-0.0359854698181	1.67325413227	-0.165754556656
0.0722990036011	1.50681197643	0.0694311857224	-0.0359501838684	1.67332160473	-0.165075540543
0.0722482204437	1.50505685806	0.0708522796631	-0.0360064506531	1.67302286625	-0.164418935776
0.0727567672729	1.50431108475	0.0790066719055	-0.0359644889832	1.67266428471	-0.164204120636
0.0737557411194	1.5039910078	0.0865792036057	-0.0362300872803	1.67252361774	-0.164579629898
0.0720846652985	1.50305402279	0.0882127285004	-0.0366234779358	1.67206597328	-0.165198683739
0.070946931839	1.50298905373	0.0882247686386	-0.0369782447815	1.67200231552	-0.166039586067
0.0642910003662	1.50291848183	0.0821260213852	-0.0367455482483	1.67206096649	-0.166051387787
0.0564658641815	1.50181829929	0.077075958252	-0.035897731781	1.67180430889	-0.164871454239
0.0543925762177	1.50063109398	0.0727868080139	-0.0355172157288	1.67157721519	-0.163399934769
0.0536682605743	1.50043845177	0.0706013441086	-0.0361287593842	1.67149615288	-0.162167310715
0.0533368587494	1.50031173229	0.0741329193115	-0.0370509624481	1.67213618755	-0.162168502808
0.0566880702972	1.50239431858	0.0815849304199	-0.0387742519379	1.67203891277	-0.16270005703
0.0567057132721	1.50272917747	0.0906895399094	-0.0411512851715	1.67166960239	-0.163093328476
0.0544354915619	1.50188088417	0.0964670181274	-0.0450172424316	1.67113935947	-0.163666605949
0.0545973777771	1.50112187862	0.10514831543	-0.0503070354462	1.67045092583	-0.164002418518
0.0593857765198	1.50093781948	0.118483185768	-0.0554797649384	1.66954374313	-0.16406917572
0.067483663559	1.49940013885	0.132734060287	-0.0580825805664	1.66870832443	-0.163082122803
0.0719821453094	1.49692499638	0.141480922699	-0.0588102340698	1.66814339161	-0.161639451981
0.0749189853668	1.49397826195	0.146453738213	-0.0603666305542	1.6675337553	-0.160520553589
0.0778892040253	1.49156093597	0.149831056595	-0.0636115074158	1.66680884361	-0.160022258759
0.080780506134	1.4910132885	0.15286898613	-0.0674450397491	1.66593849659	-0.160296678543
0.0824663639069	1.48978018761	0.155802607536	-0.0703632831573	1.66521811485	-0.16077709198
0.0834596157074	1.48714697361	0.160431146622	-0.0719680786133	1.66441679001	-0.160888195038
0.0829274654388	1.48651993275	0.156643629074	-0.0730738639832	1.6642677784	-0.160888791084
0.0799283981323	1.48741173744	0.147085666656	-0.0742990970612	1.66405236721	-0.161245584488
0.0777928829193	1.48837888241	0.138477683067	-0.0760142803192	1.66391682625	-0.162110328674
0.0766685009003	1.48885560036	0.135260343552	-0.0771794319153	1.66369783878	-0.163486242294
0.0765659809113	1.48933005333	0.134747266769	-0.0771110057831	1.6636646986	-0.164264917374
0.0773439407349	1.49064469337	0.130400419235	-0.0763275623322	1.6642780304	-0.165111660957
0.0798072814941	1.49157178402	0.120504260063	-0.0743474960327	1.66539692879	-0.166186332703
0.082072019577	1.49200880527	0.108827590942	-0.0720906257629	1.66646754742	-0.167110681534
0.083420753479	1.49387943745	0.104441165924	-0.0701653957367	1.66664397717	-0.167125463486
