0.0	-0.0	136.96875	35.2405853271	80.3845825195	-30.9444313049
0.0	-0.0	137.018890381	35.1448135376	80.0885467529	-30.7562427521
0.0	-0.0	136.575775146	35.1926040649	80.1286087036	-30.4171581268
0.0	-0.0	136.662612915	35.1244926453	80.0577926636	-30.4060344696
0.0	-0.0	136.70803833	34.9752235413	80.2961349487	-30.4877548218
0.0	-0.0	136.626968384	34.6392822266	80.3890380859	-30.5821704865
0.0	-0.0	136.224472046	34.5055046082	80.3527145386	-31.3727397919
0.0	-0.0	135.701660156	33.3596000671	79.2909317017	-33.9747581482
0.0	-0.0	134.516494751	31.8063335419	80.435005188	-41.493183136
0.0	-0.0	133.406921387	30.6825580597	81.845664978	-49.0301437378
0.0	-0.0	132.369674683	30.2921352386	81.4174118042	-50.1828460693
0.0	-0.0	131.81803894	30.6291389465	81.759803772	-50.0073013306
0.0	-0.0	130.990188599	30.7916603088	81.8262710571	-49.752407074
0.0	-0.0	128.642684937	30.8393535614	82.0335235596	-50.1036300659
0.0	-0.0	126.01033783	31.0156860352	82.6701507568	-51.6107063293
0.0	-0.0	122.967216492	30.538230896	83.0963516235	-52.5239067078
0.0	-0.0	117.795310974	30.9604873657	83.4463195801	-52.3421630859
0.0	-0.0	113.492027283	30.8261909485	83.3955688477	-52.799282074
0.0	-0.0	110.887023926	30.6105117798	83.6394195557	-52.8698043823
0.0	-0.0	109.109107971	30.4739360809	83.6654129028	-52.9856376648
0.0	-0.0	106.63067627	30.3802719116	83.9830551147	-53.0183105469
0.0	-0.0	102.536262512	30.3577957153	83.6969985962	-53.2191810608
0.0	-0.0	93.6107635498	30.2325687408	83.8885421753	-53.001083374
0.0	-0.0	85.1673660278	30.0842323303	84.2085113525	-53.1972351074
0.0	-0.0	82.4285507202	29.8339004517	84.4934921265	-53.7636070251
0.0	-0.0	82.1072006226	29.5583744049	84.9583740234	-53.5990638733
0.0	-0.0	82.1019897461	29.5790920258	85.0799713135	-53.481842041
0.0	-0.0	82.2521972656	29.7014942169	85.2007980347	-53.2963562012
0.0	-0.0	81.6822357178	29.9602680206	86.3288040161	-53.1127929688
0.0	-0.0	81.3123550415	-150.468154907	89.5885391235	130.319534302
0.0	-0.0	80.371963501	-152.342529297	82.3845672607	135.150177002
0.0	-0.0	79.823638916	-153.090820312	71.7564697266	136.230743408
0.0	-0.0	79.9003829956	-151.795166016	66.7803115845	137.683898926
0.0	-0.0	80.370223999	-152.238937378	61.7249145508	137.557357788
0.0	-0.0	80.817199707	-152.561889648	54.0807876587	140.85824585
0.0	-0.0	82.2897949219	-152.006881714	50.8777503967	143.524093628
0.0	-0.0	83.5007247925	-150.265777588	46.0351867676	143.281326294
0.0	-0.0	84.4279708862	-150.6378479	46.5141868591	141.843551636
0.0	-0.0	85.7625808716	-150.644256592	46.1503372192	139.97227478
0.0	-0.0	86.9947280884	-152.180587769	43.5081062317	135.423706055
0.0	-0.0	86.3340301514	-153.198226929	42.8033943176	133.903289795
0.0	-0.0	86.7349700928	-153.892349243	42.8866844177	133.599822998
0.0	-0.0	90.1018829346	-154.428009033	42.9198608398	133.729278564
0.0	-0.0	90.450340271	-154.969161987	42.88438797	133.661865234
0.0	-0.0	89.3985290527	-154.830230713	43.3270301819	133.799789429
0.0	-0.0	87.7053527832	-155.195678711	43.8910675049	133.962890625
0.0	-0.0	84.7310943604	-155.348861694	44.4133224487	133.748336792
0.0	-0.0	82.0095901489	-155.975143433	44.5396881104	133.435958862
0.0	-0.0	78.843208313	-156.658218384	44.7012062073	133.475967407
0.0	-0.0	75.3219909668	-157.047805786	44.8386001587	133.348129272
0.0	-0.0	70.479637146	-157.321975708	44.5183639526	132.829956055
0.0	-0.0	65.5367202759	-157.835205078	44.1694869995	131.979614258
0.0	-0.0	62.7922935486	-157.977050781	43.9134941101	131.86340332
0.0	-0.0	62.120349884	-158.024383545	43.5999336243	131.716598511
0.0	-0.0	61.4962501526	-158.139724731	43.5138092041	131.650817871
0.0	-0.0	59.7549476624	-158.612091064	43.1803970337	130.974884033
0.0	-0.0	58.3408355713	-159.613357544	42.4604377747	129.988067627
0.0	-0.0	57.6200256348	-160.236755371	42.5461463928	129.643005371
0.0	-0.0	56.4963951111	-161.056991577	43.0139579773	129.109527588
0.0	-0.0	56.4523353577	-162.105316162	43.1872558594	128.505020142
0.0	-0.0	55.284526825	-163.161804199	42.7746009827	127.990791321
0.0	-0.0	55.5160675049	-163.48210144	42.0716667175	126.802246094
0.0	-0.0	55.6747093201	-163.686691284	41.7282981873	126.178565979
0.0	-0.0	55.5258789062	-164.342376709	40.6959953308	124.09916687
0.0	-0.0	55.458114624	-163.993041992	40.7404785156	124.803443909
0.0	-0.0	55.5623130798	-164.564559937	40.3930778503	123.904197693
0.0	-0.0	55.9784240723	-165.278060913	40.6249465942	124.373474121
0.0	-0.0	56.2743644714	-165.948791504	40.5171127319	124.069046021
0.0	-0.0	56.5559234619	-166.405639648	40.3281555176	124.082672119
0.0	-0.0	56.6563148499	-166.579345703	39.7280921936	123.174072266
0.0	-0.0	57.0683403015	-166.536819458	39.1796112061	122.488685608
0.0	-0.0	57.239200592	-166.239456177	37.8708114624	120.617713928
0.0	-0.0	57.7467765808	-166.010345459	37.4720535278	120.339393616
0.0	-0.0	57.9783554077	-166.044967651	37.1100082397	120.128669739
0.0	-0.0	57.3326377869	-166.316986084	36.8433227539	119.63155365
0.0	-0.0	55.7813987732	-166.42237854	36.5367927551	119.492385864
0.0	-0.0	52.8956756592	-167.08442688	36.3442115784	118.873504639
0.0	-0.0	49.3452148438	-167.514556885	36.3087768555	118.738433838
0.0	-0.0	48.6807937622	-167.446884155	36.7710227966	119.574928284
0.0	-0.0	49.1749382019	-167.309906006	36.8977966309	119.935012817
0.0	-0.0	49.7879333496	-166.529327393	37.3563728333	120.016494751
0.0	-0.0	50.9802017212	-165.02180481	37.4550437927	120.005195618
0.0	-0.0	55.1128234863	-163.31427002	36.9597625732	120.468551636
0.0	-0.0	60.3310127258	-161.253463745	36.6536865234	120.796028137
0.0	-0.0	61.5422859192	-159.261795044	36.422454834	120.761909485
0.0	-0.0	61.2686386108	-157.941665649	36.4130859375	120.636230469
0.0	-0.0	63.0892333984	-156.587417603	36.3703842163	120.984848022
0.0	-0.0	63.6972503662	-155.002059937	36.8367042542	123.978088379
0.0	-0.0	61.8598175049	-152.748687744	38.7772331238	126.761505127
0.0	-0.0	61.632270813	-153.028823853	41.0102310181	127.889175415
0.0	-0.0	61.7314186096	-153.358551025	41.8158912659	128.561141968
0.0	-0.0	61.6388282776	-153.60559082	42.2990722656	128.740859985
0.0	-0.0	61.0680923462	-153.394607544	43.2469749451	130.319290161
0.0	-0.0	60.2475738525	-153.640579224	43.165561676	130.065170288
0.0	-0.0	59.8487739563	-154.061599731	42.9078559875	129.507369995
0.0	-0.0	60.1096420288	-155.053237915	42.4945335388	128.827102661
0.0	-0.0	59.8012008667	-155.114944458	41.9037361145	128.892944336
0.0	-0.0	59.8553314209	-155.547698975	41.9044075012	128.706939697
0.0	-0.0	59.5321044922	-154.847351074	42.0193443298	129.663024902
0.0	-0.0	59.0330200195	-153.694854736	42.0012588501	131.081726074
0.0	-0.0	58.5486984253	-152.275024414	41.8631019592	133.734512329
