0.177358388901	1.45520377159	0.234823822975	0.062625169754	1.63398122787	-0.103157758713
0.177017450333	1.4544352293	0.23335814476	0.0616836547852	1.63248956203	-0.102473020554
0.17577123642	1.4537705183	0.232619047165	0.0604054927826	1.63200235367	-0.102565765381
0.175663471222	1.45388913155	0.232138872147	0.0592880249023	1.63214969635	-0.102988958359
0.175965070724	1.4547700882	0.231798171997	0.0581407546997	1.6322261095	-0.103630542755
0.174999952316	1.45499014854	0.231688499451	0.0541887283325	1.63395047188	-0.103625535965
0.174597024918	1.45634293556	0.231063008308	0.0438094139099	1.63603055477	-0.103387117386
0.173686027527	1.45809364319	0.230206131935	0.0313124656677	1.63846194744	-0.103998661041
0.170344829559	1.45909488201	0.228806495667	0.022280216217	1.64131867886	-0.106764316559
0.164628505707	1.45909821987	0.226832985878	0.0176427364349	1.64547145367	-0.110683202744
0.159428834915	1.45959925652	0.224338054657	0.0163300037384	1.65047335625	-0.115465521812
0.154039382935	1.45853686333	0.222106218338	0.0178370475769	1.65508937836	-0.120477318764
0.150227308273	1.45764613152	0.220669269562	0.0210266113281	1.65905034542	-0.125478386879
0.151446580887	1.45993614197	0.219555735588	0.0228910446167	1.66004252434	-0.12929558754
0.154176235199	1.46196806431	0.218323945999	0.0241801738739	1.65989410877	-0.131373167038
0.157302379608	1.46274423599	0.216799736023	0.0253148078918	1.66079390049	-0.132704973221
0.159338951111	1.46180987358	0.216654658318	0.026376247406	1.66599309444	-0.136132001877
0.16019821167	1.45945155621	0.21789431572	0.0274882316589	1.67091727257	-0.140273332596
0.161674976349	1.45775437355	0.21887755394	0.0278348922729	1.6753821373	-0.144562721252
0.163318395615	1.45779180527	0.220149159431	0.0283906459808	1.67975568771	-0.150468826294
0.164567708969	1.45985293388	0.220861911774	0.0306134223938	1.68327403069	-0.156455397606
0.168817996979	1.46288323402	0.223733067513	0.0338575839996	1.68410789967	-0.159392118454
0.171763658524	1.4664760828	0.224232673645	0.0366797447205	1.68408834934	-0.159899353981
0.170578956604	1.4683277607	0.223111510277	0.037971496582	1.68309640884	-0.15923678875
0.168790340424	1.46989643574	0.221362233162	0.0388398170471	1.6810529232	-0.156549572945
0.169668912888	1.47016787529	0.221799731255	0.039627790451	1.67881417274	-0.1526927948
0.170605659485	1.46997416019	0.222727894783	0.039831161499	1.67805123329	-0.150018453598
0.171174287796	1.46959805489	0.2244348526	0.0403623580933	1.67961788177	-0.149182677269
0.171923160553	1.46892845631	0.227664589882	0.0404300689697	1.68097639084	-0.149290800095
0.17041683197	1.46763074398	0.23021543026	0.0397691726685	1.681396842	-0.149467468262
0.167885303497	1.46752905846	0.233288288116	0.0376040935516	1.68191325665	-0.150228023529
0.165398597717	1.46767485142	0.23613858223	0.034775018692	1.68201124668	-0.151686429977
0.164119720459	1.46886479855	0.2386957407	0.0323495864868	1.68097293377	-0.152781248093
0.160412549973	1.46936762333	0.239674806595	0.0303041934967	1.67933082581	-0.153532743454
0.157474994659	1.47137355804	0.237043619156	0.0285840034485	1.67802727222	-0.154585123062
0.155420303345	1.47424244881	0.234171032906	0.0273833274841	1.67800009251	-0.156601190567
0.150635242462	1.47666704655	0.226800203323	0.0266373157501	1.67847001553	-0.159192562103
0.147744894028	1.48144257069	0.217180252075	0.0272259712219	1.67963457108	-0.162215590477
0.14784860611	1.48631966114	0.21019744873	0.02903175354	1.68210053444	-0.166127443314
0.147899866104	1.48666584492	0.208966970444	0.0322499275208	1.68497169018	-0.17167365551
0.14835524559	1.4853720665	0.207830905914	0.0376794338226	1.68728947639	-0.17739546299
0.148334980011	1.48468542099	0.205013394356	0.0438022613525	1.68739080429	-0.181352853775
0.149234771729	1.48548269272	0.201608419418	0.0488460063934	1.68574428558	-0.18327665329
0.151375770569	1.4871493578	0.198370933533	0.0536782741547	1.68261277676	-0.182912349701
0.152956724167	1.48770070076	0.195209741592	0.0586001873016	1.68128621578	-0.182899475098
0.154308319092	1.48639845848	0.193019390106	0.0604226589203	1.68097865582	-0.183421015739
0.156805038452	1.4845662117	0.193363428116	0.0593206882477	1.68112039566	-0.184794664383
0.15963602066	1.48458945751	0.193933010101	0.0568423271179	1.68165051937	-0.186696052551
0.159841299057	1.48585605621	0.193329572678	0.0556240081787	1.68263161182	-0.189279317856
0.158215045929	1.48739981651	0.192351579666	0.0564904212952	1.68413257599	-0.193258285522
0.157980203629	1.48892426491	0.192259311676	0.0587310791016	1.68535995483	-0.197440385818
0.15912938118	1.48994886875	0.192192316055	0.0618169307709	1.68602764606	-0.201125741005
