-65.6412734985	-83.0188369751	134.359085083	23.9779510498	4.01392602921	16.6787071228
-63.6247444153	-82.7319793701	132.024703979	23.9225540161	4.07706356049	16.6669635773
-63.9156913757	-82.7077026367	132.144210815	23.6319694519	3.99499750137	16.657125473
-64.6436080933	-82.7167282104	132.488143921	22.5577335358	4.10271310806	16.6798038483
-48.7175674438	-83.0093536377	111.696876526	20.8372478485	4.55189323425	16.8768978119
-6.602227211	-80.3916320801	55.4889640808	17.3439445496	5.8635559082	16.7184886932
1.71442198753	-78.5429000854	34.0801429749	11.5980348587	7.45978832245	15.7827987671
8.21812152863	-71.7202911377	4.69128847122	5.93302440643	8.74139022827	14.929605484
-1.44969153404	-65.6195220947	-13.6308507919	1.16381299496	9.66260528564	14.433382988
-10.045964241	-62.4790077209	-30.8610229492	-2.90543007851	10.5631856918	14.2411136627
-22.7169437408	-65.3177719116	-43.378276825	-5.66611862183	11.2085084915	13.9350919724
-15.4370222092	-69.635055542	-67.6658401489	-5.26489496231	10.9711151123	14.0713310242
-5.49333286285	-72.2158508301	-88.8680496216	-1.35111117363	10.2546787262	14.7551298141
