0.0235643386841	1.44262170792	0.0838332176208	0.0152628421783	1.65144658089	-0.161810278893
0.0245776176453	1.44308066368	0.0838302373886	0.0152652263641	1.65145242214	-0.161851882935
0.0243108272552	1.44289278984	0.0835696458817	0.0153586864471	1.6515007019	-0.162051916122
0.0244090557098	1.44312775135	0.0837029218674	0.0153517723083	1.65139710903	-0.161968231201
0.023734331131	1.44322931767	0.083082318306	0.0159108638763	1.65139889717	-0.162213563919
0.0249795913696	1.44366812706	0.0818419456482	0.0180683135986	1.65166151524	-0.162987470627
0.0277953147888	1.44328022003	0.0818681716919	0.0215442180634	1.65179896355	-0.164316892624
0.0293810367584	1.44372558594	0.0808271169662	0.0253341197968	1.65207242966	-0.165829896927
0.0310244560242	1.44498586655	0.0778740644455	0.0295503139496	1.65277421474	-0.167832016945
0.0330235958099	1.44572639465	0.0764825344086	0.0334177017212	1.6536847353	-0.169718503952
0.0334825515747	1.4459271431	0.0747908353806	0.0356438159943	1.65422654152	-0.170926094055
0.0327575206757	1.44572091103	0.0740833282471	0.0355389118195	1.65388011932	-0.1704454422
