0.0	-0.0	144.610610962	-41.0842971802	87.7903289795	-102.828742981
0.0	-0.0	144.106124878	-41.1542434692	87.5751342773	-103.061599731
0.0	-0.0	144.232162476	-41.2494430542	87.705291748	-103.115699768
0.0	-0.0	143.774627686	-41.2972335815	87.5092468262	-103.002685547
0.0	-0.0	144.036972046	-41.5143241882	87.4766159058	-102.364440918
0.0	-0.0	144.008102417	-41.6130371094	87.5161895752	-101.961715698
0.0	-0.0	143.300842285	-42.0623550415	87.7670135498	-101.899848938
0.0	-0.0	140.292572021	-42.7657203674	87.3870620728	-100.909172058
0.0	-0.0	138.643218994	-43.7349281311	87.5104598999	-100.32106781
0.0	-0.0	138.953063965	-45.4162940979	87.2721176147	-99.764831543
0.0	-0.0	137.743011475	-47.3008041382	86.96484375	-97.6145553589
0.0	-0.0	134.050765991	-49.4241790771	86.2055969238	-92.5165481567
0.0	-0.0	125.626579285	-51.6419677734	85.441192627	-86.9461975098
0.0	-0.0	116.672157288	-54.2050437927	85.3598937988	-82.6024932861
0.0	-0.0	112.683456421	-55.0714530945	84.8631896973	-77.0253601074
0.0	-0.0	112.519493103	-55.4077568054	84.6844863892	-70.8035507202
0.0	-0.0	112.517349243	-56.218006134	84.36743927	-66.1661605835
0.0	-0.0	111.455162048	-57.2269630432	83.9744796753	-62.3317222595
0.0	-0.0	110.056015015	-58.4898757935	83.9772262573	-60.3187026978
0.0	-0.0	108.899284363	-59.7847709656	83.5224990845	-57.110244751
0.0	-0.0	106.970848083	-60.7223472595	83.5912246704	-51.6506462097
0.0	-0.0	104.896591187	-61.7112617493	84.3515014648	-45.2592353821
0.0	-0.0	103.757728577	-62.8434677124	84.4998321533	-45.0682067871
0.0	-0.0	102.333900452	-63.2038726807	85.6917877197	-43.5719642639
0.0	-0.0	101.74710083	-63.2978820801	86.6287078857	-42.3040618896
0.0	-0.0	102.030807495	-63.2991981506	86.9387207031	-37.428150177
0.0	-0.0	102.485649109	-63.9566459656	86.899810791	-32.7930908203
0.0	-0.0	102.61743927	-64.1894836426	87.0378341675	-24.8194789886
0.0	-0.0	102.486839294	-63.14453125	87.0293426514	-16.4755096436
0.0	-0.0	101.86466217	-63.4165000916	85.9432525635	-19.3357467651
0.0	-0.0	102.024841309	-65.0950317383	85.3032989502	-25.6686267853
0.0	-0.0	101.737815857	-66.0086212158	85.4981765747	-25.02094841
0.0	-0.0	102.057510376	-67.2751541138	85.5624847412	-25.5361804962
0.0	-0.0	102.651519775	-68.0939941406	85.7222290039	-27.5820178986
0.0	-0.0	103.091804504	-68.3754425049	85.6787033081	-27.4420127869
0.0	-0.0	103.110313416	-68.748336792	85.7065887451	-27.3165607452
0.0	-0.0	102.622787476	-68.4808120728	85.9209213257	-28.1297454834
0.0	-0.0	102.048377991	-68.6173324585	85.8493881226	-28.1674766541
0.0	-0.0	101.744613647	-68.7472610474	85.7227554321	-28.4478225708
0.0	-0.0	99.7022476196	-68.3157730103	85.9258728027	-29.0823478699
0.0	-0.0	95.1811141968	-68.1370010376	86.2039260864	-29.5402164459
0.0	-0.0	88.9121856689	-68.3042221069	86.3146591187	-28.8422889709
0.0	-0.0	80.4427642822	-68.1627731323	86.0367736816	-29.5380477905
0.0	-0.0	69.4823303223	-67.9768447876	85.7620315552	-30.2476978302
0.0	-0.0	64.6122512817	-67.8280258179	85.1560058594	-30.7568569183
