0.0124931335449	1.13819491863	0.236731052399	-0.0319268703461	1.6288574934	-0.0318888425827
0.0113213062286	1.13836455345	0.239135503769	-0.0331385135651	1.62855362892	-0.0303153991699
0.0105378627777	1.13992273808	0.241340398788	-0.0340158939362	1.62810611725	-0.029492020607
0.0106921195984	1.1408264637	0.242283940315	-0.0343174934387	1.62700867653	-0.0287835597992
0.013046503067	1.1366994381	0.24276137352	-0.033043384552	1.62362635136	-0.0278704166412
0.0150671005249	1.13256704807	0.242367506027	-0.0312962532043	1.61991810799	-0.0265002250671
0.0169849395752	1.12658274174	0.24191236496	-0.0288574695587	1.61642837524	-0.0256806612015
0.0198216438293	1.11560535431	0.241037726402	-0.0258100032806	1.61139500141	-0.024911403656
0.0218300819397	1.10639083385	0.24029481411	-0.0226712226868	1.60556483269	-0.024477481842
0.0227770805359	1.09779369831	0.237946629524	-0.0188019275665	1.59947812557	-0.0236238241196
0.0221405029297	1.08944320679	0.234928011894	-0.0145614147186	1.59238886833	-0.0229383707047
0.0225262641907	1.08083713055	0.231888651848	-0.00974273681641	1.58776283264	-0.0216245651245
0.0226964950562	1.0778157711	0.228907465935	-0.006178855896	1.58457398415	-0.0202947854996
0.0220942497253	1.0777567625	0.227190971375	-0.00529599189758	1.58172607422	-0.0191493034363
0.0214040279388	1.07772374153	0.226355910301	-0.00680780410767	1.57775521278	-0.0186142921448
0.0209386348724	1.07662951946	0.225379347801	-0.00961232185364	1.57262229919	-0.0183790922165
0.0209197998047	1.07941102982	0.224117517471	-0.0098865032196	1.57123756409	-0.0177898406982
0.0208480358124	1.08835017681	0.223823070526	-0.00626659393311	1.57268977165	-0.0167346000671
0.0214607715607	1.09364664555	0.224842786789	-0.00171446800232	1.57408177853	-0.0168142318726
0.0230643749237	1.09989929199	0.224997282028	0.001957654953	1.57643246651	-0.0173255205154
0.0251169204712	1.09800517559	0.225303888321	0.00447964668274	1.57833385468	-0.0180342197418
0.024493932724	1.09035754204	0.22466480732	0.00576424598694	1.57934236526	-0.0184302330017
0.0234479904175	1.07635164261	0.222964882851	0.00647854804993	1.57967054844	-0.0184913873672
0.020117521286	1.06740415096	0.221163272858	0.00682973861694	1.57977378368	-0.0179653167725
0.018965959549	1.06153416634	0.221706628799	0.00747203826904	1.57935905457	-0.0171113014221
0.0167028903961	1.05576658249	0.222193241119	0.00856137275696	1.5790656805	-0.0159821510315
0.0147290229797	1.05263400078	0.222800850868	0.00953912734985	1.57895326614	-0.0145316123962
0.0139002799988	1.05488419533	0.223374843597	0.0106160640717	1.57903718948	-0.0128693580627
0.0151600837708	1.05799341202	0.2252202034	0.0116009712219	1.57877075672	-0.0114645957947
0.0168399810791	1.0584435463	0.226657152176	0.0122137069702	1.57835292816	-0.0106921195984
0.0179121494293	1.05732822418	0.227177023888	0.0125734806061	1.57814514637	-0.00977420806885
0.0177536010742	1.05613136292	0.226484537125	0.0128979682922	1.57810592651	-0.00888705253601
0.0168898105621	1.05706882477	0.22598195076	0.0132818222046	1.57806718349	-0.00827813148499
0.0165522098541	1.05841994286	0.226452112198	0.0136160850525	1.57807195187	-0.0081592798233
0.0163242816925	1.05850458145	0.226719737053	0.0137848854065	1.5781724453	-0.00831067562103
0.0154356956482	1.05874752998	0.227560639381	0.0138325691223	1.57842707634	-0.00868129730225
0.0129873752594	1.05480670929	0.229396224022	0.0142269134521	1.57853984833	-0.00905108451843
0.0052056312561	1.04045987129	0.225573539734	0.0146615505219	1.57890415192	-0.00954782962799
-0.00164437294006	1.03587889671	0.219921350479	0.0148384571075	1.57939457893	-0.0093789100647
-0.00276184082031	1.03926634789	0.218396425247	0.0149323940277	1.57891988754	-0.00898742675781
0.00135493278503	1.0485522747	0.223651766777	0.015362739563	1.57872605324	-0.00890851020813
0.00942039489746	1.06269717216	0.231726408005	0.0157332420349	1.5785702467	-0.00941169261932
0.0172600746155	1.07233726978	0.237803220749	0.0154721736908	1.5783135891	-0.0098934173584
0.0216991901398	1.07621359825	0.240273594856	0.0153687000275	1.57807898521	-0.0103378295898
0.0188286304474	1.0626142025	0.237495183945	0.0155954360962	1.57803928852	-0.0105502605438
0.00740790367126	1.04690957069	0.230326652527	0.0156624317169	1.57772433758	-0.0106143951416
-0.000811815261841	1.0296599865	0.224361658096	0.0158739089966	1.57739377022	-0.0109111070633
-0.00735116004944	1.01653122902	0.219614028931	0.0162539482117	1.5772960186	-0.0110142230988
-0.0108680725098	1.0144598484	0.215952634811	0.0162363052368	1.57756125927	-0.0112669467926
-0.0114471912384	1.01816487312	0.216550111771	0.0163531303406	1.57748401165	-0.0117175579071
-0.0112509727478	1.0181350708	0.217353820801	0.0166730880737	1.57745945454	-0.0122532844543
-0.0136520862579	1.01448154449	0.214536547661	0.0169637203217	1.57727086544	-0.0127377510071
-0.0166654586792	1.01020312309	0.209694385529	0.017186164856	1.57736814022	-0.0130536556244
-0.0175402164459	1.00737524033	0.206805706024	0.0175085067749	1.57747220993	-0.013124704361
-0.0152215957642	1.00870752335	0.208099842072	0.0176830291748	1.57750189304	-0.013688325882
-0.0102891921997	1.01630401611	0.213770031929	0.0180568695068	1.57785141468	-0.0142803192139
-0.00381278991699	1.02846455574	0.222035884857	0.0182931423187	1.57817161083	-0.0149958133698
0.00263500213623	1.03419232368	0.228746056557	0.0185492038727	1.57835447788	-0.0159606933594
0.00636458396912	1.03657913208	0.232892990112	0.0186331272125	1.57860720158	-0.0163912773132
0.00897359848022	1.03906679153	0.234923839569	0.0188558101654	1.5785048008	-0.016622543335
0.00974345207214	1.04328131676	0.236168384552	0.0190002918243	1.57839238644	-0.0170167684555
0.0099732875824	1.04605102539	0.239378094673	0.0196063518524	1.57826507092	-0.0174829959869
0.0128011703491	1.06007385254	0.251048207283	0.0205445289612	1.57826077938	-0.0177307128906
0.0234787464142	1.09753000736	0.273120284081	0.0210523605347	1.57848191261	-0.0187993049622
0.0394661426544	1.14917039871	0.299481630325	0.0215659141541	1.57894635201	-0.0199630260468
0.0500662326813	1.17001080513	0.324462413788	0.0223734378815	1.57928228378	-0.0220422744751
0.0476665496826	1.15237784386	0.342213153839	0.0231139659882	1.58029234409	-0.0249470472336
0.0367949008942	1.12415003777	0.342571258545	0.0231261253357	1.58136892319	-0.0262130498886
0.0173065662384	1.10104060173	0.331189990044	0.0233612060547	1.58106434345	-0.0261626243591
-0.000991821289062	1.07382512093	0.316603899002	0.0241992473602	1.58078062534	-0.0258731842041
-0.0180020332336	1.05086064339	0.298854470253	0.0247123241425	1.58060002327	-0.0251319408417
-0.0342698097229	1.02758669853	0.27886402607	0.0252149105072	1.57997381687	-0.0240515470505
-0.0485737323761	1.00089168549	0.256389379501	0.025249004364	1.57979905605	-0.0230535268784
-0.0553801059723	0.978635072708	0.237832069397	0.0243017673492	1.57962584496	-0.0217816829681
-0.0565092563629	0.969059228897	0.229898452759	0.0229804515839	1.57912218571	-0.0199837684631
