0.0	-0.0	138.409927368	106.261566162	88.6991577148	42.1103897095
0.0	-0.0	142.690536499	105.939308167	88.2485809326	42.3099708557
0.0	-0.0	141.004348755	104.965339661	87.7992477417	42.5107154846
0.0	-0.0	126.748466492	104.485977173	87.152633667	42.6597824097
0.0	-0.0	105.217811584	105.326248169	87.1779251099	42.9148902893
0.0	-0.0	102.174659729	105.096977234	88.414680481	43.1211395264
0.0	-0.0	101.506233215	104.677970886	88.8810195923	43.5518951416
0.0	-0.0	101.865150452	103.579170227	89.6114654541	43.8248672485
0.0	-0.0	99.947883606	-78.8227157593	89.4155807495	-136.076904297
