-111.759185791	-83.5322494507	141.189437866	17.467382431	-4.00990772247	10.2397909164
-111.849899292	-83.5127792358	141.219558716	17.2869987488	-4.11213970184	10.2153158188
-112.171653748	-83.614692688	141.55682373	17.1032142639	-4.23262500763	10.1559457779
-112.624427795	-83.7092590332	141.859939575	17.0359687805	-4.25978374481	10.1397256851
-113.185310364	-83.6765365601	142.303466797	16.9588069916	-4.37487602234	10.1212787628
-112.484863281	-83.6376953125	141.484191895	16.8614139557	-4.44128227234	10.0922622681
-112.931625366	-83.6670913696	141.785552979	16.7838382721	-4.49903202057	10.1625709534
-113.043884277	-83.6437072754	141.628845215	16.4539756775	-4.47313547134	10.1634674072
-112.267829895	-83.7192153931	140.724456787	15.4114112854	-4.05989360809	10.4753608704
-112.055435181	-83.781578064	140.384307861	12.5948696136	-2.6931219101	10.9364776611
-112.7265625	-83.7911300659	140.839981079	8.22708702087	-0.433135122061	11.6109380722
-112.985046387	-83.7952804565	140.750610352	3.72309780121	1.62187623978	12.4436988831
-111.842071533	-83.7136993408	139.22303772	0.161693945527	2.5882229805	13.0646276474
-110.897613525	-83.7606582642	137.741363525	-1.91849970818	2.47844099998	13.522277832
-106.819313049	-83.727722168	131.77381897	-4.43931150436	2.12820601463	13.5044498444
-99.4803161621	-83.8956069946	122.004463196	-7.1258392334	1.86781859398	13.3889369965
-84.525894165	-84.70677948	104.005615234	-9.16614055634	1.77670800686	13.330739975
-83.8310394287	-84.5080337524	102.817955017	-10.6096773148	1.73594880104	13.2545070648
-83.7033309937	-84.4545440674	102.059638977	-11.0470981598	1.6922107935	13.2274799347
-72.7474822998	-84.4313049316	89.1077194214	-10.7112178802	1.65279138088	13.0451002121
