-37.5752449036	-80.5358505249	133.558135986	23.6571960449	-0.540984332561	16.8576412201
-39.0027084351	-80.6989440918	134.933303833	23.5872077942	-0.801272511482	16.8672599792
-39.2160339355	-80.726272583	135.043411255	23.4395885468	-0.93103146553	16.9569606781
-40.1011352539	-80.8481521606	135.878631592	23.160905838	-0.945778787136	16.9372444153
-38.3735694885	-80.5466156006	133.730209351	22.4290714264	-0.931262969971	16.894159317
-33.5987014771	-79.8460083008	126.626754761	23.1357765198	-1.22852039337	16.8130912781
-17.6745662689	-77.6462554932	104.871582031	25.7524452209	-1.63379824162	16.2380962372
-7.28644990921	-75.4626922607	89.5864334106	28.6599769592	-2.00778532028	15.3128795624
-1.13138437271	-73.2915725708	78.9258346558	30.753528595	-1.98233699799	14.3720464706
