-110.425201416	-79.4856643677	142.396408081	14.5721931458	-6.16905260086	9.11520385742
-110.633369446	-79.6010818481	142.306015015	14.4320516586	-6.25628232956	9.0812292099
-110.805000305	-79.6178512573	142.288024902	13.9034461975	-6.23006725311	9.11886405945
-110.889343262	-79.7343215942	141.9659729	11.5796260834	-5.63032627106	9.59547615051
-110.707572937	-80.0577163696	141.074737549	7.39935779572	-4.18625974655	10.575553894
-110.898139954	-80.2918167114	140.496887207	3.17903661728	-2.62220740318	11.785905838
-111.840019226	-80.2448883057	140.581253052	-0.116816438735	-1.2777312994	13.2882642746
-111.717575073	-80.1585845947	139.584365845	-2.80964541435	0.662850499153	14.6206207275
-112.257759094	-80.2349090576	139.220062256	-4.63691949844	3.62992429733	15.9727325439
-114.937698364	-79.420715332	142.42010498	-5.72275543213	6.36364603043	17.1791210175
-116.562400818	-78.0559463501	145.546096802	-6.08476924896	7.09885692596	18.1189231873
-116.336174011	-77.007598877	146.853393555	-6.11972665787	7.43163394928	18.5222587585
-115.873176575	-75.7613372803	147.813644409	-6.11964654922	7.8881072998	18.748336792
-109.358154297	-77.6084213257	137.205825806	-6.07359838486	8.16502475739	18.7926712036
-95.3983840942	-78.5301971436	117.098800659	-5.92213010788	8.38726234436	18.7438850403
-83.9790039062	-79.0034637451	101.74030304	-6.07477283478	8.65997409821	18.6631507874
-74.7604141235	-79.0021514893	90.0393981934	-6.28147935867	9.29467201233	18.5827884674
-61.6051445007	-78.842956543	72.4783935547	-6.59140586853	10.1462802887	18.505525589
-56.8622665405	-78.5140609741	66.7796020508	-6.82198953629	10.4186429977	18.4374904633
-55.5202674866	-78.1998901367	65.2353134155	-7.17789745331	10.1779060364	18.5889663696
-52.8754615784	-77.9488296509	60.9190368652	-7.67139720917	10.9475765228	18.9374256134
-52.9063606262	-77.4416351318	60.1213951111	-8.1435546875	13.2459154129	19.2287807465
-55.8117713928	-77.57762146	64.2098388672	-8.1199016571	14.2437238693	19.4738311768
-60.5139045715	-78.2271347046	71.8353347778	-7.70444297791	14.7235527039	19.9091911316
-76.2291793823	-77.291633606	94.8111419678	-7.29917192459	15.9421510696	20.5675621033
-81.8384246826	-76.9197311401	103.743598938	-7.26982069016	16.9466705322	21.0534362793
-80.3017959595	-77.0048522949	101.446807861	-7.50405740738	17.3401241302	21.4885997772
-74.3534393311	-77.1642303467	92.5263595581	-7.74278116226	16.9182357788	21.6090888977
-64.0133743286	-77.8528060913	76.8158798218	-8.26597213745	15.5899381638	21.4603862762
-40.3170051575	-76.876663208	44.7131958008	-9.10113334656	13.5626573563	20.5991630554
-23.6560535431	-71.2712402344	21.2764472961	-9.30520534515	12.8481140137	20.0210952759
-21.0557556152	-70.1058349609	20.0616474152	-9.17007064819	13.2555732727	19.9187545776
-21.0600013733	-69.8596191406	21.62474823	-9.32818317413	13.7207660675	19.779712677
-17.9362049103	-67.044380188	11.3250436783	-9.33775997162	13.9697227478	19.7527446747
-14.236117363	-62.8132514954	-3.28508448601	-9.1250371933	14.2389211655	19.7714633942
-13.6255245209	-58.3148231506	-13.967291832	-8.93495368958	14.5546102524	19.7533893585
-12.6547136307	-57.4159317017	-16.6451778412	-8.92262363434	14.7760515213	19.7431869507
-13.014582634	-57.5646591187	-14.7329216003	-8.95097255707	14.9084243774	19.7496013641
-12.8495912552	-57.3717155457	-14.7873220444	-9.10593223572	14.9210472107	19.7200088501
-12.7057304382	-56.8905143738	-16.2019729614	-9.37362194061	15.8124351501	19.5998687744
-13.7321853638	-55.6935882568	-18.4977893829	-9.27624893188	17.2046508789	19.627822876
-15.125246048	-52.3504447937	-25.5126266479	-8.33765792847	18.4388484955	19.4628448486
-16.4434242249	-48.4022064209	-32.5308952332	-6.50166654587	19.2580051422	19.1085529327
-16.7658290863	-46.5529937744	-35.6993370056	-5.41413402557	18.9682044983	18.8028907776
-17.2332458496	-45.5738220215	-35.9934883118	-5.92045783997	18.5370082855	18.2225074768
-18.3648109436	-42.2936439514	-38.5588569641	-6.66652345657	18.5449504852	17.2171478271
-18.9402160645	-38.4439888	-49.1499443054	-7.1275844574	17.9197101593	15.129442215
-17.4184417725	-37.6555900574	-54.9609565735	-6.83489561081	16.4027500153	11.7579622269
-10.7106018066	-37.805721283	-47.146686554	-5.31405305862	15.8000059128	7.98583221436
-6.46096611023	-37.4042854309	-36.5616950989	-3.13920426369	16.1790847778	6.26165771484
-0.943670392036	-41.9700126648	-16.1610412598	-1.21014475822	16.4888210297	5.68750572205
2.23313474655	-47.7159996033	6.00936317444	-0.30708733201	16.8883647919	5.727435112
3.33186602592	-47.6843833923	18.3073501587	-0.0487241707742	17.3907756805	6.02699613571
1.26135182381	-49.9674339294	35.0095787048	0.0970012098551	17.7820301056	6.39645957947
-4.55709600449	-55.798625946	57.9408569336	0.0247902646661	17.9266719818	6.93374204636
-19.2218208313	-61.7549934387	89.3378829956	-0.570098698139	18.1317920685	7.37749147415
-23.1283683777	-61.3485870361	93.9710617065	-1.40264880657	18.3824825287	8.08956241608
-23.9075622559	-60.876537323	93.6480178833	-2.03815627098	18.4882965088	8.76742839813
-23.5421886444	-60.2843093872	90.8192672729	-2.53841400146	18.6767635345	9.5183391571
-24.3850688934	-60.3399810791	90.2171401978	-3.25071167946	18.990070343	10.2158870697
-24.9396476746	-60.2721710205	91.4720611572	-3.71739697456	18.8997859955	10.5013408661
-26.5158290863	-60.7954330444	96.6413574219	-3.8343026638	18.8393878937	10.4376983643
-24.9121952057	-59.7688217163	90.2999954224	-3.82806181908	19.036190033	10.4209089279
-23.10206604	-58.8008155823	88.3011245728	-3.95511651039	18.9995765686	10.4749193192
-26.468957901	-60.0438461304	97.2760467529	-4.0235209465	19.0665607452	10.6722784042
-31.1798992157	-61.017906189	107.167152405	-4.06770610809	19.3079280853	10.955789566
-35.8732376099	-61.806022644	116.072303772	-4.18365955353	19.3978443146	11.1198329926
-34.2296791077	-61.349357605	110.715782166	-4.36989307404	19.5616912842	11.2407388687
-18.7717018127	-55.444278717	77.315322876	-4.54412889481	19.6617069244	11.3628072739
-14.2589416504	-49.5431175232	60.8482055664	-4.79756593704	19.6309890747	11.6569032669
-13.4996395111	-49.9609222412	59.8708763123	-5.1578578949	19.5519332886	11.8959083557
-21.9927806854	-56.8536300659	82.7508773804	-5.57343101501	19.3671283722	12.0510482788
-39.9380187988	-61.8228874207	113.792701721	-6.13399171829	19.6723575592	12.268699646
-43.9824028015	-61.729095459	119.195793152	-6.60399389267	20.634098053	12.4675683975
-45.0582427979	-61.034954071	119.193595886	-6.71189260483	21.946516037	12.9562892914
-43.7289733887	-60.2159957886	115.682891846	-6.04055595398	23.5996837616	14.2978696823
-44.0021400452	-59.6117553711	114.720848083	-4.48830699921	24.0015144348	16.0646266937
-43.2588653564	-58.1045837402	112.714797974	-3.62341427803	23.9836845398	16.9462604523
-27.8021640778	-54.6247062683	85.2750167847	-3.677713871	23.3896808624	17.1589584351
-24.1140956879	-52.4701652527	75.0870513916	-4.01169633865	23.1141643524	17.41157341
-18.2555751801	-45.2304191589	55.2712936401	-4.79389953613	23.8728294373	17.6397972107
-16.1652507782	-37.5778465271	39.534702301	-5.30860137939	24.2426261902	17.7187728882
-16.741979599	-38.5475921631	39.1756782532	-5.36955404282	24.2389507294	18.0282688141
-16.9133796692	-40.5004425049	41.8589286804	-5.38659906387	24.4533138275	18.0477924347
-17.4888076782	-40.624080658	43.086391449	-5.22776508331	24.4938316345	18.1824398041
-23.8743228912	-48.3738899231	67.7651748657	-4.76900482178	24.3484477997	18.3653030396
-33.4836387634	-53.8620796204	91.7930755615	-4.26011228561	23.8726501465	18.3375740051
-38.7787513733	-55.2242393494	102.440429688	-3.18529391289	23.0216178894	18.1686859131
-43.5712738037	-55.9522399902	110.999809265	-1.39402353764	21.1865634918	17.9163322449
-47.6976585388	-56.5439376831	118.181625366	1.19812989235	19.0960216522	18.1837787628
-49.611366272	-56.6090583801	120.964126587	4.01202630997	19.2047939301	19.0985908508
-46.1032905579	-57.2162361145	113.894309998	5.09106779099	20.6543254852	19.5323638916
-44.4090919495	-56.5111999512	112.531539917	5.05455780029	23.0869293213	19.3012485504
-42.021736145	-56.2518310547	109.61264801	5.45036411285	26.4701957703	19.1280670166
-41.0648880005	-55.7617340088	107.076477051	6.01284646988	26.8302288055	18.471660614
-35.5095176697	-56.3862991333	98.027671814	5.83792638779	24.566614151	17.4641151428
-34.5329093933	-57.713104248	97.3034667969	4.60410547256	20.2276592255	15.6142148972
-34.5640296936	-57.8454589844	97.0664596558	3.24435281754	13.8926153183	14.0811166763
-34.0868148804	-57.6975288391	95.5919342041	2.26595830917	6.68850803375	13.5928297043
-32.6908798218	-58.1268844604	93.3493118286	1.68517076969	2.42838859558	13.9001960754
-34.006362915	-58.306892395	94.1036987305	0.876067757607	2.09289050102	14.4337291718
-36.2788887024	-58.3689193726	95.2043380737	-0.0212537460029	3.14744091034	15.3756971359
-38.57421875	-58.4727554321	95.3114776611	-0.751138269901	3.7980902195	17.2376728058
-40.9298782349	-58.3884429932	97.4380340576	-1.09772932529	4.21553134918	20.1666641235
-42.08826828	-58.5122680664	98.6096038818	-1.89331042767	4.2848405838	24.0763664246
-44.0359687805	-58.1344642639	100.376663208	-3.69755721092	5.32218647003	26.3301506042
-46.5653991699	-57.7712020874	101.995063782	-4.80452203751	6.49679374695	27.6839561462
-48.0317573547	-57.70079422	102.733787537	-5.26557254791	6.61822748184	27.5735034943
-48.2177619934	-57.879650116	102.316917419	-5.87761831284	6.33503961563	27.0829277039
-48.3200836182	-58.0603713989	102.258323669	-7.47404050827	3.24431347847	26.0204238892
-48.2949829102	-58.0376358032	101.85358429	-9.5092010498	-1.80121648312	25.4241886139
-48.2961425781	-58.0953063965	101.675491333	-10.7118082047	-4.24129009247	25.2483940125
-49.3326225281	-58.4378013611	102.363182068	-10.839266777	-6.21723508835	25.8430957794
-51.2343978882	-58.8410339355	102.494987488	-9.73996925354	-8.07535552979	26.5071239471
-48.3461494446	-58.906955719	90.0607757568	-7.84096384048	-8.72760772705	26.6203861237
-47.4631729126	-58.6885681152	79.2519378662	-5.83066558838	-8.82182502747	26.9348278046
-52.0613861084	-59.9799232483	79.49193573	-4.43586587906	-8.70995521545	27.7026348114
-54.2481231689	-60.6620864868	82.2072067261	-4.61090660095	-8.40956878662	28.2394790649
-58.7125091553	-61.7227478027	87.024055481	-4.07881164551	-8.84181213379	29.8414840698
-58.8679580688	-62.0209770203	86.1640014648	-1.04857492447	-7.25129985809	32.5689125061
-62.4219551086	-62.5027923584	88.8936920166	4.35697603226	-5.58105516434	36.2750205994
-65.048538208	-62.4737091064	90.2391891479	7.16771364212	-5.33079004288	38.2679214478
-65.5106811523	-62.8262481689	88.9332199097	6.61526250839	-4.87076091766	38.1871910095
-66.9636459351	-63.2179336548	92.3250198364	4.48547649384	-4.69416570663	36.7993087769
-67.7647476196	-63.5369644165	93.6002731323	-0.568214416504	-2.54299020767	32.7775497437
-67.4729995728	-64.0412979126	93.3914642334	-5.82655715942	2.38056349754	26.8324737549
-67.1571884155	-65.4504852295	93.1426849365	-8.85864639282	5.3857998848	20.8617191315
-67.8471221924	-66.1536941528	93.2127838135	-8.24522590637	6.666056633	18.4223804474
-68.7213516235	-66.1440582275	93.8302688599	-6.78870916367	6.56450176239	19.7214984894
-65.8618774414	-65.0501708984	89.7651290894	-6.36844158173	8.32518768311	22.0686969757
-58.1504135132	-64.1799850464	78.1238937378	-6.78059005737	11.9982976913	23.8647956848
-42.6279830933	-62.5471343994	50.5118560791	-6.95343399048	12.7229862213	24.4054470062
-36.1713981628	-57.6003303528	26.7973804474	-6.62741088867	12.0842590332	24.7656841278
-44.3106422424	-59.3988990784	57.033744812	-6.66927814484	12.2801837921	24.671131134
-34.3873939514	-50.2079124451	18.2302150726	-6.56970405579	12.5628004074	24.3451538086
-45.8511314392	-42.9313850403	-10.4497079849	-6.50594758987	12.4860191345	24.2786540985
-40.6042289734	-45.8427696228	-43.7432785034	-6.64074277878	12.5433835983	24.1668319702
-31.2592430115	-44.2429046631	-60.4496040344	-6.97576856613	13.0719909668	23.9114971161
-27.4536972046	-42.6597900391	-64.044128418	-7.2288146019	13.330493927	23.3676681519
-26.2425441742	-41.1916770935	-65.3176956177	-7.50970983505	13.1154651642	23.2558937073
-21.3537921906	-36.0737419128	-69.9870376587	-8.64196491241	13.0903730392	23.1380443573
-16.945520401	-28.7904682159	-73.1670150757	-12.7511529922	14.4841861725	23.2425060272
-13.2916145325	-21.7550182343	-75.3836135864	-19.4014968872	16.7357959747	22.8044605255
-12.2759046555	-18.9426364899	-76.0589141846	-22.7694034576	16.962852478	22.0976829529
-9.51361560822	-22.4413433075	-67.7907943726	-22.2754421234	16.0287399292	22.5619468689
-5.20428705215	-26.5839309692	-61.0926780701	-21.6340961456	15.5349655151	22.7844581604
-6.62263011932	-28.5103492737	-58.4709320068	-21.4544277191	15.7884235382	22.6792888641
-8.00559806824	-29.5150165558	-56.697429657	-20.7055702209	16.1305656433	22.7745170593
-7.98199272156	-30.5147743225	-55.3729934692	-19.8264579773	16.2417812347	22.7182178497
-9.28419971466	-33.0735359192	-54.9745445251	-19.2834320068	15.8434877396	22.5157260895
-6.77942609787	-36.2893447876	-50.047290802	-18.9485969543	15.5475435257	22.2908840179
-4.07806491852	-40.6141967773	-42.5506019592	-18.682800293	15.4735956192	22.1236476898
-4.28026103973	-43.6826248169	-37.6612434387	-18.4556655884	15.6565380096	22.0664310455
-6.3438835144	-44.8107414246	-33.1211929321	-18.2160396576	15.769944191	22.0720119476
-9.13472938538	-44.5957527161	-28.7153701782	-18.055393219	15.837682724	22.1590137482
-9.49933242798	-45.787147522	-18.090297699	-18.2332611084	15.6263856888	22.0972518921
-11.5853900909	-49.2385482788	-2.33239984512	-18.4027328491	15.3002347946	21.8367977142
-14.5558872223	-52.1277046204	11.7768945694	-17.9733524323	15.6921348572	21.6512432098
-16.86693573	-52.451461792	18.6257801056	-17.4865989685	16.1714630127	21.9419059753
-20.4122085571	-55.1194458008	29.3118743896	-17.2525253296	16.7443599701	22.8962650299
-28.3424167633	-59.2294235229	46.8192481995	-17.4727115631	18.1470127106	24.2074890137
-39.1210174561	-60.4289360046	64.4494476318	-17.9681529999	19.4966545105	24.8097724915
-45.7071266174	-57.778465271	72.3609848022	-17.9984970093	19.6772899628	25.021522522
-45.1466751099	-51.545589447	63.852016449	-18.0670051575	19.7106132507	25.2400684357
-44.9081764221	-46.4140167236	55.3485832214	-17.9692516327	19.9268169403	25.2986164093
-43.5633354187	-43.3609390259	49.6265487671	-17.466714859	20.0958652496	25.4373455048
-40.5436706543	-41.0992279053	42.7501869202	-16.5926914215	19.9012317657	25.2416877747
-36.7596969604	-39.3964347839	34.556640625	-14.7536144257	18.7631492615	24.406879425
-32.8993453979	-37.8183097839	25.2302207947	-11.4323101044	17.4412689209	22.9683036804
-28.992275238	-35.5249977112	13.328294754	-8.01910114288	17.002117157	21.6826858521
-26.9578132629	-32.8659515381	4.63506746292	-5.82660913467	17.4397087097	20.9312763214
-26.7928905487	-32.4233627319	-0.331093996763	-4.22952985764	17.6948032379	20.339838028
-27.7767868042	-32.065826416	-5.92791128159	-2.88467097282	17.2680568695	20.1576156616
-30.0681724548	-29.9249038696	-12.7726745605	-2.56891202927	17.1117668152	19.9813766479
-31.2689933777	-27.5700283051	-19.4276485443	-2.43792462349	17.1906738281	19.8607540131
-26.1445980072	-32.0047683716	0.779383778572	-2.45625734329	16.904504776	19.6933498383
-25.2950954437	-35.1805038452	31.468667984	-2.5689842701	16.9210033417	19.5430088043
-26.7038021088	-38.8472671509	49.2899169922	-2.29254603386	17.4087142944	19.6500473022
-27.9017925262	-41.8564453125	61.2240066528	-1.21710729599	17.9117012024	19.6956043243
-28.9989910126	-46.0434837341	69.6091766357	1.88263487816	17.6524391174	20.2400512695
-39.2446632385	-53.3330802917	91.6586837769	5.88438415527	17.1783008575	20.8468875885
-55.5995903015	-56.0810165405	115.777793884	8.34759044647	16.6856689453	21.1515693665
-69.06199646	-55.1833114624	135.774032593	7.97183847427	16.534072876	20.8137493134
-83.6055984497	-53.7964897156	150.357131958	6.26132202148	16.0933761597	19.9816627502
-72.7648696899	-58.1323776245	135.477920532	4.63747692108	15.6008338928	18.6613025665
-51.7277374268	-64.4486999512	102.643455505	3.85940551758	14.8415527344	17.590013504
-42.20885849	-63.7631263733	88.8310470581	3.96731138229	14.2972660065	16.3891963959
-3.14676642418	-57.7636680603	50.2151832581	4.47015666962	13.5844907761	14.8216247559
15.1657247543	-64.4838409424	61.2236557007	4.30901145935	11.8020019531	12.8164052963
-41.2073860168	-70.8833465576	132.220245361	1.66129183769	10.3017225266	13.1033430099
-49.3917770386	-68.12449646	136.209487915	-0.443029612303	10.4679718018	12.8498153687
-51.3442649841	-70.8092575073	131.275161743	-0.851765394211	8.8055267334	12.877448082
-71.5182495117	-63.2250823975	152.51940918	0.555771648884	5.80720472336	13.7570180893
-71.9528656006	-64.9498977661	149.319717407	2.73137903214	-0.570488929749	15.0044183731
-75.4504013062	-65.8064346313	152.60774231	4.69196033478	-4.91250514984	15.3253946304
-70.6180725098	-67.5648498535	144.428955078	4.18117666245	-2.87814950943	14.2403116226
-67.4189682007	-67.6363525391	138.810821533	2.93250727654	-0.985279142857	13.7272443771
-72.5685958862	-66.772064209	144.909942627	2.78230524063	0.028890427202	13.857922554
-76.7934417725	-65.1856536865	147.892822266	3.15890693665	0.184392347932	15.6054391861
-82.7896728516	-62.0864448547	149.79057312	3.48051548004	0.294404417276	18.9877433777
-88.0492935181	-58.665851593	152.251098633	4.01792669296	0.650856375694	22.0984992981
-89.8308181763	-57.3491134644	152.051849365	4.47342300415	1.28663349152	24.738286972
-92.2835235596	-55.0360183716	153.95916748	5.18018817902	3.79144787788	28.004442215
-93.6533126831	-53.8502044678	153.322906494	5.0636548996	4.26211118698	29.2647304535
-93.819519043	-54.1417579651	149.257064819	4.48403930664	3.22334480286	28.1961421967
-94.4380340576	-53.9702949524	150.343078613	4.04855060577	0.309843987226	26.1240501404
-93.0977249146	-55.5905838013	148.22442627	7.60621547699	-1.81519055367	22.1848812103
-90.4486618042	-57.7083244324	145.028244019	11.777223587	0.962737500668	17.8953800201
-90.3503036499	-57.8990058899	145.188796997	13.6922473907	2.67289066315	17.0192432404
-90.3216781616	-57.8311538696	145.172363281	13.3833942413	4.86721420288	17.209777832
-90.160446167	-58.1504020691	145.277114868	12.3884344101	7.11302995682	17.7409992218
-89.8366165161	-57.4868431091	145.113922119	12.3131399155	7.736784935	19.0583877563
-89.6510238647	-56.9099273682	144.654174805	11.7008161545	6.97311496735	19.8992500305
-90.370513916	-55.8148345947	145.667816162	10.074552536	4.25229787827	21.0849208832
-91.9567565918	-54.4720153809	147.688354492	10.6285877228	-2.36382770538	27.4183826447
-93.0597000122	-55.0673141479	148.118270874	12.0084342957	-7.19186496735	36.1738471985
-93.2705993652	-55.226398468	147.978363037	10.6001930237	-6.65891838074	40.4633255005
-92.9184265137	-55.4371681213	147.119018555	8.75279521942	-5.34279489517	39.7484931946
-91.4991226196	-58.4527511597	140.356948853	9.39931678772	-5.26320314407	39.4780540466
-85.2526397705	-62.7845077515	121.598472595	9.72613048553	-4.04384756088	39.0853309631
-77.9750595093	-65.9136428833	100.735443115	9.75762557983	-2.73181080818	39.3772659302
-73.704864502	-67.0659484863	87.2516021729	9.42457485199	-2.07842826843	39.866607666
-77.8122558594	-66.2686843872	93.0905838013	8.65739154816	-1.33681368828	39.5163345337
-88.465133667	-63.7774085999	114.237510681	6.45167207718	0.384086459875	36.6223182678
-90.5655136108	-66.4972991943	118.69670105	2.88302135468	6.09745025635	28.7515983582
-91.6608276367	-67.2111206055	120.95476532	0.229324787855	9.94193935394	24.1868419647
-92.9098205566	-68.3553771973	122.356765747	1.07538640499	10.8852005005	24.9206581116
-92.2475738525	-68.3393859863	121.509078979	1.57440257072	11.2076778412	24.3974227905
-92.733039856	-67.3937530518	123.059616089	1.68664431572	12.5488576889	22.9262313843
-96.7025299072	-65.2799453735	129.321502686	3.23603105545	11.9839391708	23.8800506592
-99.2824707031	-64.3021392822	131.453720093	7.43673706055	7.74481010437	28.4595222473
-99.5678024292	-63.0806770325	131.615447998	12.1476459503	3.86027765274	34.5459785461
-99.4538269043	-61.4646263123	131.39642334	13.9746179581	3.80302119255	37.9548225403
-101.728691101	-57.842956543	135.837493896	13.7312078476	5.3640999794	39.0228233337
-102.61504364	-58.2238464355	136.775680542	14.1922264099	6.91302776337	39.6609039307
-101.616920471	-59.2169075012	135.538024902	12.7101669312	7.53603839874	37.6122817993
-98.3928222656	-63.3883514404	132.131057739	8.32167053223	8.10454750061	32.2469978333
-92.7568893433	-69.5873336792	127.247108459	3.57568383217	9.40878200531	24.2597064972
-75.9426727295	-74.4651947021	114.750282288	0.833161175251	11.109582901	18.2803993225
-48.9423942566	-78.205039978	84.8828125	-0.238168299198	12.4614715576	15.9444417953
-38.0048065186	-76.5354232788	65.6944046021	-0.680619180202	14.5601816177	15.1725473404
-32.2897148132	-73.8744812012	52.4479293823	-0.938191354275	16.3210277557	14.8405704498
-16.3487968445	-64.8251724243	17.9780769348	-1.01939225197	17.07097435	15.3007907867
-11.0442705154	-61.5572891235	5.62961387634	-1.4973962307	17.1395015717	15.6295490265
-8.52192497253	-61.0188407898	3.57926416397	-2.47390437126	16.6865978241	15.6189613342
-6.59404945374	-60.3567962646	2.29124093056	-4.49390983582	16.5765304565	14.6468820572
-6.55325317383	-60.242389679	2.2303481102	-7.11434221268	16.8886680603	13.032119751
-6.01187086105	-60.6540374756	1.11246967316	-9.1570224762	17.114200592	11.5919237137
-5.60253620148	-60.7595062256	-0.956799507141	-10.6448545456	16.8743686676	10.7230167389
-6.59492397308	-60.9289512634	-1.15557050705	-12.4848337173	16.5089550018	10.1916561127
-8.49146652222	-61.808555603	0.480769246817	-14.794251442	15.9133834839	9.44363689423
-10.78120327	-64.3549194336	8.63153648376	-16.3373355865	14.9540042877	8.42106246948
-13.9590501785	-66.1454162598	16.76130867	-17.0428924561	14.1069383621	7.42603445053
-18.9989318848	-67.9291534424	27.9738578796	-17.7384319305	13.8403959274	7.05084753036
-22.2342281342	-68.817741394	36.3790397644	-18.3298969269	13.941365242	7.28547096252
-27.2063884735	-69.8044815063	47.0417823792	-18.4885158539	13.8464832306	7.49499797821
-30.2899971008	-70.582611084	53.5270462036	-18.2735805511	13.8607330322	7.57283163071
-33.7649650574	-70.6446762085	57.8131904602	-17.9509143829	14.0335979462	7.55263137817
-37.2585639954	-70.6195220947	61.9502792358	-17.5885829926	14.2245645523	7.64508962631
-39.016292572	-70.597869873	64.6212921143	-17.1833763123	14.524728775	7.61911964417
-40.271068573	-70.9420013428	67.6576004028	-16.5111274719	15.0797700882	7.78901290894
-44.9071769714	-71.5619735718	76.1245574951	-14.9848489761	15.5223741531	8.42019271851
-49.0843238831	-72.1642837524	83.6366119385	-13.5021362305	15.8521623611	9.03324508667
-52.4885406494	-72.1339569092	88.2220230103	-12.9363794327	16.1438903809	9.16863536835
-52.7202758789	-71.7777709961	88.2003479004	-12.7559175491	16.1526241302	9.45485401154
-53.3301200867	-71.368057251	88.7413406372	-12.8506698608	16.3817558289	9.91116046906
-54.1224822998	-70.8336410522	89.4680328369	-12.4446554184	17.2240219116	11.0700311661
-55.595703125	-70.5217590332	91.3832092285	-11.0586500168	17.8656978607	12.3164358139
-56.7314376831	-70.1814575195	92.9252548218	-9.34451389313	18.483259201	13.4915037155
-58.7363052368	-69.7468261719	95.36328125	-9.36952209473	18.830291748	13.9118738174
-59.9892654419	-69.1417312622	97.0841140747	-8.21465301514	18.385892868	14.4370708466
-59.3989982605	-68.6549377441	96.3942947388	-3.42293524742	17.324886322	15.7216129303
-59.4690895081	-68.0631942749	96.5065460205	2.29308509827	16.3656730652	16.1856250763
-60.0170707703	-67.7804489136	96.83644104	6.07085943222	16.318025589	16.4413204193
-60.8538742065	-67.6863021851	97.3355789185	4.5501408577	17.0983581543	15.9274835587
-61.9246940613	-67.7814407349	98.0904693604	-1.13805472851	18.637506485	15.7466955185
-61.5109901428	-67.9967956543	97.3419189453	-8.22155380249	21.2753753662	16.7955341339
-62.7299957275	-67.7834091187	97.3852310181	-13.2662067413	24.2977523804	18.2872962952
-62.9105987549	-67.293800354	95.5109329224	-15.1320829391	25.8030109406	19.3777103424
-61.4659042358	-66.7478485107	88.9289169312	-14.4898347855	27.2714080811	20.2907104492
-52.4038009644	-65.8173751831	66.0103683472	-12.7847909927	26.3319149017	19.9119224548
-45.4356117249	-64.2769699097	47.1348190308	-11.3131866455	25.042596817	20.0842876434
-37.8956642151	-61.7361297607	28.7396965027	-11.1836242676	24.7565021515	19.472574234
-35.2108535767	-56.1018447876	15.1981248856	-10.9192848206	24.6547431946	18.8394985199
-30.5366744995	-55.9211349487	8.06727409363	-10.2010965347	24.0536212921	18.4093151093
-28.038356781	-56.6099662781	6.7089509964	-9.14112472534	22.9336795807	17.8426170349
-25.9155139923	-56.226852417	5.17308855057	-7.71371650696	21.9253959656	17.4459705353
-26.2713298798	-56.1145553589	6.30931949615	-6.91002082825	21.3641242981	17.2363414764
-26.4754695892	-56.2976608276	6.52769231796	-6.73557758331	20.8683357239	16.7403011322
-27.5269412994	-56.9385108948	11.419508934	-6.02785396576	20.5959701538	16.3037261963
-28.7076644897	-57.0098457336	15.2262678146	-4.6780166626	20.286945343	16.0834827423
-31.1336669922	-57.048034668	21.8875999451	-1.78640270233	19.8331069946	16.283208847
-32.2703819275	-56.5808143616	24.8906497955	1.41990804672	19.9647197723	16.5731601715
-36.5081977844	-55.0697135925	39.3417510986	3.2930700779	20.2684822083	16.9163475037
-37.8109893799	-53.9022369385	44.5874710083	2.87539172173	20.2086315155	17.0046234131
-38.1345787048	-53.1284790039	42.9717483521	2.0201458931	20.2448215485	16.9818286896
-38.9336013794	-52.8537406921	45.26512146	1.57736337185	20.1539611816	17.0970115662
-38.774559021	-53.3223457336	50.7434043884	1.19127058983	19.9547786713	17.2006931305
-45.269695282	-54.6772384644	75.7223205566	0.675572633743	19.9563217163	17.2377967834
-48.3920135498	-56.4221305847	92.7618560791	0.18481759727	19.8215045929	17.1520786285
-52.5676727295	-58.9937782288	107.483345032	-0.243831723928	19.5986995697	17.0212936401
-73.6216506958	-57.229511261	146.144210815	-0.679625988007	19.0578613281	16.5596160889
-73.5779876709	-61.0230064392	143.327423096	-1.81861054897	17.0406589508	15.2190265656
-62.4517784119	-66.2011108398	127.658233643	-3.16656398773	14.8265266418	13.8689718246
-52.0886917114	-66.1183242798	113.780220032	-4.1240234375	12.8457717896	13.3123531342
-65.1711959839	-57.4264717102	131.479293823	-4.21324586868	11.9597187042	12.6651248932
-70.6812210083	-46.5870323181	139.948455811	-3.91759681702	11.8317136765	12.5866060257
-75.9558334351	-37.323802948	146.496246338	-3.55417084694	12.0648393631	12.6473655701
-76.0018081665	-33.7218322754	149.742477417	-2.97172522545	12.4970149994	12.839266777
-74.0399169922	-40.8353042603	147.033859253	-2.37702918053	12.9039745331	12.8269672394
-60.0803642273	-56.6804733276	125.775688171	-2.19129872322	13.3121299744	12.9569072723
1.17090880871	-63.4549598694	43.0129203796	-2.64459753036	13.6007814407	13.0703802109
22.0624160767	-51.9185447693	19.5485992432	-3.40875840187	13.7006626129	13.0897083282
25.813167572	-53.4524116516	20.614780426	-3.89903974533	13.62296772	13.2665624619
26.3571777344	-55.4025993347	26.2875385284	-4.21843624115	13.7445802689	13.529624939
35.5634498596	-57.2847290039	35.1730384827	-4.19481658936	13.6778259277	13.5106487274
45.6506690979	-65.4929504395	46.7872085571	-3.75808882713	13.4774541855	13.5434303284
12.4078474045	-81.4938583374	93.0570678711	-3.20569086075	13.5288524628	13.8389616013
-65.4883422852	-80.2537994385	174.856170654	-2.84105086327	13.7122478485	14.1457414627
-67.2796325684	-74.1890258789	179.308410645	-2.62074899673	13.8846616745	14.1402406693
-51.1875267029	-74.3386764526	159.421859741	-2.48228383064	14.0235109329	14.1103782654
-42.0906715393	-74.7688751221	138.109786987	-2.9787671566	14.4000406265	14.1351661682
-35.4655647278	-74.1806564331	122.531761169	-3.62351918221	14.8501024246	14.2058286667
-31.8942375183	-72.9133605957	113.159393311	-4.23377895355	15.4048891068	14.7348566055
-31.3552284241	-72.8648910522	110.182449341	-5.18475389481	16.2130966187	15.592918396
-35.7405166626	-72.4995956421	113.586547852	-6.72649240494	17.1473712921	16.8151912689
-36.2659912109	-72.3877029419	112.706253052	-8.0997877121	17.5409564972	17.2074565887
-29.0395069122	-72.1132965088	98.6428451538	-8.46522712708	17.2446136475	17.1184959412
-17.2498512268	-68.6423110962	70.9880065918	-8.48639392853	17.0609893799	17.0052280426
-6.0157418251	-65.0952377319	46.603805542	-8.62941074371	17.3687076569	16.8618984222
-1.72619569302	-60.5364265442	30.8407535553	-8.84240531921	17.3524951935	16.7508239746
-0.702800929546	-57.1015701294	21.5360813141	-9.35367298126	16.4406909943	16.2740039825
-0.619355082512	-53.9830055237	15.0452079773	-10.620139122	15.4653673172	15.5743217468
-1.16293275356	-50.4538116455	7.64418888092	-13.7533960342	14.941614151	14.4848814011
-0.894170820713	-46.6313209534	-1.31026220322	-18.3287391663	14.5447788239	13.048002243
-1.50911414623	-42.7772865295	-12.6307344437	-22.2298297882	13.7061834335	11.6476621628
-6.28214406967	-38.8696975708	-24.8635921478	-24.7360649109	12.5135345459	10.5593042374
-10.5072898865	-36.0954704285	-33.4654197693	-27.9055175781	10.4945640564	9.54249191284
-14.821852684	-29.6075248718	-40.2628974915	-32.5948829651	9.1534204483	9.02816486359
-17.4578342438	-25.774887085	-48.3769760132	-37.8006057739	8.97487831116	8.97749996185
-15.2822799683	-26.9249038696	-63.8556594849	-41.1400032043	9.53269195557	9.38413143158
-12.1953496933	-36.2625999451	-82.0565109253	-41.7421875	10.0306224823	9.84251499176
