0.108817100525	1.45395278931	0.0647163391113	0.00185894966125	1.64633858204	-0.101031303406
0.108367681503	1.45416736603	0.0636794567108	0.00111508369446	1.64595854282	-0.101927518845
0.107899188995	1.45419609547	0.0626122951508	0.000401735305786	1.64559495449	-0.10282087326
0.107912778854	1.45401358604	0.0613799095154	-0.000292301177979	1.64496290684	-0.103828549385
0.10830783844	1.45402514935	0.0609883069992	-0.000509738922119	1.64373123646	-0.104090213776
0.110300302505	1.45503985882	0.062242269516	-0.000779867172241	1.64034330845	-0.103376269341
0.11162352562	1.45619750023	0.0617413520813	-0.00291013717651	1.63682055473	-0.101303219795
0.108885288239	1.45539486408	0.060787320137	-0.00768136978149	1.6325302124	-0.098311662674
0.105186700821	1.45502865314	0.0606025457382	-0.0143024921417	1.62722110748	-0.0948896408081
0.101580619812	1.45574235916	0.0605312585831	-0.0207850933075	1.6220729351	-0.0917930603027
0.0995953083038	1.45681035519	0.0606844425201	-0.0263569355011	1.61759388447	-0.0893296003342
0.098140001297	1.45729744434	0.0617710351944	-0.0304567813873	1.61400127411	-0.0869829654694
0.0964031219482	1.45838415623	0.0614157915115	-0.0323815345764	1.61129498482	-0.0845408439636
0.0951704978943	1.46015298367	0.0602917671204	-0.0318758487701	1.61027491093	-0.0819398164749
0.094304561615	1.46088635921	0.060661315918	-0.0310301780701	1.61000525951	-0.0795435905457
0.0947403907776	1.46141707897	0.0621571540833	-0.03098320961	1.60912191868	-0.077200293541
0.0982940196991	1.4626147747	0.0649828910828	-0.0316104888916	1.60817456245	-0.075023651123
0.103597640991	1.46407473087	0.0684686899185	-0.0323567390442	1.60699820518	-0.0727818012238
0.10711145401	1.46460556984	0.071785569191	-0.0331780910492	1.60578513145	-0.0706288814545
0.109434604645	1.46428453922	0.0742983818054	-0.0339379310608	1.60498535633	-0.0688335895538
0.112992286682	1.46364569664	0.0776507854462	-0.03440117836	1.60421717167	-0.0672993659973
0.116190433502	1.46200370789	0.0825523138046	-0.0344591140747	1.60360181332	-0.0663220882416
0.119005203247	1.46114206314	0.0851421356201	-0.0340890884399	1.60321009159	-0.0654792785645
0.120063304901	1.46107137203	0.0843843221664	-0.0335378646851	1.60317742825	-0.0652521848679
0.121197223663	1.46125125885	0.0838907957077	-0.0328409671783	1.60325908661	-0.065413236618
