0.0	-0.0	142.513900757	113.3931427	75.359375	39.4929885864
0.0	-0.0	140.489700317	113.296440125	74.9611129761	39.4837722778
0.0	-0.0	140.882644653	112.962471008	74.7920227051	39.4019737244
0.0	-0.0	137.411270142	110.238632202	75.6303863525	39.5996055603
0.0	-0.0	133.634231567	98.3748397827	77.9880065918	39.6036872864
0.0	-0.0	127.928352356	83.5852355957	79.2043991089	41.370349884
0.0	-0.0	125.007804871	70.0604629517	80.1753387451	44.7661590576
0.0	-0.0	123.128158569	63.8930358887	81.2601623535	47.1008338928
0.0	-0.0	118.993263245	64.2432327271	83.0236587524	48.6831054688
0.0	-0.0	89.8625411987	64.6405487061	87.5805892944	52.0538825989
0.0	-0.0	72.6050109863	-118.340583801	86.043510437	-121.248252869
0.0	-0.0	54.3059768677	-125.26751709	81.859954834	-117.755813599
0.0	-0.0	28.298248291	-138.665527344	77.3471221924	-116.614715576
0.0	-0.0	7.97734165192	-157.001586914	69.6464080811	-120.414207458
0.0	0.0	-10.2688369751	-178.186050415	58.2375793457	-128.751556396
0.0	0.0	-28.7881851196	164.209213257	47.0489082336	-138.630950928
0.0	0.0	-45.5015068054	151.482284546	39.3015480042	-146.612548828
0.0	0.0	-63.5278511047	143.814880371	34.3694114685	-151.931686401
0.0	0.0	-73.0906143188	144.23223877	33.5897827148	-153.754730225
0.0	0.0	-77.9556732178	144.029190063	32.0836448669	-155.509933472
0.0	0.0	-82.5561294556	139.084472656	26.2752151489	-154.951553345
