0.102908611298	1.1421662569	0.221945762634	0.0242831707001	1.63078081608	-0.0965218544006
0.10410785675	1.1406840086	0.22042453289	0.0243339538574	1.63063085079	-0.0971610546112
0.104569911957	1.1392352581	0.219470024109	0.0244188308716	1.63032352924	-0.0969586372375
0.104127883911	1.13817322254	0.218873739243	0.0241713523865	1.62941503525	-0.0960507392883
0.102887868881	1.13563001156	0.218528985977	0.023770570755	1.627363801	-0.0946789979935
0.101671457291	1.13212227821	0.2196611166	0.0245614051819	1.62154948711	-0.0918750762939
0.0985553264618	1.13293623924	0.219350576401	0.0250623226166	1.61504518986	-0.088271856308
0.095874786377	1.13072061539	0.21946144104	0.0265727043152	1.6079775095	-0.084454536438
0.0944094657898	1.1285071373	0.218776345253	0.029328584671	1.60020780563	-0.0801392793655
0.0921003818512	1.12488603592	0.217276215553	0.0333316326141	1.5934844017	-0.0760192871094
0.0918259620667	1.11865544319	0.216016769409	0.0380191802979	1.58818113804	-0.0723249912262
0.0943701267242	1.10838139057	0.215481996536	0.0435585975647	1.58293139935	-0.0692540407181
0.0988280773163	1.10133481026	0.214488148689	0.0490734577179	1.57965493202	-0.0670702457428
0.105008840561	1.1001957655	0.215723156929	0.0542006492615	1.57762277126	-0.0654726028442
0.108102083206	1.10217523575	0.217408180237	0.0583734512329	1.57606232166	-0.0647014379501
0.109488725662	1.10544157028	0.218545556068	0.0612595081329	1.57474756241	-0.0646773576736
0.107501506805	1.10696089268	0.218991041183	0.0639312267303	1.57429075241	-0.0651013851166
0.108202695847	1.10589373112	0.218923330307	0.0659351348877	1.57402324677	-0.0658257007599
0.111845731735	1.10139358044	0.219068646431	0.0671479701996	1.57413125038	-0.0668480396271
0.113867282867	1.09797954559	0.220591306686	0.0680859088898	1.57374227047	-0.0676822662354
0.116062879562	1.09433341026	0.220742702484	0.0695614814758	1.57289814949	-0.0682737827301
0.114619731903	1.09204781055	0.221411347389	0.0713953971863	1.57247614861	-0.0683889389038
0.111382961273	1.0886516571	0.221341013908	0.0738425254822	1.57233512402	-0.0678876638412
0.108364582062	1.08797299862	0.221587657928	0.0764904022217	1.57207882404	-0.0667858123779
0.106795549393	1.08800733089	0.222092151642	0.0784773826599	1.57188212872	-0.0652251243591
0.108580589294	1.08463430405	0.222764253616	0.080578327179	1.57106995583	-0.0632431507111
0.112324476242	1.07762718201	0.225272059441	0.0832502841949	1.57069420815	-0.060446023941
0.114952087402	1.07357859612	0.228169798851	0.0853123664856	1.5701842308	-0.0576508045197
0.117141246796	1.07128620148	0.231907129288	0.0868220329285	1.56976556778	-0.0548923015594
0.117651939392	1.06552839279	0.235280990601	0.0882928371429	1.56942975521	-0.0528631210327
0.116006851196	1.06662142277	0.238975763321	0.0891060829163	1.56942403316	-0.0511152744293
0.112891674042	1.07128107548	0.241339683533	0.089920759201	1.56966531277	-0.0495536327362
0.110260725021	1.07651388645	0.242450356483	0.0908639431	1.56971299648	-0.047869682312
0.109184741974	1.07629227638	0.243755817413	0.0914130210876	1.56939935684	-0.0461685657501
0.107107400894	1.0665897131	0.244489908218	0.0921177864075	1.5691601038	-0.044736623764
0.104984045029	1.05925250053	0.245216608047	0.0925109386444	1.56921374798	-0.0431787967682
0.103544712067	1.05596375465	0.247606635094	0.0928473472595	1.56898438931	-0.0415412187576
0.101808309555	1.05177140236	0.249921441078	0.0932598114014	1.56875264645	-0.0405249595642
0.100352048874	1.04935741425	0.251847028732	0.0934512615204	1.5686609745	-0.0398921966553
0.0965163707733	1.04694128036	0.252603173256	0.0931746959686	1.56875681877	-0.039498925209
0.0922935009003	1.04425621033	0.251820445061	0.0929381847382	1.56846809387	-0.039146900177
0.0875205993652	1.04084777832	0.248901605606	0.0923044681549	1.56788754463	-0.0390785932541
0.0822894573212	1.03831911087	0.245823740959	0.0911359786987	1.5673456192	-0.039306640625
0.0778779983521	1.03595924377	0.242936015129	0.0893607139587	1.56712222099	-0.0396068096161
0.0742709636688	1.03380560875	0.240768671036	0.0869498252869	1.56636846066	-0.0404300689697
0.0722167491913	1.03266429901	0.238970041275	0.083714723587	1.56438839436	-0.0424482822418
0.0708107948303	1.0322458744	0.237213969231	0.0794410705566	1.56169736385	-0.0441365242004
0.0703806877136	1.03210043907	0.236101031303	0.0761935710907	1.56160092354	-0.0451217889786
0.0710973739624	1.03132772446	0.235178947449	0.0749673843384	1.56251072884	-0.0460555553436
0.0720348358154	1.03159332275	0.234460115433	0.0772180557251	1.56302702427	-0.0471043586731
0.0733113288879	1.03150629997	0.234041810036	0.0833747386932	1.56310522556	-0.0480816364288
0.0746562480927	1.03186535835	0.233822703362	0.0936322212219	1.56321036816	-0.0497019290924
0.0764303207397	1.03291630745	0.234787583351	0.104947090149	1.56337487698	-0.0522880554199
0.0790939331055	1.0337471962	0.23542201519	0.113275766373	1.56307518482	-0.0554205179214
0.0832145214081	1.03403282166	0.236532688141	0.118051767349	1.56211817265	-0.0581119060516
0.0876183509827	1.03341245651	0.237378239632	0.119724273682	1.56103444099	-0.0602374076843
0.0912895202637	1.03188896179	0.237203121185	0.120741844177	1.56028139591	-0.0619065761566
0.0944616794586	1.03041434288	0.236635565758	0.121510028839	1.5599116087	-0.063218832016
0.0980453491211	1.02928042412	0.236297130585	0.121919155121	1.55988609791	-0.0639439821243
0.103644609451	1.02796983719	0.235262274742	0.122916221619	1.55949544907	-0.0645002126694
0.111150979996	1.02466678619	0.234219789505	0.12440943718	1.55944740772	-0.0650944709778
0.116730928421	1.02245569229	0.234343528748	0.125222921371	1.55986607075	-0.0658578872681
0.121739387512	1.02149772644	0.23448741436	0.125979661942	1.56003403664	-0.0659195184708
0.125149250031	1.02064990997	0.234546661377	0.126576185226	1.56013846397	-0.0655872821808
0.126151323318	1.01975131035	0.234501719475	0.127419233322	1.560354352	-0.0645142793655
0.12556219101	1.01807117462	0.234048962593	0.128310441971	1.56047904491	-0.0635124444962
0.124970436096	1.01607108116	0.234516143799	0.128317594528	1.56064522266	-0.0619742870331
0.125344514847	1.01603078842	0.235748529434	0.124952316284	1.561814785	-0.0590205192566
0.126243114471	1.01534700394	0.237370491028	0.122745513916	1.5631146431	-0.0567451715469
0.125722885132	1.01569747925	0.238648414612	0.12372636795	1.56350791454	-0.0555157661438
0.125659942627	1.01664638519	0.240196824074	0.125028371811	1.56321048737	-0.0545091629028
0.125663757324	1.01641798019	0.240854501724	0.127823591232	1.56371819973	-0.0536673069
0.126352548599	1.0138463974	0.240614771843	0.135569572449	1.56556618214	-0.0535032749176
0.127373218536	1.01176667213	0.240523219109	0.146359205246	1.5669542551	-0.0554963350296
0.12909245491	1.0122423172	0.241542100906	0.154624938965	1.56799864769	-0.0576450824738
0.131030797958	1.01348280907	0.242887973785	0.159798145294	1.56901693344	-0.0595686435699
0.132083415985	1.01303720474	0.243216991425	0.162746667862	1.56965720654	-0.0611720085144
0.13285112381	1.01099061966	0.242226719856	0.165701150894	1.57068169117	-0.0637419223785
0.134248971939	1.00791811943	0.241083025932	0.166239976883	1.57186722755	-0.0655341148376
0.13925909996	1.00590586662	0.240644216537	0.165349245071	1.57346701622	-0.0670733451843
0.145787239075	1.00459575653	0.240479946136	0.163578987122	1.57471680641	-0.0685269832611
0.150408267975	1.00391769409	0.240045547485	0.161018848419	1.57532310486	-0.0702474117279
0.151739358902	1.00393104553	0.239381670952	0.158014059067	1.57595646381	-0.0717247724533
0.15013885498	1.00381779671	0.23791384697	0.15385222435	1.57678890228	-0.0726906061172
0.148827075958	1.00438117981	0.237381458282	0.147579193115	1.57697701454	-0.0723888874054
0.148153781891	1.00471949577	0.237303495407	0.142304182053	1.57726216316	-0.0731970071793
0.147677183151	1.00455021858	0.237447857857	0.138847112656	1.57886576653	-0.0745904445648
0.146620512009	1.00431871414	0.236929655075	0.135964870453	1.58023619652	-0.076278924942
0.14638710022	1.00464272499	0.235925793648	0.133080482483	1.58131921291	-0.0783245563507
0.147350311279	1.00468850136	0.235463619232	0.129571437836	1.58305120468	-0.0813884735107
0.148167133331	1.00672316551	0.235642194748	0.124700784683	1.58534193039	-0.0855214595795
0.147401094437	1.01037144661	0.235839009285	0.118951559067	1.5880753994	-0.090701341629
0.145836353302	1.01440930367	0.23557639122	0.113473176956	1.58987689018	-0.096800327301
0.143251419067	1.0166285038	0.233498573303	0.108875751495	1.59033739567	-0.102848410606
0.140071153641	1.01561665535	0.229553341866	0.105162143707	1.58974409103	-0.107361793518
0.138257026672	1.01274299622	0.225284099579	0.102228164673	1.58914017677	-0.109063267708
0.136323690414	1.01206040382	0.223423957825	0.100567340851	1.5884115696	-0.109115839005
0.132882595062	1.01367235184	0.224336504936	0.0993175506592	1.58826339245	-0.108496665955
0.126943349838	1.01392865181	0.225255727768	0.0978257656097	1.58816480637	-0.107964754105
0.122705459595	1.01282095909	0.226021647453	0.0959048271179	1.58873128891	-0.10677087307
0.120681524277	1.01064014435	0.225823283195	0.0936422348022	1.58888220787	-0.10496199131
0.120397090912	1.00759506226	0.225604295731	0.0909557342529	1.58886730671	-0.103038072586
0.121740341187	1.00572395325	0.22634267807	0.0887367725372	1.58927369118	-0.100865125656
0.122585535049	1.00463891029	0.226813435555	0.0876595973969	1.59007894993	-0.0988609790802
0.123178005219	1.00338602066	0.227192997932	0.0876729488373	1.59127104282	-0.0974018573761
0.12438082695	1.00233268738	0.227291107178	0.0878777503967	1.59147846699	-0.0962121486664
0.125544071198	1.00193929672	0.227822184563	0.0884265899658	1.5907998085	-0.0950245857239
0.12679028511	1.00121045113	0.228203654289	0.0886566638947	1.59026587009	-0.0939946174622
0.127779483795	1.00115704536	0.228372097015	0.086813211441	1.59014999866	-0.0928970575333
0.127655744553	1.00129985809	0.228003144264	0.0813233852386	1.59108150005	-0.0911798477173
0.13042640686	1.00152182579	0.227791190147	0.0717840194702	1.59170806408	-0.0888777971268
0.135071754456	1.00099802017	0.227242708206	0.0621654987335	1.5903646946	-0.0876961946487
0.140172243118	1.00006198883	0.227308392525	0.0594799518585	1.59004151821	-0.0874440670013
0.142227888107	1.00097823143	0.228260397911	0.0612592697144	1.58980572224	-0.0875712633133
0.140768051147	1.00031304359	0.227657794952	0.0636763572693	1.586810112	-0.0884267091751
0.139691114426	0.99814248085	0.2260607481	0.0659828186035	1.5822275877	-0.0896804332733
0.140331745148	0.995671510696	0.225713849068	0.0680088996887	1.57926666737	-0.090071439743
0.142211675644	0.993362903595	0.225991845131	0.0672237873077	1.57889997959	-0.0901734828949
0.142303943634	0.990719795227	0.226501464844	0.0623490810394	1.5785421133	-0.0905262231827
0.140916109085	0.98806810379	0.226435661316	0.057293176651	1.57769095898	-0.0910459756851
0.139434337616	0.985929489136	0.227011442184	0.0520277023315	1.57700181007	-0.0917328596115
0.137028694153	0.98411154747	0.226428151131	0.0459580421448	1.57756459713	-0.0929198265076
0.135313987732	0.981596946716	0.225606918335	0.0390696525574	1.57926702499	-0.0948457717896
0.133501291275	0.979853391647	0.224565505981	0.0319902896881	1.58157420158	-0.0980776548386
0.130818128586	0.979551553726	0.224920511246	0.0249884128571	1.58404707909	-0.102165222168
0.126467704773	0.980331659317	0.225057125092	0.0190849304199	1.58638238907	-0.106248378754
0.122095584869	0.981506109238	0.224792718887	0.0146944522858	1.5871168375	-0.109994411469
0.118681669235	0.982125520706	0.224277257919	0.0103132724762	1.58656430244	-0.113409399986
0.115668773651	0.982308864594	0.223437309265	0.0041298866272	1.58548927307	-0.116724729538
0.113756656647	0.981322288513	0.221659660339	-0.00106048583984	1.58302402496	-0.119166731834
0.113162279129	0.980360031128	0.220022320747	-0.00427842140198	1.58167552948	-0.120532393456
0.110267162323	0.981743574142	0.218675255775	-0.00644135475159	1.58145558834	-0.121848344803
0.10439157486	0.981973171234	0.216123580933	-0.00645351409912	1.58089435101	-0.122522711754
0.0993204116821	0.982767820358	0.213407278061	-0.00662517547607	1.57986652851	-0.123520612717
0.0967593193054	0.983461856842	0.212469339371	-0.00675129890442	1.57615149021	-0.1241979599
0.0942268371582	0.986918926239	0.212205767632	-0.00561571121216	1.56589519978	-0.123060941696
0.0895626544952	0.994899988174	0.212055563927	-0.00423431396484	1.56089603901	-0.119968175888
0.0845844745636	0.997998714447	0.209880828857	-0.00405955314636	1.55962836742	-0.118500232697
0.0805652141571	0.999587774277	0.207915306091	-0.00365591049194	1.55441629887	-0.116570472717
0.0789694786072	0.999373912811	0.206447839737	-0.00213122367859	1.54986643791	-0.114373922348
0.0793962478638	0.996963262558	0.206462740898	0.000766754150391	1.55361759663	-0.110935926437
0.0797832012177	0.993968963623	0.207275748253	0.00252890586853	1.5574798584	-0.108278155327
0.0778212547302	0.991204977036	0.207888245583	0.0035412311554	1.55891299248	-0.10654425621
0.0741467475891	0.991450071335	0.208995342255	0.00526571273804	1.55980932713	-0.104281663895
0.0683460235596	0.993373394012	0.20983338356	0.00557374954224	1.55930757523	-0.1028829813
0.0615446567535	0.994313716888	0.209770202637	0.0059380531311	1.55836391449	-0.101826429367
0.0568668842316	0.995309114456	0.208726882935	0.00708270072937	1.55802738667	-0.101125955582
0.0540692806244	0.991127729416	0.207414031029	0.00679397583008	1.55800509453	-0.101141214371
0.0531821250916	0.984800100327	0.205134630203	0.00583362579346	1.55814218521	-0.101357102394
0.0524017810822	0.979641675949	0.202010750771	0.00477290153503	1.55868160725	-0.101410984993
0.0542650222778	0.97665476799	0.200463056564	0.00412011146545	1.55922198296	-0.101416349411
0.0549304485321	0.984602928162	0.201493144035	0.00415778160095	1.55905497074	-0.101143360138
