0.0282742977142	1.44349098206	0.0429760217667	0.00658774375916	1.65013504028	-0.175179958344
0.0286302566528	1.44380319118	0.0446743965149	0.00572967529297	1.65061783791	-0.173522233963
0.0292022228241	1.44436252117	0.0455160140991	0.00546193122864	1.65110981464	-0.172318220139
0.0295913219452	1.44385170937	0.0471577644348	0.00595641136169	1.65102005005	-0.171242594719
0.0301296710968	1.44182288647	0.0484187602997	0.00890851020813	1.65023028851	-0.17036485672
0.0332190990448	1.44109833241	0.049311876297	0.014003276825	1.64944863319	-0.170866012573
0.0363824367523	1.44121420383	0.0498023033142	0.0203468799591	1.64910233021	-0.172662973404
0.0391533374786	1.4418656826	0.047399520874	0.0248820781708	1.64905488491	-0.174319982529
0.03990483284	1.44206726551	0.044037103653	0.0269212722778	1.64889585972	-0.175780415535
