-114.029640198	-82.8846511841	144.139663696	16.7774429321	-4.14206600189	6.19175767899
-114.11328125	-82.8960342407	143.99130249	16.6945915222	-4.113052845	6.28285694122
-114.229362488	-82.8945770264	143.919036865	16.6513004303	-4.16796541214	6.3833823204
-113.355033875	-82.8388214111	142.866592407	16.6619911194	-4.26072216034	6.39033603668
-113.165473938	-82.9195480347	142.529937744	16.6518306732	-4.50390911102	6.46130943298
-113.269569397	-82.9165725708	142.460067749	16.4826030731	-4.53492927551	6.46376132965
-112.468757629	-82.8886032104	141.753433228	16.4729213715	-3.83064007759	6.44710445404
-111.605743408	-82.7937393188	141.308929443	16.5421695709	-2.31514334679	6.58796215057
-112.960975647	-82.4906539917	142.889984131	17.0900707245	-0.0856695920229	7.23198223114
-112.328018188	-82.4121398926	142.194458008	17.7958183289	2.0588259697	8.31007194519
-110.9322052	-82.4614257812	140.561294556	18.157875061	4.88371372223	9.19227695465
-110.775787354	-82.4173126221	140.234588623	18.4561538696	8.29810619354	9.8049993515
-111.903091431	-81.9941864014	142.104522705	18.998840332	10.6849899292	10.1832208633
-104.692207336	-81.8427810669	133.944854736	19.4852828979	11.9309482574	10.3301649094
-55.9359054565	-84.3977203369	77.0429763794	19.7576713562	12.3445768356	10.263171196
-39.9666137695	-82.7012939453	58.0967445374	19.9043006897	12.7040243149	10.2460136414
-42.8848838806	-82.335723877	60.8956260681	19.8029212952	13.1303539276	10.3285083771
-46.268901825	-82.5782470703	65.3030471802	19.4654178619	13.3535604477	10.2606306076
-51.3084144592	-82.601348877	71.7143554688	18.7209377289	13.9370002747	10.0591411591
-49.4597663879	-82.7733688354	69.9815597534	17.3202133179	15.2841691971	9.41675662994
-46.6197433472	-82.7724151611	66.5370330811	16.3184013367	16.8781223297	8.78416538239
-40.4663124084	-82.7072601318	59.3935775757	15.9043722153	18.4887294769	8.15309715271
-33.0774002075	-82.3697662354	50.7913513184	15.7649354935	20.390203476	7.64759635925
-30.3265361786	-81.9680252075	47.4903793335	15.9367418289	21.6326580048	7.55426597595
-24.1832065582	-81.4421615601	40.149936676	16.0349617004	22.2185382843	7.48143911362
-17.8299274445	-80.557472229	32.4723472595	16.2030830383	22.5193367004	7.47055482864
-13.9652090073	-79.8384399414	27.8854961395	16.2789306641	22.6843528748	7.52372360229
-13.939904213	-79.5360412598	27.5032920837	16.2740364075	22.716135025	7.64877939224
-13.2552623749	-79.4395217896	26.9596557617	16.1992797852	22.5015735626	7.82013845444
-10.8886508942	-79.0131378174	23.697725296	15.9006881714	22.1011981964	7.95530033112
-5.48310184479	-78.1843261719	15.2755365372	15.8094072342	21.850812912	8.15812015533
-2.53410768509	-76.8451004028	8.34025192261	15.6714401245	21.7255802155	8.33976268768
-3.65179347992	-75.7347259521	6.03512191772	15.6320180893	21.6191120148	8.40652370453
-4.74201631546	-75.1412734985	5.31241512299	15.6586198807	21.610118866	8.48246192932
-5.38617181778	-74.9428329468	4.53260707855	15.6709289551	21.5085163116	8.6005487442
-6.15679836273	-74.4066543579	2.64717364311	15.5271968842	21.1949501038	8.77487754822
-8.06648159027	-74.0391082764	1.34914767742	15.101231575	20.3333377838	9.10704135895
-10.5379781723	-73.4827651978	1.08608591557	14.2475833893	19.1710662842	9.66505146027
-10.5814094543	-72.2866439819	-1.87898027897	13.3533306122	18.4727668762	10.1601486206
-8.84579277039	-70.7796020508	-7.10750865936	12.7652082443	18.3905067444	10.5041179657
-7.40526294708	-68.7369155884	-13.9843263626	12.2622299194	18.4988460541	10.7863788605
-4.49320173264	-67.5654907227	-22.6376972198	11.9051160812	18.4642944336	10.9498901367
-4.24757146835	-67.3381576538	-28.5964069366	11.7729282379	18.4228954315	11.1609487534
-2.58026051521	-66.5698165894	-33.7004928589	11.3460607529	18.2554645538	11.321685791
-2.37583827972	-65.9887542725	-35.9979934692	10.2259044647	17.909866333	11.7240600586
-3.502191782	-65.7090606689	-36.2323532104	8.15959835052	17.5683193207	11.794593811
-2.50521564484	-65.2718048096	-39.1544532776	6.12250375748	17.5379981995	12.0202064514
-1.5012871027	-64.5743179321	-44.2045593262	5.27595186234	17.7216720581	12.1669836044
-2.4229388237	-64.447807312	-48.3058700562	6.0189409256	17.7512454987	12.4958782196
