0.0	-0.0	134.63911438	88.0285415649	77.6109008789	19.0912570953
0.0	-0.0	134.223083496	87.6878204346	77.804397583	19.1785011292
0.0	-0.0	133.803878784	87.2849197388	77.8883056641	19.5173988342
0.0	-0.0	135.018997192	86.8053817749	77.6477813721	19.5289993286
0.0	-0.0	134.452896118	86.6860733032	77.6657409668	19.5913524628
0.0	-0.0	136.086975098	84.8659896851	74.9588928223	18.5140609741
0.0	-0.0	133.708374023	81.2699203491	69.6018600464	17.2941055298
0.0	-0.0	130.919219971	76.8404541016	65.0670776367	16.8628940582
0.0	-0.0	130.363601685	71.8555221558	60.1410369873	16.269033432
0.0	-0.0	131.487716675	66.4003601074	53.2794456482	16.0613117218
0.0	-0.0	128.791320801	60.8135604858	46.6413917542	16.5799026489
0.0	-0.0	125.119369507	56.1945037842	39.8573303223	17.3025169373
0.0	-0.0	122.571853638	51.6524505615	33.6387557983	18.1277198792
0.0	-0.0	117.304954529	48.2581062317	29.4313163757	18.8331794739
0.0	-0.0	117.968688965	46.9837188721	26.2143955231	19.1490001678
0.0	-0.0	107.805892944	47.5482635498	23.1793785095	18.6628894806
0.0	-0.0	106.478637695	48.4507217407	20.2316455841	18.4017982483
0.0	-0.0	101.012077332	48.0984725952	18.2733268738	18.4956188202
0.0	-0.0	92.5125961304	47.4226799011	17.2497825623	18.9963092804
0.0	-0.0	86.6512680054	46.8595428467	16.7212657928	19.5643310547
0.0	-0.0	80.8674468994	46.3692817688	16.2304210663	19.9069633484
0.0	-0.0	70.8943557739	45.9582862854	15.3139162064	20.5784072876
0.0	-0.0	56.4708480835	45.348361969	12.9510440826	20.9365234375
0.0	-0.0	40.3965187073	44.9573669434	10.4771814346	21.6285591125
0.0	-0.0	37.9552955627	44.7645530701	7.71763324738	22.0242385864
0.0	-0.0	39.3386001587	43.9759178162	5.41367912292	22.9189662933
0.0	-0.0	42.6770248413	42.7222671509	4.17486667633	24.0631084442
0.0	-0.0	42.7438697815	41.9887237549	2.59218430519	25.197183609
0.0	-0.0	38.1576538086	42.3260650635	1.04568660259	25.8146953583
0.0	-0.0	34.5206031799	46.802696228	3.05435299873	24.9973468781
0.0	-0.0	35.1921920776	51.8663749695	5.61685276031	24.9927959442
0.0	-0.0	37.8003807068	51.7593955994	5.68916654587	25.8594875336
0.0	-0.0	36.8793029785	49.4640769958	4.86162233353	27.3772716522
0.0	-0.0	31.9384536743	48.7406234741	4.69013166428	28.2718524933
0.0	-0.0	26.6072750092	48.7379646301	6.54963159561	28.4418582916
0.0	-0.0	21.8557109833	48.1672592163	9.10026264191	28.8162250519
0.0	-0.0	21.4004707336	46.5223579407	11.5974197388	29.9005336761
0.0	-0.0	21.3845691681	44.5392570496	12.8735275269	31.3453025818
0.0	-0.0	21.3234500885	42.6445236206	13.3907365799	32.8935928345
0.0	-0.0	21.5091323853	41.5759925842	14.2151355743	33.6566123962
0.0	-0.0	41.6617584229	41.1256408691	15.0310764313	34.2701911926
0.0	-0.0	54.847618103	41.7806015015	14.7251768112	33.7802810669
0.0	-0.0	68.4287414551	43.6769714355	13.6122846603	32.2025947571
0.0	-0.0	78.7500534058	43.9098815918	12.6280508041	32.1456985474
0.0	-0.0	90.5301055908	41.6073875427	11.005897522	33.7239494324
0.0	-0.0	115.425086975	35.3372840881	7.52025699615	41.1101036072
0.0	-0.0	123.611984253	24.9115009308	5.37243938446	52.2517242432
0.0	-0.0	123.513671875	19.1938323975	7.32110786438	59.1977348328
0.0	-0.0	121.541236877	15.2302398682	7.46597862244	65.5106430054
0.0	-0.0	117.056030273	14.9861850739	4.24413824081	66.0576553345
0.0	-0.0	134.098770142	16.2855911255	2.15077328682	65.0483932495
0.0	-0.0	118.039344788	16.6831970215	3.86793160439	65.2121353149
0.0	-0.0	86.6348724365	17.2239761353	5.35758543015	65.0672683716
0.0	-0.0	75.3347167969	17.3675823212	5.87869215012	64.7116622925
0.0	-0.0	61.2475891113	18.083820343	5.71320009232	63.8759689331
0.0	-0.0	44.8972473145	23.1292190552	5.12335968018	60.32629776
0.0	-0.0	35.9803390503	38.781288147	5.35442972183	50.7743339539
0.0	-0.0	34.7538070679	47.9414138794	6.44920444489	46.1350059509
0.0	-0.0	37.2793388367	43.8505973816	7.04991006851	47.8061828613
0.0	-0.0	34.1873664856	41.0582275391	6.27890920639	49.3330535889
0.0	-0.0	30.6157131195	42.7813148499	4.35572052002	47.8986587524
0.0	-0.0	27.1205673218	46.3714179993	3.15926599503	45.2226867676
0.0	-0.0	28.9965744019	51.1706466675	2.69916343689	41.1864585876
0.0	-0.0	32.9553565979	57.3628616333	3.89399027824	36.8450393677
0.0	-0.0	37.7284851074	61.0206489563	7.49288511276	33.0459632874
0.0	-0.0	37.4448280334	64.8502120972	14.6742086411	26.9854545593
0.0	-0.0	36.2577972412	69.3686904907	21.7446365356	17.9199314117
0.0	-0.0	35.6306228638	67.8700332642	25.8894367218	11.3221979141
0.0	-0.0	34.5486335754	66.0160751343	27.3614597321	12.2580347061
0.0	-0.0	34.9682006836	65.6638259888	28.5567302704	13.2731323242
0.0	-0.0	34.889377594	65.0218200684	29.1587562561	13.8914775848
0.0	-0.0	34.9825553894	64.4233932495	28.4063587189	14.0392942429
0.0	-0.0	46.7526435852	64.0940551758	27.707321167	14.4641666412
0.0	-0.0	47.3209075928	63.596912384	27.0173416138	15.0195865631
0.0	-0.0	49.2273368835	63.104434967	25.494594574	15.4514007568
0.0	-0.0	56.7084541321	62.1385192871	23.2771472931	15.5495262146
0.0	-0.0	70.0756530762	60.6780128479	21.7910461426	15.7571687698
0.0	-0.0	80.1439361572	59.6877250671	21.27202034	16.1432285309
0.0	-0.0	81.2979202271	58.7868118286	19.8588199615	16.2651081085
0.0	-0.0	81.1557006836	57.5138931274	17.8842544556	16.6905193329
0.0	-0.0	70.6318435669	56.1153945923	16.5991687775	17.1786193848
0.0	-0.0	59.7502746582	56.1314201355	15.7447223663	16.97514534
0.0	-0.0	60.1551933289	56.2284393311	14.3519773483	16.9414043427
0.0	-0.0	61.4364891052	55.9799079895	13.4753723145	17.0073471069
0.0	-0.0	60.4849090576	54.9685173035	12.1669740677	17.3843994141
0.0	-0.0	58.546710968	54.0294036865	10.3715858459	17.6601467133
0.0	-0.0	44.2105293274	53.3805770874	9.44491958618	17.9790344238
0.0	-0.0	31.8759975433	52.9773101807	9.95614910126	18.2817401886
0.0	-0.0	32.0380096436	52.7688713074	10.3062963486	18.5938205719
0.0	-0.0	37.5853462219	52.7444648743	10.5983848572	18.8758773804
0.0	-0.0	49.1127204895	52.1389312744	11.7626390457	19.8863773346
0.0	-0.0	63.9072875977	51.1614303589	12.5545816422	20.8418941498
0.0	-0.0	58.3559608459	49.626247406	12.4380340576	22.1052875519
0.0	-0.0	63.7008666992	47.0291557312	12.3816614151	24.0380401611
0.0	-0.0	80.1222686768	43.7073936462	12.823184967	26.2439289093
0.0	-0.0	74.6611709595	42.906917572	12.5523796082	26.6289482117
0.0	-0.0	55.2486343384	43.9687461853	12.276099205	26.2316703796
0.0	-0.0	42.7049827576	43.5920066833	12.5583305359	26.5620326996
0.0	-0.0	31.6290397644	43.0862693787	12.7740678787	27.2058200836
0.0	-0.0	16.4743499756	42.5175628662	12.9010324478	27.8063011169
0.0	-0.0	6.10384893417	41.5381584167	13.0369215012	28.5204563141
0.0	-0.0	0.834942221642	40.295249939	13.1603212357	29.5329971313
0.0	-0.0	3.66531944275	38.6555480957	13.7935628891	31.0787391663
0.0	-0.0	17.6557693481	35.1926307678	15.9784164429	34.539264679
0.0	-0.0	28.9209403992	29.5538768768	18.7119121552	38.6539382935
0.0	-0.0	47.3382453918	23.0772781372	19.6979312897	42.3478012085
0.0	-0.0	55.7129440308	18.6395301819	19.2262744904	44.3224945068
0.0	-0.0	57.4924621582	19.9635562897	18.5677127838	43.4576759338
0.0	-0.0	7.1261806488	24.052936554	18.4505672455	41.3562774658
0.0	-0.0	3.31249427795	27.0633907318	18.2585716248	39.7360801697
0.0	0.0	-0.593579590321	27.5244312286	18.3475131989	39.4197845459
0.0	0.0	-3.70548391342	27.5908489227	18.8368225098	39.5530319214
0.0	0.0	-9.00552368164	27.8017654419	18.7620735168	39.5156021118
0.0	0.0	-12.2346744537	27.6608066559	18.5572814941	39.9188919067
0.0	0.0	-13.4683046341	27.0478649139	18.742477417	40.367767334
0.0	0.0	-22.6625957489	26.7994194031	19.0897903442	40.6295204163
0.0	0.0	-28.7481803894	26.1923160553	18.9172000885	41.1342926025
0.0	0.0	-24.3820438385	25.4695415497	18.9491615295	41.6015625
0.0	0.0	-24.2516460419	24.5492630005	18.6189556122	42.0933570862
0.0	0.0	-10.3818912506	24.200668335	18.4738197327	42.1310539246
0.0	-0.0	5.2817735672	24.8228569031	19.1024112701	41.7565345764
0.0	-0.0	15.2376241684	25.5021591187	20.5114707947	41.3507614136
0.0	-0.0	26.5894088745	25.4106521606	21.5248851776	41.484539032
0.0	-0.0	25.8178501129	25.3437347412	20.9331626892	41.7699508667
0.0	-0.0	5.76302528381	24.843454361	20.6553421021	42.2639122009
0.0	0.0	-7.70423746109	23.5498752594	21.1765155792	43.2416305542
0.0	0.0	-11.6960706711	21.0075054169	21.76420784	45.288860321
0.0	0.0	-18.5310325623	16.2708396912	22.5733146667	48.5132904053
0.0	0.0	-30.2522277832	10.6929883957	24.2640838623	51.1409111023
0.0	0.0	-41.9468383789	8.68416404724	26.0747108459	52.2606735229
0.0	0.0	-47.2842292786	9.12337017059	27.6490821838	51.7871665955
0.0	0.0	-49.9390296936	8.13659572601	29.071352005	52.3344116211
0.0	0.0	-53.2828140259	5.15735435486	30.5720882416	54.2469444275
0.0	0.0	-57.5027351379	1.19707548618	31.6625671387	56.8679466248
0.0	0.0	-62.1530075073	-1.52107954025	32.5326309204	58.9781227112
0.0	0.0	-67.3828125	-2.25131392479	33.5063400269	59.7841262817
0.0	0.0	-67.1432037354	-2.66637253761	34.0906982422	60.1415786743
0.0	0.0	-63.651058197	-3.5967643261	34.3427696228	61.172203064
0.0	0.0	-61.2563438416	-6.26003646851	34.3277244568	63.1094169617
0.0	0.0	-61.8663368225	-9.11972141266	34.161491394	64.4088821411
0.0	0.0	-64.0403823853	-8.87097835541	33.8494949341	64.9146575928
0.0	0.0	-64.4674453735	-7.25950717926	32.8214874268	64.7058563232
0.0	0.0	-63.8056793213	-3.8473880291	30.5848274231	63.9278030396
0.0	0.0	-60.0829620361	-0.132853910327	28.5327358246	62.6757011414
0.0	0.0	-61.3957214355	3.06287479401	27.8529815674	61.5017623901
