0.0	-0.0	131.614242554	-71.7176971436	78.823135376	-139.448287964
0.0	-0.0	131.854766846	-70.7022018433	78.615737915	-139.546401978
0.0	-0.0	130.095275879	-71.4492492676	78.8476333618	-139.467987061
0.0	-0.0	123.913414001	-74.5510101318	81.6408004761	-139.757156372
0.0	-0.0	114.548324585	-84.2879714966	89.9187545776	-140.124389648
0.0	-0.0	108.223632812	80.0006866455	80.9214477539	41.4735641479
0.0	-0.0	102.28956604	60.2109375	72.5213165283	45.1874351501
0.0	-0.0	72.2426147461	40.6691436768	62.5126228333	51.5624923706
0.0	-0.0	35.1553840637	28.2737674713	51.0656471252	58.7565193176
0.0	0.0	-4.19519996643	19.7148151398	40.6368980408	69.260848999
0.0	0.0	-22.2894592285	10.6751756668	35.4140777588	81.7893447876
0.0	0.0	-44.633731842	-0.67789965868	37.1324043274	95.2278518677
0.0	0.0	-64.6625595093	-4.50677680969	43.7812805176	96.0581207275
0.0	0.0	-71.086769104	5.73935937881	46.4507141113	88.991355896
0.0	0.0	-64.8109359741	23.1174526215	43.2811660767	79.8304672241
0.0	0.0	-53.1054992676	41.5528488159	35.929725647	73.1859588623
0.0	0.0	-45.5928497314	56.4811401367	27.7276268005	69.1366348267
0.0	0.0	-43.5976219177	65.831993103	20.3479385376	65.9599685669
0.0	0.0	-46.2738418579	69.3589401245	17.9110679626	64.7722244263
0.0	0.0	-50.8024139404	69.2535400391	17.662229538	65.6653213501
0.0	0.0	-51.6283416748	70.8534088135	15.8633947372	64.2660293579
0.0	0.0	-60.6292572021	73.1938171387	14.388586998	61.7473678589
0.0	0.0	-64.2093582153	73.6257324219	16.7056694031	60.4147911072
0.0	0.0	-87.1172943115	71.4782104492	22.3263435364	61.3103103638
0.0	0.0	-85.9545135498	69.3040924072	27.2262001038	61.835193634
0.0	0.0	-78.1189041138	67.2741928101	28.900396347	62.7658615112
0.0	0.0	-66.9096298218	63.4466094971	27.3862190247	63.8367805481
0.0	0.0	-59.5846977234	60.918422699	25.0344009399	65.6393814087
0.0	0.0	-59.2566757202	60.168510437	23.1404323578	66.4085693359
0.0	0.0	-55.0461845398	60.1070861816	20.3196144104	66.9589614868
0.0	0.0	-57.3877754211	57.7542381287	17.8485050201	67.7134857178
0.0	0.0	-67.3842773438	55.3489341736	16.4415950775	69.0351104736
0.0	0.0	-75.8552398682	53.1430130005	16.9355697632	69.7379989624
0.0	0.0	-72.3427429199	53.2100296021	18.031879425	69.206741333
0.0	0.0	-68.6385803223	53.2359275818	19.4138088226	69.1236343384
0.0	0.0	-67.9605102539	53.303352356	20.2292804718	69.1212387085
0.0	0.0	-69.7981796265	53.6448860168	21.0326461792	68.8519363403
0.0	0.0	-64.4648895264	53.1373176575	21.4738807678	69.4343948364
0.0	0.0	-59.7251968384	52.1875953674	21.3336868286	69.8507537842
0.0	0.0	-58.2812042236	51.8422851562	20.685880661	69.8875732422
0.0	0.0	-41.1252174377	51.797744751	20.4699764252	69.8285827637
0.0	0.0	-25.7108039856	51.5291862488	21.0679855347	69.5150375366
0.0	0.0	-12.7486495972	51.9281997681	22.6686916351	69.2109832764
0.0	0.0	-14.5739002228	52.6964073181	23.5998744965	69.0458984375
0.0	0.0	-17.1475200653	53.4040222168	23.8304862976	68.3222885132
0.0	-0.0	3.35210967064	53.3133392334	23.6847648621	68.0228500366
0.0	-0.0	26.8085155487	54.6884613037	23.5015659332	67.2875213623
0.0	-0.0	20.761631012	64.986038208	21.8282299042	61.6566314697
0.0	-0.0	8.34495925903	82.3695373535	20.4597129822	49.1632156372
0.0	-0.0	10.3387498856	97.8998794556	21.4615135193	35.2704544067
0.0	-0.0	6.00559282303	98.3281936646	25.681848526	25.986410141
0.0	0.0	-3.76376056671	89.1060180664	31.3509502411	21.7373142242
0.0	0.0	-22.3419761658	81.2642288208	37.495891571	18.5040493011
0.0	0.0	-34.6182785034	77.1052703857	40.2979736328	17.3064460754
0.0	0.0	-70.646697998	74.3344421387	41.4370765686	17.2986316681
0.0	0.0	-96.5103759766	69.9582214355	42.6024551392	20.9216938019
0.0	0.0	-100.706703186	58.8216018677	43.2614593506	27.2592487335
0.0	0.0	-99.6912612915	39.4239501953	41.8249740601	37.1476402283
0.0	0.0	-101.942436218	19.7186870575	39.0435752869	48.7758903503
0.0	0.0	-107.350349426	11.5623540878	36.4029083252	56.3037071228
0.0	0.0	-108.134819031	13.7625265121	32.8595161438	59.7992172241
0.0	0.0	-109.351570129	13.3221654892	28.6572532654	62.4305610657
0.0	0.0	-108.980239868	10.844877243	21.3288726807	65.6883010864
0.0	0.0	-108.261856079	9.27944564819	10.483086586	69.262046814
0.0	0.0	-108.640548706	10.3350486755	1.98043417931	70.5454788208
0.0	0.0	-109.975257874	15.211566925	3.63356328011	68.1551971436
0.0	0.0	-111.802459717	18.4780578613	11.0658245087	65.4169235229
0.0	0.0	-116.422332764	21.6134529114	17.5015983582	62.8995475769
0.0	-0.0	-122.883300781	23.9961853027	19.1691741943	61.5247077942
0.0	-0.0	-126.526290894	25.7832069397	17.1535568237	61.3698921204
0.0	-0.0	-131.200775146	26.5821781158	13.4260149002	62.0262870789
0.0	-0.0	-131.325332642	25.6244029999	13.7100610733	62.9507141113
0.0	-0.0	-126.902984619	25.654302597	15.923666954	63.2474021912
0.0	-0.0	-146.436599731	26.3101215363	18.9293899536	63.323890686
0.0	-0.0	-169.552764893	26.7977771759	20.7344303131	62.7369041443
0.0	-0.0	176.798782349	26.7800712585	21.2931289673	62.583530426
0.0	-0.0	-174.56300354	26.1155815125	21.3910503387	62.4636917114
0.0	-0.0	-165.427322388	25.9703521729	21.3422546387	62.7192001343
0.0	-0.0	168.494644165	25.852060318	21.1593265533	62.5578994751
0.0	-0.0	118.466239929	26.5018291473	21.1409759521	63.0416603088
0.0	-0.0	135.212539673	26.9510269165	20.673374176	63.1907043457
0.0	-0.0	165.714584351	27.3531894684	20.8698158264	63.4369773865
0.0	-0.0	-151.34815979	27.7738056183	20.566904068	63.3987503052
0.0	0.0	-111.466239929	28.2552776337	21.1043567657	63.2387809753
