5.60685634613	-0.495669394732	-11.6148223877	-5.7014966011	1.75374901295	35.3400764465
5.87701320648	-0.44777777791	-11.6505584717	-5.57424497604	1.86922633648	35.3070640564
6.04196119308	-0.466740131378	-11.7362709045	-5.62359809875	1.9893103838	35.2121086121
6.32917404175	-0.433115303516	-11.8301849365	-5.53489589691	2.0294585228	35.0068778992
7.15257930756	-0.0773167610168	-12.7205753326	-5.06573915482	2.16365194321	34.7679901123
6.92980670929	-0.258306711912	-15.1697158813	-4.35732460022	2.18115139008	34.6621208191
5.6588807106	-1.39506876469	-19.7147674561	-3.71221542358	2.34327626228	34.2278060913
3.71742200851	-2.96121191978	-25.0775814056	-2.29923868179	2.14497113228	33.6855506897
1.33648252487	-5.65684843063	-29.9090099335	0.0715299621224	1.97697257996	32.539478302
-1.71855711937	-7.02290010452	-36.3016586304	3.02672433853	2.07811808586	31.4765834808
-4.73875570297	-8.28254413605	-38.9327201843	4.81988716125	2.73792695999	30.7144927979
-6.96823263168	-7.85029935837	-40.4801902771	5.38866901398	3.79696512222	29.9397583008
-7.55486297607	-6.21731376648	-40.4928741455	5.49640655518	5.56600856781	28.6848487854
-7.23435020447	-7.16625118256	-35.5558395386	5.55561637878	6.54863929749	28.0320968628
-7.76803684235	-6.67219734192	-30.5679264069	5.84586620331	7.33785247803	27.4912452698
-7.69905853271	-5.15492105484	-30.197681427	6.75409460068	8.62060928345	26.7832202911
-7.86643457413	-4.62933158875	-30.9508094788	7.4168844223	9.06708049774	26.6382312775
-8.60712623596	-3.70007061958	-32.2056083679	7.40862846375	9.19749164581	26.7261199951
-8.84658718109	-1.85440015793	-34.545337677	7.43877029419	9.43441486359	26.697309494
-8.9851360321	0.493851304054	-38.5806922913	7.74467515945	9.55275154114	26.7197723389
-9.00593471527	0.678187072277	-42.432598114	8.07617282867	9.50719547272	26.634475708
-9.00309753418	-0.488148868084	-43.659236908	8.49100208282	9.20299625397	26.5752601624
-9.13107872009	-0.684315383434	-44.2733535767	9.18189811707	8.97686481476	26.3996677399
-9.11098575592	-0.404652297497	-45.0772399902	10.2698640823	8.60206699371	26.2694816589
-9.10447978973	-0.583200275898	-44.6931343079	11.2699584961	8.38128852844	25.9452991486
-9.2275686264	-1.13032221794	-43.7836875916	11.4714660645	7.91360473633	25.160982132
-9.06376934052	-1.47436892986	-42.8867149353	11.2673873901	7.28324556351	24.0463008881
-8.89678859711	-1.21076893806	-43.0794906616	11.8653669357	7.25676965714	23.3034667969
-8.93603610992	-0.802455127239	-43.2599372864	13.0055894852	7.22043943405	22.6214504242
-8.82833480835	-1.02991759777	-43.156665802	13.9137458801	6.94119930267	21.9309005737
-8.73216342926	-0.949132621288	-42.7558555603	14.285326004	7.04303979874	21.3852405548
-8.74388694763	-0.525712072849	-41.7292366028	14.180357933	7.39808940887	21.1171588898
-8.56966972351	-0.0186342895031	-41.0990982056	13.9267673492	8.10756492615	20.8780822754
-8.30515670776	0.627707719803	-40.9990196228	14.0490207672	8.87749576569	20.6969413757
-8.38928985596	0.951927781105	-40.916683197	14.4421319962	9.71694564819	20.3915748596
-8.35266876221	0.823843061924	-41.0243301392	14.6176815033	9.88968753815	20.1152362823
-8.32580280304	0.961687028408	-40.791053772	14.6013336182	9.9376745224	19.7869739532
-8.15663433075	1.18280112743	-40.6151618958	14.5802526474	9.98701000214	19.6823730469
-8.12276554108	1.40234041214	-40.7087478638	14.4596967697	9.90980625153	19.6215229034
-8.17600059509	1.46992516518	-40.9243545532	14.1487970352	9.73382472992	19.5848522186
-8.25527191162	1.66078901291	-40.9230613708	13.8466386795	9.49362659454	19.5827693939
