0.0594744682312	1.44333529472	0.015265583992	-0.0130422115326	1.63772380352	-0.111595153809
0.0594162940979	1.44431066513	0.0152490139008	-0.0133347511292	1.63766801357	-0.110514521599
0.0591616630554	1.44486856461	0.0150282382965	-0.0132818222046	1.63755631447	-0.109144210815
0.0584919452667	1.44430196285	0.0160872936249	-0.0135734081268	1.63694930077	-0.106954455376
0.05899310112	1.4436455965	0.0176038742065	-0.0148346424103	1.63667035103	-0.10372376442
0.060417175293	1.44346225262	0.0211954116821	-0.018358707428	1.63557434082	-0.0997786521912
0.0605676174164	1.44233942032	0.0242260694504	-0.0234546661377	1.6339648962	-0.0952179431915
0.0609269142151	1.44013667107	0.0273478031158	-0.0290496349335	1.63179707527	-0.0904655456543
0.0610539913177	1.43877410889	0.0301377773285	-0.0333921909332	1.63021016121	-0.0864124298096
0.0597729682922	1.43952834606	0.0316841602325	-0.0377094745636	1.62809717655	-0.0829720497131
0.0580353736877	1.4401293993	0.0328607559204	-0.0431089401245	1.62605381012	-0.0809304714203
0.0575799942017	1.44007956982	0.0344152450562	-0.0481295585632	1.62496197224	-0.0793197154999
0.058217048645	1.44204366207	0.0350941419601	-0.0531039237976	1.62408471107	-0.0779910087585
0.0530667304993	1.44188725948	0.0351251363754	-0.0588812828064	1.62274491787	-0.077808380127
0.0505526065826	1.44242227077	0.0354957580566	-0.0640926361084	1.62221395969	-0.0779905319214
0.0491721630096	1.44232285023	0.0360805988312	-0.0663378238678	1.62173247337	-0.0782032012939
0.0483846664429	1.44283056259	0.0350546836853	-0.0676865577698	1.62086033821	-0.077574968338
0.0503721237183	1.4448004961	0.0340379476547	-0.0693938732147	1.61956596375	-0.0766303539276
