0.062801361084	1.46374857426	0.0112218856812	0.0262727737427	1.656488657	-0.16629242897
0.0623960494995	1.46377897263	0.0127320289612	0.0255651473999	1.65635955334	-0.165464639664
0.0628728866577	1.46423518658	0.0144395828247	0.02454662323	1.65679144859	-0.16462635994
0.0623300075531	1.46308326721	0.01677775383	0.0212121009827	1.65818083286	-0.163944005966
0.0630323886871	1.46158063412	0.020388007164	0.0162174701691	1.66082596779	-0.163912653923
0.0628685951233	1.45997262001	0.024493932724	0.0100240707397	1.66426384449	-0.164087057114
0.0631387233734	1.45902037621	0.0275478363037	0.00316524505615	1.66764628887	-0.165279388428
0.0650985240936	1.45808541775	0.0319184064865	-0.00467491149902	1.67067933083	-0.166739702225
0.0694425106049	1.45729911327	0.0377161502838	-0.0116086006165	1.67347812653	-0.169287919998
0.0736575126648	1.45553064346	0.04274559021	-0.0188930034637	1.67534422874	-0.172164916992
0.0778169631958	1.45230603218	0.0484758615494	-0.0286068916321	1.67545521259	-0.174437999725
0.0813095569611	1.4475030899	0.0575630664825	-0.0363712310791	1.67373251915	-0.175391435623
0.0815041065216	1.4417642355	0.0655093193054	-0.0381021499634	1.6735316515	-0.175104856491
0.0802435874939	1.43990802765	0.0647517442703	-0.0354614257812	1.67470633984	-0.174950361252
0.082671880722	1.43993401527	0.0595616102219	-0.0337233543396	1.67590999603	-0.175729751587
0.0884163379669	1.43829667568	0.0509920120239	-0.0320701599121	1.67849802971	-0.17825961113
0.0964257717133	1.43543434143	0.0532228946686	-0.0290722846985	1.68166708946	-0.181683301926
0.100274562836	1.43168246746	0.0578532218933	-0.0246784687042	1.68374609947	-0.18469452858
0.101003885269	1.42939829826	0.0624955892563	-0.0224833488464	1.68429934978	-0.186367988586
0.10091137886	1.4291459322	0.0635883808136	-0.0242550373077	1.68393564224	-0.187522649765
0.102617263794	1.43104743958	0.0622141361237	-0.0271708965302	1.68392348289	-0.18947994709
0.105006456375	1.43347024918	0.0572199821472	-0.0294389724731	1.68489027023	-0.193022012711
0.106759786606	1.43560492992	0.0506397485733	-0.0311672687531	1.68597340584	-0.197770833969
0.106523990631	1.43820393085	0.0456862449646	-0.0324068069458	1.68700182438	-0.201771974564
0.105276823044	1.43989181519	0.0445210933685	-0.03125	1.68802762032	-0.205533504486
0.104862213135	1.43976736069	0.0451134443283	-0.029123544693	1.68931627274	-0.209645986557
0.104732513428	1.43881952763	0.0450899600983	-0.0277996063232	1.69023180008	-0.213221073151
0.105111837387	1.43898439407	0.0437395572662	-0.0273780822754	1.69066798687	-0.216658830643
0.107143878937	1.43908023834	0.0429704189301	-0.0265290737152	1.69092845917	-0.220667600632
