-70.6303482056	-84.7955169678	142.264892578	23.9422531128	0.725239813328	14.0520277023
-69.6268310547	-84.8269195557	141.097640991	23.7224884033	0.474975496531	14.1104698181
-68.7261886597	-84.8636398315	140.161712646	23.5818157196	0.378582179546	14.1962795258
-68.9707489014	-84.7909545898	140.335388184	23.5481376648	0.466791331768	14.1798181534
-69.2965164185	-84.9770050049	140.574249268	23.5559692383	0.44963312149	14.1943922043
-67.38646698	-85.0000915527	138.504776001	23.3825931549	0.545079946518	14.1899719238
-62.3092346191	-85.0819320679	132.227050781	22.3350563049	0.845959961414	14.3307695389
-61.2524414062	-85.1626358032	130.656097412	20.3983039856	1.32268404961	14.4546546936
-51.2925491333	-85.2096862793	119.250526428	18.455406189	1.78980064392	14.6423768997
-50.9584350586	-85.0653381348	118.191009521	17.2860469818	2.02342939377	14.8002099991
-39.1994628906	-84.9605712891	104.659469604	17.2874183655	2.11505150795	14.9544382095
