0.0301842689514	1.15231609344	0.224743843079	0.0288710594177	1.62284934521	-0.0424149036407
0.0298216342926	1.15191316605	0.223578929901	0.0282578468323	1.62248671055	-0.0434966087341
0.0296082496643	1.15240967274	0.222671866417	0.0281341075897	1.62258827686	-0.0443968772888
0.0298163890839	1.15195775032	0.222023487091	0.028050661087	1.62264156342	-0.0453886985779
0.0292978286743	1.15247428417	0.221465468407	0.0283138751984	1.62273955345	-0.0465686321259
0.0296523571014	1.15128719807	0.221109867096	0.0297975540161	1.62286961079	-0.0476953983307
0.0323858261108	1.14827144146	0.221806764603	0.0314648151398	1.62307405472	-0.048651099205
0.0373787879944	1.1459454298	0.222906589508	0.0327634811401	1.62333512306	-0.0496517419815
0.0428521633148	1.14670395851	0.223037004471	0.034095287323	1.62328350544	-0.0506563186646
0.0444631576538	1.15211212635	0.222733855247	0.0356101989746	1.6232278347	-0.0516397953033
0.0434181690216	1.15863204002	0.22188615799	0.0365467071533	1.6234536171	-0.0527657270432
0.0406885147095	1.16373717785	0.220854282379	0.0372233390808	1.62316942215	-0.0533843040466
0.0414800643921	1.1652700901	0.220116734505	0.0381588935852	1.62277507782	-0.0541107654572
0.0444686412811	1.16053318977	0.220954418182	0.0388855934143	1.6229621172	-0.0550009012222
0.0471124649048	1.15990710258	0.221194505692	0.0406181812286	1.62296748161	-0.055379152298
0.0486114025116	1.16021513939	0.221336603165	0.0433485507965	1.62181317806	-0.0559284687042
0.0496551990509	1.15965378284	0.221554636955	0.0467009544373	1.61965930462	-0.0559775829315
0.0493922233582	1.15939199924	0.221806526184	0.0511147975922	1.61793243885	-0.0559175014496
0.048335313797	1.15997970104	0.222118616104	0.0550181865692	1.61570036411	-0.0547983646393
0.0471472740173	1.1604590416	0.222095966339	0.0576794147491	1.6132183075	-0.0525937080383
0.0450556278229	1.15878343582	0.222025513649	0.059449672699	1.6109161377	-0.0492095947266
0.0447313785553	1.15407836437	0.222698569298	0.0615785121918	1.60889720917	-0.0455980300903
0.0447628498077	1.14841532707	0.222808718681	0.0644319057465	1.6068328619	-0.042240858078
