-0.00715780258179	1.2106577158	0.236509084702	0.00535368919373	1.61441469193	-0.0714101791382
-0.00717973709106	1.21190404892	0.235198974609	0.00588941574097	1.61513018608	-0.0733954906464
-0.00778794288635	1.21345734596	0.23355448246	0.00558733940125	1.61521089077	-0.0752866268158
-0.00800609588623	1.2138273716	0.231951594353	0.00521731376648	1.61580610275	-0.0768637657166
-0.00863409042358	1.21402561665	0.230694174767	0.0018527507782	1.61796319485	-0.0790963172913
-0.0122814178467	1.21603119373	0.227148771286	-0.00729250907898	1.62105488777	-0.0831272602081
-0.0171389579773	1.21938383579	0.223075866699	-0.0180480480194	1.62293839455	-0.088310956955
-0.0224368572235	1.22539377213	0.218287944794	-0.0276639461517	1.62624442577	-0.0939288139343
-0.0272073745728	1.23600494862	0.212745547295	-0.0347716808319	1.63321244717	-0.100281476974
-0.0330109596252	1.24767243862	0.204616069794	-0.0391619205475	1.64098489285	-0.106343746185
-0.0389828681946	1.25660443306	0.19490134716	-0.0400290489197	1.64575874805	-0.111361145973
-0.0425441265106	1.26237237453	0.188181757927	-0.0373842716217	1.64917218685	-0.114816665649
-0.0429458618164	1.26613771915	0.184830904007	-0.0318298339844	1.65317201614	-0.117499470711
-0.042564868927	1.26887118816	0.181293010712	-0.0254242420197	1.65882849693	-0.120810627937
-0.0424489974976	1.26935100555	0.178670167923	-0.022070646286	1.66460728645	-0.125548243523
-0.0417294502258	1.26997816563	0.177137732506	-0.0212874412537	1.6684461832	-0.13089632988
-0.039119720459	1.27342414856	0.1778216362	-0.0203223228455	1.66982710361	-0.134964227676
-0.0373377799988	1.27786338329	0.178740739822	-0.0188126564026	1.66994202137	-0.136049985886
-0.034161567688	1.28411459923	0.180520534515	-0.0166006088257	1.66967916489	-0.135630846024
-0.0312676429749	1.28886306286	0.181928634644	-0.014328956604	1.6697922945	-0.135064840317
-0.0270745754242	1.29431927204	0.183275222778	-0.012176990509	1.67055976391	-0.133908867836
-0.0230178833008	1.29920566082	0.183791160583	-0.00913453102112	1.6726359129	-0.133598208427
-0.0193605422974	1.30375528336	0.184929132462	-0.00694632530212	1.67530989647	-0.134447693825
-0.0166156291962	1.30697739124	0.185400605202	-0.0056836605072	1.67811882496	-0.135959863663
-0.0158703327179	1.31216919422	0.183640837669	-0.00494861602783	1.68011677265	-0.137509346008
-0.0170423984528	1.31750535965	0.180319428444	-0.00593090057373	1.68121659756	-0.13897395134
-0.0190522670746	1.3223669529	0.176988601685	-0.00745582580566	1.68211185932	-0.140388727188
-0.0211892127991	1.32401967049	0.176481366158	-0.00892472267151	1.68331861496	-0.141878604889
-0.0222709178925	1.32357406616	0.177946925163	-0.0109643936157	1.68399906158	-0.142712593079
-0.0244479179382	1.32190203667	0.178674817085	-0.0126464366913	1.683126688	-0.142160534859
-0.0266275405884	1.32427060604	0.175642251968	-0.0136206150055	1.68225049973	-0.140826702118
-0.0293526649475	1.32642805576	0.171979904175	-0.0137810707092	1.68162298203	-0.1395008564
-0.0318379402161	1.32698428631	0.169047832489	-0.0138676166534	1.6812889576	-0.138139724731
-0.0347158908844	1.32539725304	0.166952848434	-0.0139350891113	1.67833733559	-0.134868621826
-0.0360522270203	1.32506680489	0.166605472565	-0.0154626369476	1.6735252142	-0.130479335785
-0.0368404388428	1.32577037811	0.166096806526	-0.018372297287	1.66963100433	-0.126808404922
-0.0381247997284	1.32557094097	0.165244221687	-0.0234279632568	1.66262733936	-0.124176263809
-0.0394945144653	1.32494747639	0.16320681572	-0.0304100513458	1.65715515614	-0.12101817131
-0.0421144962311	1.32372331619	0.160398721695	-0.0360376834869	1.65443861485	-0.118178725243
-0.0431699752808	1.32158410549	0.161075949669	-0.0373713970184	1.65599000454	-0.114567279816
-0.04225730896	1.31957638264	0.163443088531	-0.0369529724121	1.65987312794	-0.111647367477
-0.0409922599792	1.31890630722	0.165393352509	-0.0357189178467	1.66260910034	-0.10856294632
-0.0393643379211	1.31905019283	0.167595624924	-0.034059047699	1.66223597527	-0.104871749878
-0.0374429225922	1.31974160671	0.169266581535	-0.0329253673553	1.66094601154	-0.102024078369
-0.0361759662628	1.32052564621	0.172377705574	-0.0319128036499	1.66009891033	-0.0999788045883
-0.035160779953	1.32157659531	0.174748897552	-0.0318813323975	1.65993416309	-0.0990040302277
-0.035076379776	1.3219717741	0.176117897034	-0.0328412055969	1.65991532803	-0.0980885028839
-0.03431391716	1.32174897194	0.176970720291	-0.0353760719299	1.65972018242	-0.0973353385925
-0.0341217517853	1.31998085976	0.177365064621	-0.0412766933441	1.6577423811	-0.0970389842987
-0.033891916275	1.31747472286	0.178154587746	-0.0487868785858	1.65444028378	-0.0967631340027
-0.0354359149933	1.31490051746	0.17980992794	-0.0525116920471	1.65195286274	-0.0957444906235
-0.0355739593506	1.31279802322	0.182052016258	-0.0540397167206	1.65074288845	-0.0947275161743
-0.0344371795654	1.31018424034	0.184215426445	-0.0541837215424	1.65004050732	-0.0931987762451
-0.0310244560242	1.30778348446	0.187103271484	-0.0532567501068	1.6490997076	-0.0906763076782
-0.0271897315979	1.30508947372	0.189959049225	-0.0525987148285	1.648011446	-0.0881413221359
-0.0221784114838	1.30464363098	0.19357085228	-0.0513627529144	1.64777910709	-0.0861711502075
-0.0193054676056	1.30660355091	0.195334196091	-0.049809217453	1.64811432362	-0.0848942995071
-0.0186622142792	1.31292402744	0.192364096642	-0.0482590198517	1.64843201637	-0.083654999733
-0.018084526062	1.32094871998	0.186925411224	-0.04731798172	1.64823675156	-0.0830223560333
-0.0169670581818	1.32723033428	0.182997941971	-0.0465679168701	1.64802980423	-0.0826146602631
-0.0225145816803	1.31786239147	0.18805038929	-0.0451784133911	1.64791190624	-0.0821453332901
-0.029021024704	1.29599905014	0.197113275528	-0.0438821315765	1.64806890488	-0.0821882486343
-0.0312757492065	1.28649520874	0.19807767868	-0.0434968471527	1.64827680588	-0.0823986530304
-0.0305986404419	1.28807723522	0.196728467941	-0.0430490970612	1.64859032631	-0.0830235481262
-0.0295312404633	1.29132664204	0.197309494019	-0.0414915084839	1.64876163006	-0.0829893350601
-0.0280032157898	1.29283368587	0.197293281555	-0.0387270450592	1.64852237701	-0.0825686454773
-0.0267007350922	1.29322123528	0.196696043015	-0.0353951454163	1.64883577824	-0.0816266536713
-0.0253248214722	1.29282283783	0.19665312767	-0.0310499668121	1.65020751953	-0.0809187889099
-0.0252227783203	1.29204261303	0.196738123894	-0.0240662097931	1.65268671513	-0.0799943208694
-0.0250744819641	1.29278337955	0.196640729904	-0.0159990787506	1.65506184101	-0.0790269374847
-0.0242872238159	1.29463911057	0.195785999298	-0.00889348983765	1.65706133842	-0.079318523407
-0.021897315979	1.29669868946	0.196683526039	-0.00252056121826	1.65936005116	-0.0806665420532
-0.0193650722504	1.2980850935	0.197463393211	0.00369644165039	1.66128635406	-0.0822582244873
-0.0177352428436	1.29985809326	0.196638822556	0.0104415416718	1.66229176521	-0.0832834243774
