0.0	-0.0	143.340118408	4.48059940338	88.0153121948	-76.2877426147
0.0	-0.0	143.11907959	4.54181718826	87.9626998901	-76.4738082886
0.0	-0.0	143.272964478	4.4343585968	87.6061248779	-76.5031661987
0.0	-0.0	143.308074951	4.34838342667	87.781829834	-76.1125946045
0.0	-0.0	140.795578003	3.94964647293	87.6012954712	-75.8939743042
0.0	-0.0	136.140182495	3.22680950165	87.5932922363	-75.9064559937
0.0	-0.0	130.467773438	2.7935025692	86.9773406982	-73.8878479004
0.0	-0.0	122.355247498	2.30721998215	84.4549407959	-65.9766998291
0.0	-0.0	114.729064941	2.03392982483	82.9505004883	-62.2965736389
0.0	-0.0	108.399581909	1.59122431278	82.6757736206	-57.9052200317
0.0	-0.0	103.289489746	1.02618694305	82.6393203735	-55.073928833
0.0	-0.0	99.3005218506	1.31385338306	83.3928451538	-52.5417442322
0.0	-0.0	96.0222549438	1.63374960423	83.9005813599	-50.0656166077
0.0	-0.0	94.1443099976	2.13988876343	85.0067520142	-47.1041679382
0.0	-0.0	92.5724563599	2.44681692123	86.2223815918	-45.7663078308
0.0	-0.0	91.1157073975	2.45036149025	86.9736251831	-44.5842819214
0.0	-0.0	90.0873413086	2.55200099945	86.710647583	-43.0431022644
0.0	-0.0	89.0936050415	2.79898834229	86.6310577393	-40.6447410583
0.0	-0.0	88.0781478882	4.03256368637	87.3124465942	-38.7699890137
0.0	-0.0	86.7366867065	5.26853179932	87.2389602661	-35.9752922058
0.0	-0.0	86.0493011475	5.16319322586	86.9407730103	-35.8248062134
0.0	-0.0	85.5133209229	5.04654359818	86.5791854858	-35.0562019348
0.0	-0.0	84.4038085938	5.54207181931	85.3288269043	-33.1365509033
0.0	-0.0	83.2089767456	5.17019748688	84.1558532715	-32.3117866516
0.0	-0.0	82.6674118042	4.22964334488	83.5422821045	-32.4263916016
0.0	-0.0	82.2042312622	3.66356539726	83.0260314941	-32.8969268799
0.0	-0.0	82.8764038086	2.94136428833	81.9817504883	-31.3943042755
0.0	-0.0	84.6052017212	2.6279540062	81.3362045288	-30.2237129211
0.0	-0.0	85.4790267944	3.69566583633	81.3754882812	-29.9364814758
0.0	-0.0	86.4399719238	4.41045665741	83.9558029175	-38.8665084839
0.0	-0.0	86.8016433716	4.94689226151	89.7011871338	-47.2326126099
0.0	-0.0	86.7365951538	-175.711685181	89.1048660278	131.505126953
0.0	-0.0	86.3710174561	-176.097213745	89.2431259155	131.64390564
0.0	-0.0	86.4177093506	-177.128036499	89.2886810303	131.836837769
0.0	-0.0	85.9968261719	-177.702209473	88.5654678345	130.730407715
0.0	-0.0	85.8286743164	-178.299377441	88.440574646	130.950439453
0.0	-0.0	85.1711273193	-179.06048584	88.5198287964	131.579650879
0.0	-0.0	85.212348938	-179.435272217	88.4534912109	132.832199097
0.0	-0.0	85.4965515137	-179.545501709	88.342590332	135.587997437
0.0	-0.0	86.0141372681	179.883560181	88.7786483765	137.063491821
0.0	-0.0	85.9539108276	179.581008911	88.2921905518	137.100967407
0.0	-0.0	85.4833145142	179.453826904	87.5004806519	137.282302856
0.0	-0.0	84.856880188	179.393875122	87.3747711182	137.90171814
0.0	-0.0	84.7051849365	179.562820435	87.4176025391	138.906112671
0.0	-0.0	84.4638519287	179.578552246	87.2121276855	139.442947388
0.0	-0.0	84.1476821899	179.522781372	87.2217788696	139.793487549
0.0	-0.0	84.0805130005	178.991027832	87.054901123	139.608383179
0.0	-0.0	83.7880783081	179.035614014	87.2660064697	139.363372803
0.0	-0.0	83.140838623	178.977661133	87.5019760132	139.211669922
0.0	-0.0	82.0184860229	178.915466309	87.4511947632	139.202178955
0.0	-0.0	84.3689346313	178.868377686	87.3251571655	139.021835327
0.0	-0.0	90.7147369385	179.125762939	87.5015640259	138.828460693
0.0	-0.0	96.0492477417	179.347625732	87.2278060913	139.43031311
0.0	-0.0	99.7429428101	179.405273438	87.2010192871	139.65927124
0.0	-0.0	98.3345565796	179.554901123	87.3105926514	139.786270142
0.0	-0.0	90.8227081299	179.697982788	87.3785171509	139.469314575
