-73.1326980591	-84.260017395	141.572662354	24.2889442444	-2.38458752632	17.6810646057
-72.4859542847	-84.3931732178	140.737167358	24.2058162689	-2.38170361519	17.5674152374
-70.1125717163	-84.3949127197	137.642562866	23.8773918152	-2.24818205833	17.5474300385
-51.9973869324	-84.5974502563	116.437461853	22.195230484	-1.51456701756	17.5485858917
-12.5312271118	-83.5832901001	69.5222473145	18.2740821838	0.318970292807	17.3839740753
11.1827907562	-78.8663864136	32.4100189209	12.4441614151	3.07485342026	16.7161045074
17.4064025879	-71.4442672729	9.17969989777	5.71643590927	5.77035617828	15.4082422256
12.9462203979	-65.0709075928	-3.66615319252	0.982423305511	7.03888511658	14.5708026886
2.6852722168	-57.5745048523	-18.36469841	-1.03525781631	7.62655735016	14.3232593536
-3.7344596386	-54.4781990051	-34.9272651672	-0.783032655716	8.00609302521	14.167755127
-8.35550785065	-51.7031173706	-56.9380340576	2.27541327477	8.30093002319	14.274140358
-5.99277162552	-48.654876709	-73.0785446167	6.66534566879	8.56812667847	14.1080827713
-2.40114164352	-46.2697906494	-80.331993103	9.59903049469	8.92748260498	13.4919605255
0.314451426268	-44.0585365295	-84.6082458496	10.098236084	9.07190513611	13.2645835876
1.73721039295	-44.1835823059	-86.8576812744	9.35571479797	8.92206954956	13.5291690826
1.37442958355	-44.7553901672	-86.1060180664	8.68561077118	8.70959663391	13.8252153397
0.818215548992	-45.5199203491	-84.9953918457	8.19348049164	8.70872402191	13.9893579483
