0.130780220032	1.442445755	0.0140979290009	0.00518298149109	1.62597060204	-0.0835239887238
0.129708528519	1.4427331686	0.0127300024033	0.00521230697632	1.62566590309	-0.0836989879608
0.12961101532	1.44306516647	0.011998295784	0.00480699539185	1.62555861473	-0.0839138031006
0.129010677338	1.4429795742	0.0117905139923	0.00411176681519	1.62656533718	-0.0839920043945
0.128344774246	1.44236469269	0.0127928256989	0.00218224525452	1.62883806229	-0.084240436554
0.12810254097	1.44226753712	0.0139646530151	-0.00186109542847	1.63078665733	-0.0841205120087
0.128002166748	1.44152569771	0.0148620605469	-0.00652837753296	1.63389515877	-0.0841267108917
0.12778711319	1.44124543667	0.0170834064484	-0.0109615325928	1.63884878159	-0.085046172142
0.127146720886	1.44118893147	0.0188596248627	-0.0159335136414	1.64445710182	-0.086923122406
0.126651763916	1.44156205654	0.0198681354523	-0.0218231678009	1.64985871315	-0.089937210083
0.12607216835	1.44235754013	0.0203197002411	-0.028900384903	1.6559766531	-0.0943459272385
0.127190828323	1.44385993481	0.0208785533905	-0.0346097946167	1.66160154343	-0.0998100042343
0.127391815186	1.44516372681	0.0212286710739	-0.0388102531433	1.66622316837	-0.105743050575
0.127046346664	1.44626235962	0.0208302736282	-0.0417425632477	1.67067706585	-0.111768960953
0.128331422806	1.44732892513	0.0221216678619	-0.0433692932129	1.67404222488	-0.118111848831
0.129111289978	1.44900333881	0.0221030712128	-0.0434308052063	1.67503356934	-0.122686386108
0.130464076996	1.45055878162	0.0221343040466	-0.0414824485779	1.67472088337	-0.125032901764
0.131927013397	1.45174562931	0.0221719741821	-0.0390634536743	1.67444980145	-0.126504898071
0.133762836456	1.45114326477	0.0237199068069	-0.0380628108978	1.67438936234	-0.128252744675
0.135346651077	1.45042431355	0.025120139122	-0.03853058815	1.67465186119	-0.12969827652
0.137888908386	1.44975376129	0.0267260074615	-0.0397238731384	1.67457926273	-0.131211876869
0.140768051147	1.44999194145	0.028081536293	-0.0413153171539	1.67445492744	-0.13301217556
0.145402908325	1.4507342577	0.029675245285	-0.0432019233704	1.67421114445	-0.135460495949
0.151099205017	1.45033550262	0.0350632667542	-0.0454206466675	1.67387914658	-0.137641906738
0.156214237213	1.44916439056	0.0394545793533	-0.0470345020294	1.67353057861	-0.139621734619
0.160410642624	1.44873046875	0.0415050983429	-0.0477917194366	1.67295348644	-0.140827417374
0.163333892822	1.44839763641	0.0426816940308	-0.0482773780823	1.67259001732	-0.141663193703
0.164900779724	1.44753026962	0.0443997383118	-0.0488333702087	1.67182314396	-0.142417430878
0.167750120163	1.44589412212	0.0462814569473	-0.0494012832642	1.67124974728	-0.143533825874
0.169491052628	1.4447748661	0.0471163988113	-0.050546169281	1.67085874081	-0.144978165627
