-43.7160415649	-67.4537658691	136.821289062	23.6232948303	0.0282868724316	15.4614248276
-43.7178955078	-67.6697845459	136.234832764	23.5188274384	0.0122468583286	15.528544426
-44.1254386902	-67.7927856445	136.441116333	23.4020786285	0.0298955701292	15.5470275879
-43.7090187073	-67.7714996338	135.439102173	23.1777839661	0.113991513848	15.5214204788
-44.4891815186	-67.9539260864	135.973022461	22.9585514069	0.105239525437	15.4939413071
-42.0441322327	-68.1365890503	129.666061401	23.200799942	0.0689601898193	15.3612861633
-39.8194541931	-68.5623855591	123.961677551	23.948015213	-0.101628512144	15.1682090759
-34.343006134	-69.0289764404	110.247039795	25.4796009064	-0.515679478645	14.6150064468
-27.1361274719	-68.7699508667	92.4519424438	27.7528877258	-1.01609480381	13.7852640152
-23.2535610199	-68.5570907593	82.2916946411	29.4852142334	-1.16505682468	12.8979568481
