-58.1046867371	-3.54825091362	3.18198132515	7.04675531387	1.79413843155	-34.1567382812
-58.0519943237	-3.61129212379	3.26132774353	6.81016492844	1.97672367096	-33.9938812256
-57.7534790039	-3.90462136269	3.32406783104	6.71570062637	1.67617976665	-33.4972267151
-57.0045623779	-3.75146079063	4.26539134979	6.64058113098	0.281452029943	-32.1238327026
-56.7112884521	-3.93997764587	4.27645492554	6.33263397217	-1.36943614483	-30.912399292
-56.5521392822	-3.87839865685	4.47474575043	6.01830482483	-1.2906075716	-30.5784835815
-55.3949966431	-3.05994129181	3.85610246658	6.11389112473	0.040640424937	-30.2736034393
-54.1606941223	-1.7303006649	1.16044104099	6.27642059326	1.28378427029	-29.7482051849
-54.3340911865	-0.386591017246	1.94640219212	6.04756116867	1.77878761292	-29.1357192993
-54.5140228271	0.316516548395	0.917607545853	5.49659204483	1.405777812	-28.0516490936
-54.2631988525	0.969177305698	1.83552849293	5.01686096191	1.12154722214	-27.3277664185
-53.1323699951	1.4712625742	2.37413716316	4.39000797272	-0.403852581978	-25.6652011871
-51.4928970337	3.30984640121	2.67056918144	3.84659552574	-2.40305757523	-22.8587150574
-50.575378418	4.72385072708	3.62783527374	3.17570233345	-4.63333272934	-20.1263122559
-48.4521827698	4.49689340591	4.74266576767	2.29770612717	-6.1999001503	-18.1225376129
-44.6919059753	2.49195599556	5.53692770004	1.76360583305	-6.93270492554	-16.4888896942
-39.8056793213	-0.36329883337	4.65292978287	1.79977977276	-7.37804555893	-14.918466568
-37.163192749	-1.52247822285	4.43937397003	2.06947374344	-7.36110210419	-14.100812912
-36.9696922302	-0.857977330685	3.74797177315	2.40685129166	-7.60092735291	-13.8416662216
-36.4782218933	0.210582122207	3.581346035	2.73199033737	-7.97554206848	-13.9144058228
