0.0	-0.0	138.978973389	-108.838432312	78.7187271118	-169.823730469
0.0	-0.0	138.708404541	-108.754829407	78.7925567627	-170.006698608
0.0	-0.0	138.484542847	-109.126274109	79.0540237427	-170.075286865
0.0	-0.0	135.604553223	-109.493965149	79.1797409058	-169.818969727
0.0	-0.0	128.69593811	-111.124168396	79.419708252	-168.205535889
0.0	-0.0	124.754493713	-116.835014343	79.1443786621	-168.886795044
0.0	-0.0	123.9868927	-121.553253174	78.9686889648	-169.524124146
0.0	-0.0	122.533691406	-126.079277039	79.1180496216	-169.705841064
0.0	-0.0	120.294464111	-131.30267334	79.4685440063	-169.689407349
0.0	-0.0	118.920448303	-135.879241943	79.840675354	-170.580810547
0.0	-0.0	115.019416809	-140.249252319	79.5924530029	-169.560745239
0.0	-0.0	108.78755188	-143.529296875	79.3654556274	-168.990188599
0.0	-0.0	105.894622803	-146.928543091	78.9074554443	-168.765945435
0.0	-0.0	103.427909851	-150.72354126	78.5682830811	-168.534118652
0.0	-0.0	100.17817688	-155.342315674	78.4104919434	-168.054656982
0.0	-0.0	97.9738464355	-159.194549561	79.1383666992	-167.933853149
0.0	-0.0	96.6094436646	-163.082763672	80.6390914917	-168.012924194
0.0	-0.0	95.5622329712	-166.898376465	82.5065689087	-168.327438354
0.0	-0.0	94.5395889282	-169.540679932	83.456741333	-168.702438354
0.0	-0.0	94.4593429565	-171.52432251	82.5563430786	-168.109558105
0.0	-0.0	95.3414840698	-173.266693115	81.3749694824	-167.58480835
0.0	-0.0	96.0484085083	-174.812057495	80.9220275879	-167.540634155
0.0	-0.0	96.7124938965	-176.279663086	81.3051452637	-167.647842407
0.0	-0.0	100.050537109	-177.824005127	82.024269104	-168.366958618
0.0	-0.0	100.650253296	-178.545455933	82.2637939453	-168.517349243
0.0	-0.0	99.8740615845	-179.804779053	81.9264221191	-168.469024658
0.0	-0.0	100.339782715	178.466445923	81.2526397705	-169.043991089
0.0	-0.0	100.287345886	176.938415527	80.9797744751	-170.438156128
0.0	-0.0	98.9089355469	175.803543091	80.2182006836	-172.485336304
0.0	-0.0	99.3202819824	172.063720703	81.6213226318	-170.376342773
0.0	-0.0	99.8899383545	167.813812256	83.2904205322	-169.606048584
0.0	-0.0	100.606582642	164.331710815	84.4697723389	-169.673843384
0.0	-0.0	100.385826111	162.767211914	84.6427154541	-169.34803772
0.0	-0.0	99.4456939697	164.433319092	84.0316925049	-168.119842529
0.0	-0.0	98.5285415649	165.542877197	83.408531189	-168.511428833
0.0	-0.0	100.998985291	165.422225952	81.6101303101	-169.103591919
0.0	-0.0	105.912147522	164.858886719	79.1296539307	-170.231033325
0.0	-0.0	101.621551514	165.545043945	76.2895965576	-169.390441895
0.0	-0.0	97.17628479	166.693283081	75.4330062866	-169.615783691
0.0	-0.0	93.5472335815	167.066619873	75.3301696777	-169.930755615
0.0	-0.0	88.9084396362	166.81388855	74.8722610474	-169.888092041
0.0	-0.0	82.2541275024	166.692474365	74.1433105469	-169.966629028
0.0	-0.0	75.9450531006	166.495834351	73.5165481567	-170.905303955
0.0	-0.0	68.1950302124	165.746627808	72.7111053467	-170.750900269
0.0	-0.0	60.2482719421	164.381332397	73.747253418	-170.160293579
0.0	-0.0	53.7767715454	162.174972534	76.9189910889	-169.885513306
0.0	-0.0	50.023147583	160.524353027	79.4681625366	-169.860122681
0.0	-0.0	54.1267776489	160.174560547	80.0210037231	-171.090927124
0.0	-0.0	59.82787323	160.217880249	78.6962890625	-171.513168335
0.0	-0.0	61.3487739563	160.149963379	77.9669189453	-171.258773804
0.0	-0.0	61.2259178162	160.026657104	79.0235443115	-170.828018188
0.0	-0.0	61.9493598938	160.245819092	81.394241333	-169.992965698
0.0	-0.0	63.1500663757	160.543136597	82.3024902344	-168.867858887
