-0.00708055496216	0.982150554657	-0.104335069656	-0.222745895386	1.29624581337	-0.237439513206
-0.00732803344727	0.983694314957	-0.104090690613	-0.222953081131	1.2970032692	-0.239074587822
-0.00797271728516	0.983632802963	-0.103615045547	-0.223446369171	1.29774188995	-0.240146160126
-0.00562477111816	0.984434366226	-0.104694843292	-0.223345279694	1.29793655872	-0.241646051407
0.0130887031555	0.988279104233	-0.109135270119	-0.22004365921	1.29774844646	-0.24417412281
0.0250813961029	0.991839885712	-0.116947412491	-0.215663909912	1.29719030857	-0.246620893478
0.0271120071411	0.993680477142	-0.124179601669	-0.211471557617	1.2963347435	-0.249012231827
0.0286662578583	0.993136167526	-0.128664970398	-0.207924365997	1.29569339752	-0.251058220863
0.0295009613037	0.995248317719	-0.134526729584	-0.205223560333	1.29549098015	-0.253623485565
0.022029876709	1.00264263153	-0.142221689224	-0.203763961792	1.29552066326	-0.255371212959
0.0246367454529	1.00993585587	-0.152427434921	-0.203460216522	1.29542827606	-0.256467580795
0.0359742641449	1.01298332214	-0.159936904907	-0.203151226044	1.29522109032	-0.257066011429
0.0471513271332	1.01503062248	-0.166402220726	-0.202823638916	1.29495322704	-0.257153868675
0.0482752323151	1.01874279976	-0.167384147644	-0.202189445496	1.29524600506	-0.256789207458
0.0443665981293	1.02272820473	-0.167700529099	-0.202009916306	1.2953556776	-0.256544828415
0.0419769287109	1.02726960182	-0.169265627861	-0.202265739441	1.2961589098	-0.256547093391
0.0438437461853	1.03188252449	-0.170161008835	-0.202821731567	1.29759597778	-0.25690305233
0.0460877418518	1.03517985344	-0.169589042664	-0.203377962112	1.29901337624	-0.257681250572
0.0510385036469	1.03641295433	-0.165727853775	-0.203880310059	1.3008004427	-0.258669018745
0.0562615394592	1.03446507454	-0.159961462021	-0.20406293869	1.30203950405	-0.259044528008
0.0676083564758	1.02841544151	-0.151588201523	-0.203931808472	1.30206263065	-0.258866667747
0.0773642063141	1.0191962719	-0.137557983398	-0.203344106674	1.3011149168	-0.258123993874
0.0815217494965	1.00982356071	-0.125791549683	-0.203252792358	1.30046391487	-0.256856679916
0.0780687332153	1.00756311417	-0.118987560272	-0.203814506531	1.30059850216	-0.255021095276
0.0767180919647	1.0050406456	-0.10893702507	-0.20450091362	1.30150330067	-0.253409028053
0.0796930789948	1.00164604187	-0.0977139472961	-0.205655813217	1.30261898041	-0.251771450043
0.0793030261993	1.00018763542	-0.0879019498825	-0.207024812698	1.30326032639	-0.249832987785
