0.0	-0.0	-142.549606323	146.437667847	87.1822509766	-136.853393555
0.0	-0.0	-142.818908691	146.833206177	86.9376907349	-137.111404419
0.0	-0.0	-141.141571045	147.160522461	87.1231613159	-137.358001709
0.0	-0.0	-135.159942627	149.464019775	87.6965713501	-135.781234741
0.0	-0.0	-132.830657959	157.022720337	87.2806777954	-139.89944458
0.0	-0.0	-130.905883789	160.918075562	89.2368774414	-142.696273804
0.0	-0.0	-128.062713623	163.594207764	87.8887481689	-144.763427734
0.0	-0.0	-126.292694092	167.870513916	82.7584838867	-147.188034058
0.0	-0.0	-124.85521698	172.326766968	76.2421951294	-155.309829712
0.0	-0.0	-123.413528442	176.225128174	71.6699752808	-157.163299561
0.0	-0.0	-120.483856201	176.396621704	68.6897659302	-162.064163208
0.0	0.0	-117.192550659	176.707122803	65.8974761963	-165.365615845
0.0	0.0	-113.016403198	177.338485718	61.1377639771	-172.076385498
0.0	0.0	-108.789207458	178.743606567	54.5358314514	-179.43145752
0.0	0.0	-104.559814453	179.572769165	49.4327354431	175.741958618
0.0	0.0	-100.097709656	179.229232788	48.176776886	175.478103638
0.0	0.0	-98.1289825439	178.34286499	48.0213241577	175.690628052
0.0	0.0	-99.8988647461	177.281692505	48.2155227661	178.172302246
0.0	0.0	-105.476043701	175.452514648	48.4883384705	-177.462844849
0.0	0.0	-100.234909058	173.591751099	50.184589386	-178.532546997
0.0	0.0	-93.8574523926	173.406829834	50.1057319641	-178.7447052
0.0	0.0	-91.5272903442	173.548919678	49.021697998	-179.371002197
0.0	0.0	-91.1262893677	177.580566406	46.8522796631	172.9793396
0.0	0.0	-90.5111618042	-177.20501709	40.8368492126	162.448989868
0.0	0.0	-89.7341156006	-177.475372314	33.2463264465	152.965698242
0.0	0.0	-88.1909179688	-179.036331177	26.5355396271	153.611495972
0.0	0.0	-86.9692230225	178.497390747	18.2486629486	148.028930664
0.0	0.0	-85.878288269	175.645141602	11.488114357	145.44418335
0.0	0.0	-84.1393508911	172.188537598	11.2278966904	138.746154785
0.0	0.0	-80.0854034424	173.43548584	13.6398563385	155.267990112
0.0	0.0	-79.0691452026	174.456115723	15.8115549088	158.545089722
0.0	0.0	-76.5645904541	173.768875122	18.255273819	159.589538574
0.0	0.0	-68.5980148315	174.604263306	19.5282974243	161.991744995
0.0	0.0	-59.8500099182	172.606018066	19.3731021881	161.220840454
0.0	0.0	-51.8409996033	171.005401611	19.9307327271	162.363540649
0.0	0.0	-42.7391395569	172.462051392	20.2496891022	163.656951904
0.0	0.0	-37.6433753967	173.226547241	20.9480895996	164.411071777
0.0	0.0	-33.5171966553	173.391738892	21.0913314819	165.171920776
0.0	0.0	-31.9658107758	174.29838562	20.5674152374	166.563751221
0.0	0.0	-31.9128093719	174.12020874	20.3156700134	167.501998901
0.0	0.0	-31.0218238831	172.490234375	21.5393657684	167.547012329
0.0	0.0	-30.2540130615	169.816436768	23.1837749481	166.594039917
0.0	0.0	-28.9154453278	169.747650146	23.3062000275	167.721313477
0.0	0.0	-28.0123729706	169.697402954	22.7096252441	169.249786377
0.0	0.0	-26.8236045837	169.752822876	21.6674976349	171.550628662
0.0	0.0	-25.7665119171	178.705322266	23.9476222992	161.355667114
0.0	0.0	-25.4702606201	-165.058029175	53.7734642029	-170.936141968
0.0	0.0	-24.2474880219	-166.474182129	61.9497756958	-172.016052246
0.0	0.0	-22.0504722595	-170.981018066	62.4381408691	-172.967132568
0.0	0.0	-19.8074512482	-174.375015259	60.0919151306	-174.886138916
0.0	0.0	-17.9503173828	-175.911605835	59.9062461853	-174.189697266
0.0	0.0	-15.6263570786	-170.89213562	55.2018852234	-174.883102417
0.0	0.0	-16.368019104	-165.136886597	50.4683876038	-177.243682861
0.0	0.0	-19.9053459167	-166.328811646	51.4094772339	-175.023300171
0.0	0.0	-29.2985420227	-169.577377319	51.0561218262	-173.476470947
0.0	0.0	-50.9471359253	-173.247833252	49.6479301453	-169.722091675
0.0	0.0	-75.1070709229	-174.593231201	47.2136497498	-167.927642822
0.0	0.0	-83.2280197144	-175.112136841	46.4074516296	-167.429977417
0.0	0.0	-83.022567749	-176.551254272	47.2569389343	-170.111846924
0.0	0.0	-88.6734390259	-176.395233154	47.5176887512	-171.735275269
0.0	0.0	-96.1493835449	-173.536956787	46.8791618347	-173.427886963
0.0	0.0	-98.8099136353	-172.39616394	45.8663253784	-177.243515015
0.0	0.0	-96.7911911011	-173.699279785	42.551322937	175.576293945
0.0	0.0	-93.3562545776	-175.015182495	40.9684677124	170.322311401
0.0	0.0	-93.4345550537	-174.135345459	39.8777389526	167.770965576
0.0	0.0	-94.4644622803	-172.609329224	40.0019836426	167.300857544
0.0	0.0	-94.5682144165	-171.19090271	41.2121658325	166.834793091
0.0	0.0	-95.4884490967	-172.43711853	40.7306137085	165.792160034
0.0	0.0	-95.4991149902	-174.058425903	38.389251709	165.301345825
0.0	0.0	-94.7931289673	-173.658996582	32.9137496948	160.269561768
0.0	0.0	-94.164932251	-174.064163208	31.4636173248	157.568664551
0.0	0.0	-93.1402893066	-173.519699097	31.1102104187	157.835083008
0.0	0.0	-93.2825622559	-173.625259399	32.3043746948	159.352661133
0.0	0.0	-97.6215667725	-175.234558105	33.4252204895	159.414535522
0.0	0.0	-113.652412415	-175.854019165	33.4199752808	160.22555542
0.0	-0.0	-127.355323792	-175.942733765	33.8742599487	160.620635986
0.0	0.0	-117.960136414	-177.388000488	34.534286499	159.913406372
0.0	0.0	-96.1369628906	179.409820557	35.9720458984	159.616241455
0.0	0.0	-71.2653045654	179.038879395	38.100730896	160.874542236
0.0	0.0	-45.3101654053	-179.256668091	40.1924667358	162.843063354
0.0	0.0	-30.2798271179	-178.246871948	41.3385505676	163.756378174
0.0	0.0	-26.0234470367	-177.192245483	40.4026298523	164.406326294
0.0	0.0	-27.9777851105	-176.216567993	38.155040741	164.828323364
0.0	0.0	-39.9967536926	-177.6771698	36.8550415039	163.300628662
0.0	0.0	-62.1103134155	-179.200119019	36.3070297241	163.611404419
0.0	0.0	-88.4267196655	-179.129653931	34.6997451782	164.132171631
0.0	0.0	-108.176528931	-177.232376099	30.31208992	164.475921631
0.0	0.0	-113.571311951	-177.665466309	30.5588798523	161.164779663
0.0	0.0	-113.253295898	-178.525650024	32.501449585	158.910568237
0.0	0.0	-112.821922302	-173.924530029	32.6937255859	155.038101196
0.0	0.0	-112.095252991	-164.95930481	32.7752304077	155.901168823
0.0	0.0	-110.970748901	-161.974258423	31.3613834381	153.72265625
0.0	0.0	-110.710998535	-158.040283203	29.251209259	153.509567261
0.0	0.0	-111.644897461	-154.369644165	28.6242790222	152.633880615
0.0	0.0	-111.604324341	-154.447006226	30.5505142212	151.090255737
0.0	0.0	-110.560081482	-154.912750244	30.326335907	150.699691772
0.0	0.0	-105.570861816	-156.71282959	29.6006011963	150.57661438
0.0	0.0	-101.893386841	-157.440811157	33.0793418884	150.868545532
0.0	0.0	-99.5266952515	-157.18711853	34.5756149292	151.56690979
0.0	0.0	-95.4978942871	-157.921096802	36.2418823242	152.517913818
0.0	0.0	-87.8087081909	-159.456039429	39.2602233887	150.947662354
0.0	0.0	-79.4333648682	-160.550857544	40.0021972656	150.555679321
0.0	0.0	-65.9352264404	-161.46647644	41.4181137085	150.099304199
0.0	0.0	-50.0639419556	-161.595077515	42.1620445251	150.112670898
0.0	0.0	-36.5655593872	-162.778152466	42.3171005249	150.390411377
0.0	0.0	-27.2245178223	-162.708602905	42.0532531738	149.938720703
0.0	0.0	-23.6848945618	-163.08505249	40.6585693359	150.234237671
0.0	0.0	-18.7706451416	-164.064056396	40.0012283325	150.371917725
0.0	0.0	-10.1387147903	-164.669067383	39.7864189148	150.261657715
0.0	0.0	-0.0553520694375	-164.426193237	39.3249893188	150.372528076
0.0	-0.0	10.4872026443	-163.7918396	38.293258667	150.674987793
0.0	-0.0	18.5045661926	-163.595672607	37.179523468	151.043014526
0.0	-0.0	22.256149292	-164.268829346	36.6468391418	152.028793335
0.0	-0.0	26.1525287628	-165.186904907	36.6151046753	153.411621094
0.0	-0.0	33.1425743103	-168.061752319	37.526966095	155.329650879
0.0	-0.0	44.8818511963	-175.043930054	40.2046699524	157.512969971
0.0	-0.0	63.036491394	177.15473938	43.6740837097	159.293716431
0.0	-0.0	85.7801437378	169.020385742	47.3321800232	160.547637939
0.0	-0.0	99.4309616089	163.047149658	49.1305274963	161.738204956
0.0	-0.0	106.465553284	159.328414917	49.1343955994	161.919494629
0.0	-0.0	108.739517212	155.46232605	51.0077095032	161.090148926
0.0	-0.0	107.801635742	152.533905029	60.9751701355	171.835220337
0.0	-0.0	108.418952942	152.60269165	72.1603317261	-179.744934082
0.0	-0.0	105.291740417	165.786132812	65.1150054932	172.895584106
0.0	-0.0	100.466094971	-165.476425171	38.7315673828	156.024490356
0.0	-0.0	99.2988128662	-141.904830933	27.1182765961	164.081787109
0.0	-0.0	98.963104248	-135.908050537	23.9822635651	163.750091553
0.0	-0.0	99.4026489258	-125.312507629	21.6337451935	172.476089478
0.0	-0.0	99.3018112183	-125.889961243	16.5959186554	169.810577393
0.0	-0.0	96.4396057129	-120.404075623	15.1899671555	174.569000244
0.0	-0.0	92.2306671143	-110.782180786	11.4085540771	171.488052368
0.0	-0.0	87.9312133789	-91.3298797607	11.0539598465	172.594573975
0.0	-0.0	81.3048629761	-72.772895813	11.789721489	173.029708862
