0.0	-0.0	138.746887207	-115.524688721	88.460067749	-178.703277588
0.0	-0.0	138.336624146	-115.283218384	88.448677063	-179.065643311
0.0	-0.0	135.598617554	-114.825973511	88.2187957764	-179.217834473
0.0	-0.0	127.280792236	-114.343955994	88.4254074097	-179.482284546
0.0	-0.0	99.3026809692	-112.69329834	87.1823348999	179.869338989
0.0	-0.0	80.3352279663	-110.310279846	83.0132369995	179.812698364
0.0	-0.0	39.9216499329	-108.281158447	78.7969894409	-179.706329346
0.0	0.0	-9.72885131836	-106.302841187	74.7636108398	-179.610519409
0.0	0.0	-17.9656906128	-104.523551941	72.2631912231	-179.391906738
0.0	0.0	-30.3066482544	-103.403739929	69.7196426392	-178.910079956
0.0	0.0	-37.0332374573	-103.34375	67.9229125977	-178.155990601
0.0	0.0	-41.5725135803	-104.273933411	65.6182174683	-177.560211182
0.0	0.0	-39.8683395386	-105.815795898	63.6741714478	-177.173583984
0.0	0.0	-42.2706069946	-112.285209656	59.7246742249	-178.869644165
0.0	0.0	-44.368812561	-123.314888	52.588596344	178.932739258
0.0	0.0	-45.6393241882	-132.528106689	46.7269554138	178.384872437
0.0	0.0	-48.1770210266	-134.959518433	43.1165084839	179.137832642
0.0	0.0	-50.5378799438	-136.188171387	40.938533783	179.887191772
0.0	0.0	-51.44165802	-138.745895386	40.0156555176	-178.831726074
0.0	0.0	-48.1106872559	-141.379119873	39.4874382019	-176.769439697
0.0	0.0	-47.620765686	-145.053863525	39.9923362732	-174.452346802
0.0	0.0	-47.7235565186	-151.006393433	41.0473823547	-171.957214355
0.0	0.0	-47.0553474426	-157.434356689	42.1954956055	-169.113937378
0.0	0.0	-46.1216964722	-158.236846924	41.9905090332	-166.9947052
0.0	0.0	-45.0754699707	-153.836029053	41.253326416	-166.212249756
0.0	0.0	-43.0531349182	-149.138137817	41.3507652283	-166.141769409
0.0	0.0	-40.3191795349	-146.343429565	41.9274253845	-165.963973999
0.0	0.0	-35.0608062744	-144.907501221	43.5898666382	-165.3699646
0.0	0.0	-26.0180912018	-143.66116333	45.7732849121	-164.715072632
0.0	0.0	-22.0115795135	-142.019561768	46.9786834717	-164.101074219
0.0	0.0	-19.17162323	-140.69934082	47.4333229065	-163.678726196
0.0	0.0	-21.9466381073	-139.64491272	48.1002731323	-163.15184021
0.0	0.0	-29.6138629913	-138.8775177	50.1904373169	-163.383407593
0.0	0.0	-32.4751205444	-138.106704712	53.8977546692	-162.367141724
0.0	0.0	-31.3186893463	-138.370941162	57.2061767578	-159.861663818
0.0	0.0	-32.1884307861	-138.971832275	56.0333251953	-157.080245972
0.0	0.0	-33.0938148499	-139.080108643	54.3757972717	-156.079849243
0.0	0.0	-34.2362670898	-138.143630981	56.1945571899	-155.283615112
0.0	0.0	-36.0678825378	-137.120788574	61.2476959229	-154.316223145
0.0	0.0	-43.7353897095	-135.639450073	63.0558280945	-153.322692871
0.0	0.0	-56.2461853027	-133.779220581	61.5549468994	-152.38092041
0.0	0.0	-63.8573226929	-132.935791016	61.5345840454	-151.589157104
0.0	0.0	-69.7350234985	-132.130401611	59.3402862549	-151.114639282
0.0	0.0	-78.0933151245	-131.312957764	55.3900680542	-151.220077515
0.0	0.0	-81.4556121826	-130.92755127	52.9142494202	-151.586486816
0.0	0.0	-81.6067352295	-131.082244873	52.7459144592	-151.869033813
0.0	0.0	-83.1965408325	-132.168029785	52.0388374329	-151.577301025
0.0	0.0	-87.5362243652	-133.638031006	48.6010246277	-150.357818604
0.0	0.0	-89.1170654297	-134.714996338	44.406665802	-149.441314697
0.0	0.0	-87.4907455444	-134.474349976	35.7338485718	-147.946350098
0.0	0.0	-87.7369613647	-134.018386841	30.8267440796	-147.475143433
0.0	0.0	-87.8547973633	-134.32409668	30.2050151825	-147.285903931
0.0	0.0	-86.4790802002	-134.728652954	31.9966983795	-147.364364624
0.0	0.0	-82.0767059326	-135.810348511	33.7737770081	-146.731918335
0.0	0.0	-80.6349945068	-137.419387817	33.1374359131	-146.67489624
0.0	0.0	-77.7248382568	-137.527481079	32.6074409485	-146.698394775
0.0	0.0	-69.3438720703	-136.152008057	32.7545890808	-146.808395386
0.0	0.0	-63.2421875	-134.436965942	33.240650177	-147.130935669
