0.0765919685364	0.593278169632	0.00025475025177	-0.0728707313538	1.29070353508	-0.140104055405
0.0781903266907	0.59338259697	0.000273704528809	-0.0725493431091	1.29063856602	-0.139690995216
0.0787420272827	0.593675851822	0.000527620315552	-0.0727438926697	1.29064309597	-0.139407873154
0.0786907672882	0.59352850914	0.000771045684814	-0.0739943981171	1.29223406315	-0.139029026031
0.0778965950012	0.591496944427	-0.000416040420532	-0.077401638031	1.29619896412	-0.139376401901
0.0777111053467	0.589839458466	-0.000489354133606	-0.0798981189728	1.29837059975	-0.140332818031
0.0772581100464	0.590287685394	0.00165700912476	-0.080108165741	1.29778730869	-0.140787124634
0.0767047405243	0.59170126915	0.00458765029907	-0.0791463851929	1.29646420479	-0.140053629875
0.0762329101562	0.592464447021	0.00583434104919	-0.077944278717	1.29489839077	-0.138741612434
0.0758256912231	0.590849637985	0.00441670417786	-0.0766038894653	1.29373395443	-0.137472391129
0.0755658149719	0.588845014572	0.00118803977966	-0.0755360126495	1.29262042046	-0.136608600616
0.0762605667114	0.587596416473	-0.00118231773376	-0.0745251178741	1.29179060459	-0.136023640633
0.0768949985504	0.587064743042	-0.0026718378067	-0.0739552974701	1.29158318043	-0.135959148407
0.0771999359131	0.5867395401	-0.00330018997192	-0.0735123157501	1.29157519341	-0.136584997177
0.0769591331482	0.587089776993	-0.00350058078766	-0.0732758045197	1.2917535305	-0.13769364357
0.0767598152161	0.588003396988	-0.00270533561707	-0.0733172893524	1.29185116291	-0.138987541199
0.0770947933197	0.588343143463	-0.0021665096283	-0.0734703540802	1.29213654995	-0.140181541443
0.0772802829742	0.588768005371	-0.00184321403503	-0.0738160610199	1.29213619232	-0.141351222992
0.0773482322693	0.589379549026	-0.00157570838928	-0.0739984512329	1.29225385189	-0.141921281815
0.0773253440857	0.589169502258	-0.00204300880432	-0.0741331577301	1.29230642319	-0.142334580421
0.0728771686554	0.590164661407	-0.00184845924377	-0.0745756626129	1.29155099392	-0.142110824585
0.057849407196	0.586951494217	-0.00552439689636	-0.0760877132416	1.2866973877	-0.140174150467
0.0331592559814	0.593673229218	-0.0146414041519	-0.0778443813324	1.27929580212	-0.13730442524
0.016101360321	0.610310792923	-0.0144382715225	-0.0792713165283	1.27339947224	-0.134649038315
0.00664710998535	0.615966796875	-0.0149068832397	-0.0807356834412	1.26908743382	-0.132509827614
0.00723838806152	0.618181467056	-0.00978112220764	-0.0827524662018	1.26418042183	-0.13124370575
-0.00168466567993	0.627831220627	-0.00278568267822	-0.0857362747192	1.25913870335	-0.130160927773
-0.018434047699	0.635255336761	-0.00595998764038	-0.0897610187531	1.25515174866	-0.128974437714
-0.030252456665	0.640951395035	-0.00979781150818	-0.0947523117065	1.25376975536	-0.127847075462
-0.0368175506592	0.642420053482	-0.00915789604187	-0.100729703903	1.25410330296	-0.126978635788
-0.0444259643555	0.643172025681	-0.00814270973206	-0.107225418091	1.253054142	-0.125691175461
-0.0555562973022	0.642253637314	-0.00926029682159	-0.114219903946	1.25001788139	-0.124661684036
-0.0672178268433	0.64015173912	-0.010486125946	-0.120581865311	1.24929869175	-0.123695611954
-0.078311920166	0.640624761581	-0.0113197565079	-0.127822875977	1.25110173225	-0.123480081558
-0.0882983207703	0.641808271408	-0.0117616653442	-0.136517763138	1.25232696533	-0.124494671822
-0.0969758033752	0.640268325806	-0.0138175487518	-0.145243406296	1.25297296047	-0.126714944839
-0.10237288475	0.638008356094	-0.0141574144363	-0.153688192368	1.25353562832	-0.129334688187
-0.105284929276	0.637871742249	-0.0131530761719	-0.160367012024	1.25398361683	-0.132190465927
-0.104335784912	0.636609077454	-0.0124411582947	-0.164155721664	1.25387096405	-0.134139060974
-0.100438594818	0.632612466812	-0.0133302211761	-0.164753913879	1.25453007221	-0.135961771011
-0.0942876338959	0.625596761703	-0.0164765119553	-0.16383266449	1.25697827339	-0.138440489769
-0.0903806686401	0.622647047043	-0.0199148654938	-0.163079738617	1.25948119164	-0.141626000404
-0.0886657238007	0.620162010193	-0.0255932807922	-0.162931442261	1.2603726387	-0.144754528999
-0.0866837501526	0.616123199463	-0.0334460735321	-0.162474870682	1.26015090942	-0.147513508797
-0.0854704380035	0.613235235214	-0.0393130779266	-0.161411762238	1.26185321808	-0.149709582329
-0.0848858356476	0.612118005753	-0.0402307510376	-0.160506725311	1.26318454742	-0.151452302933
-0.0877516269684	0.614394903183	-0.0404274463654	-0.159554719925	1.26086866856	-0.152121305466
-0.0902771949768	0.616665363312	-0.0369482040405	-0.158540487289	1.25567781925	-0.151282548904
-0.0924847126007	0.617217302322	-0.0372142791748	-0.157693862915	1.25310063362	-0.149448871613
-0.0932359695435	0.612869739532	-0.0440295934677	-0.157129764557	1.25274729729	-0.148162603378
-0.0921468734741	0.608314037323	-0.0503509044647	-0.157244920731	1.25290977955	-0.147517085075
-0.0910556316376	0.606559276581	-0.0482385158539	-0.157178401947	1.25212788582	-0.147126913071
-0.090313911438	0.605304479599	-0.0442932844162	-0.157744169235	1.25039207935	-0.146586179733
-0.09010887146	0.603398799896	-0.0440870523453	-0.158364057541	1.24871456623	-0.145174860954
-0.0899069309235	0.600869178772	-0.0473917722702	-0.15873003006	1.24737298489	-0.142466902733
-0.0888600349426	0.598841667175	-0.0485126972198	-0.158215999603	1.24718701839	-0.139597654343
-0.0872633457184	0.597447872162	-0.047159910202	-0.158431768417	1.24664962292	-0.136944651604
-0.0864462852478	0.596213817596	-0.0465166568756	-0.158623456955	1.24608385563	-0.134964227676
-0.0855708122253	0.593981981277	-0.0455514192581	-0.159116268158	1.24540865421	-0.133198022842
-0.0840649604797	0.591710805893	-0.043603181839	-0.159400939941	1.24506163597	-0.131031632423
