-0.244621992111	0.913617134094	0.15076315403	-0.168853521347	1.29789793491	-0.0605204105377
-0.245161056519	0.914102315903	0.150945067406	-0.169493436813	1.29770767689	-0.060131072998
-0.245817661285	0.914201259613	0.150748610497	-0.170000553131	1.29767680168	-0.0597560405731
-0.246674060822	0.913758993149	0.150002241135	-0.170662164688	1.29776597023	-0.0594660043716
-0.245793819427	0.913589477539	0.150752067566	-0.170840501785	1.29789638519	-0.0597257614136
-0.241795301437	0.914799928665	0.153811454773	-0.170621871948	1.29786217213	-0.0604283809662
-0.237196445465	0.916108131409	0.156977176666	-0.170448303223	1.29832756519	-0.0613620281219
-0.235304117203	0.916443109512	0.157706737518	-0.17066693306	1.29924619198	-0.0626143217087
-0.233796834946	0.918100595474	0.159183979034	-0.170828342438	1.30243837833	-0.0639408826828
-0.229540348053	0.930545091629	0.166249990463	-0.170847892761	1.30731499195	-0.066188454628
-0.22029209137	0.949542284012	0.178887963295	-0.170824289322	1.31050360203	-0.0691672563553
-0.207008838654	0.969120740891	0.193539500237	-0.170483112335	1.31282162666	-0.0726399421692
-0.193248748779	0.990697622299	0.205254077911	-0.171036720276	1.31536889076	-0.0761417150497
-0.176223754883	1.01355290413	0.216678619385	-0.171653747559	1.31811594963	-0.0793734788895
-0.154665231705	1.03618526459	0.227207422256	-0.171900987625	1.31995236874	-0.0820829868317
-0.12997841835	1.05658793449	0.23416185379	-0.172196388245	1.32078933716	-0.0838093757629
-0.106917381287	1.07046031952	0.240393042564	-0.172734975815	1.32090246677	-0.0848379135132
-0.0891013145447	1.08224022388	0.243065953255	-0.173494815826	1.32150030136	-0.0861443281174
-0.0756330490112	1.09092271328	0.242278814316	-0.173767805099	1.32274460793	-0.0866420269012
-0.0650203227997	1.09625554085	0.240460157394	-0.172735214233	1.32308757305	-0.0874876976013
-0.0573403835297	1.09978353977	0.237756490707	-0.171204566956	1.32269918919	-0.0887651443481
-0.0505857467651	1.10264801979	0.23589682579	-0.170182943344	1.32345497608	-0.0899133682251
-0.0447509288788	1.10620462894	0.233846068382	-0.16924071312	1.32490575314	-0.0910038948059
-0.0368633270264	1.11102330685	0.23174726963	-0.168694734573	1.32601070404	-0.0921249389648
-0.0274720191956	1.11678230762	0.229476571083	-0.168530464172	1.32667303085	-0.0927295684814
-0.0193016529083	1.12166583538	0.227940559387	-0.168552398682	1.32718634605	-0.0936920642853
-0.0176556110382	1.11914372444	0.228061556816	-0.168937206268	1.32693600655	-0.0949088335037
-0.0192506313324	1.10937166214	0.230332136154	-0.168908119202	1.32653427124	-0.0963275432587
-0.0248780250549	1.09896671772	0.23286318779	-0.168803930283	1.32651460171	-0.0978434085846
-0.0324773788452	1.09071779251	0.235471010208	-0.169042348862	1.32648336887	-0.0991942882538
-0.0380771160126	1.08781003952	0.236699104309	-0.169676065445	1.3261141777	-0.0999866724014
-0.0390264987946	1.0896897316	0.23572063446	-0.170797109604	1.32557976246	-0.101220846176
-0.0372309684753	1.09575903416	0.233110904694	-0.171800374985	1.32573449612	-0.103485107422
-0.0340349674225	1.10058832169	0.231523871422	-0.172274827957	1.32604515553	-0.106199979782
-0.031610250473	1.10241520405	0.229234933853	-0.172731637955	1.3260935545	-0.108185172081
-0.0313148498535	1.09985017776	0.226269125938	-0.173606395721	1.32559072971	-0.108990907669
-0.0317902565002	1.09797739983	0.222102761269	-0.173874616623	1.32482397556	-0.109026670456
-0.0317070484161	1.09838652611	0.217767715454	-0.17342209816	1.32364344597	-0.108860254288
-0.03275847435	1.09699332714	0.215389490128	-0.172913551331	1.32111632824	-0.10774230957
-0.0335693359375	1.09372138977	0.213501691818	-0.173679590225	1.31654572487	-0.10584795475
-0.0342037677765	1.09193181992	0.212188482285	-0.173441410065	1.31351327896	-0.104035496712
-0.0336666107178	1.09076023102	0.212027430534	-0.171995162964	1.31283700466	-0.103289246559
-0.0324912071228	1.08905315399	0.212559461594	-0.171247959137	1.31267809868	-0.102387428284
-0.0314259529114	1.08939146996	0.212024211884	-0.171484470367	1.31280386448	-0.101044654846
-0.0295565128326	1.08955085278	0.211174726486	-0.175605297089	1.31543028355	-0.0993156433105
-0.028568983078	1.08692085743	0.212203383446	-0.179362297058	1.31741189957	-0.0971579551697
-0.0273408889771	1.08549070358	0.213549375534	-0.181843280792	1.32002604008	-0.0954566001892
-0.0216963291168	1.086632967	0.216695904732	-0.183032751083	1.32238829136	-0.0944261550903
-0.0131900310516	1.09233748913	0.218784570694	-0.182192325592	1.32357490063	-0.0932114124298
-0.00599718093872	1.10067176819	0.217731833458	-0.181084632874	1.32451844215	-0.0929317474365
0.00103378295898	1.11002218723	0.2151658535	-0.179842948914	1.32559132576	-0.0933978557587
0.00750946998596	1.11373996735	0.213755130768	-0.1780564785	1.32529616356	-0.094309926033
0.0143523216248	1.10993409157	0.213594198227	-0.17524766922	1.32338869572	-0.0945153236389
