0.0	-0.0	137.540313721	-111.418838501	82.3650970459	-171.905975342
0.0	-0.0	137.302307129	-112.08190918	82.9820251465	-171.667800903
0.0	-0.0	130.457794189	-112.876998901	84.8069152832	-171.395095825
0.0	-0.0	105.668991089	-114.900474548	89.1326522827	-170.684494019
0.0	-0.0	85.2754745483	62.7095870972	89.8451690674	10.5147695541
0.0	-0.0	47.8838768005	-118.405723572	84.5691299438	-168.34954834
0.0	-0.0	29.4687576294	-117.952354431	76.7949523926	-167.5728302
0.0	0.0	-8.17953586578	-116.765319824	69.5793457031	-166.952331543
0.0	0.0	-23.1662826538	-115.737228394	63.0321502686	-165.877593994
0.0	0.0	-29.0625400543	-114.706855774	56.5195121765	-164.671463013
0.0	0.0	-40.1918411255	-114.9686203	49.9892082214	-163.235321045
0.0	0.0	-47.7267532349	-116.718971252	43.8745651245	-162.005889893
0.0	0.0	-50.1198883057	-119.251480103	42.6459312439	-160.468658447
0.0	0.0	-46.7835350037	-120.826705933	44.7158355713	-158.664718628
0.0	0.0	-48.1571655273	-122.889060974	46.5749359131	-156.335525513
0.0	0.0	-50.8709030151	-125.200675964	45.4791488647	-154.087722778
0.0	0.0	-51.7811431885	-127.221603394	45.220161438	-151.75994873
0.0	0.0	-51.4729957581	-128.148666382	46.8687820435	-149.347229004
0.0	0.0	-50.855594635	-127.789421082	48.1708602905	-147.626861572
0.0	0.0	-51.4130973816	-126.506721497	46.8916320801	-146.580718994
0.0	0.0	-54.5289154053	-123.309860229	43.7747459412	-146.266159058
0.0	0.0	-57.9758834839	-120.569160461	44.3243942261	-145.532119751
0.0	0.0	-59.6604194641	-119.733062744	45.5823020935	-144.428268433
0.0	0.0	-62.6568069458	-120.188064575	46.8418388367	-141.873428345
0.0	0.0	-66.4289932251	-121.576385498	46.511806488	-138.727493286
0.0	0.0	-68.950302124	-123.075775146	45.348777771	-136.464538574
0.0	0.0	-70.9670562744	-123.652374268	44.2646102905	-135.113082886
0.0	0.0	-73.9685592651	-123.292434692	43.1165885925	-134.52130127
