0.0	-0.0	128.558517456	-105.830528259	89.470451355	-167.820037842
0.0	-0.0	127.610244751	-105.478965759	88.1390533447	-167.431060791
0.0	-0.0	125.813911438	-105.303237915	88.3656539917	-167.78036499
0.0	-0.0	124.224639893	-104.45262146	88.3667831421	-168.057022095
0.0	-0.0	113.836517334	-103.329216003	88.3250274658	-168.835784912
0.0	-0.0	85.4540176392	-100.54637146	88.2899703979	-170.245254517
0.0	-0.0	64.2057037354	-94.4465942383	87.6125717163	-171.416732788
0.0	-0.0	50.7479476929	-86.7201766968	87.1173477173	-172.636474609
0.0	-0.0	36.7484741211	-81.592300415	86.7229690552	-174.668426514
0.0	-0.0	38.8778457642	-78.9268569946	86.882598877	-175.609909058
0.0	-0.0	37.7808036804	-78.2079162598	87.1054916382	-175.56703186
0.0	-0.0	38.5502319336	-79.7928543091	86.9152069092	-174.521087646
0.0	-0.0	40.5584983826	-82.7249679565	85.5798187256	-173.307525635
0.0	-0.0	41.6537628174	-87.4946594238	85.4399414062	-172.256652832
0.0	-0.0	43.3832702637	-91.4409561157	85.237487793	-171.536727905
0.0	-0.0	49.6528701782	-91.8940734863	87.7344284058	-171.926345825
0.0	-0.0	57.7676925659	88.8564682007	85.7495117188	7.34371471405
0.0	-0.0	55.3103218079	87.3747634888	82.4734649658	7.8271021843
0.0	-0.0	54.4216575623	85.2144699097	83.2970199585	9.52787208557
0.0	-0.0	53.8441619873	82.987449646	84.5935440063	12.2906742096
0.0	-0.0	54.448841095	81.7196350098	85.8117675781	13.5980358124
0.0	-0.0	49.8745880127	82.4843139648	85.9499130249	12.7872819901
0.0	-0.0	26.5018367767	84.5208282471	85.4090118408	11.6340970993
0.0	-0.0	20.7963581085	84.891746521	84.2389831543	11.1662473679
0.0	-0.0	7.72062969208	83.7948760986	84.0280456543	11.2400436401
0.0	-0.0	3.60875797272	83.4636917114	84.4161224365	11.8654985428
0.0	0.0	-3.33928585052	83.5345916748	84.9761352539	12.1916656494
0.0	0.0	-6.68790483475	83.3101272583	85.6917266846	13.0915193558
0.0	0.0	-10.0319709778	82.6419219971	87.1745986938	14.7068052292
0.0	0.0	-11.229306221	81.7740249634	87.4703216553	17.1580638885
0.0	0.0	-7.9970998764	79.6149368286	86.8428878784	20.4547271729
0.0	-0.0	2.68402647972	76.7919769287	86.4831085205	22.972026825
0.0	-0.0	13.0736656189	75.3863601685	85.7644271851	23.5490913391
0.0	-0.0	34.8542137146	75.6281967163	84.5024490356	22.8071060181
0.0	-0.0	50.7534751892	76.7980270386	83.4237518311	21.3292427063
0.0	-0.0	60.1374740601	77.8418121338	82.081237793	20.4877376556
0.0	-0.0	60.9534683228	78.7805175781	82.1214370728	20.0497627258
0.0	-0.0	36.3412437439	79.2625350952	83.5443267822	19.4660511017
0.0	0.0	-9.83002662659	79.6877059937	86.0041122437	18.7137889862
0.0	0.0	-19.566072464	79.5671386719	88.1145553589	18.6471576691
0.0	0.0	-33.1570320129	-100.889022827	89.7475662231	-161.557998657
0.0	0.0	-47.5391197205	-100.950012207	88.9793701172	-162.017593384
0.0	0.0	-57.5991096497	79.1141357422	89.7519454956	17.9652633667
0.0	0.0	-65.8262557983	78.9713592529	88.4652252197	18.3555679321
0.0	0.0	-72.1042022705	78.8876342773	88.4239578247	18.0100860596
0.0	0.0	-80.0091094971	79.5953063965	88.3089828491	17.7668704987
0.0	0.0	-81.9466247559	81.1452255249	86.9424972534	17.0979042053
0.0	0.0	-76.3786621094	80.5741195679	87.2342071533	16.8404216766
0.0	0.0	-73.9808959961	74.8800582886	87.256652832	18.4085960388
0.0	0.0	-74.6238098145	-114.1404953	89.6161804199	-160.059127808
0.0	0.0	-74.6846694946	-120.813171387	85.4858474731	-158.838928223
0.0	0.0	-73.9776992798	-123.18699646	84.5012893677	-159.19682312
0.0	0.0	-72.2859191895	-119.458129883	86.3706207275	-161.229598999
0.0	0.0	-71.8621139526	-117.589149475	88.7779006958	-159.970321655
