0.0	-0.0	134.173843384	67.037902832	80.9384307861	8.81450176239
0.0	-0.0	133.697998047	66.7223358154	81.2520370483	8.84633159637
0.0	-0.0	129.459182739	66.4589538574	80.7909088135	9.11953735352
0.0	-0.0	100.634689331	62.9767341614	70.1471862793	9.30293941498
0.0	-0.0	63.0944824219	55.6180267334	60.1858825684	8.88868045807
0.0	-0.0	49.9254684448	45.4370727539	52.1327629089	6.42469882965
0.0	-0.0	41.6090660095	34.4481163025	46.2890586853	3.97426247597
0.0	-0.0	47.7078857422	23.9395427704	41.2396507263	3.74698853493
0.0	-0.0	42.0467987061	15.9454364777	35.6176643372	3.32152175903
0.0	-0.0	39.2355766296	13.0381355286	30.5807647705	1.68942630291
0.0	-0.0	41.5340957642	13.4927482605	28.9919719696	1.57863152027
0.0	-0.0	56.4523963928	12.0862569809	29.3959274292	2.04154706001
0.0	-0.0	60.7742919922	8.91759109497	28.745010376	1.56164252758
