-34.9120254517	-14.0330581665	136.213607788	8.91768455505	-1.22709453106	1.67795443535
-34.6100692749	-14.4285068512	135.773574829	8.76473426819	-1.48772847652	1.84646844864
-33.9970626831	-15.1457357407	133.665313721	8.46834087372	-1.89640367031	2.18980574608
-32.2062950134	-16.4715614319	124.197158813	6.81768703461	-2.70729374886	2.75149083138
-31.465089798	-15.652176857	110.731765747	3.7390973568	-3.51448369026	3.55503416061
-29.8970546722	-15.6241159439	96.9854660034	0.29879912734	-3.86173820496	4.39409780502
-30.6802101135	-15.616642952	88.3184890747	-3.08036112785	-3.97989606857	5.11313343048
-31.9129543304	-14.2170600891	84.0448379517	-6.53165769577	-3.57239198685	6.00003576279
-32.3126296997	-14.2383623123	81.8654632568	-10.1708850861	-2.92522597313	7.04564189911
-32.738445282	-13.2098913193	81.0010375977	-13.3850679398	-2.03533005714	7.94527721405
