0.0	-0.0	132.734024048	68.597076416	85.7645339966	5.87565135956
0.0	-0.0	132.52684021	68.5588226318	85.5453567505	5.92224979401
0.0	-0.0	119.338119507	68.1665267944	85.0318756104	5.67315530777
0.0	-0.0	87.0042114258	68.6009979248	83.9127655029	6.86622667313
0.0	-0.0	34.1083145142	70.1511077881	81.3416213989	8.93463420868
0.0	-0.0	20.7870807648	72.4421463013	80.2279891968	10.7769584656
0.0	-0.0	9.9747428894	75.7579345703	80.7778167725	12.8501739502
0.0	0.0	-8.67788314819	77.8752670288	81.9427185059	17.9974079132
0.0	0.0	-17.4861717224	75.8778381348	85.4469909668	24.6527690887
0.0	0.0	-25.2852325439	71.8648986816	89.1399993896	28.8247947693
0.0	0.0	-33.2483062744	-110.200004578	89.5545806885	-148.593856812
0.0	0.0	-41.9715690613	-110.536743164	88.7655334473	-146.094528198
0.0	0.0	-47.7170906067	-110.168876648	87.8185653687	-144.8828125
0.0	0.0	-52.2996711731	-108.723243713	87.2162322998	-144.096893311
