0.0391373634338	0.669900655746	0.00931549072266	-0.120377063751	1.30768013	-0.147193908691
0.0377860069275	0.669618606567	0.00906467437744	-0.120150566101	1.30722665787	-0.146846175194
0.038453578949	0.66784620285	0.00923037528992	-0.119867324829	1.30740201473	-0.146830916405
0.0377221107483	0.662623643875	0.00790965557098	-0.119767665863	1.30776059628	-0.146350860596
0.0303621292114	0.656109809875	0.00355708599091	-0.119369268417	1.30634343624	-0.145101547241
0.0187795162201	0.651751756668	-0.00282192230225	-0.119196653366	1.30399549007	-0.143133640289
-0.00968790054321	0.657088041306	-0.0138456821442	-0.120224475861	1.30100154877	-0.140639305115
-0.01828956604	0.665365457535	0.00390577316284	-0.122969388962	1.29744875431	-0.136711597443
-0.0378997325897	0.672278881073	0.0225329399109	-0.129439115524	1.29258000851	-0.132444024086
-0.0609502792358	0.679316759109	0.0324635505676	-0.138768672943	1.28710091114	-0.128338217735
-0.0761229991913	0.688197135925	0.0363459587097	-0.149513244629	1.28405058384	-0.125079751015
-0.0847454071045	0.688858270645	0.0318412780762	-0.157608747482	1.28346884251	-0.123958349228
-0.0887744426727	0.690555810928	0.0286430120468	-0.163660287857	1.28378427029	-0.123858451843
-0.0935199260712	0.692475795746	0.025976061821	-0.169937849045	1.28308153152	-0.12416267395
-0.0978734493256	0.6918156147	0.025520324707	-0.176698684692	1.28033971786	-0.124090433121
-0.100772857666	0.692249059677	0.0236377716064	-0.183208465576	1.27717494965	-0.123648643494
-0.102612257004	0.694761514664	0.0173237323761	-0.187224388123	1.27555930614	-0.123615980148
