0.0	-0.0	139.509277344	79.1175918579	77.2758178711	11.1040410995
0.0	-0.0	140.158218384	79.0152587891	77.8983154297	10.7192258835
0.0	-0.0	137.381530762	79.191116333	78.2316360474	10.3750772476
0.0	-0.0	121.486160278	78.6950531006	79.5081787109	10.9622077942
0.0	-0.0	102.044807434	77.3767089844	81.4406967163	12.0031890869
0.0	-0.0	100.46673584	75.5179977417	83.9514312744	13.1377916336
0.0	-0.0	75.4527664185	75.2506103516	88.9450683594	14.0219182968
0.0	-0.0	34.2487258911	-103.56816864	83.6832122803	-165.846511841
0.0	-0.0	1.68875098228	-101.651565552	78.4075241089	-166.540008545
0.0	0.0	-8.36858654022	-99.5856170654	73.428024292	-166.874526978
0.0	0.0	-13.5858345032	-97.3079833984	68.1781311035	-167.190826416
0.0	0.0	-19.9381599426	-95.7091369629	63.8803634644	-167.539611816
0.0	0.0	-26.5489521027	-95.0600509644	59.8503227234	-167.889266968
0.0	0.0	-35.6751060486	-94.9336395264	56.9683456421	-167.744049072
0.0	0.0	-48.0478591919	-95.2245407104	54.9619522095	-167.911209106
0.0	0.0	-54.6212005615	-95.3134231567	53.8443374634	-168.162231445
0.0	0.0	-55.3021354675	-95.6061172485	52.5708961487	-168.656600952
0.0	0.0	-28.8392715454	-95.9036407471	51.8476753235	-168.744537354
0.0	-0.0	18.8878612518	-96.6393966675	51.6378479004	-169.141494751
0.0	-0.0	32.7263870239	-98.9002914429	51.757484436	-169.209457397
0.0	-0.0	35.8921546936	-101.664466858	49.9615440369	-168.513458252
0.0	-0.0	26.7011146545	-102.538642883	48.7902526855	-167.570480347
0.0	-0.0	15.3735513687	-102.897392273	47.562877655	-166.673019409
0.0	-0.0	16.9084625244	-102.905036926	46.8879432678	-165.453674316
0.0	-0.0	17.3964824677	-103.240509033	47.6385269165	-164.353622437
0.0	-0.0	21.4515590668	-103.47808075	47.7107658386	-164.04069519
0.0	-0.0	31.6009578705	-102.960838318	47.6007728577	-164.468536377
0.0	-0.0	42.8546676636	-102.631988525	48.1235122681	-165.194519043
0.0	-0.0	50.1851158142	-102.365875244	48.7845039368	-165.529205322
0.0	-0.0	52.7320671082	-102.495201111	50.2341270447	-165.660018921
0.0	-0.0	57.1214790344	-102.442550659	51.236656189	-165.688476562
0.0	-0.0	61.4761924744	-102.334754944	51.5179824829	-165.272460938
0.0	-0.0	56.0382804871	-102.502044678	52.9989395142	-164.795013428
0.0	-0.0	34.4260673523	-102.143409729	55.503490448	-164.531509399
0.0	-0.0	49.4476356506	-101.303764343	58.0796775818	-164.43371582
0.0	-0.0	61.9502677917	-100.686347961	59.1168365479	-164.135879517
0.0	-0.0	66.1241912842	-100.331100464	60.7999343872	-164.035400391
0.0	-0.0	68.0037078857	-100.203987122	62.6626472473	-163.303848267
0.0	-0.0	65.3366012573	-100.744972229	63.6927604675	-162.187667847
0.0	-0.0	35.1946601868	-101.39780426	64.1807556152	-161.07522583
0.0	-0.0	6.44329690933	-101.702270508	65.3610610962	-160.418487549
0.0	0.0	-36.8784179688	-101.202636719	65.9107589722	-159.675369263
0.0	0.0	-62.8697738647	-101.308502197	65.7922210693	-158.815261841
0.0	0.0	-73.3197021484	-101.614830017	63.3174476624	-158.375442505
0.0	0.0	-77.5240783691	-102.291679382	60.3709869385	-158.052276611
0.0	0.0	-85.6083602905	-103.902626038	57.2307128906	-157.302124023
0.0	0.0	-89.703338623	-106.826202393	53.6597900391	-156.483932495
0.0	0.0	-91.8792495728	-110.834495544	50.3995933533	-155.654159546
0.0	0.0	-94.0787277222	-115.029449463	47.1246414185	-155.491607666
0.0	0.0	-94.4702529907	-118.536560059	44.8635978699	-154.911605835
0.0	0.0	-93.8024902344	-122.098182678	42.8877105713	-153.792709351
0.0	0.0	-94.3876647949	-125.397186279	39.2274665833	-152.403717041
0.0	0.0	-88.9550018311	-126.269683838	36.7312965393	-151.279312134
0.0	0.0	-81.0212020874	-125.548370361	35.7282180786	-151.035812378
0.0	0.0	-64.5509262085	-124.091667175	34.8462677002	-151.312164307
0.0	0.0	-57.4587898254	-122.638771057	34.6662521362	-151.553222656
0.0	0.0	-47.7080841064	-122.066146851	36.6304893494	-152.566360474
0.0	0.0	-41.9592285156	-121.047409058	40.0643806458	-153.183395386
0.0	0.0	-37.3936729431	-119.887702942	43.2464675903	-153.367736816
0.0	0.0	-38.0619163513	-119.378684998	43.5487213135	-153.297454834
0.0	0.0	-40.6492729187	-119.514892578	43.4252548218	-152.443634033
0.0	0.0	-35.9286651611	-121.677833557	44.3727989197	-150.625930786
0.0	0.0	-31.7230186462	-126.390541077	45.049861908	-148.220001221
0.0	0.0	-25.5429420471	-131.110900879	44.8167686462	-146.448196411
0.0	0.0	-25.0096855164	-132.187103271	44.6768493652	-146.209121704
0.0	0.0	-16.406293869	-129.921875	46.4345169067	-146.87651062
0.0	0.0	-2.32487678528	-128.417526245	49.0507392883	-146.237060547
0.0	-0.0	5.3922290802	-128.791946411	50.0528526306	-145.410385132
0.0	-0.0	12.0532655716	-128.602615356	51.1850624084	-144.764053345
0.0	-0.0	12.7279701233	-127.248298645	53.9411964417	-145.389541626
0.0	0.0	-4.23548316956	-126.262695312	54.0284843445	-145.436172485
0.0	0.0	-28.2947216034	-126.146987915	52.3724632263	-144.890014648
0.0	0.0	-40.1735877991	-125.953132629	51.1057243347	-144.563812256
0.0	0.0	-44.1492347717	-126.240776062	50.5800476074	-144.60723877
0.0	0.0	-49.9987792969	-126.739601135	49.7582931519	-144.423690796
0.0	0.0	-58.7911834717	-127.456031799	48.7193946838	-143.70249939
0.0	0.0	-68.697227478	-128.061340332	47.9313011169	-143.151245117
0.0	0.0	-73.3673248291	-127.931129456	46.4223747253	-142.372909546
0.0	0.0	-75.8124771118	-127.593284607	44.7605209351	-141.545043945
