-21.5322151184	-6.68084812164	133.421798706	10.3454399109	-0.0689909309149	4.37624406815
-21.6707191467	-6.80251407623	132.384094238	10.0529670715	-0.0935330614448	4.50841856003
-20.1383209229	-5.9855966568	120.451019287	9.34808063507	-0.387215018272	4.61173725128
-16.1652984619	-2.27233433723	88.5429534912	8.85385417938	-0.630274474621	4.8753027916
-7.84892320633	1.94600260258	33.591835022	8.72487735748	-0.74800246954	5.07900524139
-23.8685150146	4.4412112236	-0.433450490236	8.74731826782	-0.773521780968	5.33124542236
-30.5574321747	3.46082425117	-13.9665184021	8.90121173859	-0.625095367432	5.59316015244
-35.5384101868	0.647998809814	-31.1066532135	8.80698204041	-0.357660710812	5.7447347641
-41.4844703674	0.374064356089	-47.0343284607	8.81895065308	-0.0365191400051	6.07183456421
-42.7443237305	0.427651941776	-52.0899047852	8.9922876358	0.49209138751	6.79638528824
-44.0722999573	1.97194087505	-52.291595459	8.66956424713	0.882688760757	8.07669639587
