0.0221860408783	0.605005979538	0.0553289651871	-0.0916614532471	1.29399180412	-0.130663394928
0.0205981731415	0.604291915894	0.0556160211563	-0.0918073654175	1.29443252087	-0.12994146347
0.0151641368866	0.603004693985	0.0545914173126	-0.0927085876465	1.29486072063	-0.128597259521
0.00344061851501	0.59085392952	0.0421253442764	-0.0960359573364	1.29398345947	-0.126359462738
-0.00762796401978	0.57946228981	0.0294334888458	-0.102130413055	1.29136681557	-0.123508930206
-0.0149223804474	0.576888799667	0.0225675106049	-0.109048604965	1.29002988338	-0.120862960815
-0.0214495658875	0.577429056168	0.0153622627258	-0.11585354805	1.28788411617	-0.11823284626
-0.0253067016602	0.581085205078	0.0116817951202	-0.122446298599	1.28471648693	-0.115483999252
-0.0272631645203	0.594868421555	0.0160987377167	-0.128612756729	1.28157114983	-0.11324596405
-0.0331888198853	0.601928710938	0.0144600868225	-0.133670806885	1.27924907207	-0.11118555069
-0.0357718467712	0.602291107178	0.0124229192734	-0.137276887894	1.27773702145	-0.109254837036
-0.038049697876	0.600794792175	0.00740694999695	-0.140570878983	1.27612566948	-0.107263088226
-0.036591053009	0.59813785553	0.0032604932785	-0.142419338226	1.27409744263	-0.105296969414
-0.0313851833344	0.595955848694	0.00377917289734	-0.141082286835	1.27305161953	-0.103593349457
-0.0254578590393	0.593454837799	0.00337171554565	-0.13725233078	1.27255272865	-0.102096438408
-0.0205862522125	0.592132091522	0.00139188766479	-0.132892370224	1.27122724056	-0.100585341454
-0.0166327953339	0.590911626816	-0.00160646438599	-0.130263328552	1.26958250999	-0.099261879921
-0.0135378837585	0.59099650383	0.000365495681763	-0.129444360733	1.26839780807	-0.0981192588806
-0.00727701187134	0.586366415024	-0.00473785400391	-0.129427433014	1.26770353317	-0.097336769104
0.000333786010742	0.580945253372	-0.0119395256042	-0.130496025085	1.26640236378	-0.0964928865433
0.00630688667297	0.581330299377	-0.0262969732285	-0.131500959396	1.2645816803	-0.095298409462
0.0123448371887	0.583471775055	-0.0364986658096	-0.131972551346	1.26348042488	-0.0939993858337
0.0179858207703	0.585161685944	-0.0391463041306	-0.130970001221	1.26262390614	-0.0927911996841
0.0237367153168	0.585583209991	-0.0417060852051	-0.127867937088	1.26107883453	-0.0928740501404
0.0276770591736	0.586018800735	-0.0406898260117	-0.12269949913	1.25903213024	-0.0949478149414
0.0299515724182	0.585909605026	-0.0377309322357	-0.116793394089	1.25893068314	-0.0974628925323
0.0324532985687	0.583367824554	-0.0370650291443	-0.111430168152	1.26241278648	-0.099973320961
0.0364012718201	0.581349611282	-0.0433450937271	-0.107271194458	1.26423048973	-0.103515863419
0.0400240421295	0.580313444138	-0.0477261543274	-0.10333108902	1.26219582558	-0.106795430183
0.0437071323395	0.578618049622	-0.0491485595703	-0.101146936417	1.26186335087	-0.109389305115
0.0457379817963	0.575768470764	-0.0492744445801	-0.0992319583893	1.26543009281	-0.111564397812
0.0438776016235	0.57376241684	-0.0520311594009	-0.0980463027954	1.26724815369	-0.113508462906
0.0389151573181	0.5728495121	-0.0530035495758	-0.097606420517	1.26646256447	-0.115267276764
0.0335350036621	0.572602510452	-0.0544313192368	-0.0969564914703	1.26566028595	-0.116544961929
0.0302419662476	0.572610378265	-0.0552041530609	-0.0968477725983	1.26502621174	-0.117728710175
0.0305411815643	0.571567296982	-0.055734872818	-0.0999658107758	1.26577830315	-0.119613409042
0.0323741436005	0.572681665421	-0.0561499595642	-0.104997396469	1.26524364948	-0.122596025467
0.0352189540863	0.573625564575	-0.0563170909882	-0.107831716537	1.26421391964	-0.124582052231
0.0354268550873	0.574086666107	-0.0546437501907	-0.108313083649	1.26375424862	-0.125568628311
0.0344071388245	0.574172019958	-0.0545227527618	-0.106465339661	1.26268041134	-0.12610077858
0.0348498821259	0.573417425156	-0.0581412315369	-0.102917194366	1.26199734211	-0.126698493958
0.0406630039215	0.570227622986	-0.0589377880096	-0.0973265171051	1.26092898846	-0.127511978149
0.0502004623413	0.566048145294	-0.0579407215118	-0.0916042327881	1.26046562195	-0.128351688385
0.0598678588867	0.56064081192	-0.0621118545532	-0.0862400531769	1.26003420353	-0.129930973053
0.0698962211609	0.554596185684	-0.073660492897	-0.081613779068	1.25877892971	-0.131685972214
0.08243060112	0.5500395298	-0.0869705677032	-0.0774395465851	1.25751161575	-0.132829189301
0.0906667709351	0.546534776688	-0.0984992980957	-0.0741584300995	1.25621056557	-0.133987426758
0.10130739212	0.541013002396	-0.102966308594	-0.0714626312256	1.25629687309	-0.135479211807
0.113537311554	0.535871267319	-0.103995919228	-0.0691766738892	1.25706803799	-0.137362718582
0.127976179123	0.532732009888	-0.0955048799515	-0.0686166286469	1.25813436508	-0.138847351074
0.13786149025	0.52926158905	-0.100809335709	-0.0694005489349	1.25821554661	-0.140456676483
0.136742115021	0.525465488434	-0.118374109268	-0.070948600769	1.25652897358	-0.141764760017
0.130852937698	0.523717880249	-0.134498476982	-0.0735392570496	1.25329601765	-0.142199516296
0.128276348114	0.521097183228	-0.143135309219	-0.0750727653503	1.25174450874	-0.142003774643
0.12828540802	0.519762992859	-0.147841691971	-0.0753128528595	1.25165247917	-0.14234995842
0.128140449524	0.520711421967	-0.145770788193	-0.0748288631439	1.24948525429	-0.142552733421
0.130713224411	0.52002954483	-0.142236709595	-0.0741372108459	1.24651765823	-0.14209651947
0.130785703659	0.518399715424	-0.140416145325	-0.0750107765198	1.24564421177	-0.141648650169
0.128665924072	0.515296697617	-0.141093015671	-0.0769045352936	1.24630725384	-0.140987873077
0.125452041626	0.512748241425	-0.141392588615	-0.0793085098267	1.24688732624	-0.140331029892
