0.0	-0.0	131.935668945	-106.274002075	86.6985015869	-166.867752075
0.0	-0.0	131.408416748	-107.261917114	87.1278076172	-166.442855835
0.0	-0.0	115.334732056	-107.6352005	87.7677307129	-166.298126221
0.0	-0.0	62.1934204102	-107.551673889	88.0977859497	-165.440002441
0.0	-0.0	42.6647109985	-107.305763245	88.7076263428	-164.744995117
0.0	-0.0	24.3414764404	-107.091110229	88.9626235962	-163.714889526
0.0	-0.0	24.3659152985	-108.034347534	88.9200286865	-163.010009766
0.0	-0.0	23.2907390594	-111.630012512	89.3453369141	-161.666290283
0.0	-0.0	31.8277702332	-116.625411987	89.4852294922	-159.760406494
0.0	-0.0	38.719669342	-122.156066895	89.6692123413	-157.716308594
0.0	-0.0	42.7342300415	52.0144805908	89.8385162354	24.9734172821
