0.0	-0.0	-137.9712677	174.90234375	80.2119216919	-108.29485321
0.0	-0.0	-138.327774048	175.467453003	79.3415908813	-108.325202942
0.0	-0.0	-137.329452515	174.748962402	79.0501861572	-107.698616028
0.0	-0.0	-134.725006104	175.337783813	80.2566452026	-108.131401062
0.0	-0.0	-122.61164856	176.110412598	79.5430374146	-108.097183228
0.0	0.0	-114.279632568	175.220367432	78.0776596069	-104.702552795
0.0	0.0	-115.60774231	175.328720093	77.5493469238	-103.595108032
0.0	0.0	-115.01751709	175.920166016	78.3767547607	-103.216423035
0.0	0.0	-110.091682434	173.809341431	79.3937072754	-102.80241394
0.0	0.0	-100.491752625	172.89175415	79.2606735229	-103.048614502
0.0	0.0	-93.2064361572	174.758529663	80.3250961304	-110.984230042
0.0	0.0	-90.4438018799	173.13684082	84.770690918	-114.918869019
0.0	0.0	-90.5145111084	172.033081055	86.6913452148	-115.367744446
0.0	0.0	-87.8298034668	174.58883667	87.8522415161	-117.740142822
0.0	0.0	-84.1015853882	0.983637928963	89.415512085	64.0841293335
0.0	0.0	-81.7169723511	-155.95324707	87.5645828247	-122.957763672
0.0	0.0	-78.9806976318	-135.103042603	87.4193191528	-126.695716858
0.0	0.0	-74.4413070679	54.9043693542	87.9099349976	54.551738739
0.0	0.0	-70.1872177124	59.8719825745	87.1485443115	52.1605758667
0.0	0.0	-67.2053756714	64.1441192627	86.8065032959	51.2658538818
0.0	0.0	-65.2823867798	70.0767364502	87.8534622192	49.311668396
0.0	0.0	-64.4503250122	71.724029541	89.6429138184	49.5855407715
0.0	0.0	-63.9751472473	72.3410949707	89.9348068237	50.2340545654
0.0	0.0	-63.8741188049	73.3303222656	89.9935760498	50.7933731079
0.0	0.0	-64.7489776611	-104.018890381	89.2111587524	-129.240005493
0.0	0.0	-65.3897476196	-101.05821228	88.4382324219	-127.654953003
