0.0	-0.0	134.260940552	-102.061126709	87.2996673584	-161.715194702
0.0	-0.0	132.840637207	-101.8491745	86.2416152954	-161.881118774
0.0	-0.0	112.659088135	-101.290458679	85.7990722656	-162.774337769
0.0	-0.0	75.2681503296	-100.458312988	85.3750762939	-163.36177063
0.0	-0.0	59.7428398132	-100.312217712	85.1704025269	-163.815872192
0.0	-0.0	62.7924385071	-100.828887939	85.2114639282	-164.093460083
0.0	-0.0	68.4614562988	-100.710830688	84.751914978	-163.782287598
0.0	-0.0	68.7301864624	-102.7004776	84.9573135376	-162.7371521
0.0	-0.0	66.997253418	-106.688987732	85.8597412109	-161.997512817
0.0	-0.0	77.1964950562	-113.066543579	89.3729019165	-161.559249878
0.0	-0.0	92.4555130005	60.6263923645	86.1214675903	18.9050960541
0.0	-0.0	94.0278167725	57.4023208618	84.0336608887	19.2119750977
0.0	-0.0	93.7264938354	57.7858200073	82.8758773804	19.653875351
0.0	-0.0	89.4969024658	59.196762085	81.9029388428	19.5128726959
0.0	-0.0	87.1217651367	59.6795082092	81.958732605	19.4696826935
0.0	-0.0	85.4059524536	59.282535553	82.6371078491	20.1665763855
0.0	-0.0	83.9105682373	58.4640960693	84.312538147	21.1122322083
