0.0	-0.0	130.782150269	-116.140106201	84.8308258057	172.495849609
0.0	-0.0	130.588058472	-117.290626526	85.4544219971	173.291717529
0.0	-0.0	122.191848755	-118.967300415	87.5748443604	174.390457153
0.0	-0.0	114.36365509	54.572479248	88.8790893555	-4.01991081238
0.0	-0.0	109.466545105	45.026096344	87.8603820801	-1.55119407177
0.0	-0.0	105.840988159	35.3656005859	87.1509780884	1.84495770931
0.0	-0.0	97.6669998169	26.755657196	86.155166626	3.3916683197
0.0	-0.0	90.0992431641	19.2022438049	86.1370391846	4.56027173996
0.0	-0.0	79.7972259521	11.4987230301	86.3774414062	6.15852546692
0.0	-0.0	73.3932418823	3.43769717216	86.6025695801	8.39343643188
0.0	-0.0	72.5986557007	-2.94553470612	87.8054351807	9.97904968262
0.0	-0.0	74.4388275146	-6.59886884689	89.9085693359	10.8014907837
0.0	-0.0	79.955657959	171.428863525	88.0362014771	-168.487701416
0.0	-0.0	83.6556243896	169.480941772	87.4126815796	-167.711029053
