-34.331993103	23.0405845642	129.675918579	6.96952152252	-4.44108295441	0.958864808083
-34.7572517395	22.8207473755	128.852584839	6.55564785004	-4.66803741455	1.07395660877
-34.323802948	22.121181488	126.961982727	6.08336019516	-4.93334007263	1.26212656498
-34.3473701477	21.2428226471	123.493675232	5.53315210342	-4.43445444107	1.57656908035
-33.0667800903	22.0997085571	116.940086365	4.93718957901	-3.30782628059	1.90942311287
-31.6391983032	22.2047386169	108.241882324	4.54250764847	-2.6558277607	2.22342443466
-30.9178466797	20.5808506012	102.902732849	4.32782268524	-2.36568689346	2.35161375999
