0.0137515068054	0.736433982849	0.0915870666504	-0.130496025085	1.30267834663	-0.138018846512
0.0134325027466	0.734812259674	0.0897639989853	-0.130791664124	1.3026548624	-0.138200759888
0.0106844902039	0.736597061157	0.0889226198196	-0.131227016449	1.30247223377	-0.137949824333
-0.00131416320801	0.728346586227	0.0886381864548	-0.131721258163	1.30108821392	-0.136879205704
-0.0186767578125	0.718755245209	0.0807063579559	-0.132256507874	1.29892790318	-0.135348081589
-0.0291266441345	0.729686975479	0.0755157470703	-0.133059263229	1.29623568058	-0.132928371429
-0.0517265796661	0.734290599823	0.0690231323242	-0.133770942688	1.29351139069	-0.129940152168
-0.0706868171692	0.729992866516	0.0689578056335	-0.13508272171	1.28997421265	-0.126792788506
-0.0843670368195	0.731461286545	0.0688215494156	-0.137421607971	1.28643655777	-0.123790740967
-0.0891404151917	0.732721805573	0.0670955181122	-0.140294075012	1.28345656395	-0.121640443802
-0.0882961750031	0.731256961823	0.0670095682144	-0.143670082092	1.28113567829	-0.119840621948
-0.0888171195984	0.727178573608	0.0642580986023	-0.148193359375	1.27863311768	-0.11872625351
-0.0915081501007	0.7207903862	0.0597729682922	-0.154130220413	1.27661824226	-0.118329048157
