0.0	-0.0	131.438522339	63.7920417786	89.5422668457	-8.44536685944
0.0	-0.0	130.639434814	62.9159240723	88.4815826416	-7.78693008423
0.0	-0.0	122.114273071	60.069732666	85.2181549072	-6.7863240242
0.0	-0.0	86.4166030884	55.6211700439	79.7900085449	-4.56951570511
0.0	-0.0	51.8358306885	51.7075614929	78.7148971558	-1.8303681612
0.0	-0.0	18.722278595	48.006072998	83.6836547852	1.31403005123
0.0	-0.0	3.54686689377	-136.268508911	89.5196456909	-175.636276245
0.0	0.0	-19.7153682709	-140.456420898	83.4475479126	-172.512069702
0.0	0.0	-48.6981430054	-145.796234131	75.745010376	-168.41734314
0.0	0.0	-62.488494873	-152.396850586	66.4495697021	-164.774185181
0.0	0.0	-73.6019973755	-158.514205933	60.8499984741	-162.613037109
0.0	0.0	-86.7253189087	-163.422042847	56.9951782227	-160.764328003
0.0	0.0	-96.6279830933	-167.47454834	52.0364456177	-159.042816162
0.0	0.0	-101.827651978	-171.33480835	46.0226325989	-157.779006958
0.0	0.0	-104.428771973	-173.136474609	42.2607269287	-156.950119019
0.0	0.0	-106.771865845	-173.059112549	40.8340377808	-155.837387085
0.0	0.0	-103.9871521	-174.578704834	37.5798454285	-155.662063599
0.0	0.0	-89.6555252075	-177.77734375	35.0126953125	-156.661834717
0.0	0.0	-65.4237670898	-179.510162354	34.495513916	-157.358795166
0.0	0.0	-64.4654846191	179.918075562	34.953994751	-157.092407227
0.0	0.0	-66.978225708	179.293914795	35.0021362305	-156.283920288
0.0	0.0	-71.0488586426	179.26663208	36.3007469177	-155.13999939
0.0	0.0	-72.9398956299	179.462768555	40.4050559998	-152.942352295
0.0	0.0	-77.8240509033	177.678192139	45.2069282532	-149.317016602
0.0	0.0	-78.8684997559	173.920913696	48.271774292	-145.39730835
0.0	0.0	-80.2929153442	170.046157837	48.7835426331	-142.849395752
0.0	0.0	-84.2265777588	168.255737305	47.7454910278	-141.4453125
0.0	0.0	-85.1277313232	167.310562134	46.7005004883	-139.846115112
0.0	0.0	-86.576751709	165.013275146	47.2234992981	-137.543746948
0.0	0.0	-92.4619369507	163.187698364	46.6042060852	-135.315093994
0.0	0.0	-101.5623703	165.34135437	41.7559089661	-136.056396484
0.0	0.0	-103.093193054	167.326004028	40.108997345	-135.937652588
0.0	0.0	-105.143493652	166.882827759	38.552066803	-134.747192383
0.0	0.0	-108.707695007	165.160064697	34.8933448792	-134.055404663
0.0	0.0	-111.997421265	163.234649658	29.2819461823	-134.951416016
0.0	0.0	-110.969528198	160.712860107	26.0212116241	-136.213134766
0.0	0.0	-111.859550476	158.180541992	23.2140731812	-137.931274414
0.0	0.0	-112.465118408	158.501693726	23.2462997437	-139.38659668
0.0	0.0	-111.234542847	159.246704102	24.050031662	-140.371292114
0.0	0.0	-104.877212524	159.047073364	25.5930557251	-140.58291626
0.0	0.0	-105.980613708	157.282608032	27.4229736328	-140.996536255
0.0	0.0	-104.466018677	150.520263672	29.1413917542	-142.168670654
0.0	0.0	-104.762229919	142.876602173	30.4878025055	-142.964019775
0.0	0.0	-104.955307007	138.880950928	29.9160175323	-142.311920166
0.0	0.0	-105.21837616	140.112106323	23.9958133698	-142.594802856
0.0	0.0	-107.55178833	143.412506104	20.6877632141	-143.043746948
0.0	0.0	-106.940483093	143.77482605	19.6073665619	-142.46194458
0.0	0.0	-106.736541748	142.674530029	16.7723712921	-142.224517822
0.0	0.0	-106.69152832	142.841888428	14.7635183334	-142.043838501
0.0	0.0	-106.439704895	143.286315918	13.3224964142	-142.423187256
0.0	0.0	-106.206199646	142.36869812	11.6919527054	-142.490921021
0.0	0.0	-100.350227356	143.693939209	13.5388364792	-141.324172974
0.0	0.0	-85.2448425293	148.956680298	18.0906791687	-139.255722046
0.0	0.0	-80.0737075806	153.020706177	20.3396720886	-137.921447754
0.0	0.0	-78.8189697266	156.42175293	23.5923309326	-136.510406494
0.0	0.0	-78.317199707	160.892715454	28.3698139191	-135.065383911
0.0	0.0	-81.0072479248	165.587661743	29.9240932465	-135.393692017
0.0	0.0	-81.0254745483	168.303985596	27.5814208984	-136.653991699
