-0.173443078995	0.896767616272	0.13860809803	-0.115564823151	1.28640139103	-0.0323061943054
-0.174476861954	0.898404359818	0.137292146683	-0.115758180618	1.28667271137	-0.0337923765182
-0.17425942421	0.89804315567	0.136449575424	-0.11638712883	1.28728163242	-0.0355885028839
-0.173043251038	0.896785736084	0.136401176453	-0.117300748825	1.29014372826	-0.0375036001205
-0.170193195343	0.897352218628	0.140149116516	-0.116217851639	1.29182434082	-0.0407003164291
-0.161591053009	0.904006004333	0.148421764374	-0.114017963409	1.29161274433	-0.0448368787766
-0.146553754807	0.908232688904	0.159423112869	-0.112277984619	1.29152071476	-0.048755645752
-0.132563829422	0.909257888794	0.165931463242	-0.111185312271	1.29164588451	-0.051950097084
-0.121366024017	0.910311460495	0.167715072632	-0.110447883606	1.29159808159	-0.0544376373291
-0.109446048737	0.910860538483	0.170503616333	-0.109947443008	1.29157912731	-0.0563418865204
-0.099672794342	0.908365011215	0.173892498016	-0.109342336655	1.29165303707	-0.057626247406
-0.0990867614746	0.902194738388	0.174896001816	-0.108584403992	1.29185330868	-0.0586445331573
-0.110035896301	0.898210048676	0.170827269554	-0.107909679413	1.29300701618	-0.0591998100281
-0.121643781662	0.897474050522	0.164553880692	-0.106381893158	1.29332196712	-0.0595117807388
-0.12909078598	0.895237445831	0.159794807434	-0.102788448334	1.29131627083	-0.0605078935623
-0.132163524628	0.893870830536	0.1583725214	-0.0975193977356	1.29083848	-0.0630028247833
-0.135112762451	0.894944906235	0.157687067986	-0.0907452106476	1.29110658169	-0.0657386779785
-0.138009548187	0.896570920944	0.15561902523	-0.0858364105225	1.29219353199	-0.0670745372772
-0.135644197464	0.89683508873	0.154804587364	-0.0829880237579	1.29290962219	-0.0669671297073
-0.128845691681	0.89510846138	0.155515670776	-0.081524848938	1.29395115376	-0.0666723251343
-0.118119478226	0.894366979599	0.158149838448	-0.0822076797485	1.29445624352	-0.0660231113434
-0.100631713867	0.896614313126	0.165255784988	-0.0830285549164	1.29527568817	-0.0648345947266
-0.0780868530273	0.896896839142	0.174563765526	-0.0827353000641	1.29553222656	-0.0640122890472
-0.0569889545441	0.896406650543	0.181557059288	-0.0817899703979	1.2952709198	-0.0632376670837
-0.0468831062317	0.897641420364	0.183122873306	-0.0814342498779	1.29507935047	-0.0619118213654
-0.0386497974396	0.898537158966	0.184096097946	-0.0815737247467	1.29479336739	-0.0605721473694
-0.0296945571899	0.898170948029	0.185066342354	-0.0814759731293	1.29452967644	-0.0596910715103
-0.0200750827789	0.894790410995	0.186337351799	-0.081068277359	1.29418301582	-0.0595631599426
-0.0145974159241	0.891472816467	0.18674993515	-0.0805850028992	1.29404807091	-0.0594782829285
-0.012403011322	0.889052152634	0.186074733734	-0.0805130004883	1.29374051094	-0.0597347021103
