0.0	-0.0	131.194030762	75.7075195312	87.9448852539	14.1810789108
0.0	-0.0	130.743469238	75.8572998047	88.0870285034	13.1260204315
0.0	-0.0	125.332351685	74.0330886841	85.8473587036	12.2158842087
0.0	-0.0	110.524925232	62.4183235168	79.4371871948	11.8257360458
0.0	-0.0	89.2952346802	49.4250259399	75.1231231689	12.7657718658
0.0	-0.0	81.0909423828	40.0136642456	72.1825027466	13.4322538376
0.0	-0.0	75.0148544312	33.4888114929	69.1004486084	13.3688173294
0.0	-0.0	102.296775818	24.6460609436	63.3890113831	11.3372144699
0.0	-0.0	100.5520401	15.1369152069	56.0863265991	8.00490283966
0.0	-0.0	100.992835999	8.29202270508	50.48802948	4.82352972031
0.0	-0.0	102.125747681	4.55724906921	47.3740310669	2.73362731934
0.0	-0.0	104.220169067	3.10290551186	44.9472923279	0.965195178986
0.0	-0.0	105.119155884	2.64822602272	43.809425354	-0.0954379439354
