0.0283119678497	0.725665330887	0.0332279205322	-0.140956163406	1.30226290226	-0.179496526718
0.0281555652618	0.726055622101	0.0338959693909	-0.140797615051	1.30246078968	-0.179962158203
0.0278639793396	0.726642608643	0.0351428985596	-0.140686035156	1.30344974995	-0.18025803566
0.0249221324921	0.729213476181	0.0341589450836	-0.144019126892	1.30873203278	-0.180436134338
0.0208978652954	0.728050947189	0.0325338840485	-0.148360729218	1.31528747082	-0.181646823883
0.0173592567444	0.72488951683	0.0322649478912	-0.150873184204	1.32122218609	-0.183420419693
0.013575553894	0.723324537277	0.0321280956268	-0.15178155899	1.32684934139	-0.185563802719
0.0111465454102	0.722393274307	0.0336334705353	-0.151366710663	1.33155155182	-0.188443660736
0.0106573104858	0.721373081207	0.0351696014404	-0.149114608765	1.33498215675	-0.191864490509
