0.0919058322906	0.751298904419	0.0841085910797	-0.136627912521	1.30513072014	-0.109391570091
0.0916993618011	0.753537893295	0.0871852636337	-0.138302087784	1.30549907684	-0.110036849976
0.09104180336	0.753810882568	0.0918192863464	-0.13969707489	1.30603265762	-0.110487222672
0.0835511684418	0.736168146133	0.0969628095627	-0.141415596008	1.30643260479	-0.110489845276
0.0406727790833	0.726555109024	0.0907642841339	-0.143398523331	1.30671024323	-0.110518455505
-0.00568389892578	0.722877979279	0.0795435905457	-0.144925355911	1.306853652	-0.110296010971
-0.0387568473816	0.715317249298	0.0767679214478	-0.147320508957	1.30686783791	-0.109829187393
-0.0595605373383	0.713670492172	0.0708884000778	-0.151208877563	1.30723512173	-0.108769178391
-0.0716738700867	0.703556776047	0.0555410385132	-0.156695842743	1.30732476711	-0.107274413109
-0.0644335746765	0.695006847382	0.0533928871155	-0.163108587265	1.30751109123	-0.105785608292
-0.0525736808777	0.691358327866	0.0560731887817	-0.169954538345	1.30766606331	-0.103931069374
