0.0	-0.0	132.72593689	60.2191314697	85.4901885986	-5.57512426376
0.0	-0.0	132.427642822	60.2570877075	85.2015380859	-5.50689172745
0.0	-0.0	130.384796143	60.1759223938	85.0413131714	-5.52068805695
0.0	-0.0	117.147659302	60.2330818176	85.2152404785	-4.95831251144
0.0	-0.0	99.3364181519	58.8652076721	79.9330978394	-3.83302521706
0.0	-0.0	88.6800231934	52.832321167	69.3833770752	-3.49907922745
0.0	-0.0	74.5815200806	45.3597259521	60.614276886	-3.44905900955
0.0	-0.0	52.98072052	38.8331680298	55.9984321594	-3.56588959694
0.0	-0.0	42.1390304565	33.663608551	48.4485015869	-4.05351305008
0.0	-0.0	30.1296291351	29.0320205688	40.1562767029	-3.59596657753
0.0	-0.0	21.9974708557	24.2753200531	34.0797691345	-2.99268484116
0.0	-0.0	23.0975379944	18.5695075989	30.1931800842	-3.05255961418
0.0	-0.0	22.6779575348	11.8230228424	26.8826255798	-1.45217013359
0.0	-0.0	25.0048236847	6.35447311401	24.8761329651	1.01815009117
0.0	-0.0	27.2032337189	4.49972200394	24.9268569946	2.07266688347
0.0	-0.0	31.4500637054	4.61894989014	26.6431312561	2.09093880653
0.0	-0.0	38.451839447	4.15296411514	28.7865943909	2.27024102211
0.0	-0.0	43.042766571	3.14825844765	30.4669322968	2.75724363327
0.0	-0.0	44.2309379578	3.13811302185	30.7303218842	2.9864757061
0.0	-0.0	52.9051856995	4.04380178452	29.0820732117	3.13025140762
0.0	-0.0	57.2456550598	4.78105640411	26.7137546539	3.15244317055
