-58.0559043884	-8.92964553833	139.771835327	5.94416093826	0.266939014196	-1.6392582655
-57.8643760681	-8.8046169281	140.084197998	5.8143119812	0.0942519903183	-1.5929402113
-57.911857605	-9.23177433014	139.195114136	5.81902647018	-0.157027766109	-1.53042066097
-57.9179229736	-10.1025314331	136.111434937	5.65253829956	-0.895261704922	-1.39268708229
-56.884059906	-11.275935173	129.304855347	4.61986160278	-3.98553395271	-1.21098613739
-56.1922111511	-10.6814432144	123.216217041	2.41804122925	-7.56422901154	-0.943341374397
-56.3524894714	-9.49595355988	120.664718628	0.429768592119	-9.41333198547	-0.891108453274
-56.4151306152	-10.1913566589	114.697753906	-0.928349971771	-10.9480381012	-1.27093160152
-55.5539093018	-13.8253059387	93.7198181152	-2.31796360016	-14.5288105011	-1.36270451546
-53.7825927734	-14.688750267	82.0557250977	-3.29910874367	-17.5619449615	-1.24647545815
-48.4656562805	-11.9347047806	60.1570625305	-3.82635235786	-19.0015926361	-1.15592265129
-51.1939544678	-10.2622814178	61.7482452393	-4.38530397415	-19.3833084106	-1.03341627121
-51.0300750732	-8.96786594391	58.9449462891	-5.59563827515	-19.7331390381	-0.468634814024
-50.6669235229	-8.57348251343	56.4610786438	-7.96069002151	-20.5306758881	0.493690013885
-50.0234375	-8.56279468536	53.1096954346	-9.64926147461	-21.8327045441	0.979522287846
-46.4290657043	-6.23399591446	46.0123138428	-10.0203332901	-23.4265365601	0.980325460434
