-0.16445684433	0.712255954742	-0.00482261180878	-0.255037784576	1.29318785667	-0.247083187103
-0.164243936539	0.712420940399	-0.0056324005127	-0.254995822906	1.29345798492	-0.249007940292
-0.167605400085	0.710973501205	-0.00489211082458	-0.255270719528	1.2937797308	-0.250071287155
-0.170075416565	0.705319643021	0.00230622291565	-0.256704330444	1.29390919209	-0.250202417374
-0.16893362999	0.709293842316	0.0066704750061	-0.258705377579	1.29408609867	-0.249222517014
-0.172679901123	0.707623243332	0.00368416309357	-0.260936737061	1.29420018196	-0.246831417084
-0.176505804062	0.704519510269	-0.000654458999634	-0.263978242874	1.29416060448	-0.244189977646
-0.176475286484	0.699895620346	-0.000318765640259	-0.266734361649	1.29438197613	-0.243304014206
-0.176646709442	0.698192834854	0.000139951705933	-0.268939971924	1.29539430141	-0.244104266167
-0.176064491272	0.699786186218	0.00235319137573	-0.270762443542	1.29778862	-0.24588572979
-0.176129579544	0.702917098999	0.00534820556641	-0.272916316986	1.30016887188	-0.247290015221
-0.177364826202	0.705812931061	0.00729751586914	-0.274557590485	1.30055761337	-0.247398376465
-0.180468320847	0.70893239975	0.00740122795105	-0.276192903519	1.29822671413	-0.244736671448
-0.182829618454	0.708506584167	0.00552010536194	-0.277747392654	1.29600644112	-0.241250753403
-0.184439659119	0.705873250961	0.002774477005	-0.279126167297	1.29574203491	-0.238591194153
-0.184798240662	0.704258203506	0.00120365619659	-0.280069828033	1.29566681385	-0.237048149109
-0.185091972351	0.704180240631	0.00113749504089	-0.280438184738	1.29583013058	-0.23636507988
-0.185646772385	0.706082582474	0.00232458114624	-0.280073165894	1.29580175877	-0.236002922058
