0.0	-0.0	136.23890686	66.3255157471	86.4847946167	2.2636475563
0.0	-0.0	135.972824097	66.1681671143	86.6327285767	2.73857402802
0.0	-0.0	130.467102051	65.1098709106	86.1437454224	3.62310957909
0.0	-0.0	115.593299866	61.4781646729	80.6561431885	4.92118358612
0.0	-0.0	110.300239563	57.2985496521	69.0424957275	4.99504184723
0.0	-0.0	108.000137329	54.8109703064	57.6053314209	4.02021169662
0.0	-0.0	109.556610107	54.4471168518	45.735824585	2.69262218475
0.0	-0.0	110.939208984	55.3973999023	34.0013809204	0.441342264414
0.0	-0.0	114.393005371	58.4086952209	20.7281494141	-3.11687660217
0.0	-0.0	117.890556335	66.196723938	8.87338829041	-9.7398109436
0.0	-0.0	113.611732483	76.8209838867	0.695652544498	-17.2124958038
0.0	-0.0	111.073448181	84.9617767334	-4.7341594696	-22.4734077454
0.0	-0.0	112.168785095	88.3999557495	-9.44784164429	-24.7376346588
0.0	-0.0	112.240432739	92.3214416504	-14.0065040588	-28.4019908905
0.0	-0.0	96.7680892944	98.1580123901	-16.3936519623	-33.9638557434
0.0	-0.0	76.2238082886	101.341575623	-16.1136360168	-36.5279121399
0.0	-0.0	73.6260147095	101.970619202	-14.7393856049	-37.7279624939
0.0	-0.0	66.7103805542	101.436134338	-11.8724918365	-38.3972930908
0.0	-0.0	56.5496788025	100.214477539	-8.21032428741	-37.5091438293
0.0	-0.0	43.3502082825	98.4316558838	-3.59007906914	-36.2937736511
0.0	-0.0	42.5836334229	95.8524780273	2.21280002594	-34.1842880249
0.0	-0.0	51.5469932556	92.5524597168	7.55851745605	-31.177028656
0.0	-0.0	76.1906661987	90.1850585938	10.2976236343	-29.0744094849
0.0	-0.0	84.6194534302	88.5457839966	11.6832294464	-27.4693698883
0.0	-0.0	89.3632354736	86.7595443726	12.2701034546	-25.9458599091
0.0	-0.0	92.6650009155	85.2180938721	12.1832427979	-24.5197467804
0.0	-0.0	95.1563339233	83.6975097656	12.5798377991	-23.3338127136
0.0	-0.0	95.4870223999	82.4988174438	12.0501880646	-22.7583999634
0.0	-0.0	96.1787033081	81.9567642212	10.5951013565	-22.4126529694
