-0.291277885437	0.902488470078	0.0788078308105	-0.232132434845	1.31981611252	-0.104154109955
-0.28947520256	0.901754140854	0.0788005590439	-0.232671260834	1.31970572472	-0.104915380478
-0.287149906158	0.902456998825	0.0800929069519	-0.233219385147	1.31967878342	-0.105389356613
-0.279435634613	0.901484251022	0.0866775512695	-0.233082532883	1.31754410267	-0.104682683945
-0.267292261124	0.902855634689	0.0999958515167	-0.231099128723	1.31339991093	-0.102678775787
-0.261000156403	0.907949209213	0.109086632729	-0.228008985519	1.30770790577	-0.100331783295
-0.25833106041	0.909123182297	0.114079713821	-0.225495576859	1.30130815506	-0.0978269577026
-0.254517555237	0.904408454895	0.116509914398	-0.223609447479	1.2965092659	-0.095703125
-0.248575687408	0.89170050621	0.119564294815	-0.221730709076	1.2933088541	-0.0938217639923
-0.246371507645	0.882352113724	0.117975711823	-0.219626903534	1.29103195667	-0.0916938781738
-0.243467330933	0.875895261765	0.11840569973	-0.218221902847	1.28782773018	-0.0900055170059
-0.24125623703	0.869817495346	0.120255827904	-0.215682268143	1.28523218632	-0.08815574646
-0.239488840103	0.854052782059	0.122913479805	-0.212622404099	1.28339612484	-0.0872938632965
-0.233787059784	0.816486120224	0.128022909164	-0.209821224213	1.28139019012	-0.0868645906448
-0.225472211838	0.782799482346	0.128834486008	-0.207415342331	1.2794315815	-0.0855541229248
-0.220373630524	0.771430015564	0.123636007309	-0.205988645554	1.27870321274	-0.0839359760284
-0.215236902237	0.759289264679	0.120073795319	-0.205631494522	1.27868592739	-0.0827331542969
-0.207903623581	0.735773563385	0.116288423538	-0.206382513046	1.27840352058	-0.0820342302322
-0.203974962234	0.713598489761	0.105078697205	-0.207386255264	1.27865588665	-0.0810995101929
-0.2022960186	0.705304384232	0.093847990036	-0.209140062332	1.27888178825	-0.079975605011
-0.202208518982	0.708370923996	0.0895495414734	-0.21115899086	1.27894306183	-0.0785121917725
-0.200351238251	0.70768737793	0.0903306007385	-0.212676525116	1.27993929386	-0.0780193805695
-0.200758218765	0.707827568054	0.0922818183899	-0.214156150818	1.28164339066	-0.0781753063202
-0.203131198883	0.710958957672	0.094872713089	-0.216089487076	1.28383684158	-0.0792768001556
-0.210919618607	0.717408418655	0.0971186161041	-0.219104290009	1.28659212589	-0.0802822113037
-0.223516464233	0.730442523956	0.100001335144	-0.223019599915	1.28899693489	-0.0805068016052
-0.23432302475	0.755546331406	0.106434464455	-0.227743625641	1.29117548466	-0.080326795578
-0.214219808578	0.77881360054	0.124898910522	-0.232829809189	1.29193556309	-0.0796308517456
-0.168640613556	0.789811611176	0.138771653175	-0.237989664078	1.29172074795	-0.0792061090469
-0.106233119965	0.786239385605	0.147207856178	-0.242840528488	1.29181861877	-0.0797336101532
-0.0453145503998	0.778645038605	0.144716501236	-0.247006416321	1.29236376286	-0.0800119638443
-0.00790905952454	0.786546230316	0.136816620827	-0.250542640686	1.29369139671	-0.0788595676422
0.00642371177673	0.800800085068	0.131553053856	-0.253945112228	1.29579389095	-0.0768949985504
0.00125789642334	0.813925743103	0.128085255623	-0.258145809174	1.29819619656	-0.0739426612854
-0.0119960308075	0.825452327728	0.128204703331	-0.264000892639	1.30005455017	-0.0685398578644
-0.0265698432922	0.82755112648	0.131367921829	-0.271910190582	1.30115926266	-0.0585819482803
-0.043304681778	0.821625232697	0.13948071003	-0.28053355217	1.29803729057	-0.0448651313782
-0.0532600879669	0.821682214737	0.14923119545	-0.287764787674	1.29060924053	-0.0300693511963
-0.0420989990234	0.825088977814	0.154883146286	-0.29136300087	1.2828861475	-0.0188846588135
-0.0307514667511	0.825950145721	0.153489589691	-0.290895223618	1.27812314034	-0.013171672821
-0.0288686752319	0.825069665909	0.148097157478	-0.287632703781	1.2775529623	-0.00902533531189
-0.0290613174438	0.819303274155	0.140462398529	-0.284073829651	1.27847230434	-0.00651288032532
-0.0345144271851	0.806551933289	0.131610870361	-0.280606508255	1.2772346735	-0.00615990161896
-0.0414252281189	0.796417474747	0.123924255371	-0.277578115463	1.27224838734	-0.00686538219452
-0.0500674247742	0.800068855286	0.118609666824	-0.273738384247	1.26863980293	-0.0102725028992
-0.0738756656647	0.807492017746	0.116796731949	-0.268341779709	1.2692387104	-0.0175964832306
-0.0923540592194	0.812638521194	0.114637255669	-0.262756109238	1.27184295654	-0.0258021354675
-0.100811004639	0.823603153229	0.110014200211	-0.258307218552	1.27613830566	-0.0357749462128
-0.0997247695923	0.836439609528	0.0903444290161	-0.255182266235	1.27927684784	-0.0459489822388
-0.0839111804962	0.838042974472	0.0649449825287	-0.253618478775	1.27916502953	-0.0530414581299
