0.12305855751	0.754719257355	-0.0271122455597	-0.134214401245	1.30305957794	-0.180199623108
0.12403011322	0.754437923431	-0.0275859832764	-0.134413480759	1.30312788486	-0.179458856583
0.123676538467	0.756308555603	-0.0260547399521	-0.134996891022	1.30390679836	-0.178485155106
0.115266799927	0.755110502243	-0.0231168270111	-0.137754201889	1.30642306805	-0.1772108078
0.10212635994	0.747604846954	-0.0195014476776	-0.141577005386	1.3101798296	-0.175225019455
0.0922198295593	0.739146947861	-0.0125830173492	-0.144586086273	1.31658637524	-0.174082279205
0.0833237171173	0.737847089767	-0.00858199596405	-0.146160125732	1.32106888294	-0.173937439919
0.0703859329224	0.734178543091	-0.00581669807434	-0.147982358932	1.32447421551	-0.173417806625
0.0608367919922	0.7220723629	-0.001220703125	-0.151482105255	1.32733774185	-0.173137903214
0.0542418956757	0.718372821808	-0.000512957572937	-0.155210018158	1.32989561558	-0.173937439919
0.0523653030396	0.711259126663	-0.000556230545044	-0.15736246109	1.33212685585	-0.175683498383
0.0518970489502	0.704424142838	-0.00166594982147	-0.157307624817	1.33446002007	-0.17927479744
0.055675983429	0.700757265091	-0.000304222106934	-0.155693054199	1.33550071716	-0.182837247849
0.0592994689941	0.702075719833	0.00208747386932	-0.153750181198	1.33523893356	-0.184884548187
