-0.216127872467	0.886667966843	0.133314371109	-0.113646507263	1.2882117033	-0.0355443954468
-0.216015815735	0.887126684189	0.134400606155	-0.113798379898	1.28837049007	-0.0346693992615
-0.215933084488	0.886593818665	0.136067867279	-0.114141225815	1.28868031502	-0.0340490341187
-0.21436548233	0.887988328934	0.139566898346	-0.114516973495	1.29290747643	-0.0337691307068
-0.210238218307	0.890910625458	0.146806240082	-0.11575460434	1.30350244045	-0.0356175899506
-0.206590175629	0.895355939865	0.152585148811	-0.118089914322	1.31337547302	-0.0402357578278
-0.20344543457	0.901109695435	0.157066345215	-0.121319293976	1.31837272644	-0.0454177856445
-0.202472686768	0.903994321823	0.158274412155	-0.124965906143	1.31995761395	-0.0498374700546
-0.20369386673	0.90358042717	0.155844688416	-0.128359079361	1.31573343277	-0.050817489624
-0.203520536423	0.905011415482	0.151147961617	-0.130021333694	1.31161725521	-0.0488218069077
-0.201113462448	0.899180173874	0.149287939072	-0.132860422134	1.31115078926	-0.0471224784851
-0.196766376495	0.893835783005	0.150505304337	-0.137914419174	1.31179130077	-0.0438125133514
-0.190702199936	0.893128871918	0.153116345406	-0.145111083984	1.31282675266	-0.0400071144104
-0.188127756119	0.890930652618	0.153944253922	-0.154476165771	1.31489789486	-0.0374503135681
-0.18843626976	0.88868188858	0.155799627304	-0.167175531387	1.31641328335	-0.0355169773102
-0.18833065033	0.887153863907	0.16123020649	-0.180451154709	1.31456649303	-0.0349369049072
-0.185255765915	0.887251853943	0.170929551125	-0.190588235855	1.31274449825	-0.0350992679596
-0.182461977005	0.893758058548	0.177216649055	-0.19606757164	1.31385922432	-0.0358544588089
-0.180120944977	0.8985850811	0.180310368538	-0.196289539337	1.31622231007	-0.0371690988541
-0.177324056625	0.900853872299	0.181766271591	-0.192015171051	1.31712758541	-0.0385162830353
-0.179125785828	0.900559663773	0.180470943451	-0.185137748718	1.31571626663	-0.039546251297
-0.186048984528	0.89808511734	0.177941441536	-0.177449941635	1.31413531303	-0.0406892299652
-0.193516254425	0.895819187164	0.176029920578	-0.171259641647	1.31340909004	-0.0420571565628
-0.201522350311	0.894931793213	0.174085855484	-0.167333364487	1.31410968304	-0.0429620742798
-0.208977937698	0.895488023758	0.171954035759	-0.166553735733	1.31553089619	-0.0432381629944
-0.215986013412	0.896250486374	0.167578577995	-0.167409658432	1.31701517105	-0.0427875518799
-0.219173431396	0.897255897522	0.165273308754	-0.16926908493	1.31794631481	-0.0414494276047
-0.217292308807	0.89736366272	0.167667984962	-0.171007156372	1.31925308704	-0.0408569574356
-0.211263418198	0.896738529205	0.175372362137	-0.172045707703	1.32037901878	-0.0408229827881
-0.202164411545	0.897830247879	0.185532093048	-0.17277431488	1.32045781612	-0.0403203964233
-0.196439027786	0.902193307877	0.190894365311	-0.173626899719	1.32058525085	-0.0399433374405
-0.194196462631	0.902730941772	0.192354679108	-0.174529314041	1.32076299191	-0.0391004085541
-0.198882818222	0.896527290344	0.18852686882	-0.177067279816	1.32071435452	-0.0382878780365
-0.202217102051	0.895193815231	0.184797167778	-0.180780410767	1.31970489025	-0.0361635684967
-0.204783916473	0.895324468613	0.182990670204	-0.184561729431	1.3184813261	-0.0330642461777
-0.205661296844	0.895800828934	0.18365240097	-0.188648939133	1.31793618202	-0.0296300649643
