-0.0975487232208	0.740806341171	-0.00940907001495	-0.180791378021	1.30647993088	-0.260071873665
-0.0981044769287	0.739861011505	-0.0095009803772	-0.181362867355	1.30706393719	-0.259881973267
-0.0989000797272	0.738700151443	-0.00926828384399	-0.182419061661	1.30780565739	-0.258955717087
-0.100946903229	0.735978841782	-0.0102713108063	-0.186064958572	1.30851757526	-0.256912708282
-0.103270769119	0.731794595718	-0.011834859848	-0.192310571671	1.3083190918	-0.2538844347
-0.106477975845	0.72608757019	-0.0141019821167	-0.200519561768	1.30816328526	-0.251459598541
-0.108147144318	0.719128608704	-0.0151801109314	-0.208190202713	1.30789160728	-0.250099778175
-0.110436201096	0.717425346375	-0.0142114162445	-0.214646100998	1.30712497234	-0.249024391174
-0.111921787262	0.717709064484	-0.0117753744125	-0.219756126404	1.30567109585	-0.24745798111
-0.113998174667	0.718426465988	-0.00862383842468	-0.226464748383	1.30442297459	-0.245920658112
-0.11723279953	0.719559669495	-0.00687503814697	-0.234384298325	1.30436885357	-0.244469642639
-0.122666120529	0.724864959717	-0.00207448005676	-0.241740465164	1.30321979523	-0.242672681808
-0.12322306633	0.728177785873	0.00588822364807	-0.245565414429	1.30147600174	-0.239744663239
