0.0	-0.0	135.888397217	73.9484176636	89.1502227783	11.006026268
0.0	-0.0	135.628677368	73.3653182983	88.3242721558	11.1363611221
0.0	-0.0	128.739364624	72.2163009644	85.8986434937	11.3991327286
0.0	-0.0	110.98790741	70.1064453125	83.3991851807	12.0938911438
0.0	-0.0	86.9719085693	68.1121368408	85.7322769165	13.3197879791
0.0	-0.0	72.5596923828	-113.93637085	86.7999343872	-165.036895752
0.0	-0.0	45.5519371033	-116.380554199	79.8583297729	-163.962188721
0.0	-0.0	33.8925247192	-119.152984619	73.0120773315	-162.765686035
0.0	-0.0	12.1300983429	-121.947921753	65.725944519	-160.970550537
0.0	0.0	-0.230008304119	-123.898590088	58.9921569824	-158.845870972
0.0	0.0	-14.0455989838	-125.32824707	54.5513343811	-156.238510132
0.0	0.0	-20.5569190979	-127.253074646	50.4433059692	-154.192016602
0.0	0.0	-41.8241996765	-129.588012695	47.1336402893	-152.619308472
0.0	0.0	-53.5620498657	-132.160797119	44.1271781921	-151.330917358
0.0	0.0	-60.7835960388	-134.788803101	41.8296585083	-149.727279663
0.0	0.0	-60.108165741	-137.918838501	40.5862808228	-147.912307739
0.0	0.0	-60.4359207153	-141.297363281	40.0434532166	-145.952056885
0.0	0.0	-66.677192688	-144.713104248	39.8475761414	-143.861831665
0.0	0.0	-71.0749588013	-148.025650024	39.7297134399	-141.695724487
0.0	0.0	-75.56224823	-152.559844971	39.8917388916	-139.363204956
0.0	0.0	-76.9326705933	-158.09197998	39.4560966492	-136.972839355
0.0	0.0	-79.1222839355	-163.409332275	38.1295661926	-134.846633911
0.0	0.0	-82.5787353516	-166.106658936	37.1383514404	-133.462265015
0.0	0.0	-91.6122360229	-165.728530884	35.9400939941	-132.990066528
0.0	0.0	-93.2268829346	-164.269561768	35.6906700134	-131.997817993
0.0	0.0	-93.1576766968	-164.338302612	35.3509101868	-130.439224243
0.0	0.0	-92.1026000977	-166.072845459	34.2699623108	-128.549530029
0.0	0.0	-92.1562652588	-168.378585815	32.2270393372	-126.588310242
