-0.055850982666	0.909504890442	-0.0189162492752	-0.234215259552	1.3025598526	-0.193859577179
-0.0556137561798	0.908978700638	-0.0186852216721	-0.234313488007	1.30224812031	-0.194888591766
-0.0578711032867	0.908065795898	-0.0177910327911	-0.234241485596	1.30242145061	-0.195051431656
-0.0608656406403	0.907443284988	-0.0166223049164	-0.233774900436	1.30227005482	-0.194781541824
-0.0587022304535	0.908153057098	-0.0143041610718	-0.231914043427	1.30249106884	-0.194047927856
-0.0376331806183	0.912281274796	-0.010865688324	-0.227598905563	1.30165719986	-0.193513870239
-0.0265810489655	0.916868448257	-0.0112776756287	-0.223520517349	1.30066525936	-0.192748188972
-0.0207934379578	0.920969724655	-0.0121703147888	-0.219425678253	1.29972743988	-0.191927075386
-0.0108807086945	0.92464017868	-0.0137231349945	-0.214870691299	1.2995018959	-0.191191196442
-0.00670099258423	0.926593780518	-0.0150446891785	-0.210709571838	1.29911231995	-0.190591573715
