0.0066819190979	0.606930494308	0.0693825483322	-0.0984637737274	1.30968749523	-0.111349821091
0.00600266456604	0.605893850327	0.0667426586151	-0.098769903183	1.30962586403	-0.112065792084
0.00594615936279	0.606003046036	0.0652885437012	-0.0995087623596	1.31008040905	-0.113189935684
0.00365734100342	0.604896306992	0.0640490055084	-0.101894617081	1.31203615665	-0.115433216095
-0.0113768577576	0.613413333893	0.0578579902649	-0.104632854462	1.31616699696	-0.118064641953
-0.035609960556	0.628903865814	0.0446976423264	-0.107569694519	1.32131934166	-0.121642112732
-0.0500242710114	0.641585350037	0.0498249530792	-0.112134218216	1.32499182224	-0.125371575356
-0.0520219802856	0.647485017776	0.0638859272003	-0.118705511093	1.32662320137	-0.127878308296
-0.0668530464172	0.653963327408	0.070526599884	-0.125180244446	1.32603108883	-0.129008293152
-0.084367275238	0.666396617889	0.0682020187378	-0.13009595871	1.32428097725	-0.128661870956
-0.0920686721802	0.671421051025	0.0630581378937	-0.133357048035	1.32326543331	-0.12819314003
-0.0968961715698	0.673725128174	0.0588684082031	-0.134572267532	1.32300913334	-0.127693653107
-0.0991625785828	0.671077728271	0.0541144609451	-0.134135961533	1.32266974449	-0.127612352371
-0.103544473648	0.674641609192	0.0489370822906	-0.131530046463	1.32068347931	-0.1274766922
