0.045339345932	0.649787902832	0.0266070365906	-0.0763597488403	1.2975975275	-0.126981735229
0.0455946922302	0.649110794067	0.0260856151581	-0.0766677856445	1.29743015766	-0.127013683319
0.0465123653412	0.648756742477	0.0265941619873	-0.0771195888519	1.29754805565	-0.127368211746
0.0452280044556	0.649119377136	0.0270833969116	-0.0786638259888	1.29844427109	-0.128112077713
0.0395157337189	0.642613887787	0.0262585878372	-0.0818917751312	1.29935753345	-0.128035783768
0.0330519676208	0.634993314743	0.0235834121704	-0.0858347415924	1.29823470116	-0.12707233429
0.0257513523102	0.634177446365	0.0212373733521	-0.0890243053436	1.29709720612	-0.125635147095
0.0207505226135	0.634281396866	0.0201990604401	-0.0916447639465	1.29642772675	-0.123863458633
0.0162065029144	0.637250900269	0.0192630290985	-0.0930001735687	1.29538869858	-0.121814966202
