0.135504245758	0.924835681915	0.140494942665	-0.173297166824	1.28888034821	-0.0121183395386
0.133264780045	0.925679206848	0.139337897301	-0.174102544785	1.28940963745	-0.0126806497574
0.13059091568	0.924846887589	0.139448285103	-0.174694061279	1.29202365875	-0.0135669708252
0.122488975525	0.92347574234	0.142126083374	-0.175315380096	1.29746758938	-0.015364408493
0.109392881393	0.923454046249	0.146960496902	-0.177298069	1.30112242699	-0.0173947811127
0.0940566062927	0.923310279846	0.15235376358	-0.180391550064	1.30223548412	-0.0184674263
0.0757682323456	0.921421051025	0.157746076584	-0.184071540833	1.30258107185	-0.0190178155899
0.0584268569946	0.920593261719	0.162572026253	-0.187797546387	1.30299568176	-0.0192470550537
0.0463173389435	0.919161319733	0.166846752167	-0.191972970963	1.30343103409	-0.0202451944351
0.0348844528198	0.918205022812	0.171694040298	-0.196281909943	1.30367398262	-0.0214171409607
0.0222840309143	0.918920278549	0.175481915474	-0.200063943863	1.3034440279	-0.0224416255951
0.0112657546997	0.918341398239	0.179201245308	-0.20519900322	1.30273079872	-0.0243225097656
0.00395441055298	0.917373895645	0.182877779007	-0.213684558868	1.3015525341	-0.0276641845703
-0.000516414642334	0.916909456253	0.186451792717	-0.224447965622	1.29952657223	-0.0331151485443
-0.00465393066406	0.917663812637	0.189789772034	-0.23202252388	1.29736447334	-0.0373470783234
-0.00938010215759	0.921366214752	0.193293213844	-0.236038446426	1.29713749886	-0.0404138565063
-0.0165600776672	0.924648761749	0.19549369812	-0.239958763123	1.29824709892	-0.0443835258484
-0.0248265266418	0.927050352097	0.196976065636	-0.24375629425	1.29808723927	-0.0492715835571
-0.031946182251	0.931016683578	0.197483420372	-0.248662471771	1.29661166668	-0.0536903142929
-0.0391912460327	0.933401584625	0.197808265686	-0.25178861618	1.29513418674	-0.0554647445679
-0.0535249710083	0.932734489441	0.197060585022	-0.254158973694	1.29446828365	-0.0551233291626
-0.0700645446777	0.932540893555	0.196043848991	-0.25710439682	1.29427337646	-0.0532853603363
-0.0815098285675	0.931797266006	0.195037126541	-0.261387586594	1.29417538643	-0.0516701936722
-0.0895531177521	0.929794549942	0.192796468735	-0.268931627274	1.29341554642	-0.0514252185822
-0.0959568023682	0.925884485245	0.190016269684	-0.277220487595	1.29266023636	-0.0514616966248
-0.101272344589	0.92213177681	0.188596606255	-0.285044908524	1.2928647995	-0.0511627197266
-0.109006166458	0.919781923294	0.187481045723	-0.290735244751	1.29422819614	-0.0506068468094
-0.119071006775	0.919159650803	0.186046361923	-0.292411088943	1.29809272289	-0.0496062040329
-0.128694057465	0.92006778717	0.184254527092	-0.291709661484	1.30125427246	-0.0482265949249
-0.134111642838	0.918095111847	0.182966470718	-0.291359901428	1.30179023743	-0.0475931167603
-0.137273311615	0.913600444794	0.181229829788	-0.291224241257	1.30243635178	-0.046763420105
-0.138817071915	0.910562038422	0.180218458176	-0.291406154633	1.30232107639	-0.045741558075
-0.139706850052	0.910291910172	0.180555105209	-0.291268348694	1.30152392387	-0.0442756414413
-0.141278028488	0.91111946106	0.181132078171	-0.290071725845	1.3002127409	-0.0417758226395
-0.142504453659	0.911930799484	0.180990457535	-0.288275957108	1.29904866219	-0.0394792556763
-0.141965150833	0.911861896515	0.181110262871	-0.285895824432	1.29797112942	-0.036815404892
-0.140323162079	0.910735607147	0.181003093719	-0.282247781754	1.2965657711	-0.0334182977676
-0.13768696785	0.909603118896	0.181263685226	-0.277124643326	1.29567718506	-0.0300643444061
-0.134251356125	0.908873081207	0.181081175804	-0.270764112473	1.29575741291	-0.0271956920624
