-28.3699703217	-13.7615776062	132.626876831	7.86876726151	-1.40244758129	1.97534573078
-28.303062439	-13.601439476	132.261627197	7.83870315552	-1.4977761507	1.96268677711
-25.2498054504	-15.072766304	116.75201416	7.72219562531	-1.69163560867	1.92617797852
-20.4612960815	-11.5368270874	81.8385848999	7.90186834335	-2.10356330872	2.35147404671
-12.8304071426	-6.55903911591	31.1763057709	8.46809387207	-2.97119832039	3.06149983406
-26.2467002869	-6.61809539795	19.6000003815	9.2528629303	-3.25785160065	3.6601498127
-35.4964065552	-10.6691379547	7.3231139183	10.3817682266	-3.07255959511	4.39968824387
-33.5994300842	-14.003361702	-9.5179681778	10.9516887665	-2.57710123062	6.23745918274
-35.0736503601	-16.4900417328	-20.2286663055	10.1433134079	-1.36599242687	8.42192363739
-40.0026931763	-15.0445680618	-24.7702121735	8.83734893799	-0.207174241543	9.70027828217
-42.6069221497	-13.360291481	-34.5317192078	8.24778270721	0.177648544312	10.5564975739
-43.3588981628	-13.6826944351	-43.0696411133	8.16286468506	0.454692035913	11.380440712
-43.1724357605	-14.0498895645	-48.0657920837	8.30415439606	0.764363825321	11.7364463806
-44.1141662598	-14.2781019211	-52.4448890686	8.82817363739	0.930767118931	12.0203762054
