-37.0065917969	-4.90018510818	132.647720337	4.56810951233	2.41438627243	-0.832728028297
-36.6084022522	-5.07197713852	131.028671265	4.16449022293	2.20197033882	-0.553853392601
-30.6514129639	-6.4745259285	112.60874939	3.65448689461	0.544091105461	-0.0410442650318
-26.0766239166	-6.70415639877	86.6256790161	2.34449100494	-1.53089296818	0.552224457264
-28.8716278076	-1.1755708456	69.1515350342	-0.618247270584	-2.69041824341	1.12764942646
-41.5763549805	8.86234092712	62.5040359497	-5.30306529999	-2.5020673275	1.65753531456
-51.7340888977	13.5316057205	60.3532409668	-9.99006938934	-2.26845955849	2.22804737091
-53.1846008301	13.1500892639	61.4599952698	-13.6736307144	-2.14977240562	2.55114006996
-56.0366630554	15.3951263428	63.6519317627	-16.4692401886	-2.10745930672	2.51392126083
-57.7288665771	18.1275138855	65.8856201172	-18.7462100983	-1.37389445305	2.44279003143
-57.6628456116	19.0674438477	66.5329818726	-20.9761104584	-0.245225161314	2.50696587563
