-0.125582456589	0.654362678528	0.0840330123901	-0.195742368698	1.31669223309	-0.138674974442
-0.124848604202	0.654341936111	0.0836036205292	-0.196420907974	1.3165217638	-0.140300512314
-0.125660419464	0.651453733444	0.0817494392395	-0.196833372116	1.31694865227	-0.141883134842
-0.130728960037	0.645706892014	0.0758454799652	-0.198321819305	1.31570482254	-0.143675923347
-0.135771512985	0.638598680496	0.0719802379608	-0.199832201004	1.31182515621	-0.143302083015
-0.149436950684	0.630171298981	0.0603116750717	-0.202250957489	1.30501997471	-0.141587972641
-0.157780408859	0.629614114761	0.0483884811401	-0.20475769043	1.30024540424	-0.140217900276
-0.172394514084	0.656738758087	0.0482145547867	-0.206847190857	1.29836380482	-0.138969898224
-0.168735027313	0.6599214077	0.0618813037872	-0.208858013153	1.29607856274	-0.138146519661
-0.187010765076	0.676518201828	0.0739686489105	-0.212320327759	1.29349160194	-0.136541843414
-0.203485012054	0.686304092407	0.0785417556763	-0.217515707016	1.29016375542	-0.134210824966
-0.215203523636	0.689614295959	0.0811282396317	-0.224597215652	1.28554284573	-0.131501436234
-0.229241847992	0.701828479767	0.0842083692551	-0.233662128448	1.280397892	-0.128611326218
-0.243157625198	0.707741975784	0.0799616575241	-0.243564844131	1.27336335182	-0.126034259796
