0.068873167038	0.601031064987	0.0535306930542	-0.0930650234222	1.30163896084	-0.15757393837
0.067494392395	0.60085773468	0.0540146827698	-0.0942394733429	1.30187857151	-0.157925367355
0.0670566558838	0.601001501083	0.0548229217529	-0.0955798625946	1.30207490921	-0.158043503761
0.0592722892761	0.601633071899	0.0549727678299	-0.0983226299286	1.30259048939	-0.157407283783
0.0331437587738	0.603245019913	0.0431087017059	-0.10543346405	1.30268764496	-0.155122160912
0.00595450401306	0.586461782455	0.0191836357117	-0.114753246307	1.30025815964	-0.152829170227
-0.00924015045166	0.583024263382	0.0132817029953	-0.122536182404	1.29798257351	-0.150804281235
-0.018837928772	0.581289768219	0.00723779201508	-0.128606796265	1.29575693607	-0.148741722107
-0.0182247161865	0.583148002625	0.0110466480255	-0.133616685867	1.2920088768	-0.147255778313
-0.0126576423645	0.587233543396	0.0182094573975	-0.138398170471	1.28809440136	-0.145997047424
-0.00611758232117	0.594475984573	0.0267140865326	-0.142920255661	1.28407394886	-0.145302295685
-0.00494337081909	0.602894544601	0.0302445888519	-0.145807504654	1.27953338623	-0.145152211189
-0.0048394203186	0.612680435181	0.0349962711334	-0.146048069	1.27823495865	-0.144797086716
-0.0140371322632	0.62068104744	0.0257272720337	-0.144710540771	1.27863323689	-0.144058227539
-0.0250096321106	0.623068094254	0.0185918807983	-0.143102884293	1.27749955654	-0.143046021461
-0.0355980396271	0.620708465576	0.00769305229187	-0.141126394272	1.27553510666	-0.142331600189
-0.0467855930328	0.619399785995	-0.017462015152	-0.139002561569	1.27378797531	-0.142800331116
-0.0443451404572	0.618747472763	-0.0228495597839	-0.136686563492	1.27133870125	-0.143676638603
-0.0374209880829	0.618523359299	-0.0198447704315	-0.134859085083	1.26786780357	-0.143527507782
-0.0348644256592	0.62005853653	-0.0275713205338	-0.13449549675	1.26187384129	-0.142539143562
-0.032928943634	0.626371383667	-0.0348136425018	-0.13388633728	1.25732016563	-0.141352653503
-0.028614282608	0.619833946228	-0.0366299152374	-0.132634162903	1.25709271431	-0.139873981476
-0.0233960151672	0.607187747955	-0.0435034036636	-0.130259990692	1.25442349911	-0.138373970985
-0.00293684005737	0.587747335434	-0.0223386287689	-0.127239704132	1.2521365881	-0.137036204338
0.015319108963	0.583720445633	-0.00936043262482	-0.123545885086	1.25340890884	-0.135575890541
0.0253653526306	0.584051609039	-0.00715816020966	-0.119403362274	1.25823116302	-0.134730577469
0.0327045917511	0.585658550262	-0.00364077091217	-0.117066383362	1.26313340664	-0.133766412735
0.0353119373322	0.583500862122	-0.00504183769226	-0.117496013641	1.26466488838	-0.133606910706
0.0343868732452	0.581152915955	-0.00695550441742	-0.119022369385	1.26236104965	-0.133049726486
0.0336329936981	0.579861402512	-0.00855588912964	-0.119913101196	1.26055514812	-0.131389379501
0.0337097644806	0.578388214111	-0.00826549530029	-0.121144771576	1.26028501987	-0.128622531891
0.0355217456818	0.577550411224	-0.00587511062622	-0.123306274414	1.25957655907	-0.125757932663
0.0369610786438	0.578727483749	-0.00171327590942	-0.125744342804	1.25924611092	-0.122277021408
0.0384712219238	0.579851150513	0.00161576271057	-0.128989458084	1.25800919533	-0.118878960609
0.0399329662323	0.579527378082	0.00332736968994	-0.132139921188	1.25626170635	-0.115217685699
0.0418980121613	0.579084873199	0.00489830970764	-0.13479590416	1.25378274918	-0.111588120461
0.0427796840668	0.581155538559	0.00877857208252	-0.13623046875	1.25165724754	-0.107630968094
0.0414807796478	0.585285663605	0.012344121933	-0.136449813843	1.2514988184	-0.103947520256
0.037938117981	0.590321063995	0.017894744873	-0.136127233505	1.25333070755	-0.101000666618
