-60.2030448914	-1.89481544495	-5.28250265121	7.68863010406	0.763439774513	-35.3078460693
-60.070022583	-2.00462865829	-5.28962993622	7.70979404449	0.586103439331	-35.30027771
-59.5257530212	-2.39803051949	-5.13904809952	7.27957725525	-0.0908926725388	-34.3524589539
-59.3665847778	-2.96994924545	-3.89682817459	4.94314432144	-1.46924507618	-32.080947876
-60.4693908691	-2.86620092392	6.15211200714	0.41784581542	-3.25091266632	-28.7621459961
-57.8487319946	-0.0224561076611	13.6368675232	-4.21246528625	-4.58544874191	-25.6055870056
-54.2602615356	-1.48301756382	12.9896097183	-7.64635038376	-5.40199947357	-23.1932830811
-52.9311790466	-1.98327279091	13.1178894043	-10.1306467056	-5.94101858139	-20.7607383728
-53.6071968079	-1.36404120922	11.8628025055	-12.5133867264	-6.03047370911	-18.36951828
