-0.287584781647	0.75611782074	0.0379915237427	-0.317485570908	1.29515171051	-0.211985826492
-0.286073684692	0.75693321228	0.0377670526505	-0.317398309708	1.29576158524	-0.212822318077
-0.285252809525	0.758692026138	0.0391614437103	-0.317386865616	1.29639828205	-0.212669491768
-0.282383918762	0.760054826736	0.0459656715393	-0.317369699478	1.29738664627	-0.211015224457
-0.287612438202	0.749324798584	0.0481207370758	-0.31840133667	1.30055046082	-0.209140062332
-0.305494308472	0.75004529953	0.0305404663086	-0.320925235748	1.30747032166	-0.20860350132
-0.316988706589	0.748934745789	0.0257635116577	-0.323806762695	1.31435394287	-0.210534334183
-0.32936668396	0.744995117188	0.0250495672226	-0.326160430908	1.31818985939	-0.212405920029
-0.337302207947	0.745060443878	0.0245313644409	-0.326538562775	1.32238137722	-0.213171243668
-0.339921474457	0.749984502792	0.0258526802063	-0.325797319412	1.32731616497	-0.214850664139
-0.338594198227	0.751084089279	0.0302073955536	-0.324275493622	1.32966279984	-0.216673612595
