-19.6964797974	-8.70076274872	134.138061523	8.12922859192	1.35083377361	2.31341171265
-19.9611091614	-8.86046695709	133.200363159	7.3014626503	0.401018798351	2.43612360954
-19.4864959717	-8.15050983429	127.290184021	5.87893915176	-1.07627511024	2.82727503777
-20.3596458435	-6.69483709335	119.286308289	4.00179195404	-4.04503059387	3.07316589355
-21.7638511658	-5.17633056641	108.753936768	1.87357068062	-6.47850179672	3.16019749641
-22.2630901337	-0.777800798416	79.1424713135	-0.962669730186	-8.35432815552	2.89174032211
-20.9319248199	5.45863485336	58.3930969238	-3.79522848129	-10.413444519	2.3505988121
-26.1862392426	10.2425146103	48.5250015259	-7.34926462173	-13.3559875488	2.09438800812
-33.9328269958	13.7931613922	57.1967506409	-11.1709060669	-16.602104187	1.81601834297
-35.100479126	13.5801410675	64.5708084106	-13.5825910568	-18.9248447418	2.10435914993
-32.4738502502	12.2211103439	68.9104309082	-13.6026449203	-19.9879226685	1.98310792446
-29.1306266785	9.73992538452	75.7306442261	-12.0551013947	-19.7889232635	1.38148713112
-25.9487705231	7.31273555756	79.7522277832	-10.8574104309	-20.0852813721	0.568975090981
-23.6108760834	5.92371702194	76.5094451904	-10.1294898987	-21.5697841644	0.0890240818262
