0.0	-0.0	-141.914916992	140.670928955	85.8891601562	-151.557373047
0.0	-0.0	-141.625564575	139.522521973	85.355430603	-151.614425659
0.0	-0.0	-141.786865234	139.17918396	85.1315536499	-151.967330933
0.0	-0.0	-141.759338379	139.557495117	85.4196090698	-152.27230835
0.0	-0.0	-141.489929199	140.162277222	85.1255645752	-152.544418335
0.0	-0.0	-141.096618652	140.342651367	85.0303192139	-152.780258179
0.0	-0.0	-139.543624878	142.921020508	84.1195602417	-159.472396851
0.0	-0.0	-134.561828613	146.823059082	80.9549636841	-173.658294678
0.0	-0.0	-128.053146362	145.677764893	79.7133331299	-175.115188599
0.0	-0.0	-122.156143188	145.081253052	79.7933731079	-179.226821899
0.0	0.0	-107.47592926	145.423934937	78.2002639771	179.711761475
0.0	0.0	-88.2250823975	145.950897217	77.6469421387	175.409896851
0.0	0.0	-71.6117477417	148.861968994	77.2205886841	175.629562378
0.0	0.0	-60.601146698	153.589294434	75.3923187256	171.803421021
0.0	0.0	-53.3971252441	161.886199951	70.3555831909	168.519439697
0.0	0.0	-49.8006668091	168.460754395	61.9083023071	161.556945801
0.0	0.0	-47.8328590393	172.037490845	58.1333084106	158.273849487
0.0	0.0	-45.6832695007	171.689071655	54.5169410706	153.433898926
0.0	0.0	-42.7263031006	169.500839233	51.4999885559	150.586135864
0.0	0.0	-43.6071243286	166.530639648	48.6229248047	149.303955078
0.0	0.0	-69.7811737061	166.472213745	45.126914978	149.707061768
0.0	0.0	-86.7329483032	165.545394897	42.4196510315	149.880828857
0.0	0.0	-85.0960235596	166.046981812	43.6226081848	150.219726562
0.0	0.0	-82.916305542	164.269332886	44.7104530334	149.491592407
0.0	0.0	-84.2109680176	163.418029785	43.7280807495	150.472122192
0.0	0.0	-82.7249450684	163.122360229	42.6307563782	150.426437378
0.0	0.0	-78.2862014771	162.145965576	42.573097229	151.203887939
0.0	0.0	-73.9771575928	162.123764038	43.9551582336	151.249282837
0.0	0.0	-71.4552688599	163.225692749	44.1735877991	152.230316162
0.0	0.0	-69.1103973389	164.452941895	44.768825531	152.442123413
0.0	0.0	-66.6784439087	165.459594727	44.2198562622	151.435684204
0.0	0.0	-65.575378418	165.502044678	42.7641334534	151.132446289
0.0	0.0	-65.1279067993	165.236801147	42.9278564453	150.277709961
0.0	0.0	-61.5154495239	165.57220459	43.8005104065	150.222595215
0.0	0.0	-45.3456764221	165.462890625	44.6870193481	150.700515747
0.0	0.0	-14.0843019485	164.918823242	47.3386268616	152.218063354
0.0	-0.0	27.2415885925	164.206542969	51.2592430115	151.985290527
0.0	-0.0	66.0797424316	164.434585571	53.3528289795	150.817337036
0.0	-0.0	92.4780731201	165.399627686	52.2183799744	150.303237915
0.0	-0.0	96.951133728	165.955505371	50.3354682922	150.990249634
0.0	-0.0	92.1935424805	166.779846191	47.5182647705	150.968170166
0.0	-0.0	78.7705535889	167.164505005	44.2447319031	150.62651062
0.0	-0.0	51.7793426514	166.889556885	43.5429649353	149.512664795
0.0	-0.0	25.6089477539	166.919219971	42.3512916565	151.166976929
0.0	-0.0	4.59790182114	165.422134399	42.4098052979	151.534240723
0.0	0.0	-11.7362699509	162.899429321	42.8794746399	150.906845093
0.0	0.0	-27.8233718872	160.913314819	42.9643173218	151.041946411
0.0	0.0	-51.0769615173	159.574920654	41.7284202576	151.612716675
0.0	0.0	-78.8956680298	159.056518555	39.4427680969	151.351531982
0.0	0.0	-93.4725799561	159.891815186	39.9895591736	148.67666626
0.0	0.0	-98.8760299683	162.755783081	42.858165741	144.385940552
0.0	0.0	-103.017021179	165.3072052	44.3027496338	140.302276611
0.0	0.0	-109.205657959	167.985717773	43.9483146667	137.453598022
0.0	0.0	-114.527938843	173.118255615	46.2377624512	125.362457275
0.0	0.0	-114.175300598	173.776382446	41.1052627563	113.590042114
0.0	0.0	-113.169616699	173.635955811	35.4571762085	116.221611023
0.0	0.0	-111.831008911	174.6746521	26.9518661499	114.323562622
0.0	0.0	-109.231651306	173.308029175	21.8032970428	117.69493103
0.0	0.0	-104.673095703	171.797744751	15.819478035	124.538803101
0.0	0.0	-100.388519287	173.984741211	7.32606887817	129.584228516
0.0	0.0	-97.7288208008	177.118759155	3.67465019226	136.418609619
0.0	0.0	-97.0990447998	177.324020386	0.51540106535	137.408538818
0.0	0.0	-101.359954834	178.964706421	-2.01615381241	141.072784424
0.0	0.0	-113.310783386	178.085464478	-3.92415356636	139.240539551
0.0	0.0	-119.462432861	176.196487427	-2.60573577881	137.101226807
0.0	0.0	-115.89705658	176.055923462	0.504718720913	136.992645264
0.0	0.0	-108.901046753	177.013916016	0.72226023674	137.141326904
0.0	0.0	-99.0135879517	176.771270752	-0.0837977603078	136.786682129
0.0	0.0	-83.5853881836	175.915328979	1.58854675293	136.222473145
0.0	0.0	-63.0932235718	176.390213013	3.57279872894	136.604888916
0.0	0.0	-42.3339347839	177.381210327	4.82598876953	137.269836426
0.0	0.0	-22.8060626984	179.242218018	4.8023147583	138.291656494
0.0	0.0	-4.94504117966	179.821365356	4.72078943253	138.285217285
0.0	-0.0	10.5690956116	179.853622437	4.50746917725	137.85345459
0.0	-0.0	22.5837192535	179.664123535	3.87036323547	137.691513062
0.0	-0.0	30.2975902557	179.408889771	3.51541137695	137.655670166
0.0	-0.0	36.3649139404	179.316207886	3.66941833496	138.228744507
0.0	-0.0	39.3047599792	-179.934753418	4.91293668747	139.338699341
0.0	-0.0	39.5654029846	-178.127227783	7.82806062698	143.791351318
0.0	-0.0	40.4471321106	-177.986434937	7.51497888565	144.26499939
0.0	-0.0	42.1401138306	-177.999847412	7.39202213287	144.817672729
0.0	-0.0	44.9897766113	-178.542541504	7.54688978195	144.836502075
0.0	-0.0	46.7815818787	-178.609191895	7.08622074127	145.122711182
0.0	-0.0	46.858455658	-178.474395752	6.62392568588	145.614715576
0.0	-0.0	48.4653625488	-177.050308228	7.53391218185	145.97277832
0.0	-0.0	50.9888496399	-173.207992554	10.5388669968	147.98425293
0.0	-0.0	55.4609985352	-169.771286011	12.0674095154	149.262832642
0.0	-0.0	57.7487106323	-169.035873413	11.9655570984	150.298828125
0.0	-0.0	59.6052398682	-170.271087646	11.3737487793	150.63130188
0.0	-0.0	63.6990013123	-172.420272827	10.8978900909	150.174240112
0.0	-0.0	66.0198745728	-174.303131104	10.6992406845	150.156463623
0.0	-0.0	66.5850448608	-174.878540039	10.4641590118	150.636978149
0.0	-0.0	69.1547698975	-174.359146118	10.6533126831	151.120986938
0.0	-0.0	88.7232971191	-174.714431763	11.4954223633	149.602401733
0.0	-0.0	110.505104065	-175.28503418	12.2729158401	147.561630249
0.0	-0.0	114.833374023	-175.586578369	10.6989536285	148.667709351
0.0	-0.0	110.74131012	-173.742141724	9.09955692291	150.935623169
0.0	-0.0	96.3078384399	-171.956512451	9.46083068848	151.569747925
0.0	-0.0	66.1539077759	-172.113052368	10.721821785	152.618927002
0.0	-0.0	30.3573741913	-171.570831299	10.2654266357	154.141403198
0.0	-0.0	4.21163082123	-172.844116211	8.88317489624	154.209335327
0.0	0.0	-10.9904060364	-175.591583252	7.92394256592	152.916061401
0.0	0.0	-18.3410110474	-177.178726196	7.88249921799	151.566055298
0.0	0.0	-23.016292572	-178.582458496	9.14350128174	150.899978638
0.0	0.0	-25.0516147614	-179.187683105	9.94860267639	151.108596802
0.0	0.0	-25.3344745636	-178.040634155	9.40031528473	151.150436401
0.0	0.0	-24.5524978638	-176.807052612	8.79054355621	151.375656128
0.0	0.0	-25.1823348999	-174.56602478	8.1836271286	152.480010986
0.0	0.0	-32.217212677	-172.85798645	7.81859493256	153.385177612
0.0	0.0	-49.767490387	-171.952545166	6.89407348633	155.279052734
0.0	0.0	-64.0634155273	-172.787704468	7.14601230621	154.997207642
0.0	0.0	-69.7582550049	-173.625015259	7.78578138351	152.893997192
0.0	0.0	-71.6229324341	-174.547592163	5.56946754456	150.104125977
0.0	0.0	-71.5762710571	-172.764389038	3.35266208649	155.577087402
0.0	0.0	-71.6364822388	-173.454498291	4.95386266708	155.914657593
0.0	0.0	-70.6437301636	-173.249237061	8.17257499695	161.398254395
0.0	0.0	-69.16456604	-177.645446777	11.3532314301	160.180770874
0.0	0.0	-68.4423065186	-179.029327393	13.414185524	161.394393921
0.0	0.0	-68.1950073242	179.061187744	14.8165178299	162.12852478
0.0	0.0	-69.9141921997	177.160140991	15.2234745026	162.709075928
0.0	0.0	-75.3723983765	174.247421265	14.830452919	163.387771606
0.0	0.0	-77.6762466431	170.85736084	14.8947114944	162.106216431
0.0	0.0	-78.4067687988	167.488677979	15.4029588699	160.755050659
0.0	0.0	-79.2232055664	164.8150177	16.0283718109	159.297348022
0.0	0.0	-79.7610702515	163.743927002	15.6930522919	159.312103271
0.0	0.0	-78.7528762817	162.559417725	15.7664747238	159.191268921
0.0	0.0	-59.615196228	161.903244019	17.0431480408	157.918273926
0.0	0.0	-37.731464386	162.344543457	18.0924015045	156.403106689
0.0	0.0	-24.7413234711	163.154510498	17.573184967	156.791564941
0.0	0.0	-18.2889328003	165.629837036	16.6658744812	157.205947876
0.0	0.0	-14.6118984222	167.145187378	16.3541183472	157.174484253
0.0	0.0	-11.4874773026	167.902679443	16.2219810486	157.496170044
0.0	0.0	-6.02698326111	167.819290161	15.8115530014	157.301361084
0.0	-0.0	0.552482783794	167.008377075	16.4702720642	156.525695801
0.0	-0.0	5.92933082581	167.645263672	16.1627502441	157.080764771
0.0	-0.0	10.2403535843	168.543487549	15.1311597824	158.5909729
0.0	-0.0	13.3469944	169.316513062	14.2893228531	159.598175049
0.0	-0.0	18.1429653168	169.229766846	16.3796615601	159.949295044
0.0	-0.0	21.7063388824	165.08895874	27.9353580475	175.586746216
0.0	-0.0	24.3793926239	161.865127563	35.7451896667	-176.731872559
0.0	-0.0	25.9982223511	162.500198364	39.1808166504	-170.682006836
0.0	-0.0	25.7640705109	169.461029053	41.0824928284	-168.134750366
0.0	-0.0	24.600933075	-179.472183228	39.2484779358	-163.817321777
0.0	-0.0	23.538236618	-171.443191528	37.6412200928	-164.822433472
0.0	-0.0	22.7091312408	-162.759963989	42.5332641602	-160.497299194
0.0	-0.0	22.1525669098	-153.671936035	53.3751792908	-162.030990601
0.0	-0.0	20.9481601715	-148.913330078	64.8018951416	-172.680206299
0.0	-0.0	19.6398277283	-147.959777832	68.8398590088	174.284210205
0.0	-0.0	19.0095767975	-148.304641724	68.8492050171	162.427536011
0.0	-0.0	19.1237010956	-149.234802246	64.4046325684	155.56628418
0.0	-0.0	19.5040245056	-151.388946533	59.2662200928	155.28326416
0.0	-0.0	20.6107673645	-153.598144531	57.4181556702	154.432815552
0.0	-0.0	21.1328601837	-153.752853394	57.2510452271	154.645996094
0.0	-0.0	21.117937088	-150.729553223	56.4072914124	157.337142944
0.0	-0.0	21.345998764	-148.331008911	49.8699531555	170.086029053
0.0	-0.0	21.5565452576	-147.275054932	45.6477470398	169.310699463
0.0	-0.0	19.3504714966	-147.007049561	43.243057251	169.939361572
0.0	-0.0	15.0637798309	-147.873016357	41.4793243408	169.648605347
0.0	-0.0	11.3708810806	-148.477264404	40.1758766174	169.758422852
0.0	-0.0	6.85836458206	-148.786483765	39.4164199829	170.22769165
0.0	-0.0	1.40607988834	-149.242645264	38.4771690369	170.412368774
0.0	0.0	-3.08003878593	-150.432052612	37.8834342957	170.648422241
0.0	0.0	-6.18795537949	-153.497039795	38.1011199951	170.498825073
0.0	0.0	-7.7121591568	-157.786605835	38.4547119141	170.720428467
0.0	0.0	-8.85044670105	-161.031051636	40.4658164978	171.532058716
0.0	0.0	-10.0608196259	-159.845397949	44.1479415894	173.775054932
0.0	0.0	-11.2164106369	-152.24446106	49.0391998291	157.058654785
0.0	0.0	-12.4068984985	-142.515426636	43.6621170044	124.000198364
0.0	0.0	-13.3576726913	-147.474517822	47.2684135437	122.243995667
0.0	0.0	-14.5541133881	-155.027267456	46.4545974731	114.00718689
0.0	0.0	-15.4797697067	-160.766967773	41.8544387817	103.653022766
0.0	0.0	-20.8524856567	-169.378097534	37.8603477478	100.404876709
0.0	0.0	-49.7591438293	-177.525344849	34.4463996887	97.6242599487
0.0	0.0	-79.2253799438	178.248794556	30.4188842773	98.150604248
0.0	0.0	-88.766418457	177.480834961	27.3073387146	95.3215560913
0.0	0.0	-93.109085083	175.950134277	28.2555866241	90.0277099609
0.0	0.0	-95.2300109863	176.329589844	29.4037704468	86.657119751
0.0	0.0	-89.6641311646	-177.717819214	30.1697597504	83.3861236572
0.0	0.0	-79.8251876831	-168.628738403	19.5853443146	102.156044006
0.0	0.0	-71.6280212402	-160.710327148	12.1299600601	123.901626587
0.0	0.0	-66.7646942139	-157.778305054	11.7420883179	130.336517334
0.0	0.0	-61.3343811035	-160.067718506	14.1490468979	134.836090088
0.0	0.0	-52.7610397339	-163.254364014	17.4740924835	145.449707031
0.0	0.0	-43.436630249	-167.826553345	17.9597415924	149.627441406
0.0	0.0	-36.7458152771	-172.616470337	18.7604904175	149.405960083
0.0	0.0	-31.9432067871	-177.636749268	17.594877243	149.398529053
0.0	0.0	-27.1046600342	177.764556885	16.2524852753	153.705169678
0.0	0.0	-23.2102603912	172.76171875	14.7578477859	148.096969604
0.0	0.0	-25.192653656	169.068786621	17.004447937	146.470458984
0.0	0.0	-28.7688732147	165.841766357	16.4538230896	143.443984985
0.0	0.0	-27.5677223206	161.569763184	15.7613258362	140.71522522
0.0	0.0	-24.4949264526	157.571884155	14.9770956039	136.724594116
0.0	0.0	-21.123506546	152.832290649	16.8519573212	138.478210449
0.0	0.0	-16.633234024	160.837890625	40.0414466858	-163.363601685
0.0	0.0	-11.0155887604	176.349349976	75.4920043945	-134.580184937
0.0	0.0	-4.38248920441	-174.668106079	87.2373809814	-116.305244446
0.0	-0.0	1.15970146656	21.0710983276	86.9224243164	62.3929367065
0.0	-0.0	5.58871126175	41.2943000793	82.7576217651	58.4780693054
0.0	-0.0	10.0997743607	53.9735603333	87.9199066162	53.9689941406
0.0	-0.0	13.4126205444	-117.506690979	85.6280441284	-138.235656738
0.0	-0.0	15.5514183044	-113.100524902	82.6288528442	-137.095092773
0.0	-0.0	16.2106266022	-113.843818665	80.6792068481	-136.033569336
0.0	-0.0	16.0823974609	-115.330726624	83.3184051514	-133.832214355
0.0	-0.0	15.6201667786	-111.831474304	88.7855758667	-129.03326416
0.0	-0.0	15.1148948669	75.5389099121	89.4181137085	47.3678474426
0.0	-0.0	15.4108381271	-100.305580139	88.6211090088	-131.943435669
0.0	-0.0	15.8854894638	-96.5631484985	82.7756576538	-132.378707886
0.0	-0.0	16.1754112244	-91.4838562012	79.2137908936	-132.830291748
0.0	-0.0	15.8609743118	-86.1106338501	82.3668746948	-131.042892456
0.0	-0.0	15.8396492004	-82.2908248901	86.6059265137	-128.423828125
0.0	-0.0	17.540063858	99.7822189331	82.8262481689	52.8593902588
0.0	-0.0	20.6565761566	96.7105102539	75.144821167	53.5603218079
0.0	-0.0	22.3931369781	94.9627761841	71.0541000366	54.5767173767
0.0	-0.0	14.9648571014	96.6969985962	69.3377761841	55.3727149963
0.0	0.0	-9.0192937851	97.5481872559	73.3965911865	55.3775863647
0.0	0.0	-32.6735343933	95.3603973389	77.7004623413	53.8093795776
0.0	0.0	-51.4751243591	93.9995346069	81.3889541626	53.5633468628
0.0	0.0	-73.0869064331	91.8843002319	84.8319549561	54.2165794373
0.0	0.0	-91.6595840454	89.8978729248	85.6636581421	53.6724624634
0.0	0.0	-106.534088135	88.5710067749	86.5224761963	53.6500701904
0.0	0.0	-112.81993866	87.4647750854	87.5263671875	52.4361572266
0.0	0.0	-108.578216553	87.0029449463	89.0730056763	51.1137771606
0.0	0.0	-104.272659302	87.6621856689	88.4430541992	49.2666091919
0.0	0.0	-98.5559921265	-87.5212249756	88.2687988281	-154.882797241
0.0	0.0	-91.5129547119	-80.3691711426	75.7126312256	169.781555176
0.0	0.0	-89.1644363403	-77.5990905762	70.5833969116	141.614181519
0.0	0.0	-89.4454116821	-72.4730148315	67.6909484863	116.010444641
0.0	0.0	-89.4953765869	-69.6992721558	70.6064987183	99.5475845337
0.0	0.0	-89.0634384155	-69.1599655151	70.7749481201	91.6125869751
0.0	0.0	-89.5322036743	-67.4985046387	72.378074646	92.3810348511
0.0	0.0	-88.8646087646	-57.7582359314	77.2781448364	118.27822113
0.0	0.0	-87.9351043701	-51.5801086426	89.6455764771	169.585845947
0.0	0.0	-87.0654602051	130.879379272	85.5041351318	8.84929943085
0.0	0.0	-86.1494674683	132.227005005	86.6744918823	16.41340065
0.0	0.0	-84.7003097534	131.976394653	85.5845947266	25.5649776459
0.0	0.0	-82.1127166748	128.859222412	83.0602340698	38.2638969421
0.0	0.0	-78.7789840698	123.647285461	80.1305389404	52.9935035706
0.0	0.0	-75.7037353516	115.362342834	80.6336288452	70.2697143555
0.0	0.0	-73.4583282471	114.212303162	82.1269836426	74.9142837524
0.0	0.0	-71.6325073242	114.483261108	82.7773132324	73.5417633057
0.0	0.0	-70.2229995728	115.08139801	83.4355163574	66.8758087158
0.0	0.0	-69.2323074341	115.194381714	85.2630081177	59.0925559998
0.0	0.0	-68.6258850098	112.531578064	86.4248123169	56.736038208
0.0	0.0	-68.1395492554	111.812393188	87.6941223145	45.8720016479
0.0	0.0	-67.6292572021	-68.8927154541	87.2634048462	-160.933502197
0.0	0.0	-67.5473327637	-70.3209152222	78.2937850952	156.075485229
0.0	0.0	-67.491569519	-77.188293457	67.6644515991	116.084495544
0.0	0.0	-67.5066223145	-78.4725875854	70.1237792969	111.498908997
0.0	0.0	-67.0139465332	-75.8644638062	76.7490234375	142.772964478
0.0	0.0	-66.280090332	-72.1377563477	76.9251708984	166.957717896
0.0	0.0	-65.2420120239	-69.7968902588	75.9458770752	-175.602935791
0.0	0.0	-64.3579711914	-68.1394348145	62.1627578735	-177.682983398
0.0	0.0	-63.8447418213	-69.6307296753	38.006187439	176.49206543
0.0	0.0	-62.308631897	-70.6335525513	33.1873474121	177.005706787
0.0	0.0	-61.3780403137	-72.4298324585	33.5649528503	178.773696899
0.0	0.0	-60.8076934814	-75.276222229	37.6319465637	178.680435181
0.0	0.0	-60.3587341309	-76.9455413818	44.738407135	-177.471984863
0.0	0.0	-59.7245941162	-78.4043960571	47.5764961243	-179.081436157
0.0	0.0	-58.940738678	-79.874382019	47.6312065125	179.1769104
0.0	0.0	-57.9725341797	-82.5775375366	47.7981491089	178.78755188
0.0	0.0	-57.194103241	-83.1915664673	47.7721290588	-178.219512939
0.0	0.0	-55.1206245422	-84.7026977539	49.7638778687	-176.472579956
0.0	0.0	-53.0818023682	-88.0621185303	48.0872383118	-177.229034424
0.0	0.0	-53.7034645081	-89.7764511108	46.3421783447	-175.41619873
0.0	0.0	-55.5823707581	-91.1452407837	44.4307060242	-174.844558716
0.0	0.0	-56.7822303772	-92.8420944214	44.0874481201	-175.228088379
0.0	0.0	-56.1360282898	-94.3731994629	43.3749847412	-175.352737427
0.0	0.0	-53.6152267456	-94.5956802368	42.7628707886	-174.737716675
0.0	0.0	-49.6248550415	-94.247215271	42.2204818726	-174.47303772
0.0	0.0	-43.2447357178	-96.5266265869	39.9776954651	-177.904159546
0.0	0.0	-39.6305618286	-104.036178589	41.8757209778	-177.527374268
0.0	0.0	-37.2045440674	-107.886054993	45.6613311768	-177.959274292
0.0	0.0	-35.0153121948	-110.373207092	50.980052948	-176.252105713
0.0	0.0	-32.5515823364	-114.059646606	52.1143226624	-176.659255981
0.0	0.0	-30.1191368103	-119.352676392	52.6638679504	-175.77532959
0.0	0.0	-27.6952056885	-123.198699951	53.0975151062	-176.150131226
0.0	0.0	-26.2131595612	-126.250930786	53.1942596436	-177.040008545
0.0	0.0	-26.2625541687	-130.109573364	54.7236099243	-175.62387085
0.0	0.0	-29.2531356812	-130.877182007	53.5278739929	-174.887405396
0.0	0.0	-35.6688652039	-130.775802612	52.0417976379	-174.020782471
0.0	0.0	-43.2753601074	-131.376541138	51.1823539734	-173.994384766
0.0	0.0	-55.6527366638	-131.853027344	50.454624176	-173.878189087
0.0	0.0	-74.8073959351	-131.237808228	49.1424598694	-172.696960449
0.0	0.0	-87.1524581909	-131.896102905	49.0845870972	-172.943786621
0.0	0.0	-83.5260772705	-132.075561523	49.7539367676	-174.56060791
0.0	0.0	-71.8903808594	-133.59942627	50.8168525696	-177.48046875
0.0	0.0	-55.2868995667	-134.719116211	52.4154777527	-178.590286255
0.0	0.0	-37.9303817749	-134.976272583	53.0928153992	-179.46156311
0.0	0.0	-15.362783432	-135.020965576	52.7111167908	-179.348068237
0.0	-0.0	15.932472229	-134.667434692	52.3400115967	-178.977111816
0.0	-0.0	36.1048965454	-134.365615845	51.9814529419	-179.351348877
0.0	-0.0	37.7479972839	-131.985015869	50.2638092041	-177.8487854
0.0	-0.0	32.6317481995	-128.925720215	48.6011772156	-178.073120117
0.0	-0.0	25.7439136505	-129.177200317	46.8973312378	-178.554473877
0.0	-0.0	22.077753067	-132.113922119	46.2933769226	179.125930786
0.0	-0.0	20.6048202515	-133.938095093	45.6973228455	179.325241089
0.0	-0.0	17.6605167389	-135.079116821	44.410358429	179.086624146
0.0	-0.0	14.3658380508	-136.005340576	42.3383560181	179.707244873
0.0	-0.0	12.1152143478	-135.968856812	40.2381668091	-179.188156128
0.0	-0.0	9.38064002991	-136.912948608	38.3888969421	-179.112258911
0.0	-0.0	7.91642856598	-137.458435059	36.7944412231	-177.959609985
0.0	-0.0	11.0819482803	-138.630218506	36.2717437744	-177.661361694
0.0	-0.0	18.8186168671	-140.093490601	36.2197341919	-177.621551514
0.0	-0.0	31.1556911469	-141.234268188	35.4746055603	-177.374923706
0.0	-0.0	45.5864143372	-142.872070312	35.032749176	-177.204101562
0.0	-0.0	52.0800247192	-143.792022705	34.3405342102	-176.212875366
0.0	-0.0	54.8364524841	-143.587692261	33.8389778137	-175.690170288
0.0	-0.0	56.4621086121	-144.121261597	33.8072738647	-175.855010986
0.0	-0.0	56.7713699341	-145.208465576	33.9218978882	-176.367248535
0.0	-0.0	60.7553672791	-145.006759644	34.1796035767	-177.532272339
0.0	-0.0	71.9209671021	-143.318908691	34.4305686951	-178.881652832
0.0	-0.0	89.0183868408	-144.627166748	34.4426727295	179.650787354
0.0	-0.0	90.9588088989	-144.840423584	33.7534637451	179.466262817
0.0	-0.0	84.0552978516	-144.290771484	32.5491943359	-178.92414856
0.0	-0.0	73.8738021851	-143.306503296	32.5986976624	-179.083374023
0.0	-0.0	47.513885498	-142.462661743	31.9506607056	-178.123840332
0.0	-0.0	15.5515871048	-142.928421021	30.7928142548	-177.642578125
0.0	0.0	-16.288898468	-144.475540161	28.930109024	-176.953140259
0.0	0.0	-47.607635498	-146.850723267	27.0374107361	-175.823867798
0.0	0.0	-63.765007019	-148.285476685	26.6858577728	-176.447952271
0.0	0.0	-75.6591262817	-150.281646729	26.3019733429	-176.39616394
0.0	0.0	-85.9874191284	-152.880935669	26.6656665802	-176.160202026
0.0	0.0	-93.6521530151	-154.202590942	28.5362510681	-175.00302124
0.0	0.0	-90.5030288696	-156.857299805	30.0507221222	-176.08631897
0.0	0.0	-81.5844268799	-159.42149353	34.7693214417	179.895751953
0.0	0.0	-73.7289886475	-160.547103882	37.5459938049	-178.987976074
0.0	0.0	-69.3078765869	-160.330154419	38.0864334106	-179.007781982
0.0	0.0	-66.7907791138	-159.990463257	37.7866630554	-179.660949707
0.0	0.0	-62.5411987305	-159.221603394	36.9169769287	-178.876617432
0.0	0.0	-56.1321372986	-159.410873413	36.1649475098	-178.949966431
0.0	0.0	-50.9539604187	-159.329330444	35.6888389587	-178.173614502
0.0	0.0	-48.6407279968	-158.388717651	35.549911499	-177.784042358
0.0	0.0	-47.8988189697	-157.717498779	35.399230957	-177.432098389
0.0	0.0	-47.2996253967	-158.050964355	35.4048538208	-177.095504761
0.0	0.0	-43.7160186768	-159.036605835	35.1092834473	-175.737716675
0.0	0.0	-34.6125106812	-163.310653687	35.8525772095	-177.635574341
0.0	0.0	-28.4045963287	-164.455871582	36.8233108521	-177.301971436
0.0	0.0	-27.7552375793	-164.600097656	37.1504440308	-176.190933228
0.0	0.0	-26.5461196899	-163.762802124	37.1508102417	-175.156738281
0.0	0.0	-22.4654064178	-164.094161987	37.0463981628	-175.398849487
0.0	0.0	-15.9892015457	-165.600097656	37.9057121277	-175.827102661
0.0	0.0	-7.93322658539	-165.859725952	38.275680542	-175.579742432
0.0	-0.0	3.47426533699	-165.867492676	38.3801002502	-174.472366333
0.0	-0.0	20.2827548981	-165.837371826	37.7198371887	-172.432327271
0.0	-0.0	39.0380172729	-166.232467651	37.1469917297	-170.522720337
0.0	-0.0	50.7401428223	-166.530975342	37.0741271973	-169.019317627
0.0	-0.0	54.261089325	-167.040649414	37.8175926208	-169.123214722
0.0	-0.0	55.2751960754	-167.348953247	39.4418067932	-170.730422974
0.0	-0.0	57.0577011108	-167.827346802	41.4831085205	-171.903640747
0.0	-0.0	57.4127388	-168.233398438	42.600227356	-172.704696655
0.0	-0.0	57.3176307678	-167.501937866	41.9458656311	-172.155792236
0.0	-0.0	58.3336257935	-166.371994019	41.4491233826	-171.70463562
0.0	-0.0	49.7500343323	-165.449462891	40.4977416992	-171.510421753
0.0	-0.0	37.8144111633	-164.165649414	38.7447471619	-170.753372192
0.0	-0.0	23.7302436829	-164.448760986	37.5018882751	-171.193511963
0.0	-0.0	4.83562469482	-164.693145752	36.057559967	-170.599838257
0.0	0.0	-8.87550258636	-165.07472229	35.6766319275	-170.258163452
0.0	0.0	-20.9675636292	-166.703384399	36.946056366	-171.437606812
0.0	0.0	-35.4719657898	-168.292129517	36.7884292603	-171.621078491
0.0	0.0	-47.0800361633	-169.009872437	35.9053726196	-171.647247314
0.0	0.0	-54.5176887512	-169.514877319	35.0379371643	-171.834152222
