-26.8020076752	-4.81878519058	134.448562622	9.72742080688	-0.233531013131	4.74826669693
-26.4823303223	-4.69868326187	132.151748657	9.54197025299	-0.185480758548	4.84051275253
-25.6415920258	-4.21222734451	126.144821167	9.11289978027	-1.3505282402	5.05096673965
-23.8825893402	-0.833870768547	110.795005798	7.42280578613	-4.98855400085	4.95115089417
-23.1431922913	2.11355304718	95.7132873535	5.84539699554	-8.83707141876	4.69308710098
-22.6939697266	2.31664299965	71.3534698486	5.1481719017	-12.0026769638	4.49447917938
-24.554189682	7.71528053284	61.2599601746	4.99461269379	-14.926990509	4.16010093689
-21.9740257263	5.62648487091	36.2048568726	4.61235237122	-18.0537490845	4.09622335434
-23.5242366791	6.52406835556	23.756444931	4.21401309967	-20.7099628448	4.02620363235
-26.3422203064	9.73360157013	23.7895870209	4.42710828781	-22.287607193	3.85125613213
-31.3735942841	14.4877653122	32.4992103577	4.84508275986	-23.6559581757	3.49458575249
-31.7672939301	16.6550483704	33.8209838867	4.72179698944	-25.0033359528	3.29590439796
-37.3178024292	12.7980737686	41.8111419678	4.37861919403	-25.9599113464	3.25207734108
-37.8207397461	6.83171749115	59.1167831421	5.07476568222	-26.2003097534	2.50166344643
-32.901725769	5.41051483154	70.2116775513	5.89564180374	-25.7263145447	1.83618175983
-29.1607170105	-3.06735491753	81.1593399048	6.5925526619	-25.8814125061	1.24345982075
-28.3982524872	-10.0589914322	87.515411377	7.37131881714	-26.8186168671	0.320442378521
-29.7779769897	-11.2225027084	92.564239502	8.75804901123	-28.1141166687	-1.67022967339
-29.475019455	-13.1807003021	94.6120986938	11.1986761093	-28.747171402	-5.84917545319
