-0.0216188430786	0.700578689575	0.0889108181	-0.167455196381	1.30900084972	-0.0908579826355
-0.0224900245667	0.701627254486	0.0891261100769	-0.168414115906	1.30904304981	-0.0915324687958
-0.0259997844696	0.701928853989	0.0897114276886	-0.170019865036	1.30941414833	-0.0923228263855
-0.0269341468811	0.699516057968	0.0931415557861	-0.171715259552	1.3095934391	-0.0931887626648
-0.0282845497131	0.677795171738	0.0842093229294	-0.172732830048	1.30809998512	-0.0938122272491
-0.0417590141296	0.640977621078	0.0555191040039	-0.173472166061	1.30497169495	-0.0941894054413
-0.058750629425	0.6446788311	0.0444763898849	-0.174147844315	1.30258595943	-0.0929780006409
-0.0596368312836	0.652274131775	0.0556437969208	-0.174955129623	1.29935514927	-0.0906457901001
-0.0591402053833	0.658557653427	0.0711426734924	-0.175249099731	1.29372870922	-0.0877894163132
-0.064471244812	0.665919303894	0.0794236660004	-0.175578832626	1.28738582134	-0.0852088928223
-0.071608543396	0.67312002182	0.0785833597183	-0.177074670792	1.28566348553	-0.0831632614136
-0.077844619751	0.673816919327	0.0742255449295	-0.179227828979	1.28634548187	-0.0818619728088
-0.0803411006927	0.65962100029	0.0669560432434	-0.182507753372	1.28633785248	-0.0812054872513
-0.0938520431519	0.66321849823	0.065904378891	-0.186755657196	1.28531956673	-0.0805497169495
-0.106378793716	0.663926362991	0.0628325939178	-0.191824436188	1.28554618359	-0.0799820423126
-0.112884044647	0.663506507874	0.0643949508667	-0.197351455688	1.28665828705	-0.0795028209686
-0.116962909698	0.662842273712	0.0656542778015	-0.203499317169	1.2875058651	-0.0801544189453
-0.120571136475	0.662050247192	0.0631297826767	-0.209891080856	1.28777813911	-0.0814683437347
-0.124695301056	0.660112857819	0.0573103427887	-0.216532468796	1.28594946861	-0.0830181837082
-0.12774515152	0.659708738327	0.0553547143936	-0.223841428757	1.28351962566	-0.0841369628906
