-66.72706604	6.05177688599	137.839324951	7.58062648773	-3.33401417732	-0.120879396796
-66.93699646	6.20767307281	137.782302856	7.48574542999	-3.3032181263	0.044298838824
-66.7698440552	5.77901268005	136.49005127	7.35161209106	-3.26360440254	0.254551827908
-66.2645339966	4.3074555397	131.121810913	7.25149488449	-3.30875730515	0.306939452887
-64.2758255005	1.98974108696	118.477813721	7.30658817291	-3.91776657104	0.332116425037
-62.7325248718	-0.786138772964	107.250694275	7.51887750626	-6.28590345383	0.626903116703
-61.9546737671	-3.09521651268	88.779083252	7.73722934723	-9.54097366333	0.954146444798
-57.5176124573	-2.26158952713	55.4724349976	7.50685071945	-11.0669088364	1.08025300503
-57.8017616272	0.21595838666	34.5097618103	7.21299362183	-12.218079567	1.13266777992
-60.7807884216	1.87690103054	11.8609466553	6.91727018356	-13.8071107864	1.25728821754
-58.9742889404	3.66933846474	-9.34305381775	6.43841695786	-16.1207714081	1.60116291046
-59.1882553101	6.56072235107	-25.5794124603	5.43775892258	-18.4290447235	2.13645482063
-60.7604637146	7.84753322601	-38.2223968506	4.54178524017	-19.1749515533	2.45700907707
-61.2299995422	7.12557649612	-47.3517074585	3.95838165283	-18.552942276	2.82105278969
-60.749458313	7.55075502396	-50.8626022339	2.64512038231	-18.3722248077	3.32654285431
-59.9000778198	8.30425167084	-55.6735191345	0.329935759306	-18.9533977509	4.56080532074
-60.4708366394	8.61487197876	-52.7206115723	-1.51320552826	-19.5108318329	5.86528301239
-60.3574142456	9.05177688599	-53.6747817993	-2.00747084618	-19.3313865662	6.72649097443
