-0.0835738182068	0.98256611824	-0.0626326799393	-0.239262580872	1.3015127182	-0.234246611595
-0.0837042331696	0.981500864029	-0.0632575750351	-0.238615512848	1.30106544495	-0.233949542046
-0.0842661857605	0.980710983276	-0.0628128051758	-0.238758802414	1.30072557926	-0.233887672424
-0.083240032196	0.979956626892	-0.0600740909576	-0.239581108093	1.30064153671	-0.233735322952
-0.0922775268555	0.973569869995	-0.0515376329422	-0.243121862411	1.30085897446	-0.233008742332
-0.102450609207	0.970040082932	-0.0496571063995	-0.250507831573	1.3007889986	-0.232137560844
-0.108949661255	0.967933416367	-0.0458146333694	-0.259030103683	1.30083918571	-0.231575250626
-0.116351604462	0.96598315239	-0.0418524742126	-0.267729282379	1.30048334599	-0.231459856033
-0.122040748596	0.964552402496	-0.0386298894882	-0.27535867691	1.30052745342	-0.231698274612
-0.1258893013	0.961898565292	-0.0341522693634	-0.28243803978	1.30167591572	-0.232260107994
-0.129405975342	0.959834337234	-0.0307228565216	-0.29021859169	1.30221569538	-0.232443451881
-0.132342100143	0.958336591721	-0.0285657644272	-0.298774003983	1.30036914349	-0.23233795166
-0.132575273514	0.956820011139	-0.0244183540344	-0.307126760483	1.29905819893	-0.232282400131
-0.128503799438	0.954572916031	-0.0183970928192	-0.313697338104	1.29824519157	-0.231918096542
-0.128418684006	0.95618057251	-0.0181530714035	-0.317262411118	1.29785764217	-0.230627059937
-0.129784822464	0.958223342896	-0.0180959701538	-0.318485736847	1.29779279232	-0.229949474335
-0.131755828857	0.957574605942	-0.0160164833069	-0.318117856979	1.29851579666	-0.229974508286
-0.133018016815	0.955041885376	-0.0151716470718	-0.317561864853	1.29940462112	-0.230609893799
-0.133708715439	0.952134847641	-0.0149586200714	-0.317016363144	1.29968035221	-0.230874300003
