-26.7564544678	4.39214420319	29.2236213684	5.81655263901	-5.00249481201	-35.1147994995
-27.4040527344	4.47294855118	29.0758647919	5.64293432236	-5.20898485184	-34.8963317871
-27.3533420563	4.3443646431	29.0418109894	5.57592630386	-5.30728197098	-34.5999641418
-27.007850647	4.10455799103	28.6411933899	5.63309860229	-5.78266048431	-34.3602409363
-26.3683757782	3.62892127037	28.5375480652	6.00261211395	-6.35343074799	-33.8553504944
-25.8175048828	2.98348617554	27.6006393433	6.99489974976	-7.88741779327	-32.5737304688
-25.1043205261	2.00684189796	26.9017696381	7.83050775528	-10.2474079132	-30.3189144135
-23.5175571442	-0.573426485062	25.8941383362	7.9102935791	-13.2540826797	-25.4077644348
-21.1637878418	-3.52556586266	25.6150569916	8.11442279816	-14.4313497543	-22.2844657898
-17.6339359283	-7.29033041	23.4853649139	8.40992450714	-14.7790050507	-20.8928928375
-13.3119153976	-11.4157762527	20.7125587463	8.5917339325	-14.916267395	-19.7447223663
-11.6414585114	-15.569185257	20.3739013672	9.45075416565	-15.4569253922	-18.659696579
-11.5401124954	-18.1927089691	20.4723358154	10.2096099854	-16.4223976135	-17.5605125427
-11.3302078247	-19.7768058777	20.1941452026	10.7190637589	-17.9095039368	-17.3159694672
-10.265086174	-19.8043060303	20.0829391479	12.0047159195	-19.9656200409	-21.3044929504
-10.0664701462	-18.6995182037	20.4734687805	14.2381973267	-22.0245723724	-24.7547626495
-10.3338832855	-18.9987945557	19.8301124573	15.8048334122	-24.3037815094	-24.1198749542
-10.5057611465	-20.3380966187	19.8971195221	15.9413251877	-26.9331912994	-22.6892280579
-9.22376728058	-22.144947052	19.7773113251	15.737830162	-27.4985237122	-22.3416805267
-8.20502281189	-24.3920650482	19.7977905273	16.0102939606	-28.14012146	-22.263053894
-7.31061601639	-26.6764163971	20.2828578949	16.1130638123	-28.5691184998	-22.2323131561
-6.74203491211	-28.5187282562	20.4760437012	15.8318634033	-28.6556968689	-21.8953838348
-6.88245582581	-29.2278347015	20.7114963531	15.6023130417	-28.9586048126	-21.8194522858
-7.12366485596	-29.5998649597	20.5661678314	15.7103176117	-29.0206394196	-22.1429710388
-7.70736980438	-30.0781173706	20.493391037	16.177148819	-28.7010059357	-22.5512104034
-7.98320627213	-29.8497600555	20.2817459106	16.1315689087	-28.6216983795	-22.8090400696
-7.78860187531	-29.3496837616	20.0669670105	16.0103778839	-28.6238555908	-22.8946838379
-7.08549976349	-28.9803676605	19.7038726807	16.1326541901	-28.5280818939	-23.0419559479
-6.76978969574	-28.0768814087	20.4957714081	16.2550258636	-28.3696975708	-22.971654892
-7.31162977219	-27.8974990845	23.9809494019	16.3657054901	-28.4359226227	-22.868309021
-7.08619594574	-29.0107021332	27.1723766327	16.360622406	-28.5605888367	-22.6178245544
-4.21498537064	-31.0686950684	31.2810268402	16.2839221954	-28.6372051239	-22.5055541992
-1.884775877	-32.8583717346	32.1773757935	16.1254577637	-28.8187770844	-22.450428009
-1.92780661583	-32.8162918091	32.5663375854	16.3175907135	-28.8341140747	-22.5946846008
-5.01752090454	-30.834482193	33.0235824585	16.7512073517	-28.8954429626	-22.823425293
-9.04860687256	-29.0973510742	33.7306098938	17.2308521271	-28.5529842377	-23.1338825226
-9.01162242889	-28.8008518219	30.4320278168	17.4899673462	-28.1216697693	-23.4331645966
-6.7987909317	-28.7711753845	29.1225585938	17.5736522675	-27.8475952148	-24.1694965363
-4.63803577423	-28.5167045593	27.0896320343	18.305978775	-27.2430114746	-24.798871994
-4.89738416672	-28.1894931793	25.7403678894	20.7378139496	-24.8531703949	-22.7826442719
-5.38866662979	-27.8210487366	24.8629264832	23.5709095001	-22.6750469208	-19.6996593475
-4.83038854599	-27.5623130798	24.3712997437	26.4362277985	-21.8885154724	-17.8925151825
-3.73815655708	-27.5981426239	23.7335796356	29.4880428314	-20.7500305176	-16.2766780853
-2.8197016716	-27.5192165375	23.3401126862	32.0518112183	-19.5479564667	-15.5217647552
0.479047894478	-28.162153244	21.2477817535	33.7393951416	-18.4417457581	-16.237159729
