0.0	-0.0	-142.925506592	120.656517029	81.9940643311	-160.038330078
0.0	-0.0	-142.02835083	120.565177917	81.6752548218	-160.467681885
0.0	-0.0	-141.056762695	120.433654785	81.5192489624	-160.276733398
0.0	-0.0	-137.746902466	120.420982361	81.6580886841	-158.750686646
0.0	-0.0	-130.900604248	120.650024414	84.1917953491	-144.559371948
0.0	-0.0	-121.396202087	126.632270813	83.6207046509	-127.526062012
0.0	0.0	-114.45124054	133.062042236	85.1348800659	-122.909317017
0.0	0.0	-107.890480042	138.616622925	87.0333862305	-121.808898926
0.0	0.0	-102.158988953	142.633499146	88.2757034302	-121.275154114
0.0	0.0	-96.1261978149	143.62713623	88.1064529419	-119.398223877
0.0	0.0	-91.6450958252	145.419448853	86.2081680298	-117.389068604
0.0	0.0	-90.6261291504	145.212036133	84.8105621338	-118.602386475
0.0	0.0	-90.6267242432	145.060562134	84.4546737671	-118.089744568
0.0	0.0	-87.191619873	144.246368408	84.3098373413	-117.437210083
0.0	0.0	-82.5867233276	143.110168457	84.6763763428	-117.245857239
0.0	0.0	-78.824180603	142.034744263	85.3244400024	-116.75125885
