-0.193646430969	0.944717168808	0.133051514626	-0.163933992386	1.30132591724	-0.0759171247482
-0.192768096924	0.943767547607	0.133524298668	-0.162928104401	1.30107307434	-0.0758998394012
-0.191949129105	0.943864107132	0.132961988449	-0.162036418915	1.30082309246	-0.0755966901779
-0.189878463745	0.943287611008	0.13388800621	-0.161297082901	1.30134809017	-0.0750471353531
-0.187329053879	0.941380023956	0.135621547699	-0.160760402679	1.30217158794	-0.0747301578522
-0.183123588562	0.937674045563	0.138883113861	-0.16096329689	1.30154883862	-0.074431180954
-0.176953077316	0.928475856781	0.143000006676	-0.161983966827	1.29975771904	-0.0736758708954
-0.166954517365	0.912205457687	0.149861454964	-0.164338588715	1.29753386974	-0.0727488994598
-0.156884431839	0.892799854279	0.156667113304	-0.167828798294	1.29556548595	-0.0717377662659
-0.150950670242	0.879294157028	0.159242033958	-0.171321392059	1.2930150032	-0.070564031601
-0.148255348206	0.872016191483	0.159595370293	-0.173769950867	1.2897452116	-0.0692121982574
-0.147223472595	0.862578868866	0.158277153969	-0.174778461456	1.28763532639	-0.0687763690948
-0.145443677902	0.849720716476	0.156966090202	-0.175699472427	1.28650951385	-0.0685527324677
-0.141453027725	0.83558511734	0.157267570496	-0.177527666092	1.28478837013	-0.0685410499573
-0.139734745026	0.824825286865	0.154909491539	-0.180141448975	1.28099584579	-0.0680630207062
-0.141462564468	0.82035946846	0.149343490601	-0.182441473007	1.27806770802	-0.0669802427292
-0.138719558716	0.80953836441	0.143316149712	-0.184632539749	1.27607142925	-0.0665736198425
-0.133295297623	0.798253774643	0.136498570442	-0.186337947845	1.27738714218	-0.0671962499619
-0.132287740707	0.792016267776	0.127883672714	-0.188178539276	1.27803528309	-0.0688022375107
-0.132762432098	0.7904047966	0.122403860092	-0.189907073975	1.2752276659	-0.0711867809296
-0.132399559021	0.790688991547	0.119644522667	-0.190714836121	1.27291548252	-0.0737817287445
-0.13352394104	0.787749052048	0.115225791931	-0.191562414169	1.26943862438	-0.0773251056671
-0.13486623764	0.785005331039	0.111174345016	-0.191288709641	1.26642894745	-0.080822467804
-0.137050390244	0.783833026886	0.108699440956	-0.190326452255	1.26980698109	-0.0824702978134
-0.140479803085	0.783083200455	0.107391476631	-0.189644098282	1.27331256866	-0.0842723846436
-0.144426107407	0.783779859543	0.10657119751	-0.187920808792	1.27164566517	-0.0860588550568
-0.147218942642	0.782827615738	0.104845166206	-0.185333967209	1.26682388783	-0.0873787403107
-0.15008687973	0.781110286713	0.10208106041	-0.183413982391	1.26190268993	-0.0885879993439
-0.151420593262	0.780529022217	0.100559949875	-0.183228254318	1.25930678844	-0.0884022712708
-0.151544570923	0.779514789581	0.0997724533081	-0.184672355652	1.25965690613	-0.0871005058289
-0.153303146362	0.778945207596	0.0976037979126	-0.187478542328	1.25888669491	-0.086740732193
-0.154550075531	0.778610467911	0.0946612358093	-0.190397024155	1.25832927227	-0.0872187614441
