0.0129671096802	0.725447893143	0.0627760887146	-0.187861919403	1.3120496273	-0.14345407486
0.012975692749	0.726668357849	0.0627247095108	-0.187735795975	1.31201517582	-0.145097374916
0.00981187820435	0.727898597717	0.0627198219299	-0.188077926636	1.31247282028	-0.146849632263
-0.00301027297974	0.725503206253	0.0617903470993	-0.188834190369	1.31647157669	-0.148725509644
-0.0217025279999	0.724030256271	0.058052778244	-0.190175056458	1.32125806808	-0.1516456604
-0.0413191318512	0.719382286072	0.0481994152069	-0.191297054291	1.32465291023	-0.154363870621
-0.0556039810181	0.723058462143	0.0386972427368	-0.193110466003	1.32738924026	-0.157154083252
-0.0727350711823	0.720212936401	0.0287951231003	-0.195611715317	1.33053660393	-0.159660339355
-0.0961773395538	0.733252286911	0.0227484703064	-0.199059247971	1.33289313316	-0.161890745163
-0.115837812424	0.743662118912	0.0150902271271	-0.202898740768	1.33447897434	-0.164104223251
-0.124426841736	0.749263048172	0.0137350559235	-0.205984115601	1.33583986759	-0.16654586792
-0.129153251648	0.754986286163	0.0103633403778	-0.208839893341	1.33698999882	-0.170232057571
-0.130281209946	0.758687257767	0.0121448040009	-0.212941646576	1.33708465099	-0.172572851181
-0.132812738419	0.759958744049	0.013281583786	-0.2180082798	1.3350019455	-0.172157645226
-0.133808135986	0.755034685135	0.0125586986542	-0.222220897675	1.33347690105	-0.171057462692
-0.134277582169	0.750293731689	0.00895118713379	-0.225928783417	1.33438313007	-0.171653628349
