-0.112570524216	0.812167167664	0.0412929058075	-0.212192058563	1.31228399277	-0.213171482086
-0.108596324921	0.811678171158	0.039431810379	-0.210795879364	1.31231510639	-0.214225530624
-0.108153104782	0.809576272964	0.0388087034225	-0.209358692169	1.31229186058	-0.214741706848
-0.108318328857	0.803287029266	0.0357879400253	-0.207325220108	1.31237673759	-0.214595556259
-0.109811544418	0.803024053574	0.0306775569916	-0.203851699829	1.31205463409	-0.213001966476
-0.107295751572	0.803079605103	0.0334677696228	-0.200357437134	1.31148469448	-0.211284279823
-0.118511199951	0.789711236954	0.0276756286621	-0.197885274887	1.31108677387	-0.209727287292
-0.134119510651	0.782389163971	0.016463637352	-0.196000576019	1.31079936028	-0.208072900772
-0.149181842804	0.782811880112	0.00561857223511	-0.194933176041	1.3100976944	-0.205985784531
-0.172618627548	0.799992322922	-0.00363624095917	-0.194360017776	1.31015884876	-0.203859090805
-0.196647167206	0.818737983704	-0.00650906562805	-0.194090843201	1.30994999409	-0.201948046684
-0.221169710159	0.838969230652	-0.00427174568176	-0.193867683411	1.30979406834	-0.199763536453
-0.239734649658	0.852311372757	0.00794887542725	-0.194767713547	1.3093225956	-0.197493553162
-0.259744405746	0.852662801743	0.0158443450928	-0.197959423065	1.30954957008	-0.193459630013
-0.276718616486	0.856541872025	0.0128610134125	-0.205934047699	1.30952584743	-0.186058998108
-0.289532423019	0.855666399002	0.00148439407349	-0.219594955444	1.30798530579	-0.176669955254
