-56.2366104126	-0.946384191513	5.45055150986	8.18612766266	-2.51551914215	-34.1023292542
-56.3779525757	-1.14762127399	5.75578927994	8.38539600372	-2.75774693489	-33.9282035828
-55.9914360046	-1.10929250717	5.69070577621	8.44483852386	-2.80154705048	-33.4985580444
-52.4094429016	-2.13557553291	0.462752759457	8.91969966888	-1.96124827862	-32.7678413391
-49.1783294678	-1.36386156082	-2.33369493484	9.8029718399	-0.624574780464	-31.8403339386
-50.4412612915	-0.525256454945	0.832404136658	10.3261995316	0.737390935421	-29.1565513611
-47.0943908691	0.291888296604	-3.34797358513	10.8251962662	2.74639034271	-25.7875995636
-44.3552932739	1.66492986679	-3.9141960144	10.8198604584	6.17900037766	-23.2621250153
-42.3860740662	4.08196926117	-10.2100534439	10.4054517746	10.5088338852	-22.3675365448
-39.5734291077	8.29224586487	-18.8298110962	10.5016241074	12.8624973297	-22.0721035004
-37.5443305969	11.7783470154	-20.5364494324	10.8814430237	13.7080516815	-22.1635055542
-38.2262153625	11.8454914093	-25.0197029114	11.5564842224	15.0023288727	-22.1460609436
-37.2209587097	11.5328683853	-28.3118438721	12.6354036331	14.2070951462	-21.3042106628
-35.3899536133	7.38167572021	-36.276889801	14.8796539307	7.87077569962	-20.4215660095
-30.8580341339	-8.24910545349	-38.9906806946	15.9624643326	4.41192007065	-19.6433620453
-21.7102031708	-21.8586807251	-52.8008880615	16.9281654358	3.97361278534	-18.24426651
-13.1349840164	-25.3976211548	-69.6840667725	18.0188999176	4.90013170242	-16.5825576782
-8.55213928223	-26.3112850189	-72.1560287476	18.7238521576	6.13111162186	-14.6080875397
-9.6258649826	-26.9193382263	-66.6326904297	18.6225547791	6.88188791275	-12.9518661499
-10.3054304123	-29.2614078522	-56.8655700684	18.5794754028	6.65026760101	-12.2707290649
-9.64316368103	-30.4062461853	-55.8610076904	19.1727218628	5.82212209702	-11.8282871246
-11.3908519745	-30.0156402588	-54.3720970154	19.5167980194	5.06472873688	-12.1380729675
-14.4808368683	-28.6113815308	-49.3200798035	19.0120849609	4.1525888443	-15.7694187164
-16.004529953	-27.9954452515	-50.187789917	18.2590122223	3.32018971443	-20.446849823
-17.5134506226	-28.477973938	-51.6467018127	17.4935359955	3.53055071831	-24.5618915558
-20.2567024231	-29.0285568237	-49.9211730957	17.6384525299	4.49960899353	-28.6377162933
-22.1286010742	-29.5469722748	-47.8575935364	18.2074375153	5.02088117599	-29.6797275543
-21.4043235779	-29.7393798828	-49.2126998901	18.267162323	5.74706077576	-30.3542499542
-21.071439743	-29.6307411194	-49.6001968384	17.2746696472	7.69252586365	-30.0332317352
-21.1130886078	-28.948091507	-50.1757888794	16.0704364777	11.6299762726	-29.8116874695
-22.4147205353	-28.0374965668	-48.6289672852	15.6478490829	14.0791883469	-28.3624801636
-22.8770027161	-27.7296543121	-47.9065551758	15.4714841843	15.6988697052	-25.2036476135
-20.4563827515	-27.2506160736	-49.9161109924	15.665971756	18.0790100098	-21.1828479767
-15.7606449127	-17.399597168	-55.2095489502	16.4321022034	20.6204853058	-16.8631725311
-16.0672779083	-13.514172554	-57.9115943909	17.8977718353	21.1016254425	-13.888958931
-17.8048019409	-13.3822536469	-57.7494812012	18.5548171997	21.6312599182	-11.8280448914
-16.0744285583	-12.2414264679	-58.0460357666	18.3136825562	21.2252025604	-10.5836696625
-14.795006752	-10.2091474533	-52.1459770203	18.1515598297	20.2895793915	-8.76460552216
-11.9140462875	-3.65403103828	-33.0463294983	21.1020107269	18.3850460052	-3.63397860527
-5.12150430679	-0.631750404835	-29.1491909027	21.0246543884	17.0196800232	-1.66738390923
0.972598612309	0.0577596873045	-27.1812534332	18.6417121887	16.4311103821	-1.28239893913
5.69873428345	0.956226706505	-25.3944702148	18.3078536987	15.3562278748	0.162163943052
8.54224777222	2.43107438087	-24.4849128723	18.8712596893	14.2508010864	1.4614341259
11.2169513702	6.42897701263	-19.2936344147	19.4990291595	13.4767866135	2.83444595337
11.8862104416	8.45616340637	-4.83144569397	20.6495189667	12.461476326	5.60567998886
9.68610572815	12.6809959412	1.54040253162	20.7590084076	12.434015274	8.86129760742
5.61768341064	16.7921276093	6.57237148285	18.5935516357	13.010682106	10.8816862106
-1.308614254	21.6015777588	10.366358757	16.283613205	13.7814912796	11.5034694672
-6.03527641296	23.0115852356	11.4753484726	15.3970508575	14.5605726242	12.057721138
-7.74108839035	23.4908866882	12.6074934006	14.945224762	14.717461586	12.665769577
-10.4429101944	23.8897171021	18.899181366	14.7199115753	15.0149726868	13.0115442276
-14.2977628708	28.6619186401	19.8872432709	14.6143331528	15.7380857468	13.068646431
-12.5550947189	24.7897968292	5.75765562057	13.9830551147	16.0885696411	12.8845424652
-8.80631160736	16.686372757	-3.17108225822	13.7486457825	16.6382656097	12.5960559845
-6.68333387375	12.2254657745	-2.15541362762	14.3293418884	16.7788162231	12.5983695984
-7.85121107101	8.75048351288	-2.36785173416	14.9529180527	16.6848869324	12.6778507233
-9.57717704773	8.65955257416	-3.31490111351	15.2909994125	16.0460338593	11.739115715
-9.67039871216	13.323425293	-0.7880448699	16.0226325989	15.4169950485	9.13468933105
-6.76654434204	17.7307262421	2.27119016647	17.2184753418	15.3426074982	6.33523464203
-2.17603588104	18.4390602112	3.42242836952	18.8806819916	15.6538219452	4.08945703506
2.9981238842	18.5332260132	6.68273305893	20.7375125885	15.6014003754	2.05863690376
0.72528886795	18.2978878021	5.84742832184	22.4481315613	15.5510158539	0.181997388601
-1.48467564583	19.8169498444	4.23025989532	23.5683689117	15.4367523193	-0.613425910473
-2.06029295921	20.7412605286	4.8100399971	24.3639812469	15.2812547684	-2.06988763809
-1.3238645792	22.3785877228	4.21903896332	24.7578544617	14.154709816	-6.85291147232
-3.05776357651	24.4559898376	4.5762796402	24.5130157471	11.702050209	-15.0022258759
-4.57922458649	24.8947620392	4.17534160614	24.1317405701	10.8749799728	-19.6607475281
-4.65101766586	24.2042369843	4.45884084702	23.6532249451	11.1097078323	-21.4977035522
-6.24970436096	23.5901756287	4.11183404922	22.5257320404	12.177863121	-22.1378688812
-8.75284194946	22.0420780182	2.66563820839	20.5744094849	13.2423257828	-21.6129951477
-11.5842161179	20.1251468658	1.65883338451	18.5262374878	13.6240377426	-20.4679164886
-16.6958084106	18.3382949829	-1.75257468224	17.2095508575	14.1190834045	-21.317609787
-20.160276413	18.3814754486	-4.00091791153	16.7274799347	14.6881599426	-22.8737640381
-23.364906311	20.2485790253	-5.58746862411	16.4409675598	15.1924705505	-23.7680854797
-25.378238678	23.524312973	-7.8590130806	16.1357269287	15.2824277878	-24.1099319458
-27.1838798523	27.3951053619	-13.2853164673	16.0196247101	15.2661542892	-24.1343517303
-23.5713577271	33.2871246338	-5.18820428848	16.2895622253	15.1769628525	-23.7797584534
-23.0341148376	35.2259101868	-8.27474689484	16.5408935547	15.3209915161	-23.3995552063
-23.1522274017	34.5391235352	-5.93910121918	16.4407424927	15.3307123184	-23.8500175476
-24.9001731873	34.4662666321	-8.32889080048	16.1557998657	15.6577291489	-25.4242534637
-26.5861587524	35.3224983215	-8.18716239929	16.1569576263	15.8610315323	-26.2396526337
-31.1943321228	33.9889183044	-10.4002609253	16.0218906403	15.6848068237	-26.9344043732
-35.1996574402	32.3692398071	-8.62234401703	15.4730443954	15.0804176331	-28.4109802246
-37.8700714111	30.936870575	-8.54853439331	14.5779628754	14.129981041	-31.0125331879
-41.3787879944	28.5851211548	-8.60251712799	14.7384538651	13.4818944931	-32.1333465576
-43.2499084473	25.2465190887	-9.074177742	15.5480709076	13.3827943802	-32.2019958496
-43.6047515869	21.3198299408	-11.1886711121	16.6231803894	13.3594732285	-31.3797645569
-42.0409698486	16.9829120636	-14.7691745758	17.2292633057	13.2918243408	-30.7491035461
-39.256729126	13.4647283554	-16.4751434326	17.4011421204	13.4497251511	-30.8966579437
-32.2813835144	7.12969589233	-14.1741104126	17.229352951	13.7841234207	-31.0040378571
-24.2474746704	0.399391502142	-16.2924556732	17.3170413971	13.7146272659	-30.9734020233
-18.8039073944	-7.13536596298	-22.7354450226	18.0895690918	12.9526634216	-30.2391548157
-14.8047876358	-13.4585638046	-32.451259613	19.0785942078	11.9916982651	-28.6846561432
-13.2983551025	-17.6631126404	-38.62059021	19.7732563019	11.4055480957	-26.3665103912
-12.7468852997	-20.4714736938	-41.6818618774	20.2687587738	11.5994110107	-23.734079361
-12.9884433746	-22.7451400757	-44.0456466675	20.7942047119	12.1601381302	-21.5051002502
-13.2467308044	-24.872674942	-50.8275604248	21.4277591705	12.3438520432	-19.3995723724
-11.313170433	-27.1067657471	-59.0574569702	21.9425258636	12.2457103729	-17.7031383514
-10.5659141541	-27.8291187286	-59.7734146118	21.8667221069	12.9563102722	-16.1470355988
-11.6395711899	-27.065076828	-56.4713554382	21.578458786	13.76030159	-14.6759147644
-11.0984916687	-27.1157455444	-56.4791526794	21.3871479034	13.781703949	-13.3777523041
-6.89863538742	-24.1898326874	-56.8953933716	21.1638965607	13.5716342926	-12.1867790222
-6.45011854172	-9.28645324707	-26.7905273438	21.0859069824	13.4036521912	-10.6357374191
-9.14294624329	10.3682546616	3.98110342026	21.1575737	12.8963508606	-9.17496967316
-18.3871669769	21.0216159821	0.797601759434	21.0752449036	11.4314889908	-7.81106090546
-21.326467514	29.2286338806	3.88620638847	20.137462616	10.3266572952	-6.37736463547
-21.2286815643	27.9720478058	0.734914302826	18.8216228485	10.2922000885	-5.53138303757
-19.783531189	26.3197860718	4.49478530884	18.5274772644	10.8915290833	-4.91280078888
-18.7690200806	23.7903804779	4.90468454361	19.2464027405	11.282831192	-4.19117736816
-18.3849048615	22.7798194885	3.78012490273	19.7384643555	11.3021221161	-4.27699899673
-21.3892860413	23.2045211792	1.15240383148	20.3585033417	10.7577075958	-6.44794750214
-23.0510425568	25.9077014923	0.0339234694839	20.7747535706	9.86569786072	-14.0568275452
-24.6880607605	29.342546463	1.02300930023	20.0388813019	9.72620487213	-20.2478923798
-23.9566345215	29.0028190613	-0.975266039371	19.6263198853	10.1187858582	-21.9024543762
-26.3191585541	28.1676673889	-2.71246147156	19.4999580383	11.7840127945	-23.4444332123
-27.4909915924	26.8669662476	-6.19840145111	20.0631027222	12.792632103	-24.0923080444
-26.5602684021	25.6281089783	-9.14204978943	19.8439121246	13.1237792969	-24.2075958252
-26.3044910431	23.0277080536	-16.8550491333	19.673828125	13.4472227097	-23.9917888641
-27.8913478851	20.0093917847	-18.0801544189	19.5974025726	13.7968082428	-23.2723045349
-27.5110626221	13.5824184418	-28.5448799133	19.211233139	14.2394037247	-22.8933620453
-27.0394535065	5.03360795975	-45.0717010498	19.0142192841	14.4634685516	-22.4289264679
-23.283208847	-6.08419656754	-70.0303039551	19.219833374	14.4091434479	-22.23021698
-17.5245361328	-14.785736084	-91.8397827148	19.5146884918	14.6367301941	-21.6969070435
-16.1140518188	-16.7347984314	-95.8552398682	19.3759841919	15.3203725815	-21.2531261444
-15.1361761093	-12.6820001602	-84.7384414673	19.072561264	15.7827501297	-21.0206394196
-14.1216030121	-5.45474481583	-66.9074783325	19.082901001	15.9363937378	-21.1726531982
-14.4168891907	0.91182744503	-45.8240470886	19.9338855743	16.0750083923	-21.2668743134
-15.017449379	8.3667974472	-11.0363397598	20.9572048187	15.9278717041	-20.7598953247
-14.548084259	13.3908586502	-8.6566362381	21.3291740417	15.5479507446	-20.0501670837
-15.6972379684	13.1940059662	-4.90241622925	20.9432792664	15.6544380188	-19.4667034149
-17.6902637482	14.4263811111	-3.33681416512	21.0144405365	16.0281105042	-18.8890628815
-20.3753013611	15.7970380783	-0.177057117224	21.3265247345	16.4242916107	-18.9814548492
-21.3843803406	16.5395622253	-2.13815140724	21.5293941498	17.3897190094	-20.2256984711
-23.1406383514	16.9841251373	-2.45116209984	21.6765213013	18.1401062012	-20.8850078583
-24.9849891663	17.2631263733	-2.70884633064	21.4345760345	18.8163986206	-21.2485179901
-25.4464950562	17.3930835724	-2.41641521454	20.8887424469	19.0383243561	-21.4426116943
-26.3476810455	21.0326881409	-7.53105688095	20.4463615417	19.3978729248	-21.656080246
-31.9570045471	27.0822296143	-11.5550317764	20.3022975922	19.4643554688	-21.3924026489
-34.0975379944	34.8681602478	-7.24382162094	20.1920967102	19.2262649536	-21.3325042725
-36.2978363037	36.6644287109	-11.3360490799	20.0743999481	19.1864471436	-21.1188716888
-38.434753418	38.1726264954	-15.1917905807	20.10405159	19.407365799	-20.753698349
-39.7623519897	39.348274231	-13.0880432129	20.1835365295	19.2989902496	-20.4902954102
-39.4820327759	38.9554748535	-13.5637044907	20.339302063	19.0187854767	-20.2707004547
-38.2078094482	38.0965995789	-11.6088104248	20.376657486	18.7607288361	-19.9107246399
-36.3454856873	36.6489219666	-10.358042717	20.2642650604	16.7364253998	-18.8634033203
-36.3268241882	36.3723373413	-11.7828626633	20.0427818298	12.5097427368	-20.3866672516
-37.6753349304	37.4544410706	-11.0522356033	18.8871879578	10.4378786087	-25.8314208984
-38.0084762573	37.4371376038	-10.1215753555	17.4560108185	10.0862970352	-28.4819927216
-37.6395950317	35.9208641052	-11.0381498337	16.7719345093	9.3242149353	-26.3090229034
-39.3456573486	35.0313873291	-12.0929880142	17.2704315186	8.34957885742	-21.2980098724
-39.0200805664	34.5172615051	-12.375869751	17.882440567	8.17854499817	-15.8445043564
-38.0434608459	34.7114181519	-11.5842571259	18.0729026794	8.32525444031	-11.9604701996
-36.9922180176	34.9953041077	-10.923453331	18.0990142822	8.22198009491	-10.0307226181
-36.4112625122	35.3498649597	-10.5084037781	18.4376068115	7.7220864296	-9.09306049347
-36.615436554	35.6991844177	-10.2786636353	18.7656669617	7.23252153397	-8.71190261841
-37.2336616516	36.0717048645	-10.4293556213	18.810792923	7.15910148621	-8.51488876343
-37.9956207275	36.2972793579	-10.5274047852	18.5195522308	6.63034391403	-8.13607120514
-39.6656684875	35.2420043945	-11.8705654144	17.7420940399	5.91581010818	-7.21072149277
-40.7062606812	34.225227356	-12.1639738083	16.6386432648	5.44459867477	-5.99008607864
-42.0586051941	33.7593307495	-13.1235151291	15.7348585129	4.96057319641	-5.0660071373
-40.9774742126	33.5603256226	-13.0487375259	15.6131677628	4.75582551956	-4.98815107346
-34.8247642517	34.2112236023	-13.1308679581	16.215877533	4.50654983521	-5.35365867615
-28.2316246033	37.0332565308	-3.60198497772	16.8174514771	4.05114507675	-6.12912988663
-31.647354126	37.2433319092	-6.66926527023	17.3188781738	3.50269412994	-6.37650871277
-32.5592460632	36.2079429626	-8.72815132141	17.774438858	3.60298013687	-6.25492954254
-32.6340751648	35.2635612488	-8.05195140839	18.1926574707	3.62534546852	-6.27950572968
-34.7212142944	34.2990264893	-8.68939399719	18.3875713348	3.43089699745	-6.42185020447
-35.0269775391	34.0292930603	-9.47521781921	18.4268436432	3.02958416939	-6.94052600861
-34.4583625793	34.8915710449	-9.27017402649	18.0130519867	2.46533894539	-9.88038635254
-34.63073349	35.3611412048	-8.90681362152	18.2537994385	2.57405996323	-12.5607767105
-35.2564964294	35.1280517578	-9.53883552551	18.7205715179	2.83261847496	-12.8973331451
-35.7217636108	34.7757263184	-10.4242067337	18.8716316223	3.08699178696	-12.9250946045
-36.2310791016	34.5096588135	-12.2505636215	18.9964351654	3.99612855911	-13.8831548691
-37.0628585815	32.6568222046	-15.4800777435	19.6286067963	5.14676952362	-15.6950130463
-38.8666191101	31.2930469513	-19.3029632568	20.4008483887	5.67226600647	-16.7024974823
-38.5967025757	32.0101661682	-27.2243041992	20.7148647308	5.9112405777	-17.1237754822
-41.3125991821	32.2171363831	-28.827249527	20.4761562347	6.21432638168	-17.4087352753
-43.0544395447	33.7643280029	-22.1718597412	20.1137752533	6.37529182434	-17.6219825745
-45.7584037781	34.7363586426	-22.1764659882	19.7645206451	6.7579832077	-17.5679187775
-48.5566864014	35.5467834473	-20.9664268494	19.5785217285	7.07592821121	-17.3892631531
-52.5096588135	35.2558631897	-17.9107322693	19.4724655151	7.38664674759	-17.2752456665
-55.2478256226	34.2721099854	-19.9371452332	19.3993492126	7.61007356644	-17.263261795
-55.2399559021	33.9143562317	-19.4029636383	19.3996124268	7.97428178787	-17.283662796
-52.7275466919	33.2339820862	-21.9345264435	19.4883060455	8.62031936646	-17.3651504517
-51.798248291	31.8083171844	-26.2507133484	19.2105808258	9.28834056854	-19.0915470123
-50.747592926	31.9387741089	-27.3297767639	16.9388141632	9.56769657135	-24.7716884613
-51.3371086121	31.7463779449	-27.1498756409	16.0499191284	10.0609779358	-27.8719558716
-45.7082290649	28.2540588379	-32.5264930725	18.2316169739	11.184762001	-26.9017848969
-36.4348678589	27.8025989532	-41.6837539673	20.8575057983	12.2695655823	-25.039056778
-33.0068321228	29.0285892487	-46.7332267761	22.5185565948	12.4424371719	-24.0007667542
-31.390586853	30.1823196411	-58.3491439819	22.9980640411	12.1954021454	-23.4676990509
-29.0389823914	31.2577819824	-61.3526420593	22.7494678497	11.9620685577	-22.6754188538
-22.6068325043	34.9211502075	-55.2415161133	22.1748123169	11.9721832275	-20.9831695557
-12.7159757614	40.7656898499	-35.5475921631	21.3993301392	11.7731494904	-18.3794822693
-7.59275817871	39.3509559631	-30.7110824585	20.7232952118	11.1774988174	-15.7880220413
-6.12139081955	41.1441726685	-29.5107040405	20.5252990723	10.8985137939	-13.6347379684
-8.53603076935	42.4285087585	-27.6731128693	20.7252750397	10.7639989853	-11.6881141663
-16.4579315186	44.2066688538	-31.4698448181	20.7133178711	10.8082475662	-9.59635639191
-21.9811630249	44.6287994385	-34.1938285828	20.1301841736	11.3270435333	-7.61652183533
-24.2053947449	44.7794189453	-34.357131958	19.6747608185	11.5385503769	-7.90907382965
-24.5622596741	45.2912940979	-34.0181274414	20.1780033112	11.3683719635	-9.75491714478
-23.2127037048	45.2418327332	-32.8091316223	21.1497211456	11.2134284973	-12.1308250427
-21.163942337	44.8330230713	-31.3015899658	21.9761295319	11.0377006531	-15.5466423035
-21.6547241211	44.8796386719	-31.2393188477	22.7738418579	10.7281188965	-20.0434703827
-22.949010849	44.4047966003	-32.3167419434	23.0619392395	10.2339735031	-21.0372142792
-23.5947723389	43.971824646	-32.9893569946	22.8192043304	10.1592502594	-20.9750061035
-24.8998260498	43.7627906799	-33.6143379211	22.6347618103	9.6029958725	-18.4141120911
-24.8457317352	43.1152496338	-34.2184104919	23.3678016663	9.22151660919	-10.6588964462
-24.7718677521	42.5041389465	-34.3066139221	23.5922451019	9.21953773499	-1.59548902512
-23.9333972931	42.0518836975	-33.9045600891	22.9365749359	9.50290584564	7.62669706345
-22.3424358368	42.0596656799	-33.5389480591	21.7353935242	9.74142360687	14.2404670715
-22.2004070282	42.9265441895	-33.5392723083	20.2394714355	9.21574020386	15.7554607391
-22.8447532654	43.3870315552	-33.5669937134	19.5431423187	8.70896053314	16.1364917755
-22.8540782928	42.5170822144	-33.9713630676	18.8527145386	7.92333698273	17.4162464142
-23.6001663208	40.4880218506	-33.9157676697	17.3877658844	8.29855632782	18.3751792908
-21.1833400726	38.6150093079	-32.7692985535	16.3958930969	8.76209640503	17.7976512909
-18.1846179962	37.7876358032	-31.4379062653	16.6291275024	8.79359912872	17.3882865906
-15.5670585632	36.3458824158	-29.5139827728	17.0572490692	8.73029232025	17.1908359528
-14.2471342087	34.6745681763	-28.8858165741	16.9446144104	8.70484924316	16.9390697479
-12.454911232	33.1245727539	-28.6018486023	16.8591537476	8.40101718903	16.5579872131
-12.5177087784	32.4476776123	-28.8032073975	17.1401844025	7.55980300903	15.9884853363
-12.2029161453	32.476764679	-28.5423774719	17.2793045044	5.8105134964	15.2856645584
-12.3828277588	32.3316574097	-28.1509647369	16.904838562	4.29396390915	14.6638011932
-13.0533733368	32.2244262695	-27.6555042267	16.1914520264	3.89748573303	14.4957141876
-13.6130132675	31.4338970184	-27.4005832672	15.7614803314	4.25618314743	14.3744945526
-14.3630495071	30.141242981	-27.2365436554	15.6605415344	4.47134542465	14.2336425781
-14.9001913071	29.1621112823	-27.0614738464	15.6185922623	4.40693664551	14.0268316269
