0.0	-0.0	144.302719116	63.6609535217	78.5139923096	6.5878071785
0.0	-0.0	142.912536621	62.1536865234	79.4031143188	7.39523649216
0.0	-0.0	141.619186401	62.8643760681	81.1482925415	7.64070796967
0.0	-0.0	134.428512573	64.0868911743	83.3330230713	7.49317932129
0.0	-0.0	133.738739014	66.465423584	84.7588424683	6.81616020203
0.0	-0.0	133.843444824	68.9337692261	85.6119155884	5.58980512619
0.0	-0.0	133.726898193	70.0478744507	85.9599990845	4.69715642929
0.0	-0.0	133.517776489	70.6494903564	86.3677520752	4.19645643234
0.0	-0.0	133.282623291	70.6688690186	86.9590072632	4.00740194321
0.0	-0.0	133.18812561	69.8097000122	87.1061401367	4.44598197937
0.0	-0.0	133.11114502	68.3490371704	86.9832839966	5.05763626099
0.0	-0.0	132.943862915	67.4027252197	86.7959518433	5.52605247498
0.0	-0.0	132.941177368	66.9072113037	86.4888381958	5.87590122223
0.0	-0.0	132.928878784	66.6075363159	86.52759552	6.13174247742
0.0	-0.0	132.801025391	66.6104660034	86.8418579102	6.24998617172
0.0	-0.0	132.569046021	66.6660385132	87.0728302002	6.39102363586
0.0	-0.0	132.328659058	65.5278396606	86.6905212402	7.14718437195
0.0	-0.0	132.261062622	61.7026062012	85.4454498291	9.09037876129
0.0	-0.0	132.862136841	58.3311309814	85.6818618774	10.1320180893
0.0	-0.0	133.359008789	58.7791595459	86.0269317627	9.63207435608
0.0	-0.0	133.505310059	60.2065048218	86.1140289307	9.82243061066
0.0	-0.0	133.718154907	62.4962310791	86.8048782349	8.35024166107
0.0	-0.0	133.791061401	70.5308074951	88.5624084473	2.57575917244
0.0	-0.0	133.438766479	-103.911231995	89.9232788086	-179.372421265
0.0	-0.0	133.08505249	-103.873413086	88.7934875488	-179.922637939
0.0	-0.0	132.892211914	-105.466247559	88.3352584839	179.403991699
0.0	-0.0	132.852722168	-106.46459198	88.2779846191	179.486694336
0.0	-0.0	132.784179688	-107.817642212	88.3907699585	-179.902160645
0.0	-0.0	129.995010376	-110.591438293	88.7380447388	-178.435073853
0.0	-0.0	107.408676147	62.5142021179	89.7219619751	6.11860799789
