0.0	-0.0	131.724395752	59.3322753906	80.1474533081	-2.75510168076
0.0	-0.0	130.238739014	58.588054657	79.9325637817	-1.80107784271
0.0	-0.0	121.371818542	57.150844574	77.9481048584	-0.619450032711
0.0	-0.0	117.480438232	54.7510604858	76.101348877	1.26465427876
0.0	-0.0	113.264938354	52.1610412598	76.4577789307	2.92912793159
0.0	-0.0	106.696983337	49.4951972961	78.5793304443	3.08456921577
0.0	-0.0	97.0708007812	49.0916213989	81.2851486206	3.1321914196
0.0	-0.0	88.2759094238	49.640750885	82.2438583374	3.14866423607
0.0	-0.0	82.5786209106	49.3451042175	82.6605529785	3.3570663929
0.0	-0.0	80.4314041138	48.0214271545	83.5104141235	4.61763763428
