-8.15759181976	-20.6035289764	129.733184814	9.46580410004	-1.44279670715	4.08489656448
-8.8350276947	-20.5239505768	128.762954712	8.9256029129	-1.24628663063	4.36679458618
-6.34864044189	-22.4965343475	114.94367981	8.5301027298	-1.17444169521	4.69898271561
-6.48855113983	-19.4698581696	99.9958572388	7.99571418762	-1.29630684853	5.17630529404
-9.69921207428	-16.2867469788	94.426071167	7.20760393143	-1.49631595612	5.62886238098
-12.3347454071	-14.2123470306	92.1780929565	6.01020908356	-1.56759274006	6.15334653854
-12.4476776123	-13.3137283325	88.070526123	4.81614542007	-1.27374911308	6.62838172913
-11.9450941086	-13.8250894547	84.2892074585	4.05646753311	-0.973527431488	6.89511585236
