0.0256345272064	0.65864443779	0.114167690277	-0.102256774902	1.29854273796	-0.100569605827
0.0255055427551	0.657774925232	0.1144759655	-0.102259635925	1.29842567444	-0.09907579422
0.0243990421295	0.65819478035	0.115243315697	-0.103481292725	1.29998552799	-0.0978116989136
0.0199508666992	0.661351442337	0.116277813911	-0.107100486755	1.30305254459	-0.096743106842
0.0108299255371	0.66086101532	0.114650249481	-0.112948417664	1.30435097218	-0.0952980518341
0.000385046005249	0.657613277435	0.107311010361	-0.120456457138	1.30339169502	-0.0928540229797
-0.0139193534851	0.649264097214	0.0956379175186	-0.128913402557	1.30109810829	-0.0907820463181
-0.0213029384613	0.640686511993	0.0872746706009	-0.136548757553	1.29804062843	-0.0886455774307
-0.0181968212128	0.639726400375	0.091639995575	-0.142460584641	1.29486763477	-0.0861095190048
-0.00894546508789	0.647072553635	0.102219700813	-0.146337985992	1.29124903679	-0.0839648246765
0.0038685798645	0.659269809723	0.116335630417	-0.148442029953	1.28656446934	-0.081264257431
0.0141627788544	0.668589115143	0.125815391541	-0.14946103096	1.28191936016	-0.0786654949188
0.020176410675	0.674243927002	0.131133913994	-0.149966001511	1.27814757824	-0.0757751464844
0.0219933986664	0.678574562073	0.133119940758	-0.150339603424	1.27552986145	-0.0725376605988
0.0218694210052	0.67689871788	0.130725622177	-0.15082192421	1.27348685265	-0.0688509941101
0.0202951431274	0.667596578598	0.124167323112	-0.150058031082	1.27230513096	-0.0655938386917
0.0206851959229	0.663527727127	0.122169733047	-0.148686885834	1.2719181776	-0.0636415481567
0.0234684944153	0.662039279938	0.122558712959	-0.147456169128	1.27165806293	-0.062402844429
0.0293910503387	0.660017490387	0.122991085052	-0.146679401398	1.27210080624	-0.0614233016968
0.0371253490448	0.661964416504	0.125583529472	-0.146687030792	1.27247989178	-0.0599944591522
0.0418593883514	0.663328170776	0.128223657608	-0.146233797073	1.27151334286	-0.0586521625519
0.0418565273285	0.65814447403	0.124870896339	-0.145485639572	1.27084946632	-0.0572304725647
0.0362498760223	0.652725219727	0.117642521858	-0.145312786102	1.27054131031	-0.0562022924423
0.0315177440643	0.64900970459	0.11201775074	-0.144897222519	1.26999270916	-0.0558521747589
0.0315091609955	0.643754720688	0.105518817902	-0.143603086472	1.26994597912	-0.0558477640152
0.0427093505859	0.634013175964	0.094612121582	-0.140983104706	1.269064188	-0.0552196502686
0.0578372478485	0.629559755325	0.0845985412598	-0.137832641602	1.26583135128	-0.0543854236603
0.0716271400452	0.628831386566	0.0794508457184	-0.134736776352	1.2612426281	-0.0531059503555
0.081964969635	0.628060340881	0.0780311822891	-0.132501602173	1.25879228115	-0.0533021688461
0.0852327346802	0.62656712532	0.0759763717651	-0.129448413849	1.26073241234	-0.0550118684769
0.084520816803	0.624956130981	0.073909163475	-0.126344203949	1.26126933098	-0.0579481124878
0.0832381248474	0.625542640686	0.0738934278488	-0.124319553375	1.2596590519	-0.0615997314453
0.0839252471924	0.624320030212	0.0710625648499	-0.123636960983	1.25938975811	-0.0660135746002
0.0870106220245	0.623059272766	0.0682616233826	-0.123667001724	1.26142537594	-0.0713469982147
