0.0	-0.0	132.519775391	86.2593917847	73.7360458374	14.4042034149
0.0	-0.0	131.763366699	85.4615249634	74.6868362427	14.7271089554
0.0	-0.0	124.290847778	83.177192688	74.9169692993	15.7526626587
0.0	-0.0	113.705444336	73.7026824951	75.7798156738	16.8404331207
0.0	-0.0	111.598632812	58.0163116455	76.9587783813	18.8255214691
0.0	-0.0	108.619064331	42.1688308716	78.2966918945	21.3115196228
0.0	-0.0	99.5272521973	29.6587562561	79.5321884155	22.9307193756
0.0	-0.0	88.4663619995	20.1167488098	81.1491928101	24.1233692169
0.0	-0.0	88.408821106	13.390994072	83.2642745972	25.646270752
0.0	-0.0	87.7295150757	8.07191085815	85.1541595459	27.4423751831
0.0	-0.0	88.0669555664	3.25135850906	86.3798217773	29.4858531952
0.0	-0.0	87.4577331543	0.748233735561	87.1599121094	30.5279598236
0.0	-0.0	83.9635543823	0.536780655384	88.079536438	31.3020343781
