0.0	-0.0	129.531860352	63.049407959	84.3362960815	3.6809091568
0.0	-0.0	129.285308838	62.9189605713	84.532951355	3.73551988602
0.0	-0.0	128.885131836	62.7177009583	84.4471359253	3.9071958065
0.0	-0.0	128.642425537	62.3200416565	84.7842330933	4.37114524841
0.0	-0.0	129.172164917	62.7501373291	85.210319519	3.87603354454
0.0	-0.0	129.498016357	65.2796401978	86.4169464111	2.26545286179
0.0	-0.0	129.468704224	67.291557312	86.8026046753	2.02426791191
0.0	-0.0	129.263702393	67.4644088745	86.1467285156	1.77629053593
0.0	-0.0	128.828765869	67.1156997681	86.1910171509	1.80644512177
0.0	-0.0	127.795051575	66.6750488281	86.4024658203	2.07246184349
0.0	-0.0	121.587379456	65.1910400391	86.5534973145	2.73820781708
0.0	-0.0	105.788085938	62.1782112122	87.133140564	4.16041374207
0.0	-0.0	89.8586959839	59.4641265869	88.1914596558	5.08584213257
0.0	-0.0	84.8068084717	57.4103851318	88.6034545898	6.2048330307
0.0	-0.0	77.6076583862	55.8521766663	88.9742660522	6.92804765701
0.0	-0.0	64.5944747925	-125.250785828	89.8498458862	-172.315704346
0.0	-0.0	58.217918396	-127.296112061	89.2849655151	-171.295394897
0.0	-0.0	50.1982727051	-129.18927002	88.8323669434	-170.114471436
0.0	-0.0	44.142616272	-130.560211182	88.8471450806	-168.195678711
0.0	-0.0	38.7481269836	-133.231430054	88.9580154419	-165.385971069
0.0	-0.0	39.0824356079	-137.561584473	88.4361495972	-161.338043213
0.0	-0.0	39.1042976379	-141.955337524	87.1139144897	-157.37147522
0.0	-0.0	40.2674255371	-145.367340088	86.8501281738	-154.667175293
0.0	-0.0	41.5194396973	-146.826080322	85.9354400635	-153.406097412
0.0	-0.0	53.0848960876	-145.721420288	86.1105270386	-152.789215088
0.0	-0.0	69.7038269043	-144.621459961	87.9995498657	-152.823104858
0.0	-0.0	81.2192230225	-143.124893188	89.6890563965	-153.883728027
0.0	-0.0	89.646987915	39.408946991	89.8951263428	24.9139633179
0.0	-0.0	94.3389968872	-137.135253906	89.4844055176	-156.094406128
0.0	-0.0	95.1471405029	-134.248748779	89.1639251709	-156.476806641
0.0	-0.0	97.0378112793	-132.321899414	89.9901199341	-156.705291748
0.0	-0.0	97.4954147339	52.6199073792	87.7886199951	23.5199947357
0.0	-0.0	93.8187408447	62.5694541931	87.2569122314	25.7527332306
