0.0	-0.0	-137.860397339	-13.1993894577	89.4795837402	53.4002418518
0.0	-0.0	-138.03074646	166.40272522	89.6745681763	-126.541847229
0.0	-0.0	-137.393707275	165.727767944	89.2935714722	-126.699638367
0.0	-0.0	-135.373596191	-12.3274850845	89.4206161499	52.8527336121
0.0	-0.0	-130.618804932	-4.65457630157	89.2552566528	47.1842536926
0.0	-0.0	-123.790885925	-178.932815552	87.0533599854	-145.485717773
0.0	0.0	-117.880256653	176.747756958	82.2662811279	-152.807418823
0.0	0.0	-114.626899719	170.278823853	78.7350158691	-153.2996521
0.0	0.0	-111.666091919	172.691055298	73.92603302	-165.228347778
0.0	0.0	-108.261230469	-179.08001709	73.9721832275	-167.671218872
0.0	0.0	-104.770248413	-175.70173645	66.6225509644	-178.035842896
0.0	0.0	-102.622741699	-174.77923584	57.7965316772	169.849182129
0.0	0.0	-103.959381104	-175.30960083	52.6758041382	160.518218994
0.0	0.0	-104.976303101	-177.092376709	50.7521476746	152.246353149
0.0	0.0	-96.9014053345	179.443893433	43.0199813843	145.160049438
0.0	0.0	-94.7795791626	172.449005127	41.4999923706	136.087265015
0.0	0.0	-94.9171218872	169.271179199	43.7205810547	149.0050354
0.0	0.0	-100.824455261	159.734680176	51.011264801	174.36138916
0.0	0.0	-98.9250411987	153.396438599	50.5942115784	-179.021194458
0.0	0.0	-96.8758392334	159.157562256	48.3061943054	167.868652344
0.0	0.0	-95.5752105713	163.995910645	43.1313896179	163.113601685
0.0	0.0	-92.8477325439	157.566131592	38.8680496216	155.216171265
0.0	0.0	-91.6502685547	157.29057312	31.2851200104	154.031738281
0.0	0.0	-91.7474060059	168.33821106	18.41447258	163.050888062
0.0	0.0	-91.3884811401	178.575576782	10.2292137146	169.519821167
0.0	0.0	-90.1951293945	177.12348938	9.80400848389	169.687606812
0.0	0.0	-87.2313461304	172.620849609	8.32211494446	172.651763916
0.0	0.0	-84.2250213623	168.495422363	3.79017543793	172.516357422
0.0	0.0	-83.0009078979	158.286621094	6.30365848541	176.103027344
0.0	0.0	-81.8655090332	149.48236084	8.27508354187	176.843383789
0.0	0.0	-85.3222503662	148.000228882	8.43553829193	176.580307007
0.0	0.0	-92.2955474854	145.870941162	7.44470882416	173.42906189
0.0	0.0	-103.727790833	142.652618408	3.03750300407	169.26335144
0.0	0.0	-112.691642761	143.514434814	-1.87714612484	166.799468994
0.0	0.0	-115.709663391	144.37902832	-1.53892838955	165.176345825
0.0	0.0	-113.817481995	145.932540894	0.0400199592113	165.246276855
0.0	0.0	-109.781799316	159.780303955	11.5630683899	-178.87008667
0.0	0.0	-105.988220215	171.106781006	24.3084869385	-170.756942749
0.0	0.0	-104.328323364	176.212219238	39.8372077942	-170.332901001
0.0	0.0	-101.712402344	176.774673462	55.9171142578	-169.532623291
0.0	0.0	-99.4133300781	177.11618042	66.4922561646	-167.668685913
0.0	0.0	-99.5155715942	176.720214844	69.9424133301	-169.002792358
0.0	0.0	-114.075027466	176.215270996	65.2488479614	-168.78364563
0.0	-0.0	-138.548843384	174.878631592	56.4716300964	-168.77532959
0.0	-0.0	-157.925018311	172.202148438	54.0441818237	-169.964141846
0.0	-0.0	-170.742553711	169.981613159	53.0666313171	-173.635375977
0.0	-0.0	-169.895019531	168.047622681	52.8465652466	-172.653808594
0.0	-0.0	-158.013442993	168.647216797	54.0362014771	-171.466964722
0.0	-0.0	-135.618347168	167.639953613	57.8012771606	-171.616790771
0.0	0.0	-114.96723938	165.802230835	62.413105011	-169.427062988
0.0	0.0	-92.7458572388	162.339294434	69.1006774902	-166.929733276
0.0	0.0	-58.0276985168	159.088745117	78.3365631104	-162.845275879
0.0	0.0	-35.3528862	155.621017456	84.3505706787	-158.837966919
0.0	0.0	-36.4306182861	150.670608521	88.7377090454	-150.350326538
0.0	0.0	-42.6702613831	-35.1514854431	88.2372131348	37.2588119507
0.0	0.0	-46.1119537354	-40.7733917236	85.7038116455	40.1777076721
0.0	0.0	-48.1112785339	-45.4876823425	85.9105834961	34.0356941223
0.0	0.0	-49.744342804	139.386795044	87.2582702637	-172.923019409
0.0	0.0	-51.1725540161	156.322235107	69.8680267334	163.109970093
0.0	0.0	-52.1222724915	177.834243774	54.1417579651	167.12437439
0.0	0.0	-50.0545463562	-176.864547729	43.380657196	164.22303772
0.0	0.0	-46.0605545044	-179.476455688	38.5570144653	161.418701172
0.0	0.0	-44.0813713074	174.920654297	37.4205932617	161.85774231
0.0	0.0	-47.277305603	167.859146118	34.7741127014	159.930725098
0.0	0.0	-49.0060462952	166.535263062	33.3741836548	163.382476807
0.0	0.0	-49.4417304993	166.887039185	30.6925983429	163.630264282
0.0	0.0	-51.0684394836	166.88218689	30.1972332001	163.473617554
0.0	0.0	-52.6593589783	166.550872803	29.3108787537	163.855148315
0.0	0.0	-53.3616371155	166.119689941	26.5714550018	162.921295166
0.0	0.0	-53.4677581787	167.18586731	23.6099662781	162.429855347
0.0	0.0	-53.9833869934	167.363754272	22.0840740204	162.342971802
0.0	0.0	-57.2559509277	167.342437744	21.8564109802	162.00793457
0.0	0.0	-74.0819473267	167.155548096	20.5452041626	161.958755493
0.0	0.0	-91.9825515747	167.534286499	18.0956249237	162.462936401
0.0	0.0	-95.7692337036	166.162765503	18.1009941101	161.029846191
0.0	0.0	-93.1441040039	165.402709961	17.8219242096	158.826156616
0.0	0.0	-91.6917724609	167.96887207	15.0695104599	155.586791992
0.0	0.0	-88.6399002075	170.518783569	14.0707864761	149.570785522
0.0	0.0	-89.91847229	171.497741699	15.4927492142	152.669830322
0.0	0.0	-99.0440139771	170.985473633	15.518280983	153.387802124
0.0	0.0	-113.411987305	169.467132568	15.7547550201	153.618896484
0.0	-0.0	-122.491165161	169.036010742	16.9416103363	152.760192871
0.0	-0.0	-127.879150391	169.572906494	17.7669048309	153.317962646
0.0	-0.0	-132.936813354	170.146240234	17.6461448669	154.616744995
0.0	-0.0	-132.946121216	169.127685547	17.6660747528	154.667037964
0.0	-0.0	-122.69846344	168.204666138	18.7455978394	155.166778564
0.0	0.0	-99.2677612305	169.65423584	26.9093151093	164.567886353
0.0	0.0	-76.7743911743	168.082275391	37.2671737671	173.782669067
0.0	0.0	-71.1200866699	161.509536743	41.31067276	-177.343887329
0.0	0.0	-74.2973022461	158.864425659	42.0343437195	-174.827331543
0.0	0.0	-75.8775558472	160.653396606	39.076259613	-174.771209717
0.0	0.0	-75.3002853394	162.114883423	35.0963058472	-179.202590942
0.0	0.0	-74.9427871704	160.766464233	30.5049724579	171.686340332
0.0	0.0	-74.9568634033	159.967422485	27.737613678	167.563903809
0.0	0.0	-76.134147644	158.844161987	25.6125507355	164.640106201
0.0	0.0	-79.037902832	158.521728516	24.289691925	161.769470215
0.0	0.0	-93.204750061	158.405014038	22.2311668396	157.909606934
0.0	0.0	-106.40712738	157.913146973	21.9788455963	157.067276001
0.0	0.0	-109.311004639	158.013122559	22.3392906189	155.678726196
0.0	0.0	-108.573654175	158.945785522	21.6793022156	154.710357666
0.0	0.0	-102.578781128	160.226867676	20.165555954	152.948425293
0.0	0.0	-96.8796386719	159.222076416	20.0487308502	150.275588989
0.0	0.0	-99.293762207	158.66633606	20.5523357391	148.088668823
0.0	0.0	-108.251426697	161.036682129	21.503780365	147.41847229
0.0	0.0	-119.0206604	166.700622559	27.4602355957	153.621520996
0.0	0.0	-119.760131836	167.788070679	39.2578086853	162.449768066
0.0	0.0	-117.8309021	165.459945679	46.9523086548	162.325241089
0.0	0.0	-115.794906616	163.693725586	53.6675224304	164.960876465
0.0	0.0	-112.620826721	160.598052979	64.7169876099	169.985366821
0.0	0.0	-109.946365356	159.242111206	73.1852416992	172.830337524
0.0	0.0	-108.98059845	159.889450073	77.1733856201	173.904174805
0.0	0.0	-106.568916321	165.713928223	79.1119842529	169.278778076
0.0	0.0	-101.621391296	177.797439575	68.4579086304	161.211380005
0.0	0.0	-95.5994338989	175.406478882	50.1532669067	166.006439209
0.0	0.0	-87.1928329468	162.972518921	32.23254776	166.425521851
0.0	0.0	-75.7903289795	149.400466919	23.090719223	161.237014771
0.0	0.0	-65.9679336548	145.710845947	22.3629493713	157.197296143
0.0	0.0	-59.6480789185	143.081939697	20.6278648376	158.153381348
0.0	0.0	-56.2322006226	145.866271973	17.6681251526	159.654159546
0.0	0.0	-54.182258606	146.108001709	14.1982374191	153.453796387
0.0	0.0	-52.6313285828	145.237091064	8.77958869934	151.971725464
0.0	0.0	-51.091506958	139.57623291	4.21678924561	147.220169067
0.0	0.0	-47.9960861206	139.203079224	3.65165996552	148.710296631
0.0	0.0	-42.6268463135	144.898529053	12.9504165649	168.34161377
0.0	0.0	-34.0967483521	161.414749146	26.404712677	-138.917510986
0.0	0.0	-21.8285675049	174.676376343	16.2589321136	-144.054351807
0.0	0.0	-5.72653961182	-166.712905884	11.0381679535	-130.130935669
0.0	-0.0	7.09457397461	-156.038635254	15.3737392426	-122.604660034
0.0	-0.0	15.3857536316	-160.696487427	15.8611278534	-128.816329956
0.0	-0.0	20.2446918488	-163.428604126	15.6953048706	-130.160675049
0.0	-0.0	22.140455246	-166.141571045	17.3364639282	-127.868881226
0.0	-0.0	21.4061412811	-175.188430786	25.9156169891	-136.967437744
0.0	-0.0	22.3174057007	173.824905396	37.8238105774	-146.307250977
0.0	-0.0	23.4364948273	163.221038818	47.1806182861	-152.130584717
0.0	-0.0	25.0715885162	156.087142944	54.4820899963	-154.71270752
0.0	-0.0	28.8019447327	159.862350464	54.8773422241	-175.588485718
0.0	-0.0	27.8765296936	175.408660889	46.3238143921	170.011627197
0.0	-0.0	18.9750671387	-165.912765503	29.3596439362	162.669006348
0.0	-0.0	16.7076625824	-151.559707642	17.9666976929	167.194244385
0.0	-0.0	17.2867794037	-153.394546509	17.6325378418	164.79057312
0.0	-0.0	16.7623291016	-151.52734375	21.2475280762	168.262237549
0.0	-0.0	16.1598300934	-149.088760376	26.0419483185	172.508529663
0.0	-0.0	15.2940187454	-143.792297363	32.1385993958	176.954071045
0.0	-0.0	15.5816812515	-136.728302002	34.2240066528	179.355789185
0.0	-0.0	15.8830223083	-129.720855713	32.1935195923	-178.951370239
0.0	-0.0	14.9947357178	-125.530677795	31.2342300415	-178.147018433
0.0	-0.0	14.5152587891	-120.160919189	32.81823349	-175.427093506
0.0	-0.0	14.3436775208	-116.466445923	36.438495636	-169.443572998
0.0	-0.0	14.0077867508	-115.526351929	37.7581176758	-166.624191284
0.0	-0.0	13.7861537933	-117.162612915	36.3067703247	-166.240066528
0.0	-0.0	11.3589859009	-120.424865723	35.1022605896	-167.073867798
0.0	0.0	-12.480091095	-119.966598511	32.4204025269	-165.806808472
0.0	0.0	-43.5360488892	-120.720184326	29.889585495	-164.240356445
0.0	0.0	-62.2209129333	-121.551109314	29.9229450226	-163.236877441
0.0	0.0	-67.3093643188	-123.277557373	29.2029857635	-164.379547119
0.0	0.0	-64.664024353	-125.657302856	29.3079414368	-165.763290405
0.0	0.0	-57.7226333618	-130.467330933	31.2428607941	-167.552124023
0.0	0.0	-54.7359199524	-135.494796753	32.2113418579	-169.103775024
0.0	0.0	-55.857673645	-138.908203125	33.1440811157	-167.639343262
0.0	0.0	-57.1512184143	-144.261306763	34.1943130493	-167.945022583
0.0	0.0	-58.6678962708	-148.366989136	34.8472824097	-167.608398438
