0.0	-0.0	133.157119751	69.7670669556	79.4847412109	4.68593263626
0.0	-0.0	133.078567505	69.7583312988	80.3390426636	4.65096569061
0.0	-0.0	132.501617432	70.0648193359	80.9079360962	4.57951116562
0.0	-0.0	131.413696289	70.2959747314	81.2802124023	4.34085559845
0.0	-0.0	131.039154053	70.6764602661	82.2984924316	4.21533727646
0.0	-0.0	130.770645142	70.8957519531	82.6050567627	4.34692239761
0.0	-0.0	128.836685181	70.6237869263	82.1420211792	4.79103183746
0.0	-0.0	111.355613708	71.1127548218	76.4875717163	5.61547470093
0.0	-0.0	88.0570678711	71.8268585205	65.1638717651	6.63723134995
0.0	-0.0	68.0816879272	71.1471862793	55.6982421875	6.55881404877
0.0	-0.0	53.6403999329	69.9290771484	49.1468086243	6.69973373413
0.0	-0.0	25.7634105682	68.6023864746	45.2765007019	7.47675991058
0.0	-0.0	7.81077671051	67.2889480591	41.2429885864	7.92969322205
0.0	0.0	-2.28866910934	65.3626785278	35.5542984009	8.82866001129
0.0	0.0	-17.7056083679	61.8566589355	27.135011673	9.91366004944
0.0	0.0	-23.9089069366	57.7960777283	20.9913520813	11.2880849838
0.0	0.0	-28.8089847565	56.9081840515	20.1293849945	10.7091321945
0.0	0.0	-36.7389259338	60.0212860107	25.7444820404	8.36356639862
0.0	0.0	-38.625087738	63.0330543518	34.5565567017	6.86618900299
0.0	0.0	-39.678527832	62.0928764343	39.6606330872	7.99031925201
0.0	0.0	-39.7147865295	57.7609901428	40.7584037781	10.4005489349
0.0	0.0	-40.8323745728	53.8976821899	39.8972053528	13.0778532028
0.0	0.0	-44.3166542053	52.6152229309	39.0096626282	14.5259094238
0.0	0.0	-47.4495620728	51.7213401794	39.3784217834	16.0005435944
0.0	0.0	-51.1287384033	49.1595993042	41.7932014465	18.3754405975
0.0	0.0	-50.2962608337	44.3638191223	44.9235229492	21.7228622437
0.0	0.0	-49.6591377258	39.6213417053	46.4802742004	24.3035907745
0.0	0.0	-48.1774368286	38.6035308838	46.2235794067	25.1964702606
0.0	0.0	-47.8682632446	40.0272598267	45.4091033936	25.3186531067
0.0	0.0	-48.9015541077	40.1751861572	44.8751182556	25.6934051514
0.0	0.0	-55.3343696594	39.6820373535	44.5769119263	26.1898097992
0.0	0.0	-64.4010772705	39.4814605713	44.05834198	26.7179412842
0.0	0.0	-67.3007659912	39.7889556885	43.0345344543	26.778427124
0.0	0.0	-64.4856262207	39.5304527283	40.9422340393	27.4287815094
