-17.1935176849	27.5924167633	130.301544189	5.74444007874	-3.42043876648	0.99458116293
-17.3088684082	27.365983963	130.005126953	5.86919403076	-3.39805436134	0.921968221664
-17.103975296	26.3400497437	125.793174744	5.83227586746	-3.50740456581	0.96040135622
-19.563999176	29.2834587097	127.730796814	5.53947067261	-3.72901082039	1.11761748791
-18.3576412201	30.6220359802	129.324737549	5.23356723785	-3.52528262138	1.16743636131
-14.6761312485	30.6338253021	129.401153564	5.43593502045	-2.30887556076	0.864446818829
-12.638051033	30.7550163269	128.400115967	6.02234697342	-1.7904239893	0.74036860466
-12.3890218735	31.2685585022	128.314361572	6.39585876465	-1.69011056423	0.643497347832
-13.0797634125	31.9061527252	127.577552795	6.5112862587	-1.45795726776	0.593757033348
-14.0586233139	32.9375114441	126.755264282	6.47492313385	-1.38691008091	0.711698353291
-14.5789279938	33.5626792908	126.166473389	6.13876533508	-1.61378157139	0.84256541729
-14.588098526	33.4379882812	126.467857361	5.55985355377	-2.28579187393	1.05180633068
-15.3720598221	32.7225379944	127.883712769	4.44421434402	-3.30052804947	1.45612192154
-17.9111232758	31.8157196045	132.327346802	3.54817342758	-3.78662419319	1.70130205154
-15.9040307999	31.6921634674	135.53036499	3.58504295349	-3.65311598778	1.66615915298
-15.7890052795	33.0036048889	141.868667603	3.91579461098	-3.63252210617	1.61798119545
-14.5667514801	34.1356925964	144.054534912	3.9504032135	-3.70356202126	1.65019750595
-13.7416086197	35.1935272217	143.915664673	4.05484771729	-3.55201888084	1.730935812
-13.7102832794	35.5912284851	142.369949341	4.29320383072	-3.25105237961	1.96529686451
-14.0736083984	35.9588737488	140.783035278	4.31070232391	-3.49309206009	2.5277762413
-14.2000350952	35.552280426	139.997833252	3.90216803551	-3.99991106987	2.98661184311
-13.9362745285	34.929599762	136.124008179	3.30187654495	-4.22173404694	3.59156537056
-15.9493618011	35.0618896484	116.088752747	2.07017850876	-4.39868545532	4.80778598785
-23.309135437	37.687702179	89.7208938599	-0.334136009216	-4.61999320984	7.21196937561
-27.1967372894	37.4216270447	69.6839599609	-3.75455498695	-4.93859291077	10.6943902969
-29.759847641	36.9878158569	68.6989135742	-6.71094083786	-4.80058336258	13.564540863
-29.9977054596	37.6840744019	66.9070053101	-8.48631763458	-3.99126315117	16.0937576294
-27.2659683228	34.907409668	64.7024078369	-9.52722358704	-2.62967371941	18.2609558105
-22.4108390808	27.2970714569	58.9111213684	-9.94160747528	-1.48478984833	19.5096530914
-24.6099452972	24.7429180145	29.4797019958	-9.7307062149	-0.798074126244	20.6339359283
-40.0453643799	28.164106369	-9.13563251495	-10.3366937637	-0.590558230877	22.5371017456
-47.0850830078	31.2993831635	-38.1296157837	-11.4562950134	-0.277903318405	25.1837024689
-45.4456138611	27.0236873627	-43.1495285034	-11.7751522064	0.265520632267	26.8588695526
-49.2206230164	22.5276165009	-53.3187484741	-11.7962856293	0.349206060171	27.0638389587
-48.7624702454	20.1867141724	-73.6215133667	-10.7805156708	1.07001841068	26.2249660492
-51.3101654053	19.9569282532	-102.209991455	-9.56375217438	0.411953777075	25.2344722748
-56.6939125061	17.0218906403	-105.514389038	-8.37488460541	-0.775999367237	23.8439483643
-59.6945953369	18.4480552673	-102.442573547	-7.4247713089	-1.75325357914	22.5310153961
-61.0693626404	20.0460929871	-102.54876709	-6.80021524429	-2.67822432518	21.0334339142
-61.0193328857	20.0288105011	-100.307891846	-6.40293359756	-3.12095499039	19.7117900848
-60.831829071	20.6380615234	-94.2751159668	-6.153465271	-2.87764191628	18.8420982361
-60.1272239685	23.6653118134	-70.8008041382	-6.05548858643	-2.52231931686	18.2964038849
-61.3828887939	28.142408371	-60.601020813	-5.79712915421	-2.39920544624	17.9193401337
-60.1533088684	28.8888988495	-61.959274292	-5.26964998245	-2.45653820038	18.0076732635
-59.1259994507	30.1963996887	-61.5354118347	-4.68017339706	-2.4814209938	18.1914024353
-59.2619590759	31.3929576874	-53.6035690308	-5.01532936096	-2.31670260429	18.5966053009
-58.4221801758	37.8871841431	-57.5979995728	-6.95762872696	-2.94166731834	19.2657318115
-61.6075401306	34.9769935608	-84.2836837769	-8.70659828186	-3.46581268311	19.790222168
