0.0	-0.0	129.371627808	79.9896621704	89.3035354614	15.6940422058
0.0	-0.0	129.299423218	79.1575622559	89.6500701904	16.3803844452
0.0	-0.0	124.603385925	-101.232711792	89.8340606689	-163.195755005
0.0	-0.0	101.465362549	-101.568367004	89.3795318604	-163.079925537
0.0	-0.0	72.3976287842	-100.948768616	89.1097869873	-162.71875
0.0	-0.0	40.7428131104	-101.052627563	87.6914825439	-162.172912598
0.0	-0.0	24.26222229	-100.639564514	84.4888153076	-162.087615967
0.0	0.0	-5.455327034	-100.021835327	82.2156829834	-162.74848938
0.0	0.0	-19.4164485931	-99.0078201294	78.4603118896	-163.18536377
0.0	0.0	-29.718996048	-98.147644043	74.0164489746	-162.887084961
0.0	0.0	-36.5460739136	-97.5768508911	67.5666809082	-162.793029785
0.0	0.0	-40.1447944641	-97.5156326294	63.0405197144	-163.12121582
0.0	0.0	-46.8392066956	-98.8761520386	60.4475059509	-162.47052002
0.0	0.0	-55.6206512451	-102.279335022	57.1625328064	-161.637237549
0.0	0.0	-54.1643829346	-106.265892029	53.4608459473	-161.451431274
0.0	0.0	-53.8642311096	-108.707389832	50.3906745911	-161.081893921
0.0	0.0	-59.0721321106	-110.757209778	48.5156097412	-160.493942261
0.0	0.0	-64.3137435913	-113.954833984	47.000164032	-160.087127686
0.0	0.0	-69.5958938599	-117.01235199	45.7198982239	-160.288970947
0.0	0.0	-66.6517715454	-117.883735657	44.7431030273	-160.396011353
0.0	0.0	-19.6149368286	-117.365234375	44.4284057617	-160.678619385
0.0	0.0	-15.5512390137	-116.574966431	44.5803260803	-161.531051636
0.0	0.0	-17.3725166321	-115.939361572	45.2530708313	-162.092819214
0.0	0.0	-16.0895996094	-114.484382629	45.3697509766	-162.538482666
0.0	0.0	-11.9740104675	-112.571350098	45.8697166443	-162.727859497
0.0	0.0	-17.2047462463	-111.721588135	45.7609062195	-163.010864258
0.0	0.0	-30.8018226624	-111.315078735	46.9619178772	-163.252838135
0.0	0.0	-35.7422599792	-112.184188843	47.8815879822	-163.086334229
0.0	0.0	-38.6326980591	-113.966720581	48.4697227478	-162.394622803
0.0	0.0	-40.8381462097	-115.996452332	48.4113464355	-161.651870728
0.0	0.0	-42.724822998	-117.436309814	48.1549339294	-160.763305664
0.0	0.0	-45.944770813	-118.869789124	47.9278144836	-159.665985107
0.0	0.0	-45.2561569214	-120.301483154	47.9840812683	-159.06842041
0.0	0.0	-48.2513084412	-121.481208801	48.3146629333	-158.292602539
0.0	0.0	-45.816986084	-122.811546326	48.4906349182	-157.457458496
0.0	0.0	-46.2737770081	-124.147529602	49.7253036499	-156.746566772
0.0	0.0	-46.4720535278	-125.687332153	50.2577323914	-154.644485474
0.0	0.0	-47.018321991	-127.557312012	45.6690597534	-150.759536743
0.0	0.0	-43.0734710693	-128.804244995	41.2634887695	-149.403518677
0.0	0.0	-36.6780853271	-127.875778198	41.0899238586	-149.471572876
0.0	0.0	-29.4651470184	-125.819381714	43.4423332214	-150.118286133
0.0	0.0	-25.6443920135	-123.425430298	46.5364112854	-150.632568359
0.0	0.0	-27.3777370453	-121.422149658	47.8789520264	-150.911712646
0.0	0.0	-48.0324554443	-119.526817322	49.5694274902	-151.214309692
0.0	0.0	-59.9402236938	-118.006706238	50.6755027771	-150.82901001
0.0	0.0	-65.4149398804	-118.14478302	50.5552520752	-150.361907959
0.0	0.0	-71.51587677	-119.547050476	49.3217468262	-149.16494751
0.0	0.0	-79.5347137451	-121.693122864	46.51404953	-147.576873779
0.0	0.0	-84.9516143799	-124.493782043	42.5233612061	-146.048706055
0.0	0.0	-87.0425949097	-126.459457397	37.9857521057	-144.853912354
0.0	0.0	-85.8263931274	-126.928901672	32.6422462463	-143.872680664
0.0	0.0	-82.2656021118	-126.20085144	31.4676742554	-143.748931885
0.0	0.0	-74.4353942871	-126.137008667	33.3088035583	-143.800170898
