0.0	-0.0	131.370513916	74.4401702881	86.367980957	12.4140806198
0.0	-0.0	129.825561523	74.7677154541	86.673866272	12.4884777069
0.0	-0.0	117.623535156	74.5748596191	87.1017227173	12.617855072
0.0	-0.0	74.3129119873	74.4476547241	87.4647445679	13.099029541
0.0	-0.0	38.7193870544	74.3735580444	87.6355209351	13.1907987595
0.0	-0.0	19.5453777313	-105.369758606	89.9454956055	-166.46836853
0.0	0.0	-9.63500022888	-104.38634491	84.8932266235	-165.616378784
0.0	0.0	-23.6640319824	-103.065887451	79.0791854858	-164.785461426
0.0	0.0	-32.4260559082	-102.793960571	72.0136260986	-163.596221924
0.0	0.0	-39.7759590149	-103.247192383	63.1771011353	-162.484054565
0.0	0.0	-40.2811355591	-104.343566895	55.4069709778	-161.984695435
0.0	0.0	-39.9678192139	-105.398147583	51.758392334	-161.801773071
0.0	0.0	-37.6725273132	-107.079292297	49.9968528748	-161.08026123
0.0	0.0	-36.9108695984	-109.218666077	47.0453796387	-159.890197754
0.0	0.0	-38.4978065491	-111.557121277	44.091709137	-158.789825439
0.0	0.0	-42.2221870422	-114.118110657	44.4797859192	-157.9193573
0.0	0.0	-45.4272499084	-116.35294342	46.7036247253	-157.414215088
0.0	0.0	-40.3626060486	-117.833320618	49.7609443665	-156.714767456
0.0	0.0	-41.7733612061	-119.41759491	51.5904350281	-155.796020508
0.0	0.0	-45.1633644104	-121.931945801	54.524230957	-155.352859497
0.0	0.0	-47.76820755	-124.041900635	59.1171379089	-155.147094727
0.0	0.0	-49.2289543152	-124.9427948	63.2632102966	-154.511917114
0.0	0.0	-48.3296470642	-125.05381012	66.1518783569	-153.759750366
0.0	0.0	-51.0911521912	-125.013931274	62.9346237183	-152.791275024
0.0	0.0	-58.2681121826	-125.522026062	56.687374115	-153.567626953
0.0	0.0	-64.6093521118	-125.989318848	55.5211906433	-155.08531189
0.0	0.0	-70.8712768555	-127.37197876	54.7597961426	-156.06427002
0.0	0.0	-73.7576599121	-132.915176392	52.8201980591	-157.070709229
0.0	0.0	-74.7363204956	-140.753662109	48.3490753174	-158.635070801
0.0	0.0	-74.7024459839	-145.846389771	44.8327331543	-159.645751953
0.0	0.0	-74.6572036743	-147.079650879	42.5591621399	-159.398620605
0.0	0.0	-74.54662323	-147.411132812	39.8400917053	-158.731323242
