-30.4980678558	17.1289310455	136.444351196	5.37223672867	0.399941414595	0.974490702152
-30.1094455719	16.8681640625	135.951278687	5.63554430008	0.382752627134	0.983165204525
-29.4242858887	14.9623832703	130.383666992	5.73698282242	0.209019124508	0.960850358009
-28.618724823	12.9650831223	111.71572876	5.89893817902	0.0250220485032	1.13523292542
-28.4149589539	20.3030719757	70.2280349731	6.79818677902	0.455135881901	1.55841052532
-34.6665077209	25.6298770905	33.2999038696	8.2948102951	0.822999596596	2.64717841148
-36.1160697937	24.8813610077	-5.98831176758	8.91174221039	1.05053830147	3.59286808968
-39.5962371826	16.6911945343	-21.8464813232	8.82819747925	1.89791452885	4.36189031601
-43.8143119812	9.99368667603	-49.3392524719	8.62194728851	3.60598635674	5.60078525543
-46.3205566406	8.08487319946	-57.7492980957	8.58399009705	5.36544466019	7.12097358704
-47.4590072632	7.20333194733	-64.248588562	8.10655879974	6.27735519409	8.66003131866
-49.1375083923	10.4388799667	-67.0443496704	7.15908479691	6.52918338776	10.7169027328
-53.0291366577	13.5176992416	-68.9337234497	5.8751578331	6.44577360153	13.0651321411
-54.9303245544	15.6185178757	-71.0313949585	4.70063304901	6.69721841812	14.8572301865
-56.0224533081	17.8161258698	-75.7662277222	4.27833604813	7.17832279205	15.4607810974
-57.5915565491	18.8865299225	-79.6298675537	4.67440319061	7.53734064102	15.7509670258
-57.9278640747	18.711605072	-85.3492202759	5.06195116043	7.60965156555	16.1851139069
-59.4902458191	18.0461025238	-88.6926193237	4.83882188797	7.62109518051	16.8624687195
-61.3265266418	17.5320243835	-92.2825088501	4.29089212418	7.8149600029	17.6550998688
-61.3944664001	16.1941318512	-98.1331481934	3.94599914551	8.0469455719	18.0066986084
-60.9495544434	14.2052812576	-103.860435486	4.41965389252	8.17191982269	17.7537593842
-59.9738311768	12.6982192993	-107.523139954	5.24168491364	8.26598930359	17.4900169373
-59.6977882385	12.9815616608	-106.714042664	5.73455858231	8.51391601562	17.3477897644
-59.8932113647	12.8048706055	-107.759346008	6.0370554924	8.89799308777	17.049911499
-59.776473999	12.6695489883	-107.79107666	6.46800041199	9.51444816589	16.8127841949
-60.2163162231	13.1631717682	-106.315490723	6.87209177017	9.82694816589	16.5492897034
-60.8943405151	12.9458265305	-104.723167419	6.99860191345	9.71023178101	16.3674144745
-61.0796127319	13.0146875381	-102.241096497	7.04214906693	9.48824691772	16.3375492096
