0.0648791790009	0.578740596771	0.0152696371078	-0.0689496994019	1.28783452511	-0.0663065910339
0.0667026042938	0.579701423645	0.0180950164795	-0.0688362121582	1.28837251663	-0.0665669441223
0.0668067932129	0.581116676331	0.021480679512	-0.0696883201599	1.28889358044	-0.0664769411087
0.0611267089844	0.581253290176	0.021059513092	-0.0729789733887	1.29011332989	-0.0669293403625
0.0473084449768	0.582310438156	0.0152995586395	-0.0779073238373	1.29181671143	-0.0679547786713
0.0306015014648	0.584650039673	0.0071074962616	-0.0827708244324	1.29306232929	-0.0692572593689
0.0190153121948	0.58437204361	-0.00113129615784	-0.0876519680023	1.29385054111	-0.0706375837326
0.0132246017456	0.585443019867	-0.0015594959259	-0.0933399200439	1.29466784	-0.0720164775848
0.00928640365601	0.591270923615	0.00202620029449	-0.100154876709	1.29663932323	-0.0740820169449
0.013275384903	0.593300104141	0.00824153423309	-0.109714508057	1.30110132694	-0.0778126716614
0.0175058841705	0.598006725311	0.0170164108276	-0.119128704071	1.30396091938	-0.0833036899567
0.0180928707123	0.600851774216	0.0198829174042	-0.124989271164	1.30459713936	-0.0881886482239
0.0157608985901	0.602226734161	0.0198405981064	-0.127648591995	1.30711340904	-0.0930209159851
0.012017250061	0.599933624268	0.0176541805267	-0.128567695618	1.31138622761	-0.0985610485077
0.0051257610321	0.596269607544	0.0112438201904	-0.128076076508	1.3147919178	-0.104320287704
-0.00290536880493	0.59383559227	0.00474715232849	-0.126142501831	1.31558513641	-0.109857320786
-0.00697922706604	0.592976570129	0.00166010856628	-0.12361240387	1.31684947014	-0.11600792408
-0.00740098953247	0.590539932251	-0.00130426883698	-0.120735168457	1.31856322289	-0.123212337494
-0.00623440742493	0.587128639221	-0.00430071353912	-0.118625164032	1.31972360611	-0.129932880402
-0.00441884994507	0.584715366364	-0.00619602203369	-0.117519378662	1.32068479061	-0.135700464249
-0.0020010471344	0.584558963776	-0.00645780563354	-0.11713552475	1.3219101429	-0.141868591309
