0.0407571792603	0.692409992218	0.0903099775314	-0.10373878479	1.30322790146	-0.122001051903
0.0377371311188	0.691525936127	0.0906574726105	-0.103463172913	1.30331909657	-0.122384190559
0.0344521999359	0.691038131714	0.0896508693695	-0.104280948639	1.30372083187	-0.122811794281
0.0269069671631	0.69108581543	0.0870265960693	-0.107647180557	1.30510389805	-0.122520446777
0.018768787384	0.682678222656	0.08533680439	-0.112140893936	1.30550634861	-0.121951580048
0.0118186473846	0.676086425781	0.0814909934998	-0.115113258362	1.30514883995	-0.120908498764
0.00395703315735	0.676041603088	0.077615737915	-0.116369247437	1.30427968502	-0.119365215302
-0.00203013420105	0.670679330826	0.0739717483521	-0.117052316666	1.30258822441	-0.117479920387
-0.00332117080688	0.666451692581	0.0723252296448	-0.118348121643	1.30035674572	-0.115971922874
-0.0037260055542	0.660826444626	0.0697290897369	-0.119900226593	1.29857611656	-0.114759922028
-0.00145626068115	0.656316518784	0.0685288906097	-0.121583461761	1.29813420773	-0.113923311234
0.00296401977539	0.65482878685	0.0701229572296	-0.122488021851	1.29748594761	-0.11348938942
0.00916218757629	0.654880523682	0.0744826793671	-0.121582746506	1.29670238495	-0.11361849308
0.0152957439423	0.657542467117	0.079881310463	-0.120010375977	1.29629278183	-0.113988399506
0.0186722278595	0.660466909409	0.0833876132965	-0.118626594543	1.29589223862	-0.113629341125
