-29.5719413757	-8.67901515961	135.472900391	4.19654369354	0.60945636034	-1.51647400856
-29.2289276123	-8.74553108215	134.133361816	4.13961029053	0.491227656603	-1.38603389263
-27.7443904877	-9.05601119995	126.206558228	3.87618136406	-0.748819112778	-0.844211757183
-24.8535690308	-6.75728416443	106.998458862	3.67093753815	-5.13461446762	0.27547994256
-20.21342659	-8.34038448334	76.9729614258	3.64844322205	-7.36761951447	0.701425015926
-16.5329971313	-1.02056884766	36.0920066833	3.41758179665	-8.80142498016	1.28723096848
-17.1068706512	5.45131921768	8.87385940552	3.23070168495	-10.7175588608	2.07729363441
-22.6243667603	6.86942195892	-15.6122751236	2.77520370483	-13.5570774078	3.20897531509
-29.9089813232	7.05736875534	-25.7787952423	2.04902839661	-15.8693304062	4.40905189514
-34.6016044617	5.68097400665	-40.3680801392	1.94923436642	-17.326417923	5.1373667717
-37.4299163818	4.98415899277	-47.876914978	1.99578952789	-18.1941394806	5.56376552582
-39.3944816589	5.17013931274	-52.2198448181	1.5907381773	-18.7788581848	6.3617773056
-40.2322998047	6.40025854111	-53.8975028992	0.263370662928	-18.3804397583	7.7447309494
