-33.5758857727	-19.8902263641	137.45880127	8.95547866821	-1.39507067204	3.128282547
-33.0528869629	-19.6233978271	136.535140991	8.76315307617	-1.43429481983	3.30124020576
-29.2141933441	-20.5832920074	128.841400146	8.70655441284	-1.34830236435	3.54402732849
-20.4296779633	-17.3170509338	103.36579895	9.08100891113	-1.16001665592	3.6771774292
-10.2099685669	-4.40584564209	47.1251411438	9.69566249847	-1.0757445097	3.96576666832
-15.0065717697	0.989525794983	20.8494281769	10.3143424988	-1.12477052212	4.17685508728
-21.4289493561	0.919620513916	-18.9492645264	10.5666913986	-1.14674198627	4.50286722183
-26.5617160797	-2.37272620201	-30.3222560883	10.4058523178	-0.712636351585	4.74463891983
-33.998626709	-2.93904447556	-46.9487915039	9.82362174988	-0.319538205862	4.91310119629
-40.2576408386	-2.38817381859	-52.245475769	8.95798301697	-0.0724413618445	5.25724601746
-42.3829574585	0.0440467484295	-49.1975898743	8.08798408508	0.142413437366	5.69767332077
-42.5803070068	2.15062093735	-47.7737884521	7.62299871445	0.387362420559	6.25128555298
-42.3237304688	3.69261407852	-47.9229164124	7.2472448349	0.531575322151	7.03223752975
