-0.314714193344	0.889499425888	0.11869096756	-0.175514698029	1.30501544476	-0.0755014419556
-0.312669754028	0.889460325241	0.119357585907	-0.176542520523	1.30565023422	-0.0767203569412
-0.309999704361	0.889142751694	0.12060880661	-0.179149866104	1.30577385426	-0.0765470266342
-0.307553291321	0.890717983246	0.122460126877	-0.183744668961	1.30659723282	-0.0745420455933
-0.30504655838	0.892327308655	0.124181747437	-0.188963651657	1.30843567848	-0.0716304779053
-0.298910617828	0.897061109543	0.131937146187	-0.194406986237	1.31218743324	-0.0687501430511
-0.286475658417	0.908225536346	0.150072932243	-0.199345350266	1.31784009933	-0.0674699544907
-0.274386644363	0.927677631378	0.168760061264	-0.20393538475	1.32369124889	-0.0681933164597
-0.270474672318	0.949411869049	0.180208325386	-0.208468198776	1.3281494379	-0.0696604251862
-0.274761915207	0.967825651169	0.181615233421	-0.213584184647	1.32949364185	-0.0702347755432
-0.281352996826	0.981465339661	0.176447987556	-0.216770410538	1.33024573326	-0.0702900886536
-0.287750720978	0.986150503159	0.170552134514	-0.218235969543	1.33186221123	-0.0717704296112
-0.290705442429	0.982180595398	0.170726537704	-0.219372034073	1.33405160904	-0.0743440389633
-0.291714668274	0.981994152069	0.168342232704	-0.221154212952	1.33802723885	-0.0777337551117
-0.294993638992	0.990290164948	0.162079572678	-0.222273111343	1.34283125401	-0.0830743312836
-0.29677605629	1.00546550751	0.155485153198	-0.22179889679	1.34478592873	-0.0881464481354
-0.295924186707	1.02101421356	0.148415327072	-0.221061706543	1.3451076746	-0.0912425518036
