-40.7532997131	4.58490133286	132.958358765	5.8660774231	1.10356318951	-0.0643662661314
-40.70677948	4.61129236221	132.789306641	5.78793859482	1.29493999481	0.0344726853073
-39.4051818848	3.4960463047	128.355453491	5.70369195938	0.715549528599	0.163012892008
-37.1310272217	3.47723269463	115.897315979	4.90314912796	-1.79595971107	0.257591366768
-35.2474365234	4.08269643784	101.460296631	3.58384132385	-3.59820461273	0.653619110584
-34.7014198303	7.14882802963	88.6405487061	2.49285769463	-3.35271167755	1.11882734299
-38.2911758423	9.13791275024	84.0587463379	1.62260437012	-2.22276306152	1.52828836441
-39.6159706116	10.1274833679	84.6116027832	0.584425032139	-1.39749181271	1.85704088211
-38.9911651611	10.7275285721	84.0609588623	-0.325411677361	-0.93004322052	2.07781815529
-38.5936813354	10.9597015381	84.2168807983	-0.65068334341	-0.397476315498	2.2275147438
-37.3843231201	10.64747715	81.6316757202	-0.386620342731	0.00473553268239	2.29525256157
