-35.0498085022	2.24927520752	22.0769367218	5.98643445969	1.79538309574	-33.2322540283
-35.1970672607	2.01367139816	22.234462738	6.0456404686	1.70587253571	-33.2355728149
-35.1343841553	1.79242372513	22.3955993652	6.14547252655	1.55290591717	-33.2020874023
-35.3737983704	0.899894833565	24.6080131531	5.87657260895	0.43346118927	-32.1877288818
-36.252986908	-0.109019510448	34.9746360779	3.57397437096	-2.70746326447	-29.3952388763
-38.9031639099	-0.362027227879	43.366027832	-0.101788081229	-4.49049520493	-27.1071510315
-39.6540489197	-0.176875531673	50.4176559448	-3.51369023323	-4.81252384186	-24.7348423004
-38.665397644	-0.237153038383	60.7972564697	-6.1685757637	-4.58760118484	-21.8090515137
-31.6717987061	-0.237642005086	63.4234046936	-8.22302913666	-3.97399544716	-18.9949131012
-27.0520935059	-1.2039154768	66.2465744019	-9.22152900696	-3.4557826519	-17.2446746826
-24.8241729736	-1.58442902565	67.871711731	-9.67206859589	-3.04964661598	-16.5507564545
-23.9908065796	-1.53661060333	65.883026123	-9.574883461	-2.53958177567	-16.2212181091
-30.820394516	-2.78844571114	57.5890769958	-9.1025056839	-2.05556893349	-15.8616504669
-36.6150512695	-4.85997533798	52.5286521912	-8.78957939148	-1.75733649731	-15.5202484131
-40.3851585388	-5.87991189957	50.6340560913	-8.73476696014	-1.62487053871	-15.5105037689
-45.6008300781	-7.13177490234	48.0031013489	-8.24201393127	-1.30217862129	-15.545176506
-46.678188324	-7.75081157684	45.843662262	-8.37456226349	-1.22858548164	-14.2852621078
-46.8378295898	-6.57292556763	46.9247055054	-9.96485233307	-0.972573697567	-12.2709560394
-42.1118812561	-4.03540992737	46.4828720093	-11.4033555984	-0.653184711933	-11.2214365005
-35.1766586304	-2.54520463943	47.6162605286	-11.6392736435	-0.703655600548	-10.8909463882
-30.5885238647	-2.50704741478	49.1547164917	-11.2469568253	-0.95595896244	-10.5234518051
-28.0294113159	-2.93780016899	49.2678070068	-11.0124702454	-1.21221876144	-10.1402397156
-25.8058128357	-2.75232934952	50.6263275146	-10.5026035309	-1.44047141075	-10.033039093
-24.3053302765	-2.24103355408	50.3876075745	-9.89931583405	-1.48089146614	-10.1404018402
-22.3552761078	-1.70553147793	50.8182907104	-9.42530727386	-1.41009020805	-10.1395902634
-20.3350009918	-1.52153944969	51.0799713135	-9.19141769409	-1.35473310947	-10.1064319611
-18.0531959534	-1.20786035061	51.7695121765	-9.01150894165	-1.26357924938	-10.1308412552
-15.6740236282	-1.04193747044	51.9076881409	-8.89970207214	-1.27718150616	-10.1356678009
-13.5930042267	-1.16048121452	52.8251457214	-8.81606864929	-1.30873429775	-10.1954374313
-11.9051656723	-1.16212725639	52.6561126709	-8.72220420837	-1.2871632576	-10.1969060898
-11.5460271835	-0.744527816772	52.696762085	-8.48369979858	-1.29481399059	-10.2985057831
-11.9153652191	-0.461093485355	52.4858207703	-8.2821598053	-1.31359255314	-10.4768009186
-12.2201213837	-0.435236573219	52.5329093933	-8.22257041931	-1.24070930481	-10.6175470352
-12.6469182968	-0.0571086704731	51.9405784607	-8.51271152496	-1.37695717812	-11.2014074326
-13.6003332138	0.730322539806	51.5526161194	-8.83583641052	-1.81860721111	-14.9004259109
-14.1826601028	1.17312633991	52.1670875549	-7.62247657776	-1.32730066776	-20.1277484894
-14.5331497192	0.709514677525	51.9687919617	-6.92412424088	-0.998981237411	-22.0922603607
-15.014626503	0.897306263447	51.8909873962	-7.19199037552	-1.0581921339	-22.0105705261
-15.6457481384	1.62615144253	51.7213859558	-8.08776283264	-1.1161519289	-21.5789241791
-17.7994670868	2.68227291107	52.3093452454	-8.92751598358	-0.952562510967	-20.9113807678
-21.5288200378	3.00157976151	52.1132774353	-9.9154586792	-1.4878411293	-19.8441791534
