0.138597488403	0.720570325851	-0.00663065910339	-0.0964241027832	1.30301618576	-0.167066335678
0.136520624161	0.722316265106	-0.00243782997131	-0.0983800888062	1.30358719826	-0.167803406715
0.13258600235	0.722465753555	0.00126791000366	-0.101593971252	1.30427324772	-0.167936086655
0.122029066086	0.711869478226	0.0055935382843	-0.106449604034	1.30384504795	-0.167135000229
0.0946893692017	0.693760633469	0.00353729724884	-0.113350868225	1.3017718792	-0.165458321571
0.0707235336304	0.680255413055	-0.000372171401978	-0.122516155243	1.29807674885	-0.162806749344
0.0381674766541	0.667731285095	-0.00761222839355	-0.132591962814	1.29362809658	-0.159149646759
0.0059916973114	0.660274505615	-0.0202021598816	-0.142280340195	1.28897929192	-0.156186103821
-0.0120186805725	0.660050392151	-0.0325353145599	-0.150593996048	1.28295528889	-0.154085040092
-0.0133395195007	0.656562328339	-0.0419738292694	-0.155591011047	1.27531480789	-0.153611421585
0.0016393661499	0.647870779037	-0.0504443645477	-0.156942844391	1.2693939209	-0.154230117798
0.0205655097961	0.646309137344	-0.0506401062012	-0.155350208282	1.26650834084	-0.154512643814
0.0350909233093	0.647387742996	-0.0516777038574	-0.151721477509	1.26293826103	-0.155228376389
0.0407793521881	0.645745992661	-0.0661668777466	-0.147172451019	1.25939261913	-0.155778884888
0.0442736148834	0.640241146088	-0.0854910612106	-0.14223074913	1.25556862354	-0.156038761139
0.050802230835	0.631467103958	-0.10751581192	-0.136817216873	1.24949896336	-0.15674495697
