0.0	-0.0	131.389526367	-125.18636322	89.1604156494	175.271438599
0.0	-0.0	131.268005371	-125.762451172	89.0746841431	175.586227417
0.0	-0.0	130.919204712	-126.116333008	89.3417205811	175.965820312
0.0	-0.0	130.354248047	51.7844619751	89.5436096191	-3.59581065178
0.0	-0.0	129.493713379	46.1248168945	85.1683502197	-4.1452665329
0.0	-0.0	128.747146606	35.0733642578	77.1237792969	-6.79506111145
0.0	-0.0	127.96408844	22.1971950531	66.2383651733	-11.4376020432
0.0	-0.0	127.55783844	10.9105014801	55.4434661865	-15.185590744
0.0	-0.0	127.514030457	-0.197337433696	47.5862426758	-16.7527103424
0.0	-0.0	126.102432251	-4.26355934143	42.772769928	-16.3191757202
0.0	-0.0	115.659706116	-1.21113431454	38.9233398438	-15.804731369
0.0	-0.0	100.906402588	0.573603212833	34.6927604675	-16.0814762115
0.0	-0.0	87.7733306885	-1.61617434025	29.1991863251	-16.5635089874
0.0	-0.0	81.9396286011	-4.66144227982	23.6556835175	-16.5795345306
0.0	-0.0	79.2830581665	-4.31376981735	23.4118385315	-15.2791318893
