0.301928281784	1.46647119522	-0.00636506080627	0.176914215088	1.72457706928	-0.303802013397
0.300657987595	1.46702170372	-0.00605368614197	0.173313140869	1.72467720509	-0.303463220596
0.299439191818	1.46577882767	-0.00575876235962	0.169646024704	1.72489416599	-0.303118944168
0.29846405983	1.46452236176	-0.00562918186188	0.165914773941	1.72267770767	-0.301746845245
0.296586990356	1.46318686008	-0.0064902305603	0.161975383759	1.7170522213	-0.298242092133
0.293942689896	1.46036684513	-0.00828909873962	0.157563209534	1.71032738686	-0.293502092361
0.29057264328	1.45535516739	-0.00894021987915	0.153121709824	1.70546114445	-0.289070725441
0.28878736496	1.45084536076	-0.0102987289429	0.149389743805	1.70351028442	-0.286138772964
0.289759874344	1.44894862175	-0.00878727436066	0.147340297699	1.70140051842	-0.284665584564
0.289362668991	1.45024132729	-0.00601530075073	0.14777970314	1.6990622282	-0.284098863602
0.290900468826	1.45132517815	-0.00163722038269	0.148988485336	1.70039737225	-0.285343885422
0.295391321182	1.45053255558	-0.000251770019531	0.147657155991	1.70353221893	-0.287209749222
0.303375959396	1.4469563961	0.00156307220459	0.143826961517	1.70754718781	-0.29011785984
0.309946775436	1.44039261341	0.00541484355927	0.139419317245	1.71152365208	-0.29295694828
0.316740274429	1.43200409412	0.00591850280762	0.13430929184	1.71506917477	-0.295307397842
0.329350233078	1.42403066158	0.00766444206238	0.129699230194	1.71616530418	-0.29704117775
0.347185611725	1.41782414913	0.00985491275787	0.126291513443	1.71252584457	-0.297669649124
0.353967428207	1.40861785412	0.0184638500214	0.123376607895	1.70645081997	-0.29734313488
0.34810757637	1.40328931808	0.0240287780762	0.122067451477	1.70291101933	-0.296954870224
0.341544866562	1.39975607395	0.0297738313675	0.122884988785	1.70111119747	-0.296681165695
0.337569713593	1.39483475685	0.036493897438	0.124272346497	1.69989871979	-0.297025084496
0.335025548935	1.39212036133	0.0371774435043	0.124990940094	1.69856584072	-0.297907114029
0.324525356293	1.39684796333	0.0274192094803	0.125848531723	1.69724345207	-0.299312949181
0.316715717316	1.39226722717	0.0182690620422	0.127667665482	1.6940664053	-0.29988861084
0.307986736298	1.38693284988	0.00701677799225	0.130389451981	1.68975460529	-0.298456907272
0.305404901505	1.38483452797	-0.000685930252075	0.132374763489	1.68607389927	-0.297216415405
0.304942369461	1.38490521908	-0.00679278373718	0.134217262268	1.68720197678	-0.297333478928
0.299470186234	1.38121306896	-0.0127112865448	0.136258125305	1.69076633453	-0.299349427223
0.290656328201	1.37487959862	-0.0180939435959	0.137984037399	1.69096708298	-0.301502227783
0.285898447037	1.37130117416	-0.0233498811722	0.140164613724	1.68734288216	-0.303015708923
0.290277004242	1.37007474899	-0.0267386436462	0.143890142441	1.6813724041	-0.303898334503
0.293638944626	1.37163162231	-0.0304754972458	0.149066448212	1.6761007309	-0.303612947464
0.296328306198	1.37442421913	-0.0334516763687	0.155560731888	1.67236161232	-0.303740978241
0.294760942459	1.37291538715	-0.0350630283356	0.159819126129	1.67017972469	-0.304353713989
0.290088415146	1.3692432642	-0.0377969741821	0.159594535828	1.66877925396	-0.304872751236
0.288363456726	1.36787140369	-0.0396014451981	0.157858848572	1.66862678528	-0.305269479752
0.293527841568	1.37119567394	-0.0394732952118	0.157316923141	1.66835391521	-0.306612968445
0.295323610306	1.37157809734	-0.0383837223053	0.157878637314	1.66762387753	-0.307415485382
0.297765493393	1.36870062351	-0.0375893115997	0.159360408783	1.66634178162	-0.307962417603
0.297115802765	1.36470746994	-0.0389583110809	0.161706447601	1.66601932049	-0.308837890625
0.296857118607	1.36181998253	-0.0411400794983	0.166259765625	1.66823649406	-0.310444831848
0.298603534698	1.36005961895	-0.0427353382111	0.170739889145	1.6711640358	-0.31302523613
0.301446914673	1.35999011993	-0.0448503494263	0.171186447144	1.67429745197	-0.315690279007
0.304653167725	1.36024129391	-0.04716360569	0.167443752289	1.67706859112	-0.318145513535
0.304480791092	1.36043703556	-0.0501885414124	0.165302276611	1.67973399162	-0.320830821991
0.305442333221	1.35901498795	-0.0503566265106	0.170281887054	1.68323087692	-0.323870658875
0.307570695877	1.35877907276	-0.0498336553574	0.181180238724	1.68597531319	-0.327482938766
0.307600736618	1.35851991177	-0.0510394573212	0.184727668762	1.68889415264	-0.32994389534
0.307766914368	1.35799264908	-0.0518032312393	0.179537534714	1.68954694271	-0.328837633133
0.306773424149	1.35704743862	-0.0524749755859	0.168816804886	1.68700897694	-0.325885057449
0.304027795792	1.35317182541	-0.0533083677292	0.158764600754	1.68446815014	-0.323362112045
0.303739070892	1.34825015068	-0.053245306015	0.153396844864	1.68440723419	-0.321560025215
0.303157329559	1.34355080128	-0.0528831481934	0.151352882385	1.68555963039	-0.320078134537
0.306350469589	1.34267771244	-0.0519640445709	0.147776842117	1.68401265144	-0.318697094917
0.309795856476	1.34500479698	-0.0505275726318	0.143184900284	1.68339312077	-0.317254662514
0.309798002243	1.34804177284	-0.0506360530853	0.14660358429	1.68241560459	-0.316065907478
0.308478116989	1.35105955601	-0.050448179245	0.146565914154	1.67835593224	-0.314634799957
0.306019544601	1.34972047806	-0.0498280525208	0.147843122482	1.67103624344	-0.313151955605
0.305659294128	1.34912037849	-0.049800992012	0.155317544937	1.66558158398	-0.31131196022
0.306306362152	1.3486096859	-0.0487244129181	0.165624380112	1.66387164593	-0.30984210968
0.305072784424	1.3487033844	-0.0484404563904	0.172120809555	1.66287434101	-0.308818340302
0.301415920258	1.34757113457	-0.0489420890808	0.172927856445	1.66243612766	-0.308434247971
0.295320749283	1.3428633213	-0.0499789714813	0.171546459198	1.66286253929	-0.308476924896
0.293697595596	1.34048140049	-0.0486632585526	0.170277833939	1.66321909428	-0.30891084671
0.300691604614	1.34536981583	-0.0466958284378	0.167376756668	1.66425681114	-0.3083370924
0.308327198029	1.34540522099	-0.0480355024338	0.162620544434	1.66750586033	-0.306740283966
0.313683271408	1.33607196808	-0.0512248277664	0.160245418549	1.67579042912	-0.304165244102
0.317498207092	1.3232883215	-0.0518360137939	0.160672903061	1.68537259102	-0.302932500839
0.317804336548	1.31637859344	-0.0529026985168	0.161916971207	1.69615101814	-0.303405761719
0.314763307571	1.31479036808	-0.0544011592865	0.161471128464	1.70325398445	-0.305281877518
0.311791419983	1.3148804903	-0.0541706085205	0.160029411316	1.70667493343	-0.308378338814
0.309553861618	1.31338572502	-0.0529873371124	0.159026861191	1.71164798737	-0.312573075294
0.307153940201	1.30926644802	-0.0509564876556	0.157679796219	1.71666765213	-0.316938877106
0.296545267105	1.29619956017	-0.0491396188736	0.155962944031	1.71952366829	-0.319394826889
0.275841474533	1.28107607365	-0.0511590242386	0.153853416443	1.72021579742	-0.32134103775
0.259610891342	1.27554106712	-0.0551774501801	0.153015136719	1.71919107437	-0.321373343468
0.254795312881	1.27746665478	-0.0535989999771	0.154280900955	1.71810233593	-0.319771289825
0.256426095963	1.28092098236	-0.0494017601013	0.155737638474	1.71634745598	-0.316576480865
0.259062767029	1.28033709526	-0.0471999645233	0.155917644501	1.71449661255	-0.313939571381
0.258786201477	1.276694417	-0.0469734668732	0.15568113327	1.7137992382	-0.312138557434
0.259288549423	1.27442276478	-0.0467923879623	0.156238079071	1.71377718449	-0.310730338097
0.261571645737	1.27409005165	-0.0455727577209	0.157649993896	1.71351420879	-0.309307217598
0.264223575592	1.27454209328	-0.0439251661301	0.159630298615	1.71353006363	-0.30752658844
0.266006469727	1.27421307564	-0.0425851345062	0.161393642426	1.71286261082	-0.305024147034
0.267342329025	1.27332389355	-0.0419600009918	0.16279053688	1.71089279652	-0.302376270294
0.267933607101	1.27394402027	-0.0416243076324	0.164134263992	1.70730757713	-0.299038887024
0.267575740814	1.27705276012	-0.0400871038437	0.165304660797	1.69734096527	-0.295080423355
0.265985250473	1.28186786175	-0.0390305519104	0.165108203888	1.68571293354	-0.291862726212
0.266076803207	1.28472840786	-0.0377123355865	0.166258573532	1.67920529842	-0.289396524429
0.265950202942	1.28371226788	-0.0369875431061	0.167890310287	1.67674183846	-0.288491725922
0.265173196793	1.28244125843	-0.0378239154816	0.163805484772	1.67625200748	-0.288480758667
0.265781164169	1.28163540363	-0.03892827034	0.154902219772	1.67684578896	-0.289778828621
0.265971183777	1.28122901917	-0.0394847393036	0.149553775787	1.6777973175	-0.291559934616
0.26771569252	1.28293693066	-0.042259812355	0.147961854935	1.67786645889	-0.29252576828
0.271121740341	1.28335082531	-0.0467414855957	0.150993347168	1.67731082439	-0.292106389999
0.280964136124	1.28493523598	-0.0444390773773	0.157058238983	1.6774418354	-0.291452407837
0.281254291534	1.28559422493	-0.0457577705383	0.164445877075	1.67813432217	-0.291839838028
0.277884721756	1.28436088562	-0.0472886562347	0.171243667603	1.67849946022	-0.292671918869
0.278916120529	1.28905832767	-0.0464322566986	0.175088167191	1.67857527733	-0.293622255325
0.279143333435	1.29323387146	-0.0462853908539	0.17663526535	1.67761433125	-0.294429540634
0.277540683746	1.29678606987	-0.0482252836227	0.178514480591	1.67567718029	-0.295708656311
0.275507688522	1.30161368847	-0.0549457073212	0.177799701691	1.6744363308	-0.29682803154
0.275225400925	1.30665898323	-0.0616416931152	0.175950050354	1.67436254025	-0.297621846199
0.274666786194	1.31580352783	-0.0744919776917	0.175888061523	1.67503070831	-0.298013210297
0.272788047791	1.32358062267	-0.0863633155823	0.176166057587	1.67495441437	-0.297876358032
0.27458024025	1.33049690723	-0.0897047519684	0.176458597183	1.6747238636	-0.297538518906
0.279043912888	1.33951318264	-0.0956127643585	0.176891326904	1.67465281487	-0.29675257206
0.280468940735	1.34516561031	-0.0972936153412	0.177208185196	1.67454445362	-0.295629620552
0.280228614807	1.34340929985	-0.0963428020477	0.177318811417	1.67386543751	-0.294304251671
0.27850985527	1.33761978149	-0.0859909057617	0.177068471909	1.67343866825	-0.292796134949
0.277061223984	1.33019888401	-0.0769743919373	0.176540374756	1.67313158512	-0.291662573814
0.275158882141	1.3286523819	-0.0710995197296	0.175669431686	1.67335283756	-0.290585398674
0.269822597504	1.32990384102	-0.0733680725098	0.173310518265	1.67473292351	-0.288793325424
0.264755249023	1.33061301708	-0.0896492004395	0.168755054474	1.67643010616	-0.286893367767
0.263986587524	1.33109307289	-0.103980302811	0.164620876312	1.67812955379	-0.285757780075
0.263149261475	1.33543515205	-0.112386822701	0.163104534149	1.67889225483	-0.285864591599
0.263134479523	1.34208321571	-0.118524074554	0.164172649384	1.6792640686	-0.286163210869
0.262691497803	1.34924244881	-0.129997014999	0.165969371796	1.67989218235	-0.285918474197
0.264611959457	1.35690844059	-0.14520573616	0.167274951935	1.68034398556	-0.285145998001
0.265103816986	1.3563477993	-0.139587879181	0.16774559021	1.6804087162	-0.285131454468
0.26363992691	1.3496568203	-0.12269949913	0.168200016022	1.68013679981	-0.285702705383
0.261819601059	1.34265100956	-0.0994093418121	0.168551206589	1.68018364906	-0.28618657589
0.26163816452	1.34177720547	-0.0748158693314	0.168203115463	1.68070471287	-0.287204265594
0.26217341423	1.34558570385	-0.0406222343445	0.166767597198	1.68156516552	-0.289200782776
0.259641647339	1.34623730183	-0.00191140174866	0.16356086731	1.68260073662	-0.291476011276
0.245342493057	1.36711716652	-0.015792965889	0.157268762589	1.68340265751	-0.292748689651
0.233329057693	1.37022006512	-0.0338048934937	0.148288726807	1.68281507492	-0.293933153152
0.225096225739	1.36757731438	-0.0450148582458	0.140386104584	1.68064272404	-0.294899344444
0.22453212738	1.36664497852	-0.0512865781784	0.137764215469	1.67880439758	-0.294519901276
0.226004600525	1.36536514759	-0.0634002685547	0.139085531235	1.67732930183	-0.292829751968
0.229207754135	1.36414933205	-0.0786083936691	0.141920804977	1.67542004585	-0.290145397186
0.232725143433	1.36368966103	-0.0844140052795	0.145282745361	1.67385387421	-0.288065671921
0.231199026108	1.36278128624	-0.0873515605927	0.151085853577	1.67292094231	-0.286718726158
0.229734182358	1.36387205124	-0.0907632112503	0.160252809525	1.6715708971	-0.285894155502
0.228660821915	1.36209046841	-0.0914556980133	0.167759418488	1.67013084888	-0.28586602211
0.228671789169	1.3602796793	-0.0921285152435	0.171719789505	1.66885471344	-0.286176204681
0.229619979858	1.35989785194	-0.094042301178	0.175062179565	1.6678507328	-0.287620186806
0.230705976486	1.36080229282	-0.0954868793488	0.179235696793	1.66754376888	-0.290043354034
0.231962680817	1.36120772362	-0.0980635881424	0.184946775436	1.66840922832	-0.293696880341
0.234634876251	1.36094868183	-0.102425575256	0.19327878952	1.66937100887	-0.298697710037
0.239573478699	1.36149919033	-0.107690453529	0.204584360123	1.66853070259	-0.305212020874
0.245940685272	1.3631824255	-0.114633798599	0.213931083679	1.66909337044	-0.313151597977
0.251711606979	1.36246311665	-0.11985206604	0.219689846039	1.67095887661	-0.322809457779
0.255864143372	1.36349785328	-0.124965786934	0.226204633713	1.67134737968	-0.334473609924
0.259118556976	1.36838698387	-0.131670951843	0.231552839279	1.67019402981	-0.345664620399
0.261106729507	1.37159109116	-0.137453794479	0.233084440231	1.66640102863	-0.355615854263
0.261044740677	1.37379777431	-0.141765832901	0.234318256378	1.66331136227	-0.365337133408
0.260903120041	1.37777853012	-0.145016670227	0.23692035675	1.66338419914	-0.375769615173
0.261739730835	1.38271009922	-0.147771120071	0.236922979355	1.66468656063	-0.384971022606
0.262475967407	1.38581216335	-0.150100469589	0.236116170883	1.66528427601	-0.390765666962
0.26071190834	1.38532578945	-0.151672244072	0.234522819519	1.66581392288	-0.39261174202
0.257534980774	1.3822927475	-0.151786804199	0.2305727005	1.66456317902	-0.387821912766
0.255342245102	1.37566161156	-0.148886322975	0.223574876785	1.66248261929	-0.376989603043
0.251892328262	1.36569309235	-0.14498770237	0.215679883957	1.66247856617	-0.362162828445
0.246598958969	1.35559213161	-0.139164924622	0.209081888199	1.66325926781	-0.345118880272
0.240338563919	1.34782361984	-0.132441520691	0.202721595764	1.66384589672	-0.327715873718
0.234940290451	1.34429478645	-0.125339031219	0.197939157486	1.66421210766	-0.31366944313
0.231431484222	1.34492909908	-0.121685028076	0.195779085159	1.6658860445	-0.30525970459
0.230743646622	1.34570288658	-0.119654178619	0.196759939194	1.66843366623	-0.302399277687
0.232117652893	1.34666347504	-0.117462873459	0.20002746582	1.66901087761	-0.303312182426
0.234913349152	1.34824800491	-0.11731004715	0.204855918884	1.6683267355	-0.305118083954
0.238892555237	1.3495490551	-0.118217468262	0.209913492203	1.66826319695	-0.307146787643
0.241896152496	1.34981918335	-0.119481086731	0.215831041336	1.66793930531	-0.309033870697
0.243319272995	1.35017943382	-0.121376752853	0.222773790359	1.66734242439	-0.310698270798
0.244006156921	1.34950530529	-0.126047372818	0.229319095612	1.66683781147	-0.312835693359
0.246013402939	1.35011088848	-0.132885217667	0.234014987946	1.66665709019	-0.315224885941
0.250072479248	1.35378706455	-0.141881227493	0.237283706665	1.66670966148	-0.318448781967
0.254351377487	1.35935747623	-0.150484085083	0.239351034164	1.66686975956	-0.322559356689
0.259189605713	1.36580657959	-0.161111593246	0.241476774216	1.66583526134	-0.327293395996
0.264392375946	1.37165439129	-0.171100616455	0.244026184082	1.66661989689	-0.332700967789
0.267538309097	1.37454843521	-0.175174474716	0.247710704803	1.66764330864	-0.339823484421
0.26854300499	1.37489795685	-0.177530884743	0.251952648163	1.66628909111	-0.347849011421
0.270595788956	1.37631869316	-0.182383418083	0.254998683929	1.6645668745	-0.355856180191
0.272221088409	1.37795233727	-0.187071681023	0.256291866302	1.66410195827	-0.365074157715
0.273346424103	1.38060247898	-0.191826105118	0.257972240448	1.66287779808	-0.375829935074
0.27401304245	1.38355219364	-0.196844339371	0.260128974915	1.66145563126	-0.386944293976
0.274032115936	1.38555312157	-0.199858665466	0.260753393173	1.66033148766	-0.394075155258
0.272297382355	1.38471877575	-0.199706554413	0.259796380997	1.65998649597	-0.393414497375
0.270283937454	1.38120496273	-0.1966547966	0.257201194763	1.66000950336	-0.384379386902
0.268662929535	1.37623310089	-0.191749691963	0.253574132919	1.65932929516	-0.369575500488
0.266195774078	1.37116789818	-0.184428811073	0.250436782837	1.65846443176	-0.352553606033
0.263941049576	1.36753559113	-0.17431974411	0.249595880508	1.65890514851	-0.335298061371
0.261564731598	1.36508333683	-0.163169384003	0.251172065735	1.66007566452	-0.318789601326
0.259103536606	1.36359000206	-0.151714801788	0.253783464432	1.66096746922	-0.305031776428
0.257354259491	1.36372065544	-0.141995429993	0.256027936935	1.66355359554	-0.293932318687
