0.0	-0.0	140.038619995	-108.788345337	86.4860534668	-175.222732544
0.0	-0.0	139.399414062	-110.482833862	87.4692764282	-174.826339722
0.0	-0.0	139.83605957	-111.483764648	87.533996582	-174.254562378
0.0	-0.0	138.633010864	-111.436004639	85.8493804932	-174.267593384
0.0	-0.0	136.217086792	-112.655548096	82.2108535767	-171.981216431
0.0	-0.0	135.307647705	-121.926864624	72.9466018677	-165.89654541
0.0	-0.0	133.333450317	-129.771026611	68.6449203491	-166.301956177
0.0	-0.0	124.464103699	-128.969024658	70.0753097534	-166.714492798
0.0	-0.0	108.031982422	-128.094314575	71.3520584106	-165.661834717
0.0	-0.0	75.1873016357	-130.565628052	70.5374984741	-161.772262573
0.0	0.0	-3.55750370026	-135.44934082	69.4800338745	-158.129592896
0.0	0.0	-32.4084739685	-138.151748657	68.642364502	-155.76133728
0.0	0.0	-40.8799476624	-136.802963257	68.1474914551	-154.342498779
0.0	0.0	-47.2218742371	-134.687652588	67.8167953491	-152.736282349
0.0	0.0	-51.5563621521	-132.686416626	65.8233642578	-151.803985596
0.0	0.0	-52.4511756897	-130.672515869	63.969543457	-151.183761597
0.0	0.0	-53.7995491028	-131.331558228	64.9496994019	-149.547531128
0.0	0.0	-54.7039604187	-134.154769897	66.5674209595	-147.652145386
0.0	0.0	-51.6413726807	-136.082641602	67.9391784668	-146.498458862
0.0	0.0	-46.3620529175	-133.443511963	67.7423400879	-148.716140747
0.0	0.0	-41.9231796265	-125.444496155	66.2556991577	-153.6953125
0.0	0.0	-43.4752082825	-116.542953491	63.320930481	-158.373138428
0.0	0.0	-43.1731452942	-111.075210571	60.4832649231	-162.413711548
0.0	0.0	-40.7616271973	-109.040245056	59.1408233643	-163.906723022
0.0	0.0	-40.4154434204	-110.39440155	59.0360679626	-162.769470215
0.0	0.0	-40.2352485657	-114.862892151	60.1891365051	-160.393432617
0.0	0.0	-43.5613632202	-119.420333862	61.0807495117	-159.022689819
0.0	0.0	-49.046043396	-119.776672363	61.8531990051	-158.597747803
0.0	0.0	-54.5070953369	-118.724411011	62.6789016724	-157.947036743
0.0	0.0	-58.3815193176	-119.841316223	63.2128219604	-156.80229187
0.0	0.0	-61.8559455872	-121.748291016	63.3091011047	-155.598678589
0.0	0.0	-63.3451118469	-122.879798889	63.5310440063	-155.002075195
0.0	0.0	-64.7730636597	-124.459373474	64.463760376	-154.33895874
0.0	0.0	-59.987575531	-126.888275146	64.7875900269	-154.721099854
0.0	0.0	-50.4573631287	-128.762268066	65.0302658081	-157.015808105
0.0	0.0	-25.9471740723	-126.088363647	62.4174346924	-162.286132812
0.0	0.0	-12.5764656067	-120.692123413	62.9827461243	-165.383758545
0.0	0.0	-2.82897639275	-118.162445068	66.5573196411	-164.597549438
0.0	0.0	-1.21020483971	-122.685302734	73.7058258057	-155.688751221
0.0	0.0	-2.68266963959	-135.541549683	85.0866317749	-146.279678345
0.0	0.0	-1.68586719036	40.1051635742	86.7650146484	33.1837081909
0.0	-0.0	2.49682712555	36.9998397827	86.6496353149	33.4757919312
0.0	-0.0	0.325973927975	-146.911437988	82.1669387817	-146.810058594
0.0	0.0	-22.5158653259	-148.965682983	79.6321258545	-147.862625122
0.0	0.0	-51.1765594482	-148.099227905	80.0243530273	-148.965042114
0.0	0.0	-67.7715072632	-146.930450439	79.7570495605	-150.446746826
0.0	0.0	-73.9137496948	-146.652374268	78.6875305176	-150.612487793
0.0	0.0	-80.6656036377	-147.420166016	76.7846603394	-151.121109009
0.0	0.0	-79.2836303711	-148.708969116	74.4005432129	-152.739761353
0.0	0.0	-79.5462646484	-148.632049561	71.0932769775	-154.311019897
0.0	0.0	-79.0860671997	-147.413528442	66.9635696411	-156.12677002
0.0	0.0	-79.0322341919	-145.716323853	64.5008087158	-156.575241089
0.0	0.0	-79.1359558105	-145.776519775	64.5928268433	-155.563293457
0.0	0.0	-78.7443847656	-146.073654175	66.7688446045	-153.749481201
0.0	0.0	-78.2644882202	-144.97744751	66.6652908325	-152.845291138
0.0	0.0	-78.3937606812	-144.651580811	64.0885925293	-153.254165649
0.0	0.0	-78.4738464355	-142.373977661	62.588558197	-155.978759766
0.0	0.0	-78.1223144531	-134.148803711	63.4886169434	-158.054275513
0.0	0.0	-77.6627349854	-126.554130554	61.1033477783	-159.51008606
0.0	0.0	-77.7213058472	-126.364311218	59.3195495605	-158.352844238
0.0	0.0	-77.6043548584	-133.002578735	57.662815094	-156.399002075
0.0	0.0	-77.5005264282	-138.567489624	57.7093544006	-155.01701355
0.0	0.0	-77.1396713257	-138.307434082	59.5285224915	-152.554748535
0.0	0.0	-76.8778915405	-135.466537476	60.8740653992	-151.625793457
0.0	0.0	-76.9329376221	-132.858917236	62.2578353882	-149.845748901
0.0	0.0	-76.6832962036	-133.510391235	63.4414138794	-147.567901611
0.0	0.0	-73.592666626	-139.154571533	64.7095336914	-147.681945801
0.0	0.0	-67.5556640625	-144.219985962	67.6335906982	-150.150802612
0.0	0.0	-39.3760528564	-144.71295166	72.7902832031	-152.979141235
0.0	-0.0	37.8960533142	-141.392303467	80.3343811035	-157.531051636
0.0	-0.0	71.7609786987	-138.972595215	88.1471786499	-160.923721313
0.0	-0.0	80.7994995117	-137.002639771	89.4974212646	-162.517227173
0.0	-0.0	82.5298309326	-132.737564087	85.6129455566	-162.61505127
0.0	-0.0	81.0950622559	-126.909706116	71.6574020386	-158.295761108
0.0	-0.0	73.0485916138	-122.317352295	52.4290084839	-154.162734985
0.0	-0.0	78.5926055908	-121.161659241	45.2798042297	-153.222122192
0.0	-0.0	86.3240432739	-124.240943909	49.2191047668	-153.577453613
0.0	-0.0	87.8017807007	-127.929122925	53.8956260681	-154.449813843
0.0	-0.0	71.9988937378	-127.557006836	56.1536026001	-156.906417847
0.0	-0.0	79.7733840942	-125.439453125	58.2036590576	-158.238510132
0.0	-0.0	114.005111694	-122.938613892	56.2962989807	-159.627548218
0.0	-0.0	140.438354492	-119.668640137	56.4163513184	-161.294235229
0.0	-0.0	166.563934326	-114.737167358	56.8907966614	-159.899612427
0.0	-0.0	-164.332641602	-112.642677307	58.5507392883	-155.677185059
0.0	-0.0	-158.396514893	-114.625816345	59.4569969177	-154.57081604
0.0	-0.0	-158.421600342	-116.630989075	59.0551109314	-154.924911499
0.0	-0.0	-158.146148682	-116.645622253	58.3583755493	-154.791732788
0.0	-0.0	-154.642852783	-116.08744812	57.6988601685	-154.866043091
0.0	-0.0	-144.266891479	-116.306388855	57.6104621887	-154.700531006
0.0	-0.0	-136.529022217	-116.587974548	57.4019851685	-155.103759766
0.0	-0.0	-133.323120117	-116.190505981	57.4912834167	-155.181243896
0.0	-0.0	-133.393264771	-116.67023468	57.8717956543	-155.486602783
0.0	-0.0	-134.150817871	-117.332229614	58.2194061279	-155.953353882
0.0	-0.0	-127.623466492	-117.200210571	58.2983131409	-156.23588562
0.0	0.0	-111.026039124	-117.030601501	58.6132507324	-156.137283325
0.0	-0.0	65.0795669556	-116.98638916	58.6154899597	-155.400558472
0.0	-0.0	80.6764755249	-117.080055237	58.6205062866	-154.261199951
0.0	-0.0	80.5544433594	-117.239936829	58.8065032959	-153.162536621
0.0	-0.0	77.6594238281	-116.624992371	58.9078903198	-152.506973267
0.0	-0.0	20.2736568451	-114.708068848	59.089969635	-152.611373901
0.0	0.0	-98.8779907227	-113.009391785	60.2294464111	-153.191741943
0.0	0.0	-101.78377533	-112.248207092	61.0550308228	-153.672698975
0.0	0.0	-102.212211609	-113.02495575	61.2715072632	-153.981826782
0.0	0.0	-102.622322083	-114.51184845	61.2861633301	-153.492584229
0.0	0.0	-103.502754211	-118.878700256	61.5643005371	-153.13092041
0.0	0.0	-103.760139465	-124.836608887	62.2730026245	-152.933624268
0.0	0.0	-105.409942627	-131.821563721	61.8356704712	-152.383789062
0.0	0.0	-107.804649353	-138.25428772	59.7350921631	-152.703048706
0.0	0.0	-110.998123169	-137.957275391	58.7256088257	-152.665390015
0.0	0.0	-112.765548706	-134.716430664	59.0758895874	-152.540756226
0.0	-0.0	-124.920837402	-132.920043945	59.3479194641	-153.087600708
0.0	-0.0	-128.372940063	-132.629898071	58.6387672424	-153.829986572
0.0	0.0	-112.07623291	-131.482299805	58.0306777954	-154.262664795
0.0	0.0	-105.528526306	-130.079452515	58.1943244934	-154.505401611
0.0	0.0	-104.785453796	-130.122909546	58.5903244019	-154.441375732
0.0	0.0	-103.296165466	-131.452438354	58.6256561279	-154.31237793
0.0	0.0	-103.53087616	-133.589569092	58.7838249207	-154.136993408
0.0	0.0	-103.847610474	-135.100158691	59.1108322144	-154.304718018
0.0	0.0	-104.355484009	-135.101669312	59.3500785828	-154.46975708
0.0	0.0	-105.263908386	-134.764831543	59.1310081482	-154.819473267
0.0	0.0	-105.142425537	-134.691833496	58.1385383606	-155.294311523
0.0	0.0	-101.243255615	-134.123718262	57.0590209961	-156.075775146
0.0	0.0	-96.6269683838	-133.980300903	56.7502479553	-156.83744812
0.0	0.0	-93.6003952026	-134.716934204	54.524471283	-157.716293335
0.0	0.0	-92.3650512695	-137.308334351	53.6872787476	-158.15914917
