0.0	-0.0	137.499328613	-108.939788818	89.8842849731	-172.338882446
0.0	-0.0	137.081497192	71.662147522	89.8626861572	6.54375267029
0.0	-0.0	136.728347778	-108.674667358	89.9534759521	-173.554244995
0.0	-0.0	136.5209198	70.2599411011	89.9925460815	6.53807067871
0.0	-0.0	134.909469604	69.1422729492	87.542137146	6.5630197525
0.0	-0.0	130.895568848	64.935836792	80.2869033813	7.42487049103
0.0	-0.0	123.900154114	58.3019943237	70.8626480103	8.26996803284
0.0	-0.0	121.116271973	52.4104766846	62.8299446106	9.63747310638
0.0	-0.0	120.561187744	48.3555221558	57.9790992737	14.0792598724
0.0	-0.0	115.151351929	47.104763031	54.4306755066	23.9497127533
0.0	-0.0	74.7739028931	45.059967041	52.1978874207	32.4746856689
0.0	-0.0	2.81425094604	43.5031738281	50.7932052612	33.6830749512
0.0	0.0	-15.4835910797	43.1857872009	49.1230621338	33.7214584351
0.0	0.0	-21.7003860474	41.0368156433	46.1115112305	36.1027603149
0.0	0.0	-34.6673927307	42.3247756958	43.5259437561	37.7119522095
0.0	0.0	-40.2381210327	45.6974372864	43.4282341003	38.7119216919
0.0	0.0	-45.8427200317	46.6610870361	43.7725105286	38.8928451538
0.0	0.0	-48.7885093689	49.0122451782	43.8465385437	38.5897216797
0.0	0.0	-50.4474449158	51.1580963135	40.5212364197	39.9002113342
0.0	0.0	-51.950466156	51.2711486816	37.1004066467	41.9828796387
0.0	0.0	-53.4743270874	53.4137382507	37.1327972412	41.9052200317
0.0	0.0	-55.2281074524	57.6866073608	39.5786018372	40.401309967
0.0	0.0	-54.7147941589	60.9789619446	41.2398376465	39.7553672791
0.0	0.0	-53.9659500122	61.7227249146	39.8074913025	39.2944374084
0.0	0.0	-53.8711624146	60.3376045227	38.0052642822	40.4583396912
0.0	0.0	-54.6546211243	58.6057701111	38.0800018311	42.0675849915
0.0	0.0	-54.8738861084	58.8745880127	36.9315872192	42.9860687256
0.0	0.0	-54.7899589539	60.8641242981	35.0446739197	44.2054023743
0.0	0.0	-54.2272644043	61.6732749939	35.5927009583	44.8908119202
0.0	0.0	-54.0268592834	63.2558059692	36.3076324463	45.5759315491
0.0	0.0	-52.6145362854	65.0806808472	35.6535339355	46.8142700195
0.0	0.0	-51.6395988464	67.1780319214	36.6000862122	45.4861831665
0.0	0.0	-51.5744819641	68.1516265869	37.9393386841	41.5154037476
0.0	0.0	-51.7671546936	71.8359603882	35.4831390381	36.4566078186
0.0	0.0	-51.6109924316	74.5155487061	31.2207183838	34.6996536255
0.0	0.0	-51.0997886658	72.6967773438	28.4699020386	35.7880821228
0.0	0.0	-50.6785774231	70.9460144043	30.664932251	36.695224762
