0.464766740799	1.054905653	0.0812102556229	0.188438892365	1.65866613388	-0.161703705788
0.463770389557	1.05457139015	0.0812425613403	0.187801837921	1.65924572945	-0.161467075348
0.461669921875	1.05542302132	0.082239151001	0.186101913452	1.66028428078	-0.161220550537
0.458029747009	1.05813264847	0.0831851959229	0.182794094086	1.66229271889	-0.161647081375
0.447366952896	1.06338715553	0.0833939313889	0.178049087524	1.66644454002	-0.162419319153
0.431677818298	1.07189512253	0.0853435993195	0.173057079315	1.67245304585	-0.164353609085
0.41313123703	1.08319461346	0.0889656543732	0.168680429459	1.67918145657	-0.168077349663
0.389940500259	1.09787797928	0.0935382843018	0.165477514267	1.68504941463	-0.172976732254
0.364923477173	1.11544525623	0.09581387043	0.163227558136	1.689447999	-0.177994966507
0.34050321579	1.13220119476	0.0952314138412	0.161301851273	1.69318675995	-0.182811975479
0.318459749222	1.1486954689	0.0930161476135	0.159548044205	1.69729292393	-0.187482595444
0.29803776741	1.16528701782	0.0892390012741	0.157691001892	1.70119595528	-0.191678285599
0.279904603958	1.1802996397	0.0845350027084	0.154964923859	1.7046006918	-0.195478916168
0.263429403305	1.19277119637	0.0790071487427	0.151819705963	1.70810484886	-0.199588298798
0.250195741653	1.20137655735	0.0749864578247	0.148373842239	1.71240162849	-0.204278469086
0.239479780197	1.20821988583	0.0730068683624	0.146141052246	1.71681404114	-0.209596395493
0.231257677078	1.21636176109	0.072838306427	0.145465373993	1.72114598751	-0.214725732803
0.225685596466	1.22516107559	0.0726366043091	0.145706892014	1.72403204441	-0.218472361565
0.222598314285	1.23092162609	0.071368932724	0.146213769913	1.72577881813	-0.220249891281
0.220405817032	1.23225021362	0.0690038204193	0.146994590759	1.72758209705	-0.221956014633
0.219070911407	1.23104763031	0.0664921998978	0.147472381592	1.7279728651	-0.222918868065
0.218693971634	1.23076879978	0.0637511014938	0.146643877029	1.7269654274	-0.223189115524
0.219280481339	1.23099684715	0.0608865022659	0.144198894501	1.72606813908	-0.223972678185
0.220069885254	1.23127245903	0.057811498642	0.141138076782	1.72672176361	-0.225845575333
0.218793153763	1.23159205914	0.0551528930664	0.138338565826	1.72797584534	-0.22804236412
0.216002941132	1.23303055763	0.0527597665787	0.135617256165	1.728333354	-0.229898929596
0.211356401443	1.23512923717	0.0506649017334	0.133111000061	1.72850489616	-0.231207251549
0.205110311508	1.23661196232	0.049378156662	0.131195306778	1.72897386551	-0.232745170593
0.200445890427	1.23795521259	0.0487204790115	0.129815816879	1.72882986069	-0.234359264374
0.196752071381	1.23765039444	0.049720287323	0.128708600998	1.72877025604	-0.235765457153
0.193953752518	1.23380386829	0.0529406070709	0.128525018692	1.7286387682	-0.236876249313
0.191191196442	1.22908961773	0.0576297044754	0.128902196884	1.72818470001	-0.237697005272
0.189003705978	1.22795724869	0.0600944757462	0.129791498184	1.72786986828	-0.238077878952
0.187602996826	1.227891922	0.0600835084915	0.130656719208	1.72819721699	-0.238793611526
0.186948537827	1.22803986073	0.0596483945847	0.131898880005	1.72851705551	-0.239721298218
