0.409151554108	1.31306660175	0.100640058517	0.159671545029	1.72761321068	-0.241412878036
0.410200119019	1.31396007538	0.0999021530151	0.159822702408	1.7276340723	-0.241766929626
0.410806655884	1.31254768372	0.0989902019501	0.159467697144	1.72750461102	-0.242016553879
0.410636663437	1.31062245369	0.0983896255493	0.161300897598	1.72670781612	-0.242040872574
0.409201145172	1.30979692936	0.097686290741	0.166123628616	1.7261300087	-0.242821455002
0.409057855606	1.31119930744	0.0975186824799	0.170794963837	1.72615838051	-0.243769407272
0.41380572319	1.32720506191	0.0932887792587	0.171359300613	1.72627604008	-0.243862628937
0.432421207428	1.34543669224	0.0892379283905	0.168285608292	1.72657001019	-0.24287879467
0.450170993805	1.350035429	0.0887002944946	0.163969516754	1.72709083557	-0.241715669632
0.462770938873	1.34775221348	0.0919536352158	0.158644914627	1.72710025311	-0.240317463875
0.467359542847	1.34673607349	0.095291852951	0.150836467743	1.72644579411	-0.238684415817
0.468840837479	1.34605526924	0.0972231626511	0.138993740082	1.72574484348	-0.237658262253
0.476017713547	1.34343874454	0.0984020233154	0.130176067352	1.72412073612	-0.237207651138
0.486125469208	1.33977627754	0.0988838672638	0.128387212753	1.72428941727	-0.236911773682
0.493790864944	1.33609604836	0.0975642204285	0.1284532547	1.72543358803	-0.237200737
0.500788211823	1.33217775822	0.0950921773911	0.126086950302	1.72605168819	-0.237609863281
0.51119685173	1.32561028004	0.0914187431335	0.121811389923	1.726385355	-0.238085746765
0.523026943207	1.31790804863	0.0870667695999	0.119318723679	1.72643887997	-0.238876819611
0.53067779541	1.31329870224	0.0842096805573	0.121112346649	1.72715616226	-0.2401689291
0.532065153122	1.31076073647	0.0836242437363	0.124909639359	1.72735822201	-0.241080999374
0.531836986542	1.30858659744	0.0838793516159	0.124933719635	1.72707557678	-0.240894794464
0.53261423111	1.30409812927	0.0846027135849	0.120513677597	1.72740185261	-0.240251064301
0.534754753113	1.29799473286	0.0851992368698	0.113919496536	1.72738349438	-0.239560842514
0.537408828735	1.29403781891	0.0833619832993	0.108626365662	1.72705662251	-0.239109039307
0.539305448532	1.29063236713	0.0825761556625	0.106625080109	1.72696948051	-0.238916873932
0.541460514069	1.28648579121	0.0814151763916	0.106623411179	1.72710704803	-0.238808870316
0.543081998825	1.28266835213	0.0800433158875	0.107090234756	1.72711026669	-0.239203214645
0.544384002686	1.27821874619	0.0774887800217	0.103644609451	1.72685658932	-0.239665031433
0.545899868011	1.27546489239	0.0743596553802	0.0989949703217	1.72652995586	-0.240379691124
0.546247005463	1.27534115314	0.0709717273712	0.0962421894073	1.72579550743	-0.240824222565
0.533202886581	1.30169999599	0.0757073163986	0.0966141223907	1.72509562969	-0.241117715836
0.496827840805	1.34892845154	0.0892210006714	0.0986742973328	1.72479152679	-0.241462469101
0.480060100555	1.36754822731	0.0940780639648	0.101608753204	1.7247723341	-0.242312669754
0.486690998077	1.36688435078	0.0973734855652	0.10354757309	1.7252420187	-0.243875026703
