0.0	-0.0	144.035629272	31.5153636932	79.2509536743	-34.0925674438
0.0	-0.0	144.031524658	31.3433303833	79.3571853638	-34.1662940979
0.0	-0.0	141.923141479	31.3678722382	79.4021072388	-34.1283073425
0.0	-0.0	138.425811768	31.1377162933	79.234375	-34.0839920044
0.0	-0.0	136.371246338	30.6793766022	78.9262008667	-34.2230567932
0.0	-0.0	139.871734619	27.7314891815	80.09375	-34.1551475525
0.0	-0.0	146.791290283	24.3365440369	83.1615753174	-34.5311393738
0.0	-0.0	150.005767822	20.1659679413	87.1637115479	-35.1179542542
0.0	-0.0	147.447570801	-165.984909058	87.1332397461	144.525772095
0.0	-0.0	143.964019775	-170.296508789	78.6332778931	144.210998535
0.0	-0.0	141.009048462	-172.424636841	69.0833206177	146.180877686
0.0	-0.0	138.719665527	-173.137023926	58.5378417969	150.500518799
0.0	-0.0	138.265487671	-173.051376343	49.4485168457	153.884429932
0.0	-0.0	139.780578613	-170.510498047	42.0965003967	156.43927002
0.0	-0.0	143.790679932	-168.227310181	38.8212509155	157.228561401
0.0	-0.0	141.658294678	-167.997772217	37.3465805054	157.544174194
0.0	-0.0	130.282684326	-167.352523804	37.7849693298	157.654937744
0.0	-0.0	113.352546692	-168.375747681	38.8351669312	157.896820068
0.0	-0.0	97.4963607788	-168.904144287	40.5313110352	157.610733032
0.0	-0.0	85.9542007446	-170.608047485	43.2465133667	157.328659058
0.0	-0.0	78.8917617798	-173.88848877	47.2780723572	156.656417847
0.0	-0.0	78.66381073	-178.445465088	51.5994606018	155.694915771
0.0	-0.0	81.5581817627	176.253890991	53.9807395935	154.991348267
0.0	-0.0	82.6654052734	170.549133301	54.0344085693	154.139968872
0.0	-0.0	83.797996521	167.3074646	52.7055053711	154.264099121
0.0	-0.0	85.5994186401	163.542221069	50.1456871033	154.936981201
0.0	-0.0	87.4075012207	162.459487915	47.8296508789	155.273910522
0.0	-0.0	88.7951126099	159.407958984	45.6166992188	155.619995117
0.0	-0.0	90.3324279785	158.431365967	43.5654296875	155.843734741
0.0	-0.0	91.4089889526	158.212615967	41.5385665894	155.972244263
0.0	-0.0	92.6398925781	158.16456604	39.1847000122	156.513412476
0.0	-0.0	95.9046020508	158.333114624	37.2739334106	156.860427856
0.0	-0.0	98.9452133179	158.968429565	35.4905014038	157.58052063
0.0	-0.0	99.6524124146	159.613876343	34.6188240051	158.14453125
0.0	-0.0	97.1476669312	160.477905273	35.7252960205	158.116516113
0.0	-0.0	91.0708618164	160.487686157	37.9691123962	157.558746338
0.0	-0.0	84.204246521	160.080184937	38.9387931824	157.426986694
