0.446393489838	1.38238489628	0.246383428574	0.18111371994	1.72067534924	-0.22987985611
0.444837808609	1.38246452808	0.24753344059	0.181049585342	1.72033202648	-0.228304028511
0.44331240654	1.38031494617	0.248264074326	0.180537223816	1.71990597248	-0.226811885834
0.440021276474	1.37651193142	0.249197125435	0.177216529846	1.71775615215	-0.224181175232
0.434545278549	1.37345397472	0.249614715576	0.169130086899	1.71145474911	-0.219615936279
0.42862868309	1.37250363827	0.251177549362	0.158701181412	1.70234620571	-0.214718580246
0.423031568527	1.37182962894	0.252548456192	0.150282144547	1.69074177742	-0.210327148438
0.417313575745	1.37054085732	0.253371238708	0.142483949661	1.68082475662	-0.20596241951
0.413475990295	1.36782467365	0.254372000694	0.136022567749	1.67491006851	-0.202481746674
0.408538103104	1.36475157738	0.254024863243	0.131783246994	1.67259740829	-0.200434207916
0.398077249527	1.36465919018	0.246437072754	0.129054784775	1.67160522938	-0.199402928352
0.388214349747	1.36254703999	0.241557359695	0.126841068268	1.67015600204	-0.19891667366
0.385472774506	1.35407853127	0.237579345703	0.12667798996	1.66918838024	-0.198319911957
0.387277603149	1.35136020184	0.239325523376	0.128817558289	1.66913604736	-0.197783708572
0.392887830734	1.34898912907	0.243428945541	0.131653308868	1.67034673691	-0.197781324387
0.396839380264	1.3408664465	0.24444425106	0.133005142212	1.67316663265	-0.198014974594
0.391625881195	1.33381927013	0.239852309227	0.132921695709	1.67582082748	-0.198536396027
0.389920949936	1.32898938656	0.237515687943	0.131903648376	1.68038392067	-0.199416518211
0.388070583344	1.32416605949	0.235943555832	0.130155801773	1.68499386311	-0.20140337944
0.387839078903	1.32289230824	0.23480629921	0.127992391586	1.68802428246	-0.204228401184
0.387472867966	1.32332909107	0.23397898674	0.125260353088	1.68986690044	-0.207663059235
0.382244348526	1.32252383232	0.231305718422	0.124101638794	1.68955481052	-0.209950685501
0.381682872772	1.32353186607	0.23100066185	0.125153064728	1.68936395645	-0.209997177124
0.381470918655	1.32325124741	0.230236172676	0.12194776535	1.68929803371	-0.210845947266
0.381639003754	1.32377254963	0.230558037758	0.116922140121	1.6877810955	-0.212148070335
0.380706071854	1.32415997982	0.230550527573	0.111894130707	1.68674063683	-0.21368598938
0.379975795746	1.32408976555	0.231633424759	0.10838842392	1.68699252605	-0.215532064438
0.379786729813	1.3245882988	0.232251644135	0.107725143433	1.68813204765	-0.216414928436
0.379400014877	1.32425034046	0.232289671898	0.107872962952	1.68946218491	-0.217549562454
0.383536100388	1.32355463505	0.233352661133	0.10936331749	1.69011807442	-0.218556642532
0.389097690582	1.32178509235	0.234765648842	0.110773086548	1.69039583206	-0.219874739647
0.393770456314	1.32043385506	0.233887195587	0.110678672791	1.68993878365	-0.221360206604
0.398616075516	1.31793117523	0.232405185699	0.109746456146	1.68909919262	-0.222321748734
0.398530244827	1.31549346447	0.228397607803	0.110883951187	1.68769705296	-0.22137606144
0.398321866989	1.31396794319	0.225634694099	0.11263012886	1.68677830696	-0.219891786575
0.395880460739	1.31186759472	0.223087310791	0.113842725754	1.68625211716	-0.219186067581
0.394772529602	1.31283652782	0.221757173538	0.116614103317	1.68624556065	-0.218338251114
0.392659664154	1.31357860565	0.220421910286	0.121297597885	1.68634343147	-0.217269182205
0.391623258591	1.31552815437	0.219101428986	0.12645983696	1.68619477749	-0.216506004333
0.390475034714	1.3177947998	0.218314766884	0.131773233414	1.68521475792	-0.215801358223
0.38945555687	1.31952047348	0.217625975609	0.134839296341	1.68426966667	-0.216076850891
0.389470338821	1.32115089893	0.217211127281	0.136444807053	1.68406128883	-0.217139363289
0.38930606842	1.32313120365	0.216853499413	0.137116909027	1.68391156197	-0.218405723572
0.388526678085	1.32386910915	0.217086911201	0.137118816376	1.68382394314	-0.219433069229
0.386921882629	1.32431125641	0.217257499695	0.137043476105	1.6838388443	-0.220056414604
0.385605812073	1.32540273666	0.217148184776	0.137385606766	1.68375957012	-0.22064948082
0.384313106537	1.32641124725	0.217417597771	0.137227535248	1.6839786768	-0.221120834351
0.384163618088	1.32728970051	0.217944741249	0.136471748352	1.68396782875	-0.221349477768
0.383478403091	1.32795369625	0.218388795853	0.135803461075	1.68391311169	-0.221414327621
0.382281541824	1.32836389542	0.218593478203	0.135413646698	1.68390774727	-0.221052527428
0.381355285645	1.32862567902	0.219077706337	0.135194540024	1.68340075016	-0.220452308655
0.37890958786	1.32880163193	0.218992233276	0.135431051254	1.68268048763	-0.219593167305
0.377031326294	1.3291708231	0.220026373863	0.137308120728	1.68219959736	-0.218040943146
0.374577045441	1.329672575	0.22106218338	0.139995574951	1.68144631386	-0.216102361679
0.372741937637	1.3303757906	0.221678256989	0.140363931656	1.67972183228	-0.214664340019
0.370433807373	1.33009982109	0.221976876259	0.138765573502	1.67709636688	-0.213756799698
0.367107629776	1.33000802994	0.221992492676	0.13760304451	1.67477667332	-0.212329745293
0.364534378052	1.33037805557	0.223381519318	0.137220144272	1.67420446873	-0.210609912872
0.366799592972	1.33143222332	0.226100087166	0.135707855225	1.6740540266	-0.209244251251
0.374942064285	1.33269703388	0.229320764542	0.1333796978	1.67420339584	-0.208117485046
0.381449222565	1.3295737505	0.229898691177	0.13195848465	1.67610669136	-0.207235336304
0.384518384933	1.32364213467	0.227783918381	0.131450414658	1.67879641056	-0.206320047379
0.3872153759	1.31855010986	0.226874113083	0.132398605347	1.67966020107	-0.205363273621
0.390402078629	1.31734013557	0.227109670639	0.133277893066	1.68099939823	-0.204095959663
0.392533302307	1.31753075123	0.227595210075	0.132519006729	1.6821693182	-0.203238010406
0.392595529556	1.31657552719	0.228258728981	0.130264759064	1.68301057816	-0.201446771622
0.390763759613	1.31432318687	0.229818105698	0.126109838486	1.68434917927	-0.199554204941
0.388303995132	1.31266069412	0.231823205948	0.122004270554	1.68664264679	-0.197434067726
0.384868621826	1.31102752686	0.234010338783	0.119848966599	1.68897807598	-0.1954600811
0.381915807724	1.30974626541	0.236459374428	0.117511749268	1.69012141228	-0.194132566452
0.379696369171	1.31035530567	0.23852288723	0.115990877151	1.68735766411	-0.192763566971
0.379920244217	1.31089258194	0.239827394485	0.114795684814	1.68570876122	-0.19124686718
0.383676052094	1.31004285812	0.242056488991	0.112369060516	1.68655705452	-0.19056725502
0.387536525726	1.3084551096	0.242647767067	0.110695838928	1.68805861473	-0.18968808651
0.389005184174	1.30434644222	0.242560148239	0.108585119247	1.68982124329	-0.189737319946
0.389099597931	1.30190610886	0.24210190773	0.106843471527	1.69006967545	-0.190509200096
0.390367031097	1.30318534374	0.242029905319	0.107208967209	1.68972170353	-0.190905928612
0.390825271606	1.30379474163	0.241790294647	0.108093976974	1.68875777721	-0.192529678345
0.389864444733	1.30465042591	0.239391088486	0.10746216774	1.68670070171	-0.195646047592
0.388633489609	1.30403625965	0.236129522324	0.106975078583	1.68658149242	-0.198409080505
0.387631654739	1.30383419991	0.234396934509	0.108457565308	1.6874319315	-0.199769020081
0.38240480423	1.3018116951	0.230945467949	0.111180782318	1.68795287609	-0.199964165688
0.377604484558	1.29900538921	0.22810614109	0.114799022675	1.68726682663	-0.199900388718
0.370928049088	1.29898571968	0.222832798958	0.118458271027	1.68685638905	-0.19922876358
0.367173433304	1.3005079031	0.21993637085	0.122315168381	1.68555116653	-0.198091030121
0.365303039551	1.30164670944	0.218559861183	0.126186847687	1.68499791622	-0.196419239044
