0.534544467926	1.13075399399	0.128668069839	0.200923204422	1.64530217648	-0.131989717484
0.531301021576	1.12987971306	0.129575967789	0.200451850891	1.6457451582	-0.13169169426
0.530147790909	1.12970042229	0.130430459976	0.197523355484	1.65270042419	-0.130681753159
0.529826641083	1.13001811504	0.130653142929	0.1862885952	1.66764461994	-0.132872819901
0.528161764145	1.13005530834	0.131759881973	0.175355195999	1.67693865299	-0.139711618423
0.525300979614	1.13073718548	0.133895516396	0.168345212936	1.68281078339	-0.147134304047
0.521988391876	1.13235282898	0.136135101318	0.164485454559	1.68357229233	-0.152618408203
0.519619226456	1.13605999947	0.137543320656	0.160326480865	1.68112945557	-0.155196547508
0.519820451736	1.13890182972	0.137320041656	0.152878284454	1.67688035965	-0.157955408096
0.518923521042	1.13831949234	0.135403037071	0.148196697235	1.67290210724	-0.159691333771
0.518703460693	1.13674235344	0.132951259613	0.15079164505	1.67221570015	-0.159386634827
0.517013072968	1.13778626919	0.131517291069	0.153367996216	1.670612216	-0.159425258636
0.510710477829	1.13969874382	0.130915880203	0.151142120361	1.66792523861	-0.161066055298
0.50443983078	1.14083170891	0.132169723511	0.151117801666	1.66700983047	-0.163041234016
0.50009894371	1.14108502865	0.13457095623	0.155725002289	1.6669023037	-0.163655400276
0.495867967606	1.14259648323	0.13626074791	0.164077758789	1.66674351692	-0.163107395172
0.488803386688	1.14453566074	0.137936353683	0.17205119133	1.66626441479	-0.162933349609
0.48030424118	1.14607906342	0.14043712616	0.179074525833	1.66619861126	-0.163332223892
0.469586610794	1.14760327339	0.142935156822	0.183102369308	1.66606259346	-0.164103507996
0.459444522858	1.15011882782	0.145635724068	0.1830701828	1.66504395008	-0.164679527283
0.448621273041	1.15360307693	0.148546338081	0.180440187454	1.66420316696	-0.165250778198
0.434302330017	1.15586996078	0.152510166168	0.176431179047	1.66299009323	-0.166397333145
0.413881063461	1.15660393238	0.155869960785	0.171468734741	1.66140270233	-0.167951703072
0.388659238815	1.15605247021	0.156968712807	0.165016651154	1.65970277786	-0.169567346573
0.361886501312	1.15495765209	0.15586066246	0.157069206238	1.65795660019	-0.171840429306
0.337438583374	1.15464496613	0.153878927231	0.148549795151	1.65657579899	-0.174430131912
0.313365459442	1.15559399128	0.149999856949	0.139539003372	1.65531110764	-0.177431106567
0.291889667511	1.15727627277	0.145415067673	0.129744529724	1.65393984318	-0.181521654129
0.276181936264	1.15866887569	0.142246484756	0.118683338165	1.65240228176	-0.187141537666
0.269315958023	1.1591449976	0.140909671783	0.110846042633	1.65102398396	-0.193634986877
0.269255876541	1.15954065323	0.139363050461	0.106737852097	1.65025055408	-0.198494911194
0.271597385406	1.15977561474	0.137707948685	0.104992628098	1.64839327335	-0.201570868492
0.266335248947	1.15808427334	0.130371928215	0.104510307312	1.64548361301	-0.203062534332
0.256492137909	1.15442752838	0.120899200439	0.10436964035	1.64282739162	-0.2035343647
0.249769926071	1.15127599239	0.116216182709	0.104241132736	1.64060914516	-0.204101800919
0.240953445435	1.15025806427	0.110668301582	0.104067802429	1.63658702374	-0.204404473305
0.230847597122	1.14825606346	0.103578448296	0.102726221085	1.63176894188	-0.204833745956
0.220573425293	1.14444029331	0.0954778194427	0.100322246552	1.62752795219	-0.205894470215
0.21444272995	1.14054131508	0.0895428657532	0.0975275039673	1.62399256229	-0.20646739006
0.213519334793	1.13664722443	0.087074637413	0.0956025123596	1.62187862396	-0.206925153732
0.215837478638	1.13251447678	0.0866442918777	0.0936238765717	1.6206921339	-0.207151651382
0.218996286392	1.12546741962	0.0859735012054	0.0917749404907	1.62012779713	-0.207575201988
0.22235417366	1.11965799332	0.0849939584732	0.0899305343628	1.62057375908	-0.207739114761
0.226446151733	1.1169397831	0.0859177112579	0.0869922637939	1.62058460712	-0.208220481873
0.230765104294	1.11669123173	0.087681055069	0.0815496444702	1.61951339245	-0.210186958313
0.233211755753	1.11809134483	0.0891025066376	0.0741670131683	1.61936175823	-0.213322401047
0.233646154404	1.11854529381	0.0909457206726	0.0698382854462	1.62025117874	-0.214754581451
0.233038425446	1.11856949329	0.09193110466	0.0685439109802	1.62171208858	-0.214268684387
0.232623577118	1.11954343319	0.0907527208328	0.0666201114655	1.62214338779	-0.214747428894
0.233027696609	1.11933720112	0.0892153978348	0.0643038749695	1.62220287323	-0.216594934464
