0.490755319595	1.08506572247	0.146075844765	0.281229496002	1.64576792717	-0.174696445465
0.490298748016	1.08503186703	0.145569086075	0.280899524689	1.64566910267	-0.175438523293
0.489596605301	1.08505773544	0.144999980927	0.280357837677	1.64590156078	-0.176089525223
0.488413095474	1.08503639698	0.143801093102	0.279392719269	1.64760541916	-0.176861643791
0.485405445099	1.08763360977	0.142905592918	0.277906894684	1.65119075775	-0.177832365036
0.482779741287	1.08962190151	0.141777515411	0.275984048843	1.6590129137	-0.179245471954
0.481559753418	1.09009075165	0.14090180397	0.273199319839	1.67068421841	-0.18282699585
0.480963230133	1.09154713154	0.140889167786	0.270293951035	1.6806743145	-0.188269972801
0.479233026505	1.09736096859	0.142097949982	0.268095493317	1.68495821953	-0.19332408905
0.47713637352	1.10989367962	0.144295692444	0.26812171936	1.68511509895	-0.196041822433
0.47508263588	1.12764644623	0.14684009552	0.269351005554	1.6858509779	-0.197597265244
0.472878217697	1.14502418041	0.148668766022	0.270168066025	1.68736040592	-0.198886156082
0.472723722458	1.16156005859	0.149907588959	0.270996332169	1.68898189068	-0.200065612793
0.47513461113	1.17682957649	0.149819374084	0.272310495377	1.69024574757	-0.200600385666
0.478972196579	1.18853998184	0.148145079613	0.273638248444	1.69073569775	-0.200760602951
0.482020139694	1.19590854645	0.147297859192	0.274231672287	1.69066643715	-0.20082116127
0.484925270081	1.1997423172	0.146548748016	0.274221658707	1.69072878361	-0.201028704643
0.48691034317	1.20119059086	0.146116256714	0.274121761322	1.69100403786	-0.201145887375
0.488173246384	1.20069265366	0.146286487579	0.274944067001	1.69174551964	-0.201012372971
0.488886356354	1.20029985905	0.146996259689	0.276119709015	1.69302177429	-0.200744390488
0.486864566803	1.20048928261	0.146937251091	0.277539253235	1.69396471977	-0.200580000877
0.48291683197	1.2000156641	0.146713018417	0.277394533157	1.69447052479	-0.200111865997
0.479305267334	1.20035707951	0.145962715149	0.275661468506	1.69389748573	-0.198878884315
0.476462364197	1.20123100281	0.144930362701	0.273567199707	1.69222128391	-0.196799993515
0.475239276886	1.20131242275	0.144531965256	0.271276950836	1.69079387188	-0.194385290146
0.472961425781	1.20107316971	0.144546747208	0.268622875214	1.68941116333	-0.192163467407
0.469527959824	1.20063281059	0.144857645035	0.266479730606	1.6882199049	-0.190400838852
0.467607736588	1.19738590717	0.147519469261	0.265568494797	1.68791806698	-0.189054012299
0.466728210449	1.195525527	0.148639678955	0.265326738358	1.6881518364	-0.188362240791
0.466221809387	1.19588470459	0.149593472481	0.265311002731	1.68881964684	-0.188217878342
0.465833902359	1.19822394848	0.150876998901	0.264910697937	1.68993556499	-0.188598632812
0.464371919632	1.20225262642	0.152654647827	0.264255523682	1.69102394581	-0.18894636631
0.462143182755	1.20458376408	0.15453016758	0.263212203979	1.69149947166	-0.189251065254
0.459201335907	1.20506703854	0.155745506287	0.261792898178	1.6915730238	-0.189183950424
0.456297874451	1.20482981205	0.156613349915	0.259975910187	1.69139564037	-0.188609004021
0.45311665535	1.20473814011	0.157175302505	0.257782459259	1.69305503368	-0.18811583519
0.449143409729	1.20497429371	0.157810211182	0.255048036575	1.69683814049	-0.187980890274
0.44459605217	1.20479762554	0.159303188324	0.252346515656	1.70023989677	-0.187832355499
0.43882226944	1.20497012138	0.160967826843	0.249711751938	1.70237791538	-0.187183976173
0.431915521622	1.20679342747	0.162496209145	0.246019124985	1.70339119434	-0.185319662094
0.424942016602	1.20914494991	0.164271950722	0.240486383438	1.70622253418	-0.183071613312
0.417683362961	1.21123194695	0.166133403778	0.233711719513	1.71016156673	-0.180975437164
0.411200284958	1.21405315399	0.167369484901	0.226343393326	1.71369040012	-0.178980112076
0.404520511627	1.215321064	0.168881177902	0.219152212143	1.71659290791	-0.176608324051
0.39795422554	1.21308124065	0.171164155006	0.213542461395	1.71765387058	-0.173657417297
0.390697717667	1.20996248722	0.172552585602	0.20898270607	1.7192466259	-0.169969320297
0.384006261826	1.20627188683	0.173199653625	0.204403162003	1.72124612331	-0.166142940521
0.376473903656	1.20349013805	0.173900961876	0.19868683815	1.72276651859	-0.161618351936
0.36909198761	1.2011898756	0.175205230713	0.192459106445	1.72362244129	-0.157278299332
0.36337184906	1.19840419292	0.178126335144	0.18660902977	1.7227421999	-0.153204202652
0.358670949936	1.19800519943	0.182605862617	0.182244300842	1.71991431713	-0.149136185646
0.353750944138	1.2001837492	0.186301469803	0.177322626114	1.71689879894	-0.146088123322
0.349157333374	1.20139789581	0.187225341797	0.169361591339	1.71423697472	-0.144392609596
0.345281839371	1.20092189312	0.187388539314	0.16333770752	1.71199011803	-0.14227771759
0.343607187271	1.20019829273	0.187450885773	0.160935401917	1.71018075943	-0.139642000198
0.343333482742	1.20027911663	0.18714928627	0.158545017242	1.71069777012	-0.137659549713
0.344017505646	1.20076477528	0.187456130981	0.158707618713	1.71139752865	-0.135926961899
0.343466281891	1.20198202133	0.186420202255	0.15919470787	1.71091330051	-0.13473033905
0.341089725494	1.19973170757	0.183670043945	0.158101558685	1.71047711372	-0.134887218475
0.338763475418	1.19539308548	0.180619359016	0.156005859375	1.70995473862	-0.135757684708
0.336651563644	1.19396543503	0.177517652512	0.154672145844	1.70908892155	-0.136590957642
0.336348295212	1.19414496422	0.174828410149	0.155204057693	1.70804905891	-0.138072371483
0.336853504181	1.19459652901	0.171499729156	0.157059669495	1.70771718025	-0.14107131958
0.33731675148	1.19558858871	0.167355179787	0.159489631653	1.70723640919	-0.144426226616
0.336191654205	1.19557225704	0.162386894226	0.16126203537	1.7061830759	-0.147782325745
0.334978342056	1.19084084034	0.158183932304	0.161778450012	1.70504295826	-0.150856256485
0.334114074707	1.18659901619	0.153746843338	0.161265850067	1.70417451859	-0.153721809387
0.334726333618	1.18599545956	0.150299549103	0.159984111786	1.70462656021	-0.157102584839
0.335872888565	1.18668329716	0.147996664047	0.159157991409	1.70729899406	-0.160517573357
0.338622093201	1.18801891804	0.146958827972	0.159410715103	1.71031928062	-0.16410446167
0.341816663742	1.19078660011	0.146633148193	0.1617000103	1.71197009087	-0.167473316193
0.344455480576	1.19406020641	0.146178483963	0.16432261467	1.71331250668	-0.170551776886
0.346558570862	1.19587528706	0.144970178604	0.167333841324	1.71643471718	-0.174057364464
0.346448421478	1.19709444046	0.143284440041	0.170785188675	1.71992957592	-0.177686452866
0.34583568573	1.19830882549	0.141310453415	0.173213481903	1.72326695919	-0.181554794312
0.344308614731	1.19913518429	0.138514637947	0.173365116119	1.72431814671	-0.185010313988
0.34384393692	1.20152366161	0.135575532913	0.171525716782	1.7228423357	-0.187448263168
0.344486474991	1.20332026482	0.133583068848	0.169240474701	1.72193348408	-0.189559936523
0.344788789749	1.20441508293	0.132176160812	0.168404102325	1.72236812115	-0.192060470581
0.344937086105	1.20655584335	0.130258083344	0.168974876404	1.72277379036	-0.194517850876
0.343579053879	1.20723724365	0.127168774605	0.169398784637	1.72226142883	-0.196766138077
0.34069275856	1.20780003071	0.122874498367	0.169387102127	1.72141730785	-0.198759555817
0.339247465134	1.20848441124	0.118694543839	0.16964507103	1.72139406204	-0.201045751572
0.33926820755	1.20935082436	0.115608453751	0.170564174652	1.72178590298	-0.203514099121
0.340465307236	1.21007823944	0.113933086395	0.171505689621	1.72223722935	-0.205760121346
0.341241121292	1.21077299118	0.112922430038	0.172971487045	1.72214651108	-0.207170844078
0.341537952423	1.21120584011	0.112249612808	0.175513267517	1.72137200832	-0.207520008087
0.341677188873	1.21153104305	0.112060070038	0.177201986313	1.71975719929	-0.20813369751
0.341407060623	1.21253967285	0.112703323364	0.176874399185	1.7181994915	-0.208407640457
0.342116355896	1.21338367462	0.113567113876	0.176313400269	1.71662712097	-0.208183407784
0.344300031662	1.21326267719	0.114345550537	0.177441358566	1.71600210667	-0.207812786102
0.347492694855	1.21300685406	0.115387201309	0.17938041687	1.71630394459	-0.207033157349
0.350501060486	1.21197521687	0.116355657578	0.181646585464	1.71606314182	-0.205921173096
0.351991176605	1.21119189262	0.116649389267	0.183920621872	1.71509456635	-0.204569816589
0.353334903717	1.2111723423	0.116402626038	0.185770511627	1.7141122818	-0.203111767769
