0.0	-0.0	136.72442627	-126.543273926	84.50050354	178.396377563
0.0	-0.0	136.992034912	-128.730285645	84.3123626709	179.458297729
0.0	-0.0	136.501953125	-130.617401123	83.8032302856	-179.475570679
0.0	-0.0	134.00604248	-132.331771851	83.370475769	-178.660430908
0.0	-0.0	127.813606262	-132.779800415	84.4109649658	-177.743621826
0.0	-0.0	124.587226868	-133.093078613	85.9090805054	-177.330169678
0.0	-0.0	119.679069519	-133.273391724	86.2129135132	-177.184829712
0.0	-0.0	105.489601135	-133.317077637	85.8885879517	-177.436309814
