0.0	-0.0	132.367050171	66.245513916	87.8360519409	4.00836229324
0.0	-0.0	132.13230896	65.7421112061	87.8485031128	4.21516132355
0.0	-0.0	132.070053101	63.9806098938	88.6063308716	4.80859470367
0.0	-0.0	131.417770386	-123.418502808	88.1318206787	-172.478439331
0.0	-0.0	130.408615112	-134.406082153	80.5738067627	-166.685119629
0.0	-0.0	129.683837891	-145.515289307	70.2764663696	-157.930953979
0.0	-0.0	128.778167725	-154.601165771	57.2630004883	-149.500488281
0.0	-0.0	127.79360199	-158.552444458	46.5031318665	-144.222442627
0.0	-0.0	127.141418457	-159.124008179	42.666683197	-142.05909729
0.0	-0.0	122.244293213	-160.43460083	41.1258010864	-141.363113403
0.0	-0.0	112.576957703	-162.781082153	39.8876304626	-142.017059326
0.0	-0.0	106.671104431	-164.113327026	39.1993141174	-142.83644104
0.0	-0.0	102.197319031	-164.616851807	39.9510536194	-144.272964478
0.0	-0.0	100.69203186	-164.788970947	43.0471382141	-146.564437866
0.0	-0.0	99.8668518066	-167.315582275	50.030216217	-151.824295044
0.0	-0.0	100.145675659	-171.599105835	53.0845680237	-156.533584595
0.0	-0.0	101.036560059	-176.657714844	51.7742614746	-159.164764404
0.0	-0.0	101.658531189	179.91708374	50.8755340576	-159.94581604
0.0	-0.0	101.647514343	179.578857422	51.508731842	-159.453979492
0.0	-0.0	99.9566040039	-178.958251953	51.798412323	-158.702011108
0.0	-0.0	99.088508606	-177.760543823	51.1665115356	-157.637039185
0.0	-0.0	96.7733383179	-176.741210938	49.1568260193	-155.755508423
0.0	-0.0	94.1766433716	-176.242523193	46.9043617249	-154.450866699
0.0	-0.0	92.9204864502	-175.419647217	45.642036438	-154.460678101
0.0	-0.0	92.2609634399	-173.483200073	45.0973548889	-154.63331604
0.0	-0.0	92.6538162231	-172.435119629	44.9220237732	-154.431137085
0.0	-0.0	91.5696716309	-172.157150269	43.641582489	-154.294555664
0.0	-0.0	88.2730026245	-171.507980347	42.5073623657	-153.875198364
0.0	-0.0	85.4337844849	-170.794906616	41.3108100891	-153.059829712
0.0	-0.0	83.4404830933	-169.341720581	37.5633163452	-151.676956177
0.0	-0.0	82.0957489014	-166.96496582	31.6647911072	-150.939117432
0.0	-0.0	81.4161911011	-165.490447998	29.8941345215	-150.477005005
0.0	-0.0	78.5464935303	-167.06880188	29.6828212738	-150.722915649
0.0	-0.0	76.6474380493	-168.958816528	29.7698249817	-151.441543579
0.0	-0.0	74.0120925903	-168.551727295	29.5104694366	-152.08996582
0.0	-0.0	72.6538314819	-167.270996094	29.4976825714	-152.381774902
0.0	-0.0	69.9281234741	-166.795135498	30.6738548279	-154.489120483
0.0	-0.0	66.6642456055	-167.35559082	31.2841434479	-157.279037476
0.0	-0.0	66.4402694702	-166.857437134	31.2213096619	-160.590560913
0.0	-0.0	66.0655517578	-162.313690186	31.9673023224	-162.182525635
0.0	-0.0	64.5919113159	-161.959106445	34.6136322021	-163.156311035
0.0	-0.0	64.9371032715	-168.34211731	37.6063041687	-166.152862549
0.0	-0.0	64.7786941528	-174.219528198	40.1433258057	-170.940322876
0.0	-0.0	66.3292007446	-177.595794678	43.2786140442	-177.640823364
0.0	-0.0	67.6299133301	-174.896057129	47.9750556946	177.291824341
0.0	-0.0	68.3828582764	-170.214294434	53.9213294983	175.884902954
0.0	-0.0	66.9524993896	-171.351776123	54.4616622925	175.0521698
0.0	-0.0	70.3338851929	-173.923751831	53.6625404358	173.720214844
0.0	-0.0	73.9866867065	-172.598190308	53.8692741394	173.409851074
0.0	-0.0	82.3818283081	-171.404815674	53.7559432983	173.619308472
0.0	-0.0	88.8808517456	-171.070373535	53.4985847473	173.849822998
0.0	-0.0	93.5885467529	-171.015563965	53.0983123779	174.049606323
0.0	-0.0	96.6120834351	-171.267593384	51.8343696594	175.523696899
0.0	-0.0	98.6411972046	-172.521728516	50.7298812866	178.814025879
0.0	-0.0	99.6039123535	-174.31211853	49.1778182983	-177.41293335
0.0	-0.0	99.6933364868	-173.765029907	47.7562675476	-176.005950928
0.0	-0.0	99.9319763184	-172.334686279	46.857006073	-176.16835022
0.0	-0.0	100.018310547	-172.329788208	45.7938194275	-175.510726929
0.0	-0.0	100.321586609	-173.656799316	44.3893547058	-173.772705078
0.0	-0.0	100.58506012	-174.417419434	42.9295921326	-172.482330322
0.0	-0.0	100.666717529	-174.31401062	41.5303764343	-171.711761475
0.0	-0.0	100.747383118	-173.469558716	39.6530151367	-171.000823975
0.0	-0.0	100.710350037	-172.745666504	37.5179100037	-170.105422974
0.0	-0.0	100.618301392	-172.534164429	37.1180419922	-169.210769653
0.0	-0.0	100.095497131	-170.718780518	37.4951820374	-168.625686646
0.0	-0.0	99.7995681763	-169.820770264	36.5237083435	-168.205413818
