0.0	-0.0	138.352905273	60.7580718994	82.359954834	-9.9267244339
0.0	-0.0	138.196777344	60.2558708191	81.5996170044	-9.33987045288
0.0	-0.0	137.915420532	60.3091163635	80.8496856689	-8.62034034729
0.0	-0.0	136.714355469	61.4941177368	79.2760391235	-7.82588577271
0.0	-0.0	132.261505127	63.7254104614	76.4331893921	-5.894115448
0.0	-0.0	125.556251526	66.4862747192	73.7963638306	-2.18127155304
0.0	-0.0	113.857429504	67.6334686279	71.8758926392	3.47069478035
0.0	-0.0	83.2613830566	66.3524856567	71.3075180054	9.26852798462
0.0	-0.0	15.0888204575	65.3384780884	72.3013458252	13.7274494171
0.0	0.0	-14.5956888199	65.445892334	73.0887298584	17.015039444
0.0	0.0	-19.5768203735	65.6727676392	72.597328186	19.5335483551
0.0	0.0	-25.0590572357	64.5724487305	71.0409240723	22.7628746033
0.0	0.0	-32.0666236877	62.021900177	70.3831558228	26.4520683289
0.0	0.0	-36.6673965454	59.5662727356	71.7519226074	30.0768718719
0.0	0.0	-40.8800430298	59.0022506714	73.4979629517	32.2966651917
0.0	0.0	-44.8988647461	60.0527801514	73.6827468872	32.8864517212
0.0	0.0	-48.4651756287	59.4391174316	72.5380020142	34.3002662659
0.0	0.0	-50.1524620056	57.8702468872	71.800239563	36.3161964417
0.0	0.0	-51.3813018799	57.0496330261	71.3630065918	37.9898948669
0.0	0.0	-53.2664222717	57.131652832	71.4179382324	38.998008728
0.0	0.0	-55.1946754456	57.9792060852	72.0397949219	39.1799201965
0.0	0.0	-57.2043228149	58.9816169739	72.7151565552	38.7679519653
0.0	0.0	-59.0926208496	59.1468009949	73.1783828735	38.6840820312
0.0	0.0	-58.1727828979	58.7509002686	73.3214263916	38.5831947327
0.0	0.0	-59.1030082703	58.7850875854	73.8044509888	38.2777557373
0.0	0.0	-61.3549880981	59.1745834351	74.4531707764	37.591255188
0.0	0.0	-63.1579208374	59.1082687378	74.0956344604	37.0484275818
0.0	0.0	-64.2384033203	58.3072814941	73.3460235596	36.9466171265
0.0	0.0	-69.0999679565	57.39295578	72.7964935303	37.4744644165
0.0	0.0	-79.5108795166	57.0792922974	72.8055038452	37.9272842407
0.0	0.0	-92.5528106689	57.3568382263	72.684463501	38.1037216187
0.0	0.0	-103.600975037	57.2513618469	71.8797149658	38.3624343872
0.0	0.0	-102.488586426	56.6409378052	70.5436630249	39.0457038879
