0.408724784851	1.42328464985	0.111673116684	0.155687332153	1.72332310677	-0.226052045822
0.409117221832	1.42278945446	0.111879467964	0.155493736267	1.72324860096	-0.224685192108
0.408349752426	1.42207503319	0.112697124481	0.154403209686	1.72277712822	-0.223157048225
0.406310558319	1.42131209373	0.114154219627	0.149930953979	1.72259521484	-0.221633315086
0.403938531876	1.42111265659	0.116135835648	0.14057302475	1.72309970856	-0.220735549927
0.401274442673	1.42058300972	0.118160605431	0.126476049423	1.72302293777	-0.220646381378
0.400022983551	1.42047452927	0.119970798492	0.114098548889	1.72210633755	-0.220415115356
0.401119232178	1.42102193832	0.120280146599	0.104820489883	1.7216244936	-0.219503641129
0.407375812531	1.42683172226	0.120575428009	0.0985102653503	1.72156596184	-0.218432426453
0.414878368378	1.43018019199	0.122029423714	0.094340801239	1.72130990028	-0.216822385788
0.422291040421	1.43169808388	0.123370289803	0.0930273532867	1.72105574608	-0.215025067329
0.428373575211	1.43133831024	0.124030590057	0.0931570529938	1.72178554535	-0.214012980461
0.435852766037	1.43130803108	0.12243270874	0.0934975147247	1.72391200066	-0.214174985886
