3.79860234261	-6.79440879822	-5.78192663193	19.2428340912	24.7663822174	34.7229194641
3.40894937515	-6.84075832367	-5.72531700134	19.2425498962	24.774356842	34.7368278503
3.18572854996	-6.8303976059	-5.69969367981	18.6947078705	23.9714488983	34.4800758362
2.96085739136	-6.41671800613	-5.50336170197	17.0976486206	22.580198288	33.3706016541
2.60624861717	-6.44140625	-5.47777557373	14.7418985367	22.9266090393	31.8520793915
1.98495399952	-6.44605350494	-5.6519317627	12.9825744629	24.5558509827	30.977186203
0.056489277631	-6.23470306396	-6.17617416382	9.69304847717	28.940776825	28.1608657837
-2.42069745064	-6.66109275818	-8.10347175598	4.74831008911	30.8463249207	23.5425434113
-5.31656360626	-7.2218914032	-10.4066896439	1.23840606213	31.1003189087	19.9440097809
-7.29806375504	-3.32122778893	-11.8360185623	-0.620282292366	31.1831760406	16.7873821259
-9.96755123138	0.908944427967	-11.4606761932	-1.8742108345	30.0277614594	12.0987415314
-11.4057941437	4.23996734619	-11.8808002472	-2.77805280685	29.4817695618	7.34937143326
-12.5196065903	7.14061927795	-12.2822999954	-2.57307720184	31.6217498779	3.51420307159
-12.6505908966	9.9768743515	-12.2389717102	-1.19217765331	34.227645874	1.99975609779
-13.5525217056	11.3731422424	-12.6140575409	-0.0284983571619	35.7581176758	2.8144030571
-14.9161672592	12.1019039154	-13.1165971756	-0.128321230412	37.5991630554	3.69996094704
-16.4501857758	12.7565479279	-13.6092758179	-1.03009867668	39.676776886	4.06810808182
-17.1022605896	12.8910303116	-14.6163988113	-1.25892007351	41.0396690369	4.15625762939
-16.8286247253	13.525475502	-16.1773738861	-0.0452455319464	41.0489997864	4.75252962112
-16.7309360504	15.4231262207	-16.5989208221	1.09818887711	40.2796211243	5.91630077362
-14.0223665237	11.6440954208	-21.0479488373	1.32990777493	39.255859375	7.35595369339
-12.9347686768	8.18097496033	-24.7421607971	1.14278566837	38.4959411621	8.19026184082
-10.2954177856	8.83053684235	-38.719367981	0.746885120869	38.1606483459	8.70166110992
-9.45763492584	9.74733066559	-45.1837615967	0.0908620581031	38.0048179626	8.7665309906
-10.5542259216	10.3268213272	-36.1304855347	-0.651240944862	37.8664207458	8.90549373627
-14.465672493	9.62714862823	-19.8350334167	-1.45170760155	37.6583137512	8.97366142273
-17.2167549133	9.1834936142	-10.0893001556	-2.08496332169	37.6849212646	8.85244369507
-17.6427783966	9.62487983704	-10.0561513901	-2.20776486397	38.035194397	8.6483039856
-18.3546772003	12.0933189392	-10.0016431808	-1.5204757452	38.5285797119	8.57710170746
-19.4235515594	15.8762865067	-11.5398931503	-0.564702391624	39.2593231201	8.85422325134
-20.2060604095	19.7745189667	-13.2021913528	0.0649055242538	39.5182723999	9.19161224365
-21.245885849	23.1274433136	-14.5323390961	0.258151143789	39.3767318726	9.08765697479
-21.4172439575	24.6163730621	-14.3836688995	1.06546247005	39.2485084534	9.16771221161
-21.7822742462	26.2951030731	-14.0746126175	2.23508501053	39.357006073	9.57038593292
-22.0145969391	27.7583637238	-13.1105127335	3.73236346245	39.6243515015	9.85942459106
-21.4864597321	27.9526233673	-12.5222835541	7.29940843582	39.6925811768	9.62852954865
-21.284072876	28.2308559418	-12.427734375	11.6068382263	39.5273246765	9.89989948273
-20.7325439453	27.8083515167	-12.5443639755	15.6679811478	39.0180244446	10.5399398804
-20.3162975311	27.5022354126	-12.4665822983	18.9747562408	38.3261451721	11.3146905899
-19.7128162384	27.2901439667	-12.599105835	23.6658859253	37.0812034607	13.2943258286
-19.3904438019	27.1738872528	-12.7068624496	28.2070770264	36.1114006042	16.0656604767
-19.4613170624	26.7835445404	-12.8100328445	26.7129192352	36.5786361694	16.194644928
-19.757188797	26.4518909454	-12.8153591156	20.1192817688	38.3232650757	13.2883939743
-20.3715744019	26.1921596527	-13.1294593811	14.6017169952	39.117061615	11.7326107025
-21.0693531036	26.0817260742	-13.3716897964	10.872844696	39.7799072266	12.0927143097
-21.4027080536	26.2267742157	-13.2788724899	7.01124429703	40.6255073547	11.6797180176
-21.5201683044	26.4574813843	-12.9366064072	2.35677695274	41.4678955078	8.83114337921
-21.6621246338	26.6867465973	-12.6100931168	-3.08679080009	41.5019836426	3.56962871552
-21.6024131775	26.7141704559	-12.4440097809	-8.98261642456	41.1893119812	-1.95716762543
-21.6179771423	26.7589912415	-12.3048315048	-11.4428110123	41.0472488403	-3.43604326248
-21.5554332733	26.8324699402	-12.4093160629	-11.5249185562	41.5118522644	-2.82619857788
-21.1484737396	26.9819087982	-12.2736625671	-11.8719301224	43.1693878174	-3.06464195251
-20.7742900848	27.0029182434	-12.0638418198	-13.1994953156	44.7598457336	-3.81297135353
-20.3982143402	27.2292613983	-11.8636465073	-15.5810317993	45.4939918518	-4.61564683914
-19.6412677765	27.4264583588	-11.8353223801	-18.1925182343	46.100643158	-5.9922208786
-19.5209655762	28.4452056885	-11.7391729355	-18.4868927002	46.4791412354	-6.09706020355
-19.7859325409	30.1592960358	-12.0677261353	-15.9906692505	46.9437675476	-4.78790998459
-19.8739929199	30.6999855042	-12.4168128967	-13.3698759079	47.0994567871	-3.65680408478
-20.0063838959	30.7751903534	-12.6361675262	-12.8501501083	46.9437484741	-3.66666817665
-20.373998642	31.287612915	-13.1156578064	-15.4586191177	46.3558807373	-5.16542673111
-19.9666004181	31.3345737457	-13.052904129	-23.7391719818	44.4885559082	-10.7893638611
-19.6886787415	31.5798473358	-13.1762981415	-28.5829811096	43.7736244202	-14.2469511032
-19.8191738129	31.7595977783	-13.4502105713	-23.6000747681	44.7289505005	-11.2964906693
-19.975725174	31.4928951263	-13.6678009033	-15.7777633667	45.5564956665	-7.46146011353
-20.0880393982	31.2386493683	-13.9214057922	-9.61125850677	45.568145752	-5.32155513763
-20.0631141663	31.2727222443	-14.1755809784	-5.74356603622	45.1320228577	-4.64093828201
-19.9979038239	31.4813842773	-14.6207304001	-2.57780957222	44.4823303223	-3.61820220947
-19.5751037598	31.8077735901	-14.8094005585	0.364938378334	43.2546882629	-2.15848207474
-18.9916133881	31.877779007	-14.6351995468	2.20856046677	41.4454307556	-1.11931502819
-17.8361740112	29.998456955	-13.7695178986	2.6961812973	39.3892364502	-0.841759264469
-16.4603881836	27.4567070007	-12.8635911942	2.66554307938	38.1624031067	-0.820392370224
-15.8804092407	25.8307113647	-12.3886013031	2.43738555908	37.8073234558	-0.855545282364
-16.1626853943	25.0134963989	-12.0368251801	1.9654686451	37.7302093506	-0.872077822685
-16.8269920349	24.5871429443	-12.0758695602	1.20695626736	37.5870361328	-0.9487003088
-17.3242530823	24.1963787079	-12.3308763504	0.295674204826	37.1512374878	-1.19349372387
-17.3055076599	24.4697914124	-12.2135629654	0.183516085148	36.4559135437	-1.42941129208
-16.4569168091	25.4894142151	-11.6063146591	3.50415682793	35.4412727356	-0.51096868515
-15.9707403183	26.3581237793	-11.2542629242	9.38753604889	35.1438407898	2.42403173447
-15.2903776169	26.7704753876	-10.783621788	14.3204774857	35.0743026733	5.16556024551
-15.0239725113	26.8059310913	-10.6420583725	15.8676843643	34.8910217285	6.3381228447
-14.8073101044	26.7402496338	-10.7096586227	14.480761528	34.6847381592	5.44774532318
-14.8618087769	27.2803230286	-10.6037874222	14.6801242828	33.7055053711	4.82657384872
-14.1878032684	28.2855796814	-9.66902542114	15.8604478836	32.4939651489	4.1369433403
-13.4284906387	28.579284668	-9.2929725647	17.6354045868	30.666223526	3.37110090256
-12.687997818	28.5280666351	-8.98330211639	19.652929306	28.7205066681	2.98824548721
-12.3380947113	28.5301055908	-8.95345783234	20.3897533417	27.3427715302	2.68070840836
-12.2875452042	28.688243866	-9.09972190857	19.0589141846	26.5545139313	2.67281413078
-12.3286504745	28.7071552277	-9.32234954834	13.9799604416	25.9080944061	2.54287600517
-12.2433795929	28.7133426666	-9.37968540192	6.60305500031	25.4451847076	1.90942251682
-12.3248062134	28.6025981903	-9.58103179932	-0.115369454026	25.337064743	1.02634823322
-12.4460115433	28.3545608521	-9.59390544891	-4.10467672348	25.7949008942	0.41408854723
-12.4868364334	28.4639911652	-9.26240634918	-4.96498966217	26.189661026	0.355508208275
-12.3953619003	28.7419967651	-8.81372070312	-3.27806258202	25.8133068085	1.3550747633
-12.183757782	28.3222503662	-8.4172296524	-0.475906789303	24.8333148956	3.72360372543
-12.241150856	27.7149085999	-8.31369972229	0.971471846104	24.1870117188	7.47112035751
-13.0263347626	27.1624202728	-8.95094966888	-0.648588299751	24.0001583099	9.53435134888
-13.9501609802	26.8942489624	-9.6500082016	-2.45585560799	24.2679271698	9.88304519653
-14.6429138184	26.8256778717	-9.8306646347	-3.26314520836	24.6723575592	10.012169838
-14.9122209549	26.7560348511	-9.78733825684	-6.02857875824	25.4217510223	9.70104026794
-15.1037759781	26.6948642731	-9.4009437561	-10.6391019821	26.3835086823	7.95888996124
-15.7123842239	26.3094844818	-9.62390708923	-14.8629713058	26.9076538086	5.86891460419
-16.648191452	26.112323761	-9.89276218414	-14.6143341064	27.1280574799	6.03467035294
-17.5317974091	25.9078292847	-9.95721817017	-11.3267593384	27.2299995422	7.24204730988
-18.2800674438	25.315984726	-10.3393726349	-8.32803821564	27.3348293304	8.00323009491
-19.0983390808	24.9154338837	-10.5456800461	-7.56062698364	27.5747489929	7.74860906601
-20.0319881439	24.6975059509	-10.9026947021	-8.22796058655	27.7404880524	7.26827049255
-21.4006538391	24.7517051697	-11.184305191	-8.55898571014	27.96626091	7.13856840134
-23.2714920044	24.7346954346	-12.0165920258	-8.74291324615	28.7712726593	7.16394376755
-24.901222229	24.6387996674	-12.5753726959	-9.72240543365	32.0363922119	6.95187568665
-26.3786582947	24.7425937653	-12.8349332809	-11.0003566742	35.2818717957	6.01624393463
-28.0664291382	25.5617656708	-13.2382040024	-10.8239307404	36.8345909119	5.7379899025
-29.2813587189	26.6615180969	-13.5136938095	-9.68948078156	37.3055267334	6.21444225311
-30.5847454071	27.7992515564	-13.920753479	-9.00434684753	37.8789749146	6.43725728989
-32.1782493591	29.0499248505	-14.6444168091	-8.72425937653	38.5176887512	6.39362573624
-33.7987327576	29.7296981812	-15.4422903061	-8.82982826233	39.044342041	6.23960590363
-35.8746604919	30.0838489532	-16.4700031281	-9.23309326172	40.0231399536	6.35534477234
-38.1733703613	30.2748641968	-17.1958370209	-10.9983968735	41.4537353516	6.32028245926
-40.4380760193	30.2834453583	-17.7237548828	-14.9505643845	43.078338623	4.33482122421
-42.9147415161	30.5260028839	-18.105884552	-21.0635471344	44.1803207397	0.158723220229
-44.4140548706	31.0619487762	-18.3598880768	-21.7872829437	44.4324111938	-0.601422011852
-44.9315299988	31.3427295685	-18.4391670227	-17.3156719208	44.8560333252	2.44534754753
-44.9880142212	31.3768959045	-18.3741226196	-13.9613494873	45.5930900574	3.61276841164
-44.9484481812	31.7273635864	-18.0608978271	-10.674577713	46.5458450317	1.83189320564
-44.6616249084	31.8910617828	-17.9350795746	-4.42226839066	47.4784507751	0.706184923649
-43.0448913574	31.8329868317	-17.9866752625	1.07521665096	47.3350410461	0.837438762188
-41.002117157	32.4510955811	-18.1564559937	2.34078979492	45.6963882446	0.437384307384
-40.2806892395	34.4546012878	-18.8109760284	1.6377800703	44.290725708	0.663277685642
-40.2594184875	36.3107376099	-20.5057430267	0.746071457863	43.337638855	1.75191962719
-40.1097717285	37.3955383301	-22.4279327393	0.0779030770063	42.7588577271	3.43503332138
-41.653553009	38.2875785828	-23.1761474609	-0.584195315838	42.6227798462	4.44249534607
-45.4750022888	38.9046134949	-25.2116374969	-0.776835739613	42.9802513123	4.94216012955
-50.5566062927	39.0514984131	-27.9513473511	-0.674061357975	43.5378875732	5.28957748413
-54.0168762207	39.5164642334	-29.5976066589	-0.442178159952	43.669506073	5.73415184021
-53.8031272888	40.1084594727	-28.9395275116	-0.685386300087	43.2267875671	5.8618221283
-50.9167366028	40.1215667725	-28.1084976196	-1.3229612112	41.9296417236	5.90169000626
-43.7296676636	37.2508850098	-25.4650096893	-1.68360447884	38.9094352722	6.33924674988
-37.3774795532	33.1987457275	-22.2429714203	-1.68256294727	35.8713951111	6.8096818924
-33.5166015625	29.6705780029	-19.8074588776	-1.5390638113	33.7655258179	7.06446027756
-30.8281555176	26.8323059082	-18.1091899872	-0.955544948578	32.5709381104	7.08263874054
-29.6806278229	25.1308059692	-17.3421669006	0.208631202579	31.8391666412	7.22210550308
-28.6575984955	24.1121520996	-16.7638282776	1.12246668339	31.0223026276	7.1102399826
-27.2495994568	22.3231754303	-16.2588329315	1.58398795128	30.0793418884	6.49052476883
-25.3861255646	18.5028152466	-17.5926380157	2.08110427856	29.2439823151	5.8666510582
-22.7414989471	14.1551895142	-16.7471141815	2.68118691444	28.5542087555	5.67569351196
-21.2868747711	12.8587532043	-16.1404342651	3.39776921272	28.1974620819	5.87526321411
-19.3502845764	14.0532197952	-16.5269889832	4.01483154297	27.7977981567	6.34840774536
-15.5552434921	15.1228294373	-17.6790237427	3.98620247841	27.1201000214	6.30239391327
-12.5200986862	16.9142990112	-16.7077178955	3.21846270561	27.2282505035	4.98706769943
-10.2041320801	18.1223258972	-15.9950227737	4.34693717957	29.5019683838	3.8728890419
-9.00560760498	20.2296066284	-14.4667711258	6.56456279755	34.1027259827	2.21526217461
-7.44226837158	22.0859107971	-14.8281898499	7.8850607872	36.9567718506	0.218009829521
-6.48062515259	23.9883460999	-15.1979017258	8.89850330353	38.3841400146	-0.565010249615
-5.83498477936	25.4767551422	-15.6743888855	8.31019592285	39.787563324	-2.60629653931
-4.88899946213	26.117099762	-16.0204524994	4.29923248291	40.7538414001	-7.10581350327
-4.30728960037	26.053768158	-16.0390377045	2.68972992897	40.9118690491	-8.87640666962
-4.53933238983	25.711057663	-16.3366756439	6.53392791748	40.5518379211	-6.22162342072
-5.34047746658	25.5583496094	-16.511806488	14.6459655762	40.1887588501	-0.144108459353
-6.09452295303	25.1981391907	-16.8416118622	21.7006282806	39.6121826172	5.53267669678
-6.73488330841	24.8895721436	-17.0708942413	25.322555542	39.0624160767	8.4077205658
-7.08640623093	24.8666210175	-17.193605423	27.0122299194	38.8498191833	9.11559295654
-6.98369407654	24.8925247192	-17.2538604736	27.9717769623	39.2076835632	9.06569004059
-6.57504749298	25.317024231	-17.1264133453	29.0578536987	39.9691467285	8.76806354523
-6.09097719193	25.6965827942	-16.9494171143	30.3470020294	40.3669815063	8.51021194458
-4.94763469696	25.9874305725	-16.5194072723	30.8980865479	40.3938331604	8.02933216095
-3.57250952721	26.5101013184	-16.0298442841	29.9016914368	40.4653663635	7.00436210632
-2.01055288315	27.2875003815	-15.4026756287	28.1751079559	40.1074028015	4.77083539963
-0.539407074451	28.0096321106	-14.6375379562	28.5722694397	40.3078155518	3.79222726822
0.0913928300142	27.9970149994	-14.6158246994	27.7014961243	40.2481422424	2.1675965786
0.508721768856	28.047290802	-14.7446403503	24.2091999054	39.7287330627	-1.87028074265
0.546791315079	28.0059089661	-14.9067325592	23.2439861298	39.603477478	-4.02311372757
0.351136416197	27.7571411133	-15.1447877884	26.9813289642	40.0381393433	-2.00105261803
-0.0717658922076	27.79596138	-15.0731668472	34.2647323608	39.7854194641	3.4543325901
-0.409262001514	27.30909729	-15.3852424622	39.7846984863	37.9670066833	8.85007953644
-0.8572909832	26.9713134766	-15.7172737122	41.1622962952	36.9583625793	11.133605957
-1.525354743	26.9754581451	-15.9179792404	40.9648857117	36.6693267822	10.9269599915
-1.94127845764	26.9917640686	-15.9658603668	41.6548194885	36.0781364441	10.3927001953
-1.9646422863	26.9895610809	-15.9828367233	43.6329689026	35.4681434631	10.0805168152
-1.78676319122	26.940530777	-15.9093570709	42.2525367737	35.4787712097	7.05297517776
-1.31404840946	26.6259498596	-16.1355228424	39.7495346069	35.9603767395	4.10137224197
-1.06522607803	26.5903358459	-16.4837684631	39.4780426025	36.0987281799	3.82237315178
-0.962581813335	26.9781913757	-16.6210899353	37.5884361267	36.1874237061	2.93801450729
-0.29514092207	26.9942874908	-16.7313117981	30.8197422028	36.2372016907	-2.08683252335
-0.174194008112	27.1397476196	-16.7748527527	28.6262836456	36.4282226562	-4.13273954391
-0.150510028005	27.3561153412	-16.6982021332	34.6725540161	36.6769676208	-0.265729486942
-0.100152045488	27.1988449097	-16.6519584656	44.6693458557	36.4876556396	6.84586715698
0.0972419008613	26.9447250366	-16.5669879913	51.8304634094	35.3388137817	11.4306116104
