0.0	-0.0	136.808776855	-112.60168457	88.6944274902	178.427230835
0.0	-0.0	136.536300659	-113.494499207	88.6501617432	179.205490112
0.0	-0.0	136.195373535	-114.721725464	88.7787475586	-179.952026367
0.0	-0.0	135.671524048	-120.637130737	89.5154953003	-177.832641602
0.0	-0.0	134.770553589	-134.763168335	89.0713500977	-173.028518677
0.0	-0.0	134.474563599	28.1171455383	89.988609314	11.6866111755
0.0	-0.0	134.17427063	13.012137413	88.9932632446	15.158616066
0.0	-0.0	132.049362183	-1.71943926811	88.7949981689	16.6293983459
0.0	-0.0	126.987876892	-10.4012260437	89.2920074463	17.4312591553
0.0	-0.0	122.076980591	-10.434589386	89.3110809326	18.6979446411
0.0	-0.0	117.485229492	-9.06948280334	89.0068511963	19.1429004669
0.0	-0.0	111.887741089	-10.2534694672	89.2588119507	19.1793785095
0.0	-0.0	105.936347961	-11.2084178925	89.1345062256	19.86510849
0.0	-0.0	96.9591903687	-11.1964855194	88.6602096558	20.3796863556
