0.370103597641	1.30205023289	0.00741124153137	0.209770679474	1.71129214764	-0.26143860817
0.369388580322	1.30228078365	0.0095123052597	0.209223031998	1.71115648746	-0.258622169495
0.368814229965	1.30171763897	0.0117211341858	0.208691596985	1.71093094349	-0.255305290222
0.36811709404	1.29976665974	0.0126572847366	0.208700180054	1.71198689938	-0.252357006073
0.372728586197	1.30152440071	0.0132396221161	0.206558704376	1.7145434618	-0.249991059303
0.382803916931	1.30471467972	0.0149813890457	0.199891805649	1.7174808979	-0.24850320816
0.40025472641	1.31075918674	0.0168340206146	0.191110610962	1.71912026405	-0.247723698616
0.416323184967	1.3149831295	0.018106341362	0.181993961334	1.72009134293	-0.24821805954
0.431318759918	1.31584966183	0.0185334682465	0.171971797943	1.72199630737	-0.250816822052
0.448659896851	1.31249535084	0.0192353725433	0.163206100464	1.72326087952	-0.254248142242
0.463450193405	1.30657851696	0.0205540657043	0.161056756973	1.72303795815	-0.257095813751
0.469804763794	1.30285227299	0.0205906629562	0.160649776459	1.72422981262	-0.260181427002
0.472579956055	1.29852676392	0.0199403762817	0.157629489899	1.72574174404	-0.263788819313
0.475910902023	1.29197347164	0.0187582969666	0.153303146362	1.72621846199	-0.266227483749
0.482637166977	1.28340852261	0.0161943435669	0.150381803513	1.7257527113	-0.267551422119
0.48884510994	1.278013587	0.0126171112061	0.148993015289	1.72529053688	-0.268708229065
0.492798566818	1.2736800909	0.0105887651443	0.147097587585	1.72503006458	-0.27019572258
0.492493152618	1.28187954426	0.00983119010925	0.144936084747	1.7258259058	-0.272595524788
0.490503072739	1.29195451736	0.0090811252594	0.141699552536	1.72827160358	-0.27633523941
0.489865064621	1.30030179024	0.00797808170319	0.137371778488	1.72895801067	-0.279964923859
0.489541530609	1.30571877956	0.00661611557007	0.134266614914	1.72791659832	-0.283333539963
0.488211631775	1.31030869484	0.00447881221771	0.133573770523	1.72690463066	-0.287260532379
0.486615180969	1.31260943413	0.00170624256134	0.133392333984	1.7266266346	-0.29211473465
0.485015869141	1.31444442272	-0.00181186199188	0.132504224777	1.72675693035	-0.296845674515
0.484540462494	1.31546700001	-0.00550854206085	0.129880905151	1.72656273842	-0.300410747528
0.484138011932	1.31533372402	-0.00888633728027	0.126218080521	1.72751677036	-0.303407549858
0.483430147171	1.31382668018	-0.0117484331131	0.122665166855	1.72707998753	-0.306181430817
0.481694221497	1.31418061256	-0.0142606496811	0.118882656097	1.72602808475	-0.309203147888
0.479030847549	1.3170747757	-0.0159854888916	0.114817142487	1.72481608391	-0.312612533569
0.475439786911	1.31974959373	-0.0175992250443	0.110852718353	1.7249070406	-0.317323446274
0.473035812378	1.31903934479	-0.0186145305634	0.107251167297	1.72483503819	-0.32222700119
0.468881845474	1.32364141941	-0.019862651825	0.106324195862	1.72290349007	-0.325516462326
0.458933115005	1.33685004711	-0.0149639844894	0.107619047165	1.7187461853	-0.326476573944
0.449616909027	1.35251605511	-0.0117999315262	0.110995054245	1.71608829498	-0.32660806179
0.447127342224	1.35492384434	-0.00815308094025	0.112512350082	1.71766030788	-0.327546834946
0.449573993683	1.35058200359	-0.00552845001221	0.110084056854	1.71956110001	-0.328689455986
0.45245718956	1.33826506138	-0.00278317928314	0.105982065201	1.71910047531	-0.329285264015
0.456411600113	1.32580637932	-0.00342309474945	0.101779460907	1.7182264328	-0.330229759216
0.458209276199	1.32004892826	-0.0031213760376	0.0974273681641	1.71971678734	-0.332132101059
0.458807706833	1.31537115574	-0.00266265869141	0.0899188518524	1.72144854069	-0.333802938461
0.457701921463	1.31520605087	-0.00278663635254	0.0833051204681	1.72156727314	-0.334377527237
0.456336736679	1.31710422039	-0.00283944606781	0.0804023742676	1.72255337238	-0.334430813789
0.456352710724	1.31631743908	-0.00321054458618	0.0788261890411	1.7234609127	-0.334019184113
0.458677768707	1.31190371513	-0.00372076034546	0.0769143104553	1.72316598892	-0.333156824112
0.459558486938	1.30646538734	-0.00483477115631	0.0757436752319	1.72228682041	-0.33183157444
0.457753181458	1.31785130501	-0.00600826740265	0.0765719413757	1.72187912464	-0.330921888351
0.449926614761	1.34816455841	-0.00375521183014	0.0794713497162	1.72150468826	-0.33038520813
0.439133167267	1.3757828474	-0.00493121147156	0.0836486816406	1.72145307064	-0.330332040787
0.434464931488	1.39110672474	-0.00243294239044	0.0877323150635	1.72196531296	-0.331203222275
0.421424627304	1.40997695923	-0.0036928653717	0.0908668041229	1.72236227989	-0.332512617111
0.405799150467	1.4203953743	-0.00616884231567	0.0944457054138	1.72241508961	-0.333649873734
0.381284475327	1.41709220409	0.000900745391846	0.098650932312	1.72180175781	-0.33497428894
0.372831106186	1.40969717503	0.0257112979889	0.102956533432	1.72162508965	-0.336670398712
0.38995552063	1.42370998859	0.0572032928467	0.106667041779	1.72163045406	-0.339102506638
0.406231164932	1.43800580502	0.0922535657883	0.10931801796	1.72101807594	-0.341639757156
0.445153713226	1.4663169384	0.0949327945709	0.110324382782	1.72076010704	-0.343889951706
0.458785533905	1.46586716175	0.0750634670258	0.109496831894	1.72017848492	-0.344082593918
0.447605371475	1.45679497719	0.0525357723236	0.110192298889	1.71957170963	-0.342252492905
0.426244258881	1.45911347866	0.024213552475	0.112469673157	1.71975922585	-0.340326786041
0.400444507599	1.48178851604	-0.00537192821503	0.115144968033	1.72037863731	-0.337786197662
0.37193608284	1.51397776604	-0.0462127923965	0.116560459137	1.72093319893	-0.335243225098
0.352825641632	1.52797019482	-0.0813236236572	0.116832733154	1.7204529047	-0.333195209503
0.352068424225	1.53001463413	-0.0908508300781	0.116049051285	1.72021925449	-0.332730770111
0.355692863464	1.52877616882	-0.0881719589233	0.114572048187	1.72044885159	-0.332562923431
0.358563661575	1.52688550949	-0.083652973175	0.112322568893	1.72094976902	-0.331372499466
0.349636077881	1.52829027176	-0.0886516571045	0.109262466431	1.72157287598	-0.329152584076
0.340130805969	1.52948558331	-0.0909953117371	0.106556653976	1.72212171555	-0.327092766762
0.335122585297	1.53010416031	-0.0890184640884	0.105043172836	1.72285175323	-0.325645804405
0.333617925644	1.53037655354	-0.0850952863693	0.105206727982	1.72344911098	-0.323960542679
0.333037853241	1.53145086765	-0.0802947282791	0.10594534874	1.72375094891	-0.322284460068
0.330008029938	1.53216850758	-0.0757236480713	0.106457233429	1.72411262989	-0.320424795151
0.327156543732	1.53151726723	-0.0717413425446	0.1067237854	1.72427368164	-0.318469762802
0.322061538696	1.53055131435	-0.0692112445831	0.10711479187	1.72427964211	-0.316412329674
0.314947366714	1.52997910976	-0.0675158500671	0.107238054276	1.7246516943	-0.31551527977
0.308565616608	1.52914810181	-0.0647393465042	0.106931209564	1.72466039658	-0.314957857132
0.306313753128	1.52863121033	-0.0606602430344	0.106960773468	1.72448146343	-0.314651012421
0.304697990417	1.52685844898	-0.0551450252533	0.106969594955	1.72442281246	-0.314608812332
0.302977085114	1.52424120903	-0.0539673566818	0.106715679169	1.72485637665	-0.314583301544
0.30238199234	1.52335441113	-0.0545952320099	0.106535434723	1.72482788563	-0.313947439194
0.303197383881	1.52272760868	-0.0549660921097	0.105927467346	1.72619318962	-0.314122319221
0.305215597153	1.52051794529	-0.0531258583069	0.105549573898	1.72800135612	-0.31535756588
0.307783126831	1.51910161972	-0.0524525642395	0.104932546616	1.72805809975	-0.316151618958
0.309038877487	1.5190757513	-0.0520256757736	0.105031728745	1.72767102718	-0.316727638245
0.312645673752	1.51773881912	-0.051408290863	0.105988740921	1.72943723202	-0.318919181824
0.31568813324	1.51651442051	-0.051924943924	0.105499982834	1.73035502434	-0.320719242096
0.319863080978	1.51709115505	-0.0534386634827	0.104836940765	1.72916638851	-0.321167469025
