-32.4322319031	-42.4405708313	129.259216309	8.21856307983	-0.182827711105	1.74559748173
-32.4962654114	-42.627040863	129.158569336	7.90935611725	-0.214686602354	1.89132237434
-32.8252487183	-42.9950752258	129.167129517	7.55995702744	-0.169787526131	2.07208991051
-33.0248069763	-42.6833763123	129.19480896	7.54244041443	-0.467465430498	2.16078042984
-33.070148468	-42.5083045959	128.98677063	7.56056308746	-0.60431098938	2.14758348465
-33.3695983887	-42.678401947	128.952011108	7.50912189484	-0.457235187292	2.18092012405
-33.5286827087	-42.6559028625	128.869979858	7.44392681122	-0.267840564251	2.21436500549
-33.4448471069	-43.1884002686	127.884155273	7.32207107544	-0.471907258034	2.27034473419
-32.7049865723	-43.7339439392	126.203437805	7.25867891312	-0.753479421139	2.39890265465
-32.3161773682	-44.67811203	124.444625854	7.23173713684	-0.982972025871	2.59851121902
-30.8287467957	-44.6001052856	121.914276123	7.26933288574	-0.243623569608	2.64729619026
-29.0596485138	-44.0265464783	119.735595703	7.53865289688	0.0539362952113	2.6011698246
-26.871925354	-43.1128997803	117.475204468	7.84123516083	-0.0881978720427	2.61252951622
-24.3887882233	-42.6294975281	114.871780396	7.66340684891	-0.22008022666	2.60753130913
-22.2125587463	-41.8016853333	112.738250732	7.10948991776	-0.43761998415	2.75511670113
-19.3869190216	-40.7076225281	110.381233215	6.71640443802	-0.492192357779	3.01923418045
-16.8514556885	-39.5473594666	107.863822937	6.52367162704	-0.405702054501	3.22372770309
-14.6295928955	-38.2478942871	105.005523682	6.60509681702	-0.0962662249804	3.29788064957
-14.569521904	-37.5963363647	103.71686554	6.46517753601	-0.000794417108409	3.52441644669
-15.3706445694	-37.5304679871	103.046875	5.93672847748	0.0571620985866	3.75889420509
-16.0657253265	-37.0048103333	102.705093384	5.3651175499	0.372607558966	3.90782856941
-16.486322403	-36.7025413513	102.430786133	5.23648309708	0.860076785088	4.01495075226
-15.6512489319	-37.1121711731	101.890007019	5.48634958267	0.931721687317	3.97175335884
-13.1492624283	-38.1591415405	99.7803268433	5.57010650635	1.10603809357	3.84120845795
-9.42458629608	-37.9075241089	96.3052978516	5.15428972244	1.56016409397	3.88223385811
-6.51991128922	-37.6306152344	93.2521820068	4.83008575439	1.10618889332	3.99653458595
-4.20715379715	-37.1804122925	90.2312316895	4.70521736145	0.703339099884	4.05703639984
-1.65455782413	-36.8381958008	86.874168396	4.52693557739	0.535836517811	4.33570718765
-0.043307185173	-35.4318656921	84.0692520142	4.30056667328	0.465923041105	4.46523046494
