6.6277141571	-5.60737466812	-5.85266923904	14.5712804794	13.6915893555	34.7727966309
5.96716213226	-5.54848051071	-5.88565921783	14.124830246	13.7328166962	34.5536155701
5.11620521545	-5.35547351837	-5.85765361786	12.6292896271	13.4459934235	33.4716911316
3.99581027031	-5.02054214478	-6.25822401047	8.56297492981	12.6937923431	30.6503620148
2.28624463081	-4.58415222168	-6.92663049698	3.41377067566	11.6312818527	27.1419372559
-0.186718761921	-4.72593593597	-8.04171180725	-1.80235648155	10.3098754883	23.4810447693
-3.56370019913	-6.17159795761	-9.27338600159	-6.27102279663	8.64268875122	19.5139656067
-6.81289148331	-8.74163150787	-11.1551675797	-9.03974151611	6.6967382431	16.4243984222
-10.4802703857	-11.3441114426	-12.4425354004	-10.1543426514	5.51916027069	15.3196249008
-14.3799009323	-14.1259498596	-13.5230236053	-11.2448606491	4.23469638824	15.0137147903
-17.6747131348	-16.7970161438	-14.7718963623	-12.6640424728	3.15330934525	15.0296764374
-21.3232631683	-18.6793117523	-15.7030305862	-14.3024501801	2.34958267212	15.5593566895
-25.0928344727	-19.512922287	-16.0533237457	-15.6137599945	2.12548160553	16.9740028381
-28.7906246185	-20.2615737915	-16.0079364777	-16.8717479706	1.74881374836	18.6310825348
-31.3671951294	-20.9723453522	-16.3777332306	-18.0616645813	0.68123292923	20.2950267792
-33.4162597656	-21.8443088531	-15.8743515015	-19.1936969757	-0.485211968422	20.9810333252
-34.7560539246	-22.6090316772	-15.9574213028	-20.23828125	-1.96876955032	20.316947937
-35.6262207031	-23.3586540222	-16.0243530273	-21.3664836884	-3.66600084305	19.415977478
-36.0699043274	-23.8662796021	-16.1812839508	-22.5749664307	-4.99822044373	18.5765361786
-36.5554618835	-24.03881073	-16.3484706879	-23.8497447968	-5.74443244934	17.3257312775
-37.3273010254	-24.1763973236	-16.3075695038	-25.069984436	-6.42559289932	15.9664926529
-38.4035758972	-24.4101448059	-16.3741664886	-26.1727981567	-7.09188079834	14.8979949951
-39.8032684326	-24.7734394073	-16.7518501282	-26.7847385406	-7.22589492798	14.6877574921
-41.0272979736	-25.2922019958	-16.6299285889	-26.6583805084	-6.68658351898	15.2629594803
-41.7187576294	-25.6383304596	-16.5874881744	-26.510881424	-6.31237268448	15.5536003113
