0.456081628799	1.04922628403	0.0962972640991	0.158007860184	1.67655050755	-0.171687841415
0.455556869507	1.05011177063	0.0963892936707	0.157703399658	1.67701840401	-0.171463251114
0.454911708832	1.05093979836	0.0968571901321	0.157011985779	1.67773103714	-0.171516060829
0.451058149338	1.052308321	0.0973167419434	0.1535115242	1.67752456665	-0.172246456146
0.443525791168	1.054666996	0.098708987236	0.147849082947	1.67659246922	-0.173744678497
0.430966854095	1.05649662018	0.10110938549	0.14263343811	1.67543983459	-0.175315380096
0.408319234848	1.05747938156	0.103321909904	0.138602018356	1.67484164238	-0.17668056488
0.377795696259	1.05808115005	0.10298204422	0.135579586029	1.67412889004	-0.177994132042
0.34207868576	1.05765962601	0.0991694927216	0.132759332657	1.67380607128	-0.179327487946
0.302408456802	1.05578136444	0.0883512496948	0.13040304184	1.67337954044	-0.180132746696
0.266153097153	1.05434083939	0.0727614164352	0.12872171402	1.67283880711	-0.18010020256
0.23822593689	1.05477619171	0.0595986843109	0.127197027206	1.67286038399	-0.179962038994
0.21617937088	1.05771493912	0.0493026971817	0.125380516052	1.6728335619	-0.17965066433
0.197345972061	1.06015825272	0.0415879487991	0.123709440231	1.67196142673	-0.179610013962
0.17945599556	1.06280303001	0.0339945554733	0.121284484863	1.67119753361	-0.179888486862
0.166059970856	1.06359839439	0.0265922546387	0.118227005005	1.6703659296	-0.18050467968
0.158573865891	1.06210803986	0.0208681821823	0.114115476608	1.66895508766	-0.182139396667
0.154614686966	1.05851960182	0.0150587558746	0.109514951706	1.66686499119	-0.18453001976
0.151248693466	1.0546400547	0.00709867477417	0.105227708817	1.66456365585	-0.186729669571
0.148139476776	1.0539431572	0.0035195350647	0.101541280746	1.66315805912	-0.188337922096
0.143669843674	1.05435562134	-0.000447154045105	0.099125623703	1.66203331947	-0.189304828644
0.14047908783	1.05396127701	-0.00344109535217	0.0977334976196	1.66090393066	-0.189252257347
0.138575315475	1.05299806595	-0.006103515625	0.0969336032867	1.65994179249	-0.188859939575
0.138108253479	1.05296707153	-0.00668382644653	0.0959718227386	1.65881097317	-0.188853502274
0.13813328743	1.05288553238	-0.00666379928589	0.0945556163788	1.65752065182	-0.189604759216
0.138007879257	1.05255556107	-0.00659072399139	0.093621969223	1.65676796436	-0.18988776207
0.137476921082	1.05218362808	-0.00717258453369	0.0943882465363	1.65673160553	-0.18869125843
0.136785268784	1.05224347115	-0.00778579711914	0.0954186916351	1.65547204018	-0.186444044113
0.13670539856	1.05208492279	-0.00790786743164	0.0938754081726	1.65152466297	-0.185695886612
0.137233495712	1.05177593231	-0.00787949562073	0.0901939868927	1.64672410488	-0.185700416565
0.137634038925	1.05066633224	-0.00862884521484	0.087016582489	1.64332509041	-0.184612035751
0.137170553207	1.04993319511	-0.00905513763428	0.0838780403137	1.64118635654	-0.183412790298
0.136123418808	1.04925179482	-0.00918769836426	0.0813891887665	1.64077675343	-0.182590007782
0.134837150574	1.04902529716	-0.00898540019989	0.0798916816711	1.64060938358	-0.181872725487
0.134561300278	1.04879260063	-0.00893378257751	0.0781631469727	1.64014053345	-0.182049393654
0.13455414772	1.04895496368	-0.00846207141876	0.0759329795837	1.63960766792	-0.182633399963
0.134089708328	1.04911541939	-0.00824332237244	0.0730671882629	1.63864552975	-0.183580875397
0.132644891739	1.04894566536	-0.00839567184448	0.0704388618469	1.63832783699	-0.183809518814
