0.378459215164	1.04804062843	0.0981290340424	0.188314437866	1.63903200626	-0.131638288498
0.3777115345	1.04809951782	0.098433971405	0.187275648117	1.63878107071	-0.131786584854
0.377103328705	1.04799294472	0.0983064174652	0.186594486237	1.63902068138	-0.132024765015
0.377046823502	1.04800081253	0.0983083248138	0.186037540436	1.64040446281	-0.13253736496
0.376742362976	1.04889917374	0.0980049371719	0.184863567352	1.64335644245	-0.133585691452
0.376870632172	1.05062556267	0.0980769395828	0.182489395142	1.64771592617	-0.135466337204
0.377720832825	1.05249905586	0.0991414785385	0.178301811218	1.65254127979	-0.138431549072
0.379592657089	1.05602550507	0.101031303406	0.173987388611	1.6577694416	-0.142024755478
0.381912231445	1.06168961525	0.104595780373	0.170781612396	1.6629127264	-0.146079301834
0.384855985641	1.0714931488	0.110378623009	0.168707609177	1.66632032394	-0.149889230728
0.385833978653	1.0886746645	0.117248058319	0.167081594467	1.66803371906	-0.152689695358
0.384472608566	1.11039328575	0.123295783997	0.165482521057	1.66891551018	-0.155110120773
0.379215955734	1.1358782053	0.127635955811	0.163255214691	1.66973638535	-0.157273888588
0.370623826981	1.16239964962	0.12809920311	0.16014790535	1.67083692551	-0.159499645233
0.361051082611	1.18572592735	0.125725150108	0.156331062317	1.67168235779	-0.161665678024
0.354146957397	1.19880366325	0.123116254807	0.153416633606	1.67308068275	-0.163452744484
0.349784851074	1.20075345039	0.120517969131	0.151449680328	1.67524564266	-0.165146112442
0.34613609314	1.19610953331	0.117634057999	0.148694038391	1.6771723032	-0.16681933403
0.342841148376	1.19189655781	0.114887952805	0.148087024689	1.67989110947	-0.168646335602
0.341067790985	1.1902667284	0.113798618317	0.149387121201	1.68303406239	-0.17031288147
0.340272903442	1.19010746479	0.113223552704	0.152450323105	1.68600571156	-0.171419382095
0.340446949005	1.18935656548	0.113228917122	0.15673995018	1.68996977806	-0.172143936157
0.340944051743	1.18779850006	0.113100528717	0.160760879517	1.69396531582	-0.172730445862
0.339757680893	1.18613553047	0.112830519676	0.163245439529	1.69645273685	-0.173353075981
0.337765455246	1.18528008461	0.113150000572	0.164470911026	1.69831204414	-0.173654079437
0.336095571518	1.18462133408	0.11402463913	0.164324998856	1.69948625565	-0.17400097847
0.335313796997	1.18395614624	0.11505818367	0.161942958832	1.70060312748	-0.174488067627
0.335917234421	1.18326973915	0.115829706192	0.160454750061	1.70352721214	-0.176020026207
0.337972402573	1.18368124962	0.117817282677	0.159947633743	1.70645272732	-0.177665472031
0.338828086853	1.1854326725	0.11959195137	0.160286903381	1.7096054554	-0.179553747177
0.339241504669	1.18631803989	0.121438384056	0.161151647568	1.71230792999	-0.181723117828
0.339207172394	1.18666851521	0.122439265251	0.162843465805	1.71203815937	-0.182360172272
0.339024782181	1.18613433838	0.12336063385	0.165212154388	1.71294283867	-0.18251645565
0.338059902191	1.18526089191	0.1244161129	0.168073177338	1.71376407146	-0.182523965836
0.336449623108	1.18429327011	0.125663757324	0.17108798027	1.71497941017	-0.18223297596
0.335342168808	1.18242895603	0.12607717514	0.172887802124	1.7167443037	-0.182671785355
0.335148334503	1.17972719669	0.127021312714	0.172131299973	1.71891641617	-0.183989048004
0.336305618286	1.17826747894	0.128159880638	0.170016050339	1.72074818611	-0.186074733734
0.338047981262	1.18086576462	0.129611849785	0.168897867203	1.7216117382	-0.187893152237
0.340995550156	1.19007325172	0.131058931351	0.168456315994	1.72168731689	-0.189068555832
0.342516183853	1.20491206646	0.129952192307	0.167961359024	1.72162425518	-0.189808011055
0.341468334198	1.21339702606	0.128125786781	0.167271614075	1.72145414352	-0.190524339676
0.33985543251	1.21747541428	0.126166343689	0.166662931442	1.72132301331	-0.190667390823
0.339772224426	1.21807491779	0.123368740082	0.166980743408	1.72107279301	-0.190280914307
0.340813398361	1.21905493736	0.120522141457	0.16747713089	1.72163188457	-0.190348982811
0.34174990654	1.22085773945	0.117222905159	0.168319225311	1.72179329395	-0.191313028336
0.342394113541	1.22364830971	0.114472031593	0.169474363327	1.72161912918	-0.192440390587
