0.340171337128	1.39419126511	-0.064612030983	0.225792884827	1.71429586411	-0.293727636337
0.338888168335	1.39409863949	-0.0649418830872	0.22443985939	1.71374332905	-0.292899847031
0.337528467178	1.39386808872	-0.0646951198578	0.222774267197	1.71276557446	-0.291361093521
0.336264610291	1.39346432686	-0.0635875463486	0.221228837967	1.71160769463	-0.289564847946
0.33362364769	1.39224517345	-0.0612728595734	0.217094898224	1.71042311192	-0.287293195724
0.332180261612	1.39020287991	-0.0574941635132	0.207357645035	1.70805978775	-0.285061359406
0.336039066315	1.39034056664	-0.0515367984772	0.196850776672	1.7062485218	-0.283188581467
0.339922428131	1.39053833485	-0.0446373224258	0.188893795013	1.70544421673	-0.281189441681
0.34158706665	1.38880395889	-0.0377343893051	0.181950807571	1.70539903641	-0.279096126556
0.338733196259	1.3883972168	-0.033679485321	0.173502922058	1.7047533989	-0.277196645737
0.335249423981	1.38937950134	-0.0316593647003	0.162312507629	1.70417916775	-0.275849103928
0.331458568573	1.38955283165	-0.0303046703339	0.148609638214	1.70444893837	-0.275394916534
0.329475641251	1.38932406902	-0.0300334692001	0.134829759598	1.70407772064	-0.275906920433
0.328940391541	1.38929152489	-0.0301990509033	0.123897790909	1.7038333416	-0.276306867599
0.329029083252	1.38830494881	-0.0298314094543	0.116210222244	1.70299732685	-0.276807308197
0.332407712936	1.38698172569	-0.0285379886627	0.111824035645	1.70177555084	-0.277123689651
0.337280750275	1.3853083849	-0.0259511470795	0.108247995377	1.70164608955	-0.278542637825
0.341000318527	1.38315570354	-0.0237118005753	0.104059457779	1.70116853714	-0.280472755432
0.341974973679	1.38077127934	-0.0218780040741	0.10032081604	1.7001209259	-0.282964706421
0.343470811844	1.38025832176	-0.0210138559341	0.0972235202789	1.69957756996	-0.286387085915
0.345499277115	1.38082897663	-0.0212998390198	0.0943374633789	1.7008613348	-0.29000377655
0.348454713821	1.38089978695	-0.0205011367798	0.0912656784058	1.70183813572	-0.293672323227
0.352590560913	1.37923002243	-0.0196166038513	0.087388753891	1.70159363747	-0.296846628189
0.35907292366	1.37510728836	-0.0182987451553	0.0847382545471	1.70050442219	-0.299213647842
0.365823507309	1.37027001381	-0.0166718959808	0.085015296936	1.69940316677	-0.300769925117
0.370513677597	1.36759328842	-0.0167771577835	0.0877344608307	1.69932687283	-0.301352620125
0.374692678452	1.3638831377	-0.017474770546	0.0909814834595	1.70017564297	-0.301909446716
0.376982927322	1.36291348934	-0.0204293727875	0.0930507183075	1.70098018646	-0.302777409554
0.376630306244	1.36355721951	-0.0237340927124	0.093202829361	1.70079898834	-0.302912116051
0.372890710831	1.36818480492	-0.0286388397217	0.0919671058655	1.70072734356	-0.302278757095
0.370234727859	1.37089323997	-0.0317277908325	0.0891015529633	1.70170497894	-0.302149057388
0.36843585968	1.36991488934	-0.0305305719376	0.0858917236328	1.70271027088	-0.303356766701
0.367427825928	1.36750018597	-0.0289288759232	0.0842559337616	1.70314455032	-0.305308938026
0.364862680435	1.36725008488	-0.0284789800644	0.0844488143921	1.70229661465	-0.307423949242
0.363074541092	1.36745011806	-0.028825044632	0.0834686756134	1.70130586624	-0.310100197792
0.360222816467	1.36802256107	-0.0294448137283	0.0799126625061	1.70047843456	-0.313326120377
0.354902505875	1.37101745605	-0.0313884019852	0.0740914344788	1.69901931286	-0.31645989418
0.348626375198	1.37437522411	-0.0347239971161	0.0685608386993	1.69764733315	-0.319623470306
0.340961456299	1.37763977051	-0.0384505987167	0.0649695396423	1.69688212872	-0.323259472847
0.329968214035	1.38076758385	-0.0422394275665	0.0645771026611	1.69757282734	-0.327247858047
0.319535255432	1.38288879395	-0.0479297637939	0.0672497749329	1.6972271204	-0.33184504509
0.311502695084	1.38317251205	-0.054101228714	0.0701792240143	1.69559788704	-0.337310910225
0.307921648026	1.38093352318	-0.0597898960114	0.0710408687592	1.69445085526	-0.343298912048
0.306149959564	1.37886321545	-0.0658581256866	0.067538022995	1.6936750412	-0.34883415699
0.303592681885	1.37491989136	-0.0689990520477	0.062821149826	1.69285392761	-0.352215766907
0.302113294601	1.37170624733	-0.0733535289764	0.0571072101593	1.69205105305	-0.35352730751
0.299570798874	1.36945736408	-0.0772488117218	0.051064491272	1.69179165363	-0.35361623764
0.298278570175	1.36829543114	-0.0780497789383	0.04767537117	1.69274771214	-0.354070663452
0.294779539108	1.36664712429	-0.0790157318115	0.0450568199158	1.69324612617	-0.35485959053
0.283580780029	1.36811971664	-0.080005645752	0.0410950183868	1.69309091568	-0.355019569397
0.262026071548	1.37154150009	-0.0808794498444	0.0364348888397	1.69251024723	-0.354518413544
0.246297121048	1.37211322784	-0.0823996067047	0.0344095230103	1.69263803959	-0.353498458862
0.23775601387	1.37275731564	-0.0821371078491	0.0345811843872	1.69277441502	-0.351862311363
0.226360559464	1.37180900574	-0.0814926624298	0.0361671447754	1.69281637669	-0.350299835205
0.210764169693	1.36104750633	-0.0797164440155	0.0382854938507	1.6928384304	-0.348715186119
0.20743060112	1.34828710556	-0.0741171836853	0.0414640903473	1.69235301018	-0.347880005836
0.210173606873	1.34423840046	-0.0718401670456	0.0460364818573	1.69155192375	-0.346996307373
0.212156534195	1.35638570786	-0.0804634094238	0.0505862236023	1.68968176842	-0.34545135498
0.223388671875	1.37819373608	-0.087877035141	0.0529890060425	1.68839120865	-0.342942237854
0.231312036514	1.39198303223	-0.0866661071777	0.0541450977325	1.68747258186	-0.340846538544
0.218507766724	1.40445911884	-0.0900344848633	0.0557487010956	1.68664705753	-0.339463233948
0.205424070358	1.41427195072	-0.0966644287109	0.057525396347	1.68616700172	-0.338886499405
0.199967384338	1.4176954031	-0.103548765182	0.0582110881805	1.68724966049	-0.33803486824
0.201865196228	1.41329681873	-0.105234384537	0.0547156333923	1.68913900852	-0.336717247963
0.205594301224	1.40730631351	-0.103333234787	0.0471694469452	1.68988728523	-0.333637952805
0.209470033646	1.40361845493	-0.10357606411	0.0379252433777	1.68914341927	-0.330101251602
