-111.323951721	-34.4108314514	133.127609253	10.4327983856	1.24452030659	4.60749673843
-111.591308594	-34.6673126221	132.92427063	10.1154794693	1.41833031178	4.70649003983
-111.904052734	-35.0990753174	132.606842041	9.64160633087	2.04362797737	4.83885574341
-111.888038635	-35.8871002197	131.805770874	8.0813999176	4.42403745651	5.50381851196
-112.113296509	-35.8663063049	131.365158081	5.42200469971	9.23052310944	6.69870615005
-112.637161255	-36.8842506409	131.051498413	3.15487408638	13.0634918213	7.81632852554
-113.005966187	-38.4003677368	129.393508911	0.131167367101	15.1645412445	8.19205856323
-114.045196533	-43.5449295044	128.065261841	-3.36794281006	14.7297143936	6.6396727562
-115.079208374	-49.3142166138	127.649879456	-5.75083827972	11.6286287308	3.54872632027
-115.230514526	-52.2481994629	127.36365509	-6.95203304291	6.94701433182	0.192414164543
-114.862312317	-53.7269554138	126.006393433	-7.89988803864	4.12445116043	-2.15147733688
-115.212425232	-53.597454071	125.718780518	-8.11792850494	2.03684449196	-2.26681423187
-115.712280273	-53.0760955811	126.402702332	-8.20447254181	-0.0729931592941	-0.676159083843
-115.855377197	-53.0676841736	126.818435669	-7.99493837357	-1.46521735191	1.4415358305
-116.952102661	-57.0158500671	125.722923279	-8.12641239166	-2.19779205322	2.5779569149
-118.822296143	-64.6238250732	123.257446289	-7.99104595184	-1.85613942146	2.93759131432
-116.784622192	-70.9579467773	115.837280273	-7.40704298019	-1.77154970169	3.20727658272
-106.745559692	-77.8511734009	99.8073883057	-6.79430007935	-2.00216460228	3.77756333351
-61.2109489441	-85.4027404785	47.7258300781	-6.73662281036	-2.21081590652	4.64849996567
-44.8648986816	-85.9171066284	30.6725234985	-7.04155158997	-1.99636888504	5.21591711044
-48.0600967407	-85.0002670288	33.386756897	-7.30701637268	-1.28471148014	5.36983680725
-54.6670913696	-82.6289291382	39.7717437744	-7.35632419586	0.694435417652	5.66085672379
-58.6908454895	-80.681022644	43.17237854	-7.22600460052	1.77506101131	6.00882530212
-44.8220481873	-80.3961105347	27.1226978302	-7.14847135544	1.06378734112	6.00213289261
-30.4755516052	-78.3707580566	10.4938688278	-7.28096246719	0.0622064359486	5.98714017868
-17.9561347961	-75.0620727539	-4.09954833984	-7.37797021866	-0.0360424518585	5.88045835495
-28.2168197632	-71.5500640869	6.42282962799	-7.13713598251	0.253074645996	5.83706283569
-34.4893951416	-70.5637054443	12.431930542	-7.10476636887	0.259440749884	5.87182617188
-35.5918655396	-71.247467041	13.2904729843	-7.27392864227	0.15082192421	6.02618551254
-38.4367027283	-72.1772918701	17.0505313873	-7.55139684677	0.0443331263959	6.00998830795
-46.8640441895	-75.4046325684	28.2421073914	-7.63231658936	0.167598292232	5.67028808594
-55.4975471497	-76.3150405884	39.8593063354	-6.9641327858	1.32843506336	5.12434196472
-60.6225280762	-76.6604003906	46.2851104736	-5.92291212082	3.76323223114	5.81583452225
-68.7676391602	-76.2397155762	55.633266449	-5.57322072983	8.1598072052	7.33042097092
-78.5633010864	-74.4687957764	67.9014282227	-5.33792924881	11.9946575165	7.97834396362
-94.943572998	-68.1681747437	90.3155975342	-4.64186382294	13.194981575	7.5680475235
-99.6478881836	-61.0769882202	99.7553863525	-3.35996389389	14.9285497665	6.87766885757
-101.131324768	-53.6503601074	104.020782471	-2.34214186668	18.1477203369	6.49645757675
-101.511558533	-49.4806365967	105.264511108	-2.10550665855	21.4441547394	6.90900421143
-103.06879425	-45.0433921814	107.866340637	-1.94889950752	25.122461319	7.3338971138
-103.571472168	-43.363735199	108.208518982	-0.384648919106	28.324005127	7.9636592865
-103.11995697	-43.7056732178	107.59677124	0.897053539753	29.7813682556	8.72109127045
-101.136474609	-49.6741065979	101.368713379	1.05975115299	29.9192466736	8.75074863434
-98.689781189	-54.607006073	94.240852356	1.07650923729	29.6768245697	8.67835044861
-97.9606018066	-55.2691116333	92.4482040405	1.51995027065	29.9077644348	8.61201190948
-98.7554550171	-54.8126144409	93.167755127	3.76583600044	30.0480117798	8.28027534485
-101.190956116	-52.6309509277	95.2656173706	7.30152225494	29.4153385162	9.10461521149
-102.703346252	-50.5444831848	95.5865936279	10.060418129	27.7191925049	11.7220830917
-103.824394226	-49.7139167786	95.4078445435	14.0317592621	24.5179462433	17.9877758026
-103.952804565	-50.0648269653	95.0014038086	15.1164798737	22.5404777527	22.1381015778
-103.211029053	-50.4739608765	94.055267334	11.1909046173	22.8281230927	20.6489315033
-102.987678528	-50.5196037292	93.7932739258	6.47059869766	23.1644706726	17.928894043
-102.648590088	-51.7340354919	93.0266799927	1.66830945015	22.3035125732	13.8951711655
-102.077041626	-52.7788505554	92.3218231201	-1.21715319157	21.1066246033	10.4669408798
-100.512733459	-54.0304527283	89.5423202515	-0.912392735481	19.9165210724	9.57870960236
-99.4972305298	-53.2825088501	88.1564407349	0.902383029461	19.5352230072	10.2877426147
-99.1991577148	-52.8154296875	87.4696350098	1.54305100441	19.2787857056	10.7329950333
-99.5870742798	-52.218875885	87.7445144653	1.38997149467	18.88322258	11.0984754562
-99.0914077759	-52.4510002136	87.3297576904	1.15697050095	18.6935005188	10.5676755905
-98.2459411621	-52.6839637756	86.1456222534	1.86346411705	18.9352912903	9.16529750824
-98.1040496826	-52.6746292114	85.5209655762	4.62107801437	19.1815795898	7.96540975571
-98.1626739502	-52.7811012268	85.3011550903	11.0715866089	20.3035335541	9.46777248383
-98.3634185791	-53.2551307678	85.3612594604	16.0281352997	22.6616630554	11.5520801544
-98.375617981	-53.3666648865	85.5684280396	18.3949012756	24.115530014	11.9395780563
-98.1462554932	-53.084274292	85.4454956055	18.3251876831	25.154964447	11.5538492203
-97.7378005981	-52.8565788269	84.7248916626	15.909081459	25.3262081146	9.75025177002
-97.1616592407	-52.5120925903	83.6650772095	13.6381587982	26.8281860352	8.33288002014
-97.2934188843	-52.6508636475	83.6741638184	15.9850568771	28.0853271484	9.47456932068
-97.4038085938	-52.4819984436	83.6058959961	20.2970485687	28.1884117126	11.3219594955
-97.464012146	-51.9602355957	83.4932327271	21.4052810669	28.3222904205	11.6994905472
-97.7889251709	-51.4960899353	83.6736602783	19.8717155457	28.3499011993	11.2452049255
-97.6938934326	-51.1132507324	83.6575012207	18.8818092346	28.4132595062	10.9761514664
-96.8537902832	-51.3495864868	82.5091781616	19.0791702271	28.520318985	10.8141841888
-96.0678482056	-52.2434425354	81.0335464478	19.4838428497	28.2124958038	11.3775901794
-95.0430908203	-52.681312561	78.6790466309	17.8793945312	27.8357849121	11.8934421539
-94.4726333618	-51.625579834	76.9876480103	15.2145738602	27.3265857697	14.2624120712
-94.2741699219	-51.3731498718	75.9124832153	11.2371110916	27.315290451	17.2766532898
-94.8215713501	-50.2744827271	74.80128479	5.74311351776	28.1430034637	18.3455085754
-94.2670516968	-50.3858299255	73.470954895	-1.29982805252	28.3329753876	16.0217189789
-93.0633621216	-51.3691596985	71.9517669678	-9.63752651215	27.88331604	11.2583675385
-92.6035842896	-52.7284851074	71.3721084595	-17.7405929565	27.7620220184	6.6406493187
-92.8707504272	-53.0486412048	71.291267395	-21.9267578125	27.170671463	4.48148679733
-92.9486999512	-53.5681533813	70.8011245728	-20.7413387299	26.6867980957	5.68788433075
-91.5942382812	-57.0018234253	67.9388427734	-19.9526367188	26.1849575043	6.43469285965
-81.894317627	-65.771194458	56.7784614563	-20.9741306305	25.3911972046	5.90207290649
-37.7582092285	-76.476272583	11.4632797241	-21.9095230103	24.2985305786	5.65792703629
28.2696475983	-68.3072967529	-53.8914146423	-21.4316444397	23.0313472748	5.95769739151
42.4072875977	-56.8467979431	-68.0223617554	-20.2401847839	21.0192737579	6.90751647949
46.8841514587	-52.4908676147	-72.1942977905	-20.4250297546	19.6784477234	8.06131076813
51.3287353516	-48.7635612488	-75.490196228	-22.4373264313	20.155538559	8.34896850586
56.8847084045	-44.2920761108	-78.3784942627	-25.8466854095	20.8620452881	7.48131465912
62.3556976318	-39.2466850281	-80.1786575317	-27.5270938873	20.7221469879	8.11194992065
66.5110168457	-35.7653656006	-80.4856109619	-28.7792873383	21.4107227325	8.66056728363
