0.403079748154	1.41609883308	0.119934201241	0.154951095581	1.72323668003	-0.205399513245
0.402848482132	1.41619777679	0.119968533516	0.15428185463	1.72313725948	-0.20509314537
0.403308391571	1.41599273682	0.12004506588	0.153238296509	1.72292518616	-0.204799890518
0.403584718704	1.41605913639	0.120242118835	0.152216911316	1.72217071056	-0.20395898819
0.402515888214	1.41435182095	0.120241641998	0.150563001633	1.71810817719	-0.201941609383
0.399882793427	1.40873169899	0.119046807289	0.148673295975	1.71318364143	-0.198827385902
0.398217439651	1.40234029293	0.118025302887	0.145877361298	1.70979130268	-0.195519208908
0.404163599014	1.40522933006	0.117156505585	0.142024040222	1.70847570896	-0.193138241768
0.423606395721	1.41339385509	0.118627429008	0.139742851257	1.70738649368	-0.191763401031
0.442469835281	1.40963792801	0.123753547668	0.138337612152	1.70606827736	-0.191431283951
0.450115442276	1.39914691448	0.12750005722	0.134951114655	1.70502400398	-0.192169904709
0.450139522552	1.38723015785	0.130158662796	0.127766132355	1.70352172852	-0.193403720856
0.448742628098	1.38079416752	0.130937457085	0.119161605835	1.69976270199	-0.195187330246
0.448486804962	1.38149654865	0.12812256813	0.113597869873	1.69718551636	-0.196806192398
0.44943022728	1.38558590412	0.125287055969	0.11145401001	1.69654548168	-0.198745727539
0.452501058578	1.38708460331	0.122132778168	0.109563827515	1.69631505013	-0.201031446457
0.461592674255	1.38441085815	0.118116974831	0.106642246246	1.69606351852	-0.203948736191
0.471645355225	1.37869429588	0.114636540413	0.102790117264	1.69600212574	-0.207227945328
0.478044986725	1.3747882843	0.11082470417	0.0984916687012	1.6959862709	-0.209933757782
0.48249912262	1.37149369717	0.108414173126	0.0939030647278	1.69517195225	-0.212066173553
0.484308004379	1.36855447292	0.104994058609	0.0895991325378	1.69403982162	-0.214033484459
0.487346410751	1.36192512512	0.103585004807	0.0858545303345	1.69281673431	-0.216012716293
0.490714788437	1.35572183132	0.104118108749	0.0829105377197	1.69152128696	-0.217994451523
0.49223613739	1.35414934158	0.106354355812	0.0807585716248	1.69030737877	-0.220188140869
