-38.9124755859	-27.3685398102	136.99206543	8.08497619629	-2.32264471054	2.79133367538
-39.219165802	-27.7664813995	136.994430542	8.47822093964	-2.55738854408	2.68679213524
-39.3950042725	-27.8940162659	136.857666016	9.56979179382	-3.06857943535	2.51168227196
-39.4449996948	-27.804151535	136.535995483	9.23779392242	-3.2763364315	2.6533973217
-39.3408050537	-27.9099731445	136.367523193	9.50018310547	-4.08239221573	2.49333190918
-39.2354660034	-27.977186203	135.952804565	9.9814157486	-4.39974212646	2.38044691086
-39.4855194092	-28.1289291382	136.043365479	9.37959957123	-3.91920399666	2.67388987541
-39.6514854431	-28.3898468018	135.842498779	9.07752990723	-3.56352233887	2.83070707321
-39.4480361938	-29.6609554291	134.270019531	9.00333118439	-3.66234922409	2.93623566628
-38.6022758484	-34.5282478333	128.579986572	8.8126745224	-3.8522810936	2.93936538696
-34.2734451294	-47.5898246765	114.292907715	8.96120834351	-4.12140893936	2.82814097404
-24.2243938446	-58.5289878845	95.9490280151	8.84873199463	-4.40019702911	2.87440824509
-24.4665298462	-56.968963623	95.2538909912	8.46799182892	-4.76162481308	2.79011821747
-27.9682826996	-53.4303665161	99.2049026489	8.31955623627	-4.80784416199	2.62510752678
-30.1396598816	-54.1777763367	101.821617126	8.5339307785	-5.18781232834	2.36533117294
-32.7929115295	-55.0095977783	104.929069519	8.98719596863	-5.66346931458	2.00509619713
-36.0523376465	-56.3332099915	107.557090759	9.44533061981	-5.99221563339	2.32677578926
-37.0456123352	-55.8668861389	108.225311279	9.3271780014	-8.02208518982	2.57033061981
-36.9764289856	-55.1089706421	108.035774231	9.81381225586	-15.8036499023	2.22406411171
-36.1441268921	-54.6463088989	107.361045837	9.58464431763	-17.4278144836	1.55988192558
-35.4806671143	-57.7618255615	105.155860901	9.77006912231	-16.8282527924	1.50557982922
-24.1250514984	-68.3720016479	87.0935592651	10.4218702316	-16.0758972168	1.4974104166
29.4197311401	-74.9065170288	25.0927734375	10.1179351807	-16.2280826569	1.70755398273
38.9968719482	-71.9607772827	13.2252988815	9.58604621887	-16.7775878906	1.85432624817
12.7895002365	-70.8146514893	41.6233406067	8.77387714386	-17.1728153229	2.42257642746
7.34179830551	-69.779083252	46.335609436	7.07755804062	-16.8970127106	3.29490661621
7.68261861801	-70.7093734741	45.9975624084	6.10317516327	-15.6418685913	3.56247520447
6.91799974442	-72.2346343994	47.4583053589	6.8682308197	-17.111410141	3.80340504646
10.4094686508	-72.632484436	44.6017112732	6.89568042755	-19.2216930389	3.83370184898
22.453168869	-70.7530441284	27.765832901	6.38618803024	-18.2068710327	3.98878502846
41.0507392883	-68.2673873901	6.33429956436	7.05792284012	-16.0550251007	3.74624800682
47.6914634705	-66.2246627808	-2.4546751976	7.51107549667	-13.9490804672	3.76825714111
50.2825775146	-64.3551330566	-6.74709796906	6.75105857849	-13.5070323944	4.16335868835
49.1181221008	-62.7818756104	-6.89115428925	5.10900449753	-13.2297029495	4.92644882202
45.5950546265	-63.3182449341	-3.25189208984	2.46635317802	-13.5963087082	5.90640926361
44.0220031738	-63.4796714783	-1.52225732803	0.761588275433	-13.9585189819	6.60785007477
45.4428787231	-62.914390564	-3.82854366302	0.962864100933	-13.543135643	6.93840789795
48.7078056335	-61.4816246033	-9.02345848083	1.4174734354	-13.0045213699	7.18623495102
49.5755233765	-61.0119667053	-11.4258375168	1.25057983398	-12.6554231644	7.50945854187
53.4963302612	-59.1663017273	-17.342508316	0.892366886139	-12.736489296	7.81329631805
59.5051727295	-55.2226486206	-26.5470352173	0.84946513176	-12.8671035767	7.93777132034
64.1266937256	-50.8210029602	-34.5876502991	0.885476827621	-13.3390808105	8.07500457764
62.8158683777	-52.8788414001	-32.1614608765	0.473240435123	-13.7083921432	8.2495059967
61.3440551758	-55.6715393066	-30.5829982758	0.0271440632641	-14.1709804535	8.6491394043
64.8106689453	-54.1744194031	-35.787361145	-0.221950113773	-14.7483463287	8.90659618378
69.150352478	-48.3479156494	-43.8524169922	-0.0249802991748	-15.1205291748	8.96182441711
70.4813613892	-44.1722412109	-47.8131256104	-0.031237732619	-15.3081893921	9.21377658844
70.0636367798	-42.609172821	-48.7164611816	-0.72758692503	-16.0217418671	9.85773181915
69.6603393555	-41.7326583862	-48.9364280701	-1.75008285046	-16.9541702271	10.8809261322
72.1586990356	-38.4401359558	-52.5390357971	-2.08253121376	-17.3328037262	11.482588768
74.2947692871	-32.2212600708	-56.9779205322	-1.0627014637	-17.2518424988	11.1833534241
