-147.285003662	-73.2960357666	142.886871338	-3.58166408539	-0.207796528935	-8.99173259735
-146.874816895	-73.472618103	142.320907593	-3.79868245125	-0.070076495409	-8.80145359039
-146.304489136	-73.5797195435	141.431884766	-4.87056922913	0.00427957391366	-8.34043884277
-146.514007568	-73.9247894287	141.523147583	-6.93377017975	-0.56771749258	-7.83242750168
-145.38168335	-74.356918335	140.260559082	-9.84730243683	-2.66186761856	-7.60256624222
-144.741073608	-74.5560760498	139.367324829	-14.8040542603	-5.86097288132	-7.56872081757
-145.19418335	-74.9305267334	139.752838135	-21.3786888123	-8.85771656036	-7.06341457367
-145.377044678	-77.0258712769	138.92401123	-26.564250946	-10.586853981	-5.88443756104
-141.830673218	-80.40234375	134.218017578	-27.7424926758	-11.4460477829	-4.78153705597
-127.276046753	-81.9576339722	119.308044434	-26.8467273712	-11.5757341385	-4.3651099205
-117.971595764	-82.849899292	109.770256042	-25.5022602081	-11.2402544022	-4.34545755386
-113.707008362	-83.5142593384	105.113235474	-24.7303237915	-11.1197166443	-4.22542572021
-108.578659058	-84.2930526733	99.6171722412	-24.5858631134	-11.1816301346	-4.12155437469
