0.0	-0.0	133.787353516	74.8269577026	88.655128479	10.9411678314
0.0	-0.0	133.288665771	74.1208648682	88.9282302856	11.2009391785
0.0	-0.0	132.536376953	-107.023933411	89.6847610474	-167.597229004
0.0	-0.0	127.640632629	-110.649055481	85.1983413696	-165.652130127
0.0	-0.0	125.002243042	-116.57257843	76.9840698242	-164.774154663
0.0	-0.0	123.651985168	-119.82157135	68.6160736084	-167.359191895
0.0	-0.0	123.079612732	-120.600364685	63.9067840576	-169.361923218
0.0	-0.0	115.844390869	-121.37991333	63.988483429	-168.665863037
0.0	-0.0	75.9096298218	-125.851921082	66.7661743164	-166.256576538
0.0	0.0	-0.723956644535	-135.176773071	67.3164291382	-161.962234497
0.0	0.0	-35.8217315674	-142.660018921	65.5722503662	-158.944625854
0.0	0.0	-48.1835327148	-144.139953613	65.5615081787	-156.921539307
0.0	0.0	-51.2986373901	-143.2394104	66.213432312	-156.691741943
0.0	0.0	-52.290927887	-141.682098389	65.4351043701	-157.221130371
0.0	0.0	-53.1231117249	-139.474090576	62.3106384277	-158.178039551
0.0	0.0	-53.3079795837	-138.027618408	60.0594024658	-158.839691162
0.0	0.0	-54.2915687561	-138.248245239	59.711353302	-159.744842529
0.0	0.0	-54.8944854736	-138.250167847	59.6945495605	-160.72038269
0.0	0.0	-57.9609603882	-138.177047729	60.7867927551	-160.78288269
0.0	0.0	-57.9966125488	-138.885726929	61.2915458679	-161.096710205
0.0	0.0	-57.4491996765	-138.493347168	61.6133499146	-161.428970337
0.0	0.0	-59.9898262024	-136.974395752	60.9259490967	-161.653289795
0.0	0.0	-60.8966293335	-135.973327637	60.8319549561	-161.526092529
0.0	0.0	-61.8911743164	-136.298782349	61.133972168	-161.320663452
0.0	0.0	-62.4899978638	-136.901931763	61.2326583862	-160.504974365
0.0	0.0	-66.0997543335	-137.40953064	61.0356445312	-159.92791748
0.0	0.0	-69.0432357788	-137.534622192	61.240524292	-159.673446655
0.0	0.0	-75.0308532715	-138.501281738	61.7406158447	-159.503234863
