-95.5655517578	-56.1165046692	136.326965332	7.64937639236	1.49086499214	3.84488582611
-95.6287078857	-56.3693618774	136.004348755	7.60735034943	1.47760295868	3.8311829567
-95.9795303345	-56.7792129517	136.08531189	7.48403596878	1.8784558773	4.09031295776
-95.7714614868	-57.1870346069	135.62121582	7.37134313583	2.13075256348	4.16572475433
-95.6883010864	-57.9001541138	135.377349854	7.47515964508	1.697250247	4.28693008423
-96.2399597168	-60.8475341797	134.349258423	7.00656509399	1.26437175274	4.65016841888
-97.5215072632	-64.0133514404	133.74520874	6.67286729813	1.14020383358	4.93811798096
-99.1399536133	-69.3227767944	132.190109253	6.87828731537	0.961177289486	4.94374799728
-102.103797913	-76.4047546387	131.085754395	7.09319829941	0.790625631809	4.85271883011
-104.856582642	-80.512588501	130.980514526	7.01818990707	0.804177343845	4.90280246735
-112.492927551	-88.8880081177	133.490142822	6.85016107559	0.835558235645	4.94786739349
65.4998245239	-82.7881469727	-49.4862060547	6.94079685211	1.03094112873	4.87191152573
72.2495422363	-78.5587539673	-57.7952728271	7.24244070053	1.12243902683	4.49364519119
74.5352859497	-78.8744354248	-59.875	7.12058782578	0.899037539959	4.33023309708
70.8054885864	-84.0666885376	-53.8334083557	6.19242763519	0.583579719067	4.59163045883
