0.0	-0.0	145.194213867	-122.144325256	88.2308349609	172.963180542
0.0	-0.0	144.79888916	-123.205528259	88.1752471924	173.155593872
0.0	-0.0	144.002029419	-128.283706665	88.4292221069	173.870040894
0.0	-0.0	143.102294922	-142.146499634	89.1159362793	175.166320801
0.0	-0.0	142.212844849	19.7319374084	89.4992523193	-2.69396018982
0.0	-0.0	141.159255981	1.57298851013	88.9963684082	-0.36272662878
0.0	-0.0	137.40927124	-14.5939283371	88.691368103	1.34799110889
0.0	-0.0	130.562240601	-24.4769687653	88.6521453857	3.35429477692
0.0	-0.0	126.600700378	-27.2112255096	89.1618118286	5.53129720688
0.0	-0.0	121.990623474	-27.0949611664	89.5613555908	6.31472158432
0.0	-0.0	117.025428772	-26.7143821716	89.3899612427	6.29972076416
0.0	-0.0	110.85874939	-26.5377388	89.3518447876	6.28854513168
0.0	-0.0	105.300498962	-26.9718456268	89.1928710938	6.53142404556
0.0	-0.0	96.6172409058	-27.8202018738	89.0059585571	6.92670631409
0.0	-0.0	85.1480941772	-28.3948059082	88.9080657959	7.32010889053
