0.0	-0.0	139.751724243	-102.068771362	77.8200378418	-169.723602295
0.0	-0.0	139.508743286	-102.975440979	77.4909744263	-169.412078857
0.0	-0.0	139.516647339	-103.826957703	77.3860397339	-168.909637451
0.0	-0.0	139.206558228	-103.954124451	78.0810089111	-168.253768921
0.0	-0.0	136.816085815	-105.712661743	83.11668396	-166.480606079
0.0	-0.0	127.971191406	67.6690444946	88.3409423828	17.2084445953
0.0	-0.0	107.418006897	59.3716583252	80.9987869263	25.8309249878
0.0	-0.0	45.3541145325	52.7637176514	76.8843460083	35.3870201111
0.0	0.0	-27.0487575531	50.4356956482	75.7291870117	40.9686584473
0.0	0.0	-41.075050354	50.7410545349	76.3617477417	44.2718772888
0.0	0.0	-52.952999115	50.6628265381	75.1132202148	47.5041770935
0.0	0.0	-68.2186660767	52.0754890442	71.0689620972	53.0754852295
0.0	0.0	-82.665977478	59.0183906555	68.7470321655	57.2646217346
0.0	0.0	-80.414100647	68.0321273804	67.9001083374	58.6877975464
0.0	0.0	-80.9327087402	71.5131912231	65.7828445435	60.2382049561
0.0	0.0	-81.3659591675	72.9875488281	65.8175201416	64.1732940674
0.0	0.0	-81.7783279419	74.6828079224	69.1072235107	65.965385437
0.0	0.0	-81.7298431396	78.3121337891	71.6211471558	65.4084777832
0.0	0.0	-81.6161193848	81.6148529053	71.1678237915	65.6302032471
0.0	0.0	-81.3179473877	81.690536499	69.0343704224	66.2573928833
0.0	0.0	-81.651473999	81.9610290527	67.7865600586	67.0190887451
0.0	0.0	-81.7293243408	85.4712753296	66.3020248413	69.062286377
0.0	0.0	-82.0285949707	88.8986663818	64.075088501	72.4037399292
0.0	0.0	-82.3606338501	88.0326385498	62.4862632751	72.541633606
0.0	0.0	-83.3475341797	87.4919815063	61.6726226807	70.9604034424
