0.0	-0.0	135.193069458	37.5745887756	76.9406890869	-23.0344486237
0.0	-0.0	134.448760986	37.7124214172	76.8308410645	-23.3188152313
0.0	-0.0	130.812561035	37.6435050964	76.6332550049	-23.5190010071
0.0	-0.0	120.575332642	37.9503593445	76.6712493896	-24.0669841766
0.0	-0.0	100.960029602	38.5414886475	76.823600769	-25.4990959167
0.0	-0.0	74.8759613037	38.7440032959	77.3601150513	-26.1498699188
0.0	-0.0	45.2166061401	37.9349784851	77.4140167236	-26.4245700836
0.0	-0.0	23.4377975464	37.8165245056	77.1369171143	-27.0946235657
0.0	-0.0	11.6053342819	37.2004966736	76.5831985474	-27.9361381531
0.0	-0.0	6.82576799393	36.9985694885	75.9854431152	-29.0372390747
0.0	-0.0	1.18641018867	36.7522087097	75.9559020996	-29.9974727631
0.0	0.0	-10.0603675842	36.6265144348	76.5254135132	-31.0453090668
0.0	0.0	-21.3848934174	36.4950485229	77.1521911621	-31.8519268036
0.0	0.0	-26.9171981812	35.1329345703	77.2325286865	-32.986541748
0.0	0.0	-28.3726234436	33.82554245	77.1889801025	-34.0518226624
0.0	0.0	-29.3681411743	29.9679794312	78.0189590454	-35.7758750916
0.0	0.0	-30.6142864227	25.3628311157	77.4519271851	-37.87342453
0.0	0.0	-31.3222675323	21.1589317322	77.0801620483	-39.8312110901
0.0	0.0	-32.4094314575	17.2631549835	77.7605133057	-40.9815330505
0.0	0.0	-32.6580085754	15.3581457138	78.9983062744	-42.5890083313
0.0	0.0	-32.5266914368	11.6930551529	80.6082992554	-44.2975463867
0.0	0.0	-32.4391098022	6.22971439362	82.623878479	-47.0337562561
0.0	0.0	-31.9317245483	-0.32672342658	84.0787277222	-47.9597473145
0.0	0.0	-31.8791275024	-4.93594455719	84.2346343994	-48.973323822
0.0	0.0	-32.361869812	-6.76398038864	83.8137817383	-49.2449455261
0.0	0.0	-30.3539276123	-6.41275596619	83.1487350464	-48.9285469055
0.0	0.0	-17.9503993988	-5.64095115662	82.4072799683	-48.9943237305
0.0	0.0	-7.64978313446	-5.223341465	81.8027114868	-48.4246330261
0.0	0.0	-17.2275295258	-5.48955392838	82.0779724121	-47.6266822815
0.0	0.0	-36.0621795654	-5.67023706436	82.4583511353	-47.2577362061
