-91.899772644	-60.407459259	139.766738892	10.8504838943	3.73572635651	4.34498596191
-91.8971176147	-60.929473877	139.445358276	10.6771240234	3.80141568184	4.53843593597
-91.9213867188	-60.927696228	139.377731323	9.95801067352	3.33775019646	4.89557790756
-91.9190597534	-61.2591705322	139.024230957	8.10884380341	1.25197935104	5.04375457764
-91.4237442017	-61.6927986145	138.257522583	5.45032215118	-2.49403619766	4.60138511658
-91.2393035889	-61.7977294922	137.708602905	2.32689213753	-6.73601531982	4.58094835281
-91.2715072632	-62.2053489685	137.264984131	-0.571874976158	-10.1445436478	6.73439073563
-91.0843963623	-63.0860710144	136.955184937	-3.36945843697	-12.4114255905	11.3080425262
-90.2428512573	-63.7431144714	136.015777588	-5.72457790375	-14.0934104919	15.2472467422
-89.0764694214	-64.4877090454	135.199951172	-7.29327487946	-15.3294200897	16.4472961426
-87.2423095703	-65.7569961548	133.247817993	-7.51642608643	-16.935125351	14.8597278595
-86.0634460449	-65.2178649902	131.361434937	-6.23394870758	-18.5795783997	11.9793014526
-84.3867340088	-66.4086456299	129.02104187	-4.09993124008	-20.0109634399	8.73676490784
-83.4379577637	-67.3303604126	127.681343079	-2.70694184303	-20.9137592316	7.08108901978
-81.6284942627	-68.8114318848	125.216377258	-2.52881360054	-21.4299087524	6.63070487976
-76.9138259888	-73.2163848877	117.514442444	-2.69041872025	-21.5909576416	6.887134552
-52.9772720337	-82.2254333496	89.2557830811	-2.69978928566	-21.3795928955	6.86028337479
30.0942687988	-82.187171936	1.90288639069	-2.63503885269	-20.4980812073	6.90760707855
43.7764205933	-78.842086792	-13.8466815948	-2.63845157623	-19.6627788544	6.9084148407
51.5486679077	-76.4954376221	-23.358915329	-2.98143577576	-19.0528850555	7.18724060059
59.101852417	-73.5261230469	-32.7560958862	-4.03601455688	-18.382232666	8.00615310669
65.6796417236	-69.7836608887	-40.7232933044	-6.02400398254	-17.476606369	9.82296180725
71.9198989868	-64.8270950317	-48.0855712891	-8.26306819916	-16.4155426025	12.9198293686
75.208190918	-58.175163269	-53.0233345032	-9.57283687592	-15.7726259232	15.1931266785
77.4188842773	-51.4275627136	-55.6312141418	-9.54925727844	-15.9817409515	15.9110908508
78.9691238403	-46.339641571	-56.9056892395	-8.91562080383	-16.8822669983	15.7636289597
78.8529586792	-39.5292472839	-57.9549407959	-8.54114818573	-17.5085868835	15.6324987411
73.9418487549	-36.0438728333	-55.2308044434	-8.4937505722	-17.2399921417	15.6046619415
66.0200805664	-44.2203483582	-50.3703613281	-8.17084217072	-16.5455780029	15.262377739
60.6983718872	-51.5679969788	-44.6810913086	-7.62374734879	-15.1312379837	14.2285404205
64.9839324951	-61.7311134338	-46.4044532776	-7.41238212585	-14.4700698853	13.8847951889
82.9841842651	-72.6432952881	-60.2107810974	-7.88076305389	-14.222823143	13.9649925232
118.392158508	-79.1032943726	-92.5932846069	-8.37905311584	-14.3466148376	14.0331172943
149.724731445	-80.3898696899	-123.318183899	-8.7459230423	-14.5131626129	14.1405878067
170.763031006	-80.6799545288	-144.786773682	-9.45426654816	-14.8748636246	14.7403144836
177.810394287	-80.5735092163	-152.282272339	-10.8774757385	-15.9134750366	16.5713558197
178.223419189	-81.2791900635	-153.637908936	-11.8114938736	-16.6859455109	19.0530586243
172.839874268	-82.8962249756	-149.298324585	-12.301156044	-16.6314697266	20.7592163086
178.403839111	-83.3972549438	-155.401290894	-12.6102104187	-16.799451828	22.4704799652
-175.598587036	-83.4717102051	-161.81137085	-12.9631004333	-17.3662185669	26.0846138
-165.656448364	-83.7583312988	-171.977798462	-13.6097707748	-17.713722229	29.5789985657
-162.148162842	-84.7612380981	-175.671676636	-13.5228977203	-16.6242408752	29.4101467133
-152.613861084	-85.5517501831	174.453567505	-13.277141571	-14.6362981796	27.4524555206
-123.171920776	-85.6086959839	144.574768066	-13.4016017914	-13.7713108063	25.8601951599
-103.186576843	-83.0820465088	124.262336731	-13.179599762	-13.881814003	24.6731491089
-100.190383911	-82.5989151001	120.668037415	-12.4949159622	-14.1775007248	24.2781562805
-96.8088378906	-81.2188339233	117.439323425	-12.1883220673	-14.0938205719	24.1934204102
-95.954460144	-77.8634719849	116.399856567	-12.0075969696	-13.8924894333	23.8189792633
-95.4793930054	-76.4131240845	114.802375793	-11.6173048019	-13.9794569016	23.4973888397
-88.5369110107	-81.5707244873	104.343078613	-11.5339832306	-14.1254806519	23.3492050171
-17.6521816254	-87.5537033081	29.8160839081	-11.5076465607	-14.1915082932	23.0724620819
55.1643066406	-81.4322662354	-47.0380554199	-11.149728775	-14.2288894653	22.3881015778
61.5667190552	-77.0724258423	-54.9885368347	-10.4082250595	-14.246257782	21.2535095215
63.4377212524	-77.2829971313	-56.6183013916	-9.71491909027	-14.3470277786	20.3664569855
64.5357055664	-74.2957077026	-59.345664978	-9.33129024506	-14.7377090454	20.1237926483
69.0920562744	-70.8712692261	-64.5614929199	-8.85114860535	-15.1889781952	20.2978630066
73.0566940308	-67.6421279907	-68.8805847168	-7.88103866577	-15.3977775574	19.9903469086
76.5941162109	-66.0188446045	-72.342376709	-7.00344657898	-15.5995817184	19.3433532715
80.2716674805	-65.7730865479	-75.7410736084	-6.33313941956	-16.1642818451	18.4811325073
87.9479598999	-68.8000640869	-80.985458374	-6.32553482056	-16.690284729	18.5227680206
90.6425094604	-68.1443328857	-83.9111022949	-6.91506385803	-16.7521896362	19.1502628326
92.6225357056	-67.1213760376	-85.6972122192	-6.97308254242	-16.8276500702	19.4082221985
94.431427002	-66.0380706787	-87.2104721069	-6.81412553787	-17.3523330688	19.3227310181
95.7072219849	-65.6126174927	-87.8500213623	-6.8095459938	-18.2473278046	19.3962440491
96.7409820557	-65.0752716064	-88.2275695801	-7.38225364685	-19.0517559052	19.835439682
97.1070404053	-65.143371582	-88.4452514648	-7.76631402969	-19.4915962219	20.1234226227
97.573097229	-65.1765441895	-88.7699508667	-7.3488650322	-19.9954319	19.9076633453
97.9785766602	-65.1149520874	-89.1164627075	-6.82794427872	-20.5388717651	19.5131607056
