-45.113697052	-49.0744743347	140.214675903	7.78304481506	-0.0294365715235	3.36544203758
-45.5867614746	-48.9829063416	140.412521362	7.89208126068	-0.198468863964	3.37558817863
-45.7218589783	-48.9106254578	140.442703247	7.9191403389	-0.377901285887	3.37017560005
-45.6461448669	-49.1069946289	139.8152771	7.67939949036	-0.372502505779	3.64857697487
-39.4442901611	-52.7693595886	123.234184265	6.88669538498	0.0240749083459	3.96241140366
-28.5892295837	-56.1140785217	105.337272644	5.76656484604	0.231587693095	4.14860439301
-25.9892196655	-56.0714607239	101.108406067	4.44241857529	0.255885511637	4.54498577118
-25.0871257782	-55.7852134705	99.574256897	3.6534922123	0.332369834185	4.76164150238
-23.017244339	-56.4949302673	95.9227981567	3.58934593201	0.2886954844	4.9326338768
-15.1386852264	-59.4295959473	83.8533401489	3.91548657417	0.344001322985	4.91563510895
