0.0	-0.0	135.674957275	54.4188423157	86.7781982422	-6.11046648026
0.0	-0.0	135.113891602	53.8651008606	86.8152008057	-5.51521158218
0.0	-0.0	134.253936768	53.1056671143	86.5792999268	-5.01726818085
0.0	-0.0	130.036468506	51.3025627136	86.8848571777	-4.13482666016
0.0	-0.0	120.199363708	48.1599311829	87.8940200806	-2.55469465256
0.0	-0.0	116.996154785	45.0640830994	89.7918548584	-0.633486449718
0.0	-0.0	111.862319946	-135.79498291	89.4427566528	-179.618728638
0.0	-0.0	102.302558899	45.3406066895	89.7023849487	1.08355545998
0.0	-0.0	96.5223846436	45.3933181763	89.223739624	1.61232566833
0.0	-0.0	92.0595092773	44.5787162781	88.6142349243	1.99658226967
0.0	-0.0	91.3365631104	44.3348960876	88.1064834595	2.77855038643
0.0	-0.0	89.6989746094	44.5163993835	88.0651397705	3.23535370827
0.0	-0.0	88.0021743774	44.7897796631	89.1595001221	3.37535095215
0.0	-0.0	85.800567627	-134.540145874	89.1399078369	-176.710372925
