7.16155910492	-5.95485877991	-5.67139053345	20.0062026978	14.4841918945	33.5568237305
7.01141500473	-5.89635658264	-5.72785282135	19.5869369507	14.4561738968	33.4093666077
6.49142408371	-5.91316604614	-5.58966064453	18.169511795	13.861872673	32.3272094727
6.18143701553	-6.00628614426	-5.65433597565	14.1685266495	12.3724632263	29.3682689667
5.64095687866	-6.19168758392	-5.93591356277	8.00640106201	10.6138334274	25.7805042267
4.86155080795	-6.54520511627	-6.26355314255	1.70119297504	8.50624847412	22.5253562927
3.75355744362	-7.61617088318	-7.7749671936	-1.82875704765	7.14152479172	21.6109008789
-0.548767626286	-10.4936294556	-10.2950134277	-2.79734683037	5.91125488281	22.0460624695
-4.13097333908	-13.3915262222	-11.7554788589	-3.20366621017	5.0394525528	22.4095611572
-8.09879875183	-15.6172170639	-12.9896039963	-4.6202750206	4.45210599899	22.1657581329
-12.1536693573	-17.5036010742	-13.6723566055	-6.52417945862	2.9818520546	22.5293235779
-16.1583213806	-18.6954612732	-14.5331830978	-8.51441001892	1.09767258167	23.3050689697
-20.1265277863	-20.0055503845	-14.3781337738	-10.4684104919	-1.07507503033	23.6610584259
-22.2448291779	-20.8879623413	-15.2624998093	-12.3143434525	-3.0925681591	22.8530426025
-24.1042785645	-21.3293361664	-15.4822015762	-13.8285942078	-4.93000411987	21.2180213928
-26.2830295563	-20.8038978577	-16.1106929779	-15.4481811523	-6.85073900223	19.9245185852
-29.4951343536	-20.4114513397	-16.0874958038	-17.0028209686	-8.14963531494	18.9046669006
-31.6100406647	-20.6736927032	-15.5923748016	-18.0452060699	-8.90205097198	18.2386722565
-32.7714996338	-21.844997406	-15.9219617844	-18.7194080353	-9.47019004822	17.9447307587
-33.4687042236	-23.3789958954	-16.064655304	-19.105260849	-9.88280773163	17.7135372162
-34.7942390442	-24.7164535522	-15.7437267303	-19.6642456055	-10.2352399826	17.4967346191
-36.1842002869	-25.9804344177	-15.3673219681	-20.6480503082	-10.1320934296	17.3389053345
