0.0	-0.0	140.049606323	-111.425483704	79.0274810791	-174.598052979
0.0	-0.0	139.73286438	-111.800186157	78.8717575073	-174.36680603
0.0	-0.0	139.426010132	-112.121856689	78.5071640015	-173.951095581
0.0	-0.0	136.854187012	-111.286956787	79.6415252686	-173.816696167
0.0	-0.0	121.819702148	-110.199127197	83.5383834839	-170.957473755
0.0	-0.0	90.4882278442	-112.753982544	87.825630188	-163.815292358
0.0	-0.0	36.6545715332	61.467716217	89.471282959	23.4859828949
0.0	-0.0	4.48273086548	56.4094810486	87.4903945923	30.6975364685
0.0	0.0	-15.1603879929	53.3659553528	83.6872024536	41.1005554199
0.0	0.0	-31.4058628082	52.8067817688	80.2742614746	51.7651329041
0.0	0.0	-42.7084121704	60.5308952332	80.3662796021	54.5859985352
0.0	0.0	-49.5534706116	71.1263656616	77.8874893188	55.8618736267
0.0	0.0	-52.993522644	76.2632064819	74.5749130249	59.2267684937
0.0	0.0	-55.6686706543	76.8743515015	73.0138931274	61.7919273376
0.0	0.0	-59.067035675	77.4460678101	73.251625061	63.1693153381
0.0	0.0	-62.1965904236	79.2061386108	73.8711395264	64.1478805542
0.0	0.0	-66.2816925049	80.0900115967	74.1602935791	65.299369812
0.0	0.0	-67.0185699463	80.6581726074	73.1705780029	65.8626174927
0.0	0.0	-68.0389404297	81.5825576782	68.7732162476	66.9766845703
0.0	0.0	-68.296295166	81.3715362549	66.4948577881	68.5337905884
0.0	0.0	-68.9318771362	82.0960617065	67.2735824585	69.8704147339
0.0	0.0	-69.1970291138	86.7113189697	67.9700698853	69.9690551758
0.0	0.0	-69.1436462402	92.2064361572	67.3182678223	69.6156463623
0.0	0.0	-69.0922393799	96.3508071899	66.2077102661	69.0813980103
0.0	0.0	-68.9594955444	96.57421875	65.9053421021	69.0375595093
0.0	0.0	-68.7196960449	94.1965637207	63.8352737427	68.1642074585
0.0	0.0	-68.3442993164	93.5541381836	63.4558029175	69.3213882446
0.0	0.0	-67.9977340698	93.8904190063	64.1443252563	70.498374939
0.0	0.0	-67.8223190308	94.0692672729	64.9069061279	71.7976303101
0.0	0.0	-67.6769180298	94.6208877563	63.6235351562	72.9534301758
0.0	0.0	-67.9050369263	94.5602798462	62.5799560547	72.9963912964
0.0	0.0	-67.5570755005	95.556350708	65.1315765381	71.5968093872
0.0	0.0	-62.986995697	95.5782852173	73.2126693726	67.7483215332
0.0	0.0	-59.9352874756	96.0908279419	80.7289428711	62.7290840149
0.0	0.0	-64.50050354	96.5695571899	80.4873123169	60.9191703796
0.0	0.0	-69.8895339966	94.1102905273	77.8108062744	61.8012695312
0.0	0.0	-74.4471130371	90.6947250366	77.8934249878	63.3490791321
0.0	0.0	-76.5615310669	89.3303909302	78.53175354	65.2308197021
0.0	0.0	-77.4739761353	88.711807251	75.7263870239	67.2290725708
0.0	0.0	-78.3754730225	85.792427063	71.1596679688	71.4483795166
0.0	0.0	-77.7119598389	82.2887268066	69.8869857788	74.5835952759
0.0	0.0	-78.0709609985	83.92603302	67.5690155029	76.1854248047
0.0	0.0	-78.8593902588	88.4230499268	64.7655944824	78.2459640503
0.0	0.0	-78.8239517212	90.5503463745	64.3634338379	80.2026901245
0.0	0.0	-79.5056991577	90.1570205688	65.7953948975	80.2225723267
0.0	0.0	-77.7918243408	89.9414138794	67.1961517334	78.9154129028
0.0	0.0	-70.8145065308	91.0099716187	69.1457824707	76.0732192993
0.0	0.0	-65.0435714722	92.9605712891	70.5319976807	72.9911727905
0.0	0.0	-61.8981933594	94.2841644287	70.5911941528	70.9430999756
0.0	0.0	-49.8292388916	94.0625762939	70.2392349243	69.9827041626
0.0	0.0	-32.6824302673	94.2400131226	70.5573730469	68.7620010376
0.0	-0.0	22.9939098358	95.8156509399	71.7712097168	66.5968780518
0.0	-0.0	74.9762268066	96.9106445312	73.8707199097	62.3471679688
0.0	-0.0	84.835357666	99.1766052246	75.5576324463	58.9218482971
0.0	-0.0	76.7284088135	99.9083862305	77.8764419556	56.6225967407
0.0	0.0	-10.7062654495	100.92791748	79.1179504395	54.9226341248
0.0	0.0	-52.8801269531	98.7699508667	78.6548233032	56.2667770386
0.0	0.0	-71.2647781372	94.8019790649	79.3972396851	57.1046791077
0.0	0.0	-79.5056686401	93.123550415	79.6380233765	56.1892547607
0.0	0.0	-84.3140869141	92.6543884277	79.2413482666	55.8656158447
0.0	0.0	-91.5346298218	92.3109817505	78.8257141113	55.7328071594
0.0	0.0	-103.983772278	91.9901657104	79.6759719849	56.5082244873
0.0	0.0	-108.215705872	91.7318344116	79.6263580322	57.4734115601
0.0	0.0	-107.630882263	91.1731185913	78.8312301636	58.3139305115
0.0	0.0	-105.492660522	89.7365036011	78.1197814941	58.9612464905
0.0	0.0	-106.370346069	85.9907531738	76.929649353	59.6373062134
0.0	0.0	-107.976272583	81.2421646118	76.2616424561	59.8505172729
0.0	0.0	-108.074203491	78.4486312866	75.1504440308	60.0068435669
0.0	0.0	-107.512428284	78.0933074951	74.3379669189	60.0069580078
0.0	0.0	-105.513313293	78.4350204468	74.2196426392	59.8084640503
0.0	0.0	-103.363632202	77.9654464722	74.087852478	59.7699661255
0.0	0.0	-101.365447998	77.2861022949	74.1343231201	60.0558013916
0.0	0.0	-100.111030579	77.2303009033	74.1342163086	60.2873268127
0.0	0.0	-98.8513946533	77.5461425781	73.5215072632	60.7017402649
0.0	0.0	-97.7343673706	77.5357971191	73.1957931519	61.2734069824
0.0	0.0	-94.8665008545	77.3168945312	73.5328216553	61.5489006042
0.0	0.0	-90.4084777832	77.3447952271	73.5189056396	61.66847229
0.0	0.0	-87.8035812378	76.9070587158	72.7063293457	61.8546447754
0.0	0.0	-87.4446334839	76.0057983398	72.7784042358	62.5246391296
0.0	0.0	-87.6171722412	75.6920852661	70.6636428833	64.0863418579
0.0	0.0	-86.0979003906	77.843421936	66.7799758911	66.196762085
0.0	0.0	-85.0809555054	79.5207443237	65.3740768433	67.8252258301
0.0	0.0	-85.0478057861	81.1749343872	66.083946228	68.4753875732
0.0	0.0	-84.6303634644	85.066734314	63.0124092102	69.0374221802
0.0	0.0	-84.5204086304	86.6566009521	60.5778694153	69.7613296509
0.0	0.0	-85.5347213745	85.7807006836	62.2915496826	69.6332473755
