0.235598802567	1.49160087109	-0.023913860321	0.124227046967	1.71956658363	-0.336055040359
0.235015630722	1.49163019657	-0.0237718820572	0.123962402344	1.71947538853	-0.335286617279
0.235071182251	1.49069988728	-0.0230956077576	0.123002529144	1.72086775303	-0.334350824356
0.236159324646	1.48769164085	-0.0226155519485	0.120016813278	1.72638559341	-0.3348133564
0.234825134277	1.4838424921	-0.0204272270203	0.114157676697	1.73592400551	-0.337336778641
0.235275745392	1.48412156105	-0.0179259777069	0.106686115265	1.74396002293	-0.341658115387
0.23672747612	1.48650145531	-0.0171217918396	0.100406646729	1.74859035015	-0.345583558083
0.241209983826	1.48798036575	-0.0164122581482	0.0977721214294	1.7511138916	-0.348283052444
0.241928815842	1.4858481884	-0.0138512849808	0.097672700882	1.7534031868	-0.350005626678
0.241385698318	1.48202264309	-0.0109468698502	0.0975499153137	1.75517058372	-0.351192712784
0.239027023315	1.47575700283	-0.00891160964966	0.0976374149323	1.75698637962	-0.352201104164
0.235069990158	1.4686948061	-0.00680696964264	0.0978560447693	1.75767719746	-0.352934837341
0.231731653214	1.465072155	-0.00515604019165	0.0988526344299	1.75738072395	-0.351828336716
0.229279994965	1.46239876747	-0.00500500202179	0.099924325943	1.75722563267	-0.350714206696
0.226951599121	1.45944988728	-0.00386953353882	0.100017547607	1.75719964504	-0.350064873695
0.227311134338	1.45820367336	-0.00266599655151	0.0994229316711	1.75752925873	-0.349488019943
