0.0	-0.0	129.351791382	69.624382019	89.5093231201	5.20860004425
0.0	-0.0	129.181930542	68.8885574341	89.3470916748	5.66380882263
0.0	-0.0	129.211364746	67.7436752319	89.5505142212	6.13155984879
0.0	-0.0	129.185806274	67.5899963379	88.737449646	6.49618816376
0.0	-0.0	129.020599365	67.7114944458	88.1594009399	6.44254398346
0.0	-0.0	129.014053345	67.5414810181	88.5481643677	6.55421352386
0.0	-0.0	128.900222778	67.3511428833	89.2495880127	6.60828256607
0.0	-0.0	128.078979492	66.9919662476	88.6171112061	6.80129671097
0.0	-0.0	126.386108398	66.8255615234	88.0919647217	7.07423591614
0.0	-0.0	124.349494934	66.6792068481	86.9026412964	7.77451229095
0.0	-0.0	122.035522461	66.7498626709	89.0054397583	7.96021175385
0.0	-0.0	119.844558716	-112.544502258	89.9068374634	-172.158035278
0.0	-0.0	117.718658447	68.4631500244	89.8342819214	7.85636711121
0.0	-0.0	115.31590271	68.1567306519	89.3701095581	7.81405639648
0.0	-0.0	113.349372864	66.4934768677	88.7748184204	8.19089317322
0.0	-0.0	110.743125916	65.2471008301	88.4887695312	8.9773645401
0.0	-0.0	108.232086182	64.6024932861	88.7048416138	9.61701488495
0.0	-0.0	105.321807861	64.7831115723	89.5509262085	9.83416652679
0.0	-0.0	103.881729126	-115.496620178	89.9806060791	-169.507995605
0.0	-0.0	103.149032593	-116.945960999	89.8953933716	-168.820083618
0.0	-0.0	102.733467102	-118.764297485	89.0671234131	-168.327316284
0.0	-0.0	102.412780762	-119.31917572	87.593788147	-167.959106445
0.0	-0.0	102.077713013	-118.579338074	87.3402557373	-168.009170532
0.0	-0.0	99.8159484863	-118.21937561	86.8538894653	-168.43637085
0.0	-0.0	96.4615249634	-119.352371216	85.3259277344	-168.430130005
0.0	-0.0	93.6892852783	-120.441596985	86.4912490845	-168.052200317
0.0	-0.0	90.7014846802	-120.826454163	87.79322052	-167.913757324
0.0	-0.0	87.3176345825	-121.359901428	88.3753585815	-167.071487427
0.0	-0.0	84.4409790039	-122.03503418	88.6140823364	-166.652786255
