0.462798833847	1.04817724228	0.0893740653992	0.176424741745	1.65933001041	-0.157176852226
0.461781978607	1.04817271233	0.0891102552414	0.175984859467	1.6593259573	-0.156297683716
0.461005926132	1.04853367805	0.0888457298279	0.17481637001	1.66003286839	-0.155337095261
0.457458972931	1.05081129074	0.0885124206543	0.172915458679	1.66184306145	-0.154725074768
0.450038909912	1.05692362785	0.0881695747375	0.170853376389	1.66471850872	-0.154750823975
0.438389539719	1.06996881962	0.0905265808105	0.169486761093	1.66945576668	-0.155467748642
0.425406932831	1.08928024769	0.0965709686279	0.169341564178	1.67674291134	-0.157643079758
0.411834716797	1.11345148087	0.103029966354	0.170660734177	1.68580472469	-0.1615909338
0.399432182312	1.1363748312	0.107151985168	0.174581289291	1.69467675686	-0.16700053215
0.388430833817	1.15524566174	0.109272956848	0.178550720215	1.70237064362	-0.173209190369
0.376901388168	1.17037165165	0.10932970047	0.181125879288	1.70744752884	-0.178980350494
0.365452766418	1.18074250221	0.107753515244	0.181819438934	1.71133768559	-0.183841466904
0.356666564941	1.18687283993	0.105917930603	0.181066274643	1.71555626392	-0.188569903374
0.350571155548	1.18996882439	0.105177402496	0.182425022125	1.71898877621	-0.192744255066
0.348637580872	1.19135844707	0.10547041893	0.185438632965	1.72140300274	-0.196017861366
0.348657846451	1.19539153576	0.106217861176	0.188536405563	1.72432279587	-0.199624300003
0.348905086517	1.20228016376	0.106482505798	0.189754247665	1.72748887539	-0.203093767166
0.346432209015	1.20893621445	0.10563313961	0.188900709152	1.72849690914	-0.205459117889
0.341213941574	1.21318137646	0.10246348381	0.188380241394	1.7281472683	-0.206702709198
0.332765579224	1.21550679207	0.0948657989502	0.188612937927	1.72744989395	-0.207518100739
0.322555541992	1.21288585663	0.0833607912064	0.1892182827	1.72744441032	-0.208608150482
0.31763458252	1.20877504349	0.0733509063721	0.189733982086	1.72756516933	-0.209925413132
0.31600522995	1.204231143	0.0651646852493	0.190971851349	1.72777271271	-0.210887670517
0.315593719482	1.2012938261	0.0584042072296	0.191572666168	1.72838616371	-0.211897850037
0.314847230911	1.19815826416	0.0548251867294	0.192050695419	1.72876787186	-0.212941765785
0.312811374664	1.19362545013	0.0545135736465	0.192068815231	1.72823739052	-0.213533163071
0.312181711197	1.1905118227	0.0551941394806	0.190569639206	1.72653388977	-0.213242769241
0.312514543533	1.18890738487	0.0540924072266	0.188846349716	1.72554731369	-0.212606668472
0.313438892365	1.18594014645	0.0516946315765	0.187654018402	1.72548723221	-0.212333202362
0.31397151947	1.18212914467	0.0471135377884	0.187575101852	1.72605681419	-0.212308645248
0.314770698547	1.17808938026	0.0413209199905	0.187573432922	1.72676563263	-0.212976574898
0.31538772583	1.17236161232	0.0348662137985	0.187672376633	1.72698462009	-0.213356256485
0.316180229187	1.16296756268	0.0283665657043	0.187820911407	1.72698938847	-0.212966680527
0.317075252533	1.15299582481	0.0191898345947	0.187741518021	1.7268525362	-0.212209939957
0.322146654129	1.14349353313	0.0086784362793	0.188562631607	1.72688770294	-0.210692405701
0.329254388809	1.13531827927	-0.000502109527588	0.190138101578	1.72655034065	-0.209018468857
0.336889982224	1.12969112396	-0.00464475154877	0.192492961884	1.72591948509	-0.207422494888
0.338359832764	1.1306040287	-0.00140357017517	0.194355487823	1.72527718544	-0.206903457642
0.334704399109	1.13447582722	0.00872707366943	0.195851564407	1.72375762463	-0.207221388817
0.327256441116	1.14022290707	0.0188317298889	0.196811914444	1.7214268446	-0.207980871201
0.321487665176	1.14742469788	0.0257650613785	0.197803974152	1.71757209301	-0.207526683807
0.316921710968	1.15319943428	0.0305513143539	0.193253993988	1.71612250805	-0.203860521317
0.315270900726	1.15786767006	0.0309405326843	0.192388057709	1.71296989918	-0.200697541237
0.315706968307	1.15769350529	0.0318353176117	0.188096046448	1.7129535675	-0.198351144791
0.317944049835	1.15755188465	0.0329277515411	0.187628269196	1.71159088612	-0.195083022118
0.316781044006	1.15623140335	0.0338160991669	0.185361623764	1.70855271816	-0.191832184792
0.314061880112	1.14848995209	0.0351358652115	0.181540250778	1.70274746418	-0.188137292862
0.310235023499	1.13828492165	0.0384676456451	0.177252292633	1.69853949547	-0.184603691101
0.306807279587	1.14034128189	0.039465546608	0.173813581467	1.69734692574	-0.182458639145
0.305531263351	1.14444899559	0.0392141342163	0.172384738922	1.69901287556	-0.182291030884
0.307510614395	1.14510858059	0.0387008190155	0.172635793686	1.70118331909	-0.183833837509
0.312225341797	1.1445504427	0.0375154018402	0.173635959625	1.70240676403	-0.185420274734
0.315378189087	1.1428309679	0.0356974601746	0.174115419388	1.70235645771	-0.186278104782
0.320205211639	1.14010453224	0.03555560112	0.174587249756	1.70133543015	-0.186193704605
0.327174425125	1.13874745369	0.0355712175369	0.175783157349	1.70087051392	-0.18568444252
0.331722259521	1.13887226582	0.0355635881424	0.177327156067	1.70221471786	-0.185754656792
0.333387374878	1.13925468922	0.0355149507523	0.17994260788	1.70353507996	-0.185992479324
0.33328962326	1.13853502274	0.034939289093	0.182786464691	1.70369970798	-0.185606956482
0.333035707474	1.13764476776	0.0335508584976	0.184173583984	1.70287179947	-0.184776067734
0.335423469543	1.13637912273	0.0322320461273	0.185320138931	1.7027566433	-0.183835268021
0.339953184128	1.13572669029	0.0321711301804	0.187255382538	1.70274925232	-0.182793617249
0.346506118774	1.13636398315	0.0331311225891	0.189224481583	1.70320749283	-0.181933641434
0.352823972702	1.13549816608	0.0344545841217	0.191414356232	1.70343708992	-0.181328415871
