0.0	-0.0	136.138961792	-124.424255371	85.4176177979	174.974029541
0.0	-0.0	135.742279053	-124.808891296	85.0476989746	175.811599731
0.0	-0.0	135.069580078	-126.142829895	82.5506668091	177.924743652
0.0	-0.0	134.804733276	-130.09727478	74.2496566772	-177.084121704
0.0	-0.0	134.436264038	-139.158325195	58.6274719238	-169.635345459
0.0	-0.0	132.458206177	-150.371551514	46.1717567444	-165.130187988
0.0	-0.0	127.718414307	-154.193511963	44.1610717773	-164.579818726
0.0	-0.0	116.429428101	-151.979095459	45.7295761108	-164.68006897
0.0	0.0	-47.5214614868	-150.305541992	46.7219429016	-164.462646484
0.0	0.0	-58.044834137	-151.540222168	46.8814811707	-162.253479004
0.0	0.0	-57.5432014465	-155.597610474	44.7059173584	-158.809936523
0.0	0.0	-55.8653678894	-160.296890259	37.2700576782	-156.59211731
0.0	0.0	-55.04662323	-167.906417847	27.3030204773	-155.299850464
0.0	0.0	-54.1662597656	-179.153686523	22.3229942322	-156.802322388
0.0	0.0	-53.3657684326	173.911102295	23.4605312347	-158.380645752
0.0	0.0	-56.7153930664	170.852493286	26.1501655579	-156.323944092
0.0	0.0	-60.6239089966	164.272399902	25.505273819	-154.112838745
0.0	0.0	-63.6574287415	162.488250732	24.6112003326	-153.478408813
0.0	0.0	-67.2554168701	167.044586182	25.8108158112	-151.280014038
0.0	0.0	-70.8718185425	171.314682007	28.5554733276	-146.257034302
0.0	0.0	-72.0788726807	171.384536743	28.7992839813	-140.484527588
0.0	0.0	-71.7892303467	167.701416016	27.0149097443	-137.807266235
0.0	0.0	-71.5380020142	167.844436646	28.2860889435	-135.788009644
0.0	0.0	-71.1281890869	174.331741333	32.0478439331	-132.726867676
0.0	0.0	-70.8349456787	-179.816452026	36.6881103516	-129.51071167
0.0	0.0	-70.6087036133	-174.456604004	40.6076393127	-128.829116821
0.0	0.0	-70.8666534424	-168.224227905	40.427898407	-129.719299316
0.0	0.0	-70.7616577148	-166.630523682	34.9890327454	-130.336868286
0.0	0.0	-70.3673553467	-169.384216309	28.3967132568	-132.296417236
0.0	0.0	-69.4986877441	-170.589859009	26.4795188904	-133.896484375
0.0	0.0	-69.1410140991	-168.793258667	26.2159824371	-134.180435181
0.0	0.0	-68.7177810669	-167.009277344	27.9254989624	-134.268173218
0.0	0.0	-68.2192687988	-165.013122559	27.5643558502	-133.744827271
0.0	0.0	-68.0800247192	-164.287719727	24.6814956665	-132.582931519
0.0	0.0	-67.5348510742	-164.284347534	21.1754379272	-132.353210449
0.0	0.0	-66.8275299072	-162.419616699	18.3667163849	-132.54095459
0.0	0.0	-65.8219451904	-159.854766846	18.6152000427	-133.026077271
0.0	0.0	-63.1745452881	-157.754989624	19.1036224365	-134.290664673
0.0	0.0	-60.8344917297	-154.836761475	18.6079158783	-135.897537231
0.0	0.0	-59.676448822	-145.225814819	19.6037998199	-134.323852539
0.0	0.0	-59.1350059509	-137.940612793	21.7792129517	-131.38319397
0.0	0.0	-58.9776687622	-140.977523804	21.6000556946	-132.701446533
0.0	0.0	-58.8027305603	-144.147705078	21.6887836456	-134.950363159
0.0	0.0	-58.5604286194	-144.246444702	26.0412521362	-137.573959351
0.0	0.0	-58.7959289551	-144.707168579	31.3793029785	-140.128143311
0.0	0.0	-59.3348808289	-147.493560791	33.4876899719	-140.343933105
0.0	0.0	-60.2487869263	-154.239898682	30.3780384064	-139.539321899
0.0	0.0	-61.1176185608	-165.928085327	26.9845542908	-143.33883667
0.0	0.0	-63.4104804993	-173.283432007	26.290594101	-145.745758057
0.0	0.0	-67.0705718994	-176.395278931	26.7072238922	-146.127304077
0.0	0.0	-69.3666610718	-177.370346069	27.2920379639	-145.345443726
0.0	0.0	-70.2927474976	-178.41607666	27.1404342651	-144.575317383
0.0	0.0	-69.8536071777	178.289337158	26.1017665863	-144.554336548
0.0	0.0	-69.1565856934	172.248672485	24.173784256	-147.386489868
0.0	0.0	-68.6753768921	166.702926636	23.8692684174	-150.86328125
0.0	0.0	-68.0475540161	162.036727905	24.7446784973	-152.766525269
0.0	0.0	-67.5819015503	160.874343872	25.3342857361	-153.585144043
0.0	0.0	-64.4275436401	167.404647827	25.6663837433	-153.222625732
0.0	0.0	-58.6133384705	178.860427856	25.5000553131	-153.735015869
0.0	0.0	-51.7362747192	-165.696975708	25.2126407623	-154.667068481
0.0	0.0	-39.9523925781	-152.293228149	25.5307216644	-156.919815063
0.0	0.0	-21.7591285706	-147.286911011	26.9306087494	-162.394088745
0.0	-0.0	7.97094583511	-152.08833313	28.3992404938	-171.811218262
0.0	-0.0	47.2126731873	-160.245803833	28.8156585693	174.226013184
0.0	-0.0	68.5627975464	-157.766906738	27.299577713	158.308029175
