0.474470615387	1.28247833252	0.0897413492203	0.129970788956	1.70340526104	-0.220917224884
0.475247859955	1.28281784058	0.0899302959442	0.129932403564	1.7034072876	-0.219678878784
0.475997686386	1.28245377541	0.0898450613022	0.130067825317	1.70353019238	-0.218083500862
0.476270198822	1.28138136864	0.0900784730911	0.130043029785	1.70445966721	-0.216961026192
0.475687980652	1.2804710865	0.0908340215683	0.129209518433	1.70461750031	-0.215974330902
0.475359678268	1.28111207485	0.0913190841675	0.128115177155	1.70429050922	-0.214956879616
0.475352525711	1.28371739388	0.0918056964874	0.128138780594	1.70444178581	-0.213756561279
0.473494768143	1.28924942017	0.0917398929596	0.128697156906	1.7052038908	-0.212379217148
0.470464229584	1.29862117767	0.0896244049072	0.130732297897	1.70786046982	-0.21142911911
0.465040683746	1.3109484911	0.0860348939896	0.136325359344	1.71331298351	-0.210621595383
0.454532384872	1.32574057579	0.0810697078705	0.145530223846	1.7189450264	-0.209756851196
0.436580896378	1.34005486965	0.0761227607727	0.155266284943	1.72292721272	-0.208845376968
0.413197517395	1.34999930859	0.0730559825897	0.165015220642	1.72442352772	-0.208117604256
0.398771762848	1.35241949558	0.0729031562805	0.174720287323	1.72492241859	-0.207187175751
0.393759250641	1.35206139088	0.0738912820816	0.184484481812	1.72517907619	-0.206097364426
0.38498711586	1.355245471	0.0709416866302	0.194756984711	1.72647166252	-0.204531908035
0.374977588654	1.35530972481	0.0690929889679	0.201909542084	1.72650766373	-0.203885555267
0.37471985817	1.35324549675	0.0725058317184	0.204151630402	1.72592616081	-0.203218579292
0.367814540863	1.35328352451	0.0735599994659	0.203741312027	1.72518467903	-0.201542854309
0.36087846756	1.34792292118	0.0773181915283	0.20285987854	1.72449040413	-0.200325846672
0.365228652954	1.34504234791	0.0795288085938	0.201909065247	1.72458159924	-0.199607491493
0.362986803055	1.34455764294	0.0788915157318	0.201368093491	1.72441840172	-0.199440002441
0.363567352295	1.34421741962	0.0780718326569	0.200949668884	1.72425556183	-0.19951570034
0.365473747253	1.34432852268	0.0769865512848	0.203174591064	1.72235679626	-0.198967456818
0.363962650299	1.3454978466	0.0746719837189	0.207736253738	1.71816885471	-0.197329044342
0.362163543701	1.34740912914	0.0721678733826	0.21133351326	1.71119701862	-0.193818092346
0.36116361618	1.34903919697	0.0699646472931	0.210783243179	1.70525991917	-0.190006613731
0.36204957962	1.34990394115	0.0685443878174	0.207857131958	1.70019638538	-0.18682217598
0.364634037018	1.35098016262	0.0681465864182	0.204215288162	1.69859194756	-0.184148907661
0.366592645645	1.35038495064	0.0686285495758	0.200065135956	1.70202291012	-0.183454871178
0.367287874222	1.34910047054	0.0699318647385	0.194126605988	1.70746266842	-0.184511065483
0.369240522385	1.34782028198	0.0710880756378	0.185396909714	1.70864057541	-0.186270475388
0.371688127518	1.34828078747	0.0715080499649	0.177441120148	1.70677089691	-0.186782240868
0.374322414398	1.34897136688	0.0719693899155	0.172688007355	1.70610952377	-0.187558174133
0.37552189827	1.35030841827	0.0726981163025	0.173232555389	1.70690178871	-0.187870740891
0.37645316124	1.3519384861	0.0724864006042	0.178479671478	1.7074059248	-0.18659555912
0.376568555832	1.35172128677	0.0719088315964	0.18498468399	1.70580744743	-0.184914112091
0.377805233002	1.35214650631	0.0707868337631	0.188528776169	1.70498740673	-0.183144450188
0.37838101387	1.35193943977	0.0707007646561	0.186781167984	1.70483624935	-0.181702136993
0.376823425293	1.35135900974	0.0701904296875	0.179890155792	1.7072095871	-0.18165230751
0.375550985336	1.34980773926	0.0704803466797	0.170947790146	1.71179103851	-0.184817552567
0.374788284302	1.35061872005	0.0708047151566	0.170071840286	1.71568346024	-0.187916040421
0.374342679977	1.35149002075	0.0707696676254	0.176934719086	1.71749794483	-0.188630342484
0.375952720642	1.35236334801	0.0705881118774	0.18604516983	1.71713936329	-0.18787419796
0.378960371017	1.35312962532	0.0700497627258	0.191260099411	1.71722829342	-0.187715053558
0.378701448441	1.35169529915	0.069561958313	0.191593170166	1.71827960014	-0.188418030739
0.372015714645	1.34657049179	0.0714056491852	0.190320253372	1.71856248379	-0.188466787338
0.368200778961	1.34329926968	0.0728141069412	0.189886331558	1.71823048592	-0.187328696251
0.363530874252	1.34140336514	0.0735528469086	0.190661668777	1.71757471561	-0.185171723366
0.358841657639	1.33869016171	0.0738003253937	0.190747261047	1.71725177765	-0.183131933212
0.361540794373	1.34009790421	0.0733349323273	0.19099187851	1.71730089188	-0.180604934692
0.359477043152	1.34152770042	0.0716133117676	0.193330526352	1.71579325199	-0.177202939987
0.358268737793	1.34320092201	0.0693370103836	0.195723772049	1.71347892284	-0.172319173813
0.358858823776	1.34248244762	0.0700228214264	0.195761680603	1.7114559412	-0.167948722839
0.3564016819	1.34022271633	0.071836233139	0.193819522858	1.71077227592	-0.164793014526
0.355281591415	1.33817815781	0.0738830566406	0.189724683762	1.71143114567	-0.163172960281
0.353454113007	1.33521318436	0.0777695178986	0.187576293945	1.71109676361	-0.161556482315
0.353442668915	1.33392846584	0.0817376375198	0.188138723373	1.71006166935	-0.159478664398
0.351775884628	1.33174335957	0.0856877565384	0.188710212708	1.70970964432	-0.157892465591
0.35084438324	1.32852530479	0.0884780883789	0.188113689423	1.71026730537	-0.157284498215
0.350417375565	1.32512521744	0.0916478633881	0.187132835388	1.7105768919	-0.156576871872
0.351082324982	1.32296252251	0.0938954353333	0.18635058403	1.71078574657	-0.155888080597
0.350364208221	1.32017469406	0.095633149147	0.18554019928	1.71083009243	-0.155117273331
0.3492436409	1.31795072556	0.0969604253769	0.183938264847	1.71057653427	-0.154393672943
0.346634864807	1.31528794765	0.0983840227127	0.182396650314	1.71087670326	-0.153946876526
0.344455480576	1.31406402588	0.0992809534073	0.181507349014	1.71113216877	-0.153789043427
0.341757297516	1.31271755695	0.100325226784	0.181493520737	1.71020019054	-0.152472019196
0.34093952179	1.3110575676	0.101082205772	0.181695699692	1.70979845524	-0.151237368584
0.340214967728	1.30903220177	0.10146856308	0.182127952576	1.71000659466	-0.150325655937
0.339756250381	1.30705559254	0.102344036102	0.182249069214	1.71034777164	-0.149803042412
0.339101552963	1.30628907681	0.102233409882	0.181447505951	1.7107642889	-0.149501562119
0.338025808334	1.30567264557	0.102421402931	0.179887533188	1.71078765392	-0.149039268494
0.336996555328	1.30588567257	0.102517843246	0.178891420364	1.71079516411	-0.148926258087
0.335790157318	1.30568122864	0.102215766907	0.17912364006	1.71092367172	-0.148604154587
0.336240053177	1.30543863773	0.102035880089	0.179353952408	1.71146416664	-0.14850127697
0.336659669876	1.30567348003	0.101696848869	0.179260015488	1.71235859394	-0.148890972137
0.337210178375	1.30623281002	0.101434111595	0.178512334824	1.71396780014	-0.150354146957
0.337928771973	1.30753695965	0.101129293442	0.178097248077	1.71438264847	-0.152117848396
0.338567733765	1.31007409096	0.100277066231	0.179752111435	1.71268606186	-0.152139544487
0.338003873825	1.31020689011	0.0985836982727	0.179869890213	1.71132624149	-0.151857852936
0.337505817413	1.3095676899	0.097286939621	0.177911996841	1.71199476719	-0.152635812759
0.337204456329	1.30824875832	0.0973378419876	0.17629981041	1.71415054798	-0.154763221741
0.335712432861	1.30883085728	0.0975167751312	0.175845623016	1.71582508087	-0.15700507164
0.335920572281	1.31003630161	0.0973510742188	0.176421165466	1.71603024006	-0.158805608749
0.335456132889	1.3112950325	0.0960261821747	0.177868366241	1.7147654295	-0.160084247589
0.335376024246	1.31266367435	0.0946077108383	0.180661439896	1.71255540848	-0.160395383835
0.33581829071	1.31387352943	0.0925669670105	0.184948444366	1.7108912468	-0.160298705101
0.335961341858	1.31343841553	0.0910608768463	0.188942193985	1.71016347408	-0.160209178925
0.336423873901	1.31244444847	0.0898010730743	0.192740917206	1.70958423615	-0.160693883896
0.336763381958	1.3121587038	0.0886826515198	0.196883440018	1.70905685425	-0.161386370659
0.336317777634	1.31198263168	0.0877208709717	0.19967508316	1.70923185349	-0.16271674633
0.336384057999	1.31255233288	0.0866546630859	0.199730396271	1.70984089375	-0.164406061172
0.33692741394	1.31288182735	0.0863456726074	0.198697805405	1.71045327187	-0.166422009468
0.337702512741	1.31411600113	0.0858402252197	0.196949958801	1.71138644218	-0.168347835541
0.337510108948	1.31517469883	0.0847628116608	0.194580793381	1.71248471737	-0.170467376709
0.338627576828	1.31690180302	0.0839657783508	0.192501544952	1.71381545067	-0.172635316849
0.339291572571	1.31890630722	0.0832209587097	0.191038370132	1.71465933323	-0.174615263939
0.340098142624	1.32047057152	0.081996679306	0.189786434174	1.71509027481	-0.17595744133
0.339786052704	1.32101893425	0.0814555883408	0.188383817673	1.71532535553	-0.176568627357
0.33859038353	1.32114994526	0.0810761451721	0.186648845673	1.71548771858	-0.176921367645
0.33798623085	1.32093262672	0.0813136100769	0.185706377029	1.71550524235	-0.17707657814
0.337087392807	1.32126498222	0.0811482667923	0.185955524445	1.71541178226	-0.176414728165
0.335961103439	1.32140660286	0.0807571411133	0.185695409775	1.71501529217	-0.175139188766
0.335618495941	1.32087695599	0.080016374588	0.185671567917	1.71435880661	-0.173220157623
0.335768222809	1.31962645054	0.0798139572144	0.186178207397	1.71425259113	-0.17206299305
0.336820602417	1.3190792799	0.0801873207092	0.18635058403	1.71392416954	-0.171640753746
0.337508916855	1.31941568851	0.0796098709106	0.18625164032	1.71389222145	-0.172000169754
0.33745098114	1.3192204237	0.0795574188232	0.185992479324	1.71423280239	-0.172823429108
