-102.984443665	-64.3868789673	143.636108398	5.72901010513	-2.27233338356	-2.44602513313
-103.142547607	-64.3024902344	143.430145264	5.23567247391	-1.99760484695	-1.86016380787
-103.036216736	-64.3239517212	143.102890015	4.89903593063	-1.90025031567	-1.58389496803
-102.880882263	-64.3428955078	142.797134399	4.74075078964	-1.84371209145	-1.49152159691
-102.894760132	-64.5189743042	142.535491943	4.58792924881	-1.88598203659	-1.43880963326
-102.744117737	-64.6546173096	142.266555786	4.63672113419	-1.9408967495	-1.49208557606
-104.52507019	-63.8317947388	144.101287842	4.82025384903	-2.06816124916	-1.58980250359
-107.473182678	-62.8793411255	146.530166626	5.05708169937	-2.25222301483	-1.68084990978
-107.896186829	-69.4069137573	139.447143555	5.28293418884	-2.33403682709	-1.59437179565
-89.3855361938	-76.918510437	111.874984741	5.13480758667	-2.39390063286	-1.49573886395
-88.709312439	-77.3653259277	110.921768188	4.73446321487	-2.56453061104	-1.25555551052
-88.7511825562	-77.6777038574	111.066940308	4.27117204666	-2.59849214554	-0.938706934452
-88.5195465088	-77.9287185669	110.509170532	3.91579031944	-2.34677147865	-0.730820953846
-88.2986602783	-78.403503418	109.44228363	3.62605714798	-1.82913935184	-0.518923938274
-86.082572937	-79.2336273193	106.323043823	3.43259811401	-1.06785976887	-0.32453507185
