0.0	-0.0	141.508331299	57.8753623962	86.6948013306	-2.31026768684
0.0	-0.0	141.116149902	57.1946220398	86.5148162842	-2.11187958717
0.0	-0.0	140.45249939	57.1395530701	87.5073013306	-1.89165771008
0.0	-0.0	137.462966919	59.8222084045	88.6610870361	-1.61899185181
0.0	-0.0	124.286140442	63.5749893188	89.5045013428	-0.305030703545
0.0	-0.0	108.441101074	64.8112258911	89.8365097046	0.825804412365
0.0	0.0	-51.2706832886	62.6657867432	88.8165054321	2.46973705292
0.0	0.0	-64.0738525391	61.1002655029	88.096244812	4.82244873047
0.0	0.0	-66.6943435669	60.7764434814	88.0456237793	6.92768716812
0.0	0.0	-65.8527069092	59.488368988	87.923210144	8.79719257355
0.0	0.0	-62.7578659058	56.38463974	87.9934539795	10.1925649643
0.0	0.0	-58.7874984741	53.0779266357	88.5846099854	10.9199895859
