-102.313713074	-57.1311531067	131.796203613	5.86094427109	1.25655090809	1.51677393913
-102.249664307	-57.3340492249	131.46975708	5.6787238121	1.26622891426	1.6698628664
-102.584877014	-57.6303749084	131.484695435	5.00869989395	1.30775892735	2.15526604652
-103.029579163	-58.2775382996	130.714111328	2.65935087204	2.31468868256	3.74326682091
-102.52355957	-57.9117088318	128.933151245	-2.00297141075	6.75521707535	7.68667936325
-102.434150696	-57.6854515076	127.189071655	-6.90800762177	11.6942367554	10.668545723
-100.954704285	-58.3025741577	123.064941406	-10.3037757874	16.0751209259	12.0095806122
-92.0001678467	-67.6601486206	102.652244568	-11.3368959427	17.3083362579	12.4160737991
-68.002494812	-76.3601760864	69.3709106445	-11.2112827301	17.2056274414	12.5070858002
-41.1957778931	-78.4319763184	39.216796875	-11.2485713959	17.2312965393	12.4371471405
-20.8053207397	-77.0983352661	16.4201431274	-11.8459100723	17.258398056	11.9384279251
-14.3073635101	-75.0820999146	8.32806015015	-13.3603687286	15.8499183655	10.6365385056
-15.2768068314	-73.8135147095	8.19272708893	-15.7140808105	13.5112428665	9.16027641296
-14.1328773499	-73.6837234497	6.80989646912	-17.8829555511	11.0357551575	8.02551841736
-13.0026531219	-73.5699157715	5.29225730896	-18.7395915985	9.88695716858	7.93452882767
-10.0645685196	-73.3806915283	1.60359859467	-18.6961841583	10.3700246811	8.36543369293
-8.69392108917	-72.2129974365	-1.1632887125	-19.5225925446	10.0762844086	8.40340518951
-4.1309170723	-70.0954208374	-7.38353538513	-20.2330207825	9.54066944122	8.24683761597
2.62890100479	-67.2900314331	-16.6550197601	-20.3425216675	10.3024539948	8.12231349945
7.94655942917	-64.736328125	-23.8159923553	-20.3888092041	11.1075325012	7.98038625717
10.6464824677	-62.4570922852	-27.6198501587	-21.0475978851	11.0145578384	7.99724578857
9.06385612488	-60.6527175903	-26.4973373413	-22.7208614349	11.4428939819	7.73066616058
9.99478912354	-58.5828819275	-28.3226699829	-25.2631130219	13.0835027695	6.68765926361
9.99079322815	-58.2114334106	-27.9838581085	-27.3376522064	15.6505327225	5.36362028122
9.67173671722	-57.726650238	-27.3375835419	-26.8920040131	16.5796356201	5.48050069809
8.68696594238	-57.1724090576	-26.1726970673	-26.3721408844	16.1813602448	6.15388011932
8.339884758	-56.4300689697	-26.1041526794	-26.9946460724	15.7759866714	6.49979400635
8.57818698883	-55.9925384521	-26.0574474335	-28.0088977814	15.7176885605	6.4503698349
9.54541397095	-55.2972640991	-27.2441101074	-29.1977500916	15.7095823288	5.90257310867
9.29186916351	-54.65832901	-27.3764858246	-31.1054992676	15.5641460419	4.95108604431
9.13965797424	-54.3102836609	-26.9963264465	-33.9236907959	15.4435100555	3.42260575294
8.96373271942	-54.3650970459	-26.9690418243	-35.993888855	15.190741539	2.20499682426
9.08082199097	-54.2212562561	-27.1343383789	-36.3719902039	15.3693552017	1.77437591553
9.99657726288	-53.6758956909	-28.5346813202	-34.5591316223	15.5860023499	2.13805341721
10.4090089798	-53.856300354	-29.75041008	-32.0480270386	15.5327224731	2.76203203201
11.2124147415	-53.3082313538	-31.4129047394	-31.1704864502	15.615281105	3.09503674507
12.9091720581	-51.7922897339	-34.1870040894	-30.117105484	15.4264030457	3.92322802544
16.5493392944	-49.5850067139	-36.6548461914	-26.233165741	15.611246109	4.85907554626
16.1795291901	-48.9402580261	-33.3191947937	-20.5905361176	16.8923988342	5.43541145325
9.95921039581	-51.7915534973	-23.503288269	-15.5331077576	18.6773166656	5.39545679092
-3.16501545906	-57.410572052	-3.28910708427	-14.4388599396	18.699514389	4.6410369873
-9.16468524933	-58.3094749451	5.53422117233	-14.6911334991	18.6828403473	3.96559309959
-10.9208536148	-58.400428772	9.21915817261	-14.2043352127	18.7516479492	3.56175541878
-17.2027797699	-58.9054260254	18.4064731598	-12.9859333038	18.5855941772	2.90037107468
-32.3374137878	-58.4927597046	38.249835968	-11.0365839005	18.6356105804	1.92706370354
-48.382144928	-55.2028579712	58.8284950256	-9.20095539093	18.9073944092	0.976620435715
-50.0717887878	-53.1667060852	62.240486145	-7.66132879257	19.4502410889	0.482443094254
-50.8193435669	-52.7889022827	63.3812255859	-6.72711706161	20.436542511	0.873746752739
-51.429851532	-52.5979499817	63.3410644531	-7.8773765564	22.26030159	1.81684839725
