0.428377628326	1.05311894417	0.092022895813	0.174005746841	1.65834903717	-0.147123217583
0.428324699402	1.05325984955	0.091789484024	0.172845840454	1.65851104259	-0.147011995316
0.426796197891	1.05371880531	0.0919835567474	0.170201301575	1.66016578674	-0.146595001221
0.422566413879	1.05488300323	0.0923960208893	0.164668798447	1.6653637886	-0.147206783295
0.414686441422	1.0602581501	0.0941255092621	0.157821655273	1.67350316048	-0.149736404419
0.404129743576	1.07239425182	0.0989478826523	0.151445627213	1.6820833683	-0.154579162598
0.387490034103	1.09381115437	0.106888771057	0.147548437119	1.68944656849	-0.160954833031
0.364678859711	1.12005662918	0.11377954483	0.146488666534	1.6962211132	-0.167641282082
0.336181640625	1.14510858059	0.116636991501	0.14510178566	1.70125031471	-0.17393386364
0.30503821373	1.16309404373	0.112637519836	0.141046524048	1.70401382446	-0.179198503494
0.277547359467	1.1756105423	0.103635907173	0.134608507156	1.70500600338	-0.183042287827
0.254557609558	1.18542766571	0.0907410383224	0.128670930862	1.70639252663	-0.186309933662
0.241682291031	1.19710123539	0.0831307172775	0.125700950623	1.70801615715	-0.188693284988
0.238630771637	1.20766329765	0.083447933197	0.126088142395	1.71015882492	-0.191333293915
0.23847413063	1.20948839188	0.0879049301147	0.12855219841	1.71398544312	-0.194964408875
0.238438844681	1.206371665	0.0900399684906	0.129856586456	1.71653866768	-0.19878745079
0.23980474472	1.20455515385	0.0897877216339	0.128805398941	1.71814918518	-0.202130436897
0.240214347839	1.20398306847	0.0868688821793	0.128026247025	1.71982753277	-0.204638361931
0.239056110382	1.20572304726	0.0842930078506	0.128565311432	1.72190403938	-0.206368684769
0.236632347107	1.20944011211	0.0815337896347	0.129340171814	1.72373890877	-0.207586050034
0.23464012146	1.21620070934	0.0792752504349	0.129903316498	1.72550904751	-0.208987355232
0.232487201691	1.22430074215	0.0775941610336	0.130960464478	1.72675013542	-0.210451126099
0.229688167572	1.23147559166	0.0751111507416	0.132084608078	1.72744464874	-0.212080955505
