0.0	-0.0	132.636322021	64.1880722046	76.4875488281	1.91636717319
0.0	-0.0	133.056015015	63.4913978577	76.4997558594	2.26389193535
0.0	-0.0	132.841842651	62.9817390442	76.6187286377	2.55397081375
0.0	-0.0	129.895309448	61.7791290283	76.2798614502	2.74452352524
0.0	-0.0	119.113937378	60.1340904236	75.0286331177	0.141429468989
0.0	-0.0	92.5883712769	58.398399353	73.4610671997	-2.36402177811
0.0	-0.0	53.6866760254	59.2365722656	70.0987319946	-11.1713275909
0.0	-0.0	12.829035759	59.7509841919	67.0821609497	-20.0266113281
0.0	0.0	-18.19739151	58.3016853333	65.9512176514	-23.415561676
0.0	0.0	-33.6962203979	56.6679496765	65.4263153076	-24.2754058838
0.0	0.0	-45.401008606	56.0844230652	65.998298645	-24.5374317169
0.0	0.0	-51.1930122375	55.6483612061	66.3338012695	-24.7813510895
0.0	0.0	-51.9134254456	55.7864189148	66.1943664551	-25.4396495819
0.0	0.0	-53.0995063782	55.7971038818	68.2009124756	-24.7287940979
0.0	0.0	-55.2755279541	56.9415512085	74.6145935059	-25.5559883118
0.0	0.0	-55.4083061218	55.997253418	82.6251220703	-22.2812862396
0.0	0.0	-55.0192298889	55.5732116699	85.2504196167	-21.7632217407
0.0	0.0	-55.2048950195	55.6650619507	85.8197021484	-22.5769309998
0.0	0.0	-58.1359214783	55.6211357117	85.7119598389	-23.0450248718
0.0	0.0	-65.5381240845	55.3041152954	84.8131790161	-23.5481357574
0.0	0.0	-78.3276977539	55.9296417236	83.7623825073	-24.5848999023
0.0	0.0	-83.2684631348	56.0889167786	83.3535232544	-24.8812122345
0.0	0.0	-73.5953216553	56.2155723572	83.1631164551	-24.6294212341
0.0	0.0	-61.2398872375	56.3921699524	81.9635009766	-24.6865653992
0.0	0.0	-50.843788147	56.5923194885	81.1184463501	-24.6207351685
0.0	0.0	-40.7216339111	56.7414970398	80.1879959106	-25.1563282013
0.0	0.0	-31.7546863556	57.0650749207	79.6610336304	-25.8504238129
0.0	0.0	-25.8929233551	57.5229911804	79.5199890137	-26.1734600067
0.0	0.0	-28.2099475861	58.1595573425	79.5023269653	-26.399679184
0.0	0.0	-34.798374176	58.5285148621	79.3744812012	-26.230922699
0.0	0.0	-38.8988761902	58.8608360291	80.1411437988	-26.0999336243
0.0	0.0	-37.2895355225	59.7641563416	81.2312316895	-26.3631477356
0.0	0.0	-32.7502250671	59.9370422363	83.1957168579	-24.5751590729
0.0	0.0	-29.2771625519	60.6724281311	85.2052383423	-24.0056629181
0.0	0.0	-26.9277553558	59.6859169006	85.6903610229	-23.1230201721
0.0	0.0	-25.0056362152	55.7019386292	84.4595947266	-22.3794975281
0.0	0.0	-22.2959117889	51.7993583679	82.6685638428	-23.0537090302
0.0	0.0	-21.0651264191	47.4604301453	81.5529098511	-24.0931167603
0.0	0.0	-22.407743454	43.9556808472	81.1647262573	-24.5849189758
0.0	0.0	-24.6740665436	41.4023132324	81.7102508545	-25.8613758087
0.0	0.0	-35.7461700439	38.1754760742	83.1635971069	-26.3934326172
0.0	0.0	-49.58335495	35.2361984253	84.2376098633	-27.4825115204
0.0	0.0	-59.0728874207	32.1180152893	84.8610687256	-28.6964912415
0.0	0.0	-70.2373809814	29.7874641418	85.1160736084	-29.5787811279
0.0	0.0	-85.8647232056	28.3085136414	85.0142669678	-30.0367469788
0.0	0.0	-93.326461792	26.3600902557	84.1471633911	-30.7446575165
0.0	0.0	-88.7141952515	22.0266056061	81.846496582	-31.881280899
0.0	0.0	-84.0355072021	17.3933429718	79.5679168701	-32.6096305847
0.0	0.0	-84.7689819336	14.8227148056	78.6673355103	-32.4508476257
0.0	0.0	-84.7366638184	12.0515069962	78.5825958252	-32.0215568542
0.0	0.0	-83.9608154297	9.56066703796	78.6971130371	-32.0114364624
0.0	0.0	-83.5199966431	6.82199192047	78.308555603	-31.9473381042
0.0	0.0	-83.5571594238	4.31195116043	77.2820968628	-32.3598709106
0.0	0.0	-84.0118255615	1.46910846233	75.8095321655	-32.3804664612
0.0	0.0	-84.3745574951	-1.17837774754	73.9791488647	-32.3824157715
0.0	0.0	-84.9727935791	-2.33848190308	72.1214599609	-32.9030227661
0.0	0.0	-84.6454086304	-1.56533563137	71.2883453369	-33.7403373718
0.0	0.0	-83.4125213623	-0.181448310614	72.0409545898	-34.5834541321
0.0	0.0	-81.4269790649	1.2696955204	74.4287490845	-34.9770851135
0.0	0.0	-80.5048446655	2.33953118324	76.6703796387	-36.2250366211
0.0	0.0	-80.5842132568	3.8446521759	79.0513153076	-37.9027748108
0.0	0.0	-80.4076690674	4.62002277374	81.2679977417	-38.3616218567
0.0	0.0	-79.633934021	5.44341659546	83.2325515747	-39.1985168457
0.0	0.0	-78.9243392944	4.66510152817	83.6606750488	-38.8653945923
0.0	0.0	-78.6824035645	1.90564703941	80.8857421875	-39.1585273743
0.0	0.0	-78.5953903198	-4.79252672195	75.780708313	-38.2378387451
