-12.8334741592	-1.98990011215	-25.7335548401	8.85453510284	26.2143573761	35.2056121826
-12.9854516983	-1.99640738964	-25.7456588745	8.59912109375	26.2841701508	35.2654800415
-13.0412759781	-2.01430845261	-25.7466278076	8.41729831696	26.1567268372	35.2551689148
-12.887503624	-2.04295349121	-25.8443260193	8.09019088745	25.6516666412	35.1599273682
-12.8117580414	-2.2599875927	-25.9631767273	7.64238119125	24.2716579437	35.3524932861
-12.7802057266	-2.48897027969	-26.1528282166	6.96689176559	22.0656375885	36.1276130676
-12.6474485397	-2.74871182442	-26.1399173737	5.95039606094	19.4428844452	37.3208007812
-12.4825201035	-3.15869450569	-26.027639389	4.77439117432	16.7975788116	37.9841194153
-12.1595926285	-3.86653399467	-25.7400531769	3.87485861778	14.4931659698	38.0063362122
-11.6292572021	-5.24699878693	-25.306060791	3.24118852615	13.086643219	37.5899162292
-11.760933876	-7.7371878624	-24.3090896606	2.89120388031	12.4222640991	37.4757385254
-12.4834432602	-10.5388336182	-23.1373939514	2.78726959229	11.9575176239	37.6672935486
-13.9912319183	-13.5881404877	-21.5767250061	2.59389948845	11.5187616348	38.0041465759
-16.1851119995	-16.8266124725	-20.0841579437	2.3032271862	10.7656078339	38.6588516235
-18.2053089142	-19.6284675598	-19.6374835968	1.94363820553	9.98260402679	39.6376609802
-19.5019721985	-21.2081489563	-19.4359397888	1.44747042656	9.3947095871	39.7222366333
-20.020357132	-21.2800655365	-19.4517803192	0.472829133272	8.96766090393	38.1347961426
-20.4686203003	-20.5012302399	-19.4809741974	-2.06473588943	9.20939159393	35.1721611023
-20.8035392761	-19.8910942078	-19.7027683258	-4.3617105484	9.14480018616	31.5051612854
-20.6211414337	-19.7660751343	-20.1958656311	-5.42108488083	8.43129825592	29.02161026
-20.4076099396	-19.9205493927	-20.7551651001	-4.89907693863	7.24537181854	28.233171463
-19.9992694855	-19.8705310822	-21.1086616516	-3.69291853905	5.55279016495	27.5013198853
-19.6963882446	-19.6632423401	-21.4572868347	-3.25026082993	4.12077903748	25.1553955078
-19.6270027161	-19.5002574921	-21.5416641235	-3.70134973526	3.44166946411	22.2453289032
-19.6043510437	-19.492099762	-21.8038883209	-4.54434251785	2.97641205788	20.0228004456
-19.6225337982	-19.5019187927	-22.029340744	-4.99021720886	2.432908535	19.5377597809
-19.6011371613	-19.5446357727	-22.2743186951	-5.3261680603	1.46305203438	21.2248516083
-19.6531791687	-19.314125061	-22.201543808	-5.03617334366	-0.288607478142	22.3465232849
-19.240655899	-19.2339611053	-22.373506546	-4.31207418442	-1.96738839149	23.1851406097
-19.2359867096	-19.4718589783	-22.2516269684	-3.55222249031	-3.91513204575	23.785402298
-19.1100769043	-19.5281562805	-22.3555603027	-3.30056381226	-5.46385383606	23.8388214111
-19.0612506866	-19.5329933167	-22.4814929962	-3.91197943687	-4.860019207	22.1656570435
-18.969909668	-19.4668464661	-22.6704349518	-5.61856842041	-4.63796949387	18.4788951874
-18.91913414	-19.3654193878	-22.9313640594	-7.3065533638	-4.39999198914	14.631485939
-18.9459095001	-19.2608470917	-23.2922172546	-8.3391494751	-4.6720790863	12.0624551773
-18.9869670868	-19.1952266693	-23.6520881653	-8.71416187286	-5.62747859955	11.6216106415
-18.8774776459	-18.9726657867	-24.0051250458	-8.93632698059	-7.0877790451	13.4003868103
-18.6680469513	-18.8303546906	-24.1916828156	-9.05609989166	-8.40733528137	15.3267154694
-18.5486488342	-19.1314430237	-23.9406280518	-8.90244102478	-8.98087024689	15.854886055
-17.6004943848	-21.1472682953	-23.2780742645	-8.65087127686	-9.08064460754	15.7779035568
-17.0163631439	-24.4227828979	-22.741985321	-8.45643997192	-9.11294651031	15.8792676926
-17.3957176208	-25.9329319	-22.1153659821	-8.3925485611	-9.11424160004	16.0255889893
-17.5909805298	-26.7657775879	-21.2595901489	-8.31126689911	-9.02457714081	16.043920517
-17.3259029388	-27.1660804749	-21.0510196686	-7.81708145142	-8.90190505981	15.8290920258
-16.7623996735	-27.4098625183	-21.4519042969	-7.23830842972	-9.16892242432	15.7297496796
-16.5711174011	-27.8148822784	-21.37525177	-6.80840444565	-9.28444576263	15.6221580505
-16.3797950745	-28.3186149597	-21.4726696014	-6.31829309464	-9.22848510742	15.4492502213
