0.209499120712	1.54744875431	-0.000675439834595	0.0749821662903	1.71902537346	-0.333514332771
0.209224939346	1.54700684547	-0.000868678092957	0.0739793777466	1.71919107437	-0.333733558655
0.208819150925	1.54642117023	-0.000876426696777	0.0736491680145	1.71936023235	-0.333749294281
0.208604574203	1.54592835903	-0.000744700431824	0.0735692977905	1.71880733967	-0.333573818207
0.207674026489	1.5455981493	-0.00137066841125	0.073477268219	1.71777057648	-0.332990169525
0.206770896912	1.54395234585	-0.00237846374512	0.0727815628052	1.71504449844	-0.331369161606
0.202908277512	1.53798520565	-0.000589966773987	0.0699508190155	1.71066629887	-0.32891201973
0.207214832306	1.5355809927	0.00341045856476	0.0663719177246	1.70775413513	-0.326720237732
0.21173453331	1.53420579433	0.0077075958252	0.0632901191711	1.70629763603	-0.325094461441
0.216521501541	1.53398120403	0.0112524032593	0.0611448287964	1.70555472374	-0.32398211956
0.213614225388	1.53105914593	0.0130791664124	0.0584890842438	1.70390474796	-0.323298454285
0.213784217834	1.52648699284	0.0169559717178	0.0537600517273	1.70262944698	-0.323050260544
0.218948841095	1.52156126499	0.0217406749725	0.046886920929	1.70107138157	-0.32337641716
0.224063873291	1.51841843128	0.0248005390167	0.0395333766937	1.69848096371	-0.323176145554
0.23065662384	1.51658976078	0.0263186693192	0.0339815616608	1.69575572014	-0.322483062744
