0.0	-0.0	134.679290771	-126.369369507	84.9711837769	176.945526123
0.0	-0.0	134.727874756	-126.398696899	84.3723297119	177.392623901
0.0	-0.0	134.47756958	-127.708686829	85.1696014404	177.966400146
0.0	-0.0	133.367553711	47.4794120789	89.3375320435	-1.98603332043
0.0	-0.0	131.391067505	36.7393608093	79.2200088501	-3.97028517723
0.0	-0.0	129.970687866	22.4813556671	65.4849014282	-6.70068597794
0.0	-0.0	128.089935303	8.78086948395	52.5396575928	-0.863343775272
0.0	-0.0	120.790611267	-1.54427146912	44.3846588135	10.7079763412
0.0	-0.0	103.459327698	-6.06094026566	37.4078445435	15.9544868469
0.0	-0.0	80.7205429077	-6.6228222847	31.8115253448	15.7673463821
0.0	-0.0	63.3744125366	-4.60956573486	30.1573410034	14.5732526779
0.0	-0.0	47.5150375366	-1.54486358166	27.4914417267	14.3244333267
0.0	-0.0	35.2249717712	0.652461946011	27.6787910461	14.6474514008
0.0	-0.0	33.7532119751	1.88476681709	31.0377101898	15.1208047867
0.0	-0.0	33.8970870972	2.8796877861	35.9563484192	15.1145133972
0.0	-0.0	34.5428390503	5.2464466095	37.6926498413	13.564912796
0.0	-0.0	33.5131340027	7.07984495163	36.9731063843	11.9630937576
0.0	-0.0	31.8469295502	5.72016143799	36.9651145935	12.2441549301
0.0	-0.0	30.2437362671	4.59014797211	36.4581375122	12.5253820419
0.0	-0.0	30.4986515045	4.38188314438	31.6852035522	12.393324852
0.0	-0.0	30.9405879974	3.72002720833	25.8912849426	12.9478778839
0.0	-0.0	31.8448677063	1.79848766327	25.4712486267	14.5072870255
0.0	-0.0	31.9753341675	1.75877952576	26.9914703369	15.370675087
0.0	-0.0	31.4184360504	3.11573934555	24.6647567749	14.8232307434
0.0	-0.0	20.8445777893	4.90873765945	23.6677970886	14.1575126648
0.0	-0.0	19.9259262085	5.01713228226	24.322145462	14.8477640152
0.0	-0.0	17.2833709717	3.16096425056	25.7110023499	16.604095459
0.0	-0.0	15.7107276917	1.44896197319	27.8384799957	18.4740695953
0.0	-0.0	12.9209470749	1.19624567032	28.9411659241	19.1832103729
0.0	-0.0	11.0609006882	1.7727612257	31.7607116699	19.8265628815
0.0	-0.0	13.2901220322	2.73989343643	37.5598449707	21.4451656342
0.0	-0.0	12.1812477112	2.39568114281	42.4184417725	23.4074249268
0.0	-0.0	14.9255743027	1.40073347092	41.842010498	23.1761741638
0.0	-0.0	17.3242378235	2.17773342133	36.3333969116	21.402217865
0.0	-0.0	17.9891815186	3.81726264954	25.3576545715	20.4565963745
0.0	-0.0	15.4128198624	3.36805391312	19.318353653	20.4781570435
0.0	-0.0	15.8797769547	3.74808931351	21.2305183411	20.2820987701
0.0	-0.0	13.2023429871	5.79554080963	24.681180954	20.4251403809
0.0	-0.0	12.7060003281	6.35913324356	28.8780879974	21.3215351105
0.0	-0.0	13.0216522217	4.88164949417	35.8077735901	23.2878417969
0.0	-0.0	11.8895149231	3.69102311134	39.4189834595	24.2827911377
0.0	-0.0	20.9293022156	3.06030535698	43.9563446045	24.6045722961
0.0	-0.0	39.1910324097	3.68414354324	59.9840278625	21.6487426758
0.0	-0.0	46.5432853699	5.157122612	74.3332138062	17.5306549072
0.0	-0.0	55.058265686	5.88070344925	74.9902801514	17.5027809143
0.0	-0.0	42.9117164612	3.60293960571	70.3788070679	18.4252033234
0.0	-0.0	47.188785553	0.701541781425	65.0203170776	19.6278190613
0.0	-0.0	43.3308563232	-0.199039146304	63.2368125916	20.2328262329
0.0	-0.0	20.9404563904	0.902967274189	61.8916511536	20.42345047
0.0	-0.0	15.8413133621	3.71171069145	52.9055252075	13.4600791931
0.0	-0.0	13.4082803726	5.99335098267	47.3649559021	7.70690393448
0.0	-0.0	15.1686153412	3.83136773109	48.01902771	7.15632534027
0.0	-0.0	29.5339565277	-1.75578141212	50.7272758484	11.2901859283
0.0	-0.0	37.4811706543	-8.00630760193	50.1558227539	17.0531959534
0.0	-0.0	48.8833236694	-11.4567079544	45.4830970764	20.3439331055
0.0	-0.0	66.1786804199	-10.6567211151	40.4178199768	19.6136608124
0.0	-0.0	77.4337692261	-8.50615310669	37.7056274414	18.0079479218
0.0	-0.0	95.2324142456	-6.55131340027	38.7394485474	15.3122854233
0.0	-0.0	65.1696777344	-4.05966615677	40.9655838013	10.8478975296
0.0	-0.0	19.7792205811	-2.59361791611	40.0336112976	8.89766407013
0.0	-0.0	37.4183540344	-4.26425790787	37.7703285217	8.99591827393
0.0	-0.0	34.1054954529	-6.64021110535	36.8210372925	10.4797906876
0.0	-0.0	42.7980995178	-6.57884836197	37.71641922	9.74833965302
0.0	-0.0	38.4465827942	-5.36213588715	37.8755149841	7.51471757889
0.0	-0.0	35.1192741394	-5.26008796692	39.642829895	5.75302839279
0.0	-0.0	36.5298805237	-6.39712190628	41.7218856812	6.01183605194
0.0	-0.0	36.1819038391	-7.44584083557	43.1364173889	6.44745397568
0.0	-0.0	37.2179527283	-8.03807926178	44.0646286011	6.53927135468
0.0	-0.0	43.5917472839	-7.81039762497	44.1632499695	6.89571809769
0.0	-0.0	53.5944900513	-7.00599956512	42.8229484558	6.70140886307
0.0	-0.0	78.111038208	-6.36790513992	41.3678474426	5.40154743195
0.0	-0.0	125.503128052	-5.06779909134	40.637336731	3.11780381203
0.0	-0.0	82.167098999	-3.4825232029	42.4191474915	0.576542317867
0.0	-0.0	82.6000900269	-2.88898086548	45.5345306396	-1.28087711334
0.0	-0.0	91.9946365356	-2.73409104347	46.7696762085	-0.318059563637
0.0	-0.0	100.842788696	-3.4125084877	46.9719963074	1.08826470375
0.0	-0.0	102.994613647	-4.41110801697	46.4198951721	2.71231174469
0.0	-0.0	99.8014221191	-5.3018078804	47.1438865662	4.22239923477
0.0	-0.0	88.7312088013	-6.05162477493	48.1351623535	5.74127912521
0.0	-0.0	78.298500061	-7.01167392731	48.6965522766	6.28693532944
0.0	-0.0	68.5261688232	-6.9427523613	49.5025520325	4.72610330582
0.0	-0.0	41.4988136292	-5.45605659485	50.4262161255	1.09219253063
0.0	-0.0	25.9865837097	-4.87062835693	51.1354255676	-2.33056926727
0.0	-0.0	28.8591499329	-5.80165195465	51.2708702087	-3.55149316788
0.0	-0.0	29.1061935425	-7.90045213699	49.2257003784	-0.842177450657
0.0	-0.0	27.6514015198	-9.59737682343	43.5992851257	2.18803095818
0.0	-0.0	27.2178916931	-10.058514595	38.6156005859	2.8554110527
0.0	-0.0	25.8542079926	-9.92422580719	37.3832702637	3.89551496506
0.0	-0.0	24.5149936676	-10.274512291	38.7452201843	6.97269773483
0.0	-0.0	24.141368866	-11.7336330414	38.3050613403	11.753944397
0.0	-0.0	23.9990844727	-11.2702732086	34.6958885193	15.85683918
0.0	-0.0	23.8796920776	-10.6483392715	29.2496128082	17.2311935425
0.0	-0.0	22.5241336823	-11.9158353806	22.6543445587	18.113193512
0.0	-0.0	23.3995361328	-12.941368103	17.1251945496	17.8648777008
0.0	-0.0	19.8450603485	-13.1934356689	12.4323120117	16.3233909607
0.0	-0.0	12.7928647995	-12.9293985367	11.0437660217	16.0206756592
0.0	-0.0	11.0840091705	-12.3406162262	11.0722446442	15.8714237213
0.0	-0.0	6.37407445908	-11.464764595	13.6219997406	15.9638528824
0.0	-0.0	9.76022148132	-10.4335041046	17.4071674347	16.7410449982
0.0	-0.0	14.5819272995	-10.9367980957	18.3766784668	17.6580219269
0.0	-0.0	14.0114574432	-10.6321973801	19.0006732941	17.1381568909
0.0	-0.0	13.7243976593	-9.08574485779	21.3175621033	16.5377635956
0.0	-0.0	13.9929237366	-8.75425052643	24.4343261719	16.89802742
0.0	-0.0	14.2426996231	-8.76543140411	26.2465171814	17.0517597198
0.0	-0.0	9.9860534668	-8.85686397552	26.5148925781	16.9943675995
0.0	-0.0	5.5720872879	-8.52110004425	26.5217247009	16.5206317902
0.0	-0.0	6.15000391006	-8.76195240021	27.3814888	16.2187976837
0.0	-0.0	6.13878011703	-9.2014913559	29.4267215729	16.5655670166
0.0	-0.0	6.58610486984	-8.40550899506	31.4725475311	16.0723018646
0.0	-0.0	6.52293491364	-7.59330368042	33.3161621094	15.8642530441
0.0	-0.0	9.45247554779	-7.30819177628	32.5792312622	16.2514972687
0.0	-0.0	20.8447303772	-7.52808427811	32.5642089844	15.9277305603
0.0	-0.0	44.0807418823	-6.84172582626	33.1248397827	15.6389341354
0.0	-0.0	59.4226036072	-5.52559661865	33.0892753601	14.7609615326
0.0	-0.0	57.4220962524	-3.32367372513	31.9230289459	13.1951723099
0.0	-0.0	49.8538208008	-1.58187389374	28.7161693573	9.86805438995
0.0	-0.0	44.2277641296	-0.641721725464	28.1079025269	5.59603881836
0.0	-0.0	45.43567276	3.03502178192	30.6975650787	1.90843546391
0.0	-0.0	44.606502533	5.7984752655	32.2138748169	-0.399844795465
0.0	-0.0	46.491268158	5.13378286362	31.7542572021	-1.1591578722
0.0	-0.0	45.7163009644	3.54678153992	30.6954708099	0.0492076128721
0.0	-0.0	46.8566818237	4.20739746094	28.9567165375	0.340782463551
0.0	-0.0	49.4523429871	5.84565973282	27.2707099915	-0.415312707424
0.0	-0.0	51.7020721436	7.09021186829	25.6750106812	-2.11865496635
0.0	-0.0	51.8055992126	8.33444881439	23.035987854	-3.52301120758
0.0	-0.0	52.3205604553	8.2400302887	22.8990345001	-2.87260985374
