0.394673585892	1.41244232655	0.0645351409912	0.169073343277	1.72072219849	-0.227192044258
0.395788192749	1.41324019432	0.0649441480637	0.168795824051	1.7206735611	-0.226712822914
0.396089553833	1.41242277622	0.0648090839386	0.167686700821	1.7208480835	-0.226656317711
0.394996166229	1.40975189209	0.0653952360153	0.162474870682	1.7204567194	-0.225601673126
0.395634174347	1.40968310833	0.0660420656204	0.152327299118	1.7173204422	-0.224198818207
0.394235134125	1.41012442112	0.0647351741791	0.141835212708	1.71192526817	-0.222340345383
0.390427589417	1.40913939476	0.0637413263321	0.132400035858	1.70517003536	-0.220537185669
0.39467549324	1.40811133385	0.0653562545776	0.126388072968	1.70017445087	-0.219007372856
0.400765657425	1.41044735909	0.0699816942215	0.123232841492	1.69757330418	-0.217680692673
0.406070947647	1.41018712521	0.0753164291382	0.122460603714	1.69614899158	-0.216089963913
0.412308216095	1.40863859653	0.0834848880768	0.122450351715	1.69454991817	-0.214978814125
0.412986040115	1.4026093483	0.0862039327621	0.121660709381	1.69166791439	-0.21448636055
0.402582645416	1.39257705212	0.0846359729767	0.120068788528	1.68764030933	-0.214024305344
0.391483306885	1.37963163853	0.0840569734573	0.119190692902	1.6830201149	-0.214016795158
0.389782428741	1.37254726887	0.0862855911255	0.12042927742	1.68009865284	-0.213680744171
0.394825696945	1.37148547173	0.0891480445862	0.122418642044	1.67910325527	-0.213119983673
0.400246620178	1.37441074848	0.0891320705414	0.122981071472	1.67925012112	-0.212789416313
0.402329921722	1.37587022781	0.0890630483627	0.121110677719	1.68019318581	-0.213533163071
0.401300668716	1.37524521351	0.090168595314	0.118084192276	1.68123352528	-0.215117692947
0.398125171661	1.37533068657	0.0901478528976	0.116153717041	1.68141281605	-0.216768741608
0.395184516907	1.37365221977	0.0904893875122	0.116057157516	1.6812556982	-0.217950105667
0.395282506943	1.3696449995	0.0914969444275	0.117513179779	1.68052530289	-0.218602895737
0.395708322525	1.36653733253	0.0909802913666	0.118844032288	1.67964541912	-0.218810200691
0.404591560364	1.37164723873	0.0906184911728	0.119544506073	1.67885565758	-0.218740463257
0.412781238556	1.37886333466	0.0892503261566	0.119206190109	1.67884230614	-0.218325376511
0.415087938309	1.38155579567	0.088921546936	0.118409872055	1.67912387848	-0.217349052429
0.415271043777	1.38127100468	0.0899353027344	0.117927312851	1.67925047874	-0.216586232185
0.417238473892	1.38124060631	0.0915927886963	0.117466449738	1.67853224277	-0.215692400932
0.418568372726	1.37974405289	0.0923540592194	0.117563962936	1.67628884315	-0.215265750885
0.420380830765	1.37874674797	0.0930066108704	0.117598056793	1.67398893833	-0.215132236481
0.42191195488	1.38045501709	0.0916895866394	0.117776155472	1.67389845848	-0.215028762817
0.423258066177	1.38234996796	0.0901923179626	0.119092941284	1.67661213875	-0.215425014496
0.423845529556	1.38312315941	0.0891003608704	0.119967460632	1.67948436737	-0.216455221176
0.423774242401	1.38246929646	0.0889751911163	0.119690418243	1.68124067783	-0.217767238617
0.424348592758	1.38246011734	0.0884265899658	0.118939161301	1.68204557896	-0.219397306442
0.42215681076	1.38248503208	0.0887506008148	0.118246555328	1.68261253834	-0.220148801804
0.419704198837	1.38290715218	0.0887922048569	0.115034818649	1.68352007866	-0.220749497414
0.418486595154	1.38291347027	0.0893712043762	0.110154628754	1.68447649479	-0.221480846405
0.417441129684	1.3823390007	0.0898197889328	0.106875896454	1.68715047836	-0.221626758575
0.416810035706	1.38086545467	0.0905598402023	0.104318141937	1.69128870964	-0.221710443497
0.416395187378	1.38070821762	0.0906122922897	0.101690769196	1.69394111633	-0.222982168198
0.416921615601	1.38100469112	0.0906691551208	0.10094332695	1.69392704964	-0.224874377251
0.418228387833	1.38301432133	0.0896013975143	0.100964784622	1.69369697571	-0.226548194885
0.421119213104	1.38466417789	0.0883581638336	0.0995593070984	1.69254302979	-0.229926586151
0.42464184761	1.38616132736	0.0867079496384	0.0975778102875	1.69121348858	-0.233105182648
0.428997516632	1.38678812981	0.0856897830963	0.0972235202789	1.69009888172	-0.235171198845
0.431605815887	1.38785278797	0.0838055610657	0.0988938808441	1.68944895267	-0.235597014427
0.43341088295	1.39007949829	0.0822539329529	0.100649356842	1.68907499313	-0.234804391861
0.433622598648	1.39178228378	0.0801230669022	0.10248041153	1.68918061256	-0.234454035759
0.431710720062	1.39305210114	0.0768849849701	0.104115009308	1.69032788277	-0.235368728638
0.430464744568	1.39359164238	0.0729004144669	0.105796098709	1.69127702713	-0.237019300461
0.430077314377	1.39576327801	0.0671293735504	0.107677936554	1.69142699242	-0.238520860672
0.43208026886	1.39509117603	0.0601134300232	0.108812093735	1.69059884548	-0.239353656769
0.432723522186	1.39017117023	0.0582990646362	0.109521389008	1.6889128685	-0.239903092384
0.432831048965	1.38754808903	0.0580810308456	0.109795570374	1.68912887573	-0.240746974945
0.430500984192	1.38593709469	0.0589356422424	0.109672546387	1.68966150284	-0.241698026657
0.427635192871	1.38484489918	0.0607013702393	0.108453989029	1.69015824795	-0.24287879467
0.425457954407	1.38403439522	0.0621510744095	0.106400489807	1.69024395943	-0.244777798653
0.425714969635	1.38488578796	0.0623438358307	0.102324485779	1.68958306313	-0.247680306435
0.427842855453	1.38536179066	0.0626537799835	0.098931312561	1.68922424316	-0.250308275223
0.429343223572	1.38502645493	0.0630518198013	0.0989058017731	1.6907377243	-0.25079536438
0.428653240204	1.38529241085	0.0635416507721	0.101429224014	1.69321358204	-0.249675154686
0.428654193878	1.38595509529	0.0642622709274	0.105918884277	1.69326925278	-0.248165607452
0.427284240723	1.38739585876	0.0641201734543	0.111358880997	1.69258248806	-0.245786190033
0.427848577499	1.3881329298	0.0639029741287	0.114009141922	1.69257259369	-0.24457359314
0.429373979568	1.38853871822	0.0636796951294	0.113660335541	1.69289505482	-0.244791030884
0.429485082626	1.38721120358	0.0643916130066	0.115021944046	1.69110941887	-0.244530320168
0.428981304169	1.3881765604	0.0648318529129	0.116589546204	1.69018626213	-0.243041753769
0.427588939667	1.38892900944	0.0649093389511	0.115851402283	1.69210338593	-0.242843151093
0.426916360855	1.38893699646	0.0658165216446	0.114914655685	1.69173157215	-0.243680119514
0.426767349243	1.38982343674	0.0660343170166	0.115815639496	1.68907558918	-0.245554208755
0.425546169281	1.39103114605	0.0651025772095	0.116585731506	1.69062519073	-0.248074769974
0.424599647522	1.3923330307	0.0642831325531	0.11748957634	1.69752335548	-0.251477837563
0.42470240593	1.39349603653	0.0631928443909	0.118915557861	1.70433163643	-0.255036592484
0.423984050751	1.39501214027	0.0617363452911	0.120501041412	1.70921647549	-0.258005261421
0.423215866089	1.39439713955	0.0609086751938	0.12196803093	1.70902609825	-0.261006593704
0.422981500626	1.39476370811	0.0597380399704	0.122351884842	1.70499289036	-0.26319873333
0.422207593918	1.39458072186	0.0587457418442	0.121682405472	1.69992518425	-0.264435768127
0.420731782913	1.39352524281	0.0594184398651	0.120750188828	1.69798851013	-0.263413190842
0.41924571991	1.39334583282	0.0601350069046	0.119969844818	1.69764053822	-0.261284828186
0.417736053467	1.39399719238	0.0614773035049	0.118525028229	1.69579041004	-0.258937358856
0.41640329361	1.3949328661	0.0618758201599	0.116471529007	1.69284248352	-0.257442593575
0.413695335388	1.39494013786	0.0608522891998	0.114669084549	1.69060254097	-0.256766676903
0.412972450256	1.39588868618	0.0600759983063	0.113587617874	1.68989408016	-0.257002234459
0.414431810379	1.39655983448	0.0598478317261	0.11233496666	1.68930745125	-0.256886720657
0.415396690369	1.39588570595	0.0615882873535	0.110973834991	1.6897560358	-0.255438327789
0.414315223694	1.39580047131	0.0643939971924	0.110913038254	1.69061565399	-0.252990961075
0.410016059875	1.39737868309	0.0666372776031	0.110808134079	1.69026005268	-0.250562548637
0.406042575836	1.39797604084	0.0680320262909	0.110793352127	1.69082343578	-0.249182224274
0.403230905533	1.39878559113	0.0683351755142	0.110478401184	1.69241821766	-0.24786233902
0.403431892395	1.3989328146	0.0686074495316	0.108984947205	1.69533836842	-0.248136281967
0.406266689301	1.39835071564	0.0692012310028	0.110917806625	1.69577753544	-0.249166965485
0.412160634995	1.39733278751	0.0697280168533	0.117428779602	1.69085848331	-0.250827550888
0.413546800613	1.39878535271	0.0670317411423	0.121210575104	1.68521416187	-0.252377033234
0.415931224823	1.40061998367	0.0645709037781	0.12008357048	1.68506777287	-0.254309654236
0.418519020081	1.40063798428	0.0632495880127	0.116014719009	1.68668520451	-0.256207585335
0.421011686325	1.3990470171	0.0626509189606	0.111478567123	1.68650913239	-0.258150577545
0.422872781754	1.39775669575	0.0627572536469	0.109621524811	1.68736481667	-0.258529663086
0.422633886337	1.39670729637	0.0612764358521	0.108134746552	1.68855452538	-0.25967502594
0.422381877899	1.39600861073	0.0602341890335	0.105902910233	1.68828511238	-0.261393070221
0.424376487732	1.39571666718	0.0591132640839	0.105811357498	1.68825304508	-0.261875629425
0.426086425781	1.39370572567	0.0572432279587	0.107707738876	1.68858397007	-0.260549783707
0.427803277969	1.38781130314	0.0543620586395	0.108232736588	1.68878519535	-0.259097695351
0.427459716797	1.38267755508	0.0533442497253	0.108085632324	1.68853998184	-0.257286071777
0.424855947495	1.37865138054	0.0542100667953	0.108649253845	1.688565135	-0.254671812057
0.425664901733	1.37789654732	0.0574029684067	0.109005451202	1.68901288509	-0.252169847488
0.424732208252	1.38138771057	0.059356212616	0.109262704849	1.68925428391	-0.249698400497
0.421373844147	1.38398075104	0.0605268478394	0.111507415771	1.68984162807	-0.247533082962
0.419564247131	1.38569664955	0.0613026618958	0.115854501724	1.69156002998	-0.245548963547
0.417104959488	1.38743972778	0.0613067150116	0.119628667831	1.69192242622	-0.244939088821
0.416361570358	1.38859832287	0.0606780052185	0.120542049408	1.69196271896	-0.245924830437
0.415544748306	1.38941371441	0.0593627691269	0.120123147964	1.6921428442	-0.24764251709
0.414598703384	1.39042794704	0.0582048892975	0.12043094635	1.69236898422	-0.249160766602
0.412197113037	1.39130675793	0.0565036535263	0.12140417099	1.69221663475	-0.250136613846
0.413592338562	1.3915220499	0.0563144683838	0.122731685638	1.69096314907	-0.250618457794
