0.0	-0.0	137.641143799	-107.042907715	79.5526580811	-163.910690308
0.0	-0.0	137.752532959	-107.172470093	79.3480224609	-163.698379517
0.0	-0.0	137.947692871	-107.772331238	79.1112213135	-163.55657959
0.0	-0.0	138.210388184	-110.561286926	78.9002990723	-163.512664795
0.0	-0.0	138.055450439	-116.41947937	76.9459075928	-163.308654785
0.0	-0.0	136.014526367	-124.512130737	71.6178894043	-161.795135498
0.0	-0.0	136.089141846	-139.45552063	59.5564575195	-160.515991211
0.0	-0.0	135.523834229	-153.745056152	42.0378952026	-160.605270386
0.0	-0.0	128.934707642	-158.150314331	27.8404865265	-156.548919678
0.0	-0.0	125.109596252	-158.97769165	23.7350234985	-152.588653564
0.0	-0.0	110.199699402	-160.001678467	23.3969287872	-152.192779541
0.0	-0.0	90.6327590942	-159.892227173	22.7633476257	-152.36567688
0.0	-0.0	74.9539108276	-159.042236328	22.0575580597	-152.658782959
0.0	-0.0	46.3133583069	-158.204498291	21.4729213715	-153.334457397
0.0	-0.0	7.94044208527	-157.094833374	22.1503677368	-153.738586426
0.0	-0.0	3.48753166199	-157.49055481	24.8461322784	-154.741729736
0.0	0.0	-1.3286550045	-160.986968994	28.1973514557	-157.449310303
0.0	0.0	-0.973068535328	-168.166015625	29.94896698	-162.774520874
0.0	-0.0	1.92214035988	-176.392807007	32.2452735901	-168.671218872
0.0	-0.0	6.91846132278	174.215423584	35.3758544922	-174.721588135
0.0	-0.0	12.6862010956	162.890457153	37.0964775085	179.113052368
0.0	-0.0	15.6395244598	155.760986328	37.6201133728	175.556549072
0.0	-0.0	17.9419536591	156.678970337	44.230632782	176.374526978
0.0	-0.0	19.941783905	157.084777832	50.0554466248	176.992721558
0.0	-0.0	21.2877483368	153.189620972	51.3600921631	175.349197388
0.0	-0.0	25.6933288574	151.244491577	48.8277320862	173.99281311
0.0	-0.0	30.8702468872	151.600097656	44.1695022583	173.87147522
0.0	-0.0	30.3639297485	151.674758911	43.4422111511	174.423736572
0.0	-0.0	30.0709114075	152.442230225	43.9923171997	174.668151855
0.0	-0.0	30.432882309	153.17918396	43.3239212036	174.529708862
0.0	-0.0	30.6311721802	153.624847412	42.0938339233	174.150817871
0.0	-0.0	29.7949485779	153.138763428	42.4126167297	173.504119873
0.0	-0.0	29.045249939	152.733413696	43.6513671875	172.968261719
0.0	-0.0	26.6799793243	151.825256348	44.1986427307	172.057556152
0.0	-0.0	36.3187904358	152.706481934	44.6212005615	171.777008057
0.0	-0.0	41.6109275818	156.161682129	44.6757583618	174.694747925
0.0	-0.0	30.31782341	155.076065063	43.473575592	175.605010986
0.0	-0.0	34.8491821289	154.591094971	42.469783783	175.643478394
0.0	-0.0	42.7454910278	155.480758667	40.8958358765	175.943695068
0.0	-0.0	54.1206130981	156.736679077	37.6039009094	176.455963135
0.0	-0.0	54.4491958618	159.489212036	34.3444404602	177.828903198
0.0	-0.0	54.9962768555	162.714401245	32.953212738	178.520523071
0.0	-0.0	54.4181938171	167.273742676	33.0059661865	179.658233643
