0.29399228096	1.43318653107	-0.0155462026596	0.195439815521	1.72461605072	-0.307032227516
0.293182849884	1.43333339691	-0.0170655250549	0.19339799881	1.72420918941	-0.307092666626
0.292870283127	1.43365740776	-0.0178337097168	0.19198179245	1.72404646873	-0.307110786438
0.292337179184	1.43333041668	-0.0182837247849	0.191012620926	1.72412657738	-0.307154297829
0.291113615036	1.4328943491	-0.0190637111664	0.190141916275	1.72421634197	-0.307552337646
0.290525436401	1.43237638474	-0.0201100111008	0.189965724945	1.72425878048	-0.308044195175
0.288528442383	1.43074560165	-0.0235043764114	0.190004825592	1.72440135479	-0.308824181557
0.287288427353	1.42972159386	-0.0269567966461	0.190049648285	1.72477960587	-0.309589266777
0.290659666061	1.43587374687	-0.0298207998276	0.189794301987	1.72489774227	-0.31025147438
0.296149015427	1.44367289543	-0.0260832309723	0.188756465912	1.72507536411	-0.31093776226
0.296588420868	1.4447081089	-0.0262269973755	0.187035799026	1.72543478012	-0.311758995056
0.296982288361	1.44505143166	-0.0264781713486	0.185242414474	1.72557485104	-0.312086105347
0.296298503876	1.44492506981	-0.0276336669922	0.184084415436	1.72507560253	-0.311448335648
0.295177221298	1.4446349144	-0.0297794342041	0.183158397675	1.7240190506	-0.3093521595
0.295246362686	1.44401788712	-0.0310124158859	0.182859897614	1.72237455845	-0.305627346039
