-82.6738433838	0.689229786396	136.476821899	4.54684066772	0.372112601995	0.21920350194
-83.2214736938	0.429634809494	136.430206299	4.28881692886	0.388064980507	0.348585367203
-83.5503616333	0.212983071804	136.10559082	4.08759021759	0.0593730323017	0.505567550659
-83.7955474854	-0.820064842701	135.789611816	3.40478944778	-1.03843224049	1.17022800446
-87.4125518799	-6.46164941788	132.801742554	0.958493232727	0.760658800602	3.05649495125
-92.241607666	-19.3003005981	124.759246826	-2.57578802109	4.15162944794	4.71764469147
-82.8478393555	-36.1232376099	109.992973328	-5.33367967606	9.03362178802	6.04964113235
-64.326789856	-41.0478897095	85.5849380493	-6.91259813309	14.8083972931	8.53251552582
-55.5740394592	-44.7579727173	62.6420974731	-8.7868309021	19.7840023041	9.2885351181
-40.8997993469	-44.8309936523	41.710483551	-8.03721046448	22.5356216431	8.88544559479
-31.7110271454	-44.9135093689	24.4171962738	-5.4245429039	22.1022205353	9.10458850861
-24.1389198303	-47.1958580017	18.1441364288	-3.80938029289	21.2201004028	8.71540260315
-24.7782459259	-47.2396659851	21.0437088013	-3.30685114861	20.911699295	8.47669315338
-25.0753250122	-47.2173461914	24.8425865173	-4.98070573807	21.1562385559	8.58049201965
-29.0224323273	-46.3534202576	38.1865615845	-8.8263759613	21.8174610138	7.43018388748
-32.2083015442	-45.9342842102	45.8647842407	-10.5923233032	22.0311203003	6.41694927216
-31.8121318817	-46.6556816101	47.0973014832	-9.54092407227	22.1959075928	6.77460289001
-32.4915771484	-45.6613197327	49.0362052917	-7.88643789291	23.3485279083	6.76785373688
-33.2363586426	-45.5318069458	50.4276542664	-6.10178613663	25.1276283264	7.1106967926
-32.926361084	-46.4334983826	49.5168418884	-4.9601225853	25.4252872467	7.17442846298
-32.1830329895	-46.8695716858	47.5332145691	-3.05111479759	24.1245937347	7.98315048218
-33.1697998047	-47.5576629639	47.6609039307	-2.82088947296	23.2635993958	8.69192218781
-34.8445587158	-41.45262146	49.7786369324	-4.33718824387	24.0999317169	8.4582118988
-51.7640533447	-31.0467720032	75.7280044556	-4.88144731522	24.8950557709	8.28429222107
-64.2394332886	-19.2790412903	89.3898773193	-4.43736982346	24.8513622284	8.32131767273
-56.2828636169	-34.6660194397	73.8022766113	-4.17454910278	24.9609985352	8.34673976898
-25.292350769	-48.9346160889	29.2227249146	-4.33997392654	24.959148407	8.35564422607
6.86418676376	-43.9868965149	-15.5851697922	-4.34929466248	24.7707157135	8.29684829712
6.75029563904	-43.7752380371	-17.4185352325	-4.67186641693	24.2422275543	8.16125869751
7.62696123123	-43.7411880493	-16.5528335571	-5.98500204086	23.1162929535	7.3977098465
6.92024374008	-44.1924438477	-12.9410352707	-8.20533370972	22.2816810608	6.25656604767
3.01982903481	-47.9072875977	-6.37373113632	-11.8926954269	20.5099124908	4.45475387573
-8.1899728775	-51.9629440308	8.82417678833	-14.9608449936	19.6898937225	3.04350852966
-23.3481235504	-51.302986145	29.0979766846	-16.3555850983	19.6830368042	2.31324458122
-27.2258205414	-51.3224258423	36.2803497314	-15.7361917496	19.7251758575	2.59950685501
-27.8093910217	-51.2266807556	38.2427864075	-14.2183389664	19.8021087646	2.90334153175
-29.5812473297	-50.6339492798	40.6595993042	-13.08867836	19.7295684814	2.92186665535
-31.1643657684	-50.3450508118	42.6353797913	-12.4800338745	19.4444732666	2.66770482063
-32.550743103	-50.0903739929	44.2738037109	-12.4522199631	19.2177410126	2.28134727478
-32.7734603882	-50.4217453003	44.1490478516	-12.8410272598	19.7614936829	2.10350465775
-32.4190177917	-50.6535224915	43.3544006348	-13.3059053421	21.0223026276	2.09970831871
-33.7142829895	-50.0740585327	44.3094444275	-15.0330247879	21.1726074219	1.85747253895
-33.8660049438	-49.6588897705	44.5242195129	-16.1397686005	20.728012085	1.65454959869
-34.145275116	-49.554561615	44.4656944275	-15.8183517456	20.2728672028	1.60387206078
-34.2828559875	-49.5126838684	44.4285430908	-16.2294082642	19.5307674408	1.11885380745
-34.7984275818	-49.3147125244	44.8505363464	-16.5789165497	19.0382289886	0.722407221794
-35.061466217	-49.3171081543	45.0148468018	-16.4047431946	18.8057613373	0.782107412815
-34.8427200317	-49.4000930786	44.774269104	-16.6595134735	18.7351894379	0.841685771942
-34.8561172485	-49.35389328	44.7611999512	-16.7602024078	18.9093647003	0.929794371128
-35.0994911194	-49.09532547	45.0011787415	-16.8431358337	18.8866558075	1.07695126534
-35.3736953735	-49.0329246521	45.159866333	-16.9725055695	18.8045444489	1.18311679363
-35.3628158569	-49.0599441528	45.0706367493	-16.8917293549	18.7505168915	1.22185206413
-35.7729721069	-49.0159988403	45.4537315369	-16.8502578735	18.6905784607	1.20141506195
-35.9394226074	-48.8689231873	45.6755905151	-16.8096389771	18.5941486359	1.13083481789
-35.5530357361	-49.1580429077	45.3799324036	-17.0146656036	18.4648551941	0.855546653271
-35.9892883301	-49.174030304	45.9321289062	-16.7041740417	18.4876461029	0.849780857563
-36.4554901123	-48.7906227112	46.4592590332	-16.6367034912	18.5403442383	0.905013024807
-36.9251708984	-48.402130127	46.9950942993	-17.2403106689	18.4628562927	1.07658207417
-37.124382019	-48.3211288452	47.2755050659	-18.2511920929	18.628408432	0.944540262222
-38.0861930847	-48.2766418457	48.4326896667	-18.9888534546	19.1256313324	0.646919131279
-38.8757972717	-48.910610199	48.9937973022	-19.4522380829	19.4064674377	0.773532032967
-39.7706985474	-49.0418243408	49.3947906494	-19.2683906555	18.928894043	0.601894617081
-40.006439209	-49.4030761719	49.2486305237	-17.7848453522	18.0105419159	0.801586508751
-40.4413414001	-49.2784881592	49.6632461548	-15.94572258	18.0145111084	0.873766303062
-40.5993690491	-49.2698783875	49.7530174255	-14.1192293167	18.9253044128	1.19594156742
-40.6323013306	-49.2127227783	49.7669448853	-13.8576478958	20.0636692047	1.59334921837
