0.0	-0.0	145.208175659	48.9136581421	81.3868942261	-23.0312728882
0.0	-0.0	144.842514038	48.9890556335	81.3180999756	-23.1905422211
0.0	-0.0	144.02305603	48.8188018799	81.0826416016	-23.2860412598
0.0	-0.0	141.179977417	49.1716270447	80.8136825562	-23.5639743805
0.0	-0.0	136.341705322	50.3507118225	80.4448471069	-24.3865776062
0.0	-0.0	130.198059082	54.6413879395	79.4415664673	-27.7717323303
0.0	-0.0	116.809829712	59.4534187317	79.310760498	-32.3167457581
0.0	-0.0	94.9740829468	65.8801727295	78.666809082	-40.8340873718
0.0	-0.0	67.5598602295	69.4522323608	77.7814483643	-47.0933227539
0.0	-0.0	44.0691871643	69.1636276245	77.3709259033	-48.9620323181
0.0	-0.0	32.6067276001	68.0245132446	77.3413238525	-49.4723701477
0.0	-0.0	31.5289154053	67.4440689087	76.9044113159	-50.2994499207
0.0	-0.0	28.8220653534	65.7424545288	76.3305892944	-50.6532707214
0.0	-0.0	24.9434127808	63.0583839417	76.6824493408	-51.5037345886
0.0	-0.0	23.9002609253	62.6216697693	78.7905807495	-52.439201355
0.0	-0.0	23.0979728699	60.2023849487	82.6552352905	-52.1810760498
0.0	-0.0	23.1868228912	57.6315460205	85.2871856689	-52.4543495178
0.0	-0.0	22.999786377	54.8083190918	86.2919921875	-52.8305435181
0.0	-0.0	21.9694881439	51.6194190979	85.6089324951	-53.6102638245
0.0	-0.0	21.1764011383	47.4278755188	84.6108093262	-54.2436599731
0.0	-0.0	21.1678218842	42.0284996033	83.7690734863	-54.4678230286
0.0	-0.0	21.5062904358	38.1419067383	82.4839553833	-54.6050987244
0.0	-0.0	23.3193244934	35.8020362854	81.5844955444	-55.2344932556
0.0	-0.0	28.6562080383	34.3058204651	81.165222168	-56.0529747009
0.0	-0.0	33.6769142151	34.0360527039	81.3476791382	-56.113368988
0.0	-0.0	32.0457420349	34.0788230896	81.4093093872	-55.6558494568
0.0	-0.0	38.6494407654	34.4407234192	81.0435638428	-55.4263534546
0.0	-0.0	52.8496284485	34.733379364	80.8990402222	-55.2678565979
0.0	-0.0	60.447769165	34.6050338745	80.8479385376	-54.8789138794
0.0	-0.0	58.7611427307	35.1900749207	80.6675415039	-54.5220413208
0.0	-0.0	58.0075378418	35.849319458	80.5504379272	-54.3832817078
0.0	-0.0	61.2024993896	35.8476676941	80.2455291748	-54.4820594788
0.0	-0.0	61.0281219482	36.1345100403	80.1838912964	-54.4321746826
0.0	-0.0	60.2715568542	37.5792617798	79.724822998	-54.5665664673
0.0	-0.0	60.1303825378	39.2940063477	79.4747695923	-54.664642334
0.0	-0.0	61.5897445679	41.3537368774	80.9506759644	-55.9219665527
0.0	-0.0	62.0262413025	42.8044776917	83.7043838501	-54.7977371216
