0.582315683365	1.28560638428	-0.0787532329559	0.148586511612	1.72510123253	-0.339631199837
0.581446170807	1.28466284275	-0.0788314342499	0.149205446243	1.72526621819	-0.339814186096
0.579733371735	1.28342497349	-0.077805519104	0.14924120903	1.72612833977	-0.340124368668
0.575971841812	1.28183090687	-0.0773757696152	0.148201704025	1.72771024704	-0.340240240097
0.564169645309	1.28700911999	-0.0794706344604	0.146835803986	1.73162007332	-0.341240286827
0.547212839127	1.27959895134	-0.0735867023468	0.141056776047	1.73807513714	-0.343115568161
0.523437976837	1.264118433	-0.0676223039627	0.128625869751	1.7446231842	-0.344605922699
0.496322631836	1.24182796478	-0.0620480775833	0.111316680908	1.75020253658	-0.346781373024
0.473895549774	1.21053361893	-0.0540463924408	0.0973076820374	1.75272929668	-0.347987294197
0.452362775803	1.18278384209	-0.0504176616669	0.0896627902985	1.75307250023	-0.348011016846
0.437018632889	1.1706854105	-0.046749830246	0.0840814113617	1.75345349312	-0.348016262054
0.434363365173	1.1749958992	-0.044685959816	0.0782985687256	1.7529501915	-0.347782254219
0.441510915756	1.17797827721	-0.0446254014969	0.0764799118042	1.75233507156	-0.347907543182
0.45009469986	1.17795217037	-0.0468271970749	0.0795183181763	1.7537958622	-0.350751876831
