-100.290664673	-52.8155059814	133.830215454	3.62601113319	0.836783647537	-0.182236418128
-100.884521484	-53.4892616272	133.900878906	3.25248646736	0.831860780716	-0.0290115494281
-101.121154785	-53.9167098999	133.5675354	2.20018696785	1.13257563114	0.652992427349
-101.016555786	-54.0014381409	132.665405273	-0.465076684952	2.82896184921	2.75710463524
-101.969650269	-53.9536476135	132.261672974	-4.66201496124	6.93553304672	6.62901163101
-102.350883484	-54.5083808899	131.305740356	-8.45895195007	10.2959814072	9.26661777496
-102.319801331	-54.6457633972	130.526199341	-10.4713144302	12.5607032776	10.4922943115
-102.325668335	-60.2843894958	126.407524109	-10.8586835861	13.3472795486	11.0678052902
-97.6504516602	-65.8787765503	115.516204834	-11.5095272064	13.9209861755	11.5660228729
-93.3158035278	-70.049446106	107.846878052	-12.9558525085	15.0023126602	11.5126743317
-88.2263259888	-71.487411499	101.635734558	-14.0475921631	16.0253791809	11.1749267578
-83.6984786987	-73.1984710693	94.9959564209	-14.3281173706	16.7626171112	10.7692623138
-83.5551376343	-72.5312271118	94.4388046265	-13.8414869308	17.8360652924	10.6465396881
-83.1702194214	-72.9113388062	93.6439743042	-12.5898866653	19.1629810333	10.1980228424
-79.2192230225	-75.5277328491	88.350189209	-11.0213747025	20.0115737915	9.90919303894
-71.0696716309	-78.7152709961	78.2655105591	-10.5912065506	20.8223552704	10.0951137543
-63.7765235901	-79.9284515381	70.2347488403	-10.773856163	21.7337493896	10.1565198898
-62.9960975647	-79.9919204712	69.2750091553	-10.3878555298	21.9724750519	9.81733131409
-62.8399353027	-80.3308181763	68.7316970825	-9.70171737671	21.7655944824	9.41758918762
-61.8482284546	-80.6661911011	67.4395141602	-9.43404197693	21.4446392059	8.95363426208
-64.2207641602	-80.9446716309	69.6029129028	-9.66980838776	21.2167339325	8.72735595703
-64.7077713013	-81.2517547607	69.9511260986	-9.72245025635	20.8275814056	8.50422096252
-64.3930587769	-81.316696167	69.3959732056	-9.48217391968	20.6227245331	8.13914775848
-62.7625923157	-81.7766265869	67.3946762085	-9.07957172394	20.6800842285	7.84078502655
-62.2662887573	-82.0556106567	66.5230331421	-9.19551849365	20.54961586	7.52386426926
-61.983505249	-82.3040313721	65.8146133423	-9.58723831177	20.0952739716	7.19406509399
-62.2631797791	-82.4146347046	65.7485351562	-10.3643894196	19.4341716766	6.76115179062
-65.412612915	-82.6647262573	68.5138397217	-11.0119018555	18.9638271332	6.13128900528
-71.3740692139	-82.6446990967	74.1264038086	-10.6098489761	18.6803913116	5.58386993408
-75.3035430908	-82.5645980835	77.8627243042	-9.55832195282	18.4116077423	4.97417783737
-76.2055511475	-82.4828643799	78.5244064331	-8.75232696533	18.4054965973	4.57117605209
-81.1380691528	-82.2862167358	83.4018173218	-8.47538661957	18.5171031952	4.32317304611
-86.6565322876	-81.7944641113	88.8839187622	-8.44702148438	18.4797325134	4.30289697647
-90.1436920166	-80.7390136719	92.6062088013	-8.61451244354	18.4690265656	4.34360599518
-88.2520751953	-80.8185958862	90.6318054199	-8.71451568604	18.8058185577	4.54296684265
-88.0863800049	-80.8684234619	90.35206604	-8.97206497192	19.4424915314	4.98748922348
