-100.722427368	-49.855140686	143.832778931	8.21964263916	1.1953741312	2.83673334122
-100.981834412	-50.1950492859	143.666137695	7.88309288025	1.27797198296	2.94648098946
-101.07093811	-50.5220222473	143.420532227	7.47374629974	1.4706017971	3.23091053963
-101.916191101	-53.3734588623	142.235198975	6.59418106079	2.62887430191	3.76833629608
-102.301719666	-56.4892082214	141.355484009	4.77411031723	4.91032838821	3.35530185699
-101.707496643	-56.9087486267	140.665939331	2.8695898056	7.24969816208	1.50287771225
-101.877540588	-57.0894775391	140.446517944	2.47826361656	8.45799732208	0.235348135233
-102.598960876	-58.8071517944	139.643295288	3.45485043526	8.87867164612	0.462088823318
-109.402732849	-73.1150436401	135.884841919	4.79466724396	9.28926277161	1.59809350967
123.235046387	-87.517250061	-106.263946533	5.7117266655	9.57512187958	3.9803686142
84.3788986206	-75.5659408569	-71.7475738525	5.26298236847	9.56204605103	6.06066179276
80.444480896	-65.4162750244	-70.2790145874	4.65035295486	9.6147403717	6.60408067703
81.2290802002	-62.7517776489	-71.0662994385	4.49041891098	9.41198730469	6.92312383652
81.367225647	-60.1020851135	-73.2925796509	3.9593102932	9.20317363739	7.47723197937
82.1843719482	-59.0620765686	-73.8232879639	2.01063680649	9.20829868317	7.93350362778
82.752784729	-58.8448295593	-73.6072692871	-0.376374453306	9.26197338104	8.0730009079
83.0475463867	-58.7485313416	-73.7869415283	-1.60919189453	9.39316272736	8.12294197083
83.5422668457	-58.836605072	-74.0716781616	-1.04094994068	9.55293369293	8.24588012695
84.1888885498	-58.824760437	-74.788192749	-0.966505229473	9.25591850281	8.14688491821
86.2104415894	-57.2527389526	-77.3502502441	-0.724674761295	8.6864118576	8.01135063171
86.0395889282	-59.3298568726	-75.8784866333	-0.471208244562	8.67918682098	8.21523475647
82.6542129517	-63.0781173706	-70.9320068359	-0.689553916454	8.71574687958	8.34434700012
77.5754089355	-67.0494766235	-65.0005569458	-0.720992207527	8.69517707825	8.51844120026
71.6349563599	-71.9150466919	-57.3751678467	-0.61997115612	8.94626903534	8.59491920471
68.5917358398	-75.3686981201	-53.8232917786	-0.304473668337	9.09412097931	8.51198577881
72.4606704712	-74.1633148193	-60.0572547913	-0.188891336322	9.02606678009	8.45362663269
75.4331283569	-66.4065093994	-68.871887207	-0.489812076092	8.84219837189	8.53506660461
77.4981231689	-56.6673088074	-75.8981933594	-1.04760205746	8.74102878571	8.64504337311
79.6515045166	-49.527721405	-79.7547683716	-1.85472273827	8.96349048615	8.80110263824
82.2855758667	-42.0210189819	-83.1929931641	-2.91639757156	9.48938465118	8.88674068451
84.8697509766	-34.540435791	-85.2550811768	-3.29050660133	10.3454990387	8.21635341644
