13.1160116196	-7.37918186188	2.55463814735	27.4719276428	13.9456415176	36.6291046143
13.0963554382	-7.36237001419	2.53466939926	27.4659824371	13.9259395599	36.6081390381
13.1044054031	-7.33820390701	2.4610042572	27.401348114	13.9337301254	36.6355781555
12.9413232803	-7.32150602341	2.53601551056	27.2498283386	13.8734531403	36.6871795654
12.5761070251	-7.30329227448	2.71592402458	26.8429222107	13.668056488	36.437210083
11.6353025436	-7.76834106445	2.72576093674	25.3018894196	12.6174526215	34.3195648193
10.364818573	-8.64768409729	2.5661251545	22.396440506	10.8584604263	30.4152565002
8.79773521423	-10.3878536224	2.14015722275	19.398229599	8.00293445587	26.1496963501
7.32195997238	-12.6360607147	2.20986652374	17.1551799774	4.49013853073	21.794342041
5.56055307388	-15.6728601456	2.12047719955	15.3255195618	1.21779358387	18.6876621246
3.02522850037	-19.120557785	1.70636487007	13.1007080078	-1.30360400677	16.6695346832
-0.219399794936	-22.0577831268	0.838363111019	10.6542367935	-3.07710719109	15.3998613358
-2.89778017998	-24.3321704865	-1.23406326771	9.11120510101	-4.8903055191	14.0950756073
-5.42381620407	-25.4779071808	-1.79452192783	9.06233215332	-6.21702194214	12.4389743805
-7.00316905975	-25.4384155273	-1.27411866188	10.0291652679	-6.17797803879	10.7286529541
-7.25666666031	-25.2064247131	-1.24191331863	11.9569950104	-5.1031870842	8.62950325012
-6.84823560715	-25.0299682617	-1.12971961498	14.5900764465	-4.01385498047	7.19581127167
-5.521276474	-24.9969902039	-1.31900334358	16.9562931061	-2.74978971481	7.5727148056
-3.72202944756	-25.0271453857	-1.32803142071	18.0295791626	-2.19045996666	8.47380638123
-1.36342179775	-24.8026504517	-1.38195693493	19.0997238159	-2.52093338966	8.28913974762
0.736519575119	-24.8909034729	-1.65783917904	19.5996589661	-3.21227431297	7.91177797318
2.18842053413	-25.103225708	-1.74990665913	19.7754020691	-3.80950665474	7.56995820999
3.13652038574	-25.5476512909	-1.85869383812	19.6829376221	-4.36097049713	7.43827342987
4.15608930588	-25.9703140259	-2.03681349754	19.3489971161	-5.50924968719	7.38154554367
5.04042291641	-26.2593975067	-2.3119726181	18.8677883148	-6.45778846741	7.88784503937
5.37885713577	-26.3352069855	-2.30681347847	18.5732784271	-7.23594665527	9.15075588226
6.08320808411	-26.4724617004	-2.74977064133	18.4566669464	-7.96687316895	11.0264034271
7.10380458832	-26.4294948578	-3.17952466011	18.301197052	-8.30732631683	12.2425489426
7.77064418793	-25.8976802826	-3.50878596306	17.9216537476	-9.3620262146	11.3275794983
8.4139547348	-24.9587345123	-3.77672219276	17.1576766968	-10.8942708969	8.37507534027
8.48939800262	-24.1384296417	-3.49847149849	17.0579662323	-11.7038431168	4.84062814713
8.26532554626	-24.3100700378	-3.54987740517	16.9408779144	-13.0811281204	2.62417721748
8.28319835663	-24.365152359	-3.74903345108	15.6710147858	-14.1498613358	2.55860519409
8.73021793365	-24.4538002014	-3.94568967819	13.0758533478	-13.9999275208	3.96503400803
8.84901237488	-24.5612430573	-4.10749340057	9.36323356628	-13.3258237839	5.5399184227
8.56541061401	-24.537984848	-3.91649150848	6.63790798187	-12.4456958771	5.50163841248
8.19270515442	-24.469669342	-3.7095580101	5.61000728607	-12.1268320084	4.05041074753
7.70264291763	-24.3456077576	-3.29768896103	4.70148563385	-12.2875843048	1.59607195854
6.78182268143	-24.5882797241	-2.88145899773	3.22046041489	-12.0495176315	0.253629982471
6.76719284058	-24.8632640839	-3.09412336349	2.44004487991	-11.368391037	0.162031546235
7.71113729477	-24.4115715027	-3.13349366188	2.04254841805	-10.9530477524	0.541028141975
8.39984321594	-23.5453987122	-3.11184597015	0.505881309509	-10.5913066864	1.23725700378
8.6063785553	-22.7776298523	-3.19816565514	-2.09136772156	-9.78223133087	2.15052890778
8.65764331818	-22.7580356598	-3.62795305252	-5.57302379608	-9.31555557251	4.13168239594
8.34189224243	-22.8567390442	-3.65941381454	-8.78115749359	-9.17017269135	8.08159446716
8.36397743225	-22.8631744385	-3.82943630219	-8.62106513977	-9.09506416321	13.5370035172
8.16603946686	-22.8399906158	-3.77691364288	-5.9459400177	-10.4127588272	17.5409564972
8.27919483185	-22.9014511108	-3.68835830688	-3.35372591019	-12.1360874176	19.5272331238
8.3851890564	-23.0934524536	-3.53042435646	-0.878199756145	-15.0730829239	22.0227527618
8.4281835556	-23.1372642517	-3.22194838524	-0.444546163082	-17.4666652679	24.1863861084
8.58632087708	-23.7480545044	-3.16771316528	-0.295729845762	-18.9873580933	25.0833263397
8.01538085938	-24.2550048828	-3.01662397385	-0.0524097830057	-18.0273151398	24.3164138794
7.33238315582	-24.5283889771	-3.08946919441	-1.48635029793	-15.9077968597	22.2191867828
5.98559522629	-24.2665596008	-2.95862412453	-3.93332123756	-14.5221805573	20.1646175385
5.21382665634	-24.0118293762	-3.03359222412	-6.12299776077	-14.1563529968	18.6423473358
4.61710882187	-23.7055969238	-3.0267059803	-7.76875972748	-14.4132261276	16.3882102966
4.19734954834	-23.441827774	-3.06422281265	-8.46360874176	-14.4670248032	12.9171228409
3.6729593277	-23.3136138916	-3.21627402306	-8.24438285828	-14.4958848953	9.31968593597
3.40118598938	-23.3463573456	-3.51265001297	-7.91881847382	-14.4703598022	8.08301639557
3.35518741608	-23.2553386688	-3.83889245987	-8.05333900452	-14.7830219269	9.1748008728
3.70945453644	-22.9888858795	-4.12902593613	-7.99532461166	-15.95814991	10.9952964783
3.84047555923	-22.6449890137	-4.07866239548	-7.63473367691	-17.763666153	12.525519371
3.82826638222	-22.9098834991	-3.98765301704	-7.46075344086	-19.1857051849	13.0302257538
3.77083468437	-23.3845176697	-3.76420593262	-6.85585975647	-20.4711971283	13.1925344467
3.74768042564	-23.6900463104	-3.57061171532	-6.32209968567	-21.2052993774	13.7732000351
3.69693732262	-24.0340099335	-3.39786887169	-5.64165973663	-21.9179534912	13.6452140808
3.66712355614	-24.0924739838	-3.18257594109	-5.02487516403	-23.6689395905	13.1927204132
3.72353506088	-24.0623645782	-3.14344167709	-3.81840276718	-25.0744533539	11.9272346497
3.85803413391	-24.0999717712	-3.37949609756	-3.16504383087	-25.9980945587	10.7059869766
3.99749040604	-23.9448604584	-3.63893842697	-3.80010199547	-27.1446475983	10.7088069916
4.5197520256	-23.7415866852	-3.83367872238	-4.29326248169	-28.4972705841	11.105017662
5.21687221527	-24.011680603	-4.02694034576	-4.38569307327	-29.8072795868	11.7879676819
5.64017152786	-24.5682849884	-4.08939981461	-4.45174646378	-30.8051757812	12.4154043198
5.75765275955	-25.4158172607	-4.05510425568	-4.44275712967	-31.6976222992	12.8028402328
6.14367437363	-26.4234199524	-4.39369678497	-3.84065318108	-32.2433280945	12.818523407
6.64002561569	-27.1884841919	-4.61254072189	-3.52279114723	-32.8427200317	13.0023317337
7.06516551971	-27.6193733215	-4.8753528595	-3.49222302437	-33.0676002502	13.1937294006
7.34723711014	-28.0844688416	-5.21334075928	-3.44128155708	-32.82006073	13.2645597458
7.34500169754	-28.3453083038	-5.43869972229	-3.23588967323	-32.1400604248	13.4245929718
7.28623723984	-28.7183990479	-5.70381641388	-3.07240462303	-30.9766311646	13.6709251404
7.69118309021	-29.1191482544	-5.94112253189	-2.91093015671	-29.7716293335	14.0922832489
8.29890823364	-29.5370693207	-6.26863050461	-2.51397752762	-28.5844707489	14.3428688049
8.58573818207	-29.6904697418	-6.16675043106	-2.61270928383	-27.7002544403	14.1892814636
8.12667560577	-29.190782547	-6.15353727341	-2.81903362274	-25.7829837799	13.8096427917
