0.0	-0.0	137.74369812	61.8877639771	85.3659439087	-12.9637174606
0.0	-0.0	137.195968628	61.0298805237	85.2223739624	-12.8659629822
0.0	-0.0	133.721923828	60.0939559937	85.206161499	-12.8289051056
0.0	-0.0	124.124320984	58.7356300354	85.1877746582	-12.508439064
0.0	-0.0	112.736801147	56.6459655762	84.9584579468	-12.4839906693
0.0	-0.0	105.66973114	53.8280143738	84.4107894897	-12.6463937759
0.0	-0.0	104.381378174	49.9316558838	83.1595077515	-12.2164611816
0.0	-0.0	100.34627533	44.3965644836	79.9052429199	-12.546503067
0.0	-0.0	90.0475845337	37.5201721191	74.4101867676	-14.7377958298
0.0	-0.0	80.8238754272	29.9788703918	68.7142791748	-15.6885948181
0.0	-0.0	79.8360443115	22.1581668854	63.1288604736	-15.4579458237
0.0	-0.0	83.3638534546	15.2816953659	57.3357772827	-15.6726408005
0.0	-0.0	84.8523330688	8.03388881683	52.5784072876	-14.2454833984
0.0	-0.0	85.682258606	4.07631444931	48.8416862488	-13.696018219
0.0	-0.0	87.6693496704	0.702797472477	46.9063682556	-13.1178531647
0.0	-0.0	90.8482818604	-1.18329572678	46.0881195068	-13.2982597351
0.0	-0.0	92.5766677856	-0.00828981865197	44.1811561584	-15.8827018738
0.0	-0.0	92.5196762085	3.4299967289	40.934299469	-18.2519168854
0.0	-0.0	89.4676361084	6.24824619293	37.9694900513	-20.0673503876
0.0	-0.0	84.2796020508	8.37234973907	35.7483024597	-24.2381515503
0.0	-0.0	82.15234375	9.96420574188	34.0491027832	-30.0956745148
0.0	-0.0	81.9668502808	8.60555076599	33.9561233521	-29.7886943817
0.0	-0.0	82.5367279053	5.60078382492	33.2254486084	-29.6084442139
0.0	-0.0	87.2678604126	2.42595267296	32.0825233459	-29.173412323
0.0	-0.0	93.6653518677	0.207782804966	30.5003604889	-29.0347976685
0.0	-0.0	98.4753952026	-2.19993257523	29.373916626	-28.3398227692
0.0	-0.0	101.061302185	-4.67703580856	28.3916435242	-27.7724552155
0.0	-0.0	102.875610352	-5.53459596634	26.6547546387	-29.2527046204
0.0	-0.0	102.757453918	-5.60118484497	25.6724357605	-29.5285282135
0.0	-0.0	102.79624939	-5.7680811882	25.3411235809	-30.0410842896
0.0	-0.0	109.069564819	-6.28188753128	25.2388458252	-31.4829807281
0.0	-0.0	124.252296448	-7.29645442963	25.4223270416	-31.7921085358
0.0	-0.0	136.717483521	-6.29409408569	25.9499912262	-32.8485832214
0.0	-0.0	137.972000122	-5.66501998901	26.4608612061	-31.7163105011
0.0	-0.0	134.667694092	-5.35923051834	25.8556442261	-31.6705360413
0.0	-0.0	118.527770996	-5.89652299881	26.6550807953	-30.8270874023
0.0	-0.0	99.2036743164	-6.56393909454	26.6755313873	-30.8143959045
0.0	-0.0	88.4822921753	-6.36261081696	26.7749919891	-32.0335578918
0.0	-0.0	88.7633361816	-6.62833166122	27.7545986176	-32.8446769714
0.0	-0.0	95.5238342285	-5.15923690796	28.9699039459	-34.161403656
0.0	-0.0	100.758842468	-3.91208124161	29.340713501	-36.4694404602
0.0	-0.0	100.686920166	-2.3061413765	28.710100174	-38.7233085632
0.0	-0.0	98.8137130737	-1.85730838776	27.060218811	-37.8283348083
0.0	-0.0	92.2226409912	-4.65906906128	26.1514358521	-35.2788009644
0.0	-0.0	84.4111099243	-7.68602705002	25.2540893555	-32.5918312073
0.0	-0.0	78.6511077881	-10.9705095291	23.9947814941	-31.3824901581
0.0	-0.0	74.9917373657	-13.7958860397	22.8533248901	-31.0987739563
0.0	-0.0	74.2920913696	-16.5449428558	22.5426273346	-31.0049762726
0.0	-0.0	76.8535461426	-18.9663944244	23.3199462891	-31.335100174
0.0	-0.0	80.9179992676	-21.3471164703	24.3615493774	-31.2255363464
0.0	-0.0	83.1770095825	-23.8625259399	25.0334625244	-30.7980117798
0.0	-0.0	84.8114929199	-25.6372833252	25.8992099762	-29.9335479736
0.0	-0.0	87.1236495972	-27.0590133667	26.4558410645	-29.2812385559
0.0	-0.0	88.2225341797	-27.6922245026	26.6510887146	-28.9311542511
0.0	-0.0	88.3494567871	-27.3473834991	26.9271450043	-29.0257453918
0.0	-0.0	86.4077224731	-26.4177570343	27.2393245697	-28.7477664948
0.0	-0.0	80.408996582	-25.7951908112	27.6218662262	-29.0165615082
0.0	-0.0	72.6787872314	-25.3872566223	27.8633956909	-29.1565761566
0.0	-0.0	66.9819259644	-25.3800601959	27.848361969	-29.355096817
0.0	-0.0	65.3592300415	-25.7018814087	28.2774467468	-29.3566112518
0.0	-0.0	66.958404541	-25.8895301819	28.5648880005	-29.670665741
0.0	-0.0	69.2554397583	-26.2036743164	28.5308856964	-29.8283786774
0.0	-0.0	71.111289978	-26.8133964539	28.7255363464	-29.2472724915
