0.0	-0.0	137.675369263	28.305765152	80.381362915	-40.0573921204
0.0	-0.0	137.475540161	28.4811172485	80.2084655762	-40.1954650879
0.0	-0.0	136.980010986	28.2483501434	80.1567001343	-40.202709198
0.0	-0.0	138.202423096	28.5247039795	80.2550430298	-40.450969696
0.0	-0.0	144.335250854	28.831659317	80.0648651123	-40.9005584717
0.0	-0.0	152.058578491	28.6926250458	79.688117981	-40.8622817993
0.0	-0.0	157.421859741	28.8082122803	77.5897827148	-40.9487915039
0.0	-0.0	159.367446899	28.6051692963	73.470375061	-40.6180648804
0.0	-0.0	159.404312134	27.381690979	67.6998062134	-38.8369369507
0.0	-0.0	159.594665527	25.7939052582	60.9148216248	-38.3420066833
0.0	-0.0	161.192062378	23.5530357361	54.0831031799	-38.5935401917
0.0	-0.0	160.495925903	20.8964653015	48.3465461731	-39.1400337219
0.0	-0.0	151.52166748	19.1471347809	44.8290138245	-40.6870498657
0.0	-0.0	137.203109741	17.1962146759	43.4449424744	-40.5836143494
0.0	-0.0	122.996803284	16.5447025299	43.8487472534	-40.7134971619
0.0	-0.0	110.567512512	16.0210437775	44.2730293274	-41.1851272583
0.0	-0.0	101.337394714	16.3945388794	44.4163131714	-41.6060523987
0.0	-0.0	94.6044845581	17.2091903687	44.5326042175	-41.7576408386
0.0	-0.0	90.3860855103	17.6294441223	44.3749160767	-42.3574447632
0.0	-0.0	87.0870132446	18.1255817413	44.513053894	-42.6857147217
0.0	-0.0	81.5510559082	18.6343822479	44.940158844	-42.9503517151
0.0	-0.0	73.4491271973	18.8528022766	45.155216217	-43.1032829285
0.0	-0.0	66.5754699707	19.0767097473	45.1160888672	-43.5051498413
0.0	-0.0	63.8564491272	18.7551422119	44.6289596558	-43.6341400146
0.0	-0.0	63.7526435852	18.728302002	44.0736541748	-43.8217773438
0.0	-0.0	63.0606422424	19.0121021271	43.3680992126	-43.6994400024
0.0	-0.0	61.9424858093	19.2608070374	42.3346214294	-43.493396759
0.0	-0.0	61.4466400146	19.3539104462	40.7876625061	-43.3487739563
0.0	-0.0	61.5744361877	18.9469833374	39.984046936	-42.984046936
0.0	-0.0	61.4746055603	18.4925231934	39.3889007568	-42.6164855957
0.0	-0.0	60.697353363	17.8207607269	38.6908111572	-42.2428245544
0.0	-0.0	58.6895561218	17.8130149841	37.3573913574	-42.5361175537
