0.0	-0.0	147.737167358	-90.2259597778	70.8189315796	-160.046875
0.0	-0.0	147.635772705	-90.6568222046	70.7548904419	-159.934951782
0.0	-0.0	146.821060181	-91.60987854	70.9811019897	-159.807632446
0.0	-0.0	142.363464355	-93.5938873291	72.506980896	-159.730911255
0.0	-0.0	135.248550415	-99.2600021362	75.2522583008	-158.774368286
0.0	-0.0	127.123054504	-107.880836487	76.5988845825	-156.98210144
0.0	-0.0	120.274291992	-115.177116394	76.0947570801	-156.280136108
0.0	-0.0	115.453125	-118.109695435	75.5294189453	-156.464950562
0.0	-0.0	111.557922363	-115.848258972	75.7863006592	-156.946517944
0.0	-0.0	106.176193237	-111.832870483	76.9125366211	-157.552856445
0.0	-0.0	92.5755462646	-110.29006958	78.0062484741	-157.611343384
0.0	-0.0	70.6946182251	-112.741294861	78.357749939	-157.885269165
0.0	-0.0	54.7141799927	-115.62701416	77.9548034668	-157.323684692
0.0	-0.0	62.0422019958	-118.697242737	77.8354644775	-157.045974731
0.0	-0.0	67.23412323	-123.030433655	78.5291442871	-156.916748047
0.0	-0.0	69.7330551147	-125.814453125	79.8846969604	-156.97026062
0.0	-0.0	70.9186325073	-126.285614014	82.2094650269	-157.116104126
