0.504834651947	1.02884984016	0.0733170509338	0.203795909882	1.66750907898	-0.146984934807
0.503916978836	1.02839899063	0.0728716850281	0.202975749969	1.6676274538	-0.146883249283
0.501940727234	1.02914810181	0.0730961561203	0.201141357422	1.66957855225	-0.146688461304
0.499887228012	1.03018832207	0.0735968351364	0.195688247681	1.67438566685	-0.147268891335
0.495630502701	1.03199410439	0.0739582777023	0.186738967896	1.68017983437	-0.149773836136
0.48946762085	1.03516554832	0.0751219987869	0.177258729935	1.68633615971	-0.154811382294
0.478904247284	1.04385375977	0.0781681537628	0.171865463257	1.68971848488	-0.161124706268
0.454939365387	1.06178569794	0.0812960863113	0.169805049896	1.69197356701	-0.165826559067
0.428588867188	1.08283352852	0.0847542285919	0.168749094009	1.69346046448	-0.168820381165
0.400533914566	1.10088968277	0.0863047838211	0.166166305542	1.69470846653	-0.171095848083
0.373357772827	1.11644184589	0.084499835968	0.161703824997	1.6973553896	-0.173689603806
0.346957921982	1.12855744362	0.0796693563461	0.156722784042	1.70072305202	-0.176925301552
0.323908567429	1.13928747177	0.0739978551865	0.152513027191	1.70479416847	-0.180883646011
0.307884693146	1.14742004871	0.0703903436661	0.150012969971	1.70907866955	-0.185202121735
0.296704530716	1.15354514122	0.0684922933578	0.148685216904	1.71321260929	-0.18937933445
0.287777662277	1.15784418583	0.064621925354	0.147254705429	1.71726512909	-0.193874597549
0.277874231339	1.16333436966	0.0589834451675	0.145555734634	1.72011744976	-0.198019742966
0.270601511002	1.1710600853	0.0555704832077	0.144247770309	1.72180402279	-0.201993227005
0.265150308609	1.18215572834	0.0547070503235	0.143852472305	1.72313499451	-0.205400943756
0.25994515419	1.19434213638	0.0557992458344	0.143804311752	1.72421431541	-0.208622455597
0.253104925156	1.2053385973	0.0574375391006	0.143524885178	1.72504115105	-0.212113857269
0.24488067627	1.21442174911	0.0585284233093	0.142228841782	1.72516489029	-0.215380191803
