-63.8617210388	-50.4597740173	144.758758545	10.6306886673	1.63402485847	4.58217525482
-63.8665466309	-50.5202255249	144.511444092	10.4956903458	1.64327263832	4.56650018692
-63.6903572083	-50.5457954407	144.218582153	9.95436382294	0.912476360798	4.27417802811
-63.2753143311	-50.7546386719	143.52243042	7.94531106949	-1.22043585777	3.24853801727
-62.9014091492	-50.6342658997	142.984405518	4.2347073555	-4.36834955215	1.91757798195
-62.9541091919	-50.9227485657	142.691726685	-0.543009698391	-7.0430688858	1.56950879097
-62.1998977661	-52.3710441589	141.322753906	-5.25401878357	-8.81749343872	2.67417740822
-61.4725914001	-54.4438400269	139.938583374	-10.1305427551	-9.98869991302	5.40241479874
-59.170917511	-56.9013786316	136.325424194	-14.6042060852	-11.0417995453	8.45181560516
-54.2507705688	-61.5157279968	127.811576843	-17.3013305664	-12.1317300797	10.4854030609
-38.6000785828	-69.1890945435	105.116416931	-17.7800102234	-13.5481710434	11.1216220856
12.4266309738	-70.8608016968	44.1782112122	-17.1044540405	-15.1541776657	10.8968925476
36.6157569885	-62.5729637146	15.6446056366	-15.903427124	-16.1325721741	10.2912378311
42.8380508423	-57.0680809021	7.8280916214	-14.3780784607	-16.5010242462	9.72747039795
47.0107116699	-51.1401405334	1.28738880157	-13.5534791946	-17.1675548553	9.44139671326
51.5560455322	-44.3194961548	-5.11839723587	-13.5271682739	-16.7934131622	9.67059803009
54.5151748657	-38.9470481873	-9.59634208679	-13.7383937836	-15.3535137177	10.1091194153
57.9719657898	-32.216178894	-14.9629516602	-14.2690181732	-14.0646896362	10.6303710938
60.0959320068	-28.6435089111	-17.0809898376	-15.088807106	-12.6582450867	11.3475599289
62.0891914368	-24.0203742981	-20.3332557678	-15.7774028778	-12.318605423	12.0201787949
63.9449272156	-21.5051364899	-20.5454788208	-15.776512146	-12.1230888367	12.4964971542
56.2603645325	-36.5254173279	-11.5473489761	-15.2919445038	-11.2900781631	12.7290287018
43.2398223877	-51.0339508057	4.21434402466	-14.3253383636	-9.59814453125	11.7908725739
33.7187080383	-58.155872345	13.4852828979	-12.8789796829	-9.73885917664	10.8763713837
34.000869751	-58.8808174133	12.4211359024	-11.9177513123	-11.0074920654	10.6703462601
34.7114448547	-59.2335281372	11.4342737198	-11.7388591766	-13.8551425934	10.582110405
34.8888473511	-58.7940597534	10.8364877701	-11.4211521149	-16.508430481	10.152759552
34.6783447266	-58.6036529541	10.5674581528	-11.0188713074	-18.2791290283	9.90371894836
34.4703445435	-58.5790176392	10.2357234955	-11.2303352356	-18.2758922577	10.5542087555
34.3391571045	-58.5526847839	9.59666156769	-11.9948997498	-18.0136146545	12.2882938385
34.8182144165	-58.2709884644	8.92537403107	-11.9210062027	-19.8150691986	15.1761760712
36.4562110901	-57.7370033264	7.27739715576	-11.8728628159	-21.3148593903	17.9528560638
38.8441886902	-56.9984970093	4.78333616257	-12.3883171082	-20.7878379822	20.5851688385
40.4494552612	-56.9686660767	3.23409366608	-11.1628370285	-19.6547641754	22.8498249054
41.9399108887	-56.3210945129	1.37253320217	-10.5532655716	-19.5285701752	23.9912433624
45.864074707	-52.9866218567	-4.51388406754	-11.1329126358	-19.398223877	23.907497406
55.0374450684	-43.8502159119	-17.052936554	-11.4299192429	-19.2248821259	23.8715362549
63.6140441895	-27.8752880096	-28.3379497528	-11.3737916946	-19.2478981018	24.0041103363
69.5375213623	-11.2182540894	-34.7243728638	-11.5010643005	-19.3075084686	24.206489563
75.2841491699	2.72289776802	-36.6511421204	-11.4661626816	-19.4818878174	24.3465061188
77.3663024902	11.2671737671	-37.2871627808	-10.7463378906	-19.3974533081	23.6779499054
76.8983230591	14.3006401062	-38.704120636	-9.29852962494	-18.9465637207	21.3415775299
76.2757492065	10.0157756805	-39.0202293396	-7.04635715485	-19.117143631	18.0934009552
75.8566665649	10.2112579346	-39.8878822327	-5.96150875092	-19.0616455078	16.6571846008
75.3192672729	10.7139787674	-40.3404312134	-7.03416252136	-18.8983211517	17.4995822906
74.3402328491	14.4338035583	-42.1177711487	-8.08568191528	-19.2284317017	18.874502182
73.2067565918	19.975976944	-45.9505271912	-8.26930999756	-19.1872348785	19.2338905334
72.2383956909	23.6739711761	-47.8131141663	-8.29386901855	-18.5893516541	19.1651229858
70.9695205688	6.52985811234	-42.3025970459	-8.50762653351	-17.3423671722	18.5451869965
64.6496047974	-19.6230812073	-34.2564735413	-8.8836479187	-16.6411056519	17.3840885162
59.6551322937	-28.1842880249	-34.6712684631	-8.65027236938	-16.8366069794	17.1279220581
55.3499679565	-26.5923633575	-39.1616516113	-8.82670879364	-17.0938167572	16.940120697
47.1347198486	-35.089263916	-33.723110199	-9.82908439636	-17.2122917175	16.7616214752
38.4058532715	-43.7004547119	-24.0047798157	-11.2125282288	-17.2152328491	17.2241230011
35.1648712158	-46.9535331726	-20.8356781006	-11.5624189377	-17.4277057648	17.4616680145
36.6908454895	-44.6471557617	-23.9828739166	-11.1372842789	-17.7467918396	17.7338256836
39.5908432007	-40.4710083008	-28.7651805878	-11.0793075562	-18.1850299835	18.6531333923
40.3254203796	-40.6515159607	-28.6014137268	-11.2803220749	-18.7600746155	19.1525249481
39.4648666382	-42.3931159973	-25.7815761566	-10.8980846405	-19.3844108582	18.662191391
38.4622573853	-44.3251304626	-22.9813480377	-10.2148885727	-20.1280860901	18.5204238892
37.6043281555	-45.5775108337	-20.8049602509	-9.85707473755	-21.3875789642	19.0453052521
37.8625183105	-44.9773025513	-20.6993255615	-9.21186065674	-22.6166706085	19.0425052643
40.1713523865	-42.1692886353	-23.4334831238	-8.4896440506	-22.793838501	18.9389781952
45.8115844727	-35.3188552856	-30.4399242401	-8.37474632263	-21.8674583435	18.9450359344
49.8762893677	-30.9477272034	-34.2389450073	-8.44742584229	-21.1529922485	19.0526008606
53.1101570129	-28.0442504883	-37.4641952515	-8.77879905701	-21.1548194885	19.0775299072
57.1697425842	-20.4353866577	-42.1695671082	-9.03407764435	-21.3531780243	19.0857200623
59.8448257446	-13.8446016312	-44.1227836609	-9.03014469147	-21.0311946869	18.9646854401
61.9963417053	-12.3473491669	-44.52891922	-9.31841850281	-20.6903915405	19.2751922607
63.2123031616	-11.832657814	-44.705493927	-9.64625930786	-20.8311576843	19.5314311981
64.7656784058	-10.5737810135	-45.6499328613	-9.49812507629	-21.0200595856	19.5893726349
66.2295608521	-8.47698688507	-45.9470901489	-9.25940227509	-21.2505016327	19.6317443848
66.5082931519	-6.60738372803	-45.8894004822	-9.19407558441	-21.6724948883	19.7201137543
66.6695251465	-8.29155826569	-44.8239746094	-9.14748382568	-21.8776340485	19.4705963135
66.1088485718	-18.1544818878	-39.8003997803	-8.64280509949	-21.317024231	18.3467578888
62.0291786194	-39.2967376709	-27.3301715851	-8.12012290955	-20.2864437103	15.7714662552
42.8158416748	-63.174571991	1.03474450111	-7.3966345787	-19.5454216003	11.5853738785
-14.7754173279	-71.7663421631	68.5131072998	-5.76172351837	-20.0350074768	6.00624704361
-41.2123947144	-66.4079742432	99.9964828491	-3.72897553444	-20.6830711365	0.623768389225
-43.7924575806	-64.9803009033	103.94380188	-1.83829271793	-21.6339931488	-4.04477882385
-40.8719596863	-66.2743682861	100.106758118	-3.22122836113	-23.3829917908	-6.26694774628
-37.0213851929	-66.8804702759	94.8224105835	-8.08410453796	-24.8165302277	-6.103536129
-33.1374740601	-67.3076095581	90.3209075928	-11.3162288666	-26.106710434	-5.75380134583
-29.2945022583	-68.0419845581	85.4630889893	-10.9250211716	-26.6532440186	-6.11100673676
-25.9370555878	-69.3153686523	81.0459671021	-9.95561885834	-25.6270923615	-5.27697467804
