0.217064142227	1.51532483101	-0.0253564119339	0.0975246429443	1.7255692482	-0.364413738251
0.217488527298	1.5150500536	-0.0254461765289	0.096907377243	1.72579586506	-0.363691806793
0.216962575912	1.5138143301	-0.0251865386963	0.0959014892578	1.72595250607	-0.362268567085
0.218180894852	1.51379239559	-0.0253813266754	0.0937914848328	1.72580802441	-0.35989522934
0.218993902206	1.51365220547	-0.0223269462585	0.0909266471863	1.72528731823	-0.357014656067
0.218097925186	1.51258814335	-0.0192799568176	0.0881571769714	1.72418808937	-0.354625582695
0.219048976898	1.51342523098	-0.0169366598129	0.086706161499	1.72394645214	-0.352674245834
0.219877243042	1.51472425461	-0.0157110691071	0.0860896110535	1.72460198402	-0.351442456245
0.218210697174	1.51515829563	-0.0140837430954	0.0848507881165	1.72493731976	-0.350546121597
0.217669248581	1.51627933979	-0.0125607252121	0.0830543041229	1.72531294823	-0.34977722168
0.216206789017	1.51736116409	-0.0125334262848	0.0815937519073	1.72563803196	-0.349494934082
0.215577125549	1.51799249649	-0.0131931304932	0.080549955368	1.72556209564	-0.348995447159
0.21527504921	1.51760315895	-0.0143228769302	0.0801749229431	1.72480678558	-0.348094463348
0.215269565582	1.51728951931	-0.015266418457	0.0803239345551	1.72372841835	-0.346571207047
