-1.26742768288	-5.70947265625	-13.6558437347	4.40707969666	17.71043396	35.7900161743
-1.29060816765	-5.67558336258	-13.6468133926	4.17522668839	17.7705173492	35.4955558777
-1.40570855141	-5.63899421692	-13.726234436	3.71073937416	17.3653697968	35.2013778687
-1.66424167156	-5.58375883102	-13.7914676666	3.09634542465	16.872341156	34.7483139038
-2.2152774334	-5.98593425751	-13.6864099503	2.08489084244	15.7396936417	34.3959388733
-3.98284554482	-6.13238143921	-13.7965717316	0.593901872635	12.0449352264	34.7305412292
-4.44574975967	-6.15060758591	-14.2391252518	0.21282838285	6.18156528473	36.8744506836
-4.9567193985	-6.21295118332	-14.2385940552	-0.27679720521	0.910993635654	38.3570861816
-5.22829771042	-6.75185585022	-14.3292942047	-1.3996130228	-1.68737053871	39.884185791
-5.38105726242	-7.26407289505	-14.2098197937	-2.6613702774	-1.09726572037	41.0673828125
-5.18364620209	-8.09241294861	-13.9110984802	-2.71117043495	-0.993277609348	39.4646644592
-5.15034484863	-9.58671760559	-13.4622926712	-2.12514543533	-2.13329720497	36.7745132446
-6.27185583115	-11.6246986389	-12.8031759262	-2.34326505661	-3.17944526672	33.9467544556
-7.92165517807	-13.9129543304	-11.102804184	-2.66912913322	-3.54241728783	31.6478996277
-9.63496685028	-17.4814720154	-10.2051753998	-2.72468233109	-4.00215244293	31.3734855652
-10.7164058685	-21.4987030029	-9.5569152832	-2.33396339417	-4.14042758942	31.8914928436
-9.85489463806	-24.8985137939	-10.860417366	-1.93763244152	-4.09674692154	31.8153705597
-7.82087230682	-26.5327949524	-12.5658998489	-2.38070464134	-4.29318618774	31.7392883301
-5.18233919144	-26.0919589996	-14.9909849167	-3.48860836029	-4.44528484344	31.2031364441
-2.91118192673	-24.3659553528	-16.1627101898	-4.88939762115	-4.40576934814	30.022403717
-1.71180605888	-22.8601112366	-16.3558158875	-6.79121541977	-4.26086425781	28.3112869263
-1.65113198757	-21.8451137543	-16.3460407257	-10.2764825821	-3.42184305191	25.5056533813
-1.39586353302	-21.8963661194	-16.7345638275	-13.1657142639	-2.90919923782	24.6786556244
-1.04138803482	-21.9802894592	-17.0515670776	-11.8621549606	-3.0986893177	30.1962814331
-1.0500715971	-21.5641479492	-16.609664917	-10.3878612518	-4.42280292511	32.4063301086
-1.27925932407	-21.2341785431	-15.9974966049	-11.0607252121	-4.31927728653	27.6428966522
-1.32978129387	-20.9457950592	-15.6034259796	-12.7104187012	-3.46646881104	18.6975231171
-1.58438384533	-20.5994720459	-15.5687189102	-15.1143360138	-3.25137686729	9.0019865036
-1.78875172138	-20.2184810638	-15.8362932205	-16.7235164642	-3.60594820976	1.7503579855
-1.61691176891	-19.6589984894	-16.4238567352	-17.1743526459	-4.17088985443	-1.04434132576
-1.13831412792	-19.1006069183	-17.1252403259	-16.7611999512	-4.19084024429	1.67408418655
-0.453807651997	-18.170545578	-17.4777450562	-17.9988536835	-4.00162696838	6.27917337418
0.621194899082	-16.9722270966	-17.665517807	-19.3634128571	-4.29231214523	7.60385465622
2.07955956459	-15.8759231567	-17.2994537354	-19.0877151489	-4.91897916794	7.85250616074
2.72524237633	-15.3959264755	-17.1998138428	-18.5923137665	-5.870470047	8.25944900513
2.94891285896	-15.4757404327	-17.1100330353	-18.0387802124	-7.29714155197	6.22181940079
3.83516955376	-16.0522155762	-17.9052810669	-16.8877277374	-8.43012142181	0.416810065508
4.84023189545	-16.8072547913	-18.8659992218	-14.0661039352	-8.39894008636	-5.05446958542
5.34476137161	-17.1207427979	-19.6430530548	-10.8948173523	-8.36332035065	-10.2329854965
6.81646585464	-17.4869651794	-22.180103302	-9.03760147095	-8.6924571991	-14.9873247147
9.73305034637	-17.7121238708	-26.082654953	-8.8466758728	-9.55468082428	-19.4878234863
11.1069898605	-17.5652942657	-27.288974762	-9.43298530579	-10.7033472061	-22.0451583862
10.6963682175	-16.7527656555	-27.3263683319	-8.32950210571	-11.3925590515	-21.3475894928
6.71383142471	-16.2780513763	-25.1139793396	-6.22581005096	-11.7111186981	-18.4567317963
5.58183050156	-15.8935337067	-24.850320816	-5.99596738815	-11.861032486	-16.482427597
3.34472322464	-15.7888555527	-24.4402103424	-7.05310344696	-11.8671512604	-15.8919124603
1.42827486992	-15.9930772781	-23.9750804901	-7.4775762558	-12.0011339188	-15.8366880417
-0.10136243701	-17.1171016693	-23.5393428802	-7.19344377518	-11.7035827637	-15.7416000366
-0.966976881027	-20.8014945984	-21.6374282837	-6.66391801834	-11.4749908447	-15.2187051773
-1.4430501461	-26.3651790619	-21.6289463043	-6.53466272354	-11.4995584488	-14.486073494
-3.08800292015	-30.4897098541	-21.5282859802	-7.08507966995	-11.8368549347	-13.4250249863
-6.28546905518	-32.6748161316	-21.1903171539	-8.21030426025	-12.2132616043	-11.1471567154
-9.96234321594	-33.5211830139	-20.4565315247	-9.60116291046	-11.7528104782	-7.98139858246
-11.9622612	-33.3801116943	-20.8715782166	-11.1291570663	-10.9661560059	-5.04709863663
-11.9370203018	-31.8571052551	-21.320066452	-11.7627687454	-10.8413352966	-4.86750745773
-13.8143358231	-29.5224075317	-20.9992923737	-11.5132637024	-11.0114946365	-5.61255598068
-15.9198188782	-27.7699508667	-20.7308349609	-11.1912355423	-11.1151027679	-5.46626281738
-17.6233482361	-28.311340332	-19.5853252411	-10.8471231461	-10.9006080627	-5.46779346466
-17.8451366425	-31.7825775146	-19.2908782959	-10.1897306442	-10.7045640945	-5.60188865662
-17.9596729279	-35.3686637878	-19.1513671875	-9.67127990723	-10.5356740952	-5.56984567642
-18.9572505951	-37.4496040344	-18.8251876831	-10.0365066528	-10.3831338882	-5.09035968781
-20.5783119202	-37.6811904907	-18.3286342621	-11.2642631531	-10.0391130447	-4.16391372681
-22.2574005127	-37.3032073975	-18.4036579132	-13.371295929	-9.61915588379	-3.66341495514
-23.7449626923	-36.509475708	-18.5508499146	-18.5878067017	-9.2141122818	-4.09514808655
-24.4983673096	-35.7301216125	-18.4052448273	-22.3542995453	-9.00211048126	-5.31803894043
-24.0931758881	-35.3891868591	-18.6594295502	-21.5834159851	-9.47981739044	-6.47985887527
-23.3601093292	-35.3121452332	-19.1371040344	-18.9043064117	-10.1311473846	-7.40850639343
-23.0661315918	-35.2321777344	-19.6560840607	-19.0619468689	-11.2378644943	-8.06471920013
-22.2970848083	-35.1228599548	-20.2962703705	-24.527053833	-12.7108068466	-8.57569313049
-21.6416854858	-34.73487854	-20.7747364044	-28.3063640594	-13.345044136	-9.03584384918
-21.0607357025	-34.2357444763	-20.8019676208	-23.8616428375	-12.5873193741	-8.5274105072
-20.5493373871	-34.0942382812	-20.8949890137	-16.0852336884	-11.4647703171	-5.75183391571
-20.0827579498	-34.0059356689	-21.1207313538	-8.85661220551	-10.1824178696	1.46445453167
-19.7515449524	-33.9215621948	-21.2185668945	-5.09441709518	-9.38132858276	9.80511188507
-19.7199668884	-33.6431541443	-20.2727432251	-4.64816951752	-8.24667263031	14.2402935028
-19.0633220673	-33.6751022339	-19.6957206726	-4.93756484985	-6.79611206055	13.6411437988
-18.5827312469	-33.8329544067	-19.5667362213	-3.93328595161	-4.77338171005	12.6663150787
-18.6965007782	-33.9920463562	-19.6072940826	-2.36419391632	-2.45238256454	12.8215513229
-18.8811950684	-34.0010032654	-19.530664444	-1.78966498375	-1.5998262167	12.9965953827
-18.1414966583	-33.7359657288	-19.6777057648	-1.70040428638	-1.42206156254	13.0125169754
-16.3729057312	-33.4227867126	-20.129491806	-1.19854402542	-1.33663582802	12.7303142548
-14.9547529221	-32.5779838562	-20.6468906403	-0.994676530361	-1.1673592329	12.6045207977
-14.5994462967	-30.9010353088	-20.5844573975	-1.44241797924	-1.06933498383	12.8010644913
