-77.6561965942	-34.1337852478	130.792053223	7.17438793182	-0.86538952589	1.4992159605
-77.6812438965	-34.1330413818	130.726043701	7.26963472366	-0.782610177994	1.45532989502
-77.723236084	-34.4181060791	130.507873535	7.112637043	-0.862404823303	1.46579396725
-77.624671936	-38.3969650269	127.307800293	6.69749832153	-0.603075146675	1.67959690094
-75.2282485962	-49.9967765808	115.406455994	5.98025608063	-0.416563034058	2.04910969734
-72.2749633789	-56.6113739014	107.46156311	4.42061901093	-0.37784036994	2.67026185989
-68.3032531738	-59.3454322815	101.472923279	2.73582029343	-0.11999117583	3.14896321297
-64.2961196899	-62.3248138428	95.6688690186	1.76299679279	0.0968661159277	3.43656826019
-56.6189193726	-68.1040725708	84.8833389282	2.05543422699	0.10785535723	3.47940373421
