-19.3870773315	-45.7070198059	146.116760254	8.26266288757	-1.07819890976	-0.00763398781419
-19.2524089813	-45.8964271545	145.441635132	8.0552148819	-0.994723498821	0.0730535909534
-19.4711914062	-45.8335609436	145.597229004	7.77245235443	-0.998393535614	0.16856046021
-19.4408817291	-45.7691307068	145.241729736	7.34074020386	-0.700751662254	0.339465469122
-19.1877498627	-45.8279495239	144.54850769	7.20213699341	0.135367706418	0.564193367958
-18.0794734955	-46.9232711792	141.692810059	7.41939115524	0.51311558485	0.670782923698
-10.0222978592	-49.5658798218	125.659812927	7.13849878311	1.55341887474	1.15288686752
-4.76882553101	-47.151309967	108.227897644	6.21837186813	6.16050100327	2.31206250191
2.38595056534	-44.1961936951	89.0946350098	6.19034767151	11.4564437866	3.10955858231
5.85885190964	-42.8142356873	80.0515136719	6.76403665543	15.2924432755	3.38876318932
9.59262180328	-41.1354904175	74.3824157715	8.30646514893	18.0155792236	3.30284643173
10.6338863373	-40.2053451538	72.572517395	10.3625640869	20.0478038788	3.47561693192
12.4937162399	-39.4731712341	70.9239959717	11.1372041702	20.584569931	3.89637374878
18.9328250885	-38.1512184143	62.0787467957	9.79410362244	19.7640304565	3.7355222702
31.1167926788	-32.4126548767	44.9284744263	7.48149299622	19.7298698425	4.00850820541
38.4951171875	-27.8163833618	35.8203315735	5.2193365097	20.1856193542	4.15788173676
43.6626014709	-23.6924629211	28.5827560425	5.13176059723	18.8006668091	4.22805261612
48.0765419006	-19.2865962982	19.7883758545	7.0122551918	15.8507595062	4.87057447433
49.9173583984	-13.9044723511	12.1776580811	9.00809764862	14.2204809189	5.80860280991
50.7165565491	-8.51734256744	8.17609786987	9.58804225922	14.5666151047	6.39725017548
50.8470802307	-0.984266638756	2.02943348885	8.29930305481	15.407875061	6.61994791031
51.5522918701	4.66644906998	-3.00404906273	6.76699399948	15.6265869141	6.68137788773
54.327747345	10.3308439255	-4.75213479996	6.61733436584	14.9678735733	6.58827209473
57.6878852844	16.0463466644	-6.42864179611	7.17295074463	13.8587827682	6.64601325989
61.7520637512	22.003868103	-6.39215183258	6.24378204346	13.7072429657	7.1665930748
63.6428070068	25.5805454254	-7.91404819489	3.70553159714	14.7104148865	7.58693027496
70.303276062	29.5381813049	-7.17926645279	1.74157631397	15.7980833054	7.35449409485
79.6426239014	32.4780235291	-5.20902919769	2.10694789886	15.5232686996	7.39504623413
89.9792633057	34.2946815491	-0.993463873863	3.21046757698	14.8029336929	7.45244646072
98.3143692017	33.7397422791	3.65909695625	4.0868730545	14.9210548401	7.39702987671
93.6736984253	25.3061103821	8.33913803101	4.22198486328	15.2284212112	7.1708073616
77.2615203857	10.5704889297	12.8735084534	4.25941181183	15.3701705933	6.88739967346
66.5576629639	-0.221772089601	23.043170929	4.5345158577	15.7600250244	6.68512058258
59.5161132812	-12.4507789612	36.6445274353	5.64776325226	16.3910274506	6.4916343689
49.5557670593	-19.8609848022	46.812789917	7.04623556137	16.9498920441	6.40084838867
36.1399307251	-24.0529308319	56.7019729614	8.22642612457	17.1627368927	6.33559179306
44.2780303955	-17.430809021	38.2308540344	8.98070240021	17.2234230042	6.5813794136
59.9479560852	4.97890424728	9.62813282013	8.51093101501	16.9238204956	6.97046899796
74.0668106079	20.6014766693	1.70865190029	6.34898996353	16.08344841	7.395362854
81.5623245239	17.2679100037	8.75852108002	2.79605460167	15.0520410538	8.04552459717
89.5749740601	22.496805191	10.6842727661	0.306400984526	14.5075111389	8.38216114044
92.8077163696	16.716135025	13.6542863846	-0.203476041555	14.339838028	8.34084415436
81.0549163818	2.33939146996	13.5794734955	1.1352134943	14.6979217529	8.00374412537
73.1529541016	-2.81220340729	13.715130806	4.19799947739	15.725063324	7.62026643753
69.2964096069	-4.62771272659	13.8398952484	7.8770236969	16.523771286	7.39342403412
66.4312362671	-6.11820697784	15.3778352737	10.4384641647	16.9204483032	7.19608306885
65.2517852783	-5.32537174225	14.723900795	10.7847766876	16.885219574	6.9488325119
63.8250274658	-0.160988494754	10.0448980331	9.95900535583	16.8520832062	6.82770776749
63.6874923706	12.5216093063	2.54927277565	9.33528804779	16.9959144592	6.99811220169
58.4622879028	1.44849789143	8.30478191376	8.85404014587	17.1466960907	6.97920036316
46.1838150024	-17.6995258331	19.5493545532	8.44342708588	17.1701698303	6.60810995102
24.2899436951	-30.1314849854	32.2379837036	8.21739292145	16.997631073	6.43956804276
-2.37317967415	-33.6518287659	60.5046539307	8.080701828	16.7201976776	6.63792419434
-17.8979187012	-30.3394889832	77.7220535278	7.91928100586	16.3162078857	6.69643306732
-33.1923828125	-22.2809047699	97.754234314	7.66232442856	15.8592205048	6.63819360733
-37.7398376465	-20.7091064453	101.958129883	7.91635704041	15.7536058426	6.55620002747
-32.9493980408	-30.9407081604	89.173828125	8.34713745117	15.7616643906	6.69137334824
0.382629811764	-44.0136184692	42.1114349365	8.41559028625	15.5575094223	7.19368314743
38.3910598755	-34.9171257019	-10.0054702759	8.20642948151	15.3110494614	7.70915937424
52.516040802	-13.421705246	-35.1596488953	7.9547700882	15.2972755432	7.80672454834
58.5317115784	-0.626331746578	-47.9281845093	7.82661151886	15.094575882	7.74905061722
62.2752838135	3.04451966286	-50.7249259949	6.70850849152	14.3127059937	8.03309440613
62.892539978	4.30862855911	-52.9916610718	3.0705974102	13.4016494751	8.38291740417
64.552734375	3.9127933979	-51.7620697021	-2.74292492867	14.5936260223	8.42690753937
65.5626907349	5.10278701782	-51.572971344	-5.54403209686	16.7096920013	7.68975305557
67.8494567871	5.53365564346	-51.8810119629	-3.89160323143	16.5015487671	7.62775945663
70.2815856934	7.66381502151	-53.3484764099	-1.91981494427	15.8601160049	7.89025115967
