-119.187347412	-56.065700531	141.567565918	4.26092529297	-1.11305081844	-0.764159500599
-119.524627686	-56.6795959473	141.12336731	4.04310274124	-1.14246916771	-0.70061558485
-119.238639832	-56.9238166809	140.342758179	4.08235740662	-0.784639835358	-0.61822026968
-120.199325562	-61.0367164612	136.617218018	5.09588813782	-0.420010060072	-0.502761602402
-118.752479553	-73.1076507568	122.640151978	6.29855537415	-0.146565034986	-0.0415339879692
-108.185531616	-84.2704162598	105.217857361	6.5663523674	-0.0725591257215	0.327105522156
47.1195640564	-83.419303894	-54.7992591858	5.80172157288	-0.439352154732	0.912602066994
53.2886123657	-71.8691711426	-65.0895690918	5.34659004211	-0.640536606312	1.69026148319
55.2277946472	-70.2524032593	-66.5894241333	5.22453832626	-0.647534310818	2.38124299049
53.8698158264	-70.7288894653	-65.5020751953	4.74650382996	-0.699934184551	2.99396348
51.8617858887	-72.883934021	-62.2896995544	3.66170716286	-0.651305377483	3.43971800804
48.985748291	-74.4055709839	-58.7318725586	2.61652755737	-0.453493207693	3.65191316605
