-102.706306458	-60.4954719543	133.124084473	4.86527729034	-0.259193897247	-0.0356976352632
-102.20035553	-60.6343574524	132.413742065	4.753054142	-0.233010903001	0.202526137233
-101.8463974	-60.6959877014	131.822616577	4.42195987701	-0.707810282707	0.361823916435
-101.800285339	-61.1587944031	130.824462891	2.79895997047	-2.43634152412	0.310017555952
-102.349884033	-61.3508262634	130.451889038	-1.37012922764	-5.94452905655	0.285414665937
-102.984970093	-61.7611503601	130.083724976	-6.76021385193	-9.86941623688	0.853957414627
-104.47038269	-64.6853713989	127.471237183	-11.9774770737	-13.0648908615	2.32926082611
-105.526947021	-72.3653259277	121.325401306	-14.4183673859	-14.8422632217	3.77035331726
-106.286720276	-76.4268341064	118.501838684	-14.7232456207	-15.9968328476	4.54014444351
-104.403533936	-79.3506011963	113.893226624	-14.3698062897	-16.8131217957	4.80547761917
-103.734191895	-81.9910812378	110.122077942	-14.1271734238	-17.6156997681	4.83625221252
-101.327911377	-84.0728149414	104.980918884	-13.9838075638	-18.3677997589	4.95342493057
-93.1933517456	-86.207611084	93.4875564575	-13.6911773682	-18.8401966095	5.07958316803
-81.7002182007	-88.1599884033	79.0719680786	-13.233300209	-19.1355171204	5.00491189957
-74.4194488525	-89.0821762085	70.7233810425	-12.7662506104	-19.1054840088	4.81753349304
-18.9112243652	-89.5410232544	14.6139717102	-12.4457874298	-18.8051872253	4.76977968216
55.7911109924	-88.1634292603	-61.4488601685	-12.1957006454	-18.8025932312	4.70650339127
55.3363380432	-88.3024291992	-60.72631073	-12.0799102783	-18.906457901	4.73397731781
-74.4484558105	-89.3754806519	70.6527633667	-12.1178045273	-18.8331890106	4.86812925339
-66.5818252563	-89.4523773193	62.8236198425	-12.0434131622	-18.7245750427	4.81373071671
-87.22706604	-89.4855728149	83.7793807983	-11.8910923004	-18.7070083618	4.76448583603
-125.508552551	-89.5883865356	122.201057434	-11.7424669266	-18.8964347839	4.69227600098
-171.235427856	-89.6007385254	167.928833008	-11.4310684204	-19.0156803131	4.33120155334
60.0028114319	-89.3826828003	-63.5426101685	-10.7307748795	-18.4605064392	3.67332839966
29.5497570038	-88.0257797241	-33.0075569153	-10.0457849503	-17.3619060516	3.21989130974
19.7601051331	-87.0421142578	-23.4182929993	-9.93815231323	-16.1084060669	3.17414855957
16.7945461273	-86.5768661499	-20.4655075073	-9.95540332794	-14.6470251083	3.11843943596
14.4327449799	-86.4652862549	-18.025226593	-10.5812625885	-13.7994852066	3.2698431015
28.0837268829	-86.0910263062	-31.6225357056	-11.7428121567	-13.3893918991	3.49691414833
25.5393733978	-85.7400054932	-28.9018344879	-12.7919645309	-13.0151367188	3.31325864792
5.71695184708	-84.8104095459	-8.73363208771	-13.3829107285	-11.09532547	2.93989658356
-8.49639511108	-82.9199752808	5.32458496094	-13.1517095566	-9.36910915375	3.23944807053
-11.3625011444	-83.2686538696	7.29927968979	-12.4864330292	-10.0797777176	3.41786980629
-10.7111358643	-82.9569702148	6.26599502563	-12.6436414719	-10.6745262146	3.49949502945
-20.0947933197	-82.5440444946	15.3629179001	-12.0779600143	-11.0507049561	3.39858675003
-18.5675830841	-82.302192688	14.2232618332	-12.2402954102	-11.3884057999	3.5231795311
-15.9132661819	-82.065826416	11.2650909424	-11.1792459488	-11.9503030777	3.23588824272
-3.75598239899	-81.6009063721	-2.77233195305	-11.1158704758	-12.0486812592	3.88771533966
-5.24805545807	-81.5733032227	-0.833406865597	-13.3439798355	-12.0554847717	5.03400802612
-17.4869155884	-81.846572876	13.7238931656	-16.2070903778	-12.3668813705	5.59261703491
-24.304069519	-81.9179763794	21.7303142548	-17.9459152222	-12.9583997726	5.93615007401
-26.9998378754	-82.5605621338	25.3292617798	-18.0779457092	-13.973982811	5.92403650284
-18.3342170715	-83.2409591675	16.5458087921	-17.0788154602	-14.7820186615	5.63444566727
-13.1701841354	-82.9402313232	10.8758411407	-16.3692436218	-14.849779129	5.38861131668
-10.5638856888	-82.7279586792	7.93756961823	-16.1479110718	-14.5852851868	5.29741287231
-12.9831266403	-83.0028381348	10.8412456512	-16.2180538177	-14.6028518677	5.2759642601
-35.331413269	-83.8805999756	36.7291107178	-16.1555747986	-14.6671733856	5.27415752411
-53.6524047852	-86.7409057617	55.2427482605	-15.9434585571	-14.4988040924	5.54241514206
-67.6673660278	-86.2207794189	69.7373199463	-15.2746171951	-13.6683998108	5.61561822891
-70.8497772217	-86.3324432373	73.7811279297	-13.9804286957	-13.3263549805	4.89284801483
-83.27003479	-85.795211792	87.9400939941	-12.3600301743	-13.6893177032	3.7094271183
-83.5963592529	-85.9716949463	88.1706924438	-10.725227356	-14.8563289642	1.73473989964
-85.2030334473	-85.7324829102	89.2860336304	-10.1258420944	-16.5226650238	-0.533076822758
-85.0863037109	-85.7216796875	88.5112991333	-10.8094911575	-17.5905151367	-1.70769834518
-86.0353469849	-85.6590118408	89.0619659424	-11.9298629761	-18.9629611969	-2.4095826149
-85.2141189575	-86.0457077026	87.4545135498	-12.4262781143	-19.8822135925	-2.58825945854
-82.6875839233	-86.7937316895	83.9853973389	-12.50644207	-20.7118778229	-2.156437397
