-118.127044678	-64.950012207	133.901260376	3.1905105114	-2.73146057129	-2.23171544075
-118.183952332	-65.1381530762	133.58883667	3.00003027916	-2.92748975754	-2.01747727394
-117.571914673	-65.0773925781	132.85345459	2.60490369797	-3.07910728455	-1.81066501141
-117.384284973	-66.2065429688	130.734237671	0.721347510815	-3.10458660126	-1.16482257843
-117.283927917	-67.4647903442	129.244003296	-3.80060601234	-3.34670615196	-0.27553537488
-115.697319031	-68.1979675293	127.051834106	-9.74967479706	-3.33305048943	0.779359698296
-113.987327576	-68.1399307251	125.137825012	-16.6345844269	-2.87509703636	1.98881709576
-114.018173218	-68.7184677124	124.619918823	-21.4454975128	-2.28017187119	2.99183106422
-112.891929626	-69.5953292847	122.841552734	-22.0803375244	-1.86473953724	3.84151291847
-106.775009155	-73.4817352295	113.623657227	-21.0846767426	-1.70894515514	4.07562017441
-101.807403564	-75.4811782837	107.185462952	-20.7221260071	-1.55577361584	3.93565225601
-101.410629272	-75.3440856934	107.21787262	-20.5361881256	-1.4797642231	4.00677347183
-98.918838501	-75.8608016968	104.356529236	-20.5913047791	-1.55193305016	4.07039165497
-90.7174758911	-78.4533920288	93.379989624	-20.9522399902	-1.54339706898	4.32606983185
-80.6338729858	-81.0163040161	80.3461456299	-21.4467906952	-1.33289790154	4.51079893112
-80.252571106	-81.3064880371	79.6469039917	-21.3433609009	-1.02486789227	4.51643657684
-79.3427505493	-82.054145813	78.3449554443	-20.9140758514	-0.817279458046	4.43208217621
