0.260059356689	1.41819405556	-0.0720026493073	0.0652184486389	1.71820139885	-0.315313816071
0.259562253952	1.41822576523	-0.0717358589172	0.0646924972534	1.71825265884	-0.314590215683
0.258936405182	1.41732871532	-0.071489572525	0.0647034645081	1.71842694283	-0.313720226288
0.259273052216	1.41875231266	-0.0743083953857	0.0636024475098	1.71860539913	-0.312078475952
0.259562730789	1.42074322701	-0.0792012214661	0.0605826377869	1.71877658367	-0.30956196785
0.259394407272	1.42048060894	-0.0818364620209	0.0567038059235	1.71863019466	-0.307002663612
0.258376836777	1.42026972771	-0.0843390226364	0.0526585578918	1.71879935265	-0.304306030273
0.259361028671	1.42336022854	-0.0875355005264	0.0507292747498	1.71939301491	-0.30175614357
0.261225938797	1.4278293848	-0.0907059907913	0.0502188205719	1.71971011162	-0.299510478973
0.262448549271	1.43172621727	-0.0921430587769	0.0493462085724	1.71978390217	-0.297572135925
0.268196582794	1.43760919571	-0.0936493873596	0.0484936237335	1.72030842304	-0.296681404114
