0.203127622604	1.54917538166	-0.0335037708282	0.0825142860413	1.72013998032	-0.343392372131
0.201349258423	1.54794085026	-0.0325713157654	0.0819232463837	1.72003364563	-0.342944145203
0.19957780838	1.54676270485	-0.0325531959534	0.080436706543	1.72148132324	-0.342465281487
0.197607517242	1.54513120651	-0.0316586494446	0.0763454437256	1.72667264938	-0.342429161072
0.196232795715	1.54568064213	-0.0313704013824	0.0698230266571	1.73467957973	-0.344756007195
0.195888757706	1.54981422424	-0.0316268205643	0.0620534420013	1.74177968502	-0.348536968231
0.19726729393	1.55820512772	-0.0331602096558	0.0555579662323	1.74576830864	-0.352753043175
0.195019960403	1.56457769871	-0.0345577001572	0.0532970428467	1.74686789513	-0.355244159698
0.190741300583	1.56475293636	-0.0343294143677	0.0546436309814	1.74745237827	-0.356175780296
0.185762882233	1.56183636189	-0.0322287082672	0.0571317672729	1.74761676788	-0.357300400734
0.183122396469	1.56085336208	-0.0317232608795	0.0591175556183	1.74832963943	-0.359190940857
0.185020446777	1.56353116035	-0.0328812599182	0.059672832489	1.74977612495	-0.361461877823
0.189419269562	1.56688845158	-0.0321505069733	0.0599598884583	1.75163936615	-0.36452960968
0.194013834	1.56877684593	-0.0311489105225	0.0607407093048	1.75337970257	-0.368130803108
0.194436311722	1.56876397133	-0.0312230587006	0.0613605976105	1.75495266914	-0.371616125107
0.193424940109	1.56880438328	-0.0311808586121	0.0621690750122	1.75636458397	-0.375106811523
0.19256067276	1.56981468201	-0.0322480201721	0.0636811256409	1.75789690018	-0.37864112854
0.192247390747	1.57124841213	-0.0333623886108	0.0653412342072	1.75895357132	-0.381668448448
0.191581726074	1.57182109356	-0.0338994264603	0.066920042038	1.75975930691	-0.384548783302
0.190901994705	1.57193434238	-0.0351593494415	0.0676298141479	1.76057553291	-0.386377334595
0.191215515137	1.57155489922	-0.0364657640457	0.0675575733185	1.76105320454	-0.386490345001
