0.431115150452	1.4100022316	0.112098574638	0.16126537323	1.72518455982	-0.231022596359
0.43062210083	1.40989589691	0.112283587456	0.159853696823	1.72483181953	-0.229643821716
0.430718660355	1.40906727314	0.112633228302	0.159603357315	1.72440695763	-0.228580951691
0.431365013123	1.41015672684	0.111791849136	0.159387588501	1.72460734844	-0.227994561195
0.432425260544	1.41601204872	0.110393404961	0.156211853027	1.72570776939	-0.226949453354
0.432866573334	1.42376804352	0.108686804771	0.150661230087	1.72713851929	-0.225930690765
0.432244062424	1.42629599571	0.108747124672	0.145636081696	1.72829771042	-0.224998950958
0.433902978897	1.42785060406	0.109795808792	0.141617774963	1.72863280773	-0.223395228386
0.439422130585	1.43182551861	0.109745025635	0.139497756958	1.72814202309	-0.221431016922
