0.378578662872	1.42243468761	-0.00399374961853	0.182522296906	1.7178529501	-0.343935132027
0.374998569489	1.42185509205	-0.00297784805298	0.179966211319	1.71681964397	-0.341455698013
0.371204614639	1.42085170746	-0.00219655036926	0.176733016968	1.71562159061	-0.338424086571
0.367953062057	1.42275643349	-0.00474905967712	0.172128677368	1.71480178833	-0.33514046669
0.365107059479	1.4237575531	-0.00424778461456	0.166866779327	1.71591937542	-0.332186102867
0.362813711166	1.42562484741	-0.00561761856079	0.164149045944	1.71683943272	-0.329410076141
0.360134124756	1.42464959621	-0.00396585464478	0.163918495178	1.71684801579	-0.326527833939
0.361659049988	1.42667925358	-0.00215232372284	0.164313316345	1.71689224243	-0.324162483215
0.363558292389	1.42744219303	-0.00206243991852	0.164346694946	1.7172563076	-0.322694540024
0.364455223083	1.42911028862	-0.00222253799438	0.164146184921	1.7175090313	-0.321938753128
0.365069150925	1.43094003201	-0.00188446044922	0.16432261467	1.71773540974	-0.321534156799
