0.191419839859	1.54147768021	-0.0371046066284	0.0935521125793	1.72563588619	-0.356458544731
0.191327571869	1.54098653793	-0.0376501083374	0.092782497406	1.72569870949	-0.356473922729
0.191056489944	1.54059720039	-0.0376796722412	0.0914907455444	1.72751533985	-0.356412768364
0.191477537155	1.54179346561	-0.0384074449539	0.0876450538635	1.73401892185	-0.358397245407
0.191030263901	1.54528069496	-0.0386060476303	0.0811305046082	1.74275398254	-0.362877607346
0.191182136536	1.55002427101	-0.0397107601166	0.073793888092	1.74896132946	-0.368042349815
0.191998243332	1.55456781387	-0.0414185523987	0.0685484409332	1.75182425976	-0.37179672718
0.192645549774	1.55878806114	-0.0414515733719	0.0665791034698	1.75296735764	-0.373641490936
0.192509651184	1.56186771393	-0.0407686233521	0.0671002864838	1.75396645069	-0.374017000198
0.192499637604	1.563357234	-0.0387670993805	0.0673673152924	1.75450766087	-0.373897910118
0.193007469177	1.56412541866	-0.0365159511566	0.0668807029724	1.75457644463	-0.373214840889
0.193646430969	1.56506109238	-0.034722328186	0.0660331249237	1.75417363644	-0.37226319313
0.195074558258	1.56679773331	-0.032714009285	0.0654237270355	1.75420165062	-0.37125813961
0.197668790817	1.5680347681	-0.029509305954	0.0645241737366	1.75445055962	-0.37065756321
0.200093746185	1.56817531586	-0.0269277095795	0.0635180473328	1.75480639935	-0.370012998581
0.199814796448	1.56750071049	-0.0259401798248	0.0625925064087	1.75504016876	-0.369326114655
0.198541402817	1.5669863224	-0.0250186920166	0.0617692470551	1.75532996655	-0.368432998657
0.196465969086	1.56653141975	-0.0244479179382	0.0612633228302	1.75547206402	-0.367530345917
0.196977376938	1.56690943241	-0.02294921875	0.0612766742706	1.75622820854	-0.367114782333
0.196394205093	1.5660957098	-0.0217858552933	0.0616507530212	1.75728869438	-0.36693072319
0.194979429245	1.56540083885	-0.0200393199921	0.0616028308868	1.75797426701	-0.36661863327
0.194789409637	1.56476998329	-0.0187692642212	0.0619037151337	1.75843238831	-0.366240978241
