-118.794487	-63.0213813782	136.692581177	5.82291460037	1.33780133724	1.53320872784
-118.421318054	-62.8739433289	136.055053711	5.76579189301	1.42864096165	1.67763793468
-117.789756775	-63.1665077209	134.814224243	5.31845664978	0.634489834309	1.65142142773
-117.25062561	-65.1800537109	132.170013428	3.36785268784	-2.47642254829	0.959018051624
-115.130523682	-65.4006195068	129.082733154	-0.792699873447	-7.86907100677	-0.0594604276121
-114.863067627	-66.8045959473	127.064491272	-5.85183286667	-12.6134328842	-0.390393346548
-115.338371277	-69.2435379028	124.475982666	-10.0390310287	-15.4949197769	0.142161741853
-115.360809326	-74.1655883789	118.165794373	-11.4620580673	-17.2554302216	0.574077546597
-111.414237976	-76.3025741577	111.432044983	-11.3090677261	-18.6996307373	0.820836544037
-105.373390198	-77.758682251	103.787246704	-11.3118715286	-19.9576683044	0.975740253925
-97.50025177	-78.5198364258	94.0039520264	-11.2663469315	-21.1967430115	0.982555747032
-90.7031021118	-78.0686035156	86.1554260254	-11.1229343414	-21.7377471924	0.997296094894
-83.4722366333	-77.9513320923	77.2177352905	-10.652340889	-21.58934021	0.828164458275
-79.2670516968	-78.2436752319	71.4160308838	-10.091999054	-21.4458618164	0.599397480488
-78.0823516846	-77.5389633179	69.9987030029	-10.0186510086	-21.3763141632	0.652250945568
-75.5347137451	-77.9789428711	67.1992721558	-10.2159576416	-21.6064033508	0.772657155991
