-0.519211769104	-3.89585924149	-14.1726179123	8.86898517609	18.8790359497	34.6900024414
-0.530306816101	-3.95946907997	-14.1876020432	8.88220119476	18.8422088623	34.6551208496
-0.559488713741	-4.04108095169	-14.2954597473	8.92396831512	18.8567619324	34.6072311401
-0.423000097275	-3.96205544472	-14.5661306381	8.93619537354	18.9117565155	34.337184906
0.202625796199	-3.97256398201	-15.6445331573	8.89302825928	19.0361347198	34.0771179199
1.8288705349	-4.50818586349	-18.7680664062	8.61602973938	19.0812606812	33.70570755
2.780605793	-5.05031728745	-22.6780776978	6.85397958755	19.3212051392	31.4796257019
2.34641575813	-5.07983064651	-23.723197937	2.86824226379	20.0496273041	25.8872394562
2.17810916901	-5.31414031982	-23.7666950226	-1.22800338268	20.8530349731	19.6984348297
2.02488589287	-5.49640703201	-23.7753391266	-3.05312347412	21.2777862549	15.2476549149
1.93167746067	-5.47584342957	-23.8846664429	-2.14111471176	21.6611766815	13.3732967377
1.94498884678	-5.52367019653	-24.2210254669	-0.0356263592839	22.5454750061	13.3201665878
2.05485272408	-5.531727314	-24.4827232361	0.924346864223	23.3596038818	13.9913482666
2.13130402565	-5.38659524918	-24.5555667877	0.752670407295	24.4323291779	14.6379480362
1.91200041771	-5.29221153259	-24.6429748535	0.64731323719	25.9856529236	15.0360879898
1.93645715714	-4.99875307083	-24.9698505402	0.90180426836	27.5532417297	15.1259098053
2.04390287399	-4.33832406998	-25.7379455566	1.72749054432	28.300743103	15.4045438766
2.36640381813	-3.7412147522	-26.6674842834	2.21740937233	28.4188156128	15.7532310486
2.33728265762	-2.28672099113	-27.5034599304	2.03651332855	28.4874687195	15.8323497772
2.4586493969	-0.887739956379	-28.0296611786	1.82155954838	28.5333995819	15.7164554596
2.04015922546	0.370852142572	-28.3124980927	1.9132399559	28.516166687	15.6629199982
1.40332627296	0.632628440857	-28.4725856781	1.87386798859	28.3841114044	15.6363964081
0.777189075947	0.336212515831	-28.3775806427	1.46015310287	28.1980609894	15.5899991989
