-58.8295135498	-11.2040653229	-4.14165115356	-32.4137077332	17.3379974365	-33.6218185425
-58.8936424255	-11.3189191818	-4.10756587982	-32.3355140686	17.2983341217	-33.5038299561
-59.0956459045	-11.3201541901	-4.16081905365	-31.9923152924	16.9287490845	-33.1521644592
-59.0530395508	-11.3026809692	-4.13431692123	-30.8876190186	17.1859474182	-32.3435668945
-58.7974472046	-11.6717042923	-4.14281272888	-30.543428421	17.6738910675	-32.2131271362
-58.6544914246	-11.6155853271	-4.28911876678	-30.5511894226	18.9650535583	-32.2963409424
-58.3409996033	-11.3920927048	-4.67027139664	-29.4418907166	22.5171737671	-31.5575294495
-58.1619873047	-11.7397689819	-5.11186981201	-26.2952804565	27.3307094574	-30.0504245758
-57.9396934509	-12.1218528748	-5.36251783371	-21.5590324402	32.4399147034	-27.0087203979
-57.2138328552	-12.8041772842	-6.61016845703	-16.6958446503	35.1645202637	-23.4846534729
-55.8010215759	-12.9472351074	-7.80232524872	-14.1362056732	35.4249992371	-21.8857593536
-53.6520347595	-12.7567405701	-9.5624256134	-13.3005475998	34.8724060059	-21.364610672
-52.3932380676	-11.2065811157	-11.5126695633	-12.4639291763	34.3974342346	-20.2824344635
-51.159122467	-8.74791240692	-15.4434585571	-11.0094499588	34.0851898193	-18.0985984802
-50.3359565735	-5.84051561356	-20.2549266815	-9.45188331604	34.1139183044	-15.6594514847
-48.9325294495	-2.62578225136	-24.1493816376	-8.05129241943	34.5082931519	-13.726855278
-49.6277542114	2.24825739861	-26.3621730804	-7.54728031158	34.8129196167	-12.4766263962
-51.0834579468	5.45552873611	-27.9903297424	-8.12400627136	34.7322349548	-12.1572828293
-51.9795227051	6.9847278595	-28.484041214	-8.66063308716	34.1608200073	-11.6169185638
-47.9953765869	4.140853405	-28.3335552216	-8.54289722443	33.1257209778	-10.5547237396
-42.5563926697	-2.33097219467	-35.9447746277	-7.86408853531	31.9819583893	-8.99521160126
-37.2255744934	-7.92027902603	-47.8179931641	-6.99668312073	30.9789466858	-7.31163454056
-35.6015090942	-10.7572698593	-56.4588012695	-6.56233167648	30.4706993103	-5.66786718369
-31.4989185333	-13.0869207382	-67.7801055908	-6.91049098969	30.3208847046	-4.79708480835
-24.4093799591	-13.3838691711	-84.399810791	-7.88202810287	30.1603031158	-4.64193153381
-18.7551269531	-12.7378807068	-97.755279541	-8.59884166718	30.0311203003	-4.71052742004
-16.1289024353	-11.4835109711	-101.095458984	-8.52488994598	30.0323371887	-4.7991938591
-14.786907196	-13.2788438797	-87.5027923584	-7.74209260941	30.0362987518	-4.72416496277
-17.6030864716	-16.5724945068	-67.2219543457	-7.20071792603	30.7986507416	-5.869617939
-24.1939849854	-17.1186161041	-43.6015167236	-7.12719345093	31.8712158203	-9.3632774353
-27.6724853516	-16.9665794373	-38.605682373	-6.80936861038	31.8916149139	-11.1977558136
-31.4687137604	-17.9952144623	-35.0214691162	-6.09010219574	31.3309230804	-11.2431774139
-36.5633926392	-19.8029346466	-32.2024650574	-6.00770616531	30.6367931366	-11.240483284
-31.8031253815	-20.2335910797	-40.2647171021	-6.38452148438	30.4071388245	-11.2554931641
-26.8477268219	-19.7036628723	-51.8818206787	-6.90616989136	30.6672382355	-11.4896383286
-25.9191246033	-17.3835353851	-50.6597251892	-7.03717517853	30.8322925568	-11.4879589081
-26.0709514618	-17.0912532806	-46.231590271	-7.1421380043	30.6997528076	-11.2677497864
-26.6169281006	-17.5608558655	-38.6231384277	-7.36112594604	30.5545082092	-11.0883722305
-26.3574638367	-17.1431865692	-35.9362411499	-7.3873257637	30.4419651031	-11.0037670135
-27.1489677429	-15.2323236465	-34.3549842834	-7.49034309387	30.4059925079	-10.9639959335
-29.3461399078	-11.6461629868	-30.6427459717	-7.48343992233	30.4704456329	-10.7890434265
-30.3498001099	-8.00661563873	-28.4141559601	-7.45028209686	30.4466495514	-10.5983486176
-31.5698375702	-4.55766105652	-27.3888702393	-7.41903114319	30.2598495483	-10.1457138062
-34.2809448242	0.693696081638	-25.4918289185	-7.40051364899	29.658203125	-9.35938644409
-37.4744873047	6.77849197388	-23.3906173706	-7.244099617	29.1255435944	-8.42186450958
-40.097076416	10.2551107407	-23.0395717621	-7.3246049881	28.964717865	-7.62837982178
-41.7564888	12.2891273499	-23.0402755737	-7.42172718048	29.0460205078	-7.29389238358
-42.8429260254	12.689620018	-24.3894500732	-7.18193912506	29.2376594543	-7.21607017517
-41.3016700745	10.8848018646	-24.7662220001	-6.69235229492	29.3303871155	-6.94446372986
-37.2423324585	5.18923568726	-24.4367160797	-6.39486980438	29.1640548706	-6.42525291443
-30.1512241364	-3.14777374268	-30.3077030182	-6.22189426422	29.094247818	-5.83831930161
-23.0585403442	-8.69011497498	-42.98620224	-6.26213216782	28.9314212799	-5.05925035477
-15.0493974686	-9.77274131775	-69.1858062744	-6.42815971375	28.8513011932	-4.5041680336
-10.2385568619	-5.20618677139	-96.049369812	-6.58862352371	29.0068664551	-4.32122898102
-5.65481853485	1.12253987789	-114.877746582	-6.58672857285	29.0754299164	-4.31458854675
-3.37796258926	6.95445251465	-128.475646973	-6.49597978592	28.9304790497	-4.21752023697
-0.370154798031	12.2933416367	-141.105941772	-6.42361736298	28.6487827301	-3.97700881958
2.93463206291	17.3616771698	-151.52583313	-6.41260480881	28.5027999878	-3.82773137093
4.04780912399	21.1100292206	-156.913116455	-6.26263713837	28.7801876068	-3.82571148872
5.38181591034	24.3462772369	-158.931976318	-6.02372169495	29.0404243469	-3.77686715126
8.5928850174	27.5260505676	-158.366241455	-5.97915315628	29.3867263794	-4.14016962051
10.5182962418	29.3625507355	-158.786712646	-5.87669754028	29.2989768982	-5.00062513351
10.8641290665	29.6208000183	-159.039398193	-6.33430242538	29.4836788177	-5.88569259644
11.2931528091	29.7065448761	-158.941162109	-6.43623304367	29.7823028564	-6.08166074753
11.1969976425	29.4996776581	-159.092727661	-4.60522031784	30.347284317	-4.12130689621
11.3118638992	28.9084320068	-158.568557739	-1.6111805439	31.1281738281	-0.464468330145
11.2171840668	28.6304359436	-158.350341797	0.844583451748	31.3745269775	2.13832330704
11.4850530624	28.2893333435	-157.52532959	-1.72223365307	31.0768470764	-0.167311266065
11.3993701935	28.1371307373	-157.09387207	-8.43755340576	30.7691497803	-5.78033161163
11.169670105	27.8885135651	-156.700164795	-16.5493164062	29.9559860229	-12.753739357
