-72.8317260742	-52.3606338501	140.01399231	7.83564043045	3.65964841843	1.81226527691
-72.9074935913	-52.6907958984	139.757659912	7.72949934006	3.72588562965	1.89362597466
-72.7357635498	-52.8716239929	139.389923096	7.62256574631	3.82444787025	2.01249670982
-71.1536178589	-54.420753479	136.0131073	7.96785354614	3.33653235435	2.11392855644
-62.0112571716	-62.0220756531	119.410636902	8.26213359833	1.98322212696	3.2025847435
-38.395740509	-68.7226028442	85.5422897339	7.22945690155	0.613300979137	5.68749761581
3.66880273819	-68.3545303345	31.5458812714	5.26544523239	-0.255621939898	8.08170509338
27.6362056732	-62.1526451111	2.07236766815	3.67491769791	-0.912526726723	10.5636129379
41.0784492493	-54.0663909912	-17.319568634	2.70630145073	-2.30172610283	14.1533908844
50.9831695557	-42.8927688599	-32.9085502625	2.72288703918	-3.26390028	17.4589691162
56.4100532532	-31.4241828918	-43.4186897278	5.58499336243	-3.24340128899	18.2274284363
58.6627502441	-23.7487182617	-50.1591377258	9.01420783997	-4.17242050171	18.7249851227
59.8513755798	-18.8642520905	-53.0750999451	10.4830722809	-5.24706029892	19.8555107117
60.6893882751	-13.2893104553	-55.9644813538	10.6210279465	-5.67868232727	20.6668109894
61.8873596191	-6.35787391663	-59.4049682617	10.8780517578	-5.549015522	21.0872249603
63.1150245667	-1.09961426258	-62.6231880188	11.4662342072	-5.36111497879	21.4234714508
63.2723655701	4.66283369064	-66.486831665	11.7107286453	-5.26592540741	21.7876110077
63.2676391602	3.75071501732	-66.9747848511	11.9298505783	-5.74787998199	21.9866123199
62.9481163025	2.20588326454	-68.0590744019	12.2073326111	-7.22474193573	22.3751678467
63.0323829651	0.998418271542	-68.3296051025	12.1070747375	-7.83142518997	22.9097957611
63.0131530762	0.709504365921	-68.9363555908	12.4682416916	-7.54074811935	23.3063144684
63.2165107727	0.0401822440326	-69.1643371582	14.1109209061	-7.35481452942	23.3322162628
63.4895553589	-0.307105988264	-69.1121063232	15.9298019409	-7.60101461411	23.1764755249
63.5515174866	-0.675710678101	-69.061668396	17.2168827057	-7.95509195328	23.024766922
63.8402557373	-0.917381703854	-68.9968109131	17.0961418152	-8.09486484528	22.9874649048
64.12915802	-1.15839624405	-68.7058486938	16.3371143341	-8.78614997864	22.7395534515
64.3899078369	-0.995706379414	-68.2824554443	16.1830997467	-8.82361125946	23.1598987579
64.520324707	-1.14737081528	-67.9209976196	16.31092453	-8.5971698761	23.5425701141
64.4613876343	-1.7428394556	-67.8097915649	16.363067627	-8.36740493774	23.9851665497
64.4203796387	-2.40392637253	-67.6490707397	16.5328083038	-8.86394309998	24.3368873596
64.1756668091	-1.39950609207	-68.0624313354	16.5317440033	-9.12836742401	24.3173484802
64.3706359863	-3.28703689575	-67.1186828613	16.8890953064	-8.08762836456	23.7900218964
62.741394043	-8.68950557709	-62.7254142761	16.8726730347	-5.26821660995	22.3895759583
62.0555419922	-15.0035810471	-60.4441070557	17.0740089417	-2.99844622612	20.7828006744
61.6541061401	-11.9771652222	-64.7637863159	17.1637516022	-3.2686522007	20.280790329
62.7500762939	-6.37251472473	-70.5976791382	16.2241439819	-4.11714267731	20.6550769806
64.1411514282	1.99520230293	-74.7846374512	15.1506147385	-3.98522162437	21.1819705963
67.1784286499	8.53857040405	-76.6061477661	14.7643117905	-3.87049388885	21.8247089386
67.9129257202	11.9729948044	-77.6497879028	14.5117492676	-4.92477750778	22.5119743347
67.8838424683	15.2868938446	-78.2844467163	13.4344100952	-6.38354969025	24.0056877136
68.4358673096	15.6528635025	-77.7120285034	12.3979682922	-6.741065979	24.9172763824
68.6051254272	15.6166133881	-78.1619262695	13.1309709549	-7.58796930313	25.4819526672
68.9889602661	16.6976680756	-78.854598999	14.6079177856	-8.46767711639	26.1683006287
69.9540939331	18.837808609	-78.857421875	15.1916208267	-8.50510406494	26.7501964569
70.8491821289	21.6346702576	-79.5288467407	15.0261917114	-8.01313495636	26.7148590088
71.4620819092	16.1472396851	-77.5515975952	14.9902019501	-7.55198335648	26.2225875854
69.6707229614	-0.272593975067	-69.8394927979	15.3998289108	-6.87084770203	25.2363700867
67.5871429443	-14.8691387177	-64.1948471069	16.0483398438	-6.48176240921	24.2444381714
62.6714439392	-22.3154296875	-60.3312263489	16.4436855316	-6.4815454483	23.6066417694
57.5391159058	-37.087223053	-48.2899665833	16.3392562866	-6.58467960358	23.2845230103
48.6929283142	-51.7745895386	-29.5551872253	16.4557857513	-6.45483970642	22.8610916138
6.61663389206	-64.4650192261	30.7832298279	16.9969997406	-5.99775266647	22.0661144257
-29.2432193756	-54.5849456787	76.1979217529	17.3841228485	-5.33819627762	20.6283245087
-32.202747345	-54.6340370178	83.8432540894	18.0830669403	-4.75402641296	19.5628147125
-24.1715641022	-53.731338501	71.0543823242	18.35105896	-3.95196866989	18.7860279083
40.966053009	-51.9522132874	-16.4315948486	18.6456737518	-3.63394141197	18.3106422424
63.7532310486	-31.4529914856	-55.8699607849	17.7584438324	-3.74651789665	18.8281860352
68.0965576172	-16.3295860291	-72.6247940063	16.5054569244	-3.50685930252	18.9981021881
72.9440841675	-11.8729705811	-80.507598877	16.0049953461	-3.44963383675	18.7029514313
76.119972229	-18.3764858246	-85.302154541	15.8730545044	-3.61838769913	18.6017742157
87.7465515137	-33.0616912842	-92.9622116089	15.7550516129	-3.70028686523	18.5944671631
100.97403717	-37.557964325	-105.283729553	15.6602430344	-3.43428087234	18.8678417206
99.473526001	-34.0357208252	-108.194702148	15.5621643066	-3.49070596695	19.1855182648
97.1216201782	-32.1711578369	-107.45740509	15.3680334091	-3.74002814293	19.4645709991
94.3357925415	-31.6715946198	-105.418800354	14.8057613373	-4.00029802322	19.6761264801
97.5180664062	-36.5934753418	-106.484405518	13.4931716919	-4.3832116127	19.8959846497
98.5926361084	-40.1613769531	-108.064193726	11.9464559555	-4.63948202133	19.9699897766
97.791519165	-41.9461860657	-108.053161621	11.0977678299	-4.98453569412	20.0076389313
96.530960083	-43.0430755615	-107.361030579	11.0447950363	-5.228120327	19.9951019287
94.1101303101	-44.487991333	-105.208877563	11.1392269135	-5.282330513	19.9219722748
93.2671585083	-47.7526130676	-102.885795593	10.9541568756	-5.31524181366	19.9344463348
91.2304763794	-50.3070907593	-101.239387512	10.7305555344	-5.29276037216	20.0241622925
90.7233581543	-53.5424118042	-99.9444198608	10.7536268234	-5.3003911972	20.1106395721
90.9779663086	-58.3981552124	-99.1057128906	10.8564901352	-5.52650308609	20.2501811981
91.2354049683	-62.9564933777	-97.7928161621	10.835395813	-5.58236503601	20.439874649
87.3223342896	-65.0656814575	-94.3686065674	10.7684440613	-5.48138475418	20.5180263519
83.9732055664	-67.2662582397	-90.0103149414	10.7731895447	-5.52719974518	20.5593833923
82.5197601318	-69.4022674561	-88.0170288086	10.5999917984	-5.77770471573	20.6227664948
81.4716644287	-70.1895370483	-87.4333877563	10.3163299561	-5.75524425507	20.8679237366
81.4146194458	-69.9825973511	-87.5037994385	10.2705602646	-6.59597492218	21.4239749908
79.5788955688	-69.1742248535	-85.9018478394	11.0449323654	-7.87385225296	22.1503925323
78.5534515381	-68.0966644287	-85.0705413818	11.536190033	-8.18443107605	22.640007019
78.6860122681	-67.8319778442	-85.0571212769	12.1684169769	-8.0044708252	22.8371295929
77.508972168	-66.056854248	-84.6861419678	13.4845895767	-9.13131999969	23.0282592773
76.8596954346	-64.752166748	-84.5280227661	13.879155159	-9.81663417816	23.2560882568
76.9575805664	-62.812702179	-85.6773223877	13.575261116	-9.13770866394	23.1979351044
