0.166747331619	1.57386851311	-0.00758850574493	0.0876104831696	1.72000384331	-0.337642073631
0.1661465168	1.57308590412	-0.0084376335144	0.0863814353943	1.71993732452	-0.337713360786
0.165224552155	1.57128298283	-0.00812304019928	0.0852954387665	1.71858799458	-0.337221384048
0.163113355637	1.56950676441	-0.0071747303009	0.0853712558746	1.71477675438	-0.33561205864
0.158707857132	1.56201791763	-0.00742101669312	0.0848317146301	1.70652198792	-0.331805348396
0.152992248535	1.54596352577	-0.00984978675842	0.0809004306793	1.69780087471	-0.325503945351
0.149636030197	1.53159928322	-0.0095329284668	0.076210975647	1.6921890974	-0.319450259209
0.149607181549	1.52428591251	-0.00838482379913	0.0739912986755	1.68943810463	-0.314730167389
0.150461196899	1.52163100243	-0.00776386260986	0.0733344554901	1.68947780132	-0.311049461365
0.150916337967	1.52019023895	-0.00789940357208	0.0728354454041	1.69042551517	-0.308436274529
0.151744365692	1.51999795437	-0.00787425041199	0.0728032588959	1.6889039278	-0.306869745255
0.152143001556	1.52031731606	-0.00812196731567	0.0735261440277	1.68637979031	-0.305881738663
0.156505823135	1.52117645741	-0.00822496414185	0.0743372440338	1.68514108658	-0.305887937546
0.164730787277	1.52105486393	-0.00722813606262	0.0757892131805	1.6856096983	-0.306050300598
0.176909685135	1.51915788651	-0.00266194343567	0.0763850212097	1.68604362011	-0.305588722229
0.186582565308	1.51409339905	0.00250291824341	0.074777841568	1.68572974205	-0.304479956627
0.193250656128	1.50808560848	0.0083783864975	0.0736265182495	1.68582439423	-0.303342819214
0.19292140007	1.50411999226	0.00983548164368	0.073011636734	1.68778800964	-0.303027629852
0.192195415497	1.50247073174	0.0111842155457	0.0698220729828	1.69142401218	-0.303378939629
0.192833423615	1.50160634518	0.0128495693207	0.0645041465759	1.69435501099	-0.304334640503
0.194527864456	1.50129175186	0.0147010087967	0.0596241950989	1.6968729496	-0.306610584259
0.197242736816	1.50103771687	0.015909910202	0.0548720359802	1.6978969574	-0.309545040131
0.200556516647	1.50067317486	0.0154500007629	0.0482895374298	1.69783353806	-0.312092423439
0.204637050629	1.50025129318	0.0148236751556	0.0414388179779	1.69695723057	-0.314106702805
0.21280837059	1.501308918	0.014655828476	0.0387189388275	1.69590330124	-0.315347790718
0.220892906189	1.50208425522	0.0146391391754	0.0388534069061	1.69575512409	-0.316462278366
0.225562334061	1.50221765041	0.0146791934967	0.0379359722137	1.69566547871	-0.317694425583
0.227416276932	1.50123441219	0.0133448839188	0.0352351665497	1.69441664219	-0.318854212761
