0.646197795868	1.41053426266	-0.184874415398	0.133778810501	1.72575557232	-0.290401697159
0.648268222809	1.40812325478	-0.189050316811	0.13910150528	1.72524607182	-0.290282964706
0.647902965546	1.40826129913	-0.189615249634	0.137032747269	1.72554397583	-0.289800167084
0.64616894722	1.41112065315	-0.187445163727	0.131685018539	1.72637987137	-0.289258241653
0.642808675766	1.41413533688	-0.182850837708	0.128010034561	1.72677958012	-0.288500785828
0.638942956924	1.41721057892	-0.177614450455	0.125689029694	1.72659385204	-0.287341594696
0.635529756546	1.41781425476	-0.173395633698	0.124583959579	1.72645413876	-0.285895943642
0.633187055588	1.41678857803	-0.171563386917	0.123970746994	1.72654676437	-0.284055233002
0.632486581802	1.41481900215	-0.171732902527	0.123146057129	1.72653007507	-0.282371282578
0.633336544037	1.4139688015	-0.174247980118	0.123853445053	1.72685074806	-0.280764102936
0.63311958313	1.41274333	-0.175447225571	0.124990701675	1.72680222988	-0.279656291008
0.63228392601	1.41285943985	-0.174716949463	0.124269008636	1.72648143768	-0.27860558033
0.632747888565	1.41272056103	-0.174885392189	0.123210668564	1.72650694847	-0.277646183968
0.632771968842	1.41298627853	-0.174789190292	0.122292518616	1.72653985023	-0.277218580246
0.631231784821	1.41338157654	-0.172894477844	0.121888875961	1.72641909122	-0.277087926865
0.629933595657	1.41324603558	-0.170615196228	0.122053623199	1.72655332088	-0.277207970619
0.628753662109	1.41381573677	-0.169132709503	0.12211894989	1.72668325901	-0.276784896851
0.627763271332	1.41464984417	-0.168006658554	0.121766328812	1.72675776482	-0.276388168335
0.627301216125	1.41450417042	-0.167348265648	0.123510122299	1.72674584389	-0.276708126068
0.627377271652	1.41449403763	-0.167688250542	0.128469705582	1.7266561985	-0.277869462967
0.627696037292	1.41479492188	-0.168783545494	0.13497209549	1.72654533386	-0.279927492142
0.628623485565	1.41477334499	-0.171545982361	0.143654346466	1.726313591	-0.283380508423
0.63009929657	1.41435110569	-0.175113558769	0.154027223587	1.72585582733	-0.287948131561
0.63116979599	1.41333639622	-0.178900003433	0.164135932922	1.72586226463	-0.292965531349
0.633111000061	1.41258621216	-0.183200120926	0.169766902924	1.72578287125	-0.294785618782
0.636857509613	1.41187286377	-0.186667919159	0.170799016953	1.72470867634	-0.292954444885
0.639979600906	1.41241407394	-0.187461614609	0.169925451279	1.7238432169	-0.290026903152
0.652854442596	1.41509032249	-0.186507463455	0.167953491211	1.72313833237	-0.287376403809
0.671765565872	1.41332447529	-0.184121131897	0.165857076645	1.72324883938	-0.284971952438
0.683294534683	1.4059689045	-0.178248643875	0.163168668747	1.72410058975	-0.282403230667
0.688578128815	1.39954292774	-0.170219421387	0.159514665604	1.72541689873	-0.278343200684
0.685599088669	1.3989200592	-0.161908864975	0.154615163803	1.72664809227	-0.272473692894
0.684247493744	1.39859008789	-0.154696345329	0.148181200027	1.72664952278	-0.264989852905
0.684335708618	1.39972865582	-0.149934530258	0.144578456879	1.72577881813	-0.258610844612
0.686005353928	1.40054500103	-0.147767543793	0.145405769348	1.72553193569	-0.255208134651
0.68877196312	1.40049147606	-0.148734927177	0.147111415863	1.72681927681	-0.253561496735
0.691682338715	1.39723908901	-0.1507127285	0.146815299988	1.72821652889	-0.251241922379
0.694175958633	1.39245581627	-0.152186274529	0.14665555954	1.72795927525	-0.247702240944
0.696689605713	1.38869380951	-0.153114557266	0.14732003212	1.72650682926	-0.244165897369
0.698589324951	1.38734030724	-0.154823541641	0.148046016693	1.72628378868	-0.2415766716
0.699189901352	1.38761210442	-0.156447649002	0.147875070572	1.72765564919	-0.238375425339
0.699342250824	1.38677763939	-0.157497406006	0.147876024246	1.72775006294	-0.234097719193
0.697544813156	1.38684141636	-0.157721757889	0.150413513184	1.72635746002	-0.22825729847
0.695646047592	1.38604140282	-0.156601309776	0.153933763504	1.72539198399	-0.22082901001
0.692790269852	1.3844192028	-0.153482317924	0.157938718796	1.72375154495	-0.210682749748
0.690977573395	1.38144230843	-0.150043725967	0.161173343658	1.71890342236	-0.199116587639
0.689975261688	1.37902212143	-0.145247220993	0.161276817322	1.71703875065	-0.191440820694
0.68866276741	1.37893402576	-0.140598893166	0.158374071121	1.72060370445	-0.191386699677
0.686066389084	1.38343334198	-0.137210845947	0.154500246048	1.7237855196	-0.195469379425
0.684078931808	1.38647079468	-0.135881900787	0.151059627533	1.72506916523	-0.199852705002
0.683149337769	1.38849914074	-0.136785507202	0.148581504822	1.72431409359	-0.203369617462
0.683415651321	1.38866174221	-0.137006282806	0.147311687469	1.72417724133	-0.20599603653
