0.60498046875	1.11610341072	0.0552468299866	0.188748121262	1.6568505764	-0.143002390862
0.60208940506	1.11716628075	0.0570578575134	0.186707019806	1.6569275856	-0.144214391708
0.598222017288	1.11767160892	0.0581202507019	0.183342933655	1.65946304798	-0.145720005035
0.592767953873	1.11870062351	0.0591449737549	0.17628121376	1.6671795845	-0.147421121597
0.585403442383	1.12054848671	0.0607004165649	0.165854215622	1.67735898495	-0.151837944984
0.576493263245	1.123295784	0.0637377500534	0.155922174454	1.68337035179	-0.159247994423
0.564559936523	1.12762641907	0.0683162212372	0.151003837585	1.68532633781	-0.166042804718
0.543943166733	1.13765633106	0.0750296115875	0.150637865067	1.69023525715	-0.172143816948
0.515191555023	1.15431439877	0.0835695266724	0.151847362518	1.69749653339	-0.179065227509
0.485759735107	1.1730132103	0.0919026136398	0.15162229538	1.70265114307	-0.185980796814
0.459023952484	1.19141376019	0.0967218875885	0.149132966995	1.70476722717	-0.192235946655
0.433734416962	1.20938920975	0.0978881120682	0.146389484406	1.70968341827	-0.199353218079
0.413267374039	1.22486245632	0.0956454277039	0.144902706146	1.71661376953	-0.207918047905
0.400737285614	1.23691499233	0.0918416976929	0.143855571747	1.72286868095	-0.216237783432
0.391581296921	1.24318945408	0.0865077972412	0.142903327942	1.7269910574	-0.223361253738
0.386567354202	1.24540698528	0.0807921886444	0.141931533813	1.73014092445	-0.229670524597
0.389204978943	1.24856948853	0.0768600702286	0.141163110733	1.73130679131	-0.234801292419
0.397650718689	1.25494647026	0.074921131134	0.141019821167	1.73221373558	-0.238220930099
0.405307292938	1.26220798492	0.074697971344	0.141757965088	1.73301100731	-0.240785837173
0.408811807632	1.26734519005	0.0745462179184	0.142532587051	1.73472428322	-0.24339902401
0.408255338669	1.26943898201	0.0740925073624	0.142327308655	1.73530972004	-0.245132684708
0.402982950211	1.2696185112	0.0738483667374	0.140936851501	1.73539316654	-0.245538234711
0.393445730209	1.27146530151	0.0730888843536	0.138021469116	1.73614752293	-0.246627807617
0.384303092957	1.27505970001	0.0729513168335	0.133905887604	1.73775267601	-0.249606966972
0.37770652771	1.28020107746	0.0738670825958	0.129473686218	1.73913431168	-0.252990007401
0.371130228043	1.28439760208	0.0746295452118	0.125738143921	1.74043262005	-0.256857275963
0.365109920502	1.28859579563	0.0747783184052	0.123162031174	1.74147307873	-0.26047372818
0.362547636032	1.2934037447	0.0744938850403	0.121554851532	1.74124157429	-0.26353096962
0.362336397171	1.29581952095	0.073832988739	0.121123552322	1.74081063271	-0.26545548439
0.362743616104	1.2951540947	0.072009563446	0.120230913162	1.74046349525	-0.26695728302
0.36216044426	1.2927519083	0.0685451030731	0.117571592331	1.73888802528	-0.268353462219
0.362369060516	1.2891947031	0.0648933649063	0.112019062042	1.73566758633	-0.269258260727
0.365561485291	1.28716278076	0.0631289482117	0.107677459717	1.73294889927	-0.269590377808
0.368328332901	1.28819620609	0.0623354911804	0.10605597496	1.73179829121	-0.268409132957
0.369122266769	1.2898298502	0.0614261627197	0.105335474014	1.73157203197	-0.267371892929
0.36679148674	1.28804183006	0.0606660842896	0.10887169838	1.73353743553	-0.265636086464
0.3637611866	1.28678274155	0.0592994689941	0.1128013134	1.73464584351	-0.263121724129
0.361309528351	1.28319382668	0.058077454567	0.114232063293	1.73435485363	-0.260870456696
0.361258029938	1.27750873566	0.0573002099991	0.113200426102	1.73373651505	-0.260080099106
0.364332437515	1.27208769321	0.0577758550644	0.111196517944	1.73283672333	-0.260565638542
0.367759943008	1.26992487907	0.057966709137	0.109810829163	1.73275220394	-0.261278152466
0.372116327286	1.2713714838	0.0580675601959	0.109550476074	1.73291897774	-0.260992765427
0.373043060303	1.27405869961	0.0584656000137	0.109966516495	1.73189687729	-0.259361028671
0.366844892502	1.27483141422	0.058460354805	0.113088607788	1.73179650307	-0.256543040276
0.358237981796	1.27641677856	0.0587155818939	0.117321252823	1.73282873631	-0.254372358322
0.347340106964	1.27867007256	0.0590243339539	0.1209628582	1.73367404938	-0.252874016762
0.338049411774	1.28068065643	0.0596667528152	0.123446464539	1.73354911804	-0.251223564148
0.330095052719	1.28064477444	0.0595444440842	0.123498916626	1.73248422146	-0.249802708626
0.322673559189	1.27835547924	0.0593882799149	0.121529579163	1.72971522808	-0.248298883438
0.315890789032	1.27551019192	0.0600582361221	0.118085384369	1.72465074062	-0.245743751526
0.309406280518	1.27516651154	0.0600492954254	0.113316297531	1.72184216976	-0.243312478065
0.304970979691	1.27466237545	0.0602715015411	0.109382152557	1.72129940987	-0.242761611938
0.301577568054	1.27454888821	0.0606106519699	0.105930328369	1.72056794167	-0.242183208466
0.299995422363	1.2747387886	0.0603564977646	0.103784799576	1.71932947636	-0.241086006165
0.301290273666	1.27428078651	0.060352563858	0.102553606033	1.71807563305	-0.238959789276
0.30434179306	1.27391219139	0.0597146749496	0.101840734482	1.71755826473	-0.237444758415
0.306074619293	1.27314448357	0.0589461326599	0.100739002228	1.71688532829	-0.236208438873
0.30594420433	1.27234113216	0.0580198764801	0.0997533798218	1.71538960934	-0.235045433044
0.305310964584	1.27191841602	0.0571662187576	0.0999143123627	1.71371984482	-0.233085751534
0.304911851883	1.2705476284	0.0565025806427	0.100417375565	1.71167743206	-0.230690479279
0.304495811462	1.26987397671	0.0560133457184	0.0994572639465	1.70958554745	-0.228780984879
0.304293632507	1.26995193958	0.0554392337799	0.0970437526703	1.70654451847	-0.227615356445
0.303878307343	1.27098703384	0.055641412735	0.0945670604706	1.70428240299	-0.226366281509
