0.0	-0.0	131.506271362	-115.004447937	84.5635223389	-171.658370972
0.0	-0.0	131.301300049	-115.808242798	83.8831710815	-170.624984741
0.0	-0.0	131.124572754	-115.933441162	83.200088501	-170.164169312
0.0	-0.0	130.398910522	-115.451515198	83.4736328125	-170.291015625
0.0	-0.0	120.784324646	-118.398834229	84.9843215942	-169.213943481
0.0	-0.0	109.934898376	-126.250518799	87.1890029907	-167.758666992
0.0	-0.0	100.3307724	-133.551055908	89.0385894775	-166.891235352
0.0	-0.0	91.1330566406	-138.250244141	89.8608398438	-165.745269775
0.0	-0.0	76.2601928711	-138.923034668	89.399055481	-164.535308838
