-106.511581421	-58.9536437988	135.356460571	5.52392196655	0.165266990662	0.563859283924
-106.155708313	-58.7784004211	134.73777771	5.44705581665	0.0852833017707	0.651530563831
-106.188674927	-58.8158721924	134.555084229	5.36708784103	0.0244102086872	0.700182378292
-106.284767151	-60.1276054382	133.36026001	5.35778093338	0.849916338921	0.916327834129
-105.636985779	-64.3319244385	128.683242798	5.6359295845	3.45366120338	1.4067054987
-101.310897827	-67.0851745605	120.410469055	5.48222875595	7.31633472443	2.44792294502
-95.1761322021	-69.8376312256	110.179634094	4.53927326202	10.3529663086	3.02083969116
-87.5446548462	-72.6560211182	99.0662078857	4.62928676605	12.8822546005	2.97187399864
-77.5096054077	-75.3626327515	85.6417312622	5.90886306763	15.4466371536	3.25611281395
-63.4823188782	-78.1565628052	68.107749939	6.56193065643	17.5801963806	3.90955591202
-45.1078224182	-80.0703887939	47.7663383484	5.76966905594	18.5252933502	4.29488277435
-22.1805667877	-80.3644104004	23.9951210022	4.57761907578	18.1739082336	4.32554244995
3.36879467964	-79.3188934326	-1.98675382137	4.27224969864	16.9790859222	4.69338846207
10.7120199203	-78.2401046753	-9.30446529388	3.74871015549	15.8744258881	5.11859893799
13.3666381836	-78.0943069458	-11.4769792557	2.84911060333	15.2526426315	5.46036100388
17.7005176544	-77.435798645	-15.5949754715	1.38497829437	14.8634796143	5.66271066666
27.8731861115	-76.3328399658	-25.6416778564	-0.0315939076245	14.8320150375	5.66295385361
37.7842063904	-74.3527755737	-35.4379005432	-0.555254161358	14.5257349014	5.61585617065
45.0216064453	-71.3913269043	-43.4661407471	-0.423645079136	14.1841926575	5.80350923538
47.6175231934	-69.5081253052	-46.7628059387	-0.696424841881	14.3509531021	6.00095367432
48.9044685364	-67.5461654663	-48.7972373962	-1.32063567638	15.0350551605	6.12187385559
49.2176704407	-66.6787490845	-49.1222496033	-1.98918294907	15.4367494583	6.16295671463
50.0198669434	-65.4567337036	-50.0806541443	-2.42870974541	15.5966644287	6.14199018478
51.7946777344	-63.8767738342	-51.5454483032	-2.76292800903	15.698551178	6.06522798538
