0.0	-0.0	132.513824463	-109.355430603	88.3264694214	-167.236923218
0.0	-0.0	132.202941895	-110.319869995	87.7182846069	-166.836853027
0.0	-0.0	131.735641479	-113.431274414	88.8784790039	-166.901351929
0.0	-0.0	130.691543579	57.1410064697	83.2024383545	10.2356500626
0.0	-0.0	129.939559937	41.6795730591	71.3208312988	7.26486682892
0.0	-0.0	129.913223267	24.4777565002	57.4638366699	6.52858781815
0.0	-0.0	128.947067261	10.2236795425	45.4795036316	9.7196187973
0.0	-0.0	125.524124146	2.49178504944	38.9093971252	15.2097272873
0.0	-0.0	121.257698059	0.0226421114057	34.3882293701	19.1961746216
0.0	-0.0	116.744697571	-1.09876477718	30.6639709473	21.0288982391
0.0	-0.0	112.324958801	-0.566919922829	28.1442527771	21.9115772247
0.0	-0.0	107.471580505	0.189351528883	26.0995483398	23.2675151825
0.0	-0.0	100.4375	1.02656424046	26.1880989075	23.7030887604
0.0	-0.0	91.2210693359	2.25857138634	28.8570041656	23.0614643097
0.0	-0.0	83.7284088135	3.39257025719	31.7831478119	21.4352416992
0.0	-0.0	68.9576568604	4.81116867065	33.0750961304	20.276556015
0.0	-0.0	45.5337257385	5.66761445999	32.5505905151	20.3483161926
0.0	-0.0	29.7480831146	6.11432170868	31.7639160156	20.2035293579
0.0	-0.0	25.9485263824	7.41118335724	32.4577217102	19.6538696289
0.0	-0.0	25.9286937714	9.39520740509	34.6554489136	19.4259605408
0.0	-0.0	23.1831798553	10.9300355911	38.3412017822	19.8471069336
0.0	-0.0	25.5499362946	11.4236660004	37.1752738953	19.7043056488
0.0	-0.0	18.9324169159	10.8926324844	35.6790313721	19.4088191986
0.0	-0.0	8.6767206192	10.9460792542	36.7530517578	19.01811409
0.0	-0.0	14.7485818863	11.4748277664	41.9736480713	18.969203949
0.0	-0.0	24.5453357697	10.7676420212	52.2311935425	18.9685821533
0.0	-0.0	39.1406745911	9.77671432495	57.0502929688	18.428150177
0.0	-0.0	46.5144844055	8.59988498688	57.3799552917	17.1076869965
0.0	-0.0	47.4948425293	9.27212810516	58.6017341614	15.7098617554
0.0	-0.0	45.823764801	11.3906965256	63.8841094971	13.8732919693
0.0	-0.0	46.2227668762	9.94523048401	68.861000061	9.72777080536
0.0	-0.0	49.7941703796	1.61652100086	68.2339935303	2.1766474247
0.0	-0.0	52.5598526001	-6.50902318954	65.1145706177	-5.39172267914
0.0	-0.0	51.4467430115	-7.44763231277	59.8895797729	-10.3954944611
0.0	-0.0	51.1914825439	-5.25083017349	56.7613563538	-13.9385547638
0.0	-0.0	53.0932846069	-5.24665212631	56.3394012451	-20.3796463013
0.0	-0.0	56.1716308594	-7.21221590042	55.3286514282	-25.8031921387
0.0	-0.0	60.3473930359	-10.1310110092	54.5229110718	-25.9347610474
0.0	-0.0	69.7020874023	-10.1258878708	54.3040466309	-23.2596969604
0.0	-0.0	79.2050933838	-9.16425132751	53.6137123108	-20.8885421753
0.0	-0.0	81.5191268921	-8.56734371185	51.7589416504	-19.2403182983
0.0	-0.0	93.4098129272	-8.99405670166	47.8230133057	-17.9077548981
0.0	-0.0	102.371803284	-10.9085493088	42.7142181396	-16.9020328522
0.0	-0.0	106.288124084	-12.2477550507	35.9265213013	-16.02161026
0.0	-0.0	106.676254272	-12.3222169876	31.1853866577	-14.8906316757
0.0	-0.0	100.245666504	-10.3821878433	30.1853275299	-14.05327034
0.0	-0.0	92.8787307739	-9.35169506073	31.1343688965	-13.3234729767
0.0	-0.0	90.3923416138	-9.75195598602	31.5263118744	-12.7009353638
0.0	-0.0	86.9974975586	-10.2118787766	30.6637458801	-12.1308641434
0.0	-0.0	83.1295471191	-9.53232288361	29.956281662	-11.8607606888
0.0	-0.0	77.8915710449	-8.63665008545	29.9455661774	-11.7461853027
0.0	-0.0	76.2172088623	-8.70629882812	29.8313598633	-11.3170223236
0.0	-0.0	74.286529541	-8.66723537445	29.6952819824	-10.9720001221
