0.0	-0.0	144.397628784	115.910774231	71.6182556152	47.9280586243
0.0	-0.0	144.465484619	115.674446106	71.0369262695	48.4681930542
0.0	-0.0	144.738433838	115.571655273	70.3969192505	48.7365875244
0.0	-0.0	144.113876343	115.546554565	69.9533081055	49.2975769043
0.0	-0.0	142.400482178	115.762954712	70.1332702637	49.7585411072
0.0	-0.0	142.410964966	115.52872467	70.3739242554	50.2833976746
0.0	-0.0	142.634246826	115.916885376	69.2541503906	51.592124939
0.0	-0.0	142.441268921	116.944900513	64.4859313965	60.6753234863
0.0	-0.0	142.302322388	121.721221924	53.4193916321	89.4275665283
0.0	-0.0	142.013000488	124.322311401	32.4485321045	128.652587891
0.0	-0.0	139.882293701	114.602813721	13.1325159073	-177.957717896
0.0	-0.0	132.943847656	95.332069397	0.172432929277	-124.154724121
0.0	-0.0	119.784240723	80.3485488892	-3.52979302406	-93.0853881836
0.0	-0.0	101.974845886	64.7786178589	-7.49393510818	-64.0781326294
0.0	-0.0	86.1729202271	44.9370689392	-11.0577087402	-25.1975479126
0.0	-0.0	80.5436706543	41.6049766541	-11.8550348282	-20.1141757965
0.0	-0.0	81.2933273315	44.1387138367	-12.10962677	-25.5545883179
0.0	-0.0	84.7948150635	43.4927711487	-12.4304656982	-26.2809696198
0.0	-0.0	95.0205764771	43.3402328491	-13.2359247208	-28.3707523346
0.0	-0.0	110.588111877	42.1585617065	-14.0606718063	-28.6355800629
0.0	-0.0	118.67628479	41.7540130615	-14.3007059097	-28.8782234192
0.0	-0.0	118.197257996	42.4641304016	-14.7466688156	-30.095199585
0.0	-0.0	117.515922546	44.5971031189	-15.0790700912	-36.4387741089
0.0	-0.0	117.512390137	45.3847923279	-15.3874511719	-39.2913284302
0.0	-0.0	117.410339355	48.6080513	-15.2008695602	-43.9573059082
0.0	-0.0	116.986091614	50.839050293	-15.2154150009	-48.2447814941
0.0	-0.0	116.826858521	51.7205123901	-15.602227211	-51.3255081177
0.0	-0.0	116.727233887	50.1954994202	-15.5854740143	-49.6809120178
0.0	-0.0	116.465202332	48.373210907	-15.0610342026	-45.2646560669
0.0	-0.0	116.525276184	46.5469398499	-14.9887361526	-41.5243225098
0.0	-0.0	116.768463135	46.2319412231	-15.1682195663	-42.2391548157
0.0	-0.0	116.971946716	44.1953010559	-15.2967290878	-39.3426933289
0.0	-0.0	117.057807922	41.0456123352	-14.9927072525	-35.4937438965
0.0	-0.0	117.28968811	40.9481697083	-15.3690643311	-39.2454414368
0.0	-0.0	117.454048157	41.8903503418	-15.9174642563	-44.1539764404
0.0	-0.0	117.62097168	44.5580062866	-16.1445827484	-51.3450050354
0.0	-0.0	117.801200867	46.3485603333	-15.8581256866	-58.2274627686
0.0	-0.0	117.847114563	48.3953132629	-15.090546608	-65.9973526001
0.0	-0.0	118.248550415	47.1086616516	-14.9058589935	-64.3006896973
0.0	-0.0	118.638847351	45.1018638611	-13.7040071487	-57.9959220886
0.0	-0.0	119.704307556	43.5497436523	-11.8414402008	-53.1196594238
0.0	-0.0	121.309623718	41.777217865	-9.96115970612	-47.7676925659
0.0	-0.0	122.360649109	40.9329605103	-8.77288818359	-46.0116500854
0.0	-0.0	122.88369751	40.2339515686	-7.62673139572	-43.097782135
0.0	-0.0	121.572967529	39.9389266968	-6.99948883057	-40.8285942078
0.0	-0.0	120.600662231	39.596824646	-6.87858390808	-39.871307373
0.0	-0.0	121.853141785	38.78150177	-6.18035840988	-37.8261489868
0.0	-0.0	121.489273071	38.0953292847	-5.72095537186	-36.0804634094
0.0	-0.0	116.135551453	37.7515716553	-5.86956787109	-36.2713508606
0.0	-0.0	104.464912415	37.4730796814	-5.85476016998	-35.7933235168
0.0	-0.0	92.4081573486	36.8638153076	-6.02874040604	-35.1455497742
0.0	-0.0	88.9473800659	37.0117912292	-5.94252681732	-35.6482276917
0.0	-0.0	91.9497528076	36.2388496399	-5.70031833649	-35.4484863281
0.0	-0.0	95.8986663818	36.2992134094	-5.75081586838	-35.7712936401
0.0	-0.0	98.5113067627	36.5742645264	-6.04854631424	-36.0398330688
0.0	-0.0	101.538833618	36.8082466125	-6.34706115723	-37.2766113281
0.0	-0.0	102.883422852	36.5530853271	-6.30750989914	-37.3630905151
0.0	-0.0	103.677085876	37.3312034607	-6.16680145264	-39.0265693665
0.0	-0.0	104.383979797	39.5443382263	-6.47746372223	-44.851020813
0.0	-0.0	104.354316711	38.9167785645	-6.32696628571	-41.7988395691
0.0	-0.0	104.177032471	38.2288742065	-5.18151092529	-39.910320282
0.0	-0.0	104.549224854	35.8259849548	-3.73864102364	-34.2669334412
0.0	-0.0	104.664360046	35.5709762573	-2.65565538406	-33.1311454773
0.0	-0.0	104.812232971	35.8586425781	-1.04704248905	-31.8593330383
0.0	-0.0	104.905014038	35.0554695129	1.31362140179	-29.0586776733
0.0	-0.0	105.179969788	33.6149368286	3.39627790451	-25.8560638428
0.0	-0.0	105.416023254	32.8359184265	4.64409685135	-24.9969120026
0.0	-0.0	105.11794281	31.5661964417	5.27485704422	-23.5153484344
0.0	-0.0	104.879768372	29.8364219666	5.94574737549	-22.0359783173
0.0	-0.0	104.911460876	27.4845924377	8.05599880219	-18.9354496002
0.0	-0.0	105.191612244	27.3124961853	10.3376846313	-18.4084453583
0.0	-0.0	105.212394714	27.4705677032	10.2743759155	-17.9320926666
0.0	-0.0	105.018920898	27.3969326019	10.5590667725	-17.1328239441
0.0	-0.0	104.913978577	27.5837669373	11.506737709	-16.8286972046
0.0	-0.0	104.927070618	27.9867324829	11.8565673828	-18.8435153961
0.0	-0.0	105.300834656	28.9536247253	12.2375707626	-23.1644744873
0.0	-0.0	106.030738831	29.6004886627	12.7119445801	-26.8624973297
0.0	-0.0	106.684303284	29.4320774078	13.7636566162	-28.1524066925
0.0	-0.0	107.119316101	28.6675071716	14.7285013199	-26.9123821259
0.0	-0.0	107.576675415	26.9702587128	15.9302244186	-19.6086292267
0.0	-0.0	108.140571594	25.5145282745	17.5301151276	-14.6145238876
0.0	-0.0	108.637077332	25.6578502655	17.0347652435	-13.6329774857
0.0	-0.0	108.142501831	25.0259399414	16.2118625641	-9.72990989685
0.0	-0.0	107.578056335	23.6190910339	15.0830688477	-4.09356927872
0.0	-0.0	104.692588806	23.694021225	14.2815942764	-4.39964580536
0.0	-0.0	98.3184509277	24.801361084	13.4522714615	-6.3311715126
0.0	-0.0	92.3169555664	25.0277576447	13.1059341431	-7.50235652924
0.0	-0.0	89.1722183228	24.8175601959	12.8988666534	-8.67740345001
0.0	-0.0	87.7949752808	24.6664333344	13.2596969604	-9.51348972321
0.0	-0.0	86.926574707	24.1243743896	12.9483728409	-9.95433139801
0.0	-0.0	85.3018951416	23.4293785095	12.3348855972	-9.9861831665
0.0	-0.0	84.920753479	22.4076728821	12.2672977448	-8.45453262329
0.0	-0.0	85.4981384277	21.75091362	12.4986190796	-7.40627193451
0.0	-0.0	86.1409072876	20.641620636	12.7391052246	-5.81073904037
0.0	-0.0	86.6870956421	19.6434612274	12.9149112701	-4.9222407341
0.0	-0.0	86.651008606	19.0251903534	12.974114418	-4.20399093628
0.0	-0.0	85.988571167	18.9836578369	12.8025989532	-3.98807311058
0.0	-0.0	85.3242874146	17.8184185028	11.5616455078	-2.58091807365
0.0	-0.0	84.9633026123	16.9982337952	11.3868865967	-0.525820791721
0.0	-0.0	84.8155517578	17.4870319366	11.2705917358	-1.13771009445
0.0	-0.0	84.7762680054	19.0766620636	11.2086105347	-5.36545228958
0.0	-0.0	85.1122970581	19.2199077606	11.2008285522	-7.51763677597
0.0	-0.0	85.4038391113	19.0706653595	11.3945770264	-7.31112527847
0.0	-0.0	85.7222213745	20.0387306213	11.0832433701	-11.1792097092
0.0	-0.0	85.460067749	19.8833293915	11.0775842667	-12.7293329239
0.0	-0.0	85.6324615479	19.5912189484	11.4637002945	-12.986164093
0.0	-0.0	85.5952377319	19.952299118	11.8233327866	-15.9112663269
0.0	-0.0	85.4019851685	19.4737606049	12.715004921	-16.9609146118
0.0	-0.0	85.3691635132	19.6650085449	14.0423364639	-20.0120277405
0.0	-0.0	85.5740890503	19.33751297	14.7149810791	-20.5010147095
0.0	-0.0	85.9692306519	19.0648078918	15.5619678497	-21.1650619507
0.0	-0.0	85.9773712158	18.0825901031	16.3197498322	-21.5996398926
0.0	-0.0	86.3527603149	17.0537281036	17.3030872345	-21.5953464508
0.0	-0.0	87.0270004272	16.0054721832	18.167930603	-19.9042015076
0.0	-0.0	87.601348877	16.0930747986	18.8306980133	-19.1967697144
0.0	-0.0	88.2009124756	15.401348114	19.3573303223	-17.94099617
0.0	-0.0	89.1883163452	14.6756486893	20.2709960938	-17.3017997742
0.0	-0.0	90.3822479248	14.4914951324	20.7733840942	-17.1577072144
0.0	-0.0	91.4029159546	14.4255809784	20.6511459351	-16.6194629669
0.0	-0.0	91.9139709473	14.7879047394	20.4059848785	-16.6809902191
0.0	-0.0	92.4386978149	15.3951177597	19.9294204712	-18.0457439423
0.0	-0.0	92.7880325317	15.6994075775	20.1409225464	-17.7177429199
0.0	-0.0	93.1279296875	16.2282161713	19.9564685822	-18.0605735779
0.0	-0.0	93.3491287231	16.3555736542	19.3058795929	-18.144575119
0.0	-0.0	93.7827987671	15.9403514862	18.9362945557	-17.8030090332
0.0	-0.0	94.5999755859	15.9300146103	18.9084224701	-17.2508468628
0.0	-0.0	95.287322998	16.0732288361	18.6320037842	-17.3635406494
0.0	-0.0	95.6953735352	15.7626447678	18.6191387177	-17.1759738922
0.0	-0.0	95.7685165405	15.6722106934	18.5927276611	-16.9488773346
0.0	-0.0	95.8302001953	16.5263233185	18.1380844116	-17.2869987488
0.0	-0.0	95.6604309082	16.6846256256	17.5825805664	-17.1856822968
0.0	-0.0	95.5284729004	17.5308017731	17.3086700439	-18.6924343109
0.0	-0.0	94.2095413208	18.2085762024	17.7455596924	-22.6196098328
0.0	-0.0	94.0943222046	17.4765319824	19.2080459595	-23.6783924103
0.0	-0.0	93.7438964844	18.8244495392	20.0130939484	-30.3238334656
0.0	-0.0	93.0651550293	20.4295310974	20.7140274048	-37.932434082
0.0	-0.0	93.4860839844	19.5062408447	20.9512615204	-38.7813110352
0.0	-0.0	93.9402618408	17.5617237091	21.1160831451	-34.9002571106
0.0	-0.0	94.9777145386	15.4997186661	21.0785560608	-26.5383892059
0.0	-0.0	94.6062011719	14.8637619019	20.7264347076	-20.628446579
0.0	-0.0	93.286491394	15.978928566	20.675239563	-22.1558132172
0.0	-0.0	92.174369812	15.9619941711	20.0496006012	-22.6340141296
0.0	-0.0	92.1945495605	14.9506778717	20.2164611816	-21.2304534912
0.0	-0.0	92.539024353	15.7015733719	20.3999652863	-19.0088481903
0.0	-0.0	91.0924377441	12.7508306503	20.3194046021	-12.5470075607
0.0	-0.0	90.6532821655	12.8995437622	19.5303421021	-9.08656978607
0.0	-0.0	89.8351516724	11.6311788559	18.1543712616	-5.17389965057
0.0	-0.0	88.1741790771	12.1229820251	17.09765625	-3.06449246407
0.0	-0.0	83.6837158203	12.5628242493	17.6043395996	-3.22643852234
