-121.496253967	-64.5002593994	138.813339233	7.5828332901	2.30568981171	0.627754092216
-121.22077179	-64.7021484375	138.102127075	6.80459165573	2.39134573936	0.92130023241
-121.168838501	-65.1776580811	137.448272705	5.86717653275	2.99396800995	1.40563988686
-121.190422058	-66.8353729248	136.12928772	3.80570292473	6.2775144577	2.62574362755
-120.56313324	-68.640045166	133.056137085	0.509655356407	12.2775325775	4.3252530098
-118.496070862	-70.6993560791	127.738822937	-2.74460935593	16.6378955841	5.6183052063
-114.332000732	-70.9775924683	121.809188843	-5.55483436584	17.8057727814	6.06567382812
-110.843711853	-71.3905029297	117.466461182	-6.92537117004	16.9497299194	6.030169487
-108.96484375	-74.6901550293	115.062896729	-6.69812679291	16.0579128265	5.83351039886
-107.201774597	-78.6684494019	112.312423706	-6.24930763245	15.5951051712	5.90238714218
-80.5615005493	-87.281288147	82.952507019	-6.57263374329	15.8488073349	6.44706296921
49.0777397156	-82.3578567505	-47.7302627563	-7.78547096252	16.226518631	7.12566232681
52.1094017029	-73.7782287598	-50.7746696472	-8.50333881378	16.3742408752	7.75365877151
50.3040924072	-70.4366836548	-48.1914558411	-8.78214263916	16.6963729858	8.64559555054
49.2431640625	-70.5041732788	-46.3871192932	-10.1444339752	17.6662483215	9.54504489899
49.0066261292	-69.9987564087	-45.024810791	-13.6450920105	19.0120487213	9.13673973083
49.7677612305	-69.5516281128	-44.2379379272	-15.9803390503	19.8962726593	8.40058612823
50.9393310547	-69.7373352051	-44.2506599426	-15.9702186584	19.78565979	8.66159534454
53.5003890991	-69.2765045166	-45.4927024841	-16.5018424988	19.4415035248	8.69365692139
56.4924507141	-66.9622344971	-47.0267906189	-18.8885650635	19.6098670959	8.10707378387
59.0118713379	-65.1530151367	-48.1044197083	-21.9720115662	20.1302528381	7.11321592331
63.8482398987	-63.700252533	-51.9260940552	-22.792547226	19.754404068	6.50826740265
67.4233093262	-63.9193687439	-54.631816864	-21.1431598663	19.2855682373	6.62178421021
72.4298629761	-64.8826293945	-59.3083381653	-19.6683082581	19.1899681091	6.87625694275
70.8605041504	-65.3868713379	-58.1347198486	-18.5919876099	19.6865940094	7.10202121735
66.832649231	-64.759223938	-55.1578788757	-16.8937778473	21.510427475	7.27026748657
65.3440551758	-66.427482605	-53.6471786499	-16.4596500397	23.3340549469	6.90574455261
64.5043869019	-66.4366149902	-52.5658607483	-17.507352829	22.9402427673	6.37797403336
65.6808166504	-66.2420501709	-52.9399757385	-18.9930477142	22.397649765	6.3977766037
68.4827728271	-65.9042282104	-54.9771728516	-21.5003681183	22.3222122192	6.26022195816
71.5255737305	-65.4876785278	-57.139591217	-24.7248401642	22.5044841766	5.82038879395
75.4273757935	-64.0107574463	-60.4538459778	-26.010389328	22.3379268646	5.79066324234
78.6873016357	-62.0965385437	-63.7628326416	-24.8266563416	21.7417984009	6.56180047989
81.5227050781	-60.8221969604	-67.3315734863	-23.3002490997	21.1950054169	7.01671695709
83.6594772339	-60.3663635254	-69.8645172119	-21.8683757782	20.5024585724	7.27886152267
84.3668746948	-59.2139358521	-70.5300292969	-20.5242328644	19.8306865692	7.55960416794
84.6503448486	-57.8697738647	-70.3865432739	-18.6943378448	18.7559814453	7.74027252197
84.7049636841	-55.6293334961	-70.0727920532	-15.9149208069	17.0735149384	7.95426988602
84.1877593994	-53.074256897	-68.5982818604	-12.4471874237	15.3828544617	8.15856552124
80.3020401001	-51.8007850647	-62.9143562317	-8.74705600739	13.7998514175	8.04996681213
66.1327590942	-57.5860977173	-47.2676048279	-6.22362184525	12.1315479279	7.15383911133
31.6692180634	-64.8961486816	-15.619594574	-5.07758426666	10.5427188873	6.19381189346
-16.000711441	-65.5732498169	31.8331317902	-4.17473268509	10.7996530533	5.2156291008
-39.0441665649	-58.3893890381	57.1791305542	-2.40657377243	12.9769382477	4.30153512955
-53.7442855835	-51.1492958069	76.5918502808	0.27578368783	15.3092670441	3.8023712635
-61.2310638428	-46.2069702148	89.4024047852	3.58949446678	18.2026805878	3.35310292244
-66.2099380493	-43.3015899658	96.4275817871	7.56505155563	21.8887367249	3.87116932869
-67.8152618408	-45.907497406	95.0430374146	9.47574996948	24.7770595551	5.66983604431
-69.6481552124	-48.163105011	90.4727935791	8.20862865448	26.5088481903	7.59097671509
-66.9381332397	-54.8213005066	82.1358642578	4.94266653061	26.369134903	8.41676235199
-57.2857894897	-63.467124939	68.4890365601	2.21606826782	25.4495258331	9.00842285156
-24.8457546234	-69.274520874	31.8337268829	0.972110688686	24.2034645081	9.32760810852
9.13655662537	-58.8235435486	-5.0906624794	0.721453785896	22.9905776978	9.46244716644
12.193778038	-34.8393287659	-14.7184724808	0.669678986073	21.5156707764	9.31420135498
-2.60109758377	-21.6220970154	1.97680997849	0.410812646151	18.5164756775	8.82639217377
-15.9464159012	-12.9291257858	19.7519760132	-0.164860829711	14.7675237656	8.05075931549
-19.1413288116	-5.58691501617	29.3357315063	-0.987664580345	11.5543479919	7.21379518509
-13.5902385712	4.39283418655	31.4098625183	-1.49487316608	9.47945785522	6.71894025803
-1.19157719612	20.136838913	31.8926639557	-1.69815015793	6.99601697922	6.44517040253
5.72447013855	37.0939216614	39.5279426575	-2.49188685417	3.24605798721	5.99377775192
7.45831346512	35.6837806702	35.6034088135	-3.95036697388	-0.323016226292	5.43683624268
12.1381635666	33.9311332703	34.3510704041	-5.02980899811	-0.961100757122	6.0029797554
12.5746774673	33.231300354	34.4243965149	-5.00969696045	0.947572171688	6.70516490936
11.6043386459	28.9872455597	34.4302558899	-4.32573509216	3.77482414246	6.87110567093
9.00893878937	25.6032600403	33.6255569458	-4.95598840714	7.87939310074	6.33030891418
6.38496637344	23.4152641296	33.9204521179	-4.1263384819	10.6524171829	7.33879089355
3.9471321106	23.3280563354	33.2598304749	-4.11327600479	11.7113771439	6.03754854202
2.67516207695	23.8960914612	34.8780326843	-4.13070678711	12.6711931229	5.18055105209
3.58453798294	25.9404335022	35.3966712952	-3.81800627708	13.8285198212	6.42584657669
4.39535903931	25.8299369812	34.1408843994	-3.72368788719	15.0381755829	8.0322303772
1.07365059853	19.5944480896	33.2417640686	-4.08285236359	17.7362346649	9.29999160767
-5.00356388092	8.99746322632	30.6559238434	-4.56062984467	22.9733257294	10.9644479752
-13.5112199783	-3.22334337234	31.8546543121	-4.40145158768	26.2123775482	11.9449062347
-17.9763832092	-11.8720560074	34.7728004456	-3.22632598877	26.2364654541	12.4784526825
-19.7640361786	-17.9426250458	35.2353744507	-0.9449249506	26.3425159454	13.3746948242
-19.1686725616	-20.3678379059	32.2531967163	-0.307705670595	27.0461120605	14.4496135712
-2.21603107452	-10.8497858047	9.9195394516	-1.80938506126	27.8492660522	15.1853895187
9.2276468277	10.8519363403	-25.7831916809	-4.99952697754	28.3724975586	15.3822660446
9.11671066284	14.0169696808	-37.9029541016	-7.61792182922	28.9490871429	15.6234989166
9.4986410141	11.4160079956	-37.1713790894	-7.73130512238	28.5020446777	15.0481090546
8.95283412933	7.22266149521	-31.4104919434	-6.25850582123	28.784160614	14.5848169327
9.3768863678	6.75058269501	-33.1096878052	-5.17187929153	29.1275348663	14.7272539139
10.0818490982	5.75827264786	-31.7842159271	-5.38215065002	29.3421459198	14.9703168869
10.0904808044	5.78067445755	-30.9873104095	-4.75850105286	29.5081825256	15.3946933746
9.7897233963	5.57555246353	-30.2447776794	-5.40098285675	30.1715164185	14.3087091446
9.56478118896	4.74388694763	-29.6122398376	-8.18966770172	30.5608215332	13.1018800735
9.02315425873	4.43266201019	-29.2516822815	-10.6168737411	30.4435596466	12.2462968826
8.14371204376	4.35876941681	-27.9453735352	-10.2369241714	30.3939743042	11.8929538727
7.99551010132	4.01416063309	-28.2977046967	-9.45230674744	30.5271778107	10.8807926178
8.11425304413	0.595345795155	-29.8564281464	-6.46743249893	27.974401474	10.8675546646
12.0344705582	-4.06215953827	-33.7759590149	-4.96731901169	26.0069675446	10.6625585556
14.3589029312	-8.14531517029	-35.406829834	-5.0047211647	24.2231731415	8.78412818909
14.5588083267	-10.4711837769	-36.4798126221	-6.68134355545	22.6577167511	6.92913627625
14.9677066803	-12.7505893707	-36.0226020813	-10.3215227127	20.2766952515	5.99819326401
19.388463974	-13.0108156204	-36.7576026917	-17.0002346039	18.7614345551	4.22161245346
22.9931850433	-12.5429544449	-36.72032547	-18.9865818024	18.3610839844	2.83541703224
24.1666316986	-12.8378915787	-36.4449081421	-16.7732982635	18.3199329376	3.32213306427
24.8273944855	-14.3137197495	-35.7188224792	-15.0042409897	18.2341899872	2.90157270432
25.3315868378	-16.5660839081	-33.8694801331	-13.4961214066	18.7919406891	1.66985273361
27.6400737762	-18.7115898132	-33.9640617371	-13.4689874649	20.6970691681	0.598542749882
27.7547016144	-19.7784423828	-32.9804229736	-16.6691169739	23.2844543457	-1.51928043365
22.9663066864	-22.7902641296	-27.2491035461	-17.0821552277	23.1942405701	-2.05641078949
17.8852081299	-25.1677875519	-23.0185680389	-16.7023849487	22.1005039215	-1.61727392673
10.0619592667	-27.2023983002	-14.07102108	-21.3881435394	21.8290500641	-1.94342184067
5.42789936066	-30.182100296	-8.60267066956	-27.2246742249	20.2447090149	-2.55828762054
4.36988592148	-32.3486480713	-3.709223032	-25.048740387	20.3893737793	-1.07919168472
-3.61885523796	-36.4647941589	10.4506511688	-19.0296974182	22.3909072876	0.417638987303
-17.2370071411	-38.0417518616	27.5399093628	-14.8702602386	21.2225227356	1.02151799202
-27.7510528564	-37.7319412231	40.06873703	-13.1508550644	22.2480449677	1.53021872044
-35.0155258179	-38.7736740112	50.4961013794	-12.574713707	22.6057567596	1.74641394615
-43.5149726868	-38.8794288635	61.4276199341	-8.25038814545	23.6971702576	1.64408242702
-45.9796981812	-39.1570625305	63.6334838867	-1.36225831509	24.6343135834	2.87571597099
-47.2670516968	-39.0645523071	63.9750061035	3.48787403107	26.1085166931	4.74836444855
-48.8500442505	-38.7582397461	63.5578613281	4.83490991592	28.6522712708	5.84427928925
-49.2893638611	-39.3545875549	62.3072738647	3.18613553047	29.2958641052	5.44937372208
-44.2608375549	-42.7527694702	53.9379882812	2.1103386879	28.0463924408	5.11848497391
-28.0344085693	-48.1578712463	34.8296852112	1.4909658432	26.7672462463	5.56529664993
-18.1988697052	-49.8704490662	21.0361251831	0.0328441895545	25.8729228973	5.90173244476
-16.1671180725	-49.9477539062	18.005657196	-2.07766890526	24.1503753662	5.75812625885
-5.7937746048	-49.2368659973	7.74099779129	-4.89997816086	21.4730949402	5.50380468369
10.1162519455	-47.0027122498	-6.6489906311	-7.83330869675	19.5713348389	5.62462663651
24.0564994812	-42.1647911072	-16.8875312805	-10.3992166519	18.465057373	5.94752979279
37.1329917908	-36.6643943787	-24.4902839661	-12.2695703506	18.1587123871	6.19693851471
50.6346244812	-29.3201141357	-30.6247959137	-13.3492898941	18.1215343475	6.36688184738
57.810131073	-23.8056793213	-32.7102775574	-14.2146816254	18.4895362854	6.41183662415
59.0672149658	-22.6039619446	-33.3355026245	-15.7406978607	18.537525177	6.24454545975
57.916885376	-26.425283432	-32.1731185913	-18.0342674255	18.2697029114	5.93912315369
56.1368255615	-28.9662723541	-31.8709964752	-20.5151767731	18.1788139343	5.78780460358
53.8485908508	-32.9119682312	-31.900478363	-21.2781505585	18.180639267	6.04315090179
52.6818389893	-36.3298454285	-32.2889900208	-20.4218711853	17.9769954681	6.38495445251
52.405834198	-44.1011543274	-31.6456489563	-18.6569881439	17.1749343872	6.76808643341
50.1188812256	-51.9630203247	-29.8003883362	-16.3240127563	16.6488361359	6.98345375061
43.0098266602	-63.3773345947	-22.2085933685	-13.7734918594	16.5166530609	6.91954040527
29.7936973572	-70.9883346558	-10.6890640259	-10.5008172989	17.0164470673	6.66583251953
8.12890529633	-72.7729797363	7.9751200676	-6.52340316772	17.9566745758	5.77213335037
-22.9350585938	-68.6835784912	34.0302886963	-1.40309214592	19.1539344788	4.46402549744
-39.6974906921	-61.5854225159	47.2020568848	3.47820830345	21.2037639618	4.0632519722
-40.8094215393	-57.9747543335	47.5642547607	6.99821186066	24.1676082611	4.52932453156
-37.9221115112	-56.4560127258	45.2195396423	8.94728565216	26.6656703949	5.14275217056
-32.8418579102	-54.4482841492	40.1094322205	8.98153877258	28.8333930969	5.38894939423
-28.5669898987	-53.0438575745	34.1218719482	7.75749588013	30.3873081207	5.9376077652
-26.043214798	-51.4149856567	30.5661296844	5.19866609573	31.3072662354	6.53061628342
-25.3200855255	-49.850692749	28.3699111938	2.40520119667	32.0304260254	6.6042881012
-27.3063850403	-49.4530792236	29.5053596497	0.710667312145	32.703250885	6.91695594788
-29.3913097382	-50.4910926819	29.4822788239	-0.472312510014	32.7508468628	8.014087677
-31.3835735321	-51.112121582	30.6466903687	-2.45179176331	32.3825187683	8.96592521667
-30.1479320526	-50.7887763977	29.3236579895	-4.41068792343	31.9051456451	9.37464141846
-29.7677230835	-48.0172920227	29.4765968323	-5.13020896912	31.1430397034	10.0862112045
-33.1892700195	-43.5957527161	29.4166183472	-5.45729970932	30.469751358	11.1425170898
-35.6861877441	-39.3994903564	28.9528408051	-6.304251194	31.1799087524	12.1640548706
-30.6344642639	-37.2403030396	22.3185520172	-7.99853754044	31.78058815	12.5595111847
-21.9586620331	-33.7357978821	12.8288068771	-8.94803142548	31.5433807373	12.0524225235
-16.7516994476	-27.536781311	8.75710296631	-9.10098648071	31.5860061646	10.7233781815
-21.3334980011	-26.2582740784	13.763217926	-8.08514118195	31.4321899414	8.99467468262
-34.7797775269	-29.2041339874	30.1323356628	-5.73687314987	31.153875351	7.60989427567
-41.3298988342	-30.9875125885	39.0727958679	-3.32948303223	30.6502094269	6.62027597427
-43.9257049561	-32.8634376526	49.1513175964	-1.44201648235	30.3129825592	6.23794651031
-53.7121086121	-33.1171417236	62.5914497375	-0.188391715288	29.9511146545	5.68542909622
-59.4723625183	-31.3217506409	71.915184021	2.74527215958	29.4281539917	4.67379570007
-59.3665122986	-33.9988975525	72.3922195435	7.74112462997	29.462272644	5.23016738892
-49.9684715271	-39.8197593689	60.2235794067	11.0937900543	28.6462478638	6.14477968216
-19.590221405	-39.6174621582	19.0300712585	10.3139600754	27.2767982483	6.440928936
-10.6220932007	-29.8777198792	0.319084733725	7.31948041916	26.035200119	6.0271730423
-7.87283992767	-26.777545929	-3.99929833412	5.02129507065	24.993314743	5.46411895752
-4.47778606415	-21.7551803589	-9.46763134003	2.90623807907	22.9142494202	5.3303899765
-4.01758909225	-18.625497818	-10.8443307877	-3.50047540665	20.0008144379	4.9394402504
-3.18381905556	-17.5660018921	-9.97276878357	-12.6010560989	19.2017116547	5.41652011871
-2.07538533211	-16.8405609131	-10.7164144516	-19.7494544983	19.907913208	5.64502429962
-1.83022642136	-15.8953828812	-10.0394363403	-20.890089035	20.582572937	5.63450574875
-2.77339410782	-15.8080701828	-8.30342388153	-17.9826602936	21.0732059479	5.52252054214
-5.58026599884	-16.121837616	-4.39871501923	-13.7767009735	21.2255821228	5.09317684174
-7.43366384506	-16.3699264526	-3.50140357018	-9.41983509064	21.8302764893	4.17887878418
-8.97597694397	-16.9239597321	-0.823431432247	-3.2758409977	23.3362216949	3.60181522369
-11.5599651337	-18.4130458832	2.69609713554	1.36743092537	27.389093399	4.90436267853
-11.5766096115	-18.9498176575	1.74014532566	1.22132849693	30.1274185181	5.00428152084
-11.1494646072	-18.4652233124	3.55007457733	0.801805794239	29.6546401978	3.43412446976
-12.9325885773	-19.4620609283	6.87260198593	2.78387737274	29.3619041443	3.37457346916
-16.1652812958	-20.7750606537	11.7214641571	5.70776128769	28.7003574371	3.90375447273
-17.8819007874	-20.4496994019	12.0502328873	8.65953063965	28.2736759186	4.70149755478
-20.217924118	-21.1320171356	14.0866498947	9.88885784149	28.2829475403	4.5832118988
-27.0277080536	-26.2673797607	25.9045295715	10.8420629501	28.0196475983	4.34528970718
-40.9901580811	-30.5754718781	44.2046089172	10.6179952621	27.6738510132	4.24898433685
-51.5098075867	-31.9135074615	57.8290634155	10.3022375107	27.5175457001	4.26045799255
-63.7240867615	-31.5583000183	72.5547332764	10.7264852524	27.4619808197	4.292948246
-76.5748291016	-28.1212596893	88.6229858398	11.0593070984	26.5477848053	4.79235267639
-79.6640625	-31.5416545868	91.6850967407	9.63467311859	25.3695850372	6.06292581558
-65.5350570679	-46.350818634	73.6328201294	5.63803958893	24.7251644135	7.59599542618
-41.5013046265	-54.3320770264	43.0832138062	0.878097593784	24.947561264	8.61033153534
-18.8229293823	-51.0757827759	14.6299829483	-2.592846632	25.6376285553	8.83232784271
-13.6440210342	-50.4658737183	8.1626329422	-3.41179537773	25.5713100433	8.58619976044
-14.7455949783	-54.908744812	10.1971349716	-2.782289505	23.8886909485	8.69742488861
-6.94620132446	-54.0994758606	0.522248804569	-2.74228906631	21.6429920197	8.61291027069
-1.18037962914	-42.3216667175	-9.49211788177	-3.44523596764	20.0781898499	8.5827293396
-2.08837223053	-40.8585128784	-8.39059734344	-4.20159196854	19.9909152985	8.41890144348
-3.71616101265	-36.8567962646	-8.9751996994	-4.78373718262	20.6944999695	8.56702518463
-4.26642370224	-29.6262989044	-7.04105949402	-6.01521348953	21.2139129639	8.68394565582
-1.1524220705	-26.422121048	2.71356844902	-8.73914909363	20.7977142334	8.7198600769
4.71021270752	-37.3862113953	-1.82793831825	-11.173289299	20.0417461395	9.23249340057
4.07808589935	-58.0624465942	-5.44599294662	-12.476480484	19.8955974579	10.0234327316
-2.52794146538	-65.4272766113	2.70019721985	-12.0993041992	20.2930374146	10.2471323013
-38.9745864868	-66.9167480469	44.1738357544	-10.089176178	20.7985706329	9.6192522049
-53.271938324	-58.7447280884	62.3561515808	-6.97768354416	21.3729076385	9.23600769043
-52.0411834717	-58.5151138306	59.9918251038	-4.30924654007	21.8456230164	9.4270362854
-45.6275177002	-62.0913848877	49.3131713867	-2.97506642342	22.4283504486	10.1425466537
-28.1549873352	-72.4646148682	25.1996173859	-3.11463832855	22.2273006439	10.9349918365
38.7775611877	-72.0612945557	-49.9489555359	-3.42817568779	21.9916400909	11.5995874405
51.6503105164	-60.5849533081	-68.6286392212	-2.46553969383	21.885427475	12.161067009
50.0070991516	-57.7083396912	-68.6210174561	-1.87343907356	21.2997074127	13.2124471664
50.2296600342	-56.9286689758	-68.2110824585	-3.46928286552	20.8232746124	13.948718071
50.8506126404	-55.5897674561	-67.9268875122	-7.06067609787	21.2826881409	14.4538049698
51.5149383545	-55.9952812195	-67.667175293	-11.2199001312	22.1760082245	13.8710603714
50.6668663025	-56.3990478516	-66.6587371826	-12.1971149445	21.9663848877	13.7922716141
49.9272460938	-56.9396362305	-65.9709777832	-12.0263948441	20.7136859894	14.218503952
49.1596717834	-57.1738395691	-64.95262146	-13.0084028244	20.3275871277	14.3760442734
48.7860527039	-57.8972702026	-64.4595947266	-12.0496873856	21.2224292755	14.6144523621
48.7941207886	-58.1602783203	-63.9176330566	-10.2652397156	21.8848838806	14.4705915451
48.9318962097	-58.1521987915	-63.6353874207	-9.61766910553	21.1618843079	14.1496601105
49.2171936035	-58.1892700195	-63.4787635803	-9.99578094482	20.1479511261	14.0237865448
50.3956832886	-58.4159431458	-64.4178085327	-10.4653072357	19.9515304565	14.0616912842
51.8381576538	-58.8876457214	-65.7147979736	-11.0939149857	20.0499324799	14.304107666
51.7694511414	-59.1009292603	-65.3987121582	-12.6456804276	19.797914505	14.312037468
50.2145271301	-58.7902412415	-63.7267189026	-13.5746173859	19.6233215332	14.2487974167
49.2534255981	-58.642780304	-62.7028160095	-13.4205827713	20.2005805969	14.0616388321
48.4971847534	-58.2497711182	-61.6136627197	-13.441608429	21.149684906	13.7175045013
47.4187011719	-57.8420372009	-60.3956985474	-13.1649885178	22.0459251404	13.3396968842
46.1946792603	-57.4378662109	-59.0536994934	-12.8195505142	22.418170929	13.0551319122
44.5562705994	-56.9097175598	-57.3136940002	-12.7364206314	22.4963493347	12.7696247101
43.2751731873	-56.4655189514	-56.0682601929	-12.8304233551	22.0781154633	12.5075511932
42.5792274475	-56.0674209595	-55.4223365784	-12.8773603439	21.1343574524	12.3044633865
41.5810432434	-55.7214050293	-54.6238250732	-12.8395967484	20.3582286835	12.2661437988
40.6159362793	-58.7173118591	-52.422542572	-13.0219678879	20.1634540558	12.3204450607
39.7118721008	-63.769115448	-50.3899040222	-13.0820093155	20.8340301514	12.3484649658
41.2907714844	-68.6821289062	-50.3055038452	-12.7743301392	21.0566558838	12.2694978714
46.4160118103	-74.0284194946	-52.8595161438	-12.0132226944	20.7446575165	12.2192220688
57.2169494629	-83.3944625854	-59.4336204529	-11.6717329025	20.3130779266	12.388048172
134.528640747	-88.8581924438	-134.5806427	-12.0354070663	20.5572147369	12.3779401779
-142.580001831	-84.5434646606	144.917266846	-11.9049921036	21.0393562317	12.4732065201
101.326011658	-89.3047943115	-101.800018311	-11.9210596085	21.2977466583	12.3796443939
50.4812545776	-85.1938705444	-51.6192703247	-11.7776937485	21.7655982971	12.1440420151
50.5753479004	-82.0592575073	-52.2598648071	-11.471701622	22.0706710815	11.8788557053
50.0405578613	-82.226890564	-51.5471687317	-11.2443723679	21.8316936493	11.8189878464
47.2293014526	-82.6206207275	-48.1736526489	-10.9426164627	21.6249790192	12.0670871735
46.8290557861	-82.7940292358	-47.5431442261	-11.2486257553	21.7701187134	12.4151802063
48.0492515564	-82.610496521	-48.6378974915	-11.9017429352	21.6810112	12.3876781464
51.1525535583	-82.8905792236	-51.5739593506	-11.645740509	21.2590370178	12.5231285095
54.32239151	-83.0921859741	-54.7730941772	-11.2412624359	21.2789916992	12.5187759399
59.6714553833	-83.1765518188	-60.149230957	-11.1408977509	22.3098945618	12.4045286179
61.302154541	-82.8330612183	-61.61693573	-11.0748643875	23.628282547	12.0210666656
58.2520637512	-82.6226272583	-58.1181221008	-10.9690227509	24.2461147308	11.7568597794
53.8987121582	-81.9240951538	-53.2145042419	-11.0063199997	24.1716041565	11.6443405151
53.6517333984	-81.7004776001	-52.5159378052	-11.0072498322	23.7806243896	11.6886291504
55.0912857056	-83.6819229126	-52.8671379089	-10.7863712311	23.6139678955	11.8064575195
55.0135154724	-83.1528091431	-53.1180114746	-10.7741622925	23.5638408661	11.8908109665
52.6700210571	-83.5963287354	-50.7509880066	-10.8113946915	23.6345367432	12.051823616
49.8997116089	-83.8296585083	-48.2341804504	-10.9293308258	23.4105930328	12.2024593353
49.5229072571	-83.876739502	-48.0900115967	-11.0510015488	23.300775528	12.3161010742
51.8620376587	-83.1018676758	-50.9832191467	-10.9322128296	23.0753669739	12.3409166336
53.8991508484	-81.3183364868	-53.8937187195	-10.7145519257	22.9183750153	12.273393631
54.7907409668	-80.7394561768	-55.0093154907	-10.7636671066	22.7597942352	12.1652774811
54.9620742798	-79.733291626	-55.6789665222	-10.7768993378	22.6965255737	12.1710109711
55.934589386	-78.4535522461	-57.3909454346	-10.7128410339	22.6157283783	12.2906074524
56.371711731	-76.630645752	-58.754283905	-10.8248338699	22.4946250916	12.2791948318
55.7152328491	-75.1954040527	-58.9450340271	-10.7328338623	22.5176525116	12.2576551437
55.2161483765	-73.3205718994	-59.3912773132	-10.5541944504	22.5042858124	12.2340354919
55.1076469421	-71.800743103	-60.0860481262	-10.512131691	22.2805290222	12.1812667847
55.3832168579	-69.1708450317	-61.6579322815	-10.5358972549	21.9847412109	12.1584692001
55.2936820984	-66.3956680298	-62.4438667297	-10.4802942276	21.7491321564	12.1754455566
55.1194953918	-66.9546585083	-62.3879089355	-10.4756164551	21.5922470093	12.2258558273
54.3184776306	-69.847038269	-60.352191925	-10.4435071945	21.6000404358	12.2052373886
48.6512985229	-75.9815826416	-53.2727279663	-10.3126192093	21.8589897156	12.3756027222
39.9306907654	-79.1750564575	-43.9763145447	-10.7275762558	21.6817951202	12.9536485672
36.8644065857	-81.2224273682	-39.911781311	-10.6143426895	21.4999046326	14.0211362839
39.4120407104	-81.6730575562	-41.8352661133	-10.7328481674	21.5162391663	14.9649887085
22.9265785217	-84.8841934204	-23.3932952881	-10.9955129623	21.7808628082	15.1676740646
-26.1084690094	-84.934753418	28.0025005341	-10.659822464	22.01222229	15.4126234055
-13.1640758514	-84.0043411255	14.3048238754	-10.2519207001	22.4415130615	15.3039493561
-1.31847596169	-83.3945922852	1.77640604973	-9.92805576324	22.7712097168	15.182009697
20.283449173	-80.850151062	-21.9759101868	-9.69012832642	22.9830875397	15.0086078644
38.314666748	-74.3936767578	-43.8208236694	-9.19863128662	22.9933357239	14.8464307785
44.3117675781	-70.9541549683	-51.1763648987	-8.90803432465	22.8970584869	14.8461885452
48.3718948364	-66.9609069824	-56.4121437073	-9.01820850372	23.0563678741	14.7979288101
52.4948196411	-60.7802963257	-61.7800292969	-9.02760791779	23.1091098785	14.8163070679
54.2943153381	-55.2048606873	-64.3270187378	-8.97234153748	23.1242313385	14.6893825531
54.0840568542	-49.7238082886	-65.3298492432	-8.77266216278	23.3126277924	14.3377275467
54.4079971313	-45.7292442322	-66.6006317139	-8.41593456268	23.1754837036	13.8746728897
55.0905456543	-43.8097000122	-66.8378067017	-8.38152599335	22.9966259003	13.6207275391
54.9918327332	-41.5828971863	-67.3860168457	-8.76844406128	22.79088974	13.7667264938
55.0672874451	-35.7496871948	-68.0549316406	-9.70408916473	22.7793045044	14.0524396896
55.9623146057	-29.8713798523	-69.7978668213	-11.0904836655	23.2405109406	14.0293855667
55.9970474243	-23.5622291565	-71.783531189	-12.2574472427	23.4728507996	13.9732074738
54.9789505005	-18.3557109833	-72.7261047363	-12.2064361572	23.6600837708	14.1979990005
53.1941947937	-12.3335199356	-73.7039413452	-11.6854152679	23.9420871735	14.01699543
50.6010398865	-10.923210144	-75.2003173828	-10.698718071	24.2645587921	13.6327629089
46.124042511	-7.35691213608	-77.8672866821	-9.62825298309	24.5134849548	13.3860216141
43.5157852173	-8.19567012787	-78.0256195068	-8.82995796204	24.593000412	13.1675329208
42.2415504456	-15.8727645874	-75.7049560547	-8.70832061768	24.5645713806	13.0413970947
44.6381797791	-31.3229026794	-76.8445205688	-8.89532566071	24.3481826782	12.9696235657
49.575920105	-44.844871521	-81.3589096069	-8.97535610199	24.2619800568	12.9860620499
53.0734901428	-50.8037796021	-85.2347335815	-8.85960292816	24.3117027283	12.8981618881
50.9384002686	-48.2897644043	-83.2946472168	-8.71048259735	24.1398239136	12.8718776703
48.0900268555	-44.3391609192	-80.2487335205	-8.92156887054	23.7047863007	12.9541931152
46.2521781921	-41.6771507263	-78.0349655151	-9.78888607025	23.0784339905	13.299706459
45.8070640564	-41.1857566833	-77.1083526611	-11.8984727859	22.3121471405	13.9900588989
45.4460411072	-41.1833992004	-76.8707885742	-14.4252252579	22.0216007233	14.3408279419
45.2215270996	-41.4103660583	-76.9263153076	-14.8369159698	21.7737808228	14.7959928513
45.206653595	-41.8442840576	-76.7503128052	-14.004986763	20.7911643982	15.3745937347
45.9508781433	-40.9495697021	-77.4375915527	-13.9360742569	19.9854393005	15.927947998
47.6802558899	-40.8555412292	-79.0638198853	-14.1258630753	20.3322792053	15.9558773041
50.3794517517	-42.8163146973	-82.0537338257	-13.5957641602	20.3806934357	16.0935020447
