0.434631347656	1.40623223782	0.0742757320404	0.152186870575	1.7249147892	-0.263662457466
0.433151245117	1.40632498264	0.0754940509796	0.151623249054	1.72461771965	-0.262654423714
0.431341409683	1.40578341484	0.0764465332031	0.150686264038	1.72466301918	-0.261318206787
0.431924581528	1.40890276432	0.0760123729706	0.149931192398	1.7246158123	-0.259588956833
0.442804336548	1.42115020752	0.0729656219482	0.148145198822	1.72464287281	-0.257362246513
0.468484640121	1.43322789669	0.0715090036392	0.144500255585	1.72458684444	-0.254831433296
0.496371984482	1.43486154079	0.0711119174957	0.139975070953	1.72493934631	-0.252362370491
0.51474905014	1.42538380623	0.0778419971466	0.13720536232	1.724578619	-0.250515222549
0.519408941269	1.41690599918	0.0844649076462	0.135323047638	1.72429776192	-0.249227523804
0.512597322464	1.415391922	0.0903120040894	0.131112575531	1.72611153126	-0.2481559515
0.505952596664	1.41559290886	0.094878077507	0.123183727264	1.72771453857	-0.246392965317
0.49925661087	1.41830134392	0.0971660614014	0.113592624664	1.72730612755	-0.244442224503
0.495525598526	1.4205147028	0.0981035232544	0.107153177261	1.72607553005	-0.242447137833
0.493076324463	1.42145717144	0.0986409187317	0.104921579361	1.72614836693	-0.241035223007
0.492655515671	1.42036640644	0.0997302532196	0.103022575378	1.72670257092	-0.240274906158
0.494583845139	1.41882264614	0.100584983826	0.100435018539	1.72769987583	-0.240289568901
0.495532512665	1.41879701614	0.100084066391	0.0982987880707	1.72679746151	-0.240050792694
0.496609210968	1.42044079304	0.097695350647	0.0980648994446	1.72530055046	-0.239563941956
0.499660968781	1.42145991325	0.0958083868027	0.0987710952759	1.72499322891	-0.239800453186
0.502288103104	1.42264699936	0.0939437150955	0.098287820816	1.7256538868	-0.240785241127
