0.0	-0.0	136.295730591	61.8879585266	81.2863998413	-3.56212973595
0.0	-0.0	136.474838257	61.6695098877	81.7053604126	-3.4145731926
0.0	-0.0	136.173934937	61.3486366272	82.729385376	-2.92731261253
0.0	-0.0	135.721435547	60.8644828796	83.0551528931	-2.34703946114
0.0	-0.0	128.812606812	60.2741279602	83.1434783936	-1.82895207405
0.0	-0.0	115.17829895	59.4595870972	83.1088638306	-1.06973731518
0.0	-0.0	107.764686584	57.0035705566	83.775604248	0.665848851204
