0.483873844147	1.07250523567	0.0911633968353	0.17128610611	1.66952502728	-0.153220415115
0.480818986893	1.07228469849	0.0924991369247	0.169328212738	1.66980028152	-0.152402639389
0.477374792099	1.07303118706	0.0939202308655	0.166445970535	1.67121648788	-0.151756286621
0.471755504608	1.07439446449	0.0958515405655	0.161526441574	1.67263233662	-0.151652097702
0.463912248611	1.07518398762	0.097936630249	0.155512571335	1.67327928543	-0.152245759964
0.455709457397	1.07506453991	0.0997210741043	0.149088859558	1.67331790924	-0.153493046761
0.445980548859	1.07470846176	0.100852847099	0.142478227615	1.67248976231	-0.154891252518
0.434083461761	1.07369112968	0.100658535957	0.136262893677	1.67131233215	-0.156314730644
0.420260667801	1.07309436798	0.0999885797501	0.131343126297	1.6700412035	-0.157341003418
0.403868198395	1.07334768772	0.0995848178864	0.127179145813	1.66870069504	-0.157883882523
0.384089946747	1.07494807243	0.0981156826019	0.123952388763	1.66765618324	-0.158642530441
0.360686302185	1.0768045187	0.0959982872009	0.121482133865	1.66757464409	-0.15969979763
0.336207866669	1.07728600502	0.0931669473648	0.119951725006	1.6675132513	-0.160645961761
0.312735795975	1.07558751106	0.0897142887115	0.117660999298	1.66703104973	-0.162074327469
0.292144060135	1.07373034954	0.0855520963669	0.113202095032	1.66630029678	-0.164117336273
0.275868177414	1.07214045525	0.0815000534058	0.106863021851	1.66497433186	-0.167497158051
0.263160705566	1.0726057291	0.078157544136	0.0998976230621	1.66337823868	-0.172095656395
0.250855922699	1.07281184196	0.0731157064438	0.0934088230133	1.66242647171	-0.177525281906
0.239511966705	1.07396614552	0.0689723491669	0.0883057117462	1.66214478016	-0.183132171631
0.2299721241	1.07533669472	0.0646439790726	0.0838706493378	1.66181945801	-0.189067363739
0.221889257431	1.07576286793	0.05994617939	0.0814921855927	1.66122090816	-0.193764209747
0.214841365814	1.07352602482	0.0521640777588	0.0815496444702	1.66091585159	-0.196014642715
0.208695888519	1.06961929798	0.0412150621414	0.0832092761993	1.66049396992	-0.196508646011
0.204109191895	1.06651234627	0.0306729078293	0.0841538906097	1.65999901295	-0.196746826172
0.20104598999	1.06481671333	0.0196658372879	0.0844085216522	1.65957999229	-0.197405457497
0.200714111328	1.06432294846	0.0121781826019	0.0848660469055	1.6592206955	-0.198121786118
0.198704719543	1.06279826164	0.00503599643707	0.0845246315002	1.65827274323	-0.198960781097
0.194853544235	1.06167840958	-0.00327825546265	0.0836584568024	1.65760064125	-0.200121879578
