0.0	-0.0	139.048583984	47.6431922913	77.0050964355	-23.083864212
0.0	-0.0	138.464370728	47.1909942627	76.8896789551	-23.5480632782
0.0	-0.0	131.672653198	46.8173561096	76.880859375	-23.5001220703
0.0	-0.0	115.842552185	46.8418960571	76.5533828735	-23.946149826
0.0	-0.0	108.078819275	46.6610794067	76.2644195557	-24.237247467
0.0	-0.0	109.690704346	46.0560073853	75.8622741699	-24.8678913116
0.0	-0.0	112.111923218	45.2630233765	75.3869247437	-25.0032558441
0.0	-0.0	107.333114624	44.6856040955	74.4221420288	-24.8731384277
0.0	-0.0	97.5807876587	44.5985794067	73.7383270264	-24.6839599609
0.0	-0.0	90.9172515869	44.0588340759	73.9467926025	-24.4000415802
0.0	-0.0	90.7308883667	43.9106140137	74.4452514648	-24.3303928375
0.0	-0.0	89.0319061279	43.6155776978	74.1634979248	-24.2891407013
0.0	-0.0	82.976234436	41.0885810852	73.518951416	-24.063709259
0.0	-0.0	81.6768264771	39.613117218	73.0286254883	-24.5171966553
0.0	-0.0	85.6142120361	38.5626602173	73.1279525757	-24.6038703918
0.0	-0.0	90.9672393799	37.183052063	73.1870117188	-24.0372753143
0.0	-0.0	97.6041488647	34.6156196594	72.8184585571	-23.722743988
0.0	-0.0	108.382629395	32.8778915405	71.8493652344	-24.5711231232
0.0	-0.0	117.227073669	30.4400901794	71.0263824463	-25.2152938843
0.0	-0.0	119.127883911	27.9144058228	70.1429138184	-25.2969589233
0.0	-0.0	117.973945618	25.0290679932	69.3535461426	-25.0619487762
0.0	-0.0	118.198265076	21.5074977875	69.064781189	-24.6097545624
0.0	-0.0	120.141151428	16.3038883209	69.0968856812	-23.6134662628
0.0	-0.0	123.329147339	9.86136817932	69.4850082397	-22.6651306152
0.0	-0.0	126.568817139	2.89367723465	70.1363601685	-21.4772758484
0.0	-0.0	129.995544434	-3.2701382637	70.5897216797	-20.8624858856
0.0	-0.0	133.561340332	-10.0796585083	70.9793243408	-19.6992607117
0.0	-0.0	134.335266113	-16.1271095276	70.9483642578	-18.9194126129
0.0	-0.0	128.508651733	-20.480386734	70.9294891357	-18.7095031738
0.0	-0.0	116.441291809	-22.2029628754	70.9345932007	-18.1911792755
0.0	-0.0	101.264457703	-22.6036872864	71.2283477783	-17.5742588043
0.0	-0.0	87.5344696045	-22.2947559357	71.381652832	-17.1686878204
0.0	-0.0	79.943031311	-24.3169002533	71.7712936401	-17.0290279388
0.0	-0.0	80.5	-28.9674434662	72.8784484863	-17.3982849121
0.0	-0.0	82.8812332153	-30.5524082184	73.3305587769	-18.0788974762
0.0	-0.0	85.5663833618	-34.0019874573	74.0033187866	-17.579246521
0.0	-0.0	91.142288208	-38.5488548279	75.0545272827	-17.1712722778
0.0	-0.0	96.4992752075	-42.4729804993	76.6605911255	-16.9417934418
0.0	-0.0	101.301437378	-45.3111915588	78.3094329834	-16.5818443298
0.0	-0.0	104.843650818	-46.4001731873	80.021774292	-16.0340499878
0.0	-0.0	108.047187805	-45.9433059692	81.6738433838	-15.61302948
0.0	-0.0	110.273124695	-45.2904853821	83.7772674561	-15.517490387
0.0	-0.0	111.132514954	-44.6343078613	85.6057357788	-15.7104825974
0.0	-0.0	112.468284607	-43.366973877	86.5689544678	-15.8873243332
0.0	-0.0	113.716209412	-42.1715278625	86.8253936768	-15.8690195084
0.0	-0.0	109.147041321	-42.0030136108	86.8452453613	-15.4855623245
0.0	-0.0	104.598403931	-41.8741378784	87.0324401855	-15.3362760544
0.0	-0.0	100.402824402	-41.7008590698	87.0002975464	-15.3339195251
0.0	-0.0	94.2155380249	-41.599319458	86.459022522	-15.878121376
0.0	-0.0	86.3823623657	-41.6458396912	86.4808349609	-16.0469322205
