0.0	-0.0	141.749633789	46.491645813	80.7091217041	-22.3002243042
0.0	-0.0	140.652786255	45.7840957642	80.871711731	-22.3862533569
0.0	-0.0	138.512817383	44.9385604858	80.7566452026	-22.4147033691
0.0	-0.0	133.601776123	43.571685791	80.2758331299	-22.8527011871
0.0	-0.0	128.442443848	41.5183334351	80.0075531006	-23.1499996185
0.0	-0.0	123.093780518	39.4188842773	79.965713501	-23.5542621613
0.0	-0.0	118.138214111	36.9146003723	80.2151107788	-23.9198417664
0.0	-0.0	113.435134888	33.5507392883	80.5224990845	-24.318353653
0.0	-0.0	111.215492249	29.652885437	80.9400405884	-24.9575443268
0.0	-0.0	112.006874084	25.2596054077	80.9654159546	-25.6629486084
0.0	-0.0	114.216621399	19.8942470551	80.4952545166	-26.8197441101
0.0	-0.0	116.378646851	12.981719017	79.9907836914	-27.3468017578
0.0	-0.0	117.498565674	6.10533761978	79.7978057861	-28.366317749
0.0	-0.0	117.897697449	-0.549166560173	79.8081359863	-28.3157939911
0.0	-0.0	115.823165894	-6.40345001221	79.90234375	-28.4274463654
0.0	-0.0	111.368049622	-12.0983505249	80.3459014893	-27.9399490356
0.0	-0.0	106.489967346	-16.138628006	80.4679946899	-28.3979892731
0.0	-0.0	99.6546783447	-20.706325531	80.7515640259	-28.2253112793
0.0	-0.0	88.6628875732	-24.6034984589	80.8469390869	-28.0939369202
0.0	-0.0	76.0104064941	-28.1659183502	80.4105148315	-27.7932720184
0.0	-0.0	68.2061843872	-31.0049495697	80.4843826294	-28.1471881866
0.0	-0.0	66.232749939	-34.8287696838	81.5692825317	-28.3635826111
0.0	-0.0	69.6287231445	-38.7043380737	82.992225647	-28.8682327271
0.0	-0.0	71.7136688232	-42.2643165588	84.543838501	-29.2920703888
0.0	-0.0	72.2519378662	-45.5514831543	85.4900741577	-29.7076263428
0.0	-0.0	72.9867630005	-47.2635650635	86.1445617676	-30.0470600128
0.0	-0.0	73.7873840332	-49.4813766479	86.8310470581	-29.8470668793
0.0	-0.0	74.4719085693	-52.7120475769	87.5869979858	-29.7436523438
