0.0	-0.0	132.693054199	-107.889122009	85.0998916626	-170.213134766
0.0	-0.0	132.161178589	-109.418380737	85.1374511719	-169.401245117
0.0	-0.0	131.529464722	-115.259109497	84.4511413574	-168.239135742
0.0	-0.0	130.435379028	-122.401878357	80.0485534668	-166.732192993
0.0	-0.0	126.541137695	-126.014427185	69.7833786011	-164.724349976
0.0	-0.0	121.659339905	-131.607879639	58.1104660034	-162.284667969
0.0	-0.0	109.837516785	-138.499206543	52.249206543	-161.604934692
0.0	-0.0	88.6167068481	-140.709243774	51.4378929138	-162.557678223
0.0	-0.0	74.636100769	-139.156951904	53.0752487183	-163.315139771
0.0	-0.0	66.0500717163	-138.182632446	55.7821235657	-162.594238281
0.0	-0.0	33.9368858337	-140.540237427	57.2916908264	-160.286804199
0.0	0.0	-14.7326612473	-148.421737671	56.3927383423	-157.954147339
0.0	0.0	-22.9637985229	-157.62512207	56.0982894897	-159.125274658
0.0	0.0	-26.2555198669	-162.343780518	56.7120780945	-160.895751953
0.0	0.0	-29.6913528442	-161.977966309	56.1742897034	-163.082000732
0.0	0.0	-38.951965332	-157.384490967	54.7818832397	-164.559143066
0.0	0.0	-42.673286438	-152.836791992	53.7564926147	-164.406677246
0.0	0.0	-44.7519836426	-150.649871826	52.2320899963	-164.265441895
0.0	0.0	-44.6195297241	-149.588653564	48.9721641541	-164.396362305
0.0	0.0	-46.7189216614	-148.164718628	44.9683876038	-164.782699585
0.0	0.0	-48.8316497803	-146.883300781	42.941192627	-164.592025757
0.0	0.0	-51.269821167	-147.271209717	41.7207336426	-163.426467896
