32.2310943604	-6.51720714569	-159.111312866	-13.8966312408	-4.22772550583	36.9595909119
32.3729286194	-6.69629335403	-158.980529785	-13.8512201309	-4.16764879227	36.929523468
32.4939002991	-6.78125619888	-158.945983887	-13.7347078323	-4.2471036911	36.8226509094
32.5791854858	-6.7323102951	-158.797714233	-13.7139873505	-4.69258499146	36.6537704468
32.484588623	-6.67960214615	-158.684234619	-13.89793396	-4.84248876572	36.7991371155
32.5226745605	-7.1461853981	-158.016845703	-14.1340150833	-4.73144435883	37.0993614197
32.7827224731	-8.07775306702	-156.636779785	-13.9842119217	-4.83162498474	36.9963493347
32.9189834595	-10.4694795609	-153.375579834	-13.7715110779	-5.05257081985	36.6457557678
33.4598121643	-14.8645563126	-147.238510132	-13.3331947327	-5.96629428864	35.5054626465
33.7477149963	-20.7018032074	-139.674713135	-12.3007926941	-7.58249998093	31.9502811432
32.8413734436	-28.1235046387	-130.648529053	-10.9965848923	-8.87910461426	25.0081920624
29.0387363434	-35.9853401184	-118.248130798	-10.116191864	-9.44853591919	16.878900528
21.0375156403	-42.3138198853	-101.594024658	-8.92786502838	-9.67923736572	9.5734796524
16.5827960968	-43.9046592712	-94.336730957	-7.02214241028	-9.91996955872	3.47321105003
15.207654953	-44.3014259338	-90.2598724365	-4.51169252396	-10.3929872513	-1.88084363937
10.2321062088	-47.8073539734	-75.4272766113	-1.30624568462	-11.7673196793	-7.10872650146
4.55541133881	-50.3488273621	-60.6826057434	1.19218111038	-12.2899169922	-9.47334480286
5.94143629074	-49.5463790894	-60.4651489258	1.63073837757	-11.925157547	-9.50781154633
0.0539705380797	-51.4273147583	-39.9282150269	0.897736370564	-11.3652324677	-9.28588008881
-8.19129657745	-50.2864761353	-21.0617923737	0.515568077564	-10.8465099335	-8.80410289764
-8.36512947083	-49.5991363525	-17.9714279175	0.326817661524	-10.683347702	-8.0423707962
-13.1649456024	-49.6911964417	-7.30207777023	0.295622825623	-10.4894523621	-7.39298725128
-15.1517858505	-49.9269104004	-1.55150067806	0.154601097107	-10.2884902954	-6.95007944107
-14.9518766403	-50.2046089172	-0.737859368324	0.853769659996	-9.28599643707	-7.44136571884
-14.7440471649	-50.3796577454	-2.68896794319	2.3660633564	-7.08510923386	-8.97955417633
-14.747923851	-50.5497550964	-5.11413049698	3.4280898571	-3.3847784996	-10.7277011871
-15.2794523239	-50.8417129517	-5.94076299667	3.31564068794	0.156290709972	-10.1521129608
-15.0595645905	-51.1213722229	-7.65953683853	2.27155828476	3.19353723526	-8.65535640717
-13.7517576218	-51.5229415894	-10.859960556	1.24920463562	4.32912778854	-6.90873289108
-12.0447406769	-51.5788497925	-15.9878282547	0.399253815413	2.92784118652	-4.17063188553
-11.5826511383	-51.7556343079	-17.3670749664	0.3605273664	0.508280098438	1.71560251713
-10.7733097076	-51.9029960632	-19.0256729126	0.348528027534	-0.366816699505	11.2756795883
-10.389667511	-52.2229309082	-19.9512577057	-0.499847412109	-0.354796350002	18.2346477509
-9.63566112518	-52.387348175	-21.1458263397	-0.788196206093	-0.632761955261	21.9406433105
-9.97097873688	-52.3719024658	-20.5637741089	-0.226653292775	-0.960994899273	21.4301242828
-9.32487201691	-52.6081352234	-21.3682479858	1.52002549171	-0.925297260284	19.3784732819
-8.67671775818	-52.5648345947	-22.4222126007	4.16484689713	0.116111330688	17.922044754
-7.41662311554	-52.614616394	-25.5391330719	4.32249975204	0.911598801613	15.4537858963
-6.98451423645	-52.4721603394	-25.6674137115	0.285290688276	1.40856254101	10.0905513763
-7.1966137886	-52.3587875366	-25.7827987671	-6.68901395798	0.353676021099	4.13723039627
-7.08467054367	-51.9691505432	-26.3213615417	-16.5346088409	-2.39430832863	-3.73664736748
-6.25684928894	-51.9878845215	-27.9113292694	-22.0644435883	-5.62312030792	-10.8858060837
-4.93233346939	-52.059211731	-30.7153930664	-22.1315937042	-8.10742664337	-16.8485240936
-3.22336983681	-52.1652107239	-33.3148002625	-18.9820728302	-8.92052268982	-20.3833904266
-1.22507238388	-52.2686653137	-36.0069961548	-16.7059078217	-9.11555957794	-20.9059505463
-2.97770237923	-52.5939178467	-29.7821960449	-16.6052646637	-9.56301307678	-20.0359687805
-9.55937099457	-51.6580123901	-14.2451076508	-17.0810890198	-9.61964893341	-19.4659843445
-12.2424345016	-50.7894821167	-8.67209529877	-17.1697711945	-9.59007072449	-19.6748085022
-16.6797790527	-50.5603408813	0.968276143074	-16.6282997131	-9.32241153717	-20.040555954
-21.9794597626	-50.2780418396	11.8088226318	-16.6288337708	-9.28480529785	-20.4089775085
-20.3882217407	-51.4382629395	10.2806844711	-17.2662162781	-9.69405651093	-21.7123622894
-22.0094032288	-52.6038551331	13.2124357224	-17.4050979614	-9.76987743378	-24.1909008026
-23.5081977844	-53.8640937805	15.3756427765	-17.5180263519	-9.39006614685	-26.3597793579
-22.1344661713	-54.051448822	11.6732416153	-18.3707771301	-8.6202507019	-27.4237804413
-22.569185257	-53.605682373	11.2260169983	-19.1840209961	-7.84775066376	-26.8037586212
-22.012878418	-53.480091095	9.43204689026	-20.1563510895	-7.24916791916	-24.154340744
-22.525592804	-52.0907058716	9.02840614319	-20.6177024841	-6.73367977142	-23.177482605
-21.7039680481	-50.6442642212	6.23767328262	-20.3835220337	-6.33909273148	-23.6448535919
-21.8924884796	-49.2997894287	5.67027711868	-20.0119819641	-6.07759523392	-23.643913269
-22.0713920593	-47.9259605408	5.06487894058	-20.2482585907	-6.28849172592	-23.2788047791
-22.3904724121	-46.1870002747	4.52610349655	-20.6075744629	-6.41784381866	-22.9396476746
-22.5102748871	-44.7586517334	3.23305225372	-20.9529781342	-6.4785284996	-22.7037811279
-23.8538532257	-42.7798538208	3.33006477356	-21.296667099	-6.48562955856	-22.6293354034
-25.0621547699	-41.4163856506	4.56430196762	-21.9377765656	-6.37134218216	-22.509929657
-26.5832977295	-40.1016540527	6.68672561646	-22.417432785	-6.43355798721	-22.1947555542
-27.4446620941	-39.2639961243	6.88617038727	-22.7347602844	-6.53894138336	-22.1355686188
-28.5624847412	-38.1267433167	7.27524995804	-22.7521820068	-6.21383285522	-22.3883361816
-28.6952457428	-37.1393814087	6.5747718811	-22.8380813599	-6.02451848984	-22.5433158875
-28.9388237	-36.5296516418	6.32788944244	-22.8470554352	-6.05794429779	-22.4757118225
-29.0820102692	-35.8566818237	6.43198442459	-22.9737796783	-6.20283603668	-22.3972091675
-29.4143428802	-35.4857254028	6.66865110397	-23.2245788574	-6.31418514252	-22.1674346924
-29.9857559204	-35.0781173706	7.20326042175	-23.7971038818	-6.29585456848	-22.0602779388
-30.4742431641	-34.8528022766	7.64179229736	-24.4020748138	-6.31823968887	-22.4477500916
-31.0012722015	-34.5750198364	8.3013715744	-24.2593402863	-6.43066358566	-22.609167099
-30.9144611359	-34.5623054504	8.64218997955	-23.9181156158	-6.51389789581	-22.3250675201
-30.9924259186	-34.7811851501	9.11887931824	-23.2919979095	-6.62682008743	-21.509262085
-30.8908233643	-34.941822052	9.11453056335	-21.8260936737	-6.67648649216	-19.2106533051
-30.930688858	-34.9798583984	9.43009090424	-21.4275131226	-6.88382959366	-19.1119384766
-30.8154735565	-35.2799835205	9.58951282501	-20.8476886749	-6.50808811188	-21.1400279999
-30.875749588	-35.3059806824	9.41028594971	-20.447725296	-5.94957447052	-22.0403823853
-31.0398368835	-35.1777801514	9.45107650757	-21.2064743042	-6.42551088333	-22.6202392578
-30.7459812164	-35.1207504272	9.24700164795	-20.3872127533	-6.88992118835	-20.7196502686
-31.1031780243	-35.1099281311	9.34313201904	-18.6458282471	-7.04430007935	-18.4244823456
-30.9479541779	-35.2957382202	9.22043895721	-17.1212902069	-6.86648416519	-17.3589115143
-31.181438446	-35.3959655762	9.52342891693	-16.2792949677	-6.367603302	-18.0060787201
-31.048658371	-35.567111969	9.57630825043	-15.5702371597	-5.74839496613	-19.5239715576
-30.9791545868	-35.9105834961	9.44712352753	-14.1687793732	-5.15124034882	-20.959028244
-30.841129303	-35.9611320496	9.22211456299	-12.9049425125	-4.89458417892	-21.649887085
-30.6331138611	-35.8814506531	9.11929130554	-12.1958475113	-4.8991355896	-22.5540924072
-30.4504203796	-35.9861450195	8.88604640961	-11.3437519073	-4.92099237442	-23.6178131104
-30.5924911499	-35.9953193665	8.8181810379	-10.6607637405	-5.02634620667	-23.7758197784
-30.5169620514	-36.2257385254	8.41941356659	-10.768497467	-5.25105237961	-23.4943561554
-30.4124031067	-36.3431434631	8.16957473755	-11.1637535095	-5.52263879776	-23.2269420624
-30.1622085571	-36.6386413574	7.69373130798	-11.6570653915	-5.81800365448	-22.7553367615
-30.1622848511	-36.8229179382	7.1128911972	-12.3495292664	-6.2313117981	-22.2292156219
-29.6894626617	-37.4198379517	5.69646549225	-12.9445533752	-6.7767572403	-21.6476192474
-29.4789047241	-37.8568382263	4.86775159836	-13.2971906662	-7.16438674927	-21.2637615204
-29.2082920074	-38.2982788086	3.59455013275	-13.6317939758	-7.33811330795	-21.0258159637
-29.4777145386	-38.406047821	4.01255130768	-14.1517457962	-7.40025997162	-20.7240829468
-30.0296154022	-38.2851982117	5.22721672058	-14.7556447983	-7.45322704315	-20.4394779205
-30.2227287292	-38.1728820801	5.61345672607	-15.1811742783	-7.47630167007	-20.3651618958
-30.5453300476	-38.1174964905	5.92425298691	-15.2148752213	-7.42591190338	-20.441368103
-30.8294830322	-38.2118034363	6.52544689178	-15.4075708389	-7.23952579498	-20.4142551422
-31.2147274017	-38.1823539734	7.29805040359	-15.5013484955	-6.92127943039	-20.3924846649
-31.2003364563	-38.0432090759	7.62634372711	-15.4308252335	-6.77163076401	-20.4595222473
-30.6726531982	-38.0040168762	6.34671163559	-15.3740615845	-6.58778238297	-20.3804836273
-30.3088817596	-38.1499290466	5.27477264404	-15.4184579849	-6.55791711807	-20.328704834
-30.3541469574	-37.872795105	4.92526435852	-15.4825935364	-6.6790394783	-20.2103157043
