0.0	-0.0	132.809234619	-115.112838745	87.6949081421	-174.748809814
0.0	-0.0	132.648864746	-116.062652588	87.8960189819	-174.259811401
0.0	-0.0	132.447647095	-117.198974609	89.1030044556	-173.710006714
0.0	-0.0	130.412368774	58.6388053894	86.8253631592	5.67132282257
0.0	-0.0	122.378067017	53.390045166	80.7225799561	5.40506839752
0.0	-0.0	104.280578613	47.551322937	72.7422637939	3.3215444088
0.0	-0.0	76.961265564	38.5827064514	64.740562439	-1.00230658054
0.0	-0.0	62.475063324	29.1139640808	58.9078598022	-1.71885991096
0.0	-0.0	64.0935134888	21.2889385223	54.4144706726	-0.205273598433
0.0	-0.0	43.4487495422	13.2787885666	50.6443557739	3.26761198044
0.0	-0.0	13.593585968	8.10535907745	45.7283363342	5.82320547104
0.0	0.0	-7.5267791748	4.24142980576	40.1776313782	9.74526786804
0.0	0.0	-12.1938695908	-3.00672984123	38.9767684937	15.3833465576
0.0	0.0	-12.1648139954	-11.9337158203	41.7208480835	22.6341094971
0.0	0.0	-11.7796812057	-17.5527706146	45.7344856262	26.0246715546
0.0	0.0	-9.03630256653	-15.7229356766	46.4009552002	24.8725280762
0.0	0.0	-10.4476737976	-10.886472702	42.4183082581	23.6955795288
0.0	0.0	-16.1954536438	-9.38411521912	39.3129692078	24.6020965576
0.0	0.0	-29.8871440887	-9.65905857086	40.059928894	25.5724925995
0.0	0.0	-37.9890213013	-10.5855445862	42.3625450134	27.4272842407
0.0	0.0	-38.1909790039	-13.1899204254	43.685459137	30.5614185333
0.0	0.0	-39.2546043396	-18.1783561707	43.3001174927	34.9930686951
0.0	0.0	-40.5815925598	-21.6024360657	41.5574569702	38.5766944885
0.0	0.0	-47.8276252747	-20.5351409912	39.593006134	38.9070129395
0.0	0.0	-51.9973602295	-18.3404026031	38.5002403259	38.8287010193
0.0	0.0	-51.0112686157	-17.924074173	39.0872764587	39.7671585083
0.0	0.0	-36.5301780701	-18.3781261444	39.974773407	41.0125541687
0.0	0.0	-20.696811676	-16.7502269745	42.600643158	40.2062454224
0.0	0.0	-15.3519992828	-10.1356449127	45.4588012695	36.3137969971
0.0	-0.0	2.40143561363	-3.84894561768	45.7488822937	32.6807479858
0.0	-0.0	72.5319290161	-1.16711688042	44.7945022583	30.9719409943
0.0	-0.0	133.650009155	0.289337009192	44.0970802307	29.6051139832
0.0	-0.0	118.162834167	3.12733268738	44.0558052063	27.4431591034
0.0	-0.0	45.196105957	4.95372819901	44.7564697266	26.3324146271
0.0	-0.0	57.0748291016	6.81613349915	46.0636100769	24.8354244232
0.0	-0.0	58.1449890137	7.49398136139	44.2209625244	24.8276615143
0.0	-0.0	43.2878456116	7.87203407288	42.6903953552	24.4564628601
0.0	-0.0	16.5066413879	9.67129325867	41.7924041748	23.1553592682
0.0	0.0	-3.22179031372	12.7528648376	42.47631073	22.2366542816
0.0	0.0	-1.24685871601	14.6310834885	42.9296379089	21.7456817627
0.0	-0.0	2.31988716125	14.945561409	42.9741706848	21.5647182465
0.0	-0.0	3.48812413216	14.1392478943	43.7192192078	22.2430477142
0.0	0.0	-11.6009454727	13.1987886429	45.9502296448	23.3185253143
0.0	0.0	-22.4531364441	11.5633611679	47.4060211182	24.2132530212
0.0	0.0	-15.4544277191	9.15148067474	45.0867462158	24.2923908234
0.0	0.0	-16.0865974426	5.77288675308	45.3150482178	26.4502658844
0.0	0.0	-22.943315506	0.789439976215	43.0738487244	29.3538970947
0.0	0.0	-31.8299007416	-1.86799919605	35.2448883057	31.1880836487
0.0	0.0	-30.4444828033	-6.43743991852	31.024356842	34.355506897
0.0	0.0	-30.4624195099	-13.3381080627	31.7079753876	39.4296913147
0.0	0.0	-30.4718399048	-13.0807342529	26.446308136	39.7577819824
0.0	0.0	-34.0926933289	-8.70087242126	19.3330535889	38.5701179504
0.0	0.0	-39.1076469421	-6.38844108582	22.3031520844	38.7371253967
0.0	0.0	-43.2298698425	-7.68176269531	30.3224658966	40.9798202515
0.0	0.0	-51.7082901001	-7.13062953949	31.317565918	41.3189544678
0.0	0.0	-58.2737808228	-5.47287654877	31.0312709808	40.6924362183
0.0	0.0	-65.7406387329	-7.16638040543	31.834695816	42.5409240723
0.0	0.0	-69.7988204956	-11.7857370377	33.3986740112	47.0888328552
