0.384395837784	1.4258286953	0.0735874176025	0.166436910629	1.71582961082	-0.2063601017
0.384399414062	1.42513430119	0.074764251709	0.16511797905	1.71572875977	-0.204653263092
0.383264780045	1.42265641689	0.0761035680771	0.163316249847	1.71484529972	-0.202839970589
0.381721973419	1.41829836369	0.0777473449707	0.160713911057	1.71399593353	-0.200721979141
0.382865905762	1.41311788559	0.0798907279968	0.156606197357	1.71419775486	-0.198778867722
0.388466596603	1.40426230431	0.0847414731979	0.150674343109	1.7147756815	-0.196508407593
0.397759199142	1.39344346523	0.0932775735855	0.145324468613	1.71536207199	-0.194209575653
0.39803314209	1.38485002518	0.0971579551697	0.138905525208	1.71723592281	-0.192348361015
0.395788908005	1.38223576546	0.100123882294	0.131181716919	1.72008264065	-0.190971016884
0.394062519073	1.38323068619	0.101441502571	0.121994256973	1.7234300375	-0.190737843513
0.392762899399	1.38439846039	0.103155374527	0.113726377487	1.72452735901	-0.190946698189
0.392265796661	1.38551294804	0.104159832001	0.110067844391	1.72401595116	-0.191060066223
0.391095161438	1.3880418539	0.102847337723	0.110517263412	1.72373402119	-0.191538691521
0.387792110443	1.3885307312	0.100001335144	0.112550735474	1.72417247295	-0.192949533463
0.378899335861	1.38705277443	0.100421786308	0.115529060364	1.72471702099	-0.194507002831
0.375449180603	1.39120841026	0.0993249416351	0.120224952698	1.72507119179	-0.194843530655
0.375537157059	1.39621305466	0.0981059074402	0.125668287277	1.72438085079	-0.19441151619
0.375958204269	1.39740049839	0.0966720581055	0.130872249603	1.72292864323	-0.193791627884
0.375772476196	1.39685177803	0.0938673019409	0.134693861008	1.72248256207	-0.193817615509
