-70.6017684937	-35.697013855	140.207717896	3.57845520973	-0.361590713263	-4.41417980194
-71.3845291138	-35.9747772217	140.963546753	3.49262094498	0.038771674037	-4.25405931473
-71.7580032349	-35.5809440613	140.800323486	3.3909702301	0.366753876209	-4.15517282486
-71.6215438843	-34.9679222107	140.132446289	3.22866749763	0.316505849361	-4.2090845108
-74.3376846313	-33.8043670654	139.547195435	2.45715260506	-1.37777853012	-4.07955265045
-76.3057861328	-34.1774787903	137.090942383	-0.1109976843	-4.03444623947	-3.76259803772
-76.9836196899	-34.1547660828	134.696670532	-1.49528217316	-4.1737370491	-3.51075124741
-62.8355407715	-42.6074790955	97.3363876343	-1.52118599415	-3.09983038902	-3.09811234474
-46.7491340637	-41.0716171265	49.9131813049	-2.00697016716	-2.43885016441	-2.90821647644
-49.6328201294	-40.1591567993	48.6043357849	-2.65108299255	-1.99836707115	-2.57129883766
-60.8362159729	-36.5722999573	70.8277511597	-2.86537027359	-1.35398328304	-2.1475417614
