0.0	-0.0	132.482208252	-126.099502563	83.6429138184	171.505096436
0.0	-0.0	131.830871582	-126.144248962	83.6194381714	171.366577148
0.0	-0.0	131.809112549	-126.789176941	83.4229888916	171.473953247
0.0	-0.0	131.574783325	-132.476699829	88.7584991455	171.908828735
0.0	-0.0	130.86177063	34.5280036926	80.2171936035	-7.55591392517
0.0	-0.0	129.799209595	19.7812271118	68.5161743164	-7.55545186996
0.0	-0.0	128.464401245	8.85456943512	58.9688415527	-8.63700866699
0.0	-0.0	127.684814453	2.71975183487	49.7480621338	-9.32230091095
0.0	-0.0	128.111740112	-0.987316250801	42.2184333801	-10.2164201736
0.0	-0.0	129.77696228	-4.10275793076	39.7792816162	-8.59181404114
0.0	-0.0	127.325683594	-5.79274845123	41.6398696899	-7.30682849884
