-0.0560457706451	1.20247042179	0.16072678566	-0.271000385284	1.48472690582	-0.0916163921356
-0.056075334549	1.20109570026	0.161393165588	-0.270493030548	1.484618783	-0.0905117988586
-0.0572240352631	1.20136380196	0.161999583244	-0.269995689392	1.48493337631	-0.089751958847
-0.058424949646	1.20256328583	0.161732554436	-0.267699480057	1.48919868469	-0.0892881155014
-0.0601596832275	1.20446515083	0.161575555801	-0.265220880508	1.49617600441	-0.0916724205017
-0.0612869262695	1.20679104328	0.157979726791	-0.265049695969	1.5010985136	-0.095552444458
-0.0653619766235	1.20844328403	0.147772073746	-0.265254974365	1.5046916008	-0.0989904403687
-0.0673122406006	1.21440136433	0.145838737488	-0.265136241913	1.50602447987	-0.101625919342
-0.0447008609772	1.22914350033	0.183147549629	-0.265408992767	1.50687909126	-0.10395359993
-0.0534543991089	1.2129150629	0.188256263733	-0.266932725906	1.5083258152	-0.106699228287
-0.0610749721527	1.19982266426	0.182893157005	-0.268583059311	1.50923347473	-0.108871817589
-0.0688142776489	1.17936956882	0.178523898125	-0.269735574722	1.51026546955	-0.111822605133
-0.0642557144165	1.19546663761	0.17880654335	-0.270729064941	1.51214051247	-0.115880250931
-0.0582258701324	1.20843970776	0.178357124329	-0.270816802979	1.51290905476	-0.119823455811
-0.0412075519562	1.23086762428	0.182960748672	-0.270672559738	1.51303946972	-0.123457074165
