-16.6925048828	-59.2261695862	138.221740723	3.14783906937	-0.39987552166	-3.74182510376
-16.4647636414	-59.0005989075	137.645706177	3.18716406822	-0.242182284594	-3.84767651558
-16.3620891571	-58.8472938538	137.331863403	3.16321873665	-0.208700209856	-3.84125089645
-16.1663303375	-58.6859588623	136.955810547	3.10660600662	-0.401021569967	-3.83176469803
-16.3154182434	-58.628074646	137.242431641	2.83600306511	-0.95585423708	-3.59095716476
-16.3751487732	-58.5041656494	137.12399292	2.50532770157	-1.28668403625	-3.50201225281
-12.7773008347	-56.2733230591	131.679153442	2.75502705574	-1.79432845116	-3.56857180595
-5.65952634811	-48.8880271912	119.077545166	3.48692417145	-3.64277076721	-3.82809281349
-5.56219482422	-46.3686027527	116.207054138	4.14501571655	-5.42821311951	-4.06261301041
-3.18802261353	-46.412689209	114.696609497	5.05973625183	-7.96133136749	-4.39313268661
-0.0522490441799	-47.539932251	112.024742126	7.46598052979	-12.9170513153	-5.50320672989
3.81847381592	-49.6458702087	108.48638916	10.3726673126	-18.051202774	-7.03221035004
-0.233671247959	-52.4752655029	111.692100525	11.8416948318	-18.0402431488	-7.55442476273
1.03128778934	-54.1511955261	112.426605225	15.4648332596	-20.3347377777	-9.03542709351
2.60848283768	-54.8400382996	112.218994141	18.0497436523	-24.3736839294	-10.546415329
-1.45505821705	-60.0155105591	117.91859436	18.0357151031	-26.4376716614	-10.8003807068
-8.12428760529	-71.8702163696	130.637008667	17.8463001251	-26.0578193665	-10.7970952988
-16.3992404938	-79.2472686768	144.411224365	17.7608890533	-24.5875930786	-10.715921402
-4.46992397308	-75.2449035645	130.140762329	17.7179870605	-23.1112632751	-10.3126335144
11.6940422058	-56.3078994751	105.680137634	17.120141983	-22.3074836731	-9.72459506989
18.2158031464	-49.0081558228	98.7854614258	16.5157108307	-22.0223941803	-9.38418674469
16.6113739014	-51.3683052063	102.077209473	16.0045394897	-22.0539245605	-9.04664421082
18.2862548828	-50.2176475525	99.3436508179	15.9451160431	-22.1450958252	-8.69367408752
21.3725566864	-46.1368713379	93.3590164185	15.7201271057	-22.2775993347	-8.68064498901
27.4971446991	-41.4318466187	84.4747238159	15.6733951569	-22.200422287	-8.62827014923
28.3764324188	-38.5874671936	81.8907394409	15.7526216507	-21.8678760529	-8.72681713104
27.9217071533	-40.2792816162	83.2200927734	15.7389726639	-21.4165058136	-8.59739398956
27.8237266541	-40.5325622559	83.5160446167	15.4379034042	-21.3922195435	-8.49513053894
26.9543495178	-41.7525444031	85.1366958618	15.1941671371	-21.496509552	-8.39642906189
26.9092903137	-41.974811554	85.315826416	14.9544630051	-21.5714588165	-8.24382305145
27.3036689758	-41.4280281067	83.9752960205	14.6186103821	-21.4004020691	-7.90525436401
27.3419818878	-42.4108276367	83.9169158936	14.4907751083	-20.9446907043	-7.8951997757
27.0363960266	-42.7640113831	83.1475906372	14.2983827591	-19.3618907928	-7.53469657898
26.9586315155	-43.878364563	82.1268997192	13.2422952652	-18.0857810974	-7.32851219177
25.7157421112	-45.2186813354	82.5266113281	11.662238121	-16.43866539	-6.79136943817
25.6165218353	-46.0241775513	81.9372634888	11.0229349136	-17.4201965332	-6.46794366837
25.2275695801	-47.1446685791	82.25806427	10.7275295258	-19.0216560364	-6.54263973236
25.5131168365	-48.1784706116	82.5128250122	10.7600574493	-21.3941707611	-6.53973722458
27.601808548	-46.810043335	80.0352859497	11.4036922455	-21.9928455353	-6.7731180191
