0.0	-0.0	142.844985962	-114.883125305	88.0609817505	168.892623901
0.0	-0.0	142.951187134	-115.81414032	88.4316558838	169.127151489
0.0	-0.0	143.037002563	-115.884819031	88.4595031738	169.041107178
0.0	-0.0	143.160919189	-116.347885132	89.3571624756	169.030212402
0.0	-0.0	140.264968872	56.4611206055	80.7515335083	-9.27410888672
0.0	-0.0	135.833312988	47.9597320557	75.4643478394	-7.6394739151
0.0	-0.0	133.072616577	44.8226661682	76.5803985596	-6.41776800156
0.0	-0.0	88.8401489258	45.8260154724	78.3519515991	-5.4388628006
0.0	-0.0	12.9159011841	45.1284332275	80.0169677734	-4.86176586151
0.0	-0.0	35.1858444214	43.472568512	81.1001281738	-3.6583878994
0.0	-0.0	62.1232452393	42.3824768066	82.006401062	-2.78424358368
0.0	-0.0	61.9279327393	40.0433578491	86.0754394531	0.00908395741135
