-2.55300951004	-2.18355679512	-10.5448226929	10.8866472244	9.01108074188	35.3054504395
-2.08718442917	-2.24706912041	-10.9944915771	10.890004158	9.01129436493	35.3309326172
-2.38963079453	-2.13245010376	-10.9002799988	10.877620697	9.12569046021	35.2844009399
-2.40209698677	-2.16610193253	-11.0066843033	10.9865436554	8.96558952332	35.240688324
-2.60462188721	-2.39708805084	-10.861114502	10.581735611	8.02363967896	34.4492721558
-2.50986409187	-2.57638430595	-10.6117610931	9.37646484375	5.18437671661	33.2579154968
-2.71917533875	-2.93940424919	-10.2281751633	8.21765995026	1.21389782429	31.9029846191
-3.15428543091	-3.30252575874	-9.73197746277	7.01032543182	-4.25055789948	29.1989536285
-3.49581694603	-4.05143737793	-8.83722305298	6.43282032013	-8.31698608398	25.9642753601
-4.98353052139	-5.81228590012	-6.55133724213	7.61943864822	-10.8267774582	22.9787731171
-5.32056331635	-6.13306474686	-6.52658653259	9.06502151489	-14.0056829453	19.4258880615
-5.38319921494	-5.83197975159	-6.47269105911	10.1408433914	-14.1686906815	17.413236618
-6.18050050735	-6.48340845108	-4.57854032516	10.2352895737	-13.1283769608	17.4279651642
-6.92518138885	-7.64002990723	0.158897891641	10.5437479019	-12.7650270462	17.5936832428
-7.74467992783	-10.3652238846	6.74750089645	10.6398067474	-12.980802536	17.1376094818
-7.61018705368	-13.3596315384	10.5355415344	10.8139543533	-12.9251708984	16.3904037476
-6.89850330353	-15.1268196106	12.3795070648	11.5237493515	-12.6495246887	16.0958404541
-5.4995059967	-16.6893444061	13.6076946259	12.3930130005	-11.8810768127	16.870218277
-4.07827281952	-17.1769142151	14.0903930664	13.3189058304	-11.446185112	16.4758758545
-2.83779573441	-16.7831096649	10.4137172699	13.6694641113	-10.9337053299	14.5787258148
-3.07335639	-16.1893424988	8.92771434784	12.8266506195	-10.0594749451	10.3580112457
-2.51755952835	-16.2306804657	6.9662156105	11.912238121	-9.42651844025	5.73709344864
-3.06806111336	-16.6341552734	6.70202827454	11.7221670151	-9.15442848206	3.0567688942
-2.80881762505	-16.8165893555	5.74273395538	11.6440658569	-9.00835514069	1.64116048813
-2.7027964592	-17.072555542	5.48268890381	11.4176177979	-9.4370508194	0.792819082737
-2.4677901268	-17.5514221191	5.62965202332	11.2270822525	-9.76218128204	0.449573934078
-1.34657859802	-17.4337329865	3.12398767471	10.8922538757	-10.0675582886	-0.594606280327
-1.99218571186	-16.9501113892	4.10480451584	10.3027830124	-10.7201604843	-3.08763098717
-2.36589503288	-16.7275676727	4.17623710632	9.02904605865	-11.3714399338	-5.1632771492
-3.13253545761	-16.5926685333	3.73746109009	8.24980640411	-11.6300153732	-5.41838502884
-4.43216657639	-16.0244216919	4.09638547897	8.2338848114	-11.3842802048	-4.59923601151
-4.79675483704	-16.061384201	5.07196617126	8.35653591156	-11.4205579758	-2.834451437
-4.72085905075	-15.9893474579	5.21699857712	8.84839725494	-11.9486131668	-0.631799221039
-4.41322803497	-15.9871358871	5.45987415314	9.34323215485	-13.1889724731	0.250304847956
-4.11300230026	-15.7390022278	5.73716688156	9.77151107788	-13.794962883	0.394838839769
-3.9074037075	-15.9498310089	6.01779603958	10.0843992233	-13.6162910461	0.0245976243168
-2.98033547401	-16.8676013947	4.95665311813	10.1869745255	-13.5150318146	-0.0581284090877
-2.74498224258	-17.594285965	3.9132809639	10.2213926315	-13.5155115128	0.0418773107231
-3.09707593918	-18.2344646454	4.23942708969	10.0027036667	-13.3688983917	-0.13327921927
-3.84640622139	-21.2670230865	5.04866600037	9.70139980316	-13.4610910416	-0.0289574358612
-3.50154566765	-24.1985645294	5.52631139755	9.56743431091	-13.5568914413	0.0712072774768
-2.09077739716	-24.8776912689	5.05348157883	9.75514507294	-13.4112253189	-0.0395353585482
-1.8695524931	-24.1834335327	4.79239177704	10.2251081467	-13.209312439	-0.237286150455
-0.840692162514	-24.3993701935	4.42904090881	10.3655443192	-13.1792030334	-0.27418705821
0.119153514504	-24.4928531647	4.30735015869	10.3435211182	-13.2853155136	-0.365862905979
-0.0363844968379	-23.164560318	2.96064829826	10.2936964035	-13.1769008636	-0.428756296635
-0.337654799223	-23.1001377106	2.92889404297	10.2371711731	-12.8012180328	-0.362681567669
-0.506608247757	-22.8675022125	2.67150497437	10.0418558121	-12.1107301712	-0.117213748395
-0.424926638603	-22.6710643768	2.34710860252	9.27602100372	-11.8492536545	1.68184399605
-0.439264863729	-22.5092315674	2.10301351547	8.98725318909	-11.4721460342	4.60413408279
-0.341542989016	-22.4807014465	1.89589774609	9.15427875519	-10.7613306046	7.06947803497
-0.197261363268	-22.5396442413	1.96454715729	10.0096330643	-10.3074045181	8.17958164215
0.174413859844	-22.902256012	2.23680377007	10.7179012299	-10.4335784912	8.35425853729
0.774655222893	-23.2591991425	2.48164105415	11.2862110138	-10.6809577942	7.82212400436
2.16049194336	-23.292963028	1.22236502171	11.6480197906	-10.6407146454	7.52965593338
2.57404136658	-22.7711811066	0.301605552435	11.8699855804	-10.4674406052	7.51313877106
2.46263217926	-23.0875587463	0.835865318775	11.7903966904	-10.3614425659	7.56277084351
2.26291704178	-24.0129642487	2.03906393051	11.61033535	-10.4282102585	7.64944648743
2.6223988533	-25.0421695709	3.11634111404	11.6222877502	-10.5768642426	7.57642459869
3.21817064285	-25.0040512085	3.3305721283	11.8427429199	-10.5451946259	7.53326368332
4.2893447876	-25.3501663208	3.61568951607	12.0083208084	-10.41543293	7.5902967453
5.88057327271	-25.50689888	4.57370042801	12.1756944656	-10.3429441452	7.50949382782
7.02247095108	-26.2247200012	5.65975284576	12.3938417435	-10.3311252594	7.43629693985
8.23164463043	-26.5038051605	6.32966089249	12.4564580917	-10.3746614456	7.42848825455
8.81242275238	-27.0834770203	7.68163061142	12.4201335907	-10.2645673752	7.47264814377
10.5546760559	-27.7521705627	2.38735890388	12.2313642502	-10.1051635742	7.47887182236
11.028632164	-27.8290996552	-3.00310277939	12.1718320847	-10.1337776184	7.57988166809
10.0687294006	-28.2441654205	-3.30122303963	12.0094385147	-10.169424057	7.53277683258
9.52748394012	-28.011631012	-2.64541721344	11.7509613037	-10.165271759	7.57597064972
9.53719234467	-26.2028064728	-3.00837779045	11.5535621643	-10.0759801865	7.69970560074
9.82281112671	-25.3333644867	-2.9133374691	11.7172670364	-9.8544588089	7.6883392334
9.47123432159	-24.9551849365	-2.50517249107	11.693529129	-9.60336017609	7.82985591888
8.6661529541	-24.7565860748	-1.9880284071	11.4268980026	-9.4132900238	7.93652248383
8.71099090576	-24.437877655	-1.68167829514	11.3958177567	-9.40965938568	8.26472187042
8.74667930603	-24.3574142456	-1.31633150578	11.3930358887	-9.1402721405	8.46839141846
8.80100345612	-24.499753952	-1.18592321873	11.6898069382	-9.03233909607	8.80267524719
8.99667930603	-24.6107807159	-1.31455767155	12.3748245239	-9.33296394348	10.7477636337
9.04817390442	-24.7454967499	-1.34848701954	13.057062149	-9.25127792358	12.0326490402
9.12790584564	-25.1459159851	-1.082239151	13.5186805725	-8.9979352951	12.1696338654
9.38070964813	-25.8189487457	-0.658394396305	13.9517211914	-9.12372493744	12.1901378632
9.93218994141	-26.4201908112	-0.322206735611	14.4699611664	-9.31878089905	12.3849449158
10.184343338	-26.0091056824	-0.549927353859	14.5185670853	-9.05283641815	12.7298364639
9.9877204895	-25.4147338867	-0.723112046719	14.9315690994	-8.31733989716	13.8137741089
10.3312520981	-25.6314430237	-1.28587305546	16.7944908142	-7.58409261703	17.3914375305
10.2299175262	-25.8591690063	-1.25693333149	18.3019142151	-7.08862638474	19.4731941223
10.7099142075	-26.0065917969	-1.31968319416	18.6022148132	-6.99721765518	19.4665431976
10.859287262	-26.3356170654	-0.837507665157	18.1161270142	-7.15946149826	18.6927337646
11.2215261459	-26.6367263794	-0.676038682461	18.1203632355	-7.31751203537	18.3925514221
11.4088277817	-26.6028347015	-1.4273917675	18.1519355774	-7.25112771988	18.4250297546
12.1796283722	-26.6349258423	-3.88590955734	18.0838451385	-7.29998445511	18.4554653168
12.1499872208	-26.4128723145	-4.14459276199	17.944688797	-7.30784845352	18.561870575
12.2622776031	-26.1662464142	-5.07247304916	17.7466602325	-7.22287607193	18.578081131
12.4811124802	-26.3732242584	-6.1401720047	17.5797214508	-7.310338974	18.6672439575
12.3069419861	-26.5369930267	-6.49604034424	17.4619846344	-7.42483043671	18.7721099854
12.5264778137	-26.4222011566	-7.45193243027	17.1743602753	-7.59690284729	18.8565292358
12.6023616791	-26.1680297852	-7.8644785881	17.0440864563	-7.77069139481	18.8074016571
12.7459745407	-26.0399208069	-8.80972862244	17.0718250275	-7.75670862198	18.7846832275
12.5589885712	-25.6732673645	-9.49647521973	16.706193924	-7.91044330597	18.7341995239
12.2262363434	-25.5778751373	-9.89794826508	16.3288593292	-7.96732139587	18.7130393982
11.7748842239	-24.9624538422	-10.5565700531	16.1136417389	-7.83742570877	18.892742157
11.6331396103	-24.9313716888	-12.0682640076	15.8866615295	-7.81683301926	19.0476207733
10.5507450104	-25.1993579865	-11.4185371399	15.6456279755	-7.92612266541	19.1712703705
10.2815332413	-25.3170719147	-10.8200368881	15.215010643	-8.52237224579	19.1376667023
10.2378883362	-25.9817295074	-10.1077594757	14.4608345032	-9.72637462616	18.8904380798
10.2363834381	-25.98528862	-9.5869102478	14.1772146225	-10.4049377441	18.4726448059
10.3553056717	-26.0350646973	-9.29292201996	14.2109031677	-11.4973058701	17.9870891571
10.3361473083	-25.8939914703	-9.11850643158	13.9346532822	-12.5268144608	17.5503368378
10.2230072021	-25.9452781677	-8.82935428619	13.8584136963	-12.5580501556	17.3920974731
10.1544570923	-26.410150528	-8.4528503418	13.5813236237	-12.730717659	17.2608203888
9.01555538177	-27.6877765656	-4.70993232727	13.4130096436	-12.380022049	17.1592960358
9.69598484039	-28.0762577057	-5.13072538376	13.6213626862	-11.9588470459	17.3899536133
10.234131813	-29.0086193085	-5.29884147644	13.8595733643	-11.805357933	17.4568710327
10.7935171127	-29.9573135376	-5.36654233932	13.939084053	-11.9452514648	17.3258304596
11.7767457962	-30.5754413605	-6.17994594574	14.0088424683	-11.9823064804	17.324432373
