0.0164601802826	0.95113825798	0.190992712975	-0.214829206467	1.42847180367	-0.0769975185394
0.0154099464417	0.949890613556	0.191208839417	-0.215267658234	1.42818760872	-0.0757458209991
0.0144612789154	0.94938325882	0.19192302227	-0.215277194977	1.42888343334	-0.0743191242218
0.0137495994568	0.950537204742	0.192986607552	-0.216270446777	1.43165242672	-0.0735640525818
0.012414932251	0.955629825592	0.194814443588	-0.218989849091	1.43830132484	-0.0746691226959
0.0102591514587	0.962128639221	0.198136806488	-0.221226215363	1.44698143005	-0.0780687332153
0.00527215003967	0.97136592865	0.203075885773	-0.22188782692	1.45562112331	-0.0835847854614
-0.00133490562439	0.980712890625	0.209172844887	-0.22111415863	1.46382987499	-0.0900715589523
-0.0083749294281	0.98908662796	0.214334726334	-0.219889640808	1.47004115582	-0.096960067749
-0.0160050392151	0.996151447296	0.217869997025	-0.218650817871	1.47464990616	-0.1029047966
-0.0220334529877	1.00175356865	0.218985080719	-0.217114925385	1.47895085812	-0.10895884037
-0.0268731117249	1.0056655407	0.21833729744	-0.215493440628	1.48324882984	-0.115267276764
-0.0314638614655	1.00743484497	0.216453075409	-0.213998317719	1.48532652855	-0.120648384094
-0.0352764129639	1.00992202759	0.21351981163	-0.213023900986	1.48582053185	-0.123962163925
-0.039361000061	1.01446342468	0.208604574203	-0.212272882462	1.48577928543	-0.126634597778
-0.0417907238007	1.01887512207	0.205073356628	-0.211930274963	1.48570036888	-0.128937721252
-0.0393378734589	1.02290868759	0.204090714455	-0.2117664814	1.48555314541	-0.130899906158
-0.0352170467377	1.02186560631	0.205680131912	-0.21149969101	1.48537135124	-0.132528066635
-0.0315001010895	1.02056002617	0.204647541046	-0.211641073227	1.48521327972	-0.13371348381
-0.0322237014771	1.02016973495	0.201211094856	-0.212333679199	1.485034585	-0.134626746178
-0.0342619419098	1.02370595932	0.197500228882	-0.213125228882	1.48522233963	-0.135138511658
-0.0329439640045	1.02760434151	0.197203755379	-0.213431835175	1.48548316956	-0.135812163353
-0.0313332080841	1.0294034481	0.197460770607	-0.21398806572	1.48536920547	-0.136736631393
-0.03071808815	1.02997779846	0.196878314018	-0.214347839355	1.48520636559	-0.137278795242
-0.0302457809448	1.02838635445	0.197299480438	-0.214666366577	1.48510754108	-0.137835025787
