-0.0383207798004	0.885438203812	0.185422062874	-0.260550022125	1.43598544598	-0.0810046195984
-0.0395255088806	0.886224031448	0.185989618301	-0.260199785233	1.43692183495	-0.0820177793503
-0.0421528816223	0.886792898178	0.186538100243	-0.259557723999	1.43797552586	-0.0831328630447
-0.0456476211548	0.885798692703	0.186814665794	-0.261082649231	1.43631732464	-0.0846078395844
-0.0489430427551	0.885654687881	0.186139464378	-0.264142751694	1.43148291111	-0.0856853723526
-0.0501523017883	0.884082794189	0.18513584137	-0.268723726273	1.42311584949	-0.0861854553223
-0.0531163215637	0.880213737488	0.183643817902	-0.272765398026	1.41709089279	-0.0867613554001
-0.0557799339294	0.874980211258	0.181579828262	-0.27500128746	1.41643428802	-0.0865397453308
-0.0608777999878	0.871153354645	0.179495334625	-0.275326490402	1.41659474373	-0.0860850811005
-0.0674405097961	0.866101026535	0.176888585091	-0.274592161179	1.41597962379	-0.085930109024
-0.0695428848267	0.867096424103	0.175589442253	-0.272879600525	1.41680324078	-0.0859574079514
-0.0702800750732	0.86692237854	0.1746134758	-0.270191192627	1.41929900646	-0.0865294933319
-0.0694828033447	0.868470668793	0.17315196991	-0.266719341278	1.42300236225	-0.087110042572
-0.0694699287415	0.868929862976	0.171079277992	-0.262907028198	1.42650485039	-0.0881319046021
-0.072078704834	0.868304491043	0.168565154076	-0.259291172028	1.42793238163	-0.0894658565521
-0.0726892948151	0.868562698364	0.166440963745	-0.255878686905	1.42739260197	-0.090069770813
-0.0731372833252	0.865242004395	0.163077354431	-0.252274513245	1.42734920979	-0.0907354354858
-0.0724370479584	0.863580942154	0.160378932953	-0.246602058411	1.42916452885	-0.0910217761993
-0.0705347061157	0.865941762924	0.160309791565	-0.24017572403	1.43054413795	-0.0911316871643
-0.0674130916595	0.868045568466	0.161496758461	-0.23316693306	1.43049263954	-0.0913074016571
-0.0633535385132	0.868114709854	0.160681724548	-0.227256298065	1.42942118645	-0.0918031930923
-0.0564885139465	0.866179227829	0.159189462662	-0.224780797958	1.42729210854	-0.0921018123627
-0.05348777771	0.861790180206	0.155065536499	-0.226498126984	1.42596995831	-0.0919756889343
-0.0515329837799	0.853558778763	0.150181293488	-0.230440616608	1.42466914654	-0.0918593406677
-0.0582902431488	0.846931219101	0.146092176437	-0.233832359314	1.42363452911	-0.0917706489563
-0.0674793720245	0.845299005508	0.14466714859	-0.235607147217	1.42309463024	-0.0912321805954
-0.076188325882	0.844555854797	0.143615365028	-0.236992359161	1.42258489132	-0.0907621383667
-0.0835561752319	0.845044136047	0.143064856529	-0.237920284271	1.42180991173	-0.0900007486343
-0.0843353271484	0.84551024437	0.146117925644	-0.238790988922	1.4215644598	-0.0888638496399
-0.0832712650299	0.846841096878	0.150131225586	-0.239859342575	1.42166960239	-0.0877230167389
-0.0809464454651	0.849787473679	0.153316855431	-0.240954399109	1.42109549046	-0.0862189531326
-0.0785431861877	0.848483562469	0.15426838398	-0.241627454758	1.42036223412	-0.0845189094543
-0.0767347812653	0.84363079071	0.153010129929	-0.242194890976	1.41996729374	-0.0826523303986
-0.0771248340607	0.837512493134	0.14941740036	-0.243250846863	1.41943180561	-0.0809400081635
-0.0794289112091	0.830823421478	0.144211411476	-0.244532108307	1.41844928265	-0.0790538787842
-0.0826048851013	0.827921152115	0.141851902008	-0.245989322662	1.41756463051	-0.0774664878845
-0.085111618042	0.826428890228	0.140501141548	-0.247505187988	1.41657519341	-0.0760433673859
-0.0850207805634	0.826095581055	0.141091346741	-0.249868631363	1.41555655003	-0.0754061937332
-0.0843558311462	0.826605319977	0.14113342762	-0.25269985199	1.41414093971	-0.0753704309464
-0.0832350254059	0.82755446434	0.141955494881	-0.256204366684	1.41385757923	-0.075359582901
-0.0834276676178	0.827454805374	0.141828656197	-0.259492397308	1.41382455826	-0.0760015249252
-0.0836539268494	0.82734131813	0.141643166542	-0.26217341423	1.41321623325	-0.0769143104553
-0.0835723876953	0.827643632889	0.1420545578	-0.264763593674	1.41223037243	-0.0781171321869
-0.0836124420166	0.828254699707	0.142847895622	-0.26669549942	1.41202449799	-0.079043507576
-0.0840792655945	0.829285860062	0.143269538879	-0.266497850418	1.41247451305	-0.0793844461441
-0.084659576416	0.830352306366	0.143781423569	-0.263073682785	1.4134863615	-0.078605890274
-0.0832886695862	0.831099271774	0.143506765366	-0.260702371597	1.41402029991	-0.0785294771194
-0.081131696701	0.83162856102	0.142776250839	-0.261715173721	1.41288781166	-0.0795543193817
-0.0782916545868	0.830550670624	0.141107797623	-0.265053749084	1.4122325182	-0.0815386772156
-0.0773396492004	0.830054521561	0.140236496925	-0.268968343735	1.41226840019	-0.0839500427246
-0.0772938728333	0.831055641174	0.141377568245	-0.271609306335	1.41346955299	-0.0854375362396
-0.0786280632019	0.832962274551	0.142650127411	-0.271473646164	1.4167637825	-0.0860888957977
-0.0789115428925	0.836042404175	0.144999623299	-0.270149469376	1.42127180099	-0.0862994194031
-0.078010559082	0.838320970535	0.146334171295	-0.268612861633	1.42503368855	-0.0872091054916
-0.0769617557526	0.839709043503	0.146871328354	-0.267776966095	1.42746675014	-0.0887269973755
-0.0759313106537	0.840247392654	0.147053480148	-0.266280174255	1.42805933952	-0.0898585319519
-0.0756802558899	0.841465950012	0.147227525711	-0.26486992836	1.42709541321	-0.0902030467987
-0.0746750831604	0.842476129532	0.148168563843	-0.263138532639	1.42499434948	-0.0896736383438
-0.0726392269135	0.844058990479	0.149581313133	-0.262291431427	1.42367553711	-0.088634967804
-0.0701377391815	0.845742225647	0.150580644608	-0.263062477112	1.4230581522	-0.0879654884338
-0.0689051151276	0.844501256943	0.149888277054	-0.264587640762	1.42170751095	-0.0878121852875
-0.0714373588562	0.841682195663	0.146701455116	-0.266121864319	1.42049443722	-0.0881499052048
-0.0753557682037	0.839885234833	0.144342780113	-0.267594814301	1.41927957535	-0.0888993740082
-0.0789601802826	0.837725400925	0.142092943192	-0.269115924835	1.41851437092	-0.0899806022644
-0.0811529159546	0.836071014404	0.140258193016	-0.270769119263	1.4174246788	-0.0911284685135
-0.0822153091431	0.835343360901	0.139627099037	-0.271767616272	1.41708767414	-0.0916019678116
-0.0825581550598	0.835369586945	0.139274597168	-0.273870706558	1.41715335846	-0.0923066139221
-0.0823559761047	0.833904266357	0.137711405754	-0.277451515198	1.41761445999	-0.0934970378876
-0.0814774036407	0.833384752274	0.137152433395	-0.280001878738	1.41843652725	-0.0943276882172
-0.0813064575195	0.833510160446	0.137226581573	-0.280769586563	1.41885781288	-0.0944895744324
-0.0810594558716	0.834065198898	0.13731610775	-0.281867265701	1.4198589325	-0.0950901508331
-0.0805723667145	0.833037137985	0.136205434799	-0.28392124176	1.42149806023	-0.0958516597748
-0.0803334712982	0.832139253616	0.135407447815	-0.285102367401	1.42236983776	-0.0967488288879
-0.0800886154175	0.831860780716	0.135353803635	-0.284959316254	1.42195641994	-0.097216129303
-0.0794835090637	0.832322120667	0.135490059853	-0.285634040833	1.4223741293	-0.0981681346893
-0.0782556533813	0.833146333694	0.136145949364	-0.286490440369	1.42400848866	-0.0996110439301
-0.0783853530884	0.832402944565	0.135514378548	-0.286187410355	1.42412769794	-0.10060608387
-0.0786061286926	0.833344459534	0.136494636536	-0.283415555954	1.42245185375	-0.101101160049
-0.0787818431854	0.835390806198	0.138281106949	-0.281040906906	1.41981327534	-0.101603746414
-0.076896905899	0.836885452271	0.13866019249	-0.28160738945	1.41721761227	-0.102847933769
-0.0753924846649	0.83659029007	0.137380361557	-0.283569812775	1.41610205173	-0.104203104973
-0.0744752883911	0.836000680923	0.135503292084	-0.285120248795	1.41485881805	-0.105475902557
-0.0744042396545	0.836271524429	0.135120630264	-0.286020994186	1.41243183613	-0.106630682945
-0.075756072998	0.838109254837	0.135767936707	-0.287346839905	1.41018509865	-0.107742071152
-0.0767531394958	0.838295221329	0.135239481926	-0.288172245026	1.41064536572	-0.108331441879
-0.0769276618958	0.837819337845	0.133924722672	-0.288703680038	1.41141974926	-0.109169721603
-0.0777812004089	0.837990522385	0.13283932209	-0.289368152618	1.41188871861	-0.110050201416
-0.0781171321869	0.838371515274	0.132061719894	-0.289026260376	1.41292560101	-0.110565662384
-0.077202796936	0.837647199631	0.131588220596	-0.288637161255	1.41314041615	-0.110981702805
-0.0763177871704	0.836740016937	0.129958629608	-0.28848195076	1.41302716732	-0.111684799194
-0.0744552612305	0.835120439529	0.128507733345	-0.287744045258	1.41300272942	-0.111841320992
-0.0729162693024	0.83474779129	0.127749085426	-0.286807775497	1.41310071945	-0.111792802811
-0.0711770057678	0.832906723022	0.12568295002	-0.286175251007	1.4128370285	-0.111981034279
-0.0714380741119	0.832759380341	0.12430036068	-0.285638332367	1.41310465336	-0.111597299576
-0.072333574295	0.832759857178	0.124465584755	-0.284451007843	1.41343224049	-0.110700130463
-0.0741477012634	0.833180189133	0.125031709671	-0.283239603043	1.41411566734	-0.109463691711
-0.075569152832	0.833488225937	0.125395059586	-0.28164768219	1.41540455818	-0.108074188232
-0.0756714344025	0.834335803986	0.126098632812	-0.280053138733	1.41564524174	-0.10689997673
-0.0756423473358	0.83406829834	0.126326084137	-0.277405738831	1.41590952873	-0.105547189713
