0.0	-0.0	142.952911377	54.9255027771	83.514755249	-28.2205524445
0.0	-0.0	140.731338501	54.2086029053	83.3850479126	-27.9958934784
0.0	-0.0	133.760116577	52.9697799683	83.6168746948	-27.6685161591
0.0	-0.0	130.286514282	50.4091529846	85.6307144165	-28.4090805054
0.0	-0.0	129.162765503	48.0903587341	86.9467926025	-30.1105499268
0.0	-0.0	132.384368896	46.8231277466	88.4030151367	-31.0353946686
0.0	-0.0	134.02331543	-135.823348999	87.582824707	145.931640625
0.0	-0.0	130.809844971	-137.543228149	81.4200439453	131.976974487
0.0	-0.0	130.233123779	-139.44317627	76.5648880005	119.186630249
0.0	-0.0	130.047927856	-144.245193481	69.4233551025	105.185264587
0.0	-0.0	125.894332886	-145.375305176	70.1827316284	108.55241394
0.0	-0.0	112.204490662	-147.389266968	69.3163146973	115.553779602
0.0	-0.0	81.8468475342	-148.227462769	68.0058746338	117.890861511
0.0	-0.0	47.0829162598	-148.494689941	66.5445861816	119.428489685
0.0	-0.0	20.1418819427	-150.380111694	65.4555587769	122.148956299
0.0	-0.0	12.4948348999	-148.973968506	67.5991897583	120.632316589
0.0	-0.0	17.409822464	-148.755172729	67.4020996094	120.850074768
0.0	-0.0	22.7118263245	-148.959777832	67.0730895996	122.236198425
0.0	-0.0	29.7126502991	-148.677505493	67.4398651123	124.351333618
0.0	-0.0	54.1749191284	-147.038711548	68.4375915527	125.140159607
0.0	-0.0	85.7094345093	-146.029373169	68.460975647	132.692459106
0.0	-0.0	115.891044617	-143.77116394	69.1352386475	150.998153687
0.0	-0.0	124.262611389	-146.428161621	68.0042800903	165.03338623
0.0	-0.0	120.190223694	-147.882080078	60.9783172607	165.35256958
0.0	-0.0	118.264091492	-153.654388428	54.162563324	161.201782227
0.0	-0.0	119.231910706	-159.466140747	52.6192817688	148.52015686
0.0	-0.0	119.450737	-165.372207642	51.5387306213	134.000595093
0.0	-0.0	120.713554382	-171.65423584	50.6114768982	122.847816467
0.0	-0.0	121.16835022	-171.835357666	52.2762680054	141.364044189
0.0	-0.0	120.914924622	-172.986465454	54.7794761658	169.905380249
0.0	-0.0	121.019065857	-173.535995483	58.7013473511	-168.978057861
0.0	-0.0	121.634239197	-173.394241333	57.5843315125	-161.206588745
0.0	-0.0	122.612205505	-172.447814941	53.986125946	-158.932662964
0.0	-0.0	122.986160278	-173.035949707	48.0450363159	-165.390930176
0.0	-0.0	123.033683777	-176.124420166	39.0561103821	-175.741195679
0.0	-0.0	122.992660522	-179.370666504	35.5119247437	177.112701416
0.0	-0.0	120.530288696	178.52911377	34.3722381592	172.563217163
0.0	-0.0	117.795768738	179.240219116	34.1789588928	169.807861328
0.0	-0.0	114.119407654	178.628829956	33.5594978333	166.364593506
0.0	-0.0	106.639068604	179.274475098	34.2802772522	164.961654663
0.0	-0.0	100.396766663	179.15826416	34.1467819214	164.580413818
0.0	-0.0	95.8883514404	178.914810181	33.7382774353	164.062240601
0.0	-0.0	91.2082366943	178.856781006	33.6563529968	162.635513306
0.0	-0.0	87.3306655884	178.90222168	33.9856376648	161.74206543
0.0	-0.0	87.2311477661	178.967163086	34.1779899597	162.207366943
0.0	-0.0	92.9579315186	178.57661438	34.4402236938	161.972076416
0.0	-0.0	98.1377716064	179.283462524	34.7343864441	162.850662231
0.0	-0.0	101.325469971	179.790893555	34.8683662415	162.726486206
0.0	-0.0	99.7951812744	-179.569351196	34.4547042847	162.308883667
0.0	-0.0	98.6171875	-179.427276611	34.4859085083	161.524612427
0.0	-0.0	98.4649734497	-178.863296509	35.096370697	161.481887817
0.0	-0.0	94.2559967041	-179.359359741	35.1800460815	162.12612915
0.0	-0.0	85.3260421753	-179.019699097	36.0229492188	162.739379883
0.0	-0.0	75.6580200195	-178.366638184	36.8430557251	163.184906006
0.0	-0.0	65.6543045044	-176.880691528	38.3877754211	164.867401123
0.0	-0.0	61.4279022217	-175.012588501	40.4563827515	165.939331055
0.0	-0.0	64.2082748413	-174.449661255	42.2671890259	166.078887939
0.0	-0.0	73.4573745728	-173.831893921	44.0406990051	167.669616699
0.0	-0.0	88.6827697754	-171.600143433	47.1183280945	170.080474854
0.0	-0.0	94.5489578247	-169.73387146	50.1063919067	173.366348267
0.0	-0.0	97.4768981934	-169.869628906	48.9451446533	178.835998535
0.0	-0.0	98.1080932617	-174.485595703	45.1438674927	176.669158936
0.0	-0.0	99.0231018066	-177.826080322	43.428691864	175.617782593
0.0	-0.0	100.111694336	178.841629028	42.2488670349	172.698562622
0.0	-0.0	100.906959534	176.109558105	39.5368995667	169.131332397
0.0	-0.0	101.890647888	174.588790894	38.2784957886	166.81022644
0.0	-0.0	101.332672119	174.270248413	38.144405365	165.304885864
0.0	-0.0	95.4105682373	173.450790405	36.3209915161	163.753631592
0.0	-0.0	88.8235397339	174.545639038	36.3540725708	164.151123047
0.0	-0.0	85.4969024658	174.834472656	36.5566253662	163.862426758
0.0	-0.0	80.7674407959	175.115341187	36.9174385071	163.487533569
0.0	-0.0	74.9004440308	175.405609131	36.0931472778	163.678497314
0.0	-0.0	71.2352218628	175.667480469	35.8736915588	163.250030518
0.0	-0.0	72.3557662964	176.188552856	36.1158638	162.937149048
0.0	-0.0	73.1942367554	176.584671021	36.6463127136	162.598236084
0.0	-0.0	73.8914337158	177.036972046	38.2014961243	165.917633057
0.0	-0.0	74.8367614746	176.728408813	37.4673233032	170.044113159
0.0	-0.0	79.4131088257	176.414703369	37.1534767151	171.429901123
0.0	-0.0	89.3507537842	176.679367065	38.1581687927	172.023696899
0.0	-0.0	93.4588546753	177.47517395	38.8616943359	171.674255371
0.0	-0.0	92.9737167358	177.481414795	38.1952476501	171.536834717
0.0	-0.0	93.5308837891	177.520721436	37.2012901306	170.326644897
0.0	-0.0	94.1692581177	178.04989624	36.5396766663	168.145782471
0.0	-0.0	92.1430206299	177.576171875	36.667388916	166.263244629
0.0	-0.0	89.8589859009	177.625854492	36.1098518372	164.964141846
0.0	-0.0	88.1193237305	177.622421265	35.4965133667	164.105026245
0.0	-0.0	86.9993743896	177.584579468	35.0100708008	162.203872681
0.0	-0.0	86.0161209106	177.122665405	35.5989952087	167.377059937
0.0	-0.0	86.5535736084	176.430206299	35.0786170959	-177.452438354
0.0	-0.0	86.0905227661	175.548812866	35.132270813	-174.100128174
0.0	-0.0	86.5631256104	176.885543823	32.2625999451	-172.368026733
0.0	-0.0	86.4868621826	177.722290039	31.5908088684	-166.760345459
0.0	-0.0	86.0876083374	177.79486084	29.3218078613	-164.69921875
0.0	-0.0	85.5247039795	177.06137085	28.7276744843	-168.597793579
0.0	-0.0	85.1205062866	177.392593384	29.2412090302	-170.697387695
0.0	-0.0	83.5187911987	176.929077148	29.690568924	-173.379486084
0.0	-0.0	76.4908065796	176.496658325	29.574836731	-174.558181763
0.0	-0.0	71.9847640991	176.650375366	29.749540329	-175.742340088
0.0	-0.0	66.861366272	177.300643921	29.7385387421	-175.902297974
