-0.0390496253967	0.903790473938	0.192334413528	-0.243766546249	1.43040060997	-0.0786085128784
-0.0388009548187	0.903208017349	0.193135738373	-0.243790864944	1.43077552319	-0.0780012607574
-0.0394358634949	0.902401208878	0.193140387535	-0.244288921356	1.43191003799	-0.0773903131485
-0.0416791439056	0.901876211166	0.193906068802	-0.245518684387	1.43128764629	-0.0767756700516
-0.0431292057037	0.90015745163	0.194625377655	-0.247631311417	1.42803013325	-0.0759714841843
-0.0472059249878	0.895207643509	0.194054841995	-0.249834060669	1.42222452164	-0.0749757289886
-0.0493884086609	0.894616127014	0.19414293766	-0.252821922302	1.41220390797	-0.0734550952911
-0.0517165660858	0.895592927933	0.194959044456	-0.255940914154	1.40121018887	-0.0715081691742
-0.0549709796906	0.897024154663	0.195434093475	-0.257420301437	1.39264523983	-0.0688079595566
-0.0562880039215	0.896185159683	0.194941163063	-0.256385803223	1.38859736919	-0.0645824670792
-0.0569629669189	0.892648935318	0.192907333374	-0.254000663757	1.38698029518	-0.061103105545
-0.0584948062897	0.89040017128	0.191408991814	-0.252378940582	1.38566493988	-0.0585442781448
-0.0589740276337	0.888533353806	0.190225124359	-0.252525091171	1.38497114182	-0.0579206943512
-0.064644575119	0.881386041641	0.186425089836	-0.253393411636	1.38573622704	-0.057649731636
-0.0676803588867	0.876760482788	0.184383630753	-0.254041194916	1.38698971272	-0.0577435493469
-0.0741677284241	0.869791984558	0.179584980011	-0.254930734634	1.3864710331	-0.0582568645477
-0.0772149562836	0.860709667206	0.174011468887	-0.255638837814	1.38560926914	-0.0589563846588
-0.0770416259766	0.853448867798	0.168889522552	-0.255885601044	1.38556468487	-0.05948138237
-0.0760765075684	0.847319602966	0.16370511055	-0.255721569061	1.3848503828	-0.0605792999268
-0.0731446743011	0.841950416565	0.159433245659	-0.255717515945	1.38379251957	-0.0615622997284
-0.0711529254913	0.839341640472	0.155872225761	-0.255554676056	1.38367128372	-0.0624352693558
-0.0698635578156	0.837847948074	0.153658866882	-0.255938529968	1.38396120071	-0.0630046129227
-0.0693700313568	0.835954427719	0.151864051819	-0.256351947784	1.38400733471	-0.0634081363678
-0.0709121227264	0.833792209625	0.149249315262	-0.257304668427	1.38477635384	-0.0636551380157
-0.0718011856079	0.832604408264	0.148069858551	-0.258182525635	1.38553237915	-0.0647096633911
-0.0730364322662	0.832996606827	0.148442745209	-0.258340358734	1.38565063477	-0.0659363269806
-0.0740809440613	0.833980083466	0.148546814919	-0.259036064148	1.38552820683	-0.0670464038849
-0.0744264125824	0.832930088043	0.147511124611	-0.259906768799	1.38556563854	-0.067836523056
-0.0759603977203	0.832105398178	0.145437240601	-0.260948896408	1.38563859463	-0.0686535835266
-0.0771157741547	0.833198785782	0.145674586296	-0.262497663498	1.38603961468	-0.0688923597336
-0.0770485401154	0.834560394287	0.146229624748	-0.264084100723	1.38675260544	-0.0693829059601
-0.0768377780914	0.836662530899	0.147204399109	-0.266253948212	1.38792979717	-0.0699663162231
-0.0760412216187	0.837618112564	0.147565960884	-0.268663644791	1.39073741436	-0.0706076622009
