-79.1998825073	-48.4596290588	138.658721924	5.68155479431	2.26390767097	-1.51774668694
-79.1855697632	-48.1427383423	138.466934204	5.68508434296	2.25580000877	-1.53602826595
-79.3405227661	-48.0325508118	138.21131897	5.86576843262	2.39223146439	-1.69503796101
-76.1182479858	-48.2438583374	133.249572754	7.65134477615	5.12451124191	-2.5078496933
-67.9518127441	-47.6262283325	121.219497681	10.7475538254	11.4592809677	-2.46034145355
-65.412437439	-48.2744636536	117.57434845	13.4145174026	16.4390239716	-1.86025297642
-66.3832855225	-49.594379425	120.22844696	14.8030958176	18.089094162	-1.96804690361
-70.6968994141	-52.7403068542	126.79524231	16.2897987366	19.4158802032	-2.14275765419
-83.2844009399	-57.4193687439	142.072814941	17.163269043	20.1780128479	-1.85652983189
-49.3549766541	-53.2769737244	107.076461792	17.1330223083	20.3762989044	-1.55744016171
