0.0131499664858	-66.7926025391	136.892303467	3.03861093521	1.24121165276	-4.80303478241
-0.0229776632041	-66.7380142212	136.9402771	3.12324094772	1.07590925694	-4.88792467117
-1.51411938667	-66.6143951416	136.891921997	3.04740023613	0.7488681674	-4.83873510361
-8.1960067749	-61.1424865723	133.111572266	2.44583463669	-0.92556899786	-4.71810245514
-8.76522064209	-55.7513656616	116.084907532	1.25851452351	-5.56952047348	-4.04652166367
-5.65153694153	-48.7152290344	100.650558472	-0.272051095963	-5.87560939789	-3.56141495705
-7.41909074783	-41.4512481689	95.6531448364	-1.33638978004	-5.274330616	-3.11898088455
-7.15070486069	-27.9564361572	83.281539917	-2.42660546303	-4.26726007462	-2.7147397995
-3.39513421059	-28.0803318024	81.703086853	-3.15912055969	-3.57590222359	-2.29789972305
