-0.046760559082	1.18013453484	0.198930501938	-0.26335477829	1.4923068285	-0.108698129654
-0.0468173027039	1.17976987362	0.198753356934	-0.263684272766	1.49214589596	-0.10858297348
-0.0468275547028	1.17963385582	0.198187589645	-0.263861894608	1.49173700809	-0.108555316925
-0.0484709739685	1.17907142639	0.199361681938	-0.263818740845	1.48807871342	-0.106718063354
-0.0504405498505	1.17902934551	0.197994470596	-0.264117002487	1.48003363609	-0.102923035622
-0.0505383014679	1.17988860607	0.197014093399	-0.264106988907	1.47199428082	-0.0992637872696
-0.0491297245026	1.18166124821	0.196930408478	-0.262737512589	1.46494674683	-0.0958547592163
-0.0471036434174	1.18277680874	0.196118831635	-0.261053085327	1.45860409737	-0.0933263301849
-0.0461506843567	1.18302857876	0.195402860641	-0.259789466858	1.45431852341	-0.0915266275406
-0.0455300807953	1.18296539783	0.194251179695	-0.258916139603	1.45186710358	-0.0903204679489
-0.0459463596344	1.18142485619	0.193396568298	-0.25808429718	1.45085275173	-0.089323759079
-0.0473318099976	1.17668449879	0.195032477379	-0.257629156113	1.45252811909	-0.0887548923492
-0.0483303070068	1.1695535183	0.197175264359	-0.257534265518	1.45961225033	-0.0898640155792
-0.0473914146423	1.16449761391	0.201588630676	-0.257867097855	1.46556532383	-0.0932896137238
-0.0490694046021	1.16257274151	0.20485830307	-0.257961273193	1.46850132942	-0.0963147878647
-0.0513837337494	1.1642203331	0.206235051155	-0.257157325745	1.46835613251	-0.0980298519135
-0.0531313419342	1.16412258148	0.207004070282	-0.256434679031	1.46776747704	-0.0988154411316
-0.0524237155914	1.16480970383	0.207542538643	-0.256654262543	1.46270692348	-0.0983062982559
-0.0526337623596	1.16733622551	0.205381631851	-0.256763458252	1.4530621767	-0.097208738327
-0.0527641773224	1.16791188717	0.204022407532	-0.255316257477	1.44724595547	-0.0959337949753
-0.051539182663	1.16852772236	0.203645467758	-0.252831697464	1.43877243996	-0.0946890115738
-0.0525636672974	1.17053115368	0.201515555382	-0.251177310944	1.42500650883	-0.093909740448
-0.0543022155762	1.17022967339	0.198986887932	-0.25053691864	1.41655504704	-0.0927004814148
-0.053484916687	1.1686770916	0.197816371918	-0.249703884125	1.41229355335	-0.0925707817078
-0.0530414581299	1.16693592072	0.197121739388	-0.250106096268	1.41228723526	-0.0927567481995
-0.0534098148346	1.16507279873	0.19722867012	-0.250107288361	1.41334605217	-0.0937272310257
-0.0508561134338	1.162997365	0.201736330986	-0.248750925064	1.41359221935	-0.0945658683777
-0.040346622467	1.15475976467	0.2135014534	-0.245769262314	1.41502630711	-0.0954512357712
-0.033047914505	1.15326666832	0.215478777885	-0.243731021881	1.41839432716	-0.0955195426941
-0.0357208251953	1.15149843693	0.212827682495	-0.239985942841	1.42179369926	-0.0958021879196
-0.0385866165161	1.15365886688	0.211520910263	-0.232068538666	1.42219853401	-0.0988736152649
-0.0404732227325	1.15802598	0.210506677628	-0.226944446564	1.42041003704	-0.101061940193
-0.0394475460052	1.16072297096	0.209867119789	-0.227139234543	1.41968071461	-0.100677847862
-0.0300858020782	1.15791273117	0.214971542358	-0.229191541672	1.41920673847	-0.0994155406952
-0.0264205932617	1.15817713737	0.216150760651	-0.228708982468	1.41859483719	-0.0995087623596
-0.021956205368	1.15640854836	0.219702601433	-0.225992202759	1.41851854324	-0.099776506424
-0.0199844837189	1.14901077747	0.22342979908	-0.224505901337	1.41847288609	-0.100207686424
-0.019020318985	1.14384353161	0.223574519157	-0.225311994553	1.42002308369	-0.0997922420502
-0.0146477222443	1.14157521725	0.223880052567	-0.2268409729	1.42357861996	-0.0988545417786
-0.0144693851471	1.1405493021	0.22484099865	-0.227598667145	1.42672181129	-0.0989878177643
-0.0166847705841	1.142827034	0.224776148796	-0.227526664734	1.4277368784	-0.0998408794403
-0.0234425067902	1.15186142921	0.218602180481	-0.227081537247	1.42878639698	-0.100470304489
-0.0294823646545	1.16159498692	0.211938619614	-0.226585388184	1.42839002609	-0.100987434387
-0.0320003032684	1.17109668255	0.205888986588	-0.225867033005	1.42763292789	-0.101485610008
-0.0357751846313	1.18000996113	0.197877764702	-0.225167989731	1.42776656151	-0.101937174797
-0.038498878479	1.18359982967	0.192467093468	-0.224861383438	1.42780077457	-0.102354764938
-0.039027929306	1.18202614784	0.193508505821	-0.224657058716	1.4271723032	-0.103277564049
-0.0342125892639	1.16736781597	0.208349227905	-0.223199367523	1.4263266325	-0.104943871498
-0.0367486476898	1.15917468071	0.2080296278	-0.221366167068	1.42615664005	-0.106114387512
-0.0334622859955	1.15951597691	0.206591129303	-0.219100475311	1.42660033703	-0.106687068939
