7.95563697815	-80.7273330688	133.794586182	3.87573742867	-1.01424717903	-1.89384925365
8.76111888885	-80.6653442383	133.088378906	3.94965338707	-0.921625614166	-1.95394766331
6.925096035	-80.734336853	134.535247803	3.93476486206	-1.05599665642	-2.00587391853
5.98357105255	-80.9591140747	135.100494385	3.71872901917	-1.38262164593	-1.98075819016
0.779958546162	-80.6068878174	138.282180786	1.08194303513	-1.81410491467	-1.82475543022
-22.4600524902	-76.8923568726	152.356658936	-4.41169261932	-2.10153841972	-1.37732243538
-39.0075645447	-72.1974182129	148.844802856	-9.07609367371	-2.13105201721	-0.650456905365
-41.2685012817	-67.5651550293	125.015808105	-12.5353479385	-2.36694741249	0.106191128492
-41.6744613647	-62.7809944153	117.64025116	-15.705947876	-2.22179865837	0.827563524246
-40.2875747681	-45.0252609253	105.521034241	-18.9145126343	-1.43161666393	1.58711445332
-40.0784187317	-32.629283905	95.8292770386	-21.70129776	-1.53055310249	2.29923868179
-33.830329895	-29.1383075714	92.2089157104	-23.2667312622	-1.54204571247	2.59968805313
-29.2676544189	-26.6544437408	97.3626785278	-23.2888660431	-1.5807993412	2.98922181129
-25.6280021667	-20.8018913269	102.273109436	-23.2195358276	-1.35667228699	3.08053588867
-22.8472080231	-22.749080658	79.5691604614	-23.4664230347	-1.28699266911	3.25462961197
