-0.0763943195343	1.18871855736	0.175731182098	-0.275549411774	1.48922371864	-0.106150150299
-0.0777506828308	1.18833696842	0.175517082214	-0.275324106216	1.48956167698	-0.10662651062
-0.0781638622284	1.18845844269	0.175559163094	-0.275252103806	1.48971772194	-0.107031106949
-0.0790529251099	1.18863964081	0.175878047943	-0.276706695557	1.49090611935	-0.106963634491
-0.080762386322	1.1885061264	0.177794456482	-0.280068874359	1.49318087101	-0.108183383942
-0.0884187221527	1.18674910069	0.17378616333	-0.282666921616	1.49384498596	-0.109185099602
-0.0943782329559	1.18823730946	0.169725418091	-0.284279346466	1.49293899536	-0.109362006187
-0.0971336364746	1.19189190865	0.171213150024	-0.28501367569	1.49256646633	-0.109088897705
-0.0923328399658	1.18302047253	0.202714681625	-0.285372495651	1.49238657951	-0.109158039093
-0.10075712204	1.18137598038	0.19161605835	-0.286224126816	1.49233257771	-0.108719110489
-0.104191303253	1.186201334	0.184757709503	-0.286737203598	1.49207162857	-0.108262777328
-0.102911233902	1.19619500637	0.173621416092	-0.287929773331	1.49165463448	-0.107796311378
