0.0	-0.0	133.840866089	61.8185005188	88.880355835	-1.08630669117
0.0	-0.0	133.466156006	61.2766036987	88.8255996704	-1.27619254589
0.0	-0.0	132.882400513	60.5878639221	89.0803222656	-1.48157346249
0.0	-0.0	132.724731445	60.2876434326	89.5903778076	-1.3121124506
0.0	-0.0	131.208190918	-119.25138855	89.5079421997	177.794296265
0.0	-0.0	126.075370789	-120.3618927	86.0999069214	176.239715576
0.0	-0.0	126.423240662	-120.321174622	85.1112213135	175.162353516
0.0	-0.0	127.248908997	-119.571273804	82.8769226074	171.062774658
0.0	-0.0	127.121665955	-116.530921936	74.4991073608	152.658874512
0.0	-0.0	127.194404602	-115.214027405	63.2675323486	129.919265747
0.0	-0.0	127.377754211	-115.408164978	59.5755958557	125.460372925
0.0	-0.0	128.081329346	-116.578834534	55.3304443359	119.836608887
0.0	-0.0	127.730140686	-118.010810852	49.9944152832	111.720176697
0.0	-0.0	125.91999054	-118.91999054	47.3272209167	109.713790894
0.0	-0.0	118.551063538	-119.324081421	47.1052017212	109.905914307
0.0	-0.0	100.831771851	-119.576438904	48.4021339417	111.495300293
0.0	-0.0	81.6012496948	-118.32901001	51.372718811	113.637275696
0.0	-0.0	57.5961227417	-118.591880798	53.600025177	114.136886597
0.0	-0.0	34.8109703064	-118.649551392	55.3684463501	113.871986389
0.0	-0.0	19.829164505	-119.155807495	57.249420166	113.723396301
0.0	-0.0	17.6017818451	-119.429115295	59.5365257263	114.448860168
0.0	-0.0	26.4387226105	-123.19468689	66.7601852417	132.731369019
0.0	-0.0	40.2197303772	-125.867179871	72.37525177	146.867370605
0.0	-0.0	58.3293571472	-126.185844421	77.1479187012	156.687957764
0.0	-0.0	71.8959884644	-126.516708374	79.0008392334	158.875595093
0.0	-0.0	82.0098419189	-126.75403595	78.3081741333	160.77482605
0.0	-0.0	95.0543289185	-128.219589233	77.0452880859	160.260528564
0.0	-0.0	109.125793457	-127.460655212	75.9506835938	153.71887207
0.0	-0.0	118.206222534	-127.49332428	75.5109710693	153.456695557
0.0	-0.0	114.289199829	-126.245918274	70.9453887939	148.098922729
0.0	-0.0	112.967910767	-126.550094604	57.217048645	125.53767395
0.0	-0.0	113.734207153	-128.022460938	53.547039032	117.860839844
0.0	-0.0	113.332290649	-130.32043457	54.9632568359	119.327781677
0.0	-0.0	112.067298889	-132.840194702	52.1333961487	114.359779358
0.0	-0.0	111.272697449	-140.625823975	43.9149436951	109.537590027
0.0	-0.0	111.413230896	-145.408828735	42.5491600037	115.646331787
0.0	-0.0	111.785331726	-145.432327271	44.9491615295	146.47593689
0.0	-0.0	111.668235779	-147.122894287	43.5836219788	155.490036011
0.0	-0.0	112.122039795	-148.307098389	41.629108429	159.093429565
0.0	-0.0	111.96762085	-148.344085693	36.9432868958	152.010696411
0.0	-0.0	112.688781738	-148.944534302	32.7431030273	149.476287842
0.0	-0.0	113.496582031	-147.331115723	32.447052002	140.549224854
0.0	-0.0	109.498397827	-145.727279663	33.3577270508	134.378875732
0.0	-0.0	104.494392395	-146.332107544	34.7862930298	130.947265625
0.0	-0.0	93.9638442993	-145.185073853	36.6676445007	133.714736938
0.0	-0.0	84.9140014648	-144.001144409	38.0271148682	134.193466187
