0.0369479656219	0.920137882233	0.160712480545	-0.218858242035	1.43105387688	-0.0688275098801
0.0357356071472	0.920914888382	0.162229180336	-0.219227313995	1.43112146854	-0.0684082508087
0.0353059768677	0.920304536819	0.162355661392	-0.218993186951	1.43251049519	-0.0680519342422
0.0341565608978	0.920083999634	0.161523222923	-0.217668056488	1.43675041199	-0.0683702230453
0.0332047939301	0.921649694443	0.161402702332	-0.217988729477	1.44379210472	-0.0693652629852
0.0322167873383	0.922115564346	0.161173582077	-0.220428228378	1.45145761967	-0.0727388858795
0.0308272838593	0.92200422287	0.16155898571	-0.22144651413	1.45649254322	-0.0763053894043
0.0275993347168	0.929065465927	0.164033532143	-0.221035957336	1.45866835117	-0.0796576738358
0.0231704711914	0.939329624176	0.167979121208	-0.219995737076	1.45902907848	-0.0811803340912
0.015308380127	0.950171232224	0.16934299469	-0.219448566437	1.45931565762	-0.081878900528
0.00609421730042	0.956156253815	0.168686389923	-0.219564676285	1.45991194248	-0.082389831543
0.00265955924988	0.957145214081	0.16849899292	-0.219917297363	1.46081185341	-0.0831739902496
0.00176596641541	0.959688425064	0.168114066124	-0.219967365265	1.46165752411	-0.0845236778259
-0.00104284286499	0.964068889618	0.166434764862	-0.220003604889	1.46386504173	-0.0865859985352
-0.000971794128418	0.965973615646	0.166530370712	-0.219798564911	1.46736586094	-0.089323759079
0.00132846832275	0.966019392014	0.16756439209	-0.219252586365	1.47067391872	-0.0922775268555
-0.000348329544067	0.967210531235	0.166381239891	-0.218450546265	1.47194600105	-0.0945224761963
-0.00651907920837	0.970789909363	0.163987398148	-0.217104911804	1.47107517719	-0.0949032306671
-0.00770282745361	0.973018884659	0.164798736572	-0.215494155884	1.4700936079	-0.0947622060776
-0.00955319404602	0.978101015091	0.165914535522	-0.214216709137	1.47033882141	-0.0950883626938
-0.00965309143066	0.9869992733	0.165541172028	-0.213268280029	1.47099733353	-0.0959323644638
-0.00820541381836	0.989419937134	0.165535926819	-0.212808847427	1.47157025337	-0.0972390174866
-0.00666427612305	0.991560459137	0.165606975555	-0.213001489639	1.47242438793	-0.098836183548
-0.00388693809509	0.997461557388	0.163835406303	-0.213002681732	1.47308695316	-0.0999402999878
-0.00214791297913	1.00117993355	0.162919521332	-0.212439537048	1.47294843197	-0.100197553635
-0.00104355812073	1.00063657761	0.162370324135	-0.211527824402	1.47309041023	-0.100490689278
-0.00184273719788	1.00008535385	0.160580039024	-0.21081495285	1.47301769257	-0.100943684578
-0.00530481338501	1.00158143044	0.158101916313	-0.210470676422	1.47295117378	-0.101122140884
-0.00692892074585	1.00276827812	0.156843185425	-0.209884643555	1.47331106663	-0.101791381836
-0.00542497634888	1.00498890877	0.157121658325	-0.20969247818	1.47329211235	-0.102454662323
-0.00523090362549	1.00749540329	0.156789541245	-0.209857702255	1.47323679924	-0.103399157524
-0.00873851776123	1.00967240334	0.154945254326	-0.210479259491	1.47350931168	-0.104687333107
-0.0115208625793	1.01198339462	0.153820157051	-0.210961580276	1.47360754013	-0.105774641037
-0.0112936496735	1.01326656342	0.153195381165	-0.210694074631	1.47399044037	-0.107025623322
-0.0140888690948	1.01068615913	0.15213906765	-0.20766377449	1.47765743732	-0.109421610832
-0.0166556835175	1.00927948952	0.150545597076	-0.20356965065	1.47997128963	-0.112102985382
