-0.0751943588257	1.1411973238	0.175291061401	-0.307667255402	1.4903100729	-0.111780643463
-0.0754177570343	1.14145314693	0.175820946693	-0.307638168335	1.49062275887	-0.11199760437
-0.076479434967	1.14206969738	0.175999164581	-0.30718421936	1.49065577984	-0.112560987473
-0.07723736763	1.14229619503	0.175997614861	-0.303265094757	1.49061107635	-0.112797498703
-0.0768053531647	1.14557719231	0.173631548882	-0.29736661911	1.49039363861	-0.112227678299
