-16.8867225647	-65.2816314697	142.733566284	4.79695367813	-0.780784249306	-1.75043916702
-17.0022068024	-65.234085083	142.605941772	4.66703653336	-0.8995834589	-1.70191788673
-16.7821502686	-65.4986114502	142.304901123	4.56101369858	-0.886922717094	-1.57423377037
-14.0312805176	-65.4850769043	139.163635254	4.80645370483	-0.539478480816	-1.54441392422
-7.62062931061	-54.3171577454	127.235740662	5.42692565918	1.3019605875	-1.52985167503
3.21237421036	-43.4700469971	105.581741333	6.79196834564	7.46559906006	-1.73628330231
13.6140794754	-24.7100601196	76.9804077148	8.71715545654	14.1557617188	-1.43341445923
37.183391571	5.41052484512	41.3793792725	10.0202360153	17.4735641479	-1.13005435467
35.5713844299	2.67066764832	43.5451087952	10.1439466476	17.9104919434	-0.622640311718
31.8413448334	-4.51428365707	46.4715461731	9.90389823914	17.5041294098	-0.789101243019
35.070892334	1.38559567928	38.5709075928	9.76139259338	17.3664932251	-0.730119109154
37.2929420471	9.56585216522	33.4129447937	9.76932621002	17.8475456238	-0.441420644522
36.9407615662	15.5884160995	30.0786056519	9.84747028351	18.427822113	-0.229076698422
37.1409606934	4.90185832977	34.069480896	9.31615447998	18.1440505981	0.117784298956
32.455532074	-32.3176422119	64.2282180786	9.16555404663	18.271692276	0.126941218972
28.8416576385	-38.9212112427	68.9603118896	9.96456336975	18.4085388184	0.0721030533314
25.0374355316	-38.8170547485	73.6864471436	10.8970537186	18.2461204529	0.119289137423
24.4480800629	-44.9670372009	79.6572647095	11.3202371597	18.1563243866	0.377796381712
26.3427238464	-41.3351325989	73.2567596436	11.9473934174	18.4654998779	0.747724831104
30.6953620911	-35.4619827271	64.3360824585	12.5909090042	18.7242603302	0.660704553127
22.6116714478	-50.7311477661	70.802696228	12.3557376862	18.2084407806	0.771946787834
10.3447704315	-61.5887451172	85.2330322266	11.8385543823	18.1690120697	0.722141087055
-4.73074913025	-69.3946685791	100.451461792	11.3722248077	18.2872524261	0.845702707767
-3.16684865952	-68.1231536865	96.7889175415	11.1236782074	17.7784118652	0.806278288364
0.530271053314	-64.8251342773	93.001373291	11.1869459152	13.9225349426	0.670493125916
2.3696706295	-63.059425354	91.9613418579	11.0083379745	8.70994377136	0.631415069103
5.42809963226	-60.6083564758	88.5816421509	10.7630290985	8.56346130371	0.658360719681
7.73234701157	-56.8527450562	86.1578979492	10.3574228287	11.498831749	0.456601798534
10.5401229858	-54.5541687012	83.8348617554	10.134018898	12.2701911926	0.320024102926
11.4414997101	-52.042591095	83.3849334717	9.8692483902	10.6943950653	0.125743627548
10.8210468292	-50.5895195007	84.3353881836	9.99252223969	7.0011472702	-0.238095611334
11.7494468689	-49.242805481	83.1168518066	10.1046533585	2.27648472786	-0.459511190653
12.2635421753	-47.8347167969	81.3777008057	9.77772426605	0.540686786175	-0.457282423973
27.0745544434	-33.0999069214	53.9367790222	9.50415039062	1.38236558437	-0.321757227182
30.4914169312	2.94528746605	19.9746246338	9.96616268158	2.91553902626	-0.705757439137
26.709821701	10.7423877716	15.5488243103	10.8166399002	4.68967342377	-0.694640398026
22.176776886	10.843911171	15.6522417068	10.8268375397	6.45410776138	-0.376249313354
19.9706096649	6.04742097855	25.7703514099	10.5259628296	8.16435623169	-0.130161866546
20.9051933289	-3.88868379593	40.393321991	10.1425380707	8.87966442108	0.0392182096839
23.5592079163	-0.0323996916413	27.4715118408	9.92204666138	8.78482246399	0.262272983789
25.6386070251	-21.0795764923	44.1886787415	9.50381660461	8.40972232819	0.436901897192
15.8380908966	-35.3655509949	62.8248901367	8.78256130219	8.57859039307	0.707782149315
4.23517274857	-39.4878196716	81.2241516113	8.5532875061	9.42676258087	0.914163172245
2.4438393116	-27.8292484283	70.9607009888	8.61644268036	10.0993900299	1.13010787964
4.31487035751	-16.605764389	58.1982345581	8.23898220062	10.4012479782	1.13118755817
-0.667657971382	-7.91515016556	56.4965400696	7.97840738297	10.7326440811	1.11569929123
-11.4370517731	-2.47019314766	69.2491836548	7.94235563278	10.916510582	1.12805187702
-10.8009166718	1.06517374516	68.3648147583	7.97702598572	11.3730506897	1.25344884396
-1.48322987556	0.438258081675	65.2099838257	8.12041664124	11.9602146149	1.43231546879
-0.823253571987	10.3936681747	37.2694549561	8.12833118439	12.6811418533	1.48824048042
2.28450965881	16.9308109283	28.1171188354	8.06466007233	13.365647316	1.5621407032
5.53727293015	19.0951404572	25.9492034912	8.03057861328	13.8458156586	1.65457832813
8.12689781189	17.9034366608	29.8448638916	7.63237380981	14.0926961899	1.7248442173
9.00593852997	18.5105247498	29.0230884552	7.34943199158	15.6050596237	1.63672602177
11.1008434296	18.8345718384	31.2416610718	7.71175527573	17.59308815	1.01233875751
11.24269104	15.6293230057	34.0361480713	7.80602216721	17.7105503082	1.19890809059
12.9076595306	8.69164276123	43.1986579895	7.73926401138	17.0065307617	1.13765954971
13.7575855255	8.30694198608	43.3032951355	8.44842720032	17.2115097046	0.781999945641
15.1333293915	12.8986148834	38.7569999695	9.74149227142	17.7752532959	0.669522404671
12.6691408157	-8.16096973419	62.6879234314	10.0468082428	17.2582798004	0.902674436569
6.33997154236	-19.0529727936	73.9965896606	9.48820972443	17.1262016296	1.10058128834
7.95526313782	-16.2468719482	70.7596054077	9.29394435883	17.6927700043	1.02840578556
7.39627885818	-12.3389787674	64.4092712402	9.73581886292	17.5707778931	1.02154922485
6.04591655731	-12.030418396	65.4931945801	10.4715051651	16.4034175873	0.714752316475
6.38696861267	-11.5330457687	64.7118530273	11.4415435791	14.4304332733	0.441514134407
7.8775434494	-10.1656341553	63.8300895691	12.1833696365	12.8540143967	0.716208577156
9.9538564682	-8.14834690094	62.217918396	12.2520704269	11.9235677719	1.22072672844
14.5215854645	-4.22930335999	58.1887168884	11.8799285889	11.7115955353	1.52988958359
21.3486022949	6.45731115341	47.4472541809	11.6628961563	12.1090593338	1.53520011902
31.6437301636	11.7261295319	45.8759994507	11.6697807312	12.8642253876	1.65931987762
42.873046875	12.5636758804	46.8286895752	11.8194093704	13.0440340042	1.75298464298
48.7325553894	10.4758853912	49.7238502502	12.0251407623	13.0783348083	1.71765828133
48.5142288208	9.0286693573	50.424659729	12.01009655	12.9862928391	1.85637950897
39.6271820068	-2.62795853615	54.2398872375	11.6817970276	12.8049650192	2.04123830795
20.351020813	-10.801659584	64.4850158691	11.4384088516	12.7213478088	2.16805076599
-0.0956106632948	-17.9719028473	93.4833068848	11.1342039108	12.9132194519	2.07847595215
-11.687002182	-11.0320510864	110.991500854	10.8460626602	13.0016832352	2.02009487152
-11.6003293991	-5.26431751251	115.803894043	10.6713018417	13.065112114	1.96073913574
-5.87089633942	2.06716799736	93.0433425903	10.5890398026	13.2072725296	1.85653817654
-2.07412743568	11.4839754105	61.2609024048	10.5580911636	13.4440021515	1.92479157448
1.32065308094	20.0361366272	34.8426170349	10.2185773849	13.8168764114	2.0506799221
3.39529013634	21.9622516632	30.1600227356	10.2310018539	14.7957649231	2.20159888268
5.95252227783	21.8801670074	32.0129585266	10.7915582657	15.138094902	2.27129459381
6.89060783386	23.580247879	35.1683120728	11.1336584091	15.9000406265	2.28693723679
11.1479167938	22.70454216	39.9577217102	11.3728733063	17.3649673462	2.26890134811
12.184589386	3.04293656349	67.372833252	11.3197584152	17.1795730591	2.23132014275
8.96005630493	-5.68362617493	73.6831665039	10.9595155716	16.0300216675	1.92548298836
4.31978368759	-7.9122710228	79.1835327148	11.1317567825	15.402920723	1.48309135437
7.18733549118	1.31474244595	62.180431366	11.5898914337	15.1002416611	0.961875081062
8.55511379242	11.5186061859	48.3405265808	11.6076955795	16.4346370697	1.03539538383
11.8228597641	16.5553379059	40.2663764954	9.90333557129	19.6004142761	1.74638032913
11.8261880875	17.2430534363	36.4732437134	6.46260118484	23.6696949005	1.62653589249
15.879034996	9.23349952698	49.3400611877	4.68515443802	24.6834125519	0.618468225002
20.3981971741	-0.736246705055	61.181854248	5.11736869812	24.1105518341	-0.079741731286
22.3611373901	4.7271194458	58.2109489441	6.28402328491	23.8846359253	-0.683600246906
20.985660553	6.23136091232	62.7937240601	7.55915355682	23.8680324554	-0.812991678715
0.523476421833	-9.29444217682	102.928024292	9.3308801651	22.1960926056	-1.04261672497
9.81970500946	-8.59752178192	92.1555175781	11.0687074661	20.9960231781	-1.19876074791
8.35896396637	-8.5363817215	92.2524108887	12.0342988968	21.531457901	-0.790226042271
6.4845290184	-9.1349029541	91.0445098877	12.3224658966	21.869020462	-0.733100712299
10.4629001617	-11.350019455	87.9056549072	12.8492879868	21.6487541199	-1.05827403069
28.9615020752	-8.10977840424	60.8606071472	13.2195882797	21.9894428253	-0.960419118404
36.6803741455	14.1122522354	7.79820346832	13.0452613831	22.2736587524	-0.670828402042
29.8365783691	-1.35443735123	15.8613176346	12.7812175751	22.1384830475	-0.654983758926
25.5991077423	-18.6309127808	51.0892601013	12.8949832916	21.9558410645	-0.856040239334
16.6306838989	-32.1926231384	82.7219696045	13.4951210022	21.383934021	-1.05358600616
18.5412349701	-30.633605957	80.4997406006	14.2485980988	21.2162685394	-1.2280561924
29.5465431213	-15.4776105881	58.1537284851	14.8527297974	21.4993877411	-1.18723106384
31.1436252594	-1.8489357233	47.2377357483	15.5566473007	21.1805858612	-1.29291296005
