-0.0433442592621	0.892739534378	0.19561445713	-0.249483108521	1.44511640072	-0.0666742324829
-0.0441057682037	0.892750024796	0.196596860886	-0.249553442001	1.44528925419	-0.0662262439728
-0.0457274913788	0.891840219498	0.197205901146	-0.249726772308	1.44555318356	-0.0658135414124
-0.0463092327118	0.891123771667	0.19775557518	-0.249564886093	1.44507145882	-0.0650842189789
-0.045832157135	0.889859437943	0.197891592979	-0.24852514267	1.44309687614	-0.0636053085327
-0.0459406375885	0.885841608047	0.196887850761	-0.24639749527	1.44060122967	-0.0622508525848
-0.0464890003204	0.883805274963	0.194842815399	-0.244456768036	1.43766081333	-0.0605157613754
-0.0455529689789	0.879778146744	0.192373394966	-0.243215322495	1.43565058708	-0.0590299367905
-0.0429050922394	0.868324518204	0.188519477844	-0.242704868317	1.43474018574	-0.0581960678101
-0.0429244041443	0.853664875031	0.18351829052	-0.242360830307	1.43354690075	-0.0580518245697
-0.0441431999207	0.845896959305	0.180368423462	-0.242585659027	1.43199169636	-0.0577101707458
-0.046110868454	0.840225219727	0.178596138954	-0.242619752884	1.43052625656	-0.0567948818207
-0.0470652580261	0.834912538528	0.177466034889	-0.242182254791	1.42839682102	-0.0554541349411
-0.0474495887756	0.83186340332	0.176466464996	-0.241325139999	1.42659854889	-0.0539009571075
-0.0476331710815	0.832081317902	0.176456928253	-0.239254236221	1.42448163033	-0.0520454645157
-0.0470399856567	0.836278676987	0.177318811417	-0.235951423645	1.42118692398	-0.0504562854767
-0.0445220470428	0.842230558395	0.179109573364	-0.233313083649	1.41799664497	-0.0490123033524
-0.0445456504822	0.847015380859	0.179457783699	-0.231307268143	1.41852009296	-0.047182559967
-0.0456240177155	0.850084066391	0.179108262062	-0.229186296463	1.42152369022	-0.0462946891785
-0.0475130081177	0.853395462036	0.179504990578	-0.227125406265	1.42279195786	-0.0467334985733
-0.0484390258789	0.857068061829	0.180122852325	-0.225737810135	1.42225432396	-0.0482256412506
-0.0506951808929	0.864796161652	0.182107210159	-0.223627090454	1.42113745213	-0.0495574474335
-0.0517287254333	0.871484994888	0.183601737022	-0.222851753235	1.42090117931	-0.0505723953247
-0.0502228736877	0.877296686172	0.184375762939	-0.223267555237	1.42017126083	-0.0510802268982
-0.0492961406708	0.879685163498	0.184535980225	-0.225069999695	1.41760480404	-0.0511758327484
-0.0482234954834	0.87825512886	0.183315038681	-0.226847887039	1.41500210762	-0.0510318279266
-0.0489401817322	0.875818014145	0.181789159775	-0.229371786118	1.4109852314	-0.0508021116257
-0.0484912395477	0.873307228088	0.18082678318	-0.232576847076	1.40713763237	-0.0500141382217
-0.0471458435059	0.870843410492	0.180102348328	-0.237434864044	1.40321648121	-0.0494720935822
-0.0450215339661	0.864599227905	0.178568124771	-0.241238832474	1.40217006207	-0.0482844114304
-0.0459232330322	0.851556777954	0.175445795059	-0.242316961288	1.40264332294	-0.0467247962952
-0.0491189956665	0.848255634308	0.174887537956	-0.242847919464	1.40261852741	-0.0447316169739
-0.0525035858154	0.848910808563	0.175383090973	-0.243014097214	1.40220153332	-0.0430583953857
-0.054749250412	0.847414731979	0.174898505211	-0.242869377136	1.40232467651	-0.0419397354126
-0.0618119239807	0.841078042984	0.170678377151	-0.242763519287	1.40268576145	-0.0418870449066
-0.0670878887177	0.839444160461	0.168864130974	-0.243503808975	1.40315687656	-0.0422155857086
-0.0678155422211	0.840112924576	0.169621944427	-0.244513750076	1.40372419357	-0.0426796674728
-0.0681946277618	0.839390516281	0.169201850891	-0.245333909988	1.40411221981	-0.0435426235199
-0.0681123733521	0.838768005371	0.167607784271	-0.245747804642	1.40438497066	-0.0443942546844
-0.0682723522186	0.835263729095	0.164761304855	-0.245972633362	1.40446674824	-0.0452324151993
-0.068825006485	0.831660509109	0.161437034607	-0.246062755585	1.4042776823	-0.0461831092834
-0.068071603775	0.829880952835	0.160261869431	-0.246124744415	1.40465521812	-0.0468076467514
-0.0674839019775	0.830256700516	0.160112380981	-0.245138883591	1.40618634224	-0.0473541021347
-0.0684239864349	0.8324842453	0.160806179047	-0.243988513947	1.40756976604	-0.0481328964233
-0.0673167705536	0.83617401123	0.162935256958	-0.241898298264	1.40934109688	-0.0493092536926
-0.0658311843872	0.838699102402	0.164175391197	-0.240811824799	1.40952646732	-0.0508049726486
