-0.0222134590149	0.913481712341	0.178476452827	-0.232183218002	1.4271594286	-0.0555477142334
-0.0234754085541	0.914907932281	0.17989397049	-0.232518672943	1.42717170715	-0.0562310218811
-0.0252106189728	0.916252374649	0.180959224701	-0.232418775558	1.42808997631	-0.0569405555725
-0.0261588096619	0.919174432755	0.181681871414	-0.23135137558	1.43317615986	-0.0576491355896
-0.0290279388428	0.923903226852	0.182429909706	-0.231820344925	1.44213438034	-0.0601522922516
-0.0291030406952	0.92560338974	0.183272600174	-0.233950853348	1.45005869865	-0.0647053718567
-0.0294251441956	0.926732778549	0.183669447899	-0.235218048096	1.4571698904	-0.0698617696762
-0.0315849781036	0.931646347046	0.184678196907	-0.234971284866	1.46160387993	-0.0749074220657
-0.0345387458801	0.945737123489	0.185362577438	-0.234422922134	1.46230256557	-0.0786077976227
-0.0354740619659	0.960881948471	0.184922933578	-0.233700990677	1.46150434017	-0.0806992053986
-0.0385355949402	0.969436168671	0.183209300041	-0.233004570007	1.46159124374	-0.0825548171997
-0.0407559871674	0.975041866302	0.179531335831	-0.233137607574	1.46251702309	-0.0843737125397
-0.0396270751953	0.976705312729	0.176736474037	-0.23305606842	1.4626275301	-0.0853395462036
-0.0385196208954	0.979645013809	0.174475669861	-0.232912540436	1.4623439312	-0.0859053134918
-0.0402405261993	0.985278367996	0.170420885086	-0.232863664627	1.46224820614	-0.0868353843689
-0.0480020046234	0.993607282639	0.164870977402	-0.23274731636	1.46229982376	-0.0877909660339
-0.0544476509094	0.998398780823	0.163874387741	-0.232307672501	1.46235525608	-0.0888159275055
-0.0561172962189	0.998851776123	0.164920210838	-0.232222557068	1.46293628216	-0.0902314186096
-0.0577681064606	0.99867773056	0.164525747299	-0.231921434402	1.46472096443	-0.0913716554642
-0.0591735839844	0.997277498245	0.164398431778	-0.23237657547	1.46641182899	-0.0920989513397
-0.0597715377808	0.991778612137	0.165212392807	-0.234779596329	1.46563637257	-0.093217253685
-0.0580048561096	0.989505529404	0.163545250893	-0.237374067307	1.46338093281	-0.0933389663696
-0.0577461719513	0.987325668335	0.163112044334	-0.236841678619	1.46262979507	-0.0925626754761
-0.0584321022034	0.987553834915	0.163158416748	-0.235926866531	1.46467220783	-0.0922644138336
-0.0585961341858	0.986306905746	0.163754224777	-0.234223604202	1.47034132481	-0.0932688713074
-0.0616166591644	0.984359741211	0.164058089256	-0.227428197861	1.47527289391	-0.0945397615433
-0.0663409233093	0.986393213272	0.164463996887	-0.218159675598	1.47852182388	-0.0943953990936
-0.0691065788269	0.986942052841	0.165532708168	-0.206939458847	1.48234593868	-0.0962957143784
-0.0734515190125	0.987990140915	0.166061639786	-0.196157693863	1.48446059227	-0.0975844860077
-0.0737357139587	0.989107131958	0.167236328125	-0.193224430084	1.48402833939	-0.0965750217438
-0.0724313259125	0.985463142395	0.167488455772	-0.197076559067	1.48475956917	-0.0974372625351
-0.0711164474487	0.980762720108	0.167705178261	-0.207238197327	1.48133838177	-0.0972815752029
-0.0684959888458	0.980354785919	0.167954325676	-0.219786882401	1.47702860832	-0.0963470935822
-0.0677883625031	0.978646755219	0.169870495796	-0.228203296661	1.47622942924	-0.097163438797
-0.0682270526886	0.976136207581	0.172704219818	-0.230136394501	1.47878909111	-0.0994817018509
-0.0712080001831	0.975939035416	0.175723314285	-0.228762626648	1.48075950146	-0.100944638252
-0.0740683078766	0.97826218605	0.17746758461	-0.22674036026	1.48053181171	-0.101462602615
-0.0733811855316	0.980908155441	0.178816318512	-0.224613189697	1.47979104519	-0.101401329041
-0.0690896511078	0.98028421402	0.180541992188	-0.222515583038	1.47853755951	-0.100378990173
-0.0630412101746	0.979776144028	0.180210590363	-0.220803499222	1.47736501694	-0.0991950035095
-0.0570650100708	0.977769613266	0.179448604584	-0.219208478928	1.4768217802	-0.0981501340866
-0.0522344112396	0.976408243179	0.178233265877	-0.217543125153	1.47666251659	-0.0973162651062
-0.0482583045959	0.976066827774	0.177182674408	-0.216086864471	1.47637283802	-0.0966155529022
-0.0446312427521	0.976984262466	0.17684841156	-0.214714765549	1.47615742683	-0.0964266061783
-0.0420749187469	0.977289199829	0.177571892738	-0.213484764099	1.4762980938	-0.0965945720673
-0.0415403842926	0.97789978981	0.178026199341	-0.212818145752	1.47626376152	-0.0967375040054
-0.0423104763031	0.977863788605	0.178398370743	-0.212591171265	1.47580623627	-0.0964653491974
-0.0425126552582	0.978094577789	0.178503632545	-0.211355686188	1.47634196281	-0.0957019329071
-0.0433032512665	0.976753234863	0.178178071976	-0.204407930374	1.48227965832	-0.0967202186584
-0.0453205108643	0.975162744522	0.178362727165	-0.194972515106	1.48509132862	-0.0984909534454
-0.0477950572968	0.974814176559	0.1789675951	-0.188107013702	1.48366367817	-0.0983772277832
-0.0501158237457	0.973425626755	0.178423166275	-0.185970067978	1.48134815693	-0.0971586704254
-0.049916267395	0.969823122025	0.177430152893	-0.187854528427	1.47782313824	-0.095409154892
-0.0475158691406	0.968755960464	0.175943136215	-0.191156387329	1.47289538383	-0.0929052829742
-0.0457556247711	0.968331575394	0.175796985626	-0.193352222443	1.46757221222	-0.0909297466278
-0.0460262298584	0.969884872437	0.175704360008	-0.194543838501	1.46325218678	-0.0897624492645
-0.0475318431854	0.97061252594	0.175958156586	-0.194335460663	1.46164631844	-0.0895165205002
-0.0472092628479	0.96897649765	0.175617098808	-0.193443059921	1.46194291115	-0.0903072357178
-0.0469560623169	0.967557430267	0.17410993576	-0.192764282227	1.46207380295	-0.0910966396332
-0.0488073825836	0.963215112686	0.172517299652	-0.192316293716	1.46171891689	-0.09144115448
-0.048455953598	0.959760665894	0.17122399807	-0.192514419556	1.46165037155	-0.090921163559
-0.0473356246948	0.958071947098	0.170784235001	-0.192593812943	1.46225965023	-0.0900999307632
-0.0453367233276	0.95929646492	0.170205712318	-0.192799329758	1.46349000931	-0.0889077186584
-0.045679807663	0.960034608841	0.167643547058	-0.19370508194	1.46802449226	-0.0882172584534
-0.0477437973022	0.953602075577	0.167633771896	-0.19673538208	1.47183334827	-0.08864402771
-0.0504171848297	0.95071721077	0.168958187103	-0.202784776688	1.46947455406	-0.0869563817978
-0.0511202812195	0.953334331512	0.171343207359	-0.209785699844	1.4620988369	-0.0831764936447
-0.0502691268921	0.958724498749	0.17449593544	-0.215767383575	1.45540547371	-0.0799635648727
-0.0491132736206	0.963530540466	0.177424907684	-0.221458911896	1.44948339462	-0.0783987045288
-0.0481760501862	0.967862606049	0.17803478241	-0.228117465973	1.44430780411	-0.0790848731995
-0.0480556488037	0.970328807831	0.174669265747	-0.230951070786	1.44374608994	-0.0793826580048
-0.0482902526855	0.96982383728	0.171516776085	-0.231529474258	1.44575977325	-0.0794427394867
-0.0464656352997	0.960428714752	0.172887563705	-0.230491399765	1.44671976566	-0.0790663957596
-0.0470364093781	0.951279878616	0.174032449722	-0.228629350662	1.44669353962	-0.0777428150177
-0.0476856231689	0.947302103043	0.17207801342	-0.226945161819	1.4463391304	-0.0762190818787
-0.0471992492676	0.941598653793	0.172368884087	-0.226026296616	1.44533455372	-0.0745453834534
-0.0498955249786	0.936924695969	0.172132611275	-0.225279569626	1.44476675987	-0.0727059841156
-0.0506460666656	0.932560920715	0.172776460648	-0.224263191223	1.44489049911	-0.0710022449493
-0.0510478019714	0.930547714233	0.173678517342	-0.223288536072	1.44509291649	-0.0693680047989
-0.0525660514832	0.931833267212	0.174901247025	-0.221917152405	1.44508039951	-0.0676357746124
-0.0509970188141	0.93484711647	0.176704645157	-0.220606803894	1.44555795193	-0.0660923719406
-0.0493514537811	0.936070680618	0.177718639374	-0.21991276741	1.44798076153	-0.0652153491974
-0.048184633255	0.935915708542	0.178446054459	-0.220272064209	1.45302784443	-0.0647029876709
-0.0481457710266	0.93412232399	0.179249286652	-0.220634698868	1.45924043655	-0.0648322105408
-0.0488638877869	0.931288003922	0.179478883743	-0.221464395523	1.46809840202	-0.0666090250015
-0.050173997879	0.928156375885	0.179911375046	-0.222028493881	1.47551393509	-0.0697327852249
-0.0521664619446	0.927257537842	0.181404590607	-0.221984863281	1.47868251801	-0.0709697008133
-0.0543594360352	0.928896427155	0.183621525764	-0.221578598022	1.47865450382	-0.0708847045898
-0.0592041015625	0.933198451996	0.185526251793	-0.22119808197	1.4776853323	-0.0699777603149
-0.059886932373	0.937875986099	0.186459541321	-0.221558332443	1.47672450542	-0.0689134597778
-0.0595960617065	0.939226150513	0.186558961868	-0.221963167191	1.47590053082	-0.067861199379
-0.0609517097473	0.93882226944	0.185842990875	-0.221777439117	1.47498762608	-0.0663900375366
-0.0614418983459	0.937900543213	0.184509158134	-0.221824407578	1.47331941128	-0.0649228096008
-0.0626473426819	0.938362121582	0.18278157711	-0.220959424973	1.47275435925	-0.0634069442749
-0.0631318092346	0.939151287079	0.18160033226	-0.220407009125	1.47358894348	-0.0626404285431
-0.0644931793213	0.93910574913	0.181403160095	-0.219478368759	1.47395300865	-0.0625427961349
-0.0679070949554	0.940456628799	0.181364774704	-0.217596292496	1.47407066822	-0.0625755786896
-0.0715782642365	0.94019651413	0.181313753128	-0.216854810715	1.47375845909	-0.063148021698
-0.0698301792145	0.938583850861	0.181251525879	-0.220004796982	1.47555410862	-0.0653092861176
-0.066463470459	0.934371471405	0.180573344231	-0.224150180817	1.47890090942	-0.0692217350006
-0.0656538009644	0.931612253189	0.18092083931	-0.225545883179	1.47948586941	-0.0712213516235
-0.0661993026733	0.934083461761	0.182799100876	-0.22487449646	1.47681200504	-0.0709474086761
-0.0667729377747	0.938141107559	0.185423135757	-0.225242137909	1.47480452061	-0.0696964263916
-0.0653429031372	0.939785718918	0.185763001442	-0.225408792496	1.4733928442	-0.0691443681717
-0.0653252601624	0.939900875092	0.182388305664	-0.225311517715	1.47204744816	-0.0683357715607
-0.0654902458191	0.938137531281	0.178603768349	-0.225264549255	1.47079563141	-0.0677816867828
-0.0676786899567	0.936091184616	0.17589700222	-0.225479841232	1.46983838081	-0.0676859617233
-0.0681755542755	0.935564279556	0.174313902855	-0.226032733917	1.468957901	-0.0677411556244
-0.0675768852234	0.936349630356	0.172786235809	-0.22713136673	1.46853280067	-0.0680549144745
-0.0666606426239	0.938865184784	0.171527862549	-0.22812962532	1.46815311909	-0.0688107013702
-0.0624396800995	0.944283723831	0.169194221497	-0.228278398514	1.46828532219	-0.0703485012054
