0.0872337818146	0.907921075821	0.152532339096	-0.216904640198	1.4450019598	-0.060488820076
0.0862891674042	0.906050682068	0.152227640152	-0.216673851013	1.44511163235	-0.0599074363708
0.0860328674316	0.905540466309	0.151950120926	-0.216532230377	1.44491827488	-0.0590935945511
0.0806131362915	0.907652616501	0.153197169304	-0.218599796295	1.44440972805	-0.0583512783051
0.0712811946869	0.911977529526	0.156046390533	-0.223650455475	1.44411242008	-0.0586665868759
0.0627074241638	0.91472697258	0.160810709	-0.229588747025	1.44401013851	-0.0604680776596
0.0530242919922	0.91669178009	0.166708230972	-0.234674692154	1.44414532185	-0.0629426240921
0.0395121574402	0.91971206665	0.17215681076	-0.238019704819	1.44471883774	-0.0648372173309
0.0226588249207	0.924290418625	0.17588019371	-0.239654779434	1.44487226009	-0.0658822059631
0.00610136985779	0.927268505096	0.17654311657	-0.239983558655	1.44448637962	-0.0658135414124
-0.00579977035522	0.927210569382	0.173724293709	-0.240528583527	1.44395041466	-0.0657334327698
-0.0122721195221	0.927351236343	0.168997764587	-0.241371870041	1.44386005402	-0.065596818924
-0.0143899917603	0.92765712738	0.165387511253	-0.242554187775	1.44343841076	-0.0658869743347
-0.0166001319885	0.92861032486	0.162210941315	-0.244238615036	1.44293224812	-0.0665602684021
-0.0182888507843	0.930159568787	0.15971827507	-0.245890378952	1.44298326969	-0.0679030418396
-0.0232963562012	0.930913925171	0.156762003899	-0.247663259506	1.44336259365	-0.0696026086807
-0.0300641059875	0.934750556946	0.15408718586	-0.249172687531	1.44310772419	-0.0709266662598
-0.0367188453674	0.936794281006	0.151715517044	-0.249668359756	1.44269382954	-0.0720037221909
-0.0390820503235	0.930962324142	0.155488729477	-0.250348567963	1.44236707687	-0.0728981494904
-0.0384006500244	0.922363996506	0.160441398621	-0.251410484314	1.44199466705	-0.0736955404282
-0.0435628890991	0.926619529724	0.15633058548	-0.252334833145	1.44159913063	-0.0743069648743
-0.0477468967438	0.92771935463	0.151997208595	-0.253174304962	1.44150137901	-0.0744199752808
-0.0505554676056	0.929791927338	0.149352669716	-0.254806280136	1.4412612915	-0.0744904279709
-0.0520422458649	0.93088388443	0.148632645607	-0.255788564682	1.44104123116	-0.074210524559
-0.0505106449127	0.930373668671	0.152215242386	-0.256276369095	1.44086921215	-0.0734928846359
-0.0488982200623	0.93338394165	0.154034256935	-0.255536794662	1.44114363194	-0.0724050998688
-0.0508739948273	0.932978153229	0.152478456497	-0.254673242569	1.44142138958	-0.0712912082672
-0.051442861557	0.931633472443	0.151621818542	-0.25417971611	1.44146740437	-0.0705106258392
-0.0500583648682	0.930928945541	0.150409936905	-0.253476858139	1.44058179855	-0.0689504146576
-0.0505690574646	0.930327415466	0.147461175919	-0.253039121628	1.43930912018	-0.0672205686569
-0.0506892204285	0.931169033051	0.145581960678	-0.25301861763	1.43831646442	-0.0658330917358
-0.048636674881	0.930497646332	0.146641850471	-0.25369310379	1.43758904934	-0.064642906189
-0.0480210781097	0.929598093033	0.146236419678	-0.253591775894	1.43703722954	-0.06378698349
-0.0464951992035	0.927224397659	0.14749288559	-0.253533601761	1.4366145134	-0.0629812479019
-0.0440943241119	0.923858880997	0.149478793144	-0.253738880157	1.43595588207	-0.0619525909424
-0.0441179275513	0.922876596451	0.149329066277	-0.254034280777	1.43519413471	-0.0606231689453
-0.0442686080933	0.922894477844	0.149256944656	-0.25427365303	1.43497157097	-0.0591766834259
-0.0451254844666	0.921911239624	0.148874759674	-0.254956483841	1.43478548527	-0.0576385259628
-0.0459403991699	0.921633720398	0.148360013962	-0.256026029587	1.43435680866	-0.0565292835236
-0.0458014011383	0.921904087067	0.147972822189	-0.257390022278	1.43412041664	-0.0563939809799
-0.0456628799438	0.923142433167	0.146841526031	-0.258785247803	1.43626987934	-0.0571854114532
