Participant: 1735

Trial	Condition	Time
0		6			1.5068
1		6			2.2094
2		3			1.918
3		5			3.5061
4		2			36.4037
5		0			2.476
6		2			4.3629
7		1			1.218
8		4			1.0738
9		2			6.9627
10		0			1.1865
11		4			0.7074
12		0			1.2863
13		4			0.8545
14		4			1.0089
15		5			2.1288
16		6			1.4073
17		0			1.1321
18		2			5.0721
19		3			1.5973
20		0			2.9953
21		3			1.2986
22		0			1.9732
23		6			2.1845
24		5			2.4954
25		2			3.3866
26		3			1.2181
27		5			1.1535
28		6			1.4404
29		2			8.6732
30		4			1.2292
31		0			2.6063
32		5			2.1732
33		0			2.1846
34		5			1.1317
35		1			1.4623
36		4			0.7849
37		0			2.129
38		6			2.0095
39		1			2.7622
40		5			5.1054
41		0			1.507
42		6			1.354
43		3			2.0956
44		2			4.2614
45		1			0.9851
46		5			1.0767
47		6			1.1876
48		6			1.8512
49		6			2.0068
