0.0	-0.0	137.024139404	-125.864936829	86.2360153198	165.611846924
0.0	-0.0	136.968475342	-125.638023376	86.7381591797	165.351364136
0.0	-0.0	137.025924683	-125.806266785	87.6438598633	165.476013184
0.0	-0.0	133.923065186	52.6215019226	88.9233551025	-14.2672634125
0.0	-0.0	118.114242554	49.253742218	74.096321106	-12.3269948959
0.0	-0.0	102.124755859	44.691204071	72.203414917	-10.8037185669
0.0	-0.0	96.5472717285	41.2929382324	73.9083862305	-9.57464981079
0.0	-0.0	84.2353668213	38.1037635803	76.9798126221	-8.20906352997
0.0	-0.0	83.5323638916	35.7002677917	78.8331756592	-7.09963607788
