7.01965522766	-2.80401921272	-1.56239676476	-0.171592324972	9.93248176575	33.549369812
6.64061880112	-2.58681893349	-1.41080975533	-0.157145470381	9.83605289459	33.5496330261
6.5403213501	-2.57747983932	-1.37530148029	0.4230902493	9.52350902557	32.7419242859
6.87187290192	-2.63010501862	-1.44281482697	3.94569778442	8.39601516724	29.3934211731
6.73137569427	-3.09543037415	-1.43850052357	8.55845546722	7.08827877045	26.2477741241
8.35722351074	-3.33997750282	-3.9367582798	11.9175453186	6.61133909225	23.8484363556
9.85519790649	-3.10389685631	-8.40940380096	13.8226852417	6.89505147934	22.2006855011
10.386759758	-1.30113124847	-13.0244255066	14.9436378479	7.33472633362	21.1504707336
