0.0	-0.0	133.414916992	53.4083900452	86.8844146729	-7.99372196198
0.0	-0.0	131.8099823	53.151966095	87.3061523438	-8.18887042999
0.0	-0.0	124.919052124	52.8443717957	86.9820251465	-8.09853076935
0.0	-0.0	109.084312439	52.0643005371	87.072013855	-7.47551822662
0.0	-0.0	95.1435012817	51.9187583923	86.9273986816	-6.90474748611
0.0	-0.0	89.2353515625	51.0140266418	86.6497039795	-6.73913574219
0.0	-0.0	83.8746566772	50.270149231	86.6661148071	-6.18840503693
0.0	-0.0	69.7867050171	48.5215911865	86.837272644	-4.90434360504
0.0	-0.0	58.4293251038	49.0948867798	85.6615066528	-4.38369750977
0.0	-0.0	39.4526557922	48.2384605408	86.020866394	-3.23108386993
0.0	-0.0	14.3766584396	47.2755699158	87.4541244507	-1.18869125843
0.0	0.0	-4.68212366104	47.9397087097	86.3096542358	-0.865792572498
0.0	0.0	-19.838804245	46.261302948	86.9424591064	-0.439045578241
0.0	0.0	-34.7032089233	45.3154335022	87.4255065918	0.00129489484243
0.0	0.0	-48.8339958191	44.6109695435	87.7850646973	0.571631669998
