6.00571203232	-0.290189027786	-2.15207266808	3.8771045208	13.0189447403	32.4472084045
5.7831363678	-0.246239081025	-2.18564343452	3.79048275948	13.0978879929	32.4194908142
5.19779109955	-0.0762105584145	-2.2217259407	3.53195762634	13.3942871094	32.4188346863
3.55311274529	0.579111814499	-2.80722260475	1.60003232956	15.1177873611	32.3801689148
-0.0852751135826	4.7759437561	-5.40396595001	-1.8389942646	18.7989673615	31.7693557739
-1.99240088463	8.2974319458	-6.62279510498	-3.94619083405	22.5131206512	31.0547294617
-4.820333004	12.1907911301	-9.24756240845	-4.70472669601	24.205663681	31.4484348297
-9.44334793091	18.0922145844	-12.4753742218	-5.17095804214	25.7384567261	32.1696090698
-10.0003852844	18.1212043762	-16.0581474304	-6.00442314148	27.156665802	32.4284324646
-11.3870325089	18.9214897156	-16.7330207825	-6.98452186584	28.3086109161	32.4059677124
-14.0752944946	19.9256019592	-19.8769035339	-7.98144960403	29.57172966	32.3649940491
-16.8204803467	21.5360584259	-23.3871097565	-9.15538883209	30.4036121368	32.0513725281
-21.3591156006	25.147310257	-29.3242683411	-9.29268455505	30.4089031219	31.9951572418
-22.4021091461	24.6110496521	-24.9012889862	-9.24104785919	30.0118999481	31.8189964294
-20.5701522827	22.6676559448	-21.2662582397	-9.34862804413	29.865398407	31.9512290955
-20.9355049133	21.8124256134	-17.1376304626	-9.58208942413	29.8481769562	31.5824108124
-20.7111625671	21.1584224701	-14.2068452835	-9.91649913788	29.8941555023	31.6991939545
-20.1307945251	19.156206131	-13.3420991898	-11.0754175186	30.5527496338	32.2492408752
-21.4766101837	17.0342330933	-12.7279195786	-17.1534461975	31.6575775146	28.754119873
-21.2751350403	16.5801372528	-13.0311613083	-25.0098896027	32.3723526001	22.771692276
-21.7840042114	17.1518955231	-14.0510759354	-27.2654666901	32.6500549316	20.9135322571
-22.6482105255	16.4831867218	-16.2397460938	-28.1252803802	32.8854866028	19.9202671051
-22.3398303986	14.8969812393	-16.0862064362	-27.4460010529	32.4706916809	19.4009227753
-19.2674217224	14.5493984222	-7.57173109055	-25.6004600525	31.7816047668	19.8113822937
-14.793463707	17.2025356293	4.30359220505	-24.3327503204	31.515794754	20.3550167084
-15.4549407959	16.7666168213	-0.068708576262	-24.4510192871	31.6681499481	20.1356315613
-19.1161289215	18.4057483673	-4.82360982895	-25.7250900269	32.2975120544	19.3751506805
-22.2871379852	19.0422592163	-11.658082962	-26.977645874	32.4633903503	18.4687538147
-24.4742908478	19.2517566681	-16.0227966309	-27.2568321228	32.0350494385	18.129360199
-26.9821586609	18.6078338623	-18.6511306763	-27.6368198395	31.8563117981	17.9066638947
-27.3746318817	17.5401744843	-15.1413793564	-27.3230133057	31.7876663208	18.1216831207
-25.3191452026	17.9308795929	-4.39342212677	-26.2382831573	31.4027862549	18.6194438934
-23.176158905	17.1198425293	5.18350744247	-25.6355228424	31.2766742706	19.1083126068
-21.9761867523	17.7385005951	3.50512909889	-24.9923171997	31.3750305176	19.3937282562
-22.3657093048	19.1336994171	-1.29708170891	-24.2027435303	31.4654388428	19.6900005341
-23.3365268707	19.8632946014	-5.08790636063	-24.2134723663	31.7326221466	19.7106113434
-25.080537796	21.6156253815	-9.19228076935	-24.3792610168	32.1425704956	19.55950737
-26.985622406	23.9193515778	-11.8877382278	-24.2066078186	32.6236228943	19.4166431427
-27.9169864655	24.2860660553	-13.9063539505	-24.0824222565	32.9346885681	19.3364105225
-27.5162334442	24.6825294495	-13.7015762329	-24.2567768097	33.2126655579	19.3042697906
-28.4415874481	25.290977478	-14.5889549255	-24.5809268951	33.3528671265	19.1913871765
-29.8104057312	24.2832622528	-11.6695594788	-24.9254226685	33.4752540588	19.2114048004
-28.5006866455	23.745016098	-9.67726325989	-25.2960567474	33.7160263062	19.2652664185
-28.7081260681	25.2415447235	-10.4665908813	-25.1424922943	33.8819999695	19.3162841797
-29.3131637573	26.145280838	-11.1606111526	-25.046245575	33.9488334656	19.4824352264
-29.6544036865	26.4125442505	-11.2627325058	-25.4056949615	33.9989852905	19.5286827087
-29.7082099915	26.0689315796	-12.3294496536	-25.557756424	34.0335922241	19.7150287628
-30.8865280151	26.4639167786	-12.1376438141	-25.698425293	34.10987854	19.8649635315
