-0.0687639713287	1.19593787193	0.15366256237	-0.27282333374	1.48332345486	-0.113820075989
-0.0679585933685	1.19536459446	0.153932094574	-0.272971391678	1.48320126534	-0.113498806953
-0.0685639381409	1.1946824789	0.154058694839	-0.273077726364	1.48291420937	-0.113130092621
-0.0708739757538	1.19462609291	0.153187155724	-0.274596691132	1.48159325123	-0.112747192383
-0.0734643936157	1.19371938705	0.152260780334	-0.279883384705	1.4760106802	-0.110849738121
-0.0753271579742	1.19256651402	0.151034235954	-0.286578655243	1.46770775318	-0.108082175255
-0.0765793323517	1.19101512432	0.151049256325	-0.28995513916	1.4604061842	-0.105941295624
-0.0775394439697	1.19254875183	0.151802301407	-0.292505979538	1.45113265514	-0.103799104691
-0.0796494483948	1.19503939152	0.149603962898	-0.294577121735	1.43919229507	-0.102174043655
-0.0804495811462	1.19537961483	0.147808432579	-0.296713113785	1.43382048607	-0.0998666286469
-0.0818030834198	1.19388175011	0.145593762398	-0.298047065735	1.43190467358	-0.097382068634
-0.0865852832794	1.18924820423	0.140521168709	-0.299266576767	1.43029117584	-0.0951642990112
-0.0867574214935	1.14825761318	0.156237363815	-0.301115274429	1.42753303051	-0.0934588909149
-0.0991656780243	1.12416923046	0.143750667572	-0.304060459137	1.42432498932	-0.091535449028
-0.105888605118	1.13008904457	0.144927382469	-0.305208683014	1.42398369312	-0.0889704227448
-0.108850002289	1.14840996265	0.147446036339	-0.303599357605	1.4278113842	-0.0856864452362
-0.112543821335	1.1601831913	0.148458719254	-0.298547267914	1.42715120316	-0.0843741893768
-0.119280338287	1.16762757301	0.143075942993	-0.29227399826	1.4259417057	-0.0815045833588
-0.128471851349	1.17223000526	0.135460734367	-0.289816617966	1.42247462273	-0.0802927017212
-0.130799293518	1.18033194542	0.129045963287	-0.291117429733	1.41882824898	-0.0781960487366
-0.131129741669	1.17543566227	0.130731344223	-0.291790723801	1.41840863228	-0.0768532752991
-0.120579004288	1.15413558483	0.14643239975	-0.290771484375	1.41716587543	-0.0767059326172
-0.119995832443	1.14661717415	0.144016504288	-0.291675329208	1.41656959057	-0.0758321285248
-0.117483377457	1.15594303608	0.149757027626	-0.291511297226	1.41762697697	-0.0744190216064
