0.0	-0.0	134.20249939	59.1106987	84.3131103516	-3.22524881363
0.0	-0.0	134.212554932	58.3440933228	84.7756652832	-2.89408755302
0.0	-0.0	131.821365356	58.0208854675	84.8498306274	-2.71775794029
0.0	-0.0	119.165550232	58.896686554	84.7533569336	-3.18182897568
0.0	-0.0	106.220573425	58.3609848022	83.8888778687	-2.7750544548
0.0	-0.0	96.2698516846	61.2619056702	83.3038787842	-6.93410301208
0.0	-0.0	89.3635787964	64.1742782593	83.3105239868	-14.8261890411
0.0	-0.0	84.9706802368	65.7321395874	87.1587905884	-25.4350795746
