-0.0452718734741	1.17449212074	0.20057117939	-0.262929677963	1.48933649063	-0.118930101395
-0.0421798229218	1.17574441433	0.203503131866	-0.263006925583	1.48911297321	-0.11830663681
-0.042112827301	1.17606067657	0.202690601349	-0.263099193573	1.48884057999	-0.117698073387
-0.0414042472839	1.17566812038	0.203375816345	-0.262690067291	1.48882102966	-0.117343187332
-0.0366880893707	1.17731261253	0.207764148712	-0.258154630661	1.48971700668	-0.117398023605
-0.0290348529816	1.1831227541	0.210248708725	-0.250112056732	1.49102652073	-0.118275642395
-0.0342481136322	1.18465566635	0.202931761742	-0.2462413311	1.49452877045	-0.119130373001
-0.0422685146332	1.17983484268	0.194201946259	-0.246880292892	1.49683606625	-0.119852304459
-0.0454323291779	1.17998659611	0.18774664402	-0.246662139893	1.4984459877	-0.119404554367
-0.0487222671509	1.18215632439	0.178880929947	-0.246242523193	1.5027474165	-0.12021780014
-0.0441625118256	1.18388867378	0.189971327782	-0.246487617493	1.50543498993	-0.121281385422
-0.0388555526733	1.18183767796	0.208071231842	-0.246751785278	1.50433421135	-0.121307611465
-0.0536417961121	1.17508220673	0.202369451523	-0.247133016586	1.50263845921	-0.119080662727
-0.0618059635162	1.17419564724	0.199961185455	-0.248075485229	1.50136995316	-0.116091609001
