0.0	-0.0	137.072280884	-127.660270691	87.0021438599	173.108795166
0.0	-0.0	136.656921387	-127.477928162	86.0687255859	172.867599487
0.0	-0.0	136.507171631	-127.569831848	84.9264221191	173.014007568
0.0	-0.0	134.560012817	-127.51763916	84.8622055054	172.952713013
0.0	-0.0	128.404205322	-128.911651611	86.6397323608	174.133651733
0.0	-0.0	126.679481506	48.8183746338	88.0367126465	-4.62494945526
0.0	-0.0	125.611480713	44.8072662354	81.0978012085	-3.95172190666
0.0	-0.0	123.387542725	40.8543434143	67.6222000122	-9.6630563736
0.0	-0.0	121.458244324	37.5625915527	48.6085739136	-19.7931289673
0.0	-0.0	120.719398499	32.5933837891	38.9162788391	-24.1761474609
0.0	-0.0	119.03263092	32.4992141724	33.8474082947	-28.0802631378
0.0	-0.0	115.861495972	36.7761650085	32.7002868652	-34.9965248108
0.0	-0.0	113.147224426	38.5675315857	34.1316757202	-41.2913284302
0.0	-0.0	106.786605835	39.422454834	34.8040847778	-58.6956825256
0.0	-0.0	93.8669128418	29.6808052063	35.6075439453	-51.6067008972
0.0	-0.0	90.3866119385	28.4510631561	35.6857070923	-50.9978904724
0.0	-0.0	92.5205535889	29.4780025482	34.5520629883	-52.2431983948
0.0	-0.0	88.8969116211	26.9645462036	33.2151069641	-50.5395927429
