-75.8495635986	-44.0819778442	135.286056519	3.11060237885	0.908658921719	-3.55397582054
-75.9856872559	-44.0741729736	135.209869385	3.0471072197	0.878628015518	-3.50584888458
-76.0896835327	-44.0021591187	135.026611328	2.8390314579	0.894667804241	-3.47986960411
-77.6971359253	-43.3650054932	134.370178223	-0.0289468746632	0.766971290112	-3.11717176437
-80.4557876587	-41.4839401245	133.127182007	-6.02626371384	0.155016511679	-2.07176184654
-83.9773025513	-39.5261802673	132.736190796	-14.7195005417	-0.552549779415	-0.258245557547
-86.8170623779	-40.3179664612	132.136322021	-22.5542793274	-0.891457080841	1.54366374016
-89.9728622437	-40.8570327759	131.387878418	-27.7362136841	-1.60078692436	2.73940348625
-92.7452545166	-43.1311607361	124.668701172	-29.203748703	-1.78502821922	3.53918361664
-61.6391029358	-45.9839172363	68.1369018555	-28.0736598969	-1.33737397194	3.6909224987
-62.1429977417	-37.3185806274	68.7412414551	-26.6992301941	-0.702403783798	3.5111823082
-58.0522232056	-36.248752594	68.5953063965	-25.0905990601	0.00260030804202	3.26250171661
