0.0	-0.0	136.104644775	-121.01474762	83.2811584473	172.019241333
0.0	-0.0	135.998382568	-120.865135193	83.2759552002	171.901138306
0.0	-0.0	136.097503662	-120.175727844	81.8213500977	172.123245239
0.0	-0.0	133.696029663	-115.890365601	75.7737884521	173.64755249
0.0	-0.0	117.741943359	-110.915596008	63.9613571167	176.437667847
0.0	-0.0	117.437210083	-108.997787476	54.2685127258	178.634277344
0.0	-0.0	110.984848022	-109.978767395	49.1137809753	-179.802322388
0.0	-0.0	102.684959412	-110.909057617	44.8223381042	-177.83102417
0.0	-0.0	83.1262588501	-110.933677673	40.7033462524	-176.361038208
0.0	-0.0	27.5521259308	-111.095275879	40.188583374	-175.738845825
0.0	-0.0	35.7351493835	-111.048072815	40.315158844	-175.29397583
0.0	-0.0	19.8303527832	-111.341056824	40.6486244202	-174.905487061
0.0	-0.0	12.7873907089	-111.89793396	42.8874053955	-174.79510498
0.0	-0.0	15.1704530716	-114.159347534	46.3352851868	-173.637268066
0.0	-0.0	14.1667919159	-120.808227539	54.1566047668	-167.465072632
0.0	-0.0	12.2314767838	-126.676773071	57.1257972717	-157.534011841
0.0	-0.0	10.0411710739	-126.898918152	51.6860237122	-153.487579346
0.0	-0.0	4.99890518188	-124.266990662	45.4724693298	-152.770370483
0.0	0.0	-6.69041919708	-122.212684631	44.3033218384	-153.56539917
0.0	0.0	-14.4141683578	-121.393180847	46.5729370117	-154.822021484
0.0	0.0	-18.0218906403	-122.482025146	47.6237068176	-154.439315796
0.0	0.0	-20.9759235382	-124.661781311	47.0626373291	-152.608062744
0.0	0.0	-23.5262489319	-126.204788208	45.0778923035	-149.694534302
0.0	0.0	-28.0017604828	-124.66305542	41.9654312134	-148.068069458
0.0	0.0	-34.0122337341	-122.226089478	40.5299263	-147.44569397
0.0	0.0	-42.001033783	-119.645545959	40.8642959595	-146.90562439
0.0	0.0	-45.2130813599	-118.57585907	40.3391571045	-146.715805054
0.0	0.0	-46.8527832031	-119.628372192	40.5515823364	-145.928848267
0.0	0.0	-47.3010635376	-120.50214386	41.5789909363	-144.851928711
0.0	0.0	-50.5049858093	-119.596893311	42.1037406921	-143.754699707
