15.893237114	-1.96904444695	5.06900453568	10.3154907227	4.84076929092	35.6959762573
15.5413045883	-1.68192183971	5.13915157318	10.1888008118	4.74594163895	35.7081718445
15.4081916809	-1.50570082664	5.12805080414	10.013461113	4.12759637833	35.3682670593
13.9433403015	-2.33688855171	4.47367954254	9.36902809143	1.62410247326	33.6073532104
10.3814783096	-4.76855802536	3.3703186512	7.98577213287	-4.40790557861	30.9466819763
8.04525470734	-6.47119998932	2.39104199409	7.07979679108	-9.81826782227	28.6730651855
6.56792259216	-8.87488269806	2.77721333504	7.02563238144	-13.0152368546	25.3442764282
5.53437757492	-13.4283447266	-1.66759967804	7.46419239044	-14.0770368576	23.1773700714
5.34504652023	-18.0886764526	-10.5457763672	7.89145565033	-14.1297769547	22.5548171997
3.31526708603	-22.0688533783	-15.5770835876	8.20673561096	-14.0012483597	22.1508312225
-0.536421597004	-22.3779220581	-15.3318710327	8.27938556671	-14.7564706802	21.5133724213
0.134890660644	-22.0920715332	-15.8048419952	8.4374961853	-16.3722991943	20.4613227844
3.4970908165	-22.4819011688	-18.2583675385	8.92829704285	-17.742975235	19.4474716187
1.05977058411	-22.638923645	-18.6200180054	8.76689910889	-17.9243011475	19.1712760925
-3.07552552223	-23.5032806396	-16.0197811127	8.37741374969	-18.1274662018	19.0119380951
-3.18228816986	-24.2957191467	-12.8694496155	8.61838626862	-19.7355136871	18.4011001587
-1.61434745789	-25.0174312592	-12.8488674164	8.79159164429	-20.7825012207	17.5685977936
