0.0	-0.0	132.715103149	25.5641918182	86.5655288696	-39.3901901245
0.0	-0.0	132.586914062	25.4575023651	86.6446456909	-39.4411277771
0.0	-0.0	132.497055054	24.7567939758	87.2316055298	-39.3854026794
0.0	-0.0	133.354598999	-159.61076355	88.7928390503	140.047332764
0.0	-0.0	134.21194458	-170.509902954	78.8748855591	140.782150269
0.0	-0.0	132.595397949	-176.7472229	70.4885482788	139.318435669
0.0	-0.0	131.194702148	-179.975921631	64.7048492432	135.972427368
0.0	-0.0	132.066940308	173.747909546	60.8251647949	135.978240967
0.0	-0.0	133.296066284	169.396194458	58.5923347473	134.930465698
0.0	-0.0	134.803421021	156.842712402	54.0394668579	131.92364502
0.0	-0.0	134.29776001	141.304901123	46.7767372131	128.922454834
0.0	-0.0	134.624069214	135.721252441	39.7721710205	127.950942993
0.0	-0.0	134.719711304	134.486602783	34.4779701233	127.582572937
0.0	-0.0	134.553390503	130.627487183	26.601316452	135.024719238
0.0	-0.0	134.582366943	139.714752197	29.7621459961	140.169967651
0.0	-0.0	131.854293823	145.701751709	31.1045703888	144.143493652
0.0	-0.0	123.865127563	147.832550049	33.1431846619	145.523239136
0.0	-0.0	110.870277405	148.073150635	34.2966575623	145.052078247
0.0	-0.0	92.4799957275	147.672836304	33.5058670044	145.419509888
0.0	-0.0	78.3073196411	147.953460693	34.0935821533	145.636627197
0.0	-0.0	68.8785324097	149.450042725	35.5764541626	145.626907349
0.0	-0.0	60.5846595764	149.761825562	37.9599189758	146.346664429
0.0	-0.0	57.7099304199	149.898605347	42.5900917053	143.179946899
0.0	-0.0	61.934463501	150.575408936	43.925403595	144.055450439
0.0	-0.0	69.4126052856	152.587219238	45.3261680603	145.55305481
0.0	-0.0	76.4130935669	153.077651978	47.3860321045	146.252807617
0.0	-0.0	84.0956115723	153.977966309	48.9921607971	146.819732666
0.0	-0.0	85.1167068481	154.832489014	48.780456543	147.571792603
0.0	-0.0	89.3182525635	153.646835327	47.9422111511	147.01461792
0.0	-0.0	97.6100082397	153.598999023	47.970451355	146.132446289
0.0	-0.0	104.301994324	153.341827393	47.4329681396	144.920532227
0.0	-0.0	105.230644226	153.193435669	47.0996398926	145.311508179
0.0	-0.0	99.2395553589	153.170776367	46.5334434509	146.137115479
0.0	-0.0	85.945526123	152.962646484	46.2996749878	146.417526245
0.0	-0.0	71.3313980103	153.152755737	47.1408920288	146.255813599
0.0	-0.0	60.9266433716	152.830383301	47.3500175476	145.842498779
0.0	-0.0	54.4745445251	152.502365112	47.533782959	145.133071899
0.0	-0.0	51.5976028442	153.093612671	47.5027198792	145.251907349
0.0	-0.0	48.1620788574	152.756607056	47.264591217	145.251464844
0.0	-0.0	45.2676277161	153.162216187	46.9753723145	145.946365356
0.0	-0.0	44.0210456848	153.072570801	47.2587013245	146.011657715
0.0	-0.0	47.9351158142	152.950637817	47.6405754089	145.684341431
0.0	-0.0	56.2641334534	151.065597534	47.6536941528	146.528640747
0.0	-0.0	73.8822097778	144.627746582	49.9611434937	151.433822632
0.0	-0.0	85.9884414673	142.341552734	49.2744941711	150.127731323
0.0	-0.0	88.9038085938	141.348251343	43.5733642578	147.505584717
0.0	-0.0	89.9484481812	137.859832764	41.1709671021	143.769622803
0.0	-0.0	90.5206222534	136.911941528	40.3490905762	141.091934204
0.0	-0.0	90.0526657104	135.222930908	38.2344779968	138.656158447
0.0	-0.0	88.1669616699	134.045455933	37.1190109253	137.523147583
0.0	-0.0	77.1357040405	134.442504883	37.3777656555	137.428390503
0.0	-0.0	59.231716156	134.185958862	36.2570037842	138.170608521
0.0	-0.0	47.8120727539	134.688659668	37.1610450745	138.508743286
0.0	-0.0	46.0091209412	135.437210083	38.3614959717	138.828781128
0.0	-0.0	47.2898635864	134.126846313	39.2412910461	136.601531982
0.0	-0.0	52.9159736633	132.066192627	40.8144035339	135.714996338
0.0	-0.0	60.6982917786	133.733734131	41.8687438965	136.193634033
0.0	-0.0	73.7811737061	134.171508789	42.4266586304	137.809539795
0.0	-0.0	93.2440032959	135.365097046	45.1271781921	139.266784668
0.0	-0.0	103.623046875	134.347000122	45.2607345581	139.212875366
0.0	-0.0	107.756484985	133.581771851	43.9837608337	138.948059082
0.0	-0.0	109.9271698	132.586074829	42.0292549133	133.776260376
0.0	-0.0	110.941642761	127.701530457	41.0480918884	124.928062439
0.0	-0.0	110.982505798	124.694046021	40.6756286621	126.482810974
0.0	-0.0	110.723701477	124.828231812	41.0945396423	140.700683594
0.0	-0.0	110.125144958	121.541526794	39.4042320251	151.678359985
0.0	-0.0	110.12046051	120.357902527	40.2751655579	156.589859009
0.0	-0.0	110.297515869	123.009132385	39.8231925964	163.388381958
0.0	-0.0	110.478294373	125.331016541	39.4775733948	165.647399902
0.0	-0.0	109.733848572	125.889129639	34.806186676	168.36555481
0.0	-0.0	101.212501526	126.109558105	36.6429481506	165.063034058
0.0	-0.0	92.6899337769	126.216827393	37.5136184692	163.933288574
0.0	-0.0	86.5062332153	126.998970032	39.1004638672	163.070373535
0.0	-0.0	80.1729660034	127.314750671	39.202205658	162.162139893
0.0	-0.0	74.9289016724	128.024185181	38.2390975952	162.061141968
0.0	-0.0	72.5018844604	131.589859009	38.4420051575	162.375976562
0.0	-0.0	70.437210083	135.814590454	40.6564865112	159.964752197
0.0	-0.0	68.8758239746	137.64982605	42.750995636	158.034072876
0.0	-0.0	69.0085906982	138.318313599	42.5513916016	158.050567627
0.0	-0.0	69.5450057983	139.045715332	41.5279922485	157.72013855
0.0	-0.0	69.9529495239	139.547012329	41.1423530579	158.220779419
0.0	-0.0	69.9023742676	141.244247437	41.3642501831	159.197921753
0.0	-0.0	69.4390487671	140.840942383	40.8013458252	158.842590332
0.0	-0.0	69.1582107544	140.157211304	40.2824783325	158.676742554
0.0	-0.0	69.0299606323	140.593887329	41.05727005	158.411071777
0.0	-0.0	69.1607971191	140.251159668	40.4065437317	158.247528076
0.0	-0.0	66.7922210693	139.850585938	39.8059921265	158.534912109
