-0.0879771709442	1.22553730011	0.121791124344	-0.274813175201	1.48196697235	-0.115651607513
-0.0870862007141	1.22567868233	0.122018098831	-0.275000333786	1.48219156265	-0.115221261978
-0.0875444412231	1.22547841072	0.122331380844	-0.274437427521	1.48267138004	-0.11499941349
-0.0888857841492	1.22657907009	0.123765945435	-0.272793769836	1.48779404163	-0.115657329559
-0.0911202430725	1.22805058956	0.123725056648	-0.273352146149	1.49414372444	-0.119119644165
-0.09299659729	1.23056006432	0.125105857849	-0.275365591049	1.49877166748	-0.122572422028
-0.0957715511322	1.23215472698	0.126790642738	-0.278038263321	1.50237107277	-0.126242876053
-0.0981726646423	1.233984828	0.127818107605	-0.280013561249	1.50434935093	-0.128465175629
-0.102889537811	1.23828494549	0.121079206467	-0.281010627747	1.50496637821	-0.128516435623
-0.108416080475	1.24251794815	0.103746294975	-0.281823158264	1.50523948669	-0.12771832943
-0.110946178436	1.24432945251	0.100792646408	-0.283600091934	1.50575792789	-0.128091573715
-0.104785442352	1.25	0.125039458275	-0.286376953125	1.50654482841	-0.130074501038
-0.0846247673035	1.2378371954	0.171745896339	-0.288721561432	1.50761544704	-0.132772445679
-0.087012052536	1.2133923769	0.168482899666	-0.289908409119	1.50869941711	-0.135359287262
-0.100818634033	1.20443880558	0.152077913284	-0.290585756302	1.50952363014	-0.137446761131
-0.103565692902	1.20520365238	0.156617283821	-0.291029930115	1.50970697403	-0.138901352882
-0.0969185829163	1.22247779369	0.163944721222	-0.290752887726	1.51034045219	-0.141024112701
-0.0873959064484	1.24165034294	0.163660764694	-0.289462804794	1.5110117197	-0.14302444458
-0.0767374038696	1.25210905075	0.159445285797	-0.286944150925	1.51033782959	-0.143700361252
-0.0753071308136	1.2539883852	0.145774006844	-0.283813476562	1.50951385498	-0.142969250679
-0.0828619003296	1.24183630943	0.127768397331	-0.280906677246	1.5089468956	-0.142771482468
-0.0800325870514	1.23684382439	0.122897148132	-0.278959274292	1.50891888142	-0.143023252487
-0.066305398941	1.24604380131	0.135334014893	-0.277224779129	1.5091342926	-0.143571734428
-0.0631651878357	1.24864065647	0.132398843765	-0.276153802872	1.50897443295	-0.144295573235
-0.0893471240997	1.23460137844	0.120247602463	-0.276826858521	1.5092124939	-0.144598841667
-0.094943523407	1.22495484352	0.124394416809	-0.278308868408	1.50912284851	-0.144777774811
-0.090363740921	1.223046422	0.131404042244	-0.280854701996	1.50910103321	-0.144389867783
-0.085440158844	1.22296226025	0.134410500526	-0.282491207123	1.50914132595	-0.143424987793
-0.0799312591553	1.23004841805	0.134236931801	-0.282872438431	1.5087903738	-0.141946911812
-0.071849822998	1.23766851425	0.133882522583	-0.282717943192	1.50835180283	-0.140315532684
-0.0630776882172	1.23317694664	0.149689793587	-0.282445430756	1.50813305378	-0.139069318771
-0.060715675354	1.22899854183	0.149139046669	-0.282596588135	1.50810778141	-0.138187050819
-0.0722942352295	1.22425794601	0.139613389969	-0.282741785049	1.50821244717	-0.137123584747
-0.0768947601318	1.22343301773	0.140168905258	-0.28275179863	1.50822389126	-0.135745763779
-0.0818192958832	1.22290897369	0.14108133316	-0.282841205597	1.5081038475	-0.134377360344
-0.0803790092468	1.22834122181	0.144840955734	-0.283718347549	1.50810134411	-0.133548021317
-0.0798010826111	1.22970581055	0.150234222412	-0.286445379257	1.50818896294	-0.13387966156
-0.0807321071625	1.22704052925	0.152585506439	-0.290007591248	1.50800645351	-0.134091377258
-0.0822288990021	1.22542607784	0.151573181152	-0.291761875153	1.50770568848	-0.133167266846
-0.0847337245941	1.22693824768	0.147894978523	-0.291017532349	1.50760042667	-0.131667137146
-0.0832407474518	1.24081659317	0.142105460167	-0.289805173874	1.50703144073	-0.129867076874
-0.0840194225311	1.25875210762	0.128778219223	-0.289738893509	1.50655317307	-0.129190802574
-0.0879235267639	1.26128733158	0.119551897049	-0.29009604454	1.506270051	-0.129819631577
-0.0976366996765	1.24585485458	0.124066829681	-0.29056429863	1.50601482391	-0.130851984024
-0.0960731506348	1.23569262028	0.1369587183	-0.290232658386	1.50557565689	-0.131642580032
-0.0914599895477	1.23273599148	0.141672492027	-0.289160966873	1.50453424454	-0.131452918053
-0.088960647583	1.22530889511	0.144286870956	-0.287701845169	1.50242769718	-0.130046606064
-0.0889873504639	1.21887397766	0.143782258034	-0.28676199913	1.50175988674	-0.12920832634
-0.0871984958649	1.21646428108	0.144020438194	-0.287471532822	1.50342464447	-0.130375385284
-0.0847151279449	1.21374797821	0.145138382912	-0.289580345154	1.50688755512	-0.133080720901
-0.084329366684	1.21186327934	0.145719528198	-0.292335033417	1.50891470909	-0.136836767197
-0.0857090950012	1.21289491653	0.145372629166	-0.293003082275	1.50934815407	-0.140205383301
-0.0873548984528	1.21790707111	0.143439292908	-0.291634082794	1.50889372826	-0.142553091049
-0.0845885276794	1.23146009445	0.137880802155	-0.289655447006	1.50876390934	-0.143267631531
-0.0811367034912	1.24311840534	0.127966284752	-0.288938999176	1.50907242298	-0.143623828888
-0.071121931076	1.25463211536	0.13271021843	-0.289052248001	1.50934171677	-0.144050836563
-0.0626375675201	1.25206935406	0.147235512733	-0.289080619812	1.50923585892	-0.144261479378
-0.0709943771362	1.2507443428	0.139337778091	-0.289281845093	1.50877261162	-0.14434504509
-0.0773386955261	1.24596846104	0.137417554855	-0.289445877075	1.50857508183	-0.143911838531
-0.0759887695312	1.23933780193	0.143134593964	-0.289142608643	1.50812792778	-0.142917633057
-0.0730340480804	1.23210299015	0.14722430706	-0.288927078247	1.50764477253	-0.141059041023
-0.0740430355072	1.22655940056	0.145887851715	-0.288833618164	1.50720763206	-0.138606667519
-0.0805842876434	1.21571242809	0.14230132103	-0.288753509521	1.50672399998	-0.136425733566
-0.0803077220917	1.21330714226	0.142062902451	-0.28747177124	1.50623679161	-0.134561538696
-0.0789768695831	1.2150272131	0.143960475922	-0.282595157623	1.50491404533	-0.134060621262
-0.0781733989716	1.21458387375	0.146803975105	-0.277024745941	1.50379741192	-0.134351015091
-0.0794186592102	1.21711862087	0.14490032196	-0.274127244949	1.50368177891	-0.134318351746
-0.078697681427	1.21881461143	0.143897771835	-0.27479839325	1.50410699844	-0.133615255356
-0.0783922672272	1.22220861912	0.1370241642	-0.277244091034	1.50475311279	-0.132706642151
-0.0742342472076	1.23352575302	0.12914955616	-0.279117584229	1.50565135479	-0.132291316986
-0.071277141571	1.23891890049	0.131903409958	-0.279282808304	1.5061224699	-0.132501244545
-0.0657489299774	1.24144971371	0.138608217239	-0.279269456863	1.50646901131	-0.133062124252
-0.0672285556793	1.23024272919	0.147921562195	-0.279832839966	1.5065984726	-0.13340139389
-0.0783796310425	1.22332489491	0.141128540039	-0.280754089355	1.50686013699	-0.133932471275
-0.0850012302399	1.21859407425	0.140730023384	-0.281566619873	1.50658833981	-0.134160280228
-0.0859658718109	1.21215093136	0.144006729126	-0.282821655273	1.50634920597	-0.133958101273
-0.0832951068878	1.20809566975	0.145986557007	-0.284455537796	1.50620424747	-0.133467674255
-0.0794496536255	1.21340751648	0.146903634071	-0.285593748093	1.50603437424	-0.132858514786
-0.0754437446594	1.22259151936	0.147125244141	-0.285517692566	1.5057002306	-0.132899165154
-0.0568170547485	1.23440623283	0.158307671547	-0.285040140152	1.50549852848	-0.133366465569
-0.0529518127441	1.23139107227	0.159548521042	-0.285269737244	1.50565719604	-0.13415813446
-0.0630121231079	1.22599077225	0.151564836502	-0.285530567169	1.5057772398	-0.134490013123
-0.0665843486786	1.21771800518	0.151912927628	-0.285840988159	1.50550103188	-0.134831547737
-0.071325302124	1.21473383904	0.150139451027	-0.286365032196	1.50519061089	-0.134566545486
-0.079131603241	1.21037399769	0.147079229355	-0.287818431854	1.5048635006	-0.134162545204
-0.0833258628845	1.21314477921	0.146443963051	-0.289974451065	1.50421929359	-0.133479356766
-0.0835742950439	1.21828913689	0.147676706314	-0.290524482727	1.5040845871	-0.132988452911
-0.0833823680878	1.21951806545	0.149453759193	-0.28924036026	1.50436556339	-0.132891654968
-0.081433057785	1.22143387794	0.150424480438	-0.288015365601	1.50444436073	-0.133002996445
-0.0788049697876	1.2246619463	0.149061441422	-0.287604808807	1.5048366785	-0.133289575577
-0.075900554657	1.22615718842	0.148582339287	-0.286716461182	1.50579094887	-0.134580135345
-0.0732748508453	1.22356903553	0.149235486984	-0.284727096558	1.50607168674	-0.135934114456
-0.0749073028564	1.22019147873	0.148209214211	-0.282964229584	1.50633692741	-0.136800765991
-0.0749237537384	1.21886610985	0.147064805031	-0.282022953033	1.50790286064	-0.13796710968
-0.0732433795929	1.21748411655	0.147621273994	-0.281580448151	1.50852239132	-0.139012813568
-0.0738615989685	1.21719908714	0.147562623024	-0.279408454895	1.50823354721	-0.139320015907
-0.0755319595337	1.21894240379	0.146368145943	-0.278260707855	1.50813102722	-0.139121055603
-0.0747592449188	1.22096550465	0.145595669746	-0.279358625412	1.50819075108	-0.139323711395
-0.0746207237244	1.22509884834	0.141515731812	-0.280322790146	1.50847518444	-0.140251398087
