0.0	-0.0	141.830596924	-122.2784729	88.0141372681	162.00213623
0.0	-0.0	141.473236084	-122.142776489	87.9493103027	161.700790405
0.0	-0.0	141.884933472	-122.675140381	87.4556045532	161.712554932
0.0	-0.0	141.833511353	-132.308151245	84.7476196289	164.949813843
0.0	-0.0	141.146911621	-154.427001953	79.809211731	170.523101807
0.0	-0.0	138.528640747	-171.730453491	71.787651062	173.888946533
0.0	-0.0	136.310821533	-177.794540405	64.0288391113	174.734161377
0.0	-0.0	135.876449585	-177.287612915	58.6360321045	175.621154785
0.0	-0.0	133.548492432	-177.925140381	55.4093856812	177.000335693
0.0	-0.0	107.669044495	179.533706665	52.6185150146	178.119873047
0.0	-0.0	65.558883667	176.639343262	49.3401603699	179.489089966
0.0	-0.0	72.7000045776	176.5650177	47.2293052673	-179.826385498
0.0	-0.0	75.9578170776	179.223175049	47.130279541	-179.667434692
0.0	-0.0	76.0878219604	-179.961776733	47.0469512939	-179.709884644
0.0	-0.0	81.9793624878	179.573013306	46.7033615112	-178.87739563
