0.117888212204	1.09881842136	0.13310110569	-0.143042564392	1.47577524185	-0.14181137085
0.117577552795	1.09877085686	0.134079098701	-0.14248085022	1.47594249249	-0.141484379768
0.11784362793	1.09923386574	0.134615659714	-0.142421722412	1.47568273544	-0.14027762413
0.116574048996	1.09738922119	0.136344313622	-0.143797397614	1.47541320324	-0.138744235039
0.0963175296783	1.09489238262	0.138769388199	-0.14791560173	1.47561573982	-0.137576818466
0.0508668422699	1.08731484413	0.130776286125	-0.156986236572	1.47629249096	-0.138225793839
0.0161039829254	1.08243775368	0.115391016006	-0.170406341553	1.47594368458	-0.142112255096
0.0057418346405	1.08255088329	0.114794254303	-0.180896043777	1.47574162483	-0.145701169968
