0.0	-0.0	137.99230957	60.5125579834	88.4083099365	-2.2626516819
0.0	-0.0	137.607650757	61.967792511	88.4398040771	-2.49574136734
0.0	-0.0	137.413726807	61.8006858826	88.1998214722	-3.0037343502
0.0	-0.0	134.495162964	60.7558937073	88.3308944702	-2.84941387177
0.0	-0.0	127.294204712	56.9081420898	87.7202835083	-2.84514737129
0.0	-0.0	121.37562561	52.3894844055	85.2468109131	-2.68640065193
0.0	-0.0	114.266891479	46.8592567444	82.0525970459	-2.74395895004
0.0	-0.0	106.424743652	43.4121437073	80.9840698242	-6.14873456955
0.0	-0.0	99.295501709	35.5918159485	77.0957717896	-11.3573904037
0.0	-0.0	91.2741317749	29.4782981873	75.0743637085	-16.5399990082
0.0	-0.0	86.9439544678	25.1521568298	72.1010360718	-17.2070999146
0.0	-0.0	86.0442199707	17.1519699097	66.7080688477	-11.0263948441
0.0	-0.0	84.6161422729	16.8189182281	63.2351799011	-10.3316526413
0.0	-0.0	83.6336135864	17.9270992279	61.8548049927	-9.61443996429
0.0	-0.0	82.0043792725	17.5778808594	59.6396446228	-9.41032600403
0.0	-0.0	80.8257675171	15.3055782318	57.1129989624	-11.7244062424
0.0	-0.0	79.7349014282	15.7372837067	59.9345397949	-21.7141742706
0.0	-0.0	78.2171325684	16.6766548157	61.2714500427	-31.645614624
0.0	-0.0	77.0019836426	10.2915477753	60.1825904846	-17.0796527863
0.0	-0.0	75.0874404907	8.02335834503	56.3959732056	-7.32872343063
0.0	-0.0	73.8453445435	10.2659454346	50.9560241699	1.34752964973
0.0	-0.0	72.0715713501	11.7761154175	44.2609024048	7.33474779129
0.0	-0.0	69.9625854492	15.1244955063	35.7451095581	9.66042804718
0.0	-0.0	68.6549072266	16.3074207306	29.0015830994	9.37246417999
0.0	-0.0	67.7396392822	16.8948554993	26.1977882385	7.30197191238
0.0	-0.0	67.1787490845	21.4278411865	25.2103633881	1.72418248653
0.0	-0.0	67.1895828247	21.6354999542	24.9646110535	0.566504061222
0.0	-0.0	67.024848938	16.4757385254	25.2481842041	1.6072499752
0.0	-0.0	66.489906311	15.1706428528	23.0340480804	2.64667129517
0.0	-0.0	65.6119308472	16.3175888062	21.3318920135	4.11298513412
