0.0	-0.0	135.143203735	-125.658790588	87.2501068115	169.35093689
0.0	-0.0	135.167938232	-125.845596313	87.3664627075	169.478164673
0.0	-0.0	135.130203247	-126.33531189	87.3433914185	169.550476074
0.0	-0.0	134.457275391	-133.627868652	87.5705032349	170.396575928
0.0	-0.0	133.383987427	-150.521591187	89.2415237427	173.362518311
0.0	-0.0	132.86857605	3.73971271515	88.4345245361	-1.4643175602
0.0	-0.0	132.172271729	-20.5508079529	87.4721832275	4.22133398056
0.0	-0.0	131.291244507	-36.9753837585	85.4175796509	7.85625696182
0.0	-0.0	127.225570679	-42.7111206055	84.6045913696	10.523935318
0.0	-0.0	73.1959686279	-39.7303657532	85.7307128906	11.1103696823
0.0	-0.0	68.9500656128	-35.5610313416	87.7161331177	10.5423460007
0.0	-0.0	68.5239257812	-30.7996425629	89.7520904541	9.88150405884
