0.0	-0.0	136.119644165	-122.756980896	83.5597686768	172.151016235
0.0	-0.0	135.853988647	-122.765197754	83.9355163574	171.872497559
0.0	-0.0	135.27784729	-122.663322449	84.088760376	171.631057739
0.0	-0.0	135.47492981	-122.019775391	86.0222244263	171.054534912
0.0	-0.0	135.417633057	60.4171943665	82.1988983154	-9.81945228577
0.0	-0.0	135.140823364	62.435798645	72.3205566406	-10.5884208679
0.0	-0.0	134.647628784	63.3316230774	62.3392982483	-10.0265140533
0.0	-0.0	135.046447754	64.4354171753	53.0317878723	-9.29271507263
0.0	-0.0	132.853942871	66.3374328613	49.5181732178	-9.47313499451
0.0	-0.0	56.8027153015	67.5919342041	48.7916069031	-9.83178138733
0.0	-0.0	54.2387008667	67.5972671509	48.3418540955	-9.91157531738
0.0	-0.0	77.7591552734	66.5223922729	46.8074378967	-9.91092395782
0.0	-0.0	95.1600494385	65.9170837402	43.128200531	-9.28977966309
0.0	-0.0	101.503845215	65.8522262573	34.243057251	-9.43126392365
0.0	-0.0	107.75730896	66.4644470215	26.5208854675	-10.3575792313
0.0	-0.0	100.354484558	67.8282241821	25.2892780304	-10.9459352493
0.0	-0.0	44.3883705139	69.5481643677	27.9289531708	-11.0429506302
0.0	-0.0	24.5596218109	72.3015594482	32.7487716675	-11.6097068787
0.0	-0.0	18.4183120728	74.3482894897	38.1778335571	-10.964515686
0.0	-0.0	32.6105041504	73.8985595703	46.1704673767	-9.18291378021
0.0	-0.0	55.4661636353	71.5947875977	50.9075431824	-7.55287647247
0.0	-0.0	85.6271896362	69.979309082	48.5838470459	-6.53906440735
0.0	-0.0	94.8056716919	70.1871261597	45.6099281311	-7.01938915253
0.0	-0.0	103.793075562	71.4954223633	44.6796379089	-7.87965917587
0.0	-0.0	86.8025665283	72.8432846069	44.6426010132	-8.38199615479
0.0	-0.0	67.8781661987	72.697303772	44.5326919556	-8.90795040131
0.0	-0.0	64.0108642578	71.7550430298	44.6271858215	-8.64700222015
0.0	-0.0	59.0975418091	71.3818206787	44.3073616028	-8.49426555634
0.0	-0.0	51.9480895996	71.0484161377	41.6747741699	-8.63930225372
0.0	-0.0	53.6641464233	70.4003372192	39.0347251892	-8.81439495087
0.0	-0.0	72.1456222534	69.4844589233	39.1909179688	-7.95630645752
0.0	-0.0	89.2736282349	68.8579559326	40.15965271	-6.91462755203
0.0	-0.0	101.837646484	69.2500839233	41.4859657288	-6.88958311081
0.0	-0.0	109.028266907	69.2419433594	38.6763114929	-6.88906860352
0.0	-0.0	108.06993866	68.2207641602	31.827709198	-7.61800575256
0.0	-0.0	107.323387146	68.5815734863	27.9827880859	-8.86711597443
0.0	-0.0	108.550315857	72.7239990234	28.688129425	-10.1993055344
0.0	-0.0	109.592826843	77.3020629883	29.9435100555	-10.8888339996
0.0	-0.0	109.920967102	77.7905883789	27.0376338959	-9.8799533844
0.0	-0.0	104.329330444	75.8129730225	25.4645023346	-8.85045623779
0.0	-0.0	42.3705482483	75.4829101562	26.6029548645	-8.96161937714
0.0	-0.0	31.5011386871	75.3929901123	28.0897941589	-8.77589225769
0.0	-0.0	42.1331825256	75.6910629272	30.4058628082	-8.36344242096
0.0	-0.0	42.7026786804	75.2478408813	32.1648674011	-7.80896520615
0.0	-0.0	46.9608612061	75.2671585083	33.2212181091	-7.40074539185
