0.0	-0.0	131.608932495	-123.816169739	89.6077651978	172.47946167
0.0	-0.0	131.612228394	56.4909820557	88.7351455688	-7.94205951691
0.0	-0.0	131.225189209	55.7133750916	86.6969299316	-7.57481956482
0.0	-0.0	129.943115234	50.155632019	86.8106536865	-6.7666425705
0.0	-0.0	130.406860352	36.7641639709	88.955619812	-3.88980412483
0.0	-0.0	129.710494995	-166.953918457	89.7358932495	179.96307373
0.0	-0.0	128.946548462	170.164794922	89.2798156738	-175.642715454
0.0	-0.0	127.093963623	152.71887207	89.169593811	-171.500259399
0.0	-0.0	124.180160522	144.614776611	89.220199585	-169.370819092
0.0	-0.0	106.808563232	145.658447266	88.4131317139	-169.982589722
0.0	-0.0	73.4565429688	148.769607544	86.9332351685	-169.959732056
0.0	-0.0	87.886680603	150.045883179	86.5053787231	-169.517822266
0.0	-0.0	79.4790725708	152.448364258	85.5056610107	-170.560440063
