0.0179100036621	0.937604427338	0.180820465088	-0.207645177841	1.43247354031	-0.069629907608
0.0161638259888	0.937703847885	0.181317329407	-0.207921743393	1.43285238743	-0.0697284936905
0.0156285762787	0.936569929123	0.180902600288	-0.208487033844	1.43353581429	-0.0700731277466
0.0131344795227	0.936762809753	0.180746793747	-0.210451841354	1.43432080746	-0.0707092285156
0.0107169151306	0.938815593719	0.18140912056	-0.21520781517	1.43301689625	-0.0719883441925
0.00739359855652	0.941546201706	0.182708382607	-0.223173856735	1.43132591248	-0.0744347572327
0.00365042686462	0.942869186401	0.184978485107	-0.232528686523	1.43128192425	-0.0787606239319
-0.00172257423401	0.94548201561	0.188436031342	-0.241009950638	1.43255722523	-0.0839722156525
-0.0079870223999	0.949252843857	0.191460490227	-0.247109889984	1.43399727345	-0.0896017551422
-0.0135564804077	0.952678203583	0.193648815155	-0.249675750732	1.4349604845	-0.0943765640259
-0.0175471305847	0.955582141876	0.194281935692	-0.250549316406	1.43524193764	-0.0982285737991
-0.0213758945465	0.958265542984	0.192239046097	-0.248793125153	1.43529200554	-0.100682020187
-0.0279746055603	0.96063709259	0.187320828438	-0.245884656906	1.4356058836	-0.101654529572
-0.0348160266876	0.96235871315	0.180713653564	-0.244479656219	1.43589448929	-0.103080034256
-0.0405752658844	0.959638834	0.17481148243	-0.244206666946	1.43548452854	-0.104798078537
-0.0444617271423	0.956352949142	0.17004942894	-0.244594097137	1.43502569199	-0.106667518616
-0.0470244884491	0.955123662949	0.166905403137	-0.244733095169	1.43463468552	-0.108485102654
-0.0495676994324	0.957836389542	0.16522860527	-0.244705915451	1.43471574783	-0.110182523727
-0.0544118881226	0.961381673813	0.161825299263	-0.24439740181	1.43479597569	-0.111885666847
-0.0573205947876	0.96498131752	0.161865949631	-0.243744850159	1.43463110924	-0.113426685333
-0.0520083904266	0.963467359543	0.168565154076	-0.243170499802	1.43446862698	-0.115243434906
-0.0459086894989	0.969634056091	0.172048687935	-0.24261713028	1.43446481228	-0.116122364998
-0.0412125587463	0.972754001617	0.172793030739	-0.242230892181	1.43409693241	-0.116360783577
-0.0394115447998	0.971560239792	0.171972751617	-0.242322921753	1.43355071545	-0.116069555283
-0.0401058197021	0.971288442612	0.170000433922	-0.242530822754	1.43309926987	-0.115104794502
-0.0393688678741	0.967877149582	0.169684529305	-0.242588758469	1.43253326416	-0.113846540451
-0.0385375022888	0.963838577271	0.169772028923	-0.242568731308	1.43222939968	-0.112304210663
-0.0386395454407	0.959384441376	0.1697961092	-0.242719173431	1.43185472488	-0.1109354496
-0.0400836467743	0.954962491989	0.16947889328	-0.243225097656	1.43167388439	-0.109911203384
-0.0424401760101	0.953171253204	0.168755173683	-0.244223594666	1.43169701099	-0.108698129654
-0.0465936660767	0.955066680908	0.167692780495	-0.245146036148	1.43180465698	-0.107421636581
-0.0513138771057	0.958649635315	0.166161775589	-0.245309352875	1.43235528469	-0.105736613274
-0.0534369945526	0.958716869354	0.166115999222	-0.245601415634	1.43241631985	-0.104781389236
-0.0539703369141	0.958534002304	0.16585457325	-0.245794534683	1.43301868439	-0.104151248932
-0.0541605949402	0.957875967026	0.164967536926	-0.246197938919	1.43451046944	-0.103875398636
-0.0543975830078	0.956726551056	0.164625525475	-0.245790481567	1.43629479408	-0.103615522385
-0.0559329986572	0.957673072815	0.164388298988	-0.243483066559	1.43760943413	-0.102293372154
-0.0573029518127	0.959084749222	0.164755940437	-0.241148233414	1.43684780598	-0.10058426857
-0.0577220916748	0.958764791489	0.164140105247	-0.23886179924	1.4359023571	-0.0985146760941
-0.0564529895782	0.95669054985	0.163081049919	-0.237164258957	1.43599629402	-0.0972009897232
-0.0543444156647	0.955413579941	0.162138104439	-0.236517190933	1.43538796902	-0.0968663692474
-0.0510141849518	0.955222129822	0.163206934929	-0.236027240753	1.43531811237	-0.0964735746384
-0.0479075908661	0.955214738846	0.165467500687	-0.235938072205	1.43591296673	-0.0970296859741
-0.0450913906097	0.956818580627	0.167689800262	-0.236628055573	1.4356045723	-0.097852230072
-0.044130563736	0.956131219864	0.168577432632	-0.237199068069	1.43477702141	-0.0986444950104
-0.0433747768402	0.954957962036	0.169215202332	-0.237456798553	1.43430173397	-0.0989246368408
