0.0	-0.0	141.458862305	43.7216567993	88.9732589722	-22.1021118164
0.0	-0.0	141.690307617	42.8392906189	88.9445877075	-21.9279403687
0.0	-0.0	140.711669922	41.1602973938	89.0779647827	-21.728635788
0.0	-0.0	135.169204712	38.8372764587	88.09375	-20.7745380402
0.0	-0.0	126.765304565	33.9163093567	85.9860610962	-19.872926712
0.0	-0.0	118.141021729	30.4914588928	84.5685882568	-17.2770862579
0.0	-0.0	112.472244263	26.1664714813	81.0799255371	-14.6364040375
0.0	-0.0	110.840690613	20.0473861694	76.9314041138	-12.6391248703
0.0	-0.0	110.68964386	10.8650941849	72.3797607422	-8.59673023224
0.0	-0.0	108.721298218	1.94199383259	62.5840797424	-5.40624570847
0.0	-0.0	107.510009766	-1.78364920616	53.9321708679	-10.5689477921
0.0	-0.0	106.829559326	-7.65419244766	49.9407920837	-11.6227703094
0.0	-0.0	105.611671448	-10.0607566833	49.4815254211	-12.7175607681
0.0	-0.0	104.337997437	-7.91778230667	49.8334465027	-16.8066635132
0.0	-0.0	103.06362915	-5.01805067062	49.1380767822	-27.4582595825
0.0	-0.0	102.015289307	-2.81097888947	50.1553688049	-41.373550415
0.0	-0.0	102.17150116	-8.99344158173	48.0603599548	-37.4426689148
0.0	-0.0	102.465423584	-15.9946880341	43.6813735962	-24.2851409912
0.0	-0.0	101.927017212	-15.2624063492	39.4775085449	-21.140417099
0.0	-0.0	99.8068161011	-15.0598287582	38.3557014465	-18.0505867004
0.0	-0.0	99.0990142822	-15.1908226013	37.2315864563	-17.5602169037
0.0	-0.0	98.2987060547	-14.0371513367	35.8011054993	-23.663520813
0.0	-0.0	95.6184768677	-15.5747261047	36.056137085	-26.6058483124
0.0	-0.0	88.9934005737	-18.2225608826	37.2833251953	-23.2316646576
0.0	-0.0	80.9448699951	-17.6106147766	38.2295570374	-24.1963539124
0.0	-0.0	76.3266525269	-16.1280250549	39.3785057068	-24.9017829895
0.0	-0.0	72.9432907104	-16.6081085205	37.8820495605	-25.0057926178
