0.0	-0.0	142.924728394	-112.877197266	82.0401000977	175.432876587
0.0	-0.0	142.925582886	-113.037185669	81.8687362671	175.563354492
0.0	-0.0	143.466278076	-113.475852966	81.6904754639	175.915863037
0.0	-0.0	141.700592041	-109.549034119	77.6889801025	176.030670166
0.0	-0.0	119.215065002	-103.484550476	68.2094955444	177.032852173
0.0	-0.0	98.2943572998	-101.324371338	61.8181533813	177.734771729
0.0	-0.0	62.2651634216	-102.810440063	54.3698616028	179.977752686
0.0	-0.0	34.9801483154	-104.029533386	44.0169334412	-177.419433594
0.0	-0.0	1.62220418453	-105.505203247	38.626789093	-174.777297974
0.0	0.0	-4.00863361359	-105.907119751	37.3947219849	-173.104980469
0.0	-0.0	17.5102500916	-106.578208923	38.7389984131	-171.397140503
0.0	-0.0	30.8071308136	-108.961585999	39.805355072	-170.348617554
0.0	-0.0	47.4187660217	-109.457794189	39.5468101501	-170.380233765
0.0	-0.0	59.8359832764	-107.255584717	40.3533782959	-170.317184448
0.0	-0.0	65.2487030029	-103.399032593	54.5900764465	-171.729690552
0.0	-0.0	61.7796020508	-103.553337097	65.7325820923	-168.949203491
0.0	-0.0	60.5876502991	-108.753128052	67.9752120972	-164.080474854
0.0	-0.0	51.0686302185	-115.612960815	62.4656677246	-159.223739624
0.0	-0.0	33.4683761597	-118.274002075	54.1534080505	-154.589904785
0.0	-0.0	3.71254897118	-118.799491882	45.6872634888	-150.544662476
0.0	0.0	-5.74874448776	-118.728752136	40.1217308044	-148.053619385
0.0	0.0	-9.29750442505	-117.044776917	40.2268295288	-148.019348145
0.0	0.0	-15.7421922684	-115.017181396	42.3486976624	-148.634628296
0.0	0.0	-26.5204410553	-110.435585022	42.0906295776	-147.621887207
0.0	0.0	-31.0731620789	-109.855506897	40.7567749023	-145.705932617
0.0	0.0	-36.905506134	-112.686576843	39.5496749878	-144.961669922
0.0	0.0	-43.0233802795	-114.318382263	38.8990821838	-143.398574829
