0.0	-0.0	130.586105347	55.0087928772	87.6116104126	-13.647064209
0.0	-0.0	130.521362305	54.6286125183	87.6103286743	-13.3337306976
0.0	-0.0	131.026611328	55.6033058167	87.4980392456	-12.9322195053
0.0	-0.0	132.376235962	62.5663795471	85.9658432007	-13.0159273148
0.0	-0.0	133.100631714	71.3638458252	82.951789856	-14.088511467
0.0	-0.0	133.350601196	77.5847320557	78.9705963135	-15.0754976273
0.0	-0.0	134.81942749	81.1141433716	75.8333816528	-16.0600090027
0.0	-0.0	141.113861084	83.1408462524	74.0876464844	-17.0170688629
0.0	-0.0	137.703216553	84.3126449585	72.8787765503	-17.5816650391
0.0	-0.0	91.0021820068	84.2289962769	72.239440918	-17.9621181488
0.0	-0.0	57.0689659119	84.3410110474	72.7900695801	-17.7131919861
0.0	-0.0	80.7695465088	83.2923812866	72.2309799194	-17.070274353
0.0	-0.0	97.688583374	82.7069854736	72.3152999878	-16.6086273193
0.0	-0.0	122.073402405	83.9534606934	69.0526123047	-17.004365921
0.0	-0.0	141.130615234	85.3291549683	61.9672546387	-18.6964454651
0.0	-0.0	139.005081177	87.2234802246	60.6042480469	-20.5263519287
0.0	-0.0	110.933502197	89.5668792725	63.6319732666	-20.5262489319
0.0	-0.0	109.971672058	91.6609802246	65.8362808228	-20.4396591187
0.0	-0.0	110.476791382	91.848777771	66.1780548096	-20.6105861664
0.0	-0.0	107.467208862	92.8461608887	64.3967895508	-21.5322093964
