18.9061794281	-72.8901443481	139.175872803	3.58395719528	-1.45610535145	-4.28983020782
18.9106407166	-72.6091461182	138.993331909	3.56240725517	-1.45320224762	-4.34983587265
19.4508781433	-72.4609069824	138.636795044	3.74318408966	-1.64635503292	-4.42346334457
22.9010353088	-71.6605377197	134.424133301	3.98970961571	-2.28164505959	-4.38269233704
32.768787384	-57.6202011108	101.720542908	5.05336046219	-8.11708641052	-4.46571207047
34.2577362061	-51.8036880493	86.2654495239	7.34076118469	-14.9043655396	-5.24155759811
28.6494293213	-51.6289596558	85.5358963013	9.10263156891	-18.8485393524	-5.84999465942
30.010559082	-50.2771949768	78.5012054443	9.67912387848	-23.0046653748	-6.37913799286
38.1212921143	-49.186088562	70.126373291	11.6817932129	-24.6928863525	-7.45357370377
44.5176277161	-42.9485015869	60.8596954346	14.4695672989	-22.9445018768	-8.84902763367
41.3401107788	-38.1600112915	58.4868965149	15.0080766678	-18.6945610046	-8.71854019165
32.0506057739	-39.1115646362	62.3905677795	13.9844532013	-16.430015564	-7.88757371902
20.7983074188	-47.2949790955	73.3863296509	12.1605186462	-14.7139196396	-7.02605438232
13.9192428589	-53.753692627	83.7885742188	9.97451210022	-15.0948867798	-6.0395450592
8.74523639679	-58.4132843018	94.6123428345	9.29091930389	-19.061296463	-5.69826126099
9.11471557617	-60.3975524902	96.9289932251	9.56631660461	-20.7067985535	-6.01107692719
8.79200649261	-63.4114189148	101.432662964	10.4278745651	-19.9781208038	-6.36860084534
6.69929885864	-67.9730377197	101.823112488	11.6016283035	-19.2028141022	-6.52546596527
-15.8937482834	-72.4479904175	129.848052979	11.611536026	-19.101606369	-6.52055692673
-14.0685625076	-76.9771957397	134.971710205	11.2505044937	-18.6617507935	-6.15477323532
9.69659805298	-73.4639587402	105.50353241	11.1297893524	-18.1211910248	-5.94532251358
