-78.6455154419	-39.6148452759	136.001968384	5.08003997803	1.10204637051	-2.39640498161
-78.6494369507	-39.3597564697	136.220184326	4.99113941193	0.955085873604	-2.31180977821
-78.7571792603	-39.1741142273	136.397384644	4.72183179855	0.774496197701	-2.3186879158
-79.9139633179	-38.2052726746	137.405944824	1.25826585293	0.800507187843	-1.68625223637
-81.5824661255	-37.5471534729	138.359588623	-8.50322914124	0.696835577488	-0.58109164238
-82.2220993042	-38.7419815063	138.281311035	-16.3780136108	0.861627042294	0.823013961315
-90.2660751343	-40.7664985657	144.346969604	-20.151014328	0.852618396282	1.67606890202
-104.778839111	-41.961517334	156.295913696	-20.8152122498	0.608542382717	2.11440134048
-96.608795166	-46.6768722534	142.208206177	-20.415014267	0.68613833189	2.1191983223
-36.6760673523	-22.953163147	65.6363067627	-20.3158397675	0.987317085266	2.05358624458
-47.7282218933	-20.5283813477	84.4164276123	-20.520362854	0.785848259926	2.43621039391
-43.8744735718	-31.4589996338	84.250869751	-20.3279323578	1.22682368755	2.22633600235
-57.0073509216	-38.5472984314	104.860664368	-20.079668045	1.37518846989	2.04245877266
-76.7194900513	-42.3974189758	121.626869202	-20.6847381592	1.06031537056	2.44311738014
-87.5421295166	-40.582572937	131.058731079	-22.5726566315	0.624852120876	2.81697058678
-94.5938491821	-39.2022323608	138.736679077	-25.7064666748	0.0470577776432	3.30197501183
-98.6708068848	-39.0760231018	143.728546143	-27.3034057617	0.247613757849	3.42788934708
-94.2976303101	-43.1938400269	135.489196777	-26.9429588318	0.646320581436	3.53243803978
-50.8029632568	-41.1150779724	71.5648269653	-26.167388916	0.927547812462	3.26726841927
-53.7499694824	-37.9333457947	72.5012130737	-25.2391643524	1.05080282688	3.31447267532
-47.2008628845	-37.3269882202	71.1799240112	-23.8859100342	1.49892616272	3.214376688
