0.175953388214	1.18207168579	0.101699471474	-0.137427330017	1.47996222973	-0.166992783546
0.175287008286	1.18178403378	0.101120829582	-0.137578725815	1.48040544987	-0.168109536171
0.173466920853	1.18167674541	0.101040124893	-0.138256549835	1.48074114323	-0.168992996216
0.161965370178	1.18121027946	0.101304411888	-0.142654418945	1.48096549511	-0.170444011688
0.149163961411	1.1842700243	0.101011276245	-0.151645183563	1.48170542717	-0.172197341919
0.135071754456	1.18627047539	0.102784872055	-0.163966178894	1.48336696625	-0.177043914795
0.112338781357	1.18482100964	0.0987212657928	-0.173793792725	1.48404169083	-0.183265686035
0.108911991119	1.18091094494	0.106903195381	-0.179824352264	1.48434591293	-0.188046216965
0.12139749527	1.16531801224	0.127992749214	-0.181439161301	1.48346507549	-0.189836502075
0.133289337158	1.16890907288	0.129029512405	-0.180096149445	1.48215091228	-0.188245177269
0.136905908585	1.166061759	0.128948926926	-0.178448677063	1.4811578989	-0.187094330788
