-63.2356338501	-42.6991615295	139.192337036	5.57883262634	1.82975530624	-2.79202675819
-63.4155693054	-42.6883049011	139.138259888	5.58136987686	2.04138445854	-2.75242757797
-64.104888916	-42.8105735779	139.547210693	5.50522422791	2.23477268219	-2.6411716938
-65.4810943604	-42.5553359985	139.642868042	4.63408374786	0.408852338791	-2.55374765396
-66.3758163452	-42.7943534851	138.527420044	2.75348186493	-1.74424672127	-2.36887073517
-70.4401626587	-42.7249565125	135.869094849	0.794122934341	-2.67173361778	-1.89009511471
-67.1641082764	-48.5300216675	110.135292053	-0.193057239056	-2.56172561646	-1.61977577209
-42.582649231	-56.3378257751	66.2568740845	-0.0328039973974	-2.40931940079	-1.52255451679
-37.9627876282	-56.3344154358	51.8324050903	-0.351030051708	-1.80280792713	-1.19174087048
-56.5704689026	-52.7664031982	75.340423584	-0.96710562706	-1.45934021473	-0.64989566803
-65.7159500122	-52.6354522705	85.7250137329	-1.90188932419	-1.30586457253	-0.117422275245
-75.0723114014	-54.6563911438	106.893386841	-2.12836170197	-1.21427547932	0.220156818628
-77.1061782837	-53.7241134644	115.296867371	-1.63719725609	-0.9521073699	0.288942962885
-71.4398498535	-54.3527297974	108.230453491	-1.25980496407	-0.671405732632	0.168911367655
