-9.35811328888	-64.5753936768	136.761581421	3.26751232147	-0.0912001058459	-2.5187664032
-9.65756320953	-64.3840713501	136.94090271	3.22506093979	-0.287389457226	-2.5658853054
-10.3408985138	-64.3343658447	137.068344116	2.72414207458	-0.540931642056	-2.65829944611
-18.1156520844	-62.6027565002	141.382507324	-0.368557482958	-0.807689368725	-2.41144275665
-23.8382587433	-62.6629104614	143.140777588	-6.60611581802	-1.29166269302	-1.55085587502
-29.1286582947	-62.5017089844	141.554046631	-15.2626428604	-2.48078656197	-0.335913181305
-34.6179351807	-61.9159812927	120.13004303	-22.3572444916	-3.04217267036	0.999306797981
-13.6825647354	-54.9870758057	85.6539840698	-26.6133003235	-3.39000630379	1.93170666695
-4.38874673843	-45.6267814636	93.6249923706	-27.3893642426	-2.95166563988	2.03441381454
7.50652980804	-43.2423248291	81.6117630005	-26.204252243	-2.10810947418	2.20486140251
4.84714460373	-40.4667472839	88.4423980713	-25.4023742676	-1.37919151783	1.77722406387
