0.0	-0.0	130.530426025	-120.603782654	83.4763031006	175.327072144
0.0	-0.0	130.255569458	-120.452110291	83.6164169312	175.265045166
0.0	-0.0	130.463485718	-120.564247131	83.4655990601	175.442306519
0.0	-0.0	130.424804688	-121.928016663	81.8650436401	176.32321167
0.0	-0.0	129.448028564	-127.449317932	74.6650924683	179.708404541
0.0	-0.0	128.891082764	-135.797821045	59.3661155701	-176.550689697
0.0	-0.0	128.194274902	-143.523178101	43.6335258484	-175.178588867
0.0	-0.0	127.624038696	-148.140350342	33.9365272522	-175.045257568
0.0	-0.0	127.034332275	-150.39755249	29.1933288574	-173.748443604
0.0	-0.0	128.144088745	-152.025680542	26.9099845886	-172.2996521
0.0	-0.0	109.267425537	-152.906219482	24.9623012543	-171.281570435
0.0	-0.0	54.8209762573	-154.054000854	22.0070037842	-170.461730957
0.0	-0.0	52.462978363	-156.032302856	20.600528717	-169.575912476
