0.120491743088	1.12141275406	0.105447530746	-0.13362622261	1.47705984116	-0.149110913277
0.120845079422	1.12095439434	0.10581278801	-0.132793903351	1.47702467442	-0.148827433586
0.119988679886	1.12093508244	0.105927705765	-0.132323980331	1.47710633278	-0.148840069771
0.110432386398	1.12033927441	0.10559463501	-0.133830308914	1.47658884525	-0.148146748543
0.096348285675	1.11990046501	0.104360818863	-0.140476465225	1.47602212429	-0.147677779198
0.0825271606445	1.11858010292	0.104723453522	-0.153137922287	1.47610044479	-0.150150775909
0.0718824863434	1.11729741096	0.106527328491	-0.165261507034	1.47582435608	-0.154538154602
0.0643379688263	1.11619758606	0.107622742653	-0.174140691757	1.47599756718	-0.158627033234
0.0598058700562	1.11300837994	0.107741713524	-0.182010173798	1.47686445713	-0.162889957428
0.0706045627594	1.09709584713	0.127284407616	-0.186038970947	1.47663640976	-0.165014386177
0.0924472808838	1.0895357132	0.139341592789	-0.184883356094	1.47541761398	-0.16243326664
0.09263920784	1.10056972504	0.133539319038	-0.181792020798	1.47455132008	-0.158759951591
0.095151424408	1.10133302212	0.13301551342	-0.179291725159	1.47408890724	-0.156602144241
