0.0	-0.0	138.931259155	57.041179657	88.1332626343	-6.41158437729
0.0	-0.0	138.895172119	56.9561004639	87.8191833496	-6.59348487854
0.0	-0.0	138.686035156	56.5218086243	87.2043151855	-6.41366291046
0.0	-0.0	139.056991577	55.5439109802	86.3768005371	-6.20778131485
0.0	-0.0	132.566848755	52.9944076538	87.2711715698	-5.25194644928
0.0	-0.0	111.957275391	-133.680877686	86.827796936	177.811126709
0.0	-0.0	89.4295196533	-140.823806763	84.0651626587	-179.8775177
