-5.20478820801	-1.25147640705	-14.7802753448	17.5953044891	11.0683832169	35.152217865
-5.47164773941	-1.33296859264	-14.6491365433	17.1595630646	11.0088615417	35.1561088562
-5.90646505356	-1.31518948078	-14.6136140823	16.12134552	11.1102104187	34.761631012
-6.08395814896	-1.43018817902	-14.7558288574	14.1626110077	11.8868074417	34.2319259644
-6.79101800919	-1.34431624413	-14.5776529312	11.4471168518	14.9263286591	32.4550323486
-7.29294919968	-1.48649549484	-14.3804626465	8.28691673279	19.4260749817	29.295501709
-8.23872661591	-1.4493253231	-14.1787881851	5.00736951828	23.7218475342	26.3391571045
-8.93007850647	-1.09410738945	-14.0646495819	1.49245035648	27.4444026947	22.642698288
-10.963804245	0.37533518672	-14.0473966599	-1.77930319309	30.8519439697	17.8458251953
-11.9307556152	1.36842775345	-15.3386764526	-4.4543223381	33.37915802	12.6959171295
-13.7890481949	4.61908626556	-18.6359214783	-4.75973558426	33.7303161621	10.4745454788
-15.3468914032	8.60072422028	-25.3228683472	-3.71990251541	33.615234375	9.64821147919
-17.0780773163	11.1443300247	-26.6641426086	-3.38768744469	34.0763206482	8.89936256409
-17.4952812195	10.940659523	-26.1683368683	-4.0643863678	34.4635848999	8.14171886444
-15.986574173	9.94246482849	-20.1392116547	-4.24419975281	34.267993927	8.22011852264
-18.1931724548	10.2334861755	-3.78413629532	-3.87663555145	34.0141105652	8.64734268188
-18.4828205109	10.6553907394	0.536971092224	-4.15507984161	33.9393768311	8.6898651123
-18.8668212891	12.3903551102	0.207292065024	-4.65514183044	34.1260948181	8.59677505493
-20.5042324066	14.8958778381	-0.450500279665	-5.11087846756	34.3408164978	8.49863624573
-21.6990261078	17.1854476929	-1.29859662056	-5.75547027588	34.4846420288	8.48052597046
-22.2455158234	18.4105262756	0.40878918767	-6.29086685181	35.0995178223	8.63880443573
-22.852519989	19.4410610199	0.760415136814	-6.57809591293	36.206161499	9.3824005127
-22.383852005	19.3425483704	0.578231692314	-6.07000875473	37.3859367371	10.5424470901
-22.2347831726	19.0444850922	-0.362027049065	-5.247153759	38.1650352478	11.399600029
-22.0653266907	19.3384284973	-0.957341551781	-4.90126228333	38.6596984863	11.9006538391
-21.511516571	19.4993038177	-1.9842634201	-5.32394647598	39.7599563599	12.0986375809
-21.6595516205	19.5392379761	-1.99781966209	-5.59245157242	39.8859825134	12.396282196
-21.4726924896	18.7747344971	-0.27785012126	-5.12308692932	39.312122345	14.4356250763
-21.3861293793	18.5240116119	1.11015808582	-5.44935035706	39.2327728271	15.1390361786
-20.8513240814	18.8105239868	2.4583363533	-5.40154361725	39.3427581787	15.2063016891
-20.7202205658	19.7690181732	0.635684192181	-4.93507385254	39.4974708557	14.8161439896
-20.6834697723	21.3676376343	-1.58263766766	-4.37211894989	39.6787986755	13.8839092255
-20.9244441986	21.8976802826	-2.56558203697	-4.57374382019	40.1568222046	13.8178043365
-21.1844940186	23.287979126	-3.66268134117	-5.34042882919	40.4710769653	13.785946846
-21.0860824585	23.8920669556	-3.88853883743	-5.76206350327	40.4096603394	13.84304142
-21.3878002167	24.8427200317	-4.61940193176	-5.84128189087	40.388004303	14.1175642014
-21.4069061279	25.4573154449	-4.82612943649	-6.0360250473	40.3669624329	14.4130535126
-21.3669567108	25.2119522095	-4.34777593613	-6.53205394745	40.2159614563	14.4514436722
-21.1733798981	24.344329834	-2.36688733101	-6.99629211426	39.9314002991	14.6297121048
-20.9582424164	24.4094486237	-0.681115567684	-7.19445037842	39.8279685974	14.7736988068
-21.0730495453	25.222366333	-0.184825032949	-7.17005634308	39.9004631042	14.9832410812
-21.2360954285	25.8549766541	-0.0917429476976	-7.14525175095	39.9412269592	15.0954589844
-21.8076477051	26.6091423035	-0.771250963211	-7.22335004807	39.9810180664	15.2209863663
-21.9139842987	27.6429767609	-1.23695194721	-7.46195840836	39.9724617004	15.2444524765
-22.1809310913	28.4053192139	-2.17755293846	-7.54999923706	39.894569397	15.2706356049
