-0.073668718338	1.2017802	0.184248209	-0.265646696091	1.4937466383	-0.129221200943
-0.074357509613	1.20140779018	0.185135602951	-0.265959262848	1.49382686615	-0.128771424294
-0.0752627849579	1.20102775097	0.184943437576	-0.266459703445	1.49382770061	-0.12838602066
-0.0769383907318	1.20049273968	0.184895038605	-0.266603469849	1.49194061756	-0.127070188522
-0.0780408382416	1.19605875015	0.192828297615	-0.266651153564	1.48468708992	-0.122802376747
-0.0802063941956	1.18518257141	0.199616193771	-0.267218589783	1.47255802155	-0.117470502853
-0.080078125	1.18520915508	0.194746375084	-0.267742395401	1.46187520027	-0.111629128456
-0.0790140628815	1.18692672253	0.193451523781	-0.266921043396	1.45039343834	-0.106144189835
-0.0778501033783	1.18701350689	0.19162094593	-0.264881134033	1.44009685516	-0.101580262184
-0.0764865875244	1.18375694752	0.191083192825	-0.262846231461	1.43740618229	-0.0981566905975
-0.0740737915039	1.18247067928	0.190493106842	-0.260616064072	1.43937015533	-0.0957291126251
-0.0739147663116	1.18208527565	0.191284418106	-0.256531000137	1.43990015984	-0.0949293375015
-0.0783507823944	1.17490446568	0.195637106895	-0.251443624496	1.43725931644	-0.0953763723373
-0.0839784145355	1.16869628429	0.197403907776	-0.248214960098	1.43581080437	-0.0951961278915
-0.0845530033112	1.17510008812	0.194719076157	-0.246275663376	1.43516981602	-0.0940078496933
-0.086962223053	1.18447518349	0.183042407036	-0.246280670166	1.43417787552	-0.0923838615417
-0.0903103351593	1.19009184837	0.166630148888	-0.248202800751	1.43355214596	-0.0905873775482
-0.0927193164825	1.17345261574	0.176491856575	-0.25004196167	1.43255937099	-0.0895609855652
-0.0839302539825	1.1355175972	0.199242591858	-0.250693798065	1.43063020706	-0.0891528129578
-0.085312128067	1.12790799141	0.195667743683	-0.250692605972	1.43026781082	-0.0869076251984
-0.0794675350189	1.14043354988	0.195321202278	-0.249899864197	1.43057513237	-0.0855934619904
-0.0746581554413	1.15794360638	0.192308545113	-0.247833251953	1.43253040314	-0.0858502388
-0.0730743408203	1.1638623476	0.193789720535	-0.244427919388	1.43227827549	-0.087917804718
-0.0733153820038	1.16049039364	0.194756269455	-0.241236925125	1.42862308025	-0.090175151825
-0.075434923172	1.16703176498	0.186450481415	-0.239002943039	1.42603552341	-0.0902516841888
-0.074481010437	1.17020356655	0.183966040611	-0.236682415009	1.42624080181	-0.0898842811584
-0.0757827758789	1.16685438156	0.185271382332	-0.235509157181	1.42755949497	-0.089991569519
-0.0789680480957	1.16053080559	0.187783837318	-0.236090183258	1.4294257164	-0.0904169082642
-0.0822532176971	1.15907597542	0.18745803833	-0.237969636917	1.4306448698	-0.0910935401917
-0.084183216095	1.15747725964	0.188438415527	-0.239902734756	1.42849910259	-0.0917056798935
-0.0874943733215	1.15490877628	0.188440322876	-0.240581035614	1.42467045784	-0.0920948982239
-0.0866739749908	1.15674710274	0.188296318054	-0.239264726639	1.42355906963	-0.0913746356964
-0.0860257148743	1.15973389149	0.188652157784	-0.237218856812	1.42434978485	-0.0897444486618
