-14.1148033142	-56.2827415466	130.733291626	2.67541384697	-0.317816406488	-3.85179781914
-14.1321125031	-56.2246284485	130.641693115	2.66862630844	-0.521613359451	-3.87296843529
-13.7531785965	-56.3112182617	130.288513184	2.56695151329	-0.620212137699	-3.81593322754
-14.1423788071	-56.1298027039	130.645523071	2.61342453957	-0.937142074108	-3.80852460861
-9.03934860229	-57.2910728455	122.904273987	4.45729255676	-0.413413405418	-4.43207836151
15.2680597305	-56.0606460571	94.3020401001	8.32421398163	0.404038608074	-5.71893453598
