9.42975521088	-62.5309066772	130.695251465	4.03508710861	0.418133080006	-1.65145373344
9.69355964661	-62.4774703979	130.260681152	3.93767046928	0.383527517319	-1.63558137417
9.39503765106	-62.2200164795	130.185791016	3.90878748894	0.207309439778	-1.62771499157
7.20997953415	-57.9211196899	120.331443787	3.75731396675	0.0574582368135	-1.60136985779
10.6950941086	-50.502746582	99.2178039551	3.30472350121	-0.256891697645	-1.53219437599
5.49486684799	-48.5072937012	96.7391052246	2.33225274086	-1.39983808994	-1.37982869148
7.60742950439	-45.3582839966	88.7656173706	0.780569255352	-3.71781253815	-1.05519676208
8.00667285919	-43.8682518005	84.6495666504	-0.759503364563	-3.84593391418	-0.692708194256
9.77580738068	-41.7630996704	81.8146896362	-1.17281746864	-2.65117526054	-0.559876739979
9.46441841125	-33.5640907288	78.1288452148	-0.692311048508	-1.05233287811	-0.454144358635
5.63770866394	-32.6860847473	81.5817565918	-0.624090194702	-0.323917478323	-0.472472161055
