-0.0706593990326	1.1762444973	0.152344465256	-0.273985385895	1.49022197723	-0.109646916389
-0.0710186958313	1.17595827579	0.153140425682	-0.27404999733	1.49002552032	-0.109296441078
-0.0719954967499	1.17562234402	0.153623223305	-0.274231433868	1.49026465416	-0.108706355095
-0.0759909152985	1.17534601688	0.152335882187	-0.276047229767	1.49050080776	-0.107411146164
-0.0828452110291	1.17139399052	0.147371649742	-0.280340671539	1.48916816711	-0.106105327606
-0.0877330303192	1.17036855221	0.146214604378	-0.282947540283	1.48876392841	-0.104937911034
-0.0851066112518	1.17881047726	0.155168771744	-0.283132553101	1.48892581463	-0.104575634003
-0.0819628238678	1.18914031982	0.158774614334	-0.283766031265	1.48880946636	-0.103984832764
-0.0835738182068	1.19480216503	0.154151916504	-0.28536939621	1.4888548851	-0.10315489769
-0.0937459468842	1.18588650227	0.147970795631	-0.286653995514	1.48875033855	-0.103023290634
-0.101818323135	1.17272877693	0.144164800644	-0.287710189819	1.49122595787	-0.103930234909
-0.102300643921	1.16342902184	0.149496912956	-0.287777423859	1.49259114265	-0.105947494507
-0.0974433422089	1.16283619404	0.157985448837	-0.28722858429	1.4934104681	-0.107177257538
-0.0952324867249	1.16615259647	0.160648107529	-0.288376092911	1.4936119318	-0.106763601303
-0.0925030708313	1.18182075024	0.157429695129	-0.29191327095	1.49281001091	-0.104247570038
