0.0	-0.0	132.187973022	-114.52179718	84.8260040283	176.522796631
0.0	-0.0	131.836349487	-114.688430786	84.998878479	176.613342285
0.0	-0.0	132.0965271	-114.098373413	85.1020889282	176.745788574
0.0	-0.0	132.047225952	-106.709320068	85.1979446411	176.505310059
0.0	-0.0	130.897705078	-94.8753662109	84.6986923218	174.047790527
