0.0	-0.0	139.757476807	28.6102142334	79.8883590698	-39.0754966736
0.0	-0.0	139.713180542	28.1967105865	80.3076095581	-39.336681366
0.0	-0.0	139.305175781	27.6123371124	80.623550415	-38.8766937256
0.0	-0.0	137.905548096	26.6149845123	79.891204834	-37.039730072
0.0	-0.0	134.060119629	24.5526103973	75.7486724854	-33.8485984802
0.0	-0.0	128.281066895	23.067237854	71.2862091064	-31.7216529846
0.0	-0.0	120.518371582	20.0257282257	66.2088241577	-28.6710262299
0.0	-0.0	110.247520447	16.0810642242	61.1357460022	-24.5257530212
0.0	-0.0	100.946144104	12.9054985046	56.6574172974	-22.7570667267
0.0	-0.0	94.9631347656	8.2652759552	52.2667503357	-19.1547832489
0.0	-0.0	90.0167312622	3.83090281487	47.8361778259	-17.5742282867
0.0	-0.0	85.3926239014	-0.00464256573468	44.9571914673	-19.220708847
0.0	-0.0	82.8495864868	-3.81408619881	43.8737602234	-23.5459442139
0.0	-0.0	82.3095855713	-7.5285243988	42.5591545105	-27.4721374512
0.0	-0.0	81.6136932373	-13.6540374756	39.0883178711	-25.5448379517
0.0	-0.0	81.5141448975	-19.1719112396	36.3561820984	-18.7348022461
0.0	-0.0	81.7330474854	-17.1074848175	32.715133667	-19.097618103
0.0	-0.0	81.6629562378	-11.9734382629	33.1107063293	-19.0784053802
0.0	-0.0	81.7198257446	-7.67693424225	33.6295623779	-19.8899440765
0.0	-0.0	82.2282943726	-9.55941104889	33.9397544861	-18.8716259003
0.0	-0.0	82.5269012451	-13.5473937988	31.1897621155	-15.1434049606
0.0	-0.0	82.3804855347	-11.4376535416	27.8846187592	-15.6226243973
0.0	-0.0	82.4239959717	-8.36190700531	25.8805675507	-16.2105445862
0.0	-0.0	82.5327987671	-6.95371770859	24.7075424194	-17.3840198517
0.0	-0.0	82.3560943604	-5.3763051033	25.8067035675	-18.6831760406
