-0.0422341823578	1.12598383427	0.191309213638	-0.277286529541	1.48943078518	-0.105923891068
-0.0434272289276	1.12606859207	0.19100856781	-0.277449846268	1.48958742619	-0.10594189167
-0.044370174408	1.12654149532	0.190801620483	-0.277519226074	1.48916399479	-0.10600066185
-0.047429561615	1.12718641758	0.190266728401	-0.276882648468	1.48437380791	-0.104278564453
-0.0501153469086	1.12739658356	0.190925359726	-0.277406215668	1.47711694241	-0.101713895798
-0.050920009613	1.12665128708	0.191480517387	-0.277860641479	1.47185921669	-0.0992516279221
-0.0496807098389	1.12838709354	0.192270040512	-0.277471542358	1.46672129631	-0.0969260931015
-0.0489859580994	1.13012874126	0.195226311684	-0.27574968338	1.45948934555	-0.0953629016876
-0.0482091903687	1.13045918941	0.19876241684	-0.273594617844	1.45269012451	-0.094699382782
-0.0455572605133	1.128002882	0.202657341957	-0.271594285965	1.44768798351	-0.0942485332489
-0.042414188385	1.12118661404	0.206745147705	-0.269255876541	1.44411456585	-0.0938756465912
-0.0352432727814	1.10454392433	0.2113468647	-0.267611980438	1.44239425659	-0.0936205387115
-0.0358562469482	1.0964114666	0.208451271057	-0.266949176788	1.44226372242	-0.0927267074585
-0.0314960479736	1.09775793552	0.207669258118	-0.267620801926	1.4429268837	-0.091845035553
-0.029942035675	1.10095822811	0.208593130112	-0.267280101776	1.44365644455	-0.0922590494156
-0.0284171104431	1.10922133923	0.208164334297	-0.266111850739	1.44369697571	-0.0930824279785
-0.0285539627075	1.11994957924	0.20667219162	-0.264840126038	1.44389748573	-0.0935723781586
-0.0299696922302	1.12436711788	0.205512881279	-0.263219833374	1.44483160973	-0.0936222076416
-0.0310373306274	1.1211630106	0.206001996994	-0.261966466904	1.44375145435	-0.0936505794525
-0.0296590328217	1.11606776714	0.20726442337	-0.260959863663	1.44007873535	-0.0934551954269
-0.029935836792	1.1087846756	0.207879543304	-0.259412050247	1.43498170376	-0.0937718153
-0.0331864356995	1.10811138153	0.205981731415	-0.2583963871	1.43542695045	-0.0928311347961
-0.0349578857422	1.10768711567	0.205590844154	-0.258168458939	1.43968844414	-0.0918416976929
-0.0354466438293	1.10690844059	0.207216858864	-0.25560760498	1.44569540024	-0.0917747020721
-0.0380737781525	1.10842776299	0.208026647568	-0.254013061523	1.45592868328	-0.0908660888672
-0.0398871898651	1.10720551014	0.20895421505	-0.255943775177	1.46235692501	-0.0904204845428
-0.0419654846191	1.10371851921	0.209271669388	-0.260086536407	1.46181237698	-0.0900526046753
-0.0426471233368	1.10001564026	0.210656881332	-0.264184713364	1.46057224274	-0.0892370939255
-0.0439803600311	1.09623789787	0.210948348045	-0.266761064529	1.46023213863	-0.0889463424683
-0.0473644733429	1.09510195255	0.209393024445	-0.268786430359	1.45970726013	-0.0882277488708
-0.0541651248932	1.09983038902	0.205306649208	-0.271889209747	1.46009969711	-0.0867033004761
-0.0554623603821	1.10431015491	0.205495238304	-0.275682687759	1.4601174593	-0.08518409729
-0.054651260376	1.11164140701	0.205323934555	-0.280012130737	1.45912647247	-0.0841193199158
-0.0537765026093	1.12213861942	0.204112529755	-0.284337997437	1.45789527893	-0.0836589336395
-0.0526261329651	1.12857031822	0.203733205795	-0.285361051559	1.45786774158	-0.0829528570175
-0.0517585277557	1.13024353981	0.204947590828	-0.284188270569	1.4580180645	-0.0821783542633
-0.0537860393524	1.12717807293	0.203675985336	-0.28250336647	1.4573854208	-0.0819447040558
-0.0558409690857	1.12243318558	0.202300071716	-0.281639575958	1.45678913593	-0.0817697048187
-0.0539736747742	1.12115633488	0.202810525894	-0.281113147736	1.4561445713	-0.0817531347275
-0.053555727005	1.1201736927	0.202953338623	-0.280589342117	1.45533549786	-0.0821613073349
-0.0532736778259	1.11818552017	0.204490661621	-0.278071880341	1.45459938049	-0.0831906795502
-0.0535213947296	1.1177611351	0.204704999924	-0.274720430374	1.45359551907	-0.0838060379028
-0.0537643432617	1.11789882183	0.20428442955	-0.273077487946	1.4531263113	-0.0835654735565
-0.0531158447266	1.11700892448	0.203617215157	-0.273272752762	1.45308673382	-0.0834114551544
-0.0518481731415	1.11634647846	0.203546524048	-0.274265050888	1.45287644863	-0.0836126804352
-0.0519490242004	1.11580872536	0.203328967094	-0.268823862076	1.45308256149	-0.084482550621
-0.0536975860596	1.11532461643	0.203450679779	-0.256757736206	1.453769207	-0.0866088867188
-0.0550162792206	1.1164702177	0.202471971512	-0.247724294662	1.45420897007	-0.0887517929077
-0.0538818836212	1.1169604063	0.201257228851	-0.244405031204	1.45377862453	-0.0895962715149
-0.0495753288269	1.11589419842	0.200225710869	-0.246833324432	1.45324647427	-0.0886137485504
-0.0476994514465	1.11420106888	0.199098825455	-0.253791809082	1.45242536068	-0.0872673988342
-0.0471067428589	1.11366760731	0.19854092598	-0.260812759399	1.4511166811	-0.0872193574905
-0.0478141307831	1.11370551586	0.198632121086	-0.266893386841	1.44933712482	-0.0875812768936
-0.0503795146942	1.11300230026	0.198199033737	-0.273035287857	1.44827151299	-0.0879118442535
-0.052431344986	1.11191904545	0.197927951813	-0.278681278229	1.44741547108	-0.0882096290588
-0.0543756484985	1.11055779457	0.197038412094	-0.281990289688	1.4466714859	-0.0886663198471
-0.055029630661	1.11035859585	0.196408867836	-0.282824754715	1.44735074043	-0.088454246521
-0.0543713569641	1.11047267914	0.195448279381	-0.283180475235	1.45127093792	-0.087980389595
-0.0544970035553	1.10863685608	0.194988012314	-0.282962799072	1.4533894062	-0.0894169807434
-0.0541849136353	1.11002910137	0.194388866425	-0.283822059631	1.45307230949	-0.0907547473907
-0.0539000034332	1.11175942421	0.193676948547	-0.284432888031	1.45370566845	-0.0916397571564
-0.0507967472076	1.11733031273	0.192476987839	-0.283724069595	1.45602214336	-0.0916684865952
-0.0495667457581	1.1208729744	0.192404508591	-0.283189296722	1.4564653635	-0.0919055938721
-0.0489802360535	1.12322127819	0.193850874901	-0.282723426819	1.45513296127	-0.0920355319977
-0.0499436855316	1.12503314018	0.193255782127	-0.28210401535	1.45508730412	-0.0920757055283
-0.0491960048676	1.12523257732	0.193292617798	-0.281500101089	1.45669460297	-0.0918805599213
-0.0501523017883	1.12313103676	0.193620204926	-0.280806064606	1.45733261108	-0.0915606021881
-0.052273273468	1.12175059319	0.193334341049	-0.280661344528	1.45637047291	-0.0909085273743
-0.0527274608612	1.11770904064	0.196434378624	-0.280632972717	1.45604753494	-0.0899788141251
