-17.6051540375	-65.1089553833	138.866043091	4.00539922714	-0.639935076237	-2.1518061161
-17.7946853638	-65.0508499146	138.855636597	3.98112392426	-0.741607129574	-2.19768953323
-18.1161270142	-65.0959396362	138.705383301	3.81396269798	-0.955778539181	-2.12729716301
-22.0451755524	-64.5553283691	139.217971802	3.46120500565	-1.23008620739	-2.06185412407
-23.5228691101	-62.6745452881	130.199127197	2.49116039276	-0.775305569172	-1.67172670364
-23.071598053	-59.847240448	111.739425659	0.146632388234	1.20967781544	-0.661221981049
-17.0871620178	-54.4724311829	84.236076355	-2.15256667137	2.03645086288	0.107812009752
