0.165637493134	1.13045597076	0.103317379951	-0.137528657913	1.47794854641	-0.156417608261
0.166550636292	1.12951600552	0.102639198303	-0.136790990829	1.47781586647	-0.156038284302
0.164962291718	1.12920093536	0.10301220417	-0.136153936386	1.47797751427	-0.155880689621
0.162792205811	1.12942159176	0.10410118103	-0.136338233948	1.47843956947	-0.155969262123
0.155488014221	1.13046693802	0.106283307076	-0.139445304871	1.47922134399	-0.155838489532
0.127132415771	1.13207292557	0.11333668232	-0.147189855576	1.47970032692	-0.156448364258
0.0886611938477	1.13199090958	0.118480920792	-0.154876232147	1.47966110706	-0.157513141632
0.0581912994385	1.12871587276	0.117559909821	-0.161235809326	1.48001658916	-0.158582448959
0.0441379547119	1.12455272675	0.119056224823	-0.167895555496	1.47969043255	-0.159334659576
0.0375187397003	1.10208940506	0.128998041153	-0.174535751343	1.47841870785	-0.160759568214
0.0302562713623	1.08535015583	0.129243016243	-0.180388689041	1.47843110561	-0.162122488022
0.0370552539825	1.07957911491	0.135633707047	-0.184482574463	1.47845602036	-0.162853956223
0.0482530593872	1.07301032543	0.140686035156	-0.186000585556	1.47853732109	-0.162443399429
0.059070110321	1.06564891338	0.145500659943	-0.186729669571	1.47811937332	-0.162248373032
0.0565447807312	1.07521283627	0.14088344574	-0.188013792038	1.4780703783	-0.162920713425
