0.0944454669952	1.0370221138	0.0727605819702	-0.142195701599	1.47858929634	-0.164935231209
0.0950121879578	1.03770971298	0.0727742910385	-0.142894983292	1.47859501839	-0.165804028511
0.0956890583038	1.03792357445	0.0729739665985	-0.143567562103	1.47902107239	-0.166458368301
0.0956265926361	1.0378704071	0.0731751918793	-0.143830537796	1.47887372971	-0.16694021225
0.0985021591187	1.03607296944	0.075142621994	-0.142579078674	1.4766907692	-0.166696071625
0.104314565659	1.02421832085	0.0846101045609	-0.140266895294	1.47319197655	-0.165580511093
0.102079868317	1.01127004623	0.0883877277374	-0.139605998993	1.4687025547	-0.163950681686
0.102094173431	1.00347042084	0.0869889259338	-0.139073371887	1.46434056759	-0.161268234253
0.103960990906	0.996752500534	0.0863906145096	-0.136895179749	1.45738148689	-0.159208536148
0.10703420639	0.989441156387	0.0871345996857	-0.133435964584	1.45190250874	-0.157613754272
0.107861042023	0.987118721008	0.0879690647125	-0.130844831467	1.44899320602	-0.156208992004
0.11257815361	0.982362508774	0.088522195816	-0.12806725502	1.44666433334	-0.155815839767
0.116905927658	0.977038383484	0.0899174213409	-0.125895500183	1.44472229481	-0.155760526657
0.120784282684	0.967513084412	0.0925906896591	-0.124728679657	1.44333481789	-0.155577898026
0.127048969269	0.95032954216	0.0970568656921	-0.123962163925	1.44234728813	-0.154737949371
0.132750988007	0.925194740295	0.0986369848251	-0.123288869858	1.44113326073	-0.15402841568
0.136256694794	0.919545650482	0.0948091745377	-0.122994661331	1.44056582451	-0.152624607086
0.137101173401	0.917752504349	0.0910973548889	-0.122158527374	1.43946015835	-0.151522159576
0.144846439362	0.920167922974	0.0852406024933	-0.121217489243	1.43887269497	-0.151111602783
0.15212893486	0.928112506866	0.0778359174728	-0.120862483978	1.43893587589	-0.150612354279
0.15620803833	0.937748193741	0.0676766633987	-0.120726585388	1.43877398968	-0.149677038193
0.156368017197	0.939629793167	0.0640544891357	-0.120988368988	1.43832778931	-0.149223804474
0.152599334717	0.942064762115	0.0675579309464	-0.12203669548	1.43847703934	-0.148496508598
0.149113178253	0.945245027542	0.0729031562805	-0.122916460037	1.43864262104	-0.147687196732
0.133450508118	0.940445184708	0.0916947126389	-0.123845815659	1.43870830536	-0.146951556206
0.110334873199	0.941416740417	0.102975606918	-0.125094652176	1.43870437145	-0.146335601807
0.10200381279	0.943103075027	0.104563713074	-0.126333713531	1.4386626482	-0.1455296278
0.0876662731171	0.949873685837	0.103434205055	-0.127025604248	1.43877494335	-0.144600152969
0.0773253440857	0.958276033401	0.0983231067657	-0.12727856636	1.43901181221	-0.143793821335
0.0703568458557	0.96704864502	0.0935620069504	-0.127025127411	1.43907940388	-0.143161416054
0.066061258316	0.974768161774	0.0884448289871	-0.126460075378	1.44002509117	-0.142236828804
