0.0	-0.0	136.056182861	-119.75365448	86.6523208618	172.770248413
0.0	-0.0	136.226425171	-120.027236938	87.0835800171	173.092666626
0.0	-0.0	136.282546997	-120.572944641	87.6496047974	173.046005249
0.0	-0.0	137.107147217	-129.121902466	87.5985641479	174.566772461
0.0	-0.0	138.276565552	-157.152679443	87.8773193359	177.867935181
0.0	-0.0	138.244338989	177.862716675	87.4872207642	-177.961502075
0.0	-0.0	143.224319458	165.192932129	87.3660507202	-175.183898926
0.0	-0.0	155.875549316	162.51322937	88.1453704834	-173.764312744
0.0	-0.0	147.780578613	163.669769287	87.9629364014	-173.655044556
0.0	-0.0	68.5510025024	164.008544922	87.2396240234	-173.671310425
0.0	-0.0	84.2827072144	163.505218506	87.796913147	-172.872329712
0.0	-0.0	83.761177063	163.924468994	86.4682998657	-173.231552124
0.0	-0.0	103.01033783	164.730987549	85.8037719727	-173.921630859
0.0	-0.0	121.034202576	163.296768188	86.7085952759	-172.849090576
0.0	-0.0	130.816848755	158.211273193	87.9738235474	-171.733688354
0.0	-0.0	138.176010132	148.859985352	89.7583084106	-170.262466431
0.0	-0.0	143.3621521	143.251190186	89.396270752	-169.813980103
0.0	-0.0	139.478439331	143.875534058	88.1720657349	-169.40953064
0.0	-0.0	74.0147705078	146.211273193	87.3377609253	-170.005783081
0.0	-0.0	70.6108474731	148.96383667	86.9140319824	-170.150985718
0.0	-0.0	73.8056030273	152.783432007	85.6624984741	-170.22454834
