-0.0442159175873	1.15933716297	0.176958918571	-0.279261350632	1.48680436611	-0.101426124573
-0.0445599555969	1.15902292728	0.176251649857	-0.278946638107	1.4868927002	-0.102351307869
-0.0451335906982	1.15944778919	0.175268173218	-0.278616666794	1.48686265945	-0.103561878204
-0.0467987060547	1.1616512537	0.171683073044	-0.276575565338	1.48725700378	-0.104680538177
-0.0496876239777	1.16545855999	0.166161894798	-0.274680137634	1.48782157898	-0.106226682663
-0.0533938407898	1.16690778732	0.161381483078	-0.274596691132	1.48801660538	-0.107878684998
-0.0445053577423	1.1748251915	0.166080951691	-0.274795293808	1.48850047588	-0.109736442566
-0.0359773635864	1.17462038994	0.176286816597	-0.274806499481	1.48900318146	-0.11200094223
-0.0422761440277	1.17233920097	0.174911737442	-0.274615049362	1.48977446556	-0.113473892212
-0.0479638576508	1.16194009781	0.180930495262	-0.275254249573	1.49051916599	-0.114823937416
-0.0489583015442	1.16258406639	0.180714011192	-0.275829315186	1.49200284481	-0.116556763649
-0.0506675243378	1.16255259514	0.181536793709	-0.276676177979	1.49438655376	-0.11815726757
-0.0549416542053	1.15546238422	0.18403339386	-0.278090715408	1.49592363834	-0.119869947433
-0.0515029430389	1.15685248375	0.185677886009	-0.279210567474	1.49584591389	-0.120483398438
-0.0465242862701	1.15925037861	0.185063362122	-0.279206991196	1.49576306343	-0.120795726776
-0.0431265830994	1.15940582752	0.18290412426	-0.277297735214	1.49547183514	-0.120812892914
-0.0431845188141	1.15848195553	0.176765918732	-0.273227930069	1.49460232258	-0.120920658112
-0.0410628318787	1.1606938839	0.171406626701	-0.269793987274	1.49392402172	-0.120951771736
-0.043788433075	1.16103494167	0.165684461594	-0.267889261246	1.49404966831	-0.121148109436
-0.0458717346191	1.15999627113	0.162059545517	-0.268002033234	1.4957023859	-0.121243715286
-0.040406703949	1.15975081921	0.164441466331	-0.268823385239	1.49725043774	-0.12183713913
-0.0356619358063	1.15763998032	0.171097159386	-0.268948793411	1.49824762344	-0.122273802757
