-58.5870361328	-39.3269081116	136.623046875	6.3246307373	3.12150239944	-1.38865292072
-58.7642784119	-39.1228752136	136.629760742	6.25438737869	3.02112221718	-1.32021450996
-59.1478614807	-39.1013069153	136.875701904	6.34459686279	3.07076406479	-1.17647135258
-59.1646194458	-39.6351318359	137.246078491	8.42172050476	3.25435304642	-1.0615042448
-57.8311347961	-40.8455657959	136.930755615	12.4248390198	3.33822178841	-1.65703344345
-50.956653595	-45.7506103516	125.434585571	16.1226730347	2.65741682053	-2.03631234169
-0.700964987278	-51.4388084412	48.3128013611	17.5422477722	1.6646194458	-2.28449892998
19.1567668915	-40.8685874939	13.4338598251	18.2676734924	1.54224669933	-2.24122738838
-19.0002269745	-52.368106842	61.7571563721	18.2973880768	1.98612868786	-2.21075463295
-44.1035728455	-47.3362464905	95.8067779541	18.0457363129	1.82771527767	-2.05993056297
-45.8946990967	-46.4262504578	110.195205688	18.2004013062	1.38916528225	-2.18001914024
-46.5063667297	-45.1438560486	120.570083618	18.7207012177	0.808454215527	-2.29169774055
-45.2783889771	-45.822593689	125.386940002	19.3153018951	0.427571803331	-2.4780292511
-24.5870513916	-50.8878669739	91.0513000488	19.7626628876	0.544508516788	-2.53515791893
4.08932161331	-50.2698516846	34.6734695435	20.0808429718	0.682459652424	-2.58983922005
-33.8475875854	-52.0234146118	71.1343154907	19.9045066833	0.693106293678	-2.45795321465
-48.7011222839	-47.5948677063	85.5952148438	19.6791343689	0.681911706924	-2.46308803558
-52.4405708313	-46.0271682739	93.9497680664	19.8806438446	0.576371967793	-2.39864492416
-54.2987289429	-45.2394485474	100.023490906	20.4672145844	0.475730627775	-2.5609254837
-56.4775390625	-43.9223861694	107.944610596	21.0469150543	0.0221092831343	-2.96080708504
-60.2772140503	-42.8246574402	116.676338196	20.7312927246	-0.940242290497	-3.12052154541
-54.1182823181	-48.075553894	107.826286316	20.3814144135	-0.266050130129	-2.97775053978
-56.8162536621	-44.9699935913	112.439163208	20.5282478333	0.163827866316	-2.99517798424
-56.8161315918	-44.9458389282	113.387374878	20.2135429382	0.986967623234	-2.36579942703
-57.6686592102	-45.5319709778	113.148399353	19.2927417755	1.96562445164	-1.39803338051
-59.5682144165	-45.3976821899	114.965393066	18.7121677399	1.31320130825	-1.3168463707
-61.4482841492	-44.9596939087	116.220176697	18.7995471954	1.39455688	-1.43720519543
-63.7964096069	-45.7439460754	113.983551025	19.1602306366	1.68830215931	-1.47061920166
-54.1016426086	-54.2897262573	86.199432373	19.0092964172	1.59252882004	-1.68822574615
