0.0	-0.0	134.031494141	-116.602920532	87.0587539673	172.803359985
0.0	-0.0	133.778411865	-116.662696838	87.724357605	172.692169189
0.0	-0.0	134.202575684	-117.271453857	88.3171768188	172.882598877
0.0	-0.0	134.350036621	-118.599632263	89.4408111572	173.556945801
0.0	-0.0	134.173187256	57.8301849365	86.446937561	-5.44786548615
0.0	-0.0	134.708877563	48.1978111267	72.6720657349	-3.52989149094
0.0	-0.0	127.903923035	36.578754425	57.4279403687	-2.16282749176
0.0	-0.0	74.8488922119	29.1703605652	46.1322212219	-2.3296957016
0.0	-0.0	79.8362045288	26.455072403	38.6767158508	-1.74414110184
0.0	-0.0	72.0689163208	23.3453388214	37.758556366	-1.24572217464
0.0	-0.0	69.2342224121	22.2504444122	34.1180648804	-1.24103534222
0.0	-0.0	49.66431427	21.5350856781	30.3919582367	-2.05684018135
0.0	-0.0	37.1653633118	21.6011180878	30.2457637787	-1.5881806612
0.0	-0.0	44.7411308289	21.2399177551	32.6043014526	-1.18715202808
0.0	-0.0	69.0723114014	19.6159954071	33.7368392944	-0.390341103077
0.0	-0.0	113.996253967	17.8093147278	33.8320465088	0.513720870018
0.0	-0.0	132.690032959	17.8011131287	34.2236213684	1.62279510498
0.0	-0.0	155.748825073	17.4436855316	34.7076568604	1.89932155609
0.0	-0.0	-179.66305542	15.4145498276	32.639377594	1.98989987373
0.0	-0.0	175.181213379	11.9822330475	26.4475307465	2.17687416077
0.0	-0.0	101.38269043	8.56355762482	20.3022251129	2.02232551575
0.0	-0.0	77.3925247192	6.72962999344	17.3185462952	1.97975182533
0.0	-0.0	60.1968345642	8.33984279633	16.5799636841	1.95732855797
