0.0695071220398	0.976910114288	0.135015726089	-0.151969432831	1.48124325275	-0.171445846558
0.0701422691345	0.977009057999	0.135828375816	-0.152279376984	1.48167657852	-0.171384811401
0.0705723762512	0.975895881653	0.135638237	-0.152980327606	1.48221337795	-0.171519041061
0.0710916519165	0.97483086586	0.135369896889	-0.154183387756	1.4831687212	-0.171281337738
0.0699234008789	0.97453045845	0.135592937469	-0.155133485794	1.48335063457	-0.171251773834
0.0666749477386	0.975119590759	0.137032270432	-0.155744552612	1.48208010197	-0.169985532761
0.0619287490845	0.980880975723	0.136125087738	-0.156074762344	1.48048520088	-0.1682523489
0.0588932037354	0.984690904617	0.134683728218	-0.156939983368	1.47674548626	-0.165775775909
0.0542664527893	0.989513874054	0.131847381592	-0.158997058868	1.47391426563	-0.163494586945
0.0486259460449	0.995511293411	0.128045797348	-0.160920619965	1.47407019138	-0.162125468254
0.0430481433868	1.00251579285	0.125235199928	-0.16234254837	1.47544193268	-0.161912441254
0.0425069332123	1.00910592079	0.125407218933	-0.163036584854	1.47646510601	-0.162456512451
0.040979385376	1.01076340675	0.126445531845	-0.163702011108	1.47698092461	-0.162872076035
