-71.6197967529	-37.1389045715	132.950332642	7.57813549042	1.33966732025	-0.898308992386
-71.9477233887	-37.0975761414	133.199584961	7.54510402679	1.32934916019	-0.993631184101
-71.6902236938	-36.8837356567	132.847946167	6.25591135025	1.43137550354	-1.05827176571
-72.9393157959	-36.4852485657	133.4559021	2.35927700996	1.45447552204	-0.780227482319
-74.0923233032	-36.4849472046	133.759674072	-4.08700418472	1.36729955673	-0.213163420558
-80.3959960938	-38.9230880737	135.624298096	-10.4169559479	1.21698713303	0.469210058451
-97.2137832642	-38.900718689	150.051986694	-14.2546615601	0.927495837212	1.03121650219
-112.141326904	-34.5945205688	165.396514893	-15.9913320541	0.70722836256	1.63826525211
-114.301116943	-35.3616485596	166.207077026	-16.6987304688	0.455751478672	1.9761941433
-65.7878036499	-33.9880905151	116.333488464	-17.1559104919	0.400979429483	2.33142876625
-50.9480400085	-22.2890987396	97.5023803711	-17.7946434021	0.549609482288	2.43686008453
-49.8140029907	-23.139585495	97.1717605591	-18.9488544464	0.724061191082	3.00254535675
-62.0636558533	-35.1035041809	114.364280701	-19.7595882416	0.691434025764	3.11775422096
-82.9953536987	-40.48645401	135.820480347	-20.7388286591	0.696936488152	3.38079833984
-94.1358947754	-42.6915931702	146.331848145	-21.843214035	0.695852994919	3.58663868904
-87.5716018677	-44.5070343018	132.086410522	-22.7423648834	0.491569012403	4.04963064194
