0.0	-0.0	138.265777588	45.625213623	78.6943054199	-22.2088661194
0.0	-0.0	137.404968262	45.6272697449	78.8013381958	-22.146112442
0.0	-0.0	136.196868896	45.2915000916	78.633430481	-21.9070243835
0.0	-0.0	133.486236572	45.1522369385	78.5657501221	-21.7094573975
0.0	-0.0	126.734008789	45.1890907288	77.8049087524	-20.934803009
0.0	-0.0	117.622238159	45.6225166321	77.0888214111	-20.5132598877
0.0	-0.0	103.209587097	45.7515029907	76.5468673706	-19.543384552
0.0	-0.0	79.0663070679	44.6929664612	77.0095367432	-17.8974914551
0.0	-0.0	51.4461555481	44.2497901917	77.2481384277	-16.6422176361
0.0	-0.0	26.3867092133	43.4785232544	77.29737854	-15.5423870087
0.0	-0.0	8.00452804565	43.6885604858	77.3117904663	-14.8053388596
0.0	0.0	-5.76760435104	44.1002883911	77.3527603149	-14.7456140518
0.0	0.0	-12.4540605545	46.7389030457	78.0193557739	-18.0590896606
0.0	0.0	-14.5001831055	49.404712677	80.7782821655	-21.3725166321
0.0	0.0	-16.2531299591	48.9710617065	83.3770828247	-25.5525188446
0.0	0.0	-17.5016555786	46.6387138367	86.0090560913	-25.6490592957
0.0	0.0	-18.0510940552	46.179851532	87.9033737183	-25.6176891327
0.0	0.0	-18.2541923523	-135.150650024	88.7754974365	152.737854004
0.0	0.0	-19.0093231201	-135.57572937	87.4184799194	152.809371948
0.0	0.0	-21.0191078186	-136.442108154	86.4200897217	152.496017456
0.0	0.0	-21.8503284454	-139.121383667	88.4771728516	156.240158081
0.0	0.0	-21.2438316345	40.615234375	88.1117706299	-23.3415050507
0.0	0.0	-19.0271263123	41.7906112671	88.2463378906	-22.504743576
0.0	0.0	-8.85872650146	41.1063232422	87.9438705444	-22.0254650116
0.0	-0.0	3.44184923172	42.215259552	86.9402618408	-22.7757587433
0.0	-0.0	10.6392316818	42.7705612183	87.2111282349	-23.0774993896
0.0	-0.0	17.4873313904	44.0605888367	87.480758667	-23.1696453094
0.0	-0.0	20.3357791901	44.2152557373	88.4527511597	-23.4986534119
0.0	-0.0	20.350938797	43.5034255981	88.7018127441	-23.6993141174
0.0	-0.0	24.2945823669	42.7270431519	88.926940918	-23.6995487213
0.0	-0.0	29.7895374298	42.4714889526	88.5141296387	-24.1074523926
0.0	-0.0	32.1762313843	42.3072395325	88.7197113037	-24.0266819
0.0	-0.0	35.3705635071	42.2401161194	88.6221084595	-24.2491950989
0.0	-0.0	37.5296554565	41.3436927795	87.4439086914	-24.981054306
0.0	-0.0	37.4459457397	37.896938324	87.0193099976	-23.9462623596
0.0	-0.0	39.5190429688	36.8583526611	86.9862518311	-20.9888916016
0.0	-0.0	40.8476524353	34.9863586426	86.6200256348	-16.8891658783
0.0	-0.0	41.0346946716	33.9742431641	86.2672805786	-11.824968338
0.0	-0.0	40.9350776672	36.0596466064	86.925994873	-16.1608848572
0.0	-0.0	40.2422981262	36.4997062683	87.481590271	-16.4188556671
0.0	-0.0	39.9937705994	36.7936897278	88.1119384766	-16.3266677856
0.0	-0.0	39.7029724121	36.6347885132	88.134185791	-16.6650161743
0.0	-0.0	35.6413421631	36.6926841736	88.4650268555	-16.701997757
0.0	-0.0	30.9633998871	36.6441345215	88.5165176392	-16.5578727722
0.0	-0.0	33.9389610291	36.4693908691	88.7121887207	-16.9483680725
0.0	-0.0	30.1671981812	36.6892318726	88.6305770874	-17.4905147552
0.0	-0.0	8.91032505035	35.5659217834	89.4615859985	-15.8713598251
0.0	0.0	-9.81097793579	35.1690788269	89.196182251	-15.4923801422
0.0	0.0	-20.8341636658	35.1453399658	88.5401611328	-15.7484416962
0.0	0.0	-24.2024765015	34.8559684753	88.3983306885	-15.8845720291
0.0	0.0	-24.9010391235	34.6805458069	88.5761489868	-16.0221805573
0.0	0.0	-32.947593689	34.5473861694	88.6132736206	-15.8228607178
0.0	0.0	-49.7039642334	35.2621269226	88.7808074951	-19.4662361145
0.0	0.0	-56.8137168884	34.1764945984	88.4797515869	-20.9031887054
0.0	0.0	-56.5842514038	32.9387245178	88.0051574707	-21.472869873
0.0	0.0	-55.6927185059	32.2599182129	88.106803894	-20.243473053
0.0	0.0	-56.2532920837	31.3811378479	88.4135742188	-19.3347854614
0.0	0.0	-56.8837051392	30.1624946594	88.9156723022	-17.3768787384
0.0	0.0	-57.2206459045	27.9092388153	88.9831695557	-15.9455986023
0.0	0.0	-57.5968971252	26.3728504181	88.8202514648	-16.2255344391
0.0	0.0	-58.9096908569	27.0687294006	89.2100296021	-26.6070423126
0.0	0.0	-59.375328064	25.0449733734	89.4892349243	-27.6706676483
0.0	0.0	-58.9593544006	22.434720993	89.1105957031	-20.9340820312
