0.0117871761322	0.871824979782	0.195938587189	-0.23487663269	1.43479132652	-0.0625789165497
0.0112860202789	0.871714353561	0.195733189583	-0.23508810997	1.43526875973	-0.0625406503677
0.0107817649841	0.871168613434	0.19481921196	-0.235411167145	1.43515694141	-0.062221288681
0.010222196579	0.869757890701	0.193945169449	-0.23507642746	1.43334436417	-0.0614702701569
0.00855827331543	0.864297389984	0.193193078041	-0.233381032944	1.42945110798	-0.0604050159454
0.00526189804077	0.861602544785	0.192352294922	-0.230562925339	1.42554974556	-0.0590708255768
0.00339674949646	0.863492965698	0.191129922867	-0.225831747055	1.42331635952	-0.0569467544556
0.00471806526184	0.863806009293	0.18946814537	-0.219841241837	1.42309176922	-0.0554986000061
0.00132179260254	0.863343954086	0.187703609467	-0.212771892548	1.42250990868	-0.0546314716339
-0.000715970993042	0.863775968552	0.186563611031	-0.205823898315	1.42172980309	-0.0538647174835
-0.00590205192566	0.862271308899	0.185629487038	-0.200379133224	1.42051935196	-0.0537405014038
-0.0116686820984	0.857499599457	0.183200836182	-0.197204828262	1.4198538065	-0.0537632703781
-0.0158758163452	0.853729486465	0.180592060089	-0.196068525314	1.41924738884	-0.0536541938782
-0.0201981067657	0.852569103241	0.179411768913	-0.196342468262	1.41865158081	-0.0529019832611
-0.026584148407	0.852618694305	0.178770065308	-0.197782993317	1.41849386692	-0.0516800880432
-0.0291402339935	0.854249000549	0.178398489952	-0.19886469841	1.41765260696	-0.0505516529083
-0.0330829620361	0.853148460388	0.178073048592	-0.198694705963	1.41624188423	-0.049239397049
-0.0327100753784	0.855322599411	0.179178237915	-0.19833111763	1.41520226002	-0.0478011369705
-0.0321106910706	0.854817390442	0.179690122604	-0.197736024857	1.41559827328	-0.0464911460876
-0.0317215919495	0.855451822281	0.180079817772	-0.197028398514	1.41676485538	-0.0458691120148
-0.0303430557251	0.85665845871	0.181155085564	-0.19758439064	1.41883277893	-0.0452105998993
-0.029022693634	0.856379747391	0.182043194771	-0.199086427689	1.42156505585	-0.0449578762054
-0.0272557735443	0.856524944305	0.183146357536	-0.201176404953	1.42258453369	-0.044939994812
-0.0241193771362	0.856252193451	0.183970093727	-0.204623937607	1.42007160187	-0.0451712608337
-0.0187702178955	0.855721235275	0.18398809433	-0.208641767502	1.41727721691	-0.0442994832993
-0.0131528377533	0.854201555252	0.183425307274	-0.211333274841	1.41442501545	-0.0434428453445
-0.0126037597656	0.85534453392	0.183245658875	-0.213316917419	1.4116204977	-0.0422502756119
-0.014773607254	0.853226184845	0.182604193687	-0.214658260345	1.41063833237	-0.0413904190063
-0.0182552337646	0.847208976746	0.180152177811	-0.215514421463	1.41021943092	-0.0407381057739
-0.0248551368713	0.839627981186	0.175735116005	-0.21649980545	1.40938234329	-0.0403461456299
-0.0284659862518	0.837201356888	0.174865484238	-0.216809034348	1.40866923332	-0.0393023490906
-0.0304958820343	0.834911108017	0.174372076988	-0.217455148697	1.40768766403	-0.0380274057388
-0.0293061733246	0.829451560974	0.171755671501	-0.21773648262	1.4064000845	-0.0370050668716
-0.0284118652344	0.827499628067	0.170900583267	-0.218308925629	1.40515255928	-0.0358110666275
-0.0286283493042	0.827167987823	0.170974135399	-0.21911072731	1.40482735634	-0.034654378891
-0.0289707183838	0.826015710831	0.170754551888	-0.220225572586	1.40430808067	-0.0338500738144
-0.0352370738983	0.828683614731	0.171881556511	-0.221885919571	1.40326225758	-0.0327775478363
-0.0368120670319	0.83446764946	0.175077199936	-0.222993850708	1.40336918831	-0.0311123132706
-0.0343775749207	0.836922168732	0.177717089653	-0.22364616394	1.40404498577	-0.0301375389099
-0.0347135066986	0.837347984314	0.178107976913	-0.223344802856	1.40531432629	-0.0293056964874
-0.0353102684021	0.837665557861	0.178144693375	-0.222099542618	1.40537881851	-0.0288622379303
-0.0375285148621	0.838182687759	0.177161693573	-0.221581459045	1.40515494347	-0.0288374423981
-0.0369937419891	0.838263750076	0.176766395569	-0.221711874008	1.40443253517	-0.02898645401
-0.0347437858582	0.838571071625	0.17672431469	-0.22309088707	1.4037617445	-0.0293343067169
-0.0330867767334	0.838961601257	0.177125453949	-0.225180864334	1.40431213379	-0.0294988155365
-0.0309503078461	0.839447975159	0.177547812462	-0.228739261627	1.40284824371	-0.0304372310638
-0.0304119586945	0.839609146118	0.178157329559	-0.23144364357	1.39944970608	-0.0314923524857
-0.0269937515259	0.838582754135	0.179490208626	-0.233721256256	1.39682424068	-0.0316927433014
-0.0220999717712	0.83789396286	0.179642319679	-0.235133647919	1.39603829384	-0.0312447547913
-0.0185713768005	0.835141897202	0.17865216732	-0.234776735306	1.39566409588	-0.030072927475
-0.0189354419708	0.832350254059	0.177322506905	-0.233721971512	1.39508938789	-0.0292234420776
-0.0187382698059	0.831906080246	0.177270412445	-0.232323408127	1.39448845387	-0.0286400318146
-0.0189871788025	0.831270456314	0.177334427834	-0.230023384094	1.39366781712	-0.0284481048584
-0.0200593471527	0.830541372299	0.177756309509	-0.226669073105	1.39273715019	-0.0284581184387
-0.0225019454956	0.831562280655	0.177937507629	-0.221948623657	1.39386045933	-0.0269256830215
-0.023722410202	0.831485033035	0.176307797432	-0.217070579529	1.39606928825	-0.026220202446
-0.023339509964	0.83104133606	0.174731731415	-0.212848424911	1.39730596542	-0.0260918140411
-0.0231750011444	0.830976009369	0.172720074654	-0.208342075348	1.3998452425	-0.0266954898834
-0.0241737365723	0.82999420166	0.171392679214	-0.203984737396	1.40274572372	-0.0277551412582
-0.0259077548981	0.829441785812	0.170453667641	-0.200601100922	1.40468680859	-0.0289986133575
-0.0276255607605	0.828787326813	0.169848442078	-0.199196815491	1.40761876106	-0.0301115512848
-0.0287780761719	0.830319643021	0.170365452766	-0.1993060112	1.4118680954	-0.0314495563507
-0.0296652317047	0.831910133362	0.171453714371	-0.199687004089	1.41549324989	-0.0326727628708
-0.0286197662354	0.835545539856	0.17358148098	-0.200441837311	1.41871011257	-0.0339623689651
-0.029646396637	0.839576482773	0.175571918488	-0.201606273651	1.4211704731	-0.0352861881256
-0.027928352356	0.839561462402	0.176483273506	-0.204229354858	1.42194080353	-0.0364799499512
-0.0273170471191	0.839262723923	0.176220536232	-0.208153009415	1.42103719711	-0.0376071929932
-0.0262403488159	0.838464736938	0.176295161247	-0.212238311768	1.42276489735	-0.0378143787384
-0.0256812572479	0.840523481369	0.178146958351	-0.214744567871	1.42522192001	-0.0378822088242
-0.0235362052917	0.849561691284	0.182960271835	-0.215847969055	1.42561352253	-0.0378217697144
-0.0228655338287	0.854927301407	0.186960577965	-0.215897083282	1.42500257492	-0.0372140407562
-0.0219616889954	0.856053352356	0.189017295837	-0.215560674667	1.42446649075	-0.0366026163101
-0.0224933624268	0.855000019073	0.188781380653	-0.215899944305	1.42352128029	-0.0362297296524
-0.0228679180145	0.852298498154	0.187502503395	-0.216376543045	1.42254579067	-0.0357306003571
-0.0233571529388	0.850909948349	0.186911344528	-0.216865539551	1.42146897316	-0.0352512598038
-0.023716211319	0.849713802338	0.186410784721	-0.2177298069	1.41898190975	-0.0349187850952
-0.0252363681793	0.847692966461	0.185435295105	-0.218796491623	1.4140547514	-0.0354371070862
-0.026960849762	0.84724855423	0.184607744217	-0.220008850098	1.41170608997	-0.0353662967682
-0.0291543006897	0.846213340759	0.184003710747	-0.220372200012	1.40973949432	-0.0353395938873
-0.0310654640198	0.846606731415	0.18403673172	-0.219512701035	1.40798246861	-0.0354216098785
-0.0318009853363	0.847434282303	0.183808088303	-0.218926668167	1.40932321548	-0.0350859165192
-0.0326447486877	0.847781658173	0.183676719666	-0.217167615891	1.41292476654	-0.0342116355896
-0.0349013805389	0.848757982254	0.183964252472	-0.213987588882	1.41388905048	-0.0344516038895
-0.0370123386383	0.850450277328	0.184920191765	-0.211179494858	1.41263973713	-0.0348024368286
-0.0371131896973	0.851205587387	0.185103178024	-0.210117578506	1.4089192152	-0.0354355573654
-0.0357902050018	0.851753473282	0.184776186943	-0.212973356247	1.40549063683	-0.0356373786926
-0.0362844467163	0.85088467598	0.183297038078	-0.218309879303	1.40415000916	-0.0362737178802
-0.038645029068	0.848627090454	0.181665539742	-0.223224878311	1.40401899815	-0.0367366075516
-0.0384964942932	0.848462581635	0.181817054749	-0.226304292679	1.40427541733	-0.0372629165649
-0.0393962860107	0.850148439407	0.182854413986	-0.226894855499	1.40460109711	-0.0376298427582
-0.0405759811401	0.850954055786	0.183775901794	-0.226827383041	1.4051772356	-0.0380549430847
-0.0406475067139	0.851101875305	0.18420791626	-0.2267370224	1.40575385094	-0.0388383865356
-0.0407619476318	0.850239992142	0.183021187782	-0.227168798447	1.40641903877	-0.039715051651
-0.0407326221466	0.848443746567	0.180994510651	-0.228686094284	1.40621995926	-0.0411349534988
-0.0399644374847	0.84740281105	0.17927968502	-0.232455968857	1.40499639511	-0.0433492660522
-0.0401997566223	0.846932411194	0.177777051926	-0.235643625259	1.40446460247	-0.0454684495926
-0.0438904762268	0.846937894821	0.176353096962	-0.236381053925	1.40482652187	-0.0466210842133
-0.0552141666412	0.858724117279	0.176809549332	-0.234568834305	1.40640473366	-0.0463976860046
-0.0631771087646	0.8680768013	0.174963831902	-0.23225402832	1.40764141083	-0.0463832616806
-0.0693078041077	0.869436502457	0.170375943184	-0.230032205582	1.40890562534	-0.0463287830353
-0.0744740962982	0.871884346008	0.16443502903	-0.227670907974	1.41175556183	-0.0455551147461
-0.0777518749237	0.877073287964	0.159553766251	-0.225993394852	1.4154843092	-0.0454638004303
-0.0785403251648	0.879731178284	0.156733870506	-0.225210905075	1.41876792908	-0.0461295843124
-0.0797049999237	0.882930517197	0.15592956543	-0.225234508514	1.4207918644	-0.0471348762512
-0.0793585777283	0.880096912384	0.156902313232	-0.225625276566	1.42228114605	-0.0476235151291
-0.0774896144867	0.876296520233	0.15867626667	-0.226653337479	1.42246413231	-0.0480226278305
-0.0787508487701	0.876018762589	0.159818410873	-0.231144428253	1.42089176178	-0.0486110448837
-0.0808720588684	0.874605894089	0.160466909409	-0.238088607788	1.41642916203	-0.0503959655762
-0.081328868866	0.873911380768	0.161813497543	-0.24200296402	1.41454029083	-0.0516999959946
-0.0774064064026	0.87525343895	0.16682767868	-0.241265535355	1.41251540184	-0.0524380207062
-0.0666501522064	0.877594709396	0.173614501953	-0.240322589874	1.40974211693	-0.0526900291443
-0.0634126663208	0.877136945724	0.174295067787	-0.238975048065	1.40856468678	-0.0533175468445
-0.0622572898865	0.869332313538	0.170128464699	-0.237378120422	1.40797734261	-0.0541021823883
-0.0640525817871	0.854829072952	0.161942124367	-0.236603975296	1.40629577637	-0.0547479391098
-0.0632529258728	0.846949338913	0.156078457832	-0.236991882324	1.40471935272	-0.0543518066406
-0.0632343292236	0.841351985931	0.152101874352	-0.236833572388	1.40318953991	-0.0541580915451
-0.0615730285645	0.837916374207	0.149474740028	-0.236439704895	1.40209007263	-0.0542697906494
-0.0587131977081	0.83789730072	0.148174285889	-0.235858917236	1.40102314949	-0.0548514127731
-0.056836605072	0.837893724442	0.148059844971	-0.235070943832	1.40012919903	-0.0552532672882
-0.0568919181824	0.839812278748	0.148137450218	-0.23340678215	1.39996862411	-0.0554327964783
-0.058464050293	0.84121131897	0.148420572281	-0.231688261032	1.40096592903	-0.0552904605865
-0.0606002807617	0.840950965881	0.147787094116	-0.230391263962	1.40153968334	-0.0550999641418
-0.0613448619843	0.840521812439	0.147220373154	-0.228115797043	1.40162909031	-0.0551974773407
-0.0621030330658	0.840086698532	0.146722078323	-0.226031541824	1.40119349957	-0.0551421642303
-0.062164068222	0.840308427811	0.146883368492	-0.224398612976	1.40044009686	-0.054877281189
-0.0616047382355	0.839975595474	0.146551132202	-0.223330259323	1.39987301826	-0.054417848587
-0.0627870559692	0.839577674866	0.145186662674	-0.222856044769	1.39922428131	-0.0547051429749
-0.0623643398285	0.837808132172	0.144238948822	-0.222507715225	1.397128582	-0.0556255578995
-0.0625066757202	0.837548971176	0.144222021103	-0.221619367599	1.39385402203	-0.056719660759
-0.0620021820068	0.836765050888	0.144632816315	-0.22114610672	1.39181613922	-0.0568896532059
-0.061420917511	0.834418535233	0.143615603447	-0.22101187706	1.38948690891	-0.0569672584534
-0.0624351501465	0.829075813293	0.140075087547	-0.221004962921	1.38687491417	-0.057346701622
-0.0646347999573	0.827967643738	0.138643264771	-0.221989154816	1.38416206837	-0.0578501224518
-0.0638325214386	0.828478813171	0.138778567314	-0.222822666168	1.38357508183	-0.0580954551697
-0.0633783340454	0.829074621201	0.139099121094	-0.223008394241	1.38335692883	-0.0582809448242
-0.061861038208	0.83087015152	0.140195250511	-0.223484516144	1.38377761841	-0.0583052635193
-0.0628352165222	0.831514120102	0.140175104141	-0.223828315735	1.38493514061	-0.058025598526
-0.0642175674438	0.831667900085	0.140039920807	-0.224114656448	1.38560223579	-0.0577623844147
-0.0653750896454	0.831773996353	0.13981962204	-0.223906755447	1.38668632507	-0.0573396682739
-0.0658407211304	0.831028461456	0.139647722244	-0.222744226456	1.38804221153	-0.0568859577179
-0.065906047821	0.830898761749	0.139081478119	-0.222140789032	1.38792669773	-0.0572156906128
-0.065495967865	0.831498622894	0.139573812485	-0.223895072937	1.38667845726	-0.0576324462891
-0.0658943653107	0.831561088562	0.139398336411	-0.224294424057	1.38707387447	-0.0571975708008
-0.0673666000366	0.830472707748	0.138835191727	-0.221563577652	1.38935256004	-0.0558866262436
-0.0685405731201	0.83024096489	0.138810634613	-0.218169927597	1.39031052589	-0.0551261901855
-0.0679016113281	0.83021068573	0.139090418816	-0.214922904968	1.39040350914	-0.0547616481781
-0.0669348239899	0.829954624176	0.139287948608	-0.211472272873	1.39144313335	-0.0541812181473
-0.06702876091	0.829087018967	0.13926076889	-0.208121061325	1.39302408695	-0.0536227226257
-0.0685997009277	0.828177213669	0.139526605606	-0.205638408661	1.39425325394	-0.0532032251358
-0.069310426712	0.826248407364	0.139162540436	-0.204270362854	1.39550328255	-0.0528963804245
-0.0690836906433	0.825536251068	0.139114260674	-0.203661441803	1.3965075016	-0.0526311397552
-0.0682282447815	0.825836181641	0.140154838562	-0.203467845917	1.39761030674	-0.0523643493652
-0.0681991577148	0.826606988907	0.141816496849	-0.203827381134	1.39987134933	-0.0514643192291
-0.0679676532745	0.827041149139	0.143148899078	-0.204606533051	1.40298986435	-0.0501909255981
-0.0681419372559	0.825714111328	0.143270373344	-0.20593047142	1.40581250191	-0.0495146512985
-0.0674169063568	0.825218200684	0.144015789032	-0.207438707352	1.40870940685	-0.049031496048
-0.0635278224945	0.832316160202	0.150545477867	-0.208751678467	1.40989506245	-0.0489176511765
-0.0617671012878	0.837439775467	0.155778884888	-0.209447145462	1.4093888998	-0.048320889473
-0.0602066516876	0.84087228775	0.159206151962	-0.209795475006	1.40885090828	-0.0473902225494
-0.0606825351715	0.841907024384	0.160356163979	-0.21014714241	1.40845811367	-0.0460470914841
-0.061621427536	0.839447975159	0.159704446793	-0.210805654526	1.40773797035	-0.0446944236755
-0.062445640564	0.837671756744	0.15907561779	-0.211584329605	1.40679574013	-0.0434560775757
-0.0619034767151	0.836474895477	0.159165859222	-0.212394952774	1.40630698204	-0.0421042442322
-0.0617139339447	0.834851264954	0.158744096756	-0.213522434235	1.40506601334	-0.0417469739914
-0.0624477863312	0.83389377594	0.158095598221	-0.214329004288	1.40318751335	-0.0417602062225
-0.0634906291962	0.833611726761	0.157938241959	-0.215070486069	1.40174376965	-0.0419840812683
-0.0631935596466	0.833562850952	0.158056259155	-0.215062379837	1.40297341347	-0.0418148040771
-0.0632429122925	0.834217309952	0.158077001572	-0.214896678925	1.4057918787	-0.0420644283295
-0.0646305084229	0.835644245148	0.157730698586	-0.215216636658	1.4074215889	-0.0433871746063
-0.0660498142242	0.83603978157	0.157377243042	-0.215700626373	1.40800380707	-0.0447072982788
-0.0667850971222	0.837336778641	0.157681941986	-0.215938568115	1.40814960003	-0.045688867569
-0.0696315765381	0.83828663826	0.156973958015	-0.216275215149	1.40835857391	-0.0470221042633
-0.0718457698822	0.839540243149	0.156519532204	-0.217109680176	1.40841984749	-0.047954916954
-0.0749650001526	0.841472864151	0.155838251114	-0.21821808815	1.40861690044	-0.0490958690643
-0.0773508548737	0.84246969223	0.1549025774	-0.219254493713	1.40889215469	-0.0504860877991
-0.0779829025269	0.843081235886	0.15475320816	-0.21990942955	1.40920448303	-0.0519033670425
-0.0791461467743	0.843793392181	0.154249548912	-0.220148086548	1.40956318378	-0.0535184144974
-0.0798132419586	0.844135522842	0.153627514839	-0.220224380493	1.40972232819	-0.0550038814545
-0.0799369812012	0.84433722496	0.152349472046	-0.220670700073	1.40949523449	-0.0564419031143
-0.0791916847229	0.844221353531	0.151213884354	-0.222030162811	1.40925204754	-0.0575748682022
-0.0795841217041	0.843337774277	0.149454832077	-0.223509311676	1.40996265411	-0.0585712194443
-0.0801572799683	0.842674732208	0.148012161255	-0.224051713943	1.41152274609	-0.0591382980347
-0.0808918476105	0.842224121094	0.146849870682	-0.223499536514	1.41466331482	-0.0595651865005
-0.081285238266	0.842353820801	0.146656513214	-0.222194194794	1.41716885567	-0.0604418516159
-0.0810210704803	0.842778682709	0.146477222443	-0.220097780228	1.41841173172	-0.0617842674255
-0.080714225769	0.842391252518	0.145715355873	-0.218866825104	1.41969108582	-0.0629221200943
-0.0816321372986	0.841372013092	0.143601179123	-0.218167304993	1.42100989819	-0.0642057657242
-0.0828914642334	0.840145111084	0.141456365585	-0.218075990677	1.42092633247	-0.0654039382935
-0.0842344760895	0.839629650116	0.139517664909	-0.218151092529	1.41979944706	-0.0661971569061
-0.0846390724182	0.839195013046	0.138321518898	-0.218225955963	1.41943287849	-0.0667691230774
-0.0862567424774	0.839527130127	0.136404871941	-0.218506336212	1.42006933689	-0.0673980712891
-0.087167263031	0.83979177475	0.135882973671	-0.218974113464	1.4206738472	-0.067663192749
-0.0876858234406	0.840351343155	0.1360039711	-0.21892285347	1.42074036598	-0.0677597522736
-0.0882875919342	0.840903520584	0.135362148285	-0.218710184097	1.42092370987	-0.0675733089447
-0.0883865356445	0.839369535446	0.13437795639	-0.21848654747	1.42172288895	-0.0673555135727
-0.0893592834473	0.839152336121	0.133547067642	-0.217341423035	1.42468726635	-0.0666131973267
-0.089528799057	0.837932825089	0.132999897003	-0.216340303421	1.42752838135	-0.0664901733398
-0.0898933410645	0.838295936584	0.133505702019	-0.215303421021	1.42859756947	-0.0668872594833
-0.089920759201	0.840237379074	0.135354280472	-0.215310096741	1.42822957039	-0.0676604509354
-0.0893037319183	0.842457056046	0.137227535248	-0.216733455658	1.42731642723	-0.068288564682
-0.0883247852325	0.842586755753	0.13814663887	-0.219637870789	1.42534732819	-0.0690100193024
-0.0873446464539	0.840941905975	0.137578725815	-0.223332643509	1.42344224453	-0.0685368776321
-0.0881311893463	0.837603569031	0.134110093117	-0.225954771042	1.42155015469	-0.0679881572723
-0.087886095047	0.837225675583	0.132172346115	-0.227246999741	1.42026150227	-0.067831993103
-0.0848288536072	0.839422464371	0.133454561234	-0.227886676788	1.42014324665	-0.067911863327
-0.0834834575653	0.841099739075	0.13430929184	-0.228937864304	1.421007514	-0.0682430267334
-0.0842208862305	0.839954376221	0.132355213165	-0.230707406998	1.42190170288	-0.0689636468887
-0.086877822876	0.839531898499	0.130037665367	-0.232543706894	1.42136061192	-0.0701761245728
-0.0893802642822	0.840109586716	0.129152536392	-0.233172893524	1.42029702663	-0.0713756084442
-0.0903272628784	0.842804908752	0.129651784897	-0.231892347336	1.41991245747	-0.0723338127136
-0.0898814201355	0.845193147659	0.131398677826	-0.230162858963	1.42028367519	-0.0732623338699
-0.0904235839844	0.844207048416	0.129906058311	-0.227276325226	1.42210960388	-0.0745140314102
-0.0921161174774	0.84272646904	0.126978635788	-0.222272396088	1.4255156517	-0.0760402679443
-0.0938682556152	0.842451572418	0.126717925072	-0.217346906662	1.42810499668	-0.0778169631958
-0.0943460464478	0.84378695488	0.127972960472	-0.213527441025	1.42950308323	-0.079315662384
-0.0942320823669	0.843211174011	0.127885103226	-0.211052417755	1.43048477173	-0.0804880857468
-0.0946564674377	0.842423677444	0.126590847969	-0.210155010223	1.43040692806	-0.0811759233475
-0.0957732200623	0.843922615051	0.126287221909	-0.210435628891	1.4303072691	-0.0814528465271
-0.0996699333191	0.851997852325	0.127929210663	-0.211835384369	1.43188536167	-0.0811650753021
-0.102999210358	0.860816001892	0.131473064423	-0.213750362396	1.4334603548	-0.0804386138916
-0.110321998596	0.868434429169	0.131301999092	-0.215178966522	1.43380653858	-0.0796365737915
-0.115898370743	0.871197462082	0.128899097443	-0.216838598251	1.43387186527	-0.0788967609406
-0.124258995056	0.874724388123	0.124448895454	-0.217707395554	1.43408071995	-0.0779137611389
-0.126974105835	0.875972747803	0.123206853867	-0.218257665634	1.43343555927	-0.0772094726562
-0.127333402634	0.876080751419	0.12394952774	-0.218686103821	1.43194830418	-0.0762083530426
-0.125878572464	0.875334739685	0.125699877739	-0.219367742538	1.43056702614	-0.0752880573273
-0.126100540161	0.874251365662	0.126313090324	-0.220350503922	1.42953979969	-0.0747954845428
-0.127145051956	0.872570514679	0.126071214676	-0.221611261368	1.42605113983	-0.0748436450958
-0.127990245819	0.874535560608	0.127835988998	-0.223054885864	1.42179512978	-0.0737946033478
-0.127683162689	0.87365436554	0.12778866291	-0.223863840103	1.41821575165	-0.0725132226944
-0.126922369003	0.873053312302	0.126918554306	-0.224679708481	1.41736376286	-0.071049451828
-0.127522945404	0.870132684708	0.124034762383	-0.224340438843	1.41781640053	-0.0701183080673
-0.129585504532	0.868030786514	0.119637012482	-0.223534822464	1.41782271862	-0.0700364112854
-0.130355596542	0.866468191147	0.116036295891	-0.222745895386	1.4168664217	-0.0705599784851
-0.129764080048	0.863829612732	0.109911441803	-0.222765922546	1.41676366329	-0.0714004039764
-0.131014823914	0.863965034485	0.101301431656	-0.223102092743	1.41703462601	-0.072025179863
-0.131533622742	0.866839408875	0.0958580970764	-0.223597288132	1.41794359684	-0.0724296569824
-0.129776477814	0.866412162781	0.0929634571075	-0.224316596985	1.41890871525	-0.0729677677155
-0.130207300186	0.865633487701	0.0903656482697	-0.22523355484	1.41911900043	-0.0736627578735
-0.1296646595	0.862231969833	0.0879347324371	-0.22611951828	1.41898190975	-0.0746738910675
-0.126979589462	0.855475902557	0.0841526985168	-0.226805925369	1.41869115829	-0.0753889083862
-0.12683224678	0.856857299805	0.0832667350769	-0.227208137512	1.41864621639	-0.075758099556
-0.12712264061	0.859885692596	0.0848420858383	-0.22730588913	1.41862881184	-0.0761131048203
-0.126934289932	0.860865831375	0.0851380825043	-0.227123022079	1.41900587082	-0.0766837596893
-0.127077102661	0.861631393433	0.0852236747742	-0.226693630219	1.41945099831	-0.0774438381195
-0.127691268921	0.862003803253	0.0855553150177	-0.225662946701	1.42007982731	-0.0780072212219
-0.128987789154	0.862251996994	0.0854544639587	-0.22305393219	1.42207539082	-0.078644156456
-0.130486011505	0.863184452057	0.0853490829468	-0.218826770782	1.42412948608	-0.0789099931717
-0.13042807579	0.863115310669	0.0866062641144	-0.214450836182	1.42495942116	-0.0792136192322
-0.130549192429	0.862907171249	0.0863140821457	-0.210145950317	1.42504918575	-0.0792641639709
-0.129855394363	0.861351013184	0.0852270126343	-0.208301067352	1.42444860935	-0.0792506933212
-0.129310369492	0.860520839691	0.0842856168747	-0.207473993301	1.42290246487	-0.0788416862488
-0.128971338272	0.860203266144	0.0848823785782	-0.207291603088	1.42296493053	-0.0783696174622
-0.128509283066	0.860758304596	0.087096452713	-0.207767248154	1.42368233204	-0.077779173851
-0.126396894455	0.861383199692	0.0974104404449	-0.208345651627	1.42446219921	-0.0769317150116
-0.121202468872	0.862400054932	0.116245031357	-0.20774102211	1.42690551281	-0.0764052867889
-0.120346069336	0.863956212997	0.128053426743	-0.206309556961	1.42947876453	-0.0757590532303
-0.119849681854	0.867469549179	0.136687278748	-0.204119443893	1.43122553825	-0.0753092765808
-0.12159371376	0.871966362	0.142078876495	-0.202208042145	1.43255138397	-0.074871301651
-0.118417024612	0.881331205368	0.14980840683	-0.200656414032	1.43526184559	-0.073899269104
-0.112446546555	0.896390199661	0.157839775085	-0.198807477951	1.43745946884	-0.0728962421417
-0.107738494873	0.902292013168	0.160897254944	-0.19725394249	1.43947470188	-0.0720627307892
-0.117254495621	0.906687498093	0.158956170082	-0.197920560837	1.44390833378	-0.0708305835724
-0.124571800232	0.912790298462	0.157324552536	-0.20293545723	1.44600212574	-0.0706901550293
-0.123477220535	0.922810792923	0.158549427986	-0.211188554764	1.4461452961	-0.0712828636169
-0.1181640625	0.929201602936	0.160423874855	-0.220000743866	1.44572865963	-0.0727624893188
-0.112378358841	0.930587768555	0.162575960159	-0.226191759109	1.44604718685	-0.0750484466553
-0.102229118347	0.935156822205	0.165580511093	-0.229839324951	1.44447445869	-0.0765244960785
-0.0926716327667	0.933943510056	0.168060302734	-0.232140541077	1.44321429729	-0.0774004459381
-0.0837399959564	0.924361944199	0.168105363846	-0.231561660767	1.44301366806	-0.0791137218475
-0.0777490139008	0.915697813034	0.164447307587	-0.230038881302	1.44286465645	-0.0811984539032
-0.0804305076599	0.903322696686	0.158830881119	-0.22882437706	1.44075405598	-0.0833671092987
-0.0843651294708	0.896535158157	0.15398144722	-0.227798461914	1.43853378296	-0.0850517749786
-0.0886969566345	0.89418387413	0.151637077332	-0.227390050888	1.43769514561	-0.0861446857452
-0.091863155365	0.891414165497	0.150387525558	-0.226921319962	1.4364323616	-0.0866053104401
-0.0939290523529	0.888625621796	0.148589134216	-0.226247310638	1.4346177578	-0.086097240448
-0.092512845993	0.888569355011	0.147756576538	-0.225962638855	1.43263328075	-0.0852167606354
-0.0918984413147	0.887081861496	0.146070957184	-0.225404977798	1.43061769009	-0.0842772722244
-0.0896229743958	0.883551120758	0.143749237061	-0.225474596024	1.42893815041	-0.0832874774933
-0.0879004001617	0.88255906105	0.142516613007	-0.225051403046	1.42731142044	-0.0827932357788
-0.0865805149078	0.884544372559	0.144458413124	-0.224133014679	1.42661297321	-0.082745552063
-0.0859656333923	0.887516498566	0.147614598274	-0.223918914795	1.4273570776	-0.0827417373657
-0.0850796699524	0.884833574295	0.148615121841	-0.224565982819	1.42770814896	-0.0821943283081
-0.0835900306702	0.881598949432	0.148897647858	-0.2249147892	1.42754554749	-0.0807039737701
-0.0836629867554	0.887671709061	0.151621341705	-0.225299596786	1.42730760574	-0.0785131454468
-0.0819101333618	0.895208358765	0.1568120718	-0.225509643555	1.42702245712	-0.0763001441956
-0.0791792869568	0.905184030533	0.16278398037	-0.22517490387	1.42710125446	-0.0745828151703
-0.075786113739	0.917693138123	0.168439269066	-0.224938631058	1.42736124992	-0.0731008052826
-0.0701265335083	0.924331188202	0.172550320625	-0.225189208984	1.42741823196	-0.0718154907227
-0.0707368850708	0.918800830841	0.17402780056	-0.224779367447	1.427983284	-0.070200920105
-0.0740640163422	0.915724754333	0.173336982727	-0.223637580872	1.42941594124	-0.0684642791748
-0.07839012146	0.911286115646	0.172421455383	-0.221671581268	1.431001544	-0.0668565034866
-0.081880569458	0.910894632339	0.173458218575	-0.218967676163	1.43260681629	-0.0653825998306
-0.0814116001129	0.912070035934	0.175376296043	-0.215955018997	1.43376231194	-0.0644202232361
-0.0822985172272	0.916487216949	0.176995754242	-0.212770938873	1.43493437767	-0.0638267993927
-0.0832738876343	0.919429063797	0.178894281387	-0.210444927216	1.43498957157	-0.0629688501358
-0.0846030712128	0.917767286301	0.179108977318	-0.209938764572	1.43421888351	-0.0622298717499
-0.0837378501892	0.913196086884	0.177678585052	-0.210661888123	1.43373191357	-0.0613107681274
-0.0831203460693	0.904524326324	0.174679398537	-0.211350679398	1.43365013599	-0.0605144500732
-0.0827178955078	0.895036935806	0.170660972595	-0.211679697037	1.43309152126	-0.0599570274353
-0.0827698707581	0.887398481369	0.16611790657	-0.212162733078	1.43249022961	-0.0598366260529
-0.0816121101379	0.882165908813	0.162076592445	-0.212143182755	1.43224203587	-0.0599174499512
-0.0793356895447	0.879086732864	0.159617304802	-0.211990833282	1.43192839622	-0.0604448318481
-0.076770067215	0.882029294968	0.1611982584	-0.211763858795	1.43181562424	-0.0608332157135
-0.0747430324554	0.888179063797	0.164493203163	-0.211337089539	1.43163621426	-0.0612493753433
-0.073805809021	0.893825292587	0.167216420174	-0.211144685745	1.43164050579	-0.061939239502
-0.0708293914795	0.898686170578	0.169557094574	-0.211201190948	1.43142521381	-0.0625706911087
-0.0645682811737	0.901547908783	0.171467423439	-0.211458921432	1.4314801693	-0.0635211467743
-0.0609660148621	0.906224250793	0.171972632408	-0.211575031281	1.43199455738	-0.0644927024841
-0.0614030361176	0.910088062286	0.171784758568	-0.211518526077	1.43225002289	-0.06578540802
-0.0622429847717	0.91387963295	0.17279291153	-0.211542367935	1.43242454529	-0.0672601461411
-0.0626809597015	0.914628267288	0.172622203827	-0.212016105652	1.43274104595	-0.0689314603806
-0.0641300678253	0.911441326141	0.170935869217	-0.212349176407	1.43258333206	-0.0702865123749
-0.0655953884125	0.906862735748	0.167826890945	-0.213136672974	1.43241155148	-0.071840763092
-0.0668976306915	0.902514696121	0.164098978043	-0.214051485062	1.4323785305	-0.072890996933
-0.0681507587433	0.898386478424	0.159651517868	-0.215280056	1.43212020397	-0.0735955238342
-0.067312002182	0.894633293152	0.155386924744	-0.216486930847	1.43184745312	-0.0740814208984
-0.064795255661	0.893520116806	0.153179645538	-0.217612504959	1.43167150021	-0.0744305849075
-0.0622043609619	0.893267869949	0.152030467987	-0.218025684357	1.43117749691	-0.0740649700165
-0.0600447654724	0.892210006714	0.150400280952	-0.217781543732	1.43087649345	-0.0737245082855
-0.0573132038116	0.890568494797	0.148276805878	-0.217355251312	1.43047881126	-0.0732219219208
-0.0545160770416	0.888320922852	0.146191000938	-0.217214345932	1.42997086048	-0.0721938610077
-0.0504102706909	0.888788938522	0.147837162018	-0.21685051918	1.42993271351	-0.0707602500916
-0.0497272014618	0.892687559128	0.151514172554	-0.216233491898	1.42949914932	-0.0693430900574
-0.0495326519012	0.895063877106	0.155025482178	-0.215297222137	1.42904412746	-0.0679972171783
-0.0503549575806	0.894164800644	0.156849980354	-0.214621305466	1.42891001701	-0.0668647289276
-0.0535819530487	0.892289400101	0.15762591362	-0.214173793793	1.42896819115	-0.0655002593994
-0.0519344806671	0.893913030624	0.16036427021	-0.213747262955	1.42891073227	-0.0638742446899
-0.0507400035858	0.893403291702	0.162153840065	-0.212936878204	1.42860090733	-0.062347650528
-0.048362493515	0.893130779266	0.162559747696	-0.212077379227	1.4284362793	-0.0606936216354
-0.0466525554657	0.890936613083	0.163058280945	-0.211379051208	1.42825245857	-0.0586340427399
-0.0461571216583	0.888870716095	0.163280844688	-0.211234092712	1.42808175087	-0.0567803382874
-0.048463344574	0.888930082321	0.164378166199	-0.211323022842	1.42772758007	-0.0545356273651
-0.053218126297	0.891051769257	0.165597081184	-0.211002588272	1.42744505405	-0.052250623703
-0.0549597740173	0.891835212708	0.168300271034	-0.210666179657	1.42696547508	-0.0503784418106
-0.0566463470459	0.891605138779	0.169590353966	-0.210663557053	1.42674434185	-0.0484609603882
-0.0580191612244	0.889548063278	0.168781995773	-0.21080827713	1.42634892464	-0.0466892719269
-0.058648109436	0.886157512665	0.167462468147	-0.210610628128	1.42608296871	-0.044634103775
-0.0593316555023	0.883762598038	0.165110826492	-0.211092233658	1.4258607626	-0.0428004264832
-0.0599722862244	0.884343385696	0.163979172707	-0.211439847946	1.42560625076	-0.0407812595367
-0.0601809024811	0.885610580444	0.164573431015	-0.211585760117	1.42510151863	-0.039345741272
-0.060515165329	0.886514425278	0.165942907333	-0.211097478867	1.42481482029	-0.0384585857391
-0.0588109493256	0.884546279907	0.166373610497	-0.21075963974	1.42438161373	-0.0381556749344
-0.0575346946716	0.882764816284	0.165983915329	-0.210954666138	1.4244941473	-0.0383498668671
-0.0589573383331	0.88175535202	0.16444849968	-0.210924625397	1.42448568344	-0.0393007993698
-0.0590620040894	0.880184650421	0.162726283073	-0.210599422455	1.42431974411	-0.0408246517181
-0.0587859153748	0.878729104996	0.159863352776	-0.210732221603	1.42403018475	-0.0423567295074
-0.057234287262	0.878214359283	0.157205104828	-0.210947990417	1.42360007763	-0.044317483902
-0.0559661388397	0.876779317856	0.154115080833	-0.211067199707	1.42322921753	-0.0468862056732
-0.054399728775	0.874261617661	0.150918602943	-0.211589574814	1.42331647873	-0.0499203205109
-0.0541477203369	0.874914646149	0.149365305901	-0.212446689606	1.42374408245	-0.0530421733856
-0.0534100532532	0.876564264297	0.149464845657	-0.213255882263	1.42423808575	-0.0558891296387
-0.0512175559998	0.880154132843	0.151156067848	-0.213522911072	1.42479526997	-0.0583581924438
-0.0515694618225	0.890715122223	0.155976057053	-0.213923931122	1.42528772354	-0.0601150989532
-0.0552341938019	0.899167060852	0.157941699028	-0.214420318604	1.42576050758	-0.061514377594
-0.0591857433319	0.900847434998	0.15761423111	-0.214765548706	1.42562186718	-0.0628969669342
-0.064124584198	0.898131608963	0.154639482498	-0.215429544449	1.42546069622	-0.0635561943054
-0.0657653808594	0.894805431366	0.151648283005	-0.215895652771	1.42496192455	-0.0642457008362
-0.0660610198975	0.892564058304	0.149683952332	-0.216017246246	1.42470145226	-0.0644207000732
-0.0653851032257	0.891549348831	0.147969007492	-0.216533899307	1.42409014702	-0.0644404888153
-0.0625419616699	0.891933202744	0.147512078285	-0.218332052231	1.42303192616	-0.0638875961304
-0.0594027042389	0.890112400055	0.147543430328	-0.221160173416	1.42180049419	-0.0632767677307
-0.0584642887115	0.890787601471	0.147443652153	-0.224110603333	1.4204608202	-0.0630749464035
-0.0597004890442	0.889050006866	0.147239804268	-0.224727630615	1.42004013062	-0.0628838539124
-0.0619435310364	0.888344764709	0.147503972054	-0.223427295685	1.41917169094	-0.0624506473541
-0.0630693435669	0.888006210327	0.147638916969	-0.220967292786	1.4155164957	-0.0627319812775
-0.0624482631683	0.887527704239	0.147722959518	-0.217881441116	1.40870726109	-0.062915802002
-0.0612382888794	0.88769364357	0.146951436996	-0.216059207916	1.40419387817	-0.0623619556427
-0.0601251125336	0.88458442688	0.14492225647	-0.214689493179	1.40311002731	-0.0615037679672
-0.0599226951599	0.881452560425	0.142827033997	-0.214345693588	1.40285050869	-0.0607283115387
-0.0604653358459	0.880056619644	0.142318606377	-0.214176893234	1.40140473843	-0.060773730278
-0.0606021881104	0.880418539047	0.143740177155	-0.213778972626	1.39765393734	-0.0610498189926
-0.0608894824982	0.882078170776	0.144865632057	-0.213700771332	1.39425373077	-0.0610158443451
-0.0605282783508	0.881258010864	0.144477128983	-0.213873624802	1.39399135113	-0.0600168704987
-0.0611474514008	0.878716230392	0.142496585846	-0.214093208313	1.3945029974	-0.0592720508575
-0.0623552799225	0.875302314758	0.139344453812	-0.214968681335	1.39484596252	-0.0587315559387
-0.0637011528015	0.873713254929	0.137947559357	-0.215852499008	1.39569664001	-0.0584909915924
-0.0647292137146	0.8726811409	0.137539505959	-0.216664552689	1.3959774971	-0.0581206083298
-0.0645353794098	0.872871160507	0.137944936752	-0.217548131943	1.39545154572	-0.0579206943512
-0.0646052360535	0.873059511185	0.138026952744	-0.218577861786	1.39507830143	-0.0574610233307
-0.0641305446625	0.871624469757	0.136840105057	-0.22017788887	1.3962033987	-0.0566679239273
-0.0657663345337	0.871495008469	0.135882377625	-0.221586227417	1.3973120451	-0.0561943054199
-0.0684804916382	0.873967647552	0.136094689369	-0.222225666046	1.39690136909	-0.0566108226776
-0.0701184272766	0.876809835434	0.137452125549	-0.222923755646	1.39634037018	-0.0567371845245
-0.0693452358246	0.877067565918	0.138532161713	-0.224627017975	1.39672064781	-0.0565822124481
-0.0676295757294	0.876287937164	0.139021635056	-0.226955413818	1.39685761929	-0.0565315485001
-0.0674340724945	0.876013040543	0.138920068741	-0.229039669037	1.3959363699	-0.0570499897003
-0.0666449069977	0.87668633461	0.140113353729	-0.230320453644	1.39395105839	-0.057572722435
-0.0655386447906	0.877202272415	0.141166329384	-0.230974674225	1.39204514027	-0.0577656030655
-0.0648860931396	0.878661155701	0.142409682274	-0.23070526123	1.39157819748	-0.056930065155
-0.0648572444916	0.877671957016	0.142660260201	-0.230827093124	1.39224350452	-0.0555493831635
-0.0650975704193	0.874821901321	0.140935182571	-0.231727838516	1.39236545563	-0.054799079895
-0.065505027771	0.872776269913	0.139899730682	-0.232112646103	1.39213478565	-0.0537922382355
-0.0667984485626	0.874642372131	0.141728878021	-0.231754541397	1.3920198679	-0.0525958538055
-0.0697510242462	0.87579703331	0.142629981041	-0.231724500656	1.3913859129	-0.0512390136719
-0.0709748268127	0.873112678528	0.142312049866	-0.232065439224	1.390832901	-0.0498912334442
-0.0717825889587	0.871576786041	0.141535401344	-0.232416629791	1.39092063904	-0.0484435558319
-0.0713233947754	0.870710611343	0.141828775406	-0.232341766357	1.39126515388	-0.0470759868622
-0.0700585842133	0.871608018875	0.143827676773	-0.232100009918	1.3915913105	-0.0456092357635
-0.0699543952942	0.873114585876	0.145353913307	-0.231817722321	1.3915194273	-0.044456243515
-0.0704431533813	0.873031377792	0.145277500153	-0.231374740601	1.39145827293	-0.0431225299835
-0.0686728954315	0.870520353317	0.144951343536	-0.23065662384	1.39197719097	-0.0417280197144
-0.0665283203125	0.864974498749	0.142880439758	-0.230312347412	1.39259397984	-0.0405111312866
-0.0607695579529	0.86034321785	0.143260478973	-0.229937553406	1.39447784424	-0.0387330055237
-0.0592286586761	0.859660387039	0.143427371979	-0.228598594666	1.39868736267	-0.0371110439301
-0.0597467422485	0.863966464996	0.146787524223	-0.226877212524	1.40226125717	-0.0365483760834
-0.0593118667603	0.868744134903	0.151646971703	-0.225303649902	1.40516257286	-0.0369567871094
-0.0587513446808	0.870715856552	0.152997970581	-0.223247766495	1.40923893452	-0.03815305233
-0.059365272522	0.870572805405	0.152829647064	-0.220388412476	1.41378712654	-0.0399714708328
-0.0621235370636	0.871386051178	0.152764797211	-0.217671632767	1.41649806499	-0.0423319339752
-0.064199924469	0.873250484467	0.152710437775	-0.215276479721	1.41824567318	-0.0448853969574
-0.0635442733765	0.875087738037	0.151941299438	-0.214041233063	1.41819679737	-0.047368645668
-0.0612289905548	0.874824285507	0.14924621582	-0.213893890381	1.41661822796	-0.0493719577789
-0.0607218742371	0.873479127884	0.146227836609	-0.213880300522	1.41558754444	-0.0509350299835
-0.0603342056274	0.872651576996	0.144148111343	-0.214624404907	1.41527366638	-0.0518555641174
-0.0609114170074	0.870979309082	0.142125844955	-0.215728282928	1.4145308733	-0.0525736808777
-0.061861038208	0.869077444077	0.138975381851	-0.216599464417	1.41380214691	-0.0538247823715
-0.0637700557709	0.868981122971	0.13647210598	-0.218089580536	1.41366481781	-0.0558454990387
-0.0636291503906	0.871902942657	0.137966394424	-0.220180273056	1.41415584087	-0.0575139522552
-0.064151763916	0.874130249023	0.138847708702	-0.221653461456	1.41418147087	-0.0594863891602
-0.0633697509766	0.875185251236	0.138828396797	-0.22351026535	1.41345250607	-0.0610845088959
-0.0636210441589	0.874982833862	0.137759208679	-0.22518491745	1.41279983521	-0.0624940395355
-0.064108133316	0.87473654747	0.136621832848	-0.227336883545	1.41285085678	-0.0636961460114
-0.0651092529297	0.875145673752	0.136075496674	-0.228471517563	1.41367125511	-0.0646440982819
-0.0656158924103	0.876993894577	0.136833429337	-0.22793340683	1.41430985928	-0.0656479597092
-0.0655083656311	0.879231214523	0.138041257858	-0.227226018906	1.41386890411	-0.0671527385712
-0.0652599334717	0.87953710556	0.138039827347	-0.227118730545	1.41385364532	-0.0680428743362
-0.0647311210632	0.878378152847	0.136955976486	-0.227062702179	1.41426885128	-0.0683408975601
-0.0641493797302	0.877439975739	0.136733412743	-0.228925704956	1.41438162327	-0.0678482055664
-0.0631821155548	0.876090049744	0.135696649551	-0.232516765594	1.41433084011	-0.0674576759338
-0.0619068145752	0.875913619995	0.135991573334	-0.234713315964	1.41445112228	-0.066867351532
-0.0623638629913	0.878342151642	0.138392210007	-0.234235525131	1.41347002983	-0.0658655166626
-0.0637216567993	0.880084037781	0.140511751175	-0.231756210327	1.41191792488	-0.0646936893463
-0.0647304058075	0.879594802856	0.14021396637	-0.229453325272	1.41054153442	-0.0634783506393
-0.0642774105072	0.87680721283	0.138262748718	-0.228288650513	1.40957200527	-0.062816619873
-0.0627021789551	0.874860525131	0.136926412582	-0.227832317352	1.4094042778	-0.0623135566711
-0.0620934963226	0.874794483185	0.137401461601	-0.228026390076	1.40908098221	-0.0616571903229
-0.0627565383911	0.873920202255	0.137565374374	-0.228173732758	1.407507658	-0.0605299472809
-0.0631730556488	0.870208263397	0.136277556419	-0.228448867798	1.4062179327	-0.0590994358063
-0.0649237632751	0.867786884308	0.134320855141	-0.228719711304	1.40577602386	-0.0577884912491
-0.0656294822693	0.867408514023	0.13333594799	-0.229274511337	1.40545451641	-0.0571875572205
-0.0645606517792	0.867193222046	0.133155226707	-0.229166984558	1.40518951416	-0.0569500923157
-0.0653941631317	0.866675376892	0.131888151169	-0.22888469696	1.40509498119	-0.0566481351852
-0.0652561187744	0.863306283951	0.131702184677	-0.228760242462	1.4048897028	-0.05630838871
-0.0645678043365	0.852613925934	0.129688978195	-0.228973388672	1.40473949909	-0.0558207035065
-0.0657317638397	0.844092845917	0.124864220619	-0.229197502136	1.40460753441	-0.0554119348526
-0.0644207000732	0.841715812683	0.123735904694	-0.229155540466	1.40430486202	-0.0552124977112
-0.0611479282379	0.842594861984	0.125325083733	-0.228605031967	1.40426814556	-0.0554256439209
-0.0563900470734	0.845514535904	0.129188299179	-0.226854324341	1.40460073948	-0.0556733608246
-0.0516214370728	0.852197885513	0.134543657303	-0.22576880455	1.40446949005	-0.0555989742279
-0.053165435791	0.856734037399	0.135358572006	-0.225380659103	1.40445888042	-0.055543422699
-0.0570631027222	0.860554456711	0.136002898216	-0.225525617599	1.40465843678	-0.0554699897766
-0.0637180805206	0.866688489914	0.136370182037	-0.225939273834	1.40496265888	-0.0556120872498
-0.0663022994995	0.868447065353	0.13707280159	-0.226699113846	1.40494561195	-0.055727481842
-0.0653507709503	0.870703697205	0.138692617416	-0.227336645126	1.40476918221	-0.0555775165558
-0.064906835556	0.875335693359	0.142049193382	-0.22713470459	1.4052798748	-0.0552132129669
-0.0642831325531	0.877462148666	0.143728494644	-0.226552963257	1.40535378456	-0.0553790330887
-0.063191652298	0.875899553299	0.14367723465	-0.226165771484	1.40517354012	-0.0559109449387
-0.0640392303467	0.875896453857	0.142919301987	-0.22613120079	1.40564453602	-0.0562286376953
-0.0677392482758	0.878424882889	0.142632961273	-0.22628068924	1.40608763695	-0.056374669075
-0.0704126358032	0.879115104675	0.143148899078	-0.226372480392	1.4058932066	-0.0564211606979
-0.0711078643799	0.876194477081	0.14288520813	-0.226588487625	1.40535712242	-0.0565793514252
-0.0694124698639	0.86847782135	0.139546751976	-0.226793050766	1.40512776375	-0.0560796260834
-0.0679025650024	0.861338853836	0.136085510254	-0.226974248886	1.40507888794	-0.0556449890137
-0.0651588439941	0.852497339249	0.132131457329	-0.226959228516	1.40494906902	-0.0551251173019
-0.0624513626099	0.848127365112	0.130215644836	-0.227076530457	1.40458869934	-0.054545044899
-0.0612196922302	0.84649181366	0.129429340363	-0.227024316788	1.40430235863	-0.0538792610168
-0.0600244998932	0.845929145813	0.130757212639	-0.226511478424	1.40399491787	-0.0531575679779
-0.0519413948059	0.841849565506	0.1316665411	-0.225867033005	1.40408432484	-0.0525205135345
-0.0535287857056	0.844413280487	0.132972717285	-0.225792884827	1.4040453434	-0.0518152713776
-0.0546481609344	0.8479180336	0.134382247925	-0.225701570511	1.40381753445	-0.0511606931686
-0.0613036155701	0.855216741562	0.136510014534	-0.225062131882	1.40414786339	-0.0502424240112
-0.0699460506439	0.864462852478	0.138609170914	-0.22440123558	1.40405189991	-0.0492765903473
-0.0735783576965	0.870649337769	0.141936898232	-0.22460603714	1.40330338478	-0.0480828285217
-0.0736675262451	0.872050523758	0.143277406693	-0.224934577942	1.40295934677	-0.0473811626434
-0.0725958347321	0.86723780632	0.142184734344	-0.225244045258	1.40283441544	-0.0466984510422
-0.0698528289795	0.858283758163	0.140518903732	-0.22576379776	1.40250325203	-0.0460343360901
-0.0689122676849	0.852725028992	0.138101577759	-0.226182699203	1.40235638618	-0.045241355896
-0.0682203769684	0.848545312881	0.136784315109	-0.226347923279	1.40201926231	-0.0445705652237
-0.067369222641	0.84742808342	0.137399315834	-0.226563930511	1.40198552608	-0.0439163446426
-0.0652184486389	0.852270126343	0.141551613808	-0.226539134979	1.40198683739	-0.0434643030167
-0.0622410774231	0.855679750443	0.146514177322	-0.226357460022	1.40200340748	-0.043634057045
-0.0594923496246	0.856350898743	0.148085236549	-0.226330280304	1.40210127831	-0.043848991394
-0.0589554309845	0.856622934341	0.149395704269	-0.226261138916	1.40238153934	-0.0442028045654
-0.0571620464325	0.85927939415	0.151976108551	-0.226341724396	1.40247619152	-0.0444378852844
-0.0568771362305	0.858639478683	0.151366472244	-0.225827693939	1.40277028084	-0.0446171760559
-0.0561373233795	0.852748632431	0.146064639091	-0.225175142288	1.40284919739	-0.0449652671814
-0.0584807395935	0.843641281128	0.137699007988	-0.222240209579	1.40312373638	-0.0467097759247
-0.0574779510498	0.844649076462	0.136843323708	-0.221111774445	1.40097928047	-0.0481781959534
-0.056512594223	0.847927331924	0.138242483139	-0.220280408859	1.39870035648	-0.0492651462555
-0.0550882816315	0.848865270615	0.136367201805	-0.217409133911	1.39913082123	-0.0502012968063
-0.053257226944	0.853554487228	0.137106060982	-0.215195417404	1.39967346191	-0.0508686304092
-0.0541710853577	0.858850717545	0.139494180679	-0.214521884918	1.39960920811	-0.0525457859039
-0.0558240413666	0.860664129257	0.137905597687	-0.215571880341	1.3996874094	-0.0547255277634
-0.0577893257141	0.8602206707	0.135450601578	-0.216833353043	1.40045595169	-0.0573275089264
-0.0599682331085	0.860873937607	0.133829593658	-0.217107057571	1.401720047	-0.060137629509
-0.0613884925842	0.86316037178	0.134621620178	-0.21622800827	1.40278601646	-0.0627617835999
-0.0628752708435	0.865166187286	0.135807394981	-0.213705778122	1.40412199497	-0.0649418830872
-0.0652754306793	0.865952253342	0.135425567627	-0.208470344543	1.4054466486	-0.0670037269592
-0.0689928531647	0.864495515823	0.133489489555	-0.199280261993	1.40745890141	-0.0684714317322
-0.071094751358	0.863613605499	0.132358193398	-0.193653106689	1.40904569626	-0.0701413154602
-0.0707325935364	0.861688375473	0.130398511887	-0.193235397339	1.41037762165	-0.0709095001221
-0.0670900344849	0.857784032822	0.127622008324	-0.194987773895	1.41107535362	-0.0727386474609
-0.0638875961304	0.856304883957	0.126062870026	-0.200102090836	1.41386437416	-0.0735106468201
-0.0617756843567	0.85507941246	0.124671816826	-0.206997871399	1.41744828224	-0.0741493701935
-0.0612287521362	0.8542573452	0.123848676682	-0.212631702423	1.41868066788	-0.0749192237854
-0.0626637935638	0.854307174683	0.123218178749	-0.214155673981	1.41878390312	-0.0760403871536
-0.0641949176788	0.853485107422	0.122464776039	-0.214152812958	1.4222894907	-0.0777230262756
-0.0660605430603	0.852364778519	0.121046185493	-0.213670969009	1.42563736439	-0.0798288583755
-0.0668711662292	0.851500749588	0.119697570801	-0.21213555336	1.42787444592	-0.0819662809372
-0.0680162906647	0.849421739578	0.117999315262	-0.209885120392	1.43044936657	-0.0840394496918
-0.0684280395508	0.846428871155	0.11539709568	-0.208558320999	1.43579673767	-0.08616065979
-0.0688931941986	0.844677209854	0.113728284836	-0.208487033844	1.43966329098	-0.0885426998138
-0.0682551860809	0.848294973373	0.117197751999	-0.208956241608	1.44045507908	-0.0911854505539
-0.0670237541199	0.862637758255	0.126149177551	-0.209663391113	1.43922972679	-0.0928280353546
-0.0630643367767	0.868291139603	0.130201458931	-0.2103536129	1.43867373466	-0.0939044952393
-0.0636811256409	0.865488290787	0.127832531929	-0.210916042328	1.43860709667	-0.0943593978882
-0.0640463829041	0.862617492676	0.123649001122	-0.212035179138	1.43744051456	-0.0936900377274
-0.0642054080963	0.862376213074	0.120662212372	-0.213347196579	1.43746066093	-0.0929464101791
-0.0626394748688	0.862156152725	0.119955062866	-0.214301586151	1.43980193138	-0.0917975902557
-0.0618412494659	0.861574888229	0.120142698288	-0.215061664581	1.44263231754	-0.0905907154083
-0.0629997253418	0.859731912613	0.119464874268	-0.215481519699	1.44602799416	-0.0901327133179
-0.0646095275879	0.858029127121	0.120480537415	-0.216908931732	1.45203351974	-0.090127825737
-0.0659306049347	0.857058525085	0.122199416161	-0.218729496002	1.45680212975	-0.09068608284
-0.0666451454163	0.857755184174	0.125314712524	-0.220790863037	1.45729732513	-0.0908267498016
-0.0665035247803	0.859012126923	0.128418445587	-0.225697278976	1.45429086685	-0.090970993042
-0.0650033950806	0.858515739441	0.129199147224	-0.230813264847	1.45218622684	-0.0910441875458
-0.0642428398132	0.858305454254	0.128443479538	-0.233842134476	1.45056509972	-0.0903985500336
-0.0650496482849	0.857622385025	0.125137805939	-0.233266830444	1.44751131535	-0.0892294645309
-0.0617237091064	0.861432552338	0.12535071373	-0.230600595474	1.44713163376	-0.0881550312042
-0.057005405426	0.865675449371	0.127991914749	-0.230014801025	1.44924163818	-0.0878627300262
-0.053227186203	0.870965003967	0.131395220757	-0.230012178421	1.44896864891	-0.0877294540405
-0.0530571937561	0.870449066162	0.129588603973	-0.22967338562	1.44767320156	-0.0874981880188
-0.0544400215149	0.868542432785	0.128294467926	-0.229191541672	1.44751739502	-0.0870370864868
-0.0546236038208	0.872024297714	0.130160212517	-0.229716062546	1.44770956039	-0.0867601633072
-0.0564374923706	0.873141765594	0.131170153618	-0.22961807251	1.44722688198	-0.0864987373352
-0.0569696426392	0.873713970184	0.131703495979	-0.229228496552	1.44684875011	-0.0859396457672
-0.0581035614014	0.87255859375	0.130511522293	-0.227986335754	1.44593334198	-0.0855352878571
-0.0600643157959	0.872317552567	0.129700422287	-0.224598407745	1.44278860092	-0.0848186016083
-0.0610857009888	0.874087333679	0.130685329437	-0.220339298248	1.44038963318	-0.0832952260971
-0.062061548233	0.874045133591	0.130940675735	-0.216225624084	1.44022321701	-0.0820500850677
-0.0630316734314	0.871126651764	0.129546999931	-0.213139057159	1.43937754631	-0.0808709859848
-0.0636374950409	0.868913173676	0.128132462502	-0.211132526398	1.43691062927	-0.0803430080414
-0.0644693374634	0.86776304245	0.128134727478	-0.209898948669	1.43123018742	-0.0804123878479
-0.0634300708771	0.869990587234	0.130300760269	-0.207988262177	1.42544591427	-0.0803525447845
-0.0633788108826	0.870250225067	0.132002592087	-0.204259634018	1.42219614983	-0.080174446106
-0.064204454422	0.870162010193	0.132905244827	-0.200692415237	1.41911172867	-0.0801291465759
-0.0658988952637	0.86896109581	0.132637023926	-0.198458194733	1.41465866566	-0.0802173614502
-0.0668728351593	0.867524385452	0.131408333778	-0.197334527969	1.41281604767	-0.079666018486
-0.0682091712952	0.863340616226	0.127426147461	-0.196301698685	1.41306364536	-0.0792253017426
-0.0701773166656	0.856668710709	0.121993541718	-0.19579577446	1.41264200211	-0.0788623094559
-0.0697977542877	0.854254007339	0.119756817818	-0.195723772049	1.40774047375	-0.07757127285
-0.0683581829071	0.854369401932	0.118677258492	-0.196699619293	1.40526938438	-0.0750203132629
-0.064905166626	0.855968952179	0.119325876236	-0.198914527893	1.40809381008	-0.0715252161026
-0.0668168067932	0.859820604324	0.119077205658	-0.202403306961	1.4131090641	-0.0681259632111
-0.069596529007	0.864691495895	0.120749354362	-0.206112146378	1.4172154665	-0.0661206245422
-0.0731108188629	0.865542650223	0.120651245117	-0.208329200745	1.42217159271	-0.0652806758881
-0.0782995223999	0.866246700287	0.120725274086	-0.207224845886	1.42667067051	-0.0664403438568
-0.0842990875244	0.86777305603	0.122261404991	-0.204715490341	1.42813932896	-0.068484544754
-0.0880463123322	0.869934797287	0.122848272324	-0.202100276947	1.42855596542	-0.0709862709045
-0.0880620479584	0.870273590088	0.121866226196	-0.200756549835	1.42805409431	-0.0734796524048
-0.0843210220337	0.869753360748	0.120008349419	-0.20081281662	1.42741966248	-0.0753316879272
-0.0831236839294	0.870258331299	0.117947936058	-0.201757907867	1.42731308937	-0.0763621330261
-0.0846815109253	0.874361753464	0.117020845413	-0.20298075676	1.42844331264	-0.0767480134964
-0.0891592502594	0.880872964859	0.116816282272	-0.203127145767	1.43060863018	-0.0773726701736
-0.0922214984894	0.881184577942	0.118683934212	-0.202037572861	1.42981803417	-0.0790519714355
-0.0927264690399	0.883853673935	0.121544361115	-0.199695587158	1.42854142189	-0.0805723667145
-0.0943455696106	0.886311531067	0.121522545815	-0.197190523148	1.4282490015	-0.0824928283691
-0.0956711769104	0.889979839325	0.121658563614	-0.195811033249	1.42829918861	-0.0838689804077
-0.0967495441437	0.892757892609	0.122745513916	-0.195183753967	1.42866015434	-0.0846476554871
-0.0973641872406	0.891758441925	0.122276544571	-0.19500541687	1.42911016941	-0.0851843357086
-0.0980536937714	0.890451431274	0.120463252068	-0.194719314575	1.42916667461	-0.085284948349
-0.0993146896362	0.886598825455	0.118398427963	-0.194117069244	1.42884993553	-0.0851123332977
-0.0985352993011	0.884980916977	0.118338108063	-0.19331240654	1.42847263813	-0.0846544504166
-0.0987339019775	0.884328603745	0.118099451065	-0.19229054451	1.42807495594	-0.0841851234436
-0.0990719795227	0.883030891418	0.117911815643	-0.191194534302	1.42790091038	-0.0839359760284
-0.100769519806	0.881790876389	0.117997169495	-0.190898656845	1.42816758156	-0.0831640958786
-0.10197687149	0.879803657532	0.117826342583	-0.190813541412	1.42813134193	-0.082093000412
-0.103070020676	0.878242492676	0.118524551392	-0.190253973007	1.42777371407	-0.0806350708008
-0.103507995605	0.877461194992	0.118963479996	-0.189469814301	1.42738628387	-0.0793316364288
-0.103937387466	0.87780714035	0.120529174805	-0.188120365143	1.42556846142	-0.0793753862381
-0.106295824051	0.878105401993	0.122658967972	-0.18498134613	1.42483890057	-0.0800374746323
-0.108493328094	0.879200220108	0.126628994942	-0.181803941727	1.42934060097	-0.0797326564789
-0.108991861343	0.878955364227	0.129045963287	-0.179489135742	1.43655633926	-0.0802185535431
-0.108580112457	0.878212451935	0.130808353424	-0.178339958191	1.44057810307	-0.0821235179901
-0.108074903488	0.880635261536	0.134476423264	-0.17798948288	1.44060027599	-0.0841836929321
-0.108929395676	0.885279417038	0.138918757439	-0.177195072174	1.43966782093	-0.0850365161896
-0.108887195587	0.887694597244	0.141896128654	-0.175977230072	1.4389424324	-0.0844278335571
-0.109124660492	0.887296438217	0.141527414322	-0.174289226532	1.43756747246	-0.0830149650574
-0.11149597168	0.887364864349	0.139600992203	-0.173363685608	1.43558084965	-0.0809252262115
-0.114992380142	0.886873006821	0.137494802475	-0.172624111176	1.43342423439	-0.0792953968048
-0.116541862488	0.885915279388	0.136862039566	-0.172016382217	1.4324760437	-0.0780704021454
-0.115052461624	0.885902881622	0.136845350266	-0.172112464905	1.43268346786	-0.0772789716721
-0.114008426666	0.887291193008	0.13759124279	-0.172494888306	1.4328571558	-0.0768523216248
-0.112333536148	0.890249967575	0.139394164085	-0.172973632812	1.43330419064	-0.0769412517548
-0.112326622009	0.892770051956	0.140963792801	-0.173020362854	1.43396890163	-0.0773994922638
-0.11403632164	0.893195152283	0.141118049622	-0.172733068466	1.43393397331	-0.0779731273651
-0.115781784058	0.893808603287	0.141162753105	-0.172397136688	1.43386936188	-0.0782227516174
-0.117116451263	0.8938164711	0.141331195831	-0.17199754715	1.43319523335	-0.0786898136139
-0.117515325546	0.893400907516	0.141271114349	-0.171517372131	1.4311953783	-0.0788459777832
-0.116801261902	0.892954111099	0.140073418617	-0.171580791473	1.42896258831	-0.0781705379486
-0.116633892059	0.892867803574	0.13844025135	-0.171982288361	1.42883765697	-0.0775955915451
-0.116303920746	0.892064809799	0.138269305229	-0.172793388367	1.43052446842	-0.0763626098633
-0.116194963455	0.89269900322	0.138612031937	-0.174532651901	1.43081951141	-0.0755500793457
-0.113824129105	0.893162488937	0.139385461807	-0.175745248795	1.42920923233	-0.0755832195282
-0.111911535263	0.881041526794	0.133061408997	-0.176191568375	1.42853474617	-0.0760979652405
-0.110700130463	0.872737169266	0.12738776207	-0.176381349564	1.42848098278	-0.0765118598938
-0.110332965851	0.871433973312	0.124610424042	-0.177088737488	1.42836272717	-0.0762739181519
-0.110498189926	0.870679855347	0.122551202774	-0.177492618561	1.42819464207	-0.0763082504272
-0.111883163452	0.870306253433	0.121135473251	-0.177402019501	1.42827308178	-0.0766754150391
-0.111939191818	0.869949579239	0.120841145515	-0.177311658859	1.42856156826	-0.0768660306931
-0.112236022949	0.870671272278	0.120982646942	-0.177832365036	1.42814409733	-0.0769041776657
-0.111875534058	0.872292995453	0.122092843056	-0.179798126221	1.42486858368	-0.076940536499
-0.110052585602	0.875614404678	0.123920917511	-0.182885885239	1.41954541206	-0.0763578414917
-0.109144210815	0.876622200012	0.12319278717	-0.185938119888	1.41701972485	-0.075560092926
-0.108345746994	0.875937461853	0.122074365616	-0.188282251358	1.41728317738	-0.0741322040558
-0.107782125473	0.873137235641	0.119564056396	-0.19000005722	1.41807425022	-0.073184967041
-0.107005596161	0.871825218201	0.118023753166	-0.19259762764	1.41682887077	-0.0724236965179
-0.106105804443	0.872473478317	0.117826461792	-0.196263790131	1.4124186039	-0.072774887085
-0.104744911194	0.874169588089	0.119030237198	-0.199907541275	1.40523374081	-0.0736125707626
-0.103917598724	0.876014709473	0.120173454285	-0.202738046646	1.39930212498	-0.0737763643265
-0.104199647903	0.875867366791	0.119745254517	-0.205735206604	1.3956823349	-0.0733876228333
-0.104519367218	0.875590324402	0.118933439255	-0.20899772644	1.39272868633	-0.0728746652603
-0.104408025742	0.873547315598	0.116919875145	-0.211227893829	1.39319896698	-0.0716137886047
-0.10386800766	0.870908737183	0.114780664444	-0.211203098297	1.39845693111	-0.0690330266953
-0.103477478027	0.869934082031	0.115028738976	-0.208746194839	1.40770113468	-0.0656625032425
-0.103327989578	0.869039535522	0.115775108337	-0.205971002579	1.41617035866	-0.0636435747147
-0.102384090424	0.86843085289	0.116974234581	-0.205478668213	1.42007958889	-0.0635795593262
-0.100117206573	0.86802983284	0.117639064789	-0.206787347794	1.42166626453	-0.0634214878082
-0.0980327129364	0.868413686752	0.118830919266	-0.2084608078	1.4217312336	-0.0633780956268
-0.0971083641052	0.869648933411	0.120763778687	-0.208147764206	1.42066931725	-0.0630317926407
-0.0980370044708	0.869745016098	0.121735811234	-0.205623626709	1.42004215717	-0.062882900238
-0.0994453430176	0.868844270706	0.121621131897	-0.202299118042	1.42109513283	-0.0628509521484
-0.10005569458	0.866796255112	0.120534658432	-0.199510097504	1.42255115509	-0.0633816719055
-0.0993597507477	0.866737604141	0.120606660843	-0.198363542557	1.42345273495	-0.0641890764236
-0.0990943908691	0.868176698685	0.122440099716	-0.198815345764	1.42396831512	-0.0646299123764
-0.100583553314	0.869647026062	0.124122142792	-0.198857069016	1.42434227467	-0.0649251937866
-0.102603435516	0.870108127594	0.125373005867	-0.197730541229	1.42363715172	-0.0651940107346
-0.104045152664	0.87087893486	0.126102805138	-0.196422338486	1.42232227325	-0.065746307373
-0.10319018364	0.871358633041	0.126664876938	-0.195239543915	1.41985476017	-0.0664682388306
-0.102352619171	0.871995449066	0.126700520515	-0.193961620331	1.415843606	-0.067253112793
-0.101855039597	0.871903896332	0.126847743988	-0.192186594009	1.4146900177	-0.0674377679825
-0.103413581848	0.8723051548	0.126493930817	-0.191093921661	1.41606557369	-0.0667847394943
-0.103426933289	0.871687889099	0.126143693924	-0.190128564835	1.41772818565	-0.0664868354797
-0.103423118591	0.871121883392	0.125942230225	-0.188653707504	1.4214040041	-0.0668820142746
-0.103762626648	0.871754169464	0.127093315125	-0.186324357986	1.4245582819	-0.0683819055557
-0.103360176086	0.875248908997	0.130695462227	-0.184608221054	1.42549645901	-0.0702127218246
-0.103918552399	0.877247810364	0.132739543915	-0.182664871216	1.42702567577	-0.0721507072449
-0.104825258255	0.877855062485	0.134112119675	-0.180693387985	1.42896938324	-0.0740096569061
-0.10511636734	0.885144472122	0.138914704323	-0.178484201431	1.42976200581	-0.0757361650467
-0.104350805283	0.890657186508	0.142470479012	-0.177179813385	1.42967545986	-0.0765912532806
-0.104517936707	0.891825675964	0.142999768257	-0.176908731461	1.42958331108	-0.0769650936127
-0.105194091797	0.890483856201	0.1407777071	-0.177551984787	1.42944717407	-0.07652592659
-0.108635663986	0.892168045044	0.138646125793	-0.178478240967	1.42972445488	-0.075630068779
-0.110089540482	0.892414808273	0.138715744019	-0.178996562958	1.42981386185	-0.0752841234207
-0.109178543091	0.893151283264	0.140098810196	-0.178745269775	1.42959439754	-0.0751529932022
-0.107764959335	0.89284491539	0.140364050865	-0.178309679031	1.42967545986	-0.0753569602966
-0.106812000275	0.892427206039	0.14005279541	-0.1780128479	1.42979717255	-0.0757238864899
-0.106656551361	0.89201593399	0.139476180077	-0.177620887756	1.42995035648	-0.0760415792465
-0.106835603714	0.891693115234	0.138757348061	-0.177463531494	1.43068003654	-0.0758497714996
-0.106074094772	0.890926837921	0.138128399849	-0.178711652756	1.43247330189	-0.0751495361328
-0.104862213135	0.890408039093	0.137531995773	-0.180748939514	1.43375086784	-0.07504093647
-0.103419542313	0.891825675964	0.138643741608	-0.183498620987	1.43267428875	-0.0755958557129
-0.100836515427	0.893696784973	0.140021204948	-0.189012050629	1.42978310585	-0.0756080150604
-0.0968897342682	0.89337682724	0.140244841576	-0.199199914932	1.42598521709	-0.0748475790024
-0.0941741466522	0.890809774399	0.138531446457	-0.212342262268	1.42407536507	-0.073121547699
-0.0913114547729	0.887534379959	0.137090921402	-0.23150396347	1.42191278934	-0.073130607605
-0.0898246765137	0.883994817734	0.136673331261	-0.247535705566	1.41667687893	-0.0748959779739
-0.0911068916321	0.884016990662	0.136881351471	-0.252432584763	1.40967476368	-0.0748891830444
-0.0910034179688	0.888882637024	0.139371871948	-0.250808954239	1.40342974663	-0.0741550922394
-0.0873537063599	0.893697023392	0.141596913338	-0.248987674713	1.40021586418	-0.0744036436081
-0.0840182304382	0.89378285408	0.14006960392	-0.247873306274	1.40015912056	-0.0747811794281
-0.0835137367249	0.88981628418	0.135270357132	-0.244986772537	1.40036344528	-0.0754373073578
-0.0862801074982	0.882504940033	0.129325866699	-0.243206977844	1.39847564697	-0.0760478973389
-0.0889139175415	0.874426603317	0.123764395714	-0.242305040359	1.3948829174	-0.0767880678177
-0.0892577171326	0.871577501297	0.120384335518	-0.241644859314	1.39302861691	-0.0764459371567
-0.0889222621918	0.869956731796	0.118229627609	-0.241793870926	1.39233243465	-0.0753650665283
-0.0881955623627	0.869884490967	0.11744427681	-0.2406873703	1.39286506176	-0.0732201337814
-0.0892632007599	0.870255947113	0.116611361504	-0.238797187805	1.39386892319	-0.0714776515961
-0.0910320281982	0.871112108231	0.116428732872	-0.237471342087	1.39400494099	-0.0704057216644
-0.0896263122559	0.868523359299	0.115281105042	-0.2360227108	1.39289593697	-0.0703840255737
-0.0903599262238	0.86585521698	0.114407062531	-0.235229253769	1.39205646515	-0.0705472230911
-0.0902562141418	0.86089849472	0.113812088966	-0.234572649002	1.39199745655	-0.0710828304291
-0.0887267589569	0.853482246399	0.1133685112	-0.234005689621	1.39269113541	-0.0715065002441
-0.0876839160919	0.851073980331	0.113785982132	-0.233461380005	1.3937844038	-0.0718672275543
-0.0862681865692	0.846080303192	0.113599896431	-0.232814788818	1.39462697506	-0.072120308876
-0.0871648788452	0.843537569046	0.113065719604	-0.232656478882	1.39462387562	-0.0718539953232
-0.088761806488	0.838110685349	0.110986590385	-0.233019828796	1.39399528503	-0.0713677406311
-0.0897965431213	0.834764242172	0.110315680504	-0.233991384506	1.39380335808	-0.0707670450211
-0.0902845859528	0.834566116333	0.111398458481	-0.235011816025	1.39377355576	-0.0701973438263
-0.0899789333344	0.83388209343	0.112552404404	-0.236629724503	1.39386880398	-0.0693829059601
-0.0891995429993	0.833476066589	0.111871004105	-0.2396671772	1.39350700378	-0.0686016082764
-0.0883765220642	0.832916498184	0.111301064491	-0.242040872574	1.39383471012	-0.0675282478333
-0.0893368721008	0.831035852432	0.109593629837	-0.244401216507	1.39412462711	-0.0668983459473
-0.0896685123444	0.831203222275	0.109199285507	-0.24585723877	1.39353048801	-0.0661714076996
-0.088746547699	0.83193397522	0.11027097702	-0.246779441833	1.3930760622	-0.0651222467422
-0.0873823165894	0.83277797699	0.111857175827	-0.24687743187	1.39288640022	-0.0638856887817
-0.0868830680847	0.834925174713	0.114346981049	-0.246634721756	1.39316427708	-0.0624053478241
-0.0875771045685	0.83628320694	0.116318702698	-0.247569084167	1.3921251297	-0.061705827713
