-0.0430991649628	0.878527641296	0.157821059227	-0.263248920441	1.4429359436	-0.0593025684357
-0.0441620349884	0.877303600311	0.15725684166	-0.263304710388	1.44351482391	-0.0603160858154
-0.045432806015	0.878412723541	0.157798051834	-0.263895750046	1.44492280483	-0.0619173049927
-0.0470459461212	0.879375696182	0.158006429672	-0.264451742172	1.44787859917	-0.0639861822128
-0.048595905304	0.87993144989	0.157954216003	-0.262082576752	1.4517365694	-0.0663152933121
-0.0516948699951	0.881204128265	0.158034086227	-0.256860017776	1.45395541191	-0.0695348978043
-0.054838180542	0.882386445999	0.157869577408	-0.246510505676	1.45547473431	-0.0744495391846
-0.0578157901764	0.884599924088	0.157246589661	-0.234264135361	1.45681965351	-0.0808999538422
-0.0580561161041	0.888243675232	0.156920909882	-0.225521326065	1.45626783371	-0.0857956409454
-0.0597009658813	0.887870311737	0.154854536057	-0.217124938965	1.45624744892	-0.0909495353699
-0.0621213912964	0.885830163956	0.152740240097	-0.210584163666	1.45552897453	-0.095876455307
-0.0638129711151	0.886753082275	0.152683734894	-0.206349372864	1.45412361622	-0.0985577106476
-0.0677247047424	0.886436223984	0.153601646423	-0.202908992767	1.45306110382	-0.101142883301
-0.0707969665527	0.886060237885	0.155025005341	-0.199904441833	1.45164275169	-0.103733301163
-0.0732340812683	0.885504722595	0.156770586967	-0.197973251343	1.44973945618	-0.105668187141
