6.0094537735	-0.297193050385	-5.63634777069	2.64026355743	13.7269010544	33.0778083801
5.8881187439	-0.408466339111	-5.51485443115	2.6097574234	13.5280656815	32.9597587585
5.51372623444	-0.38232678175	-5.35044670105	2.30540108681	13.2377729416	32.5841636658
4.56751871109	-0.366974622011	-5.03612136841	-1.01868212223	13.4672241211	31.1127471924
3.00778317451	-1.31241321564	-5.03726863861	-7.35621547699	14.5396795273	28.8028182983
0.128003284335	-1.80846250057	-4.65161323547	-12.5812940598	14.6843299866	26.9069957733
-2.72390389442	-2.61101603508	-5.21990871429	-16.1423969269	13.9927520752	25.4469547272
-5.13530683517	-3.95657682419	-5.01317310333	-19.477230072	12.9251823425	22.9055519104
-7.60500764847	-4.77572774887	-4.7254986763	-23.307138443	12.1676626205	19.1574935913
-8.94948482513	-5.19541692734	-5.01310062408	-27.7433071136	12.0863933563	15.5330972672
-10.5024852753	-5.7942700386	-5.49993467331	-31.5294589996	12.6957006454	13.467962265
-11.8575954437	-5.64791107178	-5.77496862411	-31.5000553131	13.0344495773	13.4216814041
-15.8077907562	-5.83017539978	-4.99104213715	-28.6650886536	12.7162361145	14.6026592255
-20.1274414062	-5.81028747559	-1.82157671452	-27.5854873657	12.535405159	15.0620546341
-25.0443325043	-5.31281805038	2.17618393898	-27.549621582	12.526843071	15.260351181
-28.0572128296	-4.51383972168	5.385430336	-27.9157619476	12.6910686493	15.4957313538
-29.2981033325	-4.36199855804	8.09900856018	-28.1254673004	13.052066803	15.6112594604
-28.9398403168	-4.3250837326	7.51162958145	-27.9821128845	13.3820114136	15.694190979
-28.3066806793	-4.02903556824	7.71156311035	-27.5540008545	13.6551847458	15.8873376846
-29.087884903	-3.88639998436	7.49613904953	-27.2126216888	13.7117910385	16.109796524
-29.4634780884	-3.06470370293	7.48864269257	-27.391046524	13.9843130112	16.160112381
