0.0	-0.0	132.844604492	-130.096878052	88.8343048096	166.74659729
0.0	-0.0	132.84211731	-130.463287354	88.9743118286	166.885269165
0.0	-0.0	132.347106934	-130.271072388	88.5151519775	166.940414429
0.0	-0.0	128.628112793	-128.773422241	80.2521057129	167.264343262
0.0	-0.0	121.101768494	-128.305923462	66.2527084351	169.116912842
0.0	-0.0	119.144302368	-128.468963623	55.8460388184	169.665435791
0.0	-0.0	117.783302307	-127.570228577	46.3697776794	169.278503418
0.0	-0.0	114.777389526	-123.855941772	34.0149345398	168.946533203
0.0	-0.0	110.732421875	-119.773262024	22.4888038635	169.295715332
0.0	-0.0	105.279693604	-117.072776794	14.027879715	168.883132935
0.0	-0.0	91.25415802	-114.127128601	8.41148281097	168.67527771
0.0	-0.0	66.5447998047	-112.200767517	5.38961458206	168.801025391
0.0	-0.0	69.082824707	-111.361358643	4.84143829346	168.643188477
0.0	-0.0	69.7597351074	-113.195610046	5.74015522003	168.831802368
0.0	-0.0	75.0735778809	-114.131622314	6.76298856735	167.980514526
0.0	-0.0	79.872833252	-112.107040405	6.93893432617	168.60798645
0.0	-0.0	83.4690475464	-110.511199951	6.72558689117	169.414932251
0.0	-0.0	84.9349975586	-108.980255127	7.88523006439	168.964004517
0.0	-0.0	83.01978302	-107.144073486	6.82753419876	169.428527832
0.0	-0.0	81.7640457153	-106.227157593	2.12478423119	170.284881592
0.0	-0.0	77.8523635864	-103.603057861	-5.44554948807	172.661376953
0.0	-0.0	78.2726745605	-102.026420593	-6.26148509979	173.576187134
0.0	-0.0	79.832611084	-103.557571411	-0.0515458881855	171.779998779
0.0	-0.0	80.7195205688	-99.641960144	8.84871006012	170.207260132
0.0	-0.0	82.259147644	-96.0843505859	25.1613063812	167.588973999
0.0	-0.0	81.611076355	-98.5702590942	37.8590354919	164.998931885
0.0	-0.0	82.0759353638	-105.031082153	36.4633522034	164.740463257
0.0	-0.0	80.7250061035	-111.618118286	33.9624519348	165.02053833
0.0	-0.0	70.7198867798	-115.700378418	33.218208313	164.582550049
0.0	-0.0	49.5573425293	-118.890335083	31.7619724274	163.741638184
0.0	-0.0	51.8142662048	-123.607185364	32.4343070984	162.972640991
0.0	-0.0	58.5053443909	-130.446014404	32.7868728638	162.562576294
0.0	-0.0	64.7061843872	-137.507797241	31.2756481171	163.4427948
0.0	-0.0	68.6940078735	-145.214935303	29.341791153	163.911880493
0.0	-0.0	74.3628540039	-147.056655884	29.0912189484	164.091262817
0.0	-0.0	74.7409973145	-143.938766479	29.1872634888	164.914428711
0.0	-0.0	74.667678833	-140.140197754	28.0826339722	165.550094604
0.0	-0.0	77.0667877197	-138.127792358	26.7987995148	165.159500122
0.0	-0.0	75.6665496826	-137.430175781	25.409734726	165.205062866
0.0	-0.0	75.1257553101	-136.528457642	23.6986904144	165.000915527
0.0	-0.0	74.863899231	-131.562438965	21.9722366333	167.889953613
0.0	-0.0	74.4681549072	-122.937866211	20.3747234344	172.965896606
0.0	-0.0	74.3809661865	-119.215881348	19.8224334717	173.931472778
0.0	-0.0	74.3637161255	-120.519950867	19.6097812653	171.692337036
0.0	-0.0	74.3235855103	-126.665657043	19.2665901184	167.922683716
0.0	-0.0	74.0394287109	-118.113876343	19.6009578705	172.902160645
0.0	-0.0	73.9498672485	-94.5579910278	21.3274536133	-178.990127563
0.0	-0.0	74.1771240234	-75.2528381348	22.9577236176	-175.115036011
0.0	-0.0	74.4063262939	-70.896522522	22.253692627	-176.361984253
0.0	-0.0	74.1119689941	-78.8830871582	21.2270488739	179.803314209
0.0	-0.0	73.9760971069	-96.5211486816	19.8826618195	174.718505859
0.0	-0.0	73.5126571655	-112.949424744	17.8386726379	171.064758301
0.0	-0.0	73.3865127563	-126.18787384	14.9581079483	167.343063354
0.0	-0.0	73.3357772827	-139.637802124	12.8674287796	161.160827637
0.0	-0.0	73.2592468262	-151.926940918	11.8206338882	154.403884888
0.0	-0.0	73.2030639648	-160.474014282	10.7114810944	149.132598877
0.0	-0.0	73.3424606323	-161.198974609	11.6513690948	149.187057495
0.0	-0.0	73.7759857178	-159.949890137	17.8283729553	150.501831055
0.0	-0.0	73.810760498	-157.371261597	21.8372573853	151.298568726
0.0	-0.0	73.5105438232	-157.917098999	21.4257926941	151.165039062
0.0	-0.0	73.4262542725	-158.41368103	21.7047519684	151.699020386
0.0	-0.0	71.5989532471	-156.20475769	24.8941078186	152.653060913
0.0	-0.0	68.9868927002	-154.534133911	25.949716568	153.301544189
0.0	-0.0	61.3670692444	-153.802505493	24.108335495	153.544616699
0.0	-0.0	58.078754425	-152.843063354	23.4600849152	154.315551758
0.0	-0.0	54.8990516663	-152.334396362	25.7300109863	154.330352783
0.0	-0.0	55.3053855896	-151.814926147	27.2199783325	154.107086182
0.0	-0.0	58.2921142578	-152.328826904	25.9561862946	154.218841553
0.0	-0.0	72.9685211182	-152.656997681	25.1989955902	154.845458984
