0.170874595642	1.19360995293	0.0992143154144	-0.137074947357	1.48331320286	-0.166470050812
0.169747829437	1.19417130947	0.0992835760117	-0.137091159821	1.4836448431	-0.167382001877
0.169341564178	1.19392347336	0.0999079942703	-0.138058423996	1.48415052891	-0.16812312603
0.169394254684	1.19334924221	0.10021853447	-0.139108896255	1.48483514786	-0.168387413025
0.165593147278	1.19324100018	0.0997903347015	-0.139964342117	1.48526370525	-0.168611526489
0.146403074265	1.19108068943	0.0998089313507	-0.14095044136	1.48526108265	-0.168573617935
0.132791996002	1.18809318542	0.10248708725	-0.142723321915	1.4855735302	-0.168173313141
0.121930360794	1.18075978756	0.104427456856	-0.14556145668	1.48458302021	-0.167336940765
0.113594055176	1.17519307137	0.10525727272	-0.148887634277	1.48329162598	-0.165983915329
