-0.0993337631226	1.17877745628	0.150817036629	-0.276360988617	1.48243284225	-0.0935473442078
-0.0990746021271	1.17827117443	0.151285648346	-0.276251077652	1.48246192932	-0.093597650528
-0.0985701084137	1.177947402	0.151291370392	-0.275801181793	1.48245167732	-0.0935049057007
-0.0993165969849	1.17746222019	0.151141524315	-0.274003267288	1.47986328602	-0.0928131341934
-0.101526260376	1.17485284805	0.149447083473	-0.271368741989	1.4740588665	-0.0903313159943
-0.104411125183	1.17101442814	0.14661359787	-0.268768548965	1.46593010426	-0.0871156454086
-0.10363483429	1.17148149014	0.145897626877	-0.266201257706	1.45707070827	-0.0839359760284
-0.102054357529	1.17356848717	0.145921230316	-0.263617038727	1.449696064	-0.0811972618103
-0.101370811462	1.1742875576	0.1453551054	-0.261075019836	1.44704627991	-0.0791231393814
-0.100463151932	1.17513751984	0.146906614304	-0.258833169937	1.44425034523	-0.0786697864532
-0.100291728973	1.1775560379	0.146387934685	-0.257538318634	1.43819582462	-0.0782585144043
-0.0990920066833	1.17902803421	0.144004821777	-0.256326436996	1.43586719036	-0.0763067007065
-0.0965712070465	1.18814861774	0.133030653	-0.254063129425	1.43654060364	-0.0744619369507
-0.0922071933746	1.19130003452	0.129970550537	-0.251576423645	1.43613433838	-0.0736589431763
-0.0568795204163	1.17661392689	0.175324440002	-0.248028993607	1.43593466282	-0.0739314556122
-0.0178499221802	1.13955461979	0.193666219711	-0.242296934128	1.43630897999	-0.0764496326447
-0.01917719841	1.13572311401	0.188704967499	-0.236781597137	1.43744468689	-0.0776371955872
-0.0247848033905	1.15021216869	0.181707859039	-0.232991218567	1.43803060055	-0.0784970521927
-0.0195107460022	1.17186784744	0.171456098557	-0.227974176407	1.44136691093	-0.0809924602509
-0.020626783371	1.19640028477	0.150739073753	-0.22521853447	1.44231748581	-0.0834639072418
-0.0300619602203	1.20847594738	0.128083229065	-0.22619843483	1.44285345078	-0.0838191509247
-0.0361485481262	1.21020829678	0.122226715088	-0.228178739548	1.44319617748	-0.0837824344635
-0.0264682769775	1.19576656818	0.149832248688	-0.229546070099	1.44233489037	-0.0845742225647
-0.0203912258148	1.16140139103	0.171092271805	-0.2307908535	1.44131052494	-0.0853108167648
-0.0367503166199	1.16200125217	0.159875273705	-0.232132196426	1.44177567959	-0.0838499069214
-0.0396444797516	1.17036354542	0.157761931419	-0.233547449112	1.44231414795	-0.0826854705811
-0.0496776103973	1.17847502232	0.146841168404	-0.237366437912	1.44262468815	-0.0817170143127
-0.0570559501648	1.18193650246	0.134944677353	-0.241456747055	1.443166852	-0.0807349681854
-0.0612709522247	1.18356585503	0.133448600769	-0.243071556091	1.4438726902	-0.0805308818817
-0.0616528987885	1.19129776955	0.131102800369	-0.242899417877	1.44443047047	-0.080716252327
-0.0627207756042	1.1966855526	0.126091957092	-0.242700576782	1.44423866272	-0.0805207490921
-0.062420129776	1.19834363461	0.126754641533	-0.242248773575	1.44355225563	-0.0806171894073
-0.0624570846558	1.19283878803	0.129859685898	-0.238105773926	1.44212770462	-0.0813895463943
-0.0627291202545	1.19040572643	0.13002204895	-0.234257936478	1.44156038761	-0.0811551809311
-0.0628492832184	1.18924260139	0.128484964371	-0.23381114006	1.44100511074	-0.0802366733551
-0.0608901977539	1.19298624992	0.12552690506	-0.23449921608	1.44088387489	-0.0798696279526
-0.0596520900726	1.19669854641	0.126540660858	-0.233844041824	1.44119894505	-0.0801203250885
-0.0587673187256	1.19813430309	0.12832570076	-0.230963945389	1.44194090366	-0.0815799236298
-0.0591557025909	1.19755852222	0.129232645035	-0.228426933289	1.44208621979	-0.0826072692871
-0.0586006641388	1.19783997536	0.128607153893	-0.227772474289	1.44179153442	-0.0827808380127
-0.0585503578186	1.19916951656	0.12621319294	-0.226985931396	1.44153761864	-0.0827249288559
-0.0582566261292	1.20375156403	0.119998216629	-0.226868391037	1.44132983685	-0.0824048519135
-0.0393605232239	1.18157970905	0.161145687103	-0.22749710083	1.44095253944	-0.083075761795
-0.0319626331329	1.15817439556	0.168852090836	-0.22816157341	1.44095051289	-0.0839161872864
-0.0417206287384	1.16943573952	0.16208922863	-0.229190826416	1.44077348709	-0.0827988386154
-0.0436697006226	1.18802940845	0.154807806015	-0.230154037476	1.44180428982	-0.0828332901001
-0.0414798259735	1.20481598377	0.143201947212	-0.23152422905	1.44560492039	-0.0823304653168
-0.0492007732391	1.21340882778	0.127838015556	-0.233737468719	1.44887006283	-0.0824507474899
-0.0528156757355	1.21575474739	0.123426914215	-0.235969781876	1.4532020092	-0.0816094875336
-0.0565469264984	1.21535480022	0.119935750961	-0.236662149429	1.45311617851	-0.0817781686783
-0.0588395595551	1.21630895138	0.117814779282	-0.236377239227	1.45023584366	-0.0803415775299
-0.061457157135	1.21694850922	0.113059282303	-0.235184192657	1.44971144199	-0.077175617218
-0.0641021728516	1.21926569939	0.107984542847	-0.23427438736	1.44855821133	-0.0758253335953
-0.0649483203888	1.2240613699	0.100748300552	-0.234243392944	1.44737303257	-0.0751440525055
-0.0667595863342	1.2303545475	0.0911772251129	-0.234719753265	1.44742000103	-0.0750604867935
-0.0583446025848	1.22880065441	0.11407494545	-0.235106468201	1.44802260399	-0.0762476921082
-0.0531928539276	1.21703493595	0.130007505417	-0.235096931458	1.44837760925	-0.077340722084
-0.0623452663422	1.21159946918	0.126894593239	-0.235107898712	1.44843614101	-0.0771983861923
-0.0585072040558	1.2175283432	0.130053758621	-0.235322237015	1.44820916653	-0.0773861408234
-0.0547704696655	1.22277438641	0.130845189095	-0.235950946808	1.45349657536	-0.0771570205688
-0.0552463531494	1.22256398201	0.131553173065	-0.237761497498	1.45909047127	-0.0779469013214
-0.0575954914093	1.22002458572	0.131227374077	-0.239728689194	1.46332907677	-0.0793416500092
-0.0597791671753	1.21818292141	0.130703449249	-0.241020441055	1.46497702599	-0.080991268158
-0.0607776641846	1.21875667572	0.129962682724	-0.242338418961	1.46493577957	-0.0823081731796
-0.0609123706818	1.22092986107	0.130078554153	-0.244759082794	1.4630368948	-0.0823202133179
-0.061847448349	1.21915483475	0.128748178482	-0.251467943192	1.46014583111	-0.0807420015335
-0.0622210502625	1.21667766571	0.127154827118	-0.257451295853	1.45915126801	-0.078311920166
