-12.6714906693	-54.7429046631	128.978439331	2.0922627449	-0.0913255810738	-4.1495847702
-12.5544586182	-54.7346725464	128.435241699	1.88325023651	-0.210013106465	-4.17271709442
-13.0010356903	-54.6482505798	128.843429565	1.98743569851	-0.564508974552	-4.17327308655
-13.3838863373	-54.8573455811	128.149581909	2.64169740677	-1.87122178078	-3.92962479591
-16.64311409	-56.0511894226	130.934814453	4.02056741714	-5.13289642334	-3.76810622215
-18.5193138123	-57.129360199	132.583847046	5.38528585434	-10.8412570953	-3.88069844246
-18.6524028778	-58.0635108948	132.18586731	6.21118927002	-14.0175905228	-4.23472833633
-19.6634960175	-59.3262138367	133.565841675	7.14944553375	-15.0521469116	-4.64818668365
-25.4324855804	-64.629737854	137.844924927	8.03091430664	-15.2234601974	-5.08531427383
4.532766819	-64.4463424683	90.4666748047	8.36526489258	-15.8633489609	-5.22378921509
27.8367881775	-42.9518318176	46.5951004028	8.4440164566	-16.6403903961	-5.25903940201
5.8941078186	-47.6198539734	69.9217453003	8.58191204071	-16.650226593	-5.29185199738
-3.69110012054	-46.9860420227	76.8297653198	8.11261844635	-16.608171463	-4.7791929245
-4.44333314896	-48.7088851929	81.4740066528	7.73889875412	-17.1032180786	-4.5629491806
-5.54586696625	-51.6686325073	96.7673568726	7.59795427322	-17.6015491486	-4.39976835251
0.711903631687	-55.5412826538	95.2147293091	7.55873918533	-18.7494773865	-4.29569101334
9.50037002563	-56.887008667	88.7365188599	7.89745664597	-20.3897609711	-4.56990671158
11.7752943039	-55.8587989807	87.8452301025	8.80005645752	-23.0593204498	-5.11856412888
16.7873840332	-55.2972869873	87.3765716553	9.8561000824	-24.6038208008	-6.00459575653
24.779718399	-50.4786071777	81.1483764648	11.0454053879	-23.9681911469	-6.69044494629
36.9255638123	-29.1358680725	45.3049354553	11.6335420609	-22.6782588959	-7.00304698944
26.6195106506	-40.8446273804	62.3949890137	11.6887130737	-22.0463161469	-6.77662229538
27.4493598938	-35.5866775513	55.1276359558	11.2568283081	-20.8049869537	-6.43848276138
27.0789871216	-34.7887954712	54.2269325256	10.9995613098	-19.1330738068	-6.22458124161
22.1830501556	-33.0782241821	56.128944397	10.6607074738	-16.722650528	-5.83636569977
14.4843664169	-32.4905357361	59.9673538208	10.1411581039	-15.6076889038	-5.34281015396
6.42028331757	-41.5857620239	73.9194793701	9.58663272858	-15.6257190704	-4.96759223938
6.7941493988	-46.3637313843	80.8159179688	9.41654205322	-15.9510965347	-4.88824367523
7.79933261871	-49.5506439209	85.5652923584	9.58721637726	-15.9947538376	-4.94981622696
10.2399291992	-51.6688461304	87.6150283813	9.59950828552	-16.1228275299	-5.16371297836
14.0737886429	-55.9984512329	89.5207519531	9.68077659607	-16.2004184723	-5.34938669205
10.5465688705	-61.9324684143	96.5076446533	10.0706720352	-16.7445812225	-5.66741991043
9.82990455627	-64.033203125	97.5280151367	10.4134197235	-17.3347129822	-5.91994524002
11.6761407852	-63.9311408997	94.8945083618	10.6077814102	-16.9660320282	-5.88702869415
16.9560184479	-60.5769195557	81.7694396973	10.943274498	-16.3870182037	-5.96544313431
16.0295238495	-55.0298461914	68.4646606445	10.9517364502	-16.0977840424	-5.66073131561
15.8459434509	-53.5663795471	64.4297561646	10.4181318283	-15.615237236	-5.31793928146
8.85045146942	-53.859588623	71.3844833374	9.22591209412	-15.2324380875	-4.63485717773
7.84166669846	-53.3271980286	71.9603881836	8.32729148865	-15.0844202042	-4.23091268539
8.11968231201	-53.1148834229	72.7202301025	8.06709861755	-16.1619815826	-4.07692098618
7.59169483185	-53.082862854	75.3516845703	8.05253982544	-17.3468170166	-4.22557115555
8.54585170746	-53.0256996155	76.4467544556	8.07046413422	-17.45403862	-4.40242004395
9.12425422668	-53.0542259216	76.2900466919	8.59359455109	-16.8880653381	-4.59443950653
13.4804430008	-51.0127182007	68.3555984497	10.4925584793	-16.2174797058	-5.01175642014
10.2577133179	-50.5215072632	66.7848205566	11.4953861237	-15.4911775589	-5.34130334854
-1.157995224	-50.190032959	73.5170669556	11.4990367889	-14.6693735123	-5.13316679001
-4.53387880325	-49.4945487976	76.1435241699	12.4378795624	-14.0932312012	-5.01239109039
-5.35390949249	-49.636554718	78.6210708618	15.0614109039	-13.9067153931	-4.59039258957
-5.02077388763	-49.7184524536	79.7408676147	16.0901966095	-13.993273735	-4.35482263565
-9.61823558807	-49.7073440552	88.7080383301	15.275434494	-14.217625618	-4.09874105453
-20.2640628815	-50.323135376	112.496147156	13.4070510864	-14.6138849258	-3.65549206734
-28.5385932922	-51.7108230591	131.699783325	11.868478775	-14.9437303543	-3.12339639664
-20.2950305939	-53.8862304688	122.933280945	11.170589447	-14.9751138687	-2.81272268295
-10.0610570908	-55.5913124084	104.322990417	11.2974452972	-14.88377285	-2.80546355247
7.80260562897	-51.7326011658	63.2610015869	11.0915689468	-14.8997783661	-2.62311530113
-2.8588886261	-53.5330734253	68.9955215454	10.4165735245	-15.6631011963	-2.31155896187
-21.5208854675	-52.2456016541	91.1756362915	9.4569234848	-16.1730728149	-1.79272162914
-20.5589389801	-52.8940696716	92.396697998	8.78008937836	-16.3994789124	-1.42964816093
-20.896522522	-53.8473815918	98.7670059204	8.81739234924	-16.2778778076	-1.40420758724
-19.2768440247	-55.1078567505	99.7133407593	8.96169757843	-16.3695716858	-1.49559998512
-20.7487602234	-54.9427490234	102.267677307	8.42782688141	-17.6641044617	-1.27015304565
-20.0655670166	-54.8533935547	102.226135254	7.60208272934	-20.2929172516	-1.09629523754
-19.1442661285	-54.3382377625	101.688621521	7.03654575348	-20.717256546	-1.04385006428
-18.8826732635	-54.4175224304	101.887023926	6.9007563591	-19.7027950287	-1.38509953022
-19.276802063	-55.1041107178	102.5570755	7.51272773743	-18.9342250824	-1.64621984959
-20.5820903778	-56.9404602051	104.691192627	7.77409791946	-18.8891162872	-1.68954098225
-6.85730171204	-61.2085838318	83.7352905273	7.81635904312	-19.1370773315	-1.61793410778
21.4910182953	-52.094291687	37.7665672302	7.94034147263	-19.4880123138	-1.6319527626
10.8155260086	-57.1001739502	54.7967224121	8.26383876801	-19.3395824432	-1.61520385742
7.62669372559	-55.8692359924	57.1066741943	8.44742679596	-19.0413913727	-1.5552932024
4.54416751862	-55.5168495178	63.339805603	8.60114002228	-18.9719982147	-1.55992758274
6.50709962845	-55.1669845581	63.624080658	8.94181442261	-18.828289032	-1.64188170433
7.62066078186	-56.0531959534	66.3336715698	9.44860458374	-18.6805896759	-1.71987092495
9.11710357666	-54.9373168945	67.3859176636	9.88929176331	-19.0540714264	-1.50142264366
7.77950811386	-54.6585960388	71.8751907349	9.8625087738	-19.5660800934	-1.35270833969
12.9595890045	-53.3257865906	71.5493011475	9.85477924347	-19.4558601379	-1.41868567467
22.7504463196	-52.8993148804	67.835357666	9.9223241806	-18.8533592224	-1.47325229645
27.5677833557	-50.4086990356	49.9782791138	9.86108493805	-18.6106948853	-1.6811248064
26.11054039	-44.5004425049	23.5500488281	9.7767829895	-18.3161392212	-1.80116558075
16.9438762665	-49.0486793518	29.4903450012	9.7989654541	-18.0287303925	-1.68994474411
12.4652061462	-49.9676399231	32.4405517578	9.77112865448	-17.9368991852	-1.60402095318
10.5938396454	-49.1456413269	32.7152557373	9.63072395325	-17.940158844	-1.56322455406
6.68864440918	-46.6491508484	31.1399211884	9.49439048767	-17.7870082855	-1.46056902409
3.75154471397	-44.0294952393	30.2303333282	9.44407463074	-17.5658874512	-1.34816122055
-1.45871090889	-44.4933547974	38.348285675	9.38868808746	-17.2546577454	-1.1632720232
0.390765756369	-46.7713699341	45.1560020447	9.56570339203	-18.0857200623	-1.1314817667
5.28925418854	-49.202507019	48.0572509766	9.55408382416	-18.4945144653	-1.06393253803
8.29282569885	-54.0007896423	55.8897705078	9.60268783569	-18.8607063293	-1.12750327587
2.32932877541	-61.2927398682	79.4966888428	9.50691890717	-19.0841464996	-1.11872041225
-2.74302124977	-66.8500976562	94.7609634399	9.3926820755	-18.9680480957	-1.1151689291
-0.412139713764	-69.05493927	95.6210861206	9.44002723694	-18.6131763458	-1.19913554192
4.91909074783	-70.157623291	92.9107437134	9.64108371735	-18.124288559	-1.33378314972
16.3198051453	-75.6471481323	88.280670166	10.1458387375	-17.2727127075	-1.49657166004
32.3511619568	-78.4072875977	77.6093597412	10.7435483932	-16.5254573822	-1.44908773899
54.8082733154	-73.63331604	50.3658561707	11.1323385239	-16.0394058228	-1.434440732
43.041721344	-55.7966423035	34.3212966919	11.1522760391	-16.0549526215	-1.32626223564
23.0722980499	-57.6854324341	48.4191703796	10.7615070343	-16.3403110504	-1.07608699799
1.04610836506	-56.0288925171	63.6922607422	10.3418540955	-16.3144245148	-1.02070105076
-3.37961602211	-56.601184845	68.3915786743	10.1308336258	-16.1582870483	-0.965388834476
0.215211093426	-58.1588630676	68.5501098633	10.1732969284	-16.4176845551	-1.08014476299
3.8563477993	-59.6855964661	70.9795379639	9.96330738068	-16.5266666412	-1.00042617321
0.487197011709	-66.3248825073	89.3489837646	9.43375396729	-16.7192077637	-0.81897944212
7.35313653946	-69.378288269	89.9331893921	9.06237792969	-17.0858135223	-0.606132030487
17.5048694611	-72.82447052	88.815071106	9.25403594971	-17.0434818268	-0.592047870159
32.1150817871	-74.8171691895	81.945930481	9.79305648804	-16.8725204468	-0.609793126583
34.9800491333	-75.9641113281	82.9535369873	10.3920402527	-16.7788696289	-0.676338016987
24.6090259552	-72.4081497192	86.0360717773	10.5070028305	-17.032497406	-0.703359425068
19.7655181885	-43.2303390503	36.3504524231	10.7280244827	-16.9494819641	-0.808071196079
5.72639846802	-45.4862594604	31.8789730072	10.8454866409	-17.5077114105	-0.823706030846
4.37907743454	-45.928565979	30.3846530914	10.4935951233	-17.6176643372	-1.05016505718
5.31036472321	-47.784362793	38.2634658813	10.1342763901	-18.0829467773	-1.04566192627
6.02948904037	-50.3886375427	50.0312309265	9.53821182251	-18.4672832489	-0.746532022953
7.81932497025	-53.7111244202	59.7982673645	9.25142383575	-18.1686935425	-0.340389192104
9.13308620453	-57.7766304016	69.4166641235	9.31890201569	-18.1982746124	-0.0129584250972
8.96708393097	-62.3974876404	81.4259185791	9.44700145721	-18.8596935272	0.494670301676
15.5828561783	-64.1164398193	80.6716918945	9.3416929245	-19.6631717682	1.071352005
15.2261428833	-63.4515190125	82.7358703613	9.45047664642	-19.1050300598	1.36605679989
19.0075206757	-60.4083099365	74.955947876	9.54279613495	-18.5278949738	1.41667377949
23.1381607056	-55.9050788879	61.5745849609	9.65416431427	-18.142490387	0.992946863174
27.6653575897	-47.8929824829	45.8082466125	10.8200550079	-17.1755065918	-0.448981434107
25.2672367096	-48.820350647	46.585319519	13.8824615479	-14.7990427017	-2.35993671417
16.4765357971	-53.8767089844	61.0953865051	16.7189350128	-11.8354997635	-3.41078877449
-8.12573719025	-55.2554588318	88.0753555298	17.4752101898	-11.3264455795	-3.73393273354
-8.68672943115	-53.6164169312	86.4764175415	16.6269855499	-11.4074583054	-4.11397838593
-10.0287275314	-53.6587028503	89.5422515869	15.8626842499	-11.2694339752	-4.55052471161
-8.71370315552	-53.5744285583	89.5955352783	15.5148696899	-13.6930189133	-4.98500823975
-9.15538406372	-53.194694519	91.3256607056	15.206609726	-15.4748020172	-5.13844299316
-3.95905375481	-53.352104187	87.1524734497	15.0658454895	-17.4483394623	-5.47094631195
3.02894091606	-52.6791381836	84.075012207	15.1590890884	-18.4981098175	-5.40197992325
8.37688350677	-49.4752693176	78.7988510132	15.1367368698	-19.0496902466	-5.18009090424
0.521153151989	-46.8753852844	66.355796814	14.7856636047	-19.2026672363	-4.90036153793
11.5031309128	-43.580745697	40.9243431091	14.1749515533	-18.8296756744	-4.16683626175
15.7990064621	-42.9550247192	42.1089859009	13.4706249237	-18.0845413208	-3.36563801765
8.56325531006	-46.0700416565	54.9865150452	12.3690748215	-17.5377807617	-2.22095227242
-4.58905649185	-46.7768325806	67.8503417969	9.95833206177	-18.8522319794	-0.343351751566
-13.8649368286	-49.6081428528	78.9481506348	7.442964077	-20.1414299011	0.763509213924
-8.40473175049	-51.7201042175	77.0010070801	6.95081424713	-19.8095607758	0.558327019215
-2.21985292435	-51.7937088013	74.8048095703	8.43500709534	-18.6917858124	0.0484404601157
5.63498735428	-52.9510955811	73.8413162231	10.9777202606	-18.0908927917	-1.40183448792
