-56.3226318359	-39.0993881226	143.054748535	7.35431194305	2.66383290291	-1.52652919292
-57.0478935242	-39.2481498718	143.085510254	7.31272363663	2.71168875694	-1.46926796436
-57.6748504639	-38.9205513	143.49861145	7.20318412781	2.82354211807	-1.36435329914
-55.9840011597	-40.1439743042	140.695510864	8.73310470581	4.43078184128	-1.28805947304
-39.1167602539	-40.0072746277	115.310768127	10.6741390228	7.55686712265	-0.971086382866
-34.606880188	-37.9134597778	93.1865997314	11.1979074478	9.57733154297	-0.684684991837
-16.37682724	-32.6117477417	58.9160575867	10.6733789444	12.2628040314	0.109301775694
-9.41086292267	-23.2340087891	31.5095672607	10.2749671936	15.5882253647	0.936859309673
3.23677277565	-5.39514017105	-1.20608210564	9.77830314636	17.21301651	1.81214010715
7.9000082016	-1.4215811491	-2.65555214882	9.69780158997	17.496969223	2.35607242584
4.58894634247	-15.6881942749	15.5635471344	9.40550231934	17.0489826202	2.91563153267
-2.06951069832	-27.7489490509	32.4936294556	8.61687278748	16.7423458099	3.23284053802
-9.1895275116	-29.1441421509	51.4061126709	8.56855487823	16.8131256104	3.21076464653
-12.367931366	-23.7318935394	57.2659683228	9.38463497162	16.3593864441	3.18335080147
-15.8614397049	-20.2363147736	65.631187439	10.652554512	11.2018041611	2.77411675453
-12.6429748535	-18.1958827972	62.2638244629	10.3495540619	7.87428092957	3.85574007034
-10.911740303	-16.4904212952	59.6913833618	8.47707271576	7.40706825256	5.5111989975
-6.59850597382	-13.1276931763	50.5114173889	6.2991733551	9.47527122498	7.04740190506
1.07355034351	-7.10658597946	31.158706665	5.53290939331	12.297041893	8.70828151703
9.13166904449	5.55310153961	-0.405001729727	5.42339706421	15.0498514175	9.96826934814
9.19593715668	6.68937587738	-6.49889230728	5.44251537323	16.6936569214	10.6649637222
9.61486053467	7.85514879227	-9.49929141998	6.03928041458	16.5025463104	10.6505022049
12.9647960663	9.84993934631	-15.9145736694	6.78858566284	15.8537378311	10.4205532074
17.3080272675	11.5153312683	-26.6062870026	8.28592777252	15.9773025513	10.8912906647
18.5970001221	13.4863424301	-31.2842903137	8.28510189056	16.4434299469	11.4068565369
19.3906860352	16.4899272919	-37.6811714172	7.32343530655	16.870464325	11.7950601578
26.7231178284	19.1884593964	-43.8725090027	6.92360973358	17.0391349792	12.2387599945
