0.0	-0.0	140.423782349	-112.559715271	80.9607086182	178.667007446
0.0	-0.0	140.191268921	-112.829978943	81.4065628052	178.525283813
0.0	-0.0	140.27947998	-112.830162048	81.5661697388	178.461975098
0.0	-0.0	140.724441528	-112.971611023	81.1698608398	178.716659546
0.0	-0.0	141.034988403	-113.857093811	80.1626968384	179.548736572
0.0	-0.0	139.587631226	-120.063896179	74.0576934814	-177.102203369
0.0	-0.0	136.526596069	-134.650360107	61.2481079102	-172.330856323
0.0	-0.0	128.432723999	-151.610977173	49.872341156	-169.626815796
0.0	-0.0	111.938148499	-163.317245483	43.2847633362	-168.49105835
0.0	-0.0	49.8755989075	-167.701080322	40.0082511902	-167.479675293
0.0	-0.0	28.0944290161	-167.835235596	37.9617767334	-165.107498169
0.0	-0.0	21.0056648254	-168.198348999	35.2873344421	-164.333129883
0.0	-0.0	23.4595680237	-169.423629761	34.6066246033	-163.730194092
0.0	-0.0	32.8769874573	-170.568161011	33.3273277283	-162.136138916
0.0	-0.0	66.8485870361	-171.688964844	34.7569198608	-160.296325684
0.0	-0.0	90.1566314697	-171.009887695	39.0139503479	-159.022735596
0.0	-0.0	107.090255737	-170.611480713	37.7873191833	-158.063949585
0.0	-0.0	118.989402771	-170.519699097	34.3155784607	-158.367538452
0.0	-0.0	110.610389709	-170.673904419	28.7210788727	-158.272613525
0.0	-0.0	95.4739761353	-172.778396606	19.3966407776	-157.402938843
0.0	-0.0	93.4733963013	-176.95539856	11.6532125473	-158.543670654
0.0	-0.0	88.8410110474	-177.75958252	8.4075756073	-158.957443237
0.0	-0.0	85.9252624512	-176.931869507	7.83405828476	-157.900878906
0.0	-0.0	73.3438720703	-173.735748291	7.13072633743	-157.915603638
0.0	-0.0	62.0658073425	-170.265213013	6.46945428848	-158.710861206
0.0	-0.0	54.8806877136	-168.000015259	10.1786851883	-158.963607788
0.0	-0.0	75.1712341309	-165.644607544	15.0093765259	-160.14680481
0.0	-0.0	69.17918396	-159.408157349	16.6213302612	-162.845733643
0.0	-0.0	56.0935096741	-153.929779053	13.4547424316	-164.003601074
0.0	-0.0	55.3636550903	-148.89201355	12.8825645447	-165.099868774
0.0	-0.0	56.8354797363	-143.971878052	14.3307151794	-165.727462769
0.0	-0.0	54.6811065674	-145.055267334	14.1412057877	-166.904312134
