-7.28203296661	-60.7306556702	139.711990356	4.48020410538	-0.712137758732	-2.23690438271
-7.51611757278	-60.6155853271	139.704818726	4.72254419327	-0.616195321083	-2.29397535324
-6.95228767395	-60.3501205444	139.004974365	4.66760349274	-0.664518594742	-2.31412577629
-6.58237838745	-60.041217804	137.950042725	4.50905942917	-1.20651853085	-2.17936444283
-6.63472652435	-59.1904373169	137.757843018	3.95208001137	-5.20431756973	-1.58211052418
-6.2807598114	-58.8655433655	137.403533936	2.8634853363	-6.97003173828	-1.30126416683
-9.27344512939	-57.1773719788	136.049850464	0.519164383411	-5.94296121597	-0.62379026413
-18.5038223267	-47.5822181702	126.699684143	-6.32880353928	-3.48112010956	0.708457767963
-24.5448055267	-45.546913147	130.061645508	-13.2434539795	-3.60333323479	1.9547662735
-24.0724163055	-43.7323379517	119.269950867	-17.7756080627	-3.39221906662	2.55554890633
-23.1524410248	-41.9962005615	108.916374207	-21.0516376495	-3.44649839401	3.09044528008
-21.422164917	-39.4952545166	98.3390197754	-23.3440761566	-3.6105132103	3.91548681259
-19.7653636932	-38.4508171082	91.5485610962	-25.2709522247	-3.55774283409	4.35873270035
-14.3688869476	-36.7496376038	80.1718292236	-25.5039997101	-2.77713322639	4.34398889542
-3.72491884232	-28.5104942322	52.9099273682	-24.6308460236	-1.84417259693	4.37038898468
-1.03385019302	-22.8459300995	38.6471977234	-23.4901103973	-0.946036040783	4.19978761673
-1.83121240139	-22.8359451294	39.0893173218	-23.2795829773	-0.18732213974	4.26908969879
