-30.8784141541	-67.1458969116	139.800613403	4.77487325668	-2.01898932457	-3.28989624977
-28.5678367615	-67.5588226318	136.639373779	5.21061134338	-1.18489146233	-3.59597682953
-27.9929504395	-67.0208969116	135.701583862	5.27042150497	-0.624955236912	-3.69896292686
-28.4187469482	-66.8976364136	136.100448608	5.16855430603	-1.10025680065	-3.61348438263
-32.1350059509	-66.465423584	136.618041992	5.68224954605	-4.8049249649	-3.21133899689
-49.9828567505	-66.547706604	146.238769531	7.56998920441	-12.6230278015	-3.54094290733
-36.274848938	-77.4065170288	123.477600098	9.88667201996	-19.0660305023	-4.40689706802
14.8729381561	-80.7743377686	71.9719543457	11.1374130249	-20.5777359009	-4.82321310043
