0.0	-0.0	133.33531189	-132.321807861	81.1991653442	164.427734375
0.0	-0.0	133.329177856	-132.387390137	81.1965713501	165.094055176
0.0	-0.0	133.101043701	-132.555206299	81.8646469116	165.11340332
0.0	-0.0	132.356689453	-132.591918945	82.2608413696	165.282730103
0.0	-0.0	119.290916443	-132.738967896	82.9447174072	165.937210083
0.0	-0.0	93.7180023193	-132.229736328	87.8240203857	166.761367798
0.0	-0.0	72.4915466309	50.2655181885	83.1425018311	-11.8995513916
0.0	-0.0	72.7041320801	54.2903289795	73.9228439331	-9.88355445862
0.0	-0.0	90.8077392578	56.3541374207	65.6439743042	-6.6749253273
0.0	-0.0	89.0996932983	59.8362922668	58.0235023499	-5.86907339096
0.0	-0.0	69.8459396362	63.6675300598	53.0410270691	-5.93785238266
0.0	-0.0	61.2933807373	63.5129508972	50.1433296204	-4.43291759491
0.0	-0.0	54.4988021851	60.6166191101	46.4791069031	-2.01526284218
0.0	-0.0	46.6146850586	62.0488433838	43.0830688477	-2.42530441284
0.0	-0.0	40.2958145142	66.6552581787	43.5870361328	-4.00714921951
0.0	-0.0	41.8210258484	68.5003509521	45.0912094116	-3.1019589901
0.0	-0.0	46.5996513367	66.0519104004	44.3307647705	-1.51903986931
0.0	-0.0	46.5573005676	63.388130188	43.2169532776	-0.0725459009409
0.0	-0.0	47.9658279419	63.1183624268	39.7397499084	0.59562754631
0.0	-0.0	47.6785316467	65.035774231	35.0247268677	0.00218934332952
0.0	-0.0	38.9354286194	65.5656814575	33.7781295776	-0.748321950436
0.0	-0.0	31.6776237488	65.7184753418	34.7040481567	-1.38212871552
0.0	-0.0	34.7367095947	64.1697235107	36.2802047729	-0.598100662231
0.0	-0.0	36.6296424866	61.5752983093	38.367477417	0.407295316458
0.0	-0.0	36.3463439941	60.8244094849	39.7248268127	1.20452976227
0.0	-0.0	33.5607528687	61.1592941284	40.3449668884	1.95941758156
0.0	-0.0	34.0712432861	61.7578010559	43.0355682373	2.21211791039
0.0	-0.0	37.9990997314	62.6663551331	46.242603302	2.53152179718
0.0	-0.0	45.7885894775	62.5240135193	46.9812393188	2.79987549782
0.0	-0.0	52.2973632812	61.9134788513	45.1791725159	2.42115259171
0.0	-0.0	56.9432563782	63.3605422974	44.209526062	0.785270452499
0.0	-0.0	55.8684043884	65.3788986206	43.5320510864	-0.381719022989
0.0	-0.0	61.5775794983	65.9842300415	40.9795913696	-0.313950479031
0.0	-0.0	64.75806427	66.7389373779	37.1050720215	0.0927489250898
0.0	-0.0	62.2224998474	69.7880096436	34.9952125549	-2.37140679359
0.0	-0.0	50.4384841919	76.4054107666	41.5905265808	-6.52058744431
0.0	-0.0	51.8484382629	80.4863128662	41.9342346191	-4.55659770966
0.0	-0.0	53.7959785461	77.458152771	36.7920532227	-2.24648118019
0.0	-0.0	56.1170539856	78.201751709	32.815574646	-4.06701087952
