11.8235960007	-45.5188407898	132.831161499	-0.673677861691	4.1785531044	-5.82732820511
12.4792861938	-45.2768936157	132.49005127	-0.543761491776	3.72863888741	-6.10857391357
12.8568677902	-45.5839729309	132.386978149	-0.498255640268	3.70360565186	-6.11708068848
13.5201482773	-43.6061553955	127.58001709	-0.706354141235	4.16663980484	-6.01336097717
17.9101676941	-38.177230835	99.8297805786	-1.29546284676	4.22948932648	-5.56586790085
15.9018831253	-41.7795639038	91.1285095215	-2.288189888	3.34495019913	-5.02240228653
12.6379299164	-43.9456214905	87.2105712891	-2.83901381493	2.37650251389	-4.82639980316
10.9019622803	-47.5159568787	86.6137313843	-2.82989358902	1.37516999245	-4.32806491852
10.4103469849	-51.0479927063	85.6800003052	-2.31882715225	0.542974829674	-4.03428316116
9.54803085327	-54.564655304	85.0862960815	-2.19733095169	0.715390563011	-3.58536624908
10.6347885132	-59.4219551086	82.0396347046	-2.61174631119	2.19939851761	-3.10297608376
14.5573196411	-64.9916229248	75.6604537964	-3.02406692505	2.47255253792	-2.64848613739
16.3291244507	-70.105430603	71.7919769287	-3.16538619995	1.74623382092	-2.4787197113
18.3054275513	-72.9625549316	68.1252365112	-2.71424174309	1.56236588955	-2.26642680168
22.666721344	-75.3559951782	62.236415863	-2.53734302521	1.34607303143	-1.95124948025
26.5369987488	-77.2230300903	56.9904174805	-3.12119054794	1.16453278065	-1.66727995872
24.0640964508	-77.7540435791	59.7295875549	-4.32712316513	1.27652418613	-1.2984265089
