-8.31796360016	-33.9443664551	141.528289795	2.01186323166	6.13428783417	-5.30313873291
-7.67825222015	-35.2612686157	135.454605103	2.14560770988	8.32070350647	-5.48458909988
-2.58925819397	-39.1258811951	109.017036438	2.87628722191	13.729514122	-5.69434213638
4.59524726868	-39.7323684692	82.4296951294	3.79144239426	17.3698368073	-5.12686824799
5.41843366623	-39.2958183289	74.3153533936	4.73276090622	17.5276508331	-4.87243461609
1.43596160412	-39.198299408	96.2630844116	6.52800607681	15.3193073273	-5.25344705582
2.17797875404	-41.869972229	108.544181824	10.3897619247	12.1926288605	-5.66349029541
12.6714744568	-50.2210121155	91.7315063477	15.0738039017	9.82368564606	-6.20466709137
24.7004871368	-57.4431648254	73.6204147339	18.4862804413	8.62162780762	-6.62972164154
29.2574100494	-62.7992973328	66.2016220093	18.8304328918	7.79035186768	-6.55544376373
28.1136283875	-66.2803573608	69.0286483765	18.484954834	6.4495973587	-6.94072914124
23.816368103	-69.9451980591	80.0787887573	19.9933071136	5.34321594238	-7.27584314346
8.35713863373	-72.7593002319	110.738098145	20.4086761475	3.99871706963	-7.22136306763
-5.91850376129	-71.9430999756	133.832611084	21.0245094299	2.66254591942	-7.45943450928
1.27377474308	-73.2099304199	124.941902161	22.1832885742	2.83915734291	-7.87132692337
13.1048574448	-75.053855896	107.298469543	22.6842002869	3.66246366501	-7.88490629196
26.4407482147	-77.6967010498	88.9081802368	21.9504394531	3.49321055412	-7.4598402977
24.7271099091	-79.2942581177	91.3071746826	21.4703807831	3.45597028732	-7.16868162155
20.8523044586	-79.0844955444	96.6063461304	21.532087326	3.67785835266	-6.82002830505
14.7677688599	-80.8910598755	106.044883728	21.7367229462	2.80959534645	-6.58504390717
-17.309885025	-82.3206329346	143.892990112	22.3304195404	1.9061794281	-6.52550935745
-44.0660018921	-81.4582366943	175.303085327	22.9439315796	2.61790275574	-6.34828329086
-48.9778060913	-81.019241333	-177.873413086	22.7770404816	3.85926985741	-5.94700050354
13.0514879227	-81.1085968018	102.811042786	21.9742908478	4.81404066086	-5.46449708939
38.5279998779	-68.7679519653	59.8391036987	21.420091629	4.92858171463	-4.9760351181
38.424571991	-61.2101593018	53.2912902832	21.121006012	4.0496134758	-4.20286035538
35.8108863831	-59.7977981567	54.8650741577	20.8006572723	2.72350406647	-3.73794960976
36.5002212524	-57.3314743042	54.6097640991	20.9254779816	2.12306499481	-3.46061658859
34.4796066284	-59.635925293	63.5176620483	20.8796882629	1.58249163628	-2.94987034798
32.009147644	-62.9767456055	74.0354156494	19.6799621582	0.878380715847	-2.36479496956
