0.103159666061	1.18822872639	-0.0761910676956	0.0719816684723	1.62069356441	-0.360891342163
0.100782871246	1.18743562698	-0.0791254043579	0.0685749053955	1.62120997906	-0.362952709198
0.0987453460693	1.18487477303	-0.0811636447906	0.0651834011078	1.62149989605	-0.365081787109
0.0990376472473	1.18570172787	-0.0836610794067	0.0626647472382	1.62122941017	-0.366265535355
0.100172281265	1.18553960323	-0.0835207700729	0.0612962245941	1.62037837505	-0.36681997776
0.101295948029	1.18575429916	-0.0846974849701	0.0622177124023	1.62003386021	-0.366663098335
0.105736255646	1.18379116058	-0.0827920436859	0.0678615570068	1.62322831154	-0.367226600647
0.118760824203	1.18487298489	-0.0798263549805	0.0797986984253	1.62890291214	-0.371532678604
0.129181623459	1.19160151482	-0.0858545303345	0.0849626064301	1.63104605675	-0.373982310295
0.128713130951	1.19563031197	-0.0928764343262	0.0859768390656	1.63221859932	-0.373402118683
0.118694543839	1.18572497368	-0.0878248214722	0.0835871696472	1.63272297382	-0.372684717178
0.111489057541	1.17270505428	-0.078879237175	0.0799515247345	1.63235747814	-0.372437357903
0.111565828323	1.16600108147	-0.072217464447	0.0774416923523	1.6354392767	-0.372433304787
0.106774568558	1.16014766693	-0.0678246021271	0.0773341655731	1.63811588287	-0.372668743134
0.116808176041	1.16140294075	-0.075217962265	0.0783753395081	1.63757038116	-0.371774315834
0.121910572052	1.14668047428	-0.0727775096893	0.0779521465302	1.63752245903	-0.371505975723
0.124453783035	1.11536979675	-0.0652034282684	0.0723292827606	1.63824248314	-0.374022960663
0.131729841232	1.06323051453	-0.0524215698242	0.0640552043915	1.63674390316	-0.376357793808
0.149922132492	1.05536913872	-0.0537385940552	0.0550246238708	1.63641798496	-0.37596654892
0.168652534485	1.09710633755	-0.0589060783386	0.04652094841	1.63683390617	-0.376001238823
0.166344165802	1.12712049484	-0.0526990890503	0.0376136302948	1.63712751865	-0.376983642578
0.155753850937	1.14698278904	-0.0546221733093	0.0236034393311	1.63800382614	-0.379156947136
0.14419054985	1.14472901821	-0.0590238571167	0.00515985488892	1.63809239864	-0.380866765976
0.137484788895	1.16008126736	-0.06796002388	-0.0108597278595	1.6370896101	-0.378363132477
0.125890016556	1.18965220451	-0.0801265239716	-0.0242834091187	1.63648939133	-0.373620271683
0.108193635941	1.20831823349	-0.0912579298019	-0.0391662120819	1.63725399971	-0.370503544807
0.0894062519073	1.20639121532	-0.0977261066437	-0.0539612770081	1.63845336437	-0.368937015533
0.0775194168091	1.19732987881	-0.0969626903534	-0.0653302669525	1.63776552677	-0.367530226707
0.0683777332306	1.19897401333	-0.0966272354126	-0.0751538276672	1.63652479649	-0.367227673531
0.0525159835815	1.20071876049	-0.0972974300385	-0.0908050537109	1.63841533661	-0.368085384369
0.0398373603821	1.19706976414	-0.0973258018494	-0.10565662384	1.64172542095	-0.373601198196
0.0284326076508	1.19687211514	-0.0955219268799	-0.114099740982	1.64430105686	-0.383204698563
0.0160646438599	1.20707821846	-0.0936937332153	-0.119730949402	1.64663612843	-0.397099852562
0.00426244735718	1.2267434597	-0.0968165397644	-0.128360271454	1.64862704277	-0.410445451736
-0.00376439094543	1.24410426617	-0.102700948715	-0.135411977768	1.64699804783	-0.41829764843
-0.00686955451965	1.25306987762	-0.108031749725	-0.135751008987	1.64259111881	-0.421652317047
-0.00942158699036	1.25383281708	-0.112741947174	-0.131264448166	1.63820886612	-0.421564817429
-0.00994038581848	1.24794983864	-0.11556828022	-0.127508878708	1.63809478283	-0.421982884407
-0.00872564315796	1.24273347855	-0.11717236042	-0.123441934586	1.6394957304	-0.425651550293
-0.00401592254639	1.25309336185	-0.12361907959	-0.115168809891	1.63578152657	-0.427455663681
-0.00581097602844	1.27881109715	-0.147405385971	-0.106684684753	1.63040292263	-0.424943208694
-0.00982975959778	1.29366958141	-0.170388698578	-0.100580453873	1.62879729271	-0.423275828362
-0.0137162208557	1.29670739174	-0.180310964584	-0.095475435257	1.63063764572	-0.422505378723
-0.0202748775482	1.29732823372	-0.189676642418	-0.0902283191681	1.63402986526	-0.422577857971
-0.0360708236694	1.31384277344	-0.230382680893	-0.0854043960571	1.63691353798	-0.42160987854
-0.039840221405	1.32800221443	-0.260763287544	-0.0809381008148	1.63699090481	-0.419468402863
-0.0367040634155	1.32755327225	-0.27055811882	-0.0761711597443	1.63567793369	-0.416757583618
-0.0343985557556	1.32289123535	-0.271819233894	-0.0713715553284	1.63637030125	-0.414006948471
-0.0336275100708	1.32062506676	-0.280885219574	-0.0668823719025	1.638474226	-0.4117872715
-0.0296206474304	1.32118523121	-0.287705183029	-0.0629580020905	1.63926172256	-0.408044457436
-0.0256140232086	1.32297086716	-0.293787479401	-0.0588595867157	1.63736271858	-0.404067635536
-0.0241994857788	1.3256855011	-0.297736644745	-0.053760766983	1.63660764694	-0.399628400803
-0.0222277641296	1.32510209084	-0.295387029648	-0.050243139267	1.63823401928	-0.395194888115
-0.0203869342804	1.31542253494	-0.283007621765	-0.046329498291	1.64129912853	-0.391602754593
-0.0159177780151	1.30743074417	-0.269165277481	-0.0419316291809	1.64414036274	-0.387460947037
-0.0123839378357	1.30234825611	-0.254032373428	-0.0389437675476	1.64816105366	-0.385596990585
-0.00872588157654	1.29454100132	-0.226593494415	-0.0381641387939	1.65023243427	-0.385024309158
0.0018846988678	1.29269123077	-0.199450016022	-0.034960269928	1.64388465881	-0.381650924683
0.0104134082794	1.30252635479	-0.199972629547	-0.0284886360168	1.63871955872	-0.375491857529
0.0169215202332	1.30338180065	-0.20122718811	-0.024968624115	1.63820064068	-0.375445246696
0.0195043087006	1.2945715189	-0.197551965714	-0.021420955658	1.64080703259	-0.377199530602
0.020956993103	1.295358181	-0.200697422028	-0.0180861949921	1.64262831211	-0.377727746964
0.020740032196	1.3021851778	-0.209212660789	-0.01526927948	1.64216578007	-0.377881169319
0.0196619033813	1.30142402649	-0.208759784698	-0.0149872303009	1.64129292965	-0.378867149353
0.0184731483459	1.29653191566	-0.202602624893	-0.0153143405914	1.63989758492	-0.379550218582
0.0186262130737	1.29630315304	-0.198677301407	-0.0132894515991	1.63464570045	-0.376996994019
0.0258166790009	1.30114006996	-0.194752216339	-0.0103545188904	1.63211858273	-0.372579693794
0.0188345909119	1.30059754848	-0.197793841362	-0.00881791114807	1.63245606422	-0.369964241982
0.0118906497955	1.29358899593	-0.198768734932	-0.00992727279663	1.63305675983	-0.366558670998
0.00684213638306	1.27872514725	-0.186205387115	-0.0143518447876	1.632132411	-0.366894245148
0.00090503692627	1.28089725971	-0.164597988129	-0.0186262130737	1.63025200367	-0.371745944023
0.00177788734436	1.35099482536	-0.168643951416	-0.0239024162292	1.62496089935	-0.371069192886
0.00309872627258	1.39222896099	-0.192574739456	-0.0290923118591	1.62360310555	-0.369845747948
0.0253925323486	1.37536883354	-0.17692732811	-0.0331034660339	1.62379717827	-0.369327425957
0.0281527042389	1.36144816875	-0.167412042618	-0.0345215797424	1.62462556362	-0.367145419121
0.0107955932617	1.36240839958	-0.172939538956	-0.0332369804382	1.6255095005	-0.364712238312
-0.000230073928833	1.35110378265	-0.180162191391	-0.0314688682556	1.6247907877	-0.362041592598
0.00249624252319	1.33043837547	-0.168942928314	-0.0310244560242	1.62620329857	-0.359883308411
0.0163793563843	1.3183606863	-0.141752243042	-0.029433965683	1.62914252281	-0.36147069931
0.0390434265137	1.32703840733	-0.110362172127	-0.0264272689819	1.63254487514	-0.366187810898
0.0614337921143	1.33896100521	-0.0801306962967	-0.021577835083	1.63775968552	-0.373800516129
0.0806624889374	1.33931016922	-0.0504587888718	-0.0120871067047	1.6438857317	-0.384820699692
0.0916314125061	1.31396532059	-0.0193128585815	0.000546216964722	1.64795100689	-0.399308681488
0.0894374847412	1.26555907726	-0.00323414802551	0.0124344825745	1.64862084389	-0.410494446754
0.0696115493774	1.22722768784	-0.0168507099152	0.0216059684753	1.64749574661	-0.414648771286
0.0571358203888	1.20029139519	-0.032457113266	0.0246148109436	1.64832127094	-0.414079427719
0.0535020828247	1.1842135191	-0.0397951602936	0.0282316207886	1.6500068903	-0.412699222565
0.0444900989532	1.18394708633	-0.0452673435211	0.0357553958893	1.65125381947	-0.409393548965
0.0301058292389	1.19974970818	-0.0551514625549	0.0480358600616	1.64978480339	-0.401321649551
0.020361661911	1.21979987621	-0.0661261081696	0.0596165657043	1.64715623856	-0.39076423645
0.0188224315643	1.26722669601	-0.100624203682	0.067360162735	1.64432096481	-0.381315231323
0.0136196613312	1.29731249809	-0.132331371307	0.0682303905487	1.64187884331	-0.376570701599
-0.00598931312561	1.29623949528	-0.146334886551	0.0626218318939	1.64204323292	-0.379051685333
