0.0	-0.0	134.013870239	-139.184326172	76.2039108276	158.700546265
0.0	-0.0	121.773475647	-138.710601807	76.5542907715	158.893218994
0.0	-0.0	93.4482650757	-138.449874878	76.3012237549	159.436386108
0.0	-0.0	83.0557022095	-138.637420654	75.6106567383	159.313552856
0.0	-0.0	79.044631958	-137.928085327	73.117515564	159.078338623
0.0	-0.0	74.3977279663	-136.090988159	66.6454086304	158.594894409
0.0	-0.0	57.2083206177	-130.440444946	50.2196578979	157.235794067
0.0	-0.0	46.445930481	-122.849357605	39.6252288818	157.6746521
0.0	-0.0	48.3475761414	-118.641868591	36.3073005676	158.788375854
0.0	-0.0	47.6566467285	-119.693367004	35.8542900085	159.145950317
0.0	-0.0	47.7663345337	-120.287826538	35.2290878296	158.684036255
0.0	-0.0	47.5770683289	-119.419334412	34.7140197754	158.400085449
0.0	-0.0	53.2753944397	-118.099533081	32.9919624329	158.456863403
