0.166035652161	1.29308497906	0.174154520035	0.0473318099976	1.60848140717	-0.210447072983
0.165337085724	1.29272782803	0.173717021942	0.0468645095825	1.60823667049	-0.210096359253
0.165472507477	1.29279232025	0.173429727554	0.046156167984	1.60798096657	-0.209437608719
0.160441398621	1.29000484943	0.166767120361	0.0435621738434	1.60685777664	-0.208420038223
0.120008230209	1.27516341209	0.143721818924	0.0362482070923	1.60690355301	-0.205413103104
0.0554871559143	1.24562442303	0.107111334801	0.024715423584	1.60829627514	-0.202124476433
0.00800108909607	1.21545314789	0.0861428976059	0.0103223323822	1.61004507542	-0.20042693615
-0.0196182727814	1.19516217709	0.0794818401337	-0.00328898429871	1.61216890812	-0.200740814209
-0.0354690551758	1.19630408287	0.0671453475952	-0.014351606369	1.61358141899	-0.200774908066
-0.0445170402527	1.21304476261	0.0266999006271	-0.0259201526642	1.61326026917	-0.198737621307
-0.0461559295654	1.22826313972	-0.0184700489044	-0.0366697311401	1.61183142662	-0.194325208664
-0.0366408824921	1.24487829208	-0.0522640943527	-0.0454151630402	1.61047017574	-0.18846988678
-0.0281407833099	1.25878345966	-0.0694513320923	-0.0547223091125	1.6085600853	-0.183147907257
-0.0253417491913	1.26213347912	-0.0717763900757	-0.0638446807861	1.60782253742	-0.179766654968
-0.0283434391022	1.26053667068	-0.0716919898987	-0.0726726055145	1.60854673386	-0.178654313087
-0.0334525108337	1.26286661625	-0.0786550045013	-0.0813853740692	1.60881376266	-0.178921103477
-0.0448889732361	1.26301038265	-0.0846370458603	-0.0902166366577	1.60925984383	-0.180738806725
-0.0566344261169	1.26399147511	-0.090399980545	-0.101096153259	1.6101140976	-0.183238625526
-0.0685296058655	1.26581251621	-0.0909470319748	-0.114539384842	1.61104536057	-0.184582471848
-0.0826680660248	1.27005708218	-0.0812457799911	-0.130107402802	1.61112582684	-0.184946060181
-0.107437133789	1.2695941925	-0.0686123371124	-0.145627737045	1.61037302017	-0.184306383133
-0.130686283112	1.26591455936	-0.0630080699921	-0.159896373749	1.60966312885	-0.183861374855
-0.144170284271	1.26611042023	-0.0606923103333	-0.17140007019	1.60989356041	-0.184425354004
-0.148642063141	1.26964843273	-0.0548796653748	-0.18029665947	1.61120426655	-0.185633182526
