-34.4492149353	-57.2151374817	145.417984009	-1.83456265926	3.15907096863	-10.2781887054
-34.5623207092	-57.3612327576	145.347518921	-1.91589605808	3.15521883965	-10.1733665466
-34.0821380615	-57.5443572998	144.476531982	-1.94780170918	3.36528325081	-10.2288589478
-28.7979450226	-60.262550354	129.902679443	-2.49268317223	4.06224775314	-9.88385486603
-34.6403312683	-60.0317687988	114.896621704	-5.37384414673	4.22717237473	-9.03313446045
-54.0856513977	-55.891998291	123.50037384	-10.5003252029	3.76179862022	-7.93852567673
-58.9410705566	-51.7393836975	122.763893127	-16.8049564362	3.14122962952	-6.68815612793
-58.4471168518	-49.6541671753	117.58921814	-22.1364212036	2.37530231476	-5.48159694672
-62.9053916931	-50.0924568176	117.884757996	-25.65965271	2.0140478611	-4.4756155014
-77.4638748169	-55.7934570312	120.546279907	-27.9215316772	2.35815382004	-3.51072335243
-93.9737014771	-59.6024208069	127.662826538	-28.8623504639	2.97155237198	-2.80657911301
-108.625923157	-63.1293983459	132.446731567	-28.827205658	3.40770936012	-2.64457535744
-116.429626465	-65.5376205444	134.287658691	-28.7643356323	4.1928396225	-2.18624162674
-117.177833557	-66.6256866455	132.231185913	-28.9906768799	4.58336019516	-1.7514436245
-114.288650513	-65.3846206665	127.750434875	-29.1460914612	4.31559467316	-1.3459392786
-117.609817505	-64.1991653442	129.160476685	-29.0672550201	4.22609949112	-0.99043995142
-120.58807373	-62.3366279602	131.669509888	-28.4832134247	3.94107413292	-0.767011344433
-124.847686768	-61.0231971741	135.366989136	-28.090057373	3.34697580338	-0.471948802471
-126.244186401	-61.8026809692	132.149185181	-27.2925434113	2.69524145126	0.00880006607622
-116.808113098	-66.5683670044	110.899185181	-26.020488739	2.3608314991	0.611500859261
-102.768325806	-66.3493804932	94.6276092529	-24.9095745087	2.57526183128	0.52006727457
-97.9355697632	-64.441078186	90.8696746826	-24.3383560181	2.61764574051	0.181929737329
-93.6314697266	-64.1905441284	86.1695480347	-24.265460968	2.38383984566	0.383475065231
-87.2424926758	-65.0999603271	79.8695907593	-24.4912109375	1.93987047672	0.937866747379
