0.0	-0.0	143.591201782	-127.379669189	79.6169204712	155.656600952
0.0	-0.0	140.706634521	-127.989051819	81.0257568359	154.088439941
0.0	-0.0	133.555160522	-129.767196655	82.5003662109	151.392593384
0.0	-0.0	116.104927063	45.9102058411	89.4479980469	-27.5547161102
0.0	-0.0	98.9765014648	37.9554176331	83.3474121094	-26.1026191711
0.0	-0.0	83.7030487061	33.6843719482	78.1469802856	-21.3994445801
0.0	-0.0	70.8566131592	31.0902633667	77.842124939	-22.3072299957
0.0	-0.0	62.6000366211	29.6915683746	79.1802978516	-23.6505718231
0.0	-0.0	57.9229621887	28.1199436188	79.4504928589	-21.8480300903
0.0	-0.0	52.2983436584	27.2489070892	71.7712173462	4.36021709442
0.0	-0.0	39.2423706055	40.6303024292	68.8497619629	34.2104454041
0.0	-0.0	29.0386734009	54.3570480347	68.5314331055	31.759349823
0.0	-0.0	24.2047958374	57.4330635071	64.1954040527	13.0123090744
0.0	-0.0	40.3771286011	56.8976593018	55.5079727173	0.877277255058
0.0	-0.0	76.9281692505	53.4677200317	53.836025238	-5.68314409256
0.0	-0.0	92.0949401855	47.1837730408	56.2427597046	-6.3323059082
0.0	-0.0	95.9989776611	44.5659332275	62.5693855286	-8.88008785248
0.0	-0.0	101.400802612	45.5345306396	63.9634094238	-7.19763374329
0.0	-0.0	112.448036194	46.0559158325	63.6203842163	-5.43939971924
0.0	-0.0	118.697502136	49.0881767273	63.1319694519	-4.88427686691
0.0	-0.0	121.98613739	51.3760490417	60.5140228271	-7.30472612381
0.0	-0.0	123.908058167	49.0977478027	57.5796775818	-16.6446475983
0.0	-0.0	108.31439209	44.6283111572	56.5195960999	-25.6614723206
0.0	-0.0	82.2968215942	39.6548461914	62.784034729	-31.2922878265
0.0	-0.0	60.8179779053	35.6635513306	71.7816238403	-30.8100013733
0.0	-0.0	52.7930984497	30.6464557648	76.5570983887	-23.0725631714
0.0	-0.0	45.4973106384	25.7904491425	77.3275527954	-18.3860912323
0.0	-0.0	43.7011413574	24.3857822418	73.4770965576	-13.3976583481
0.0	-0.0	36.6597862244	28.7483329773	66.7993774414	1.54792225361
0.0	-0.0	21.9367828369	40.9946784973	58.8876152039	14.7260656357
0.0	-0.0	10.643450737	47.8950271606	61.1663169861	0.503633022308
0.0	-0.0	8.58333778381	45.6492347717	67.171295166	-14.699303627
0.0	-0.0	5.3449678421	37.7011375427	78.385017395	-27.226234436
0.0	-0.0	1.4823307991	31.3077220917	89.083694458	-35.8246688843
0.0	0.0	-1.59128773212	30.4739322662	89.3874969482	-33.6205596924
0.0	0.0	-3.31127500534	-150.014511108	89.3526992798	147.332565308
0.0	0.0	-2.91218614578	-151.783615112	86.1317214966	150.007476807
0.0	0.0	-2.65509700775	-154.006973267	80.1898193359	154.183029175
0.0	0.0	-2.94288492203	-154.478317261	77.8911895752	158.540115356
0.0	0.0	-2.27489900589	-153.176101685	79.2334060669	164.765258789
0.0	0.0	-1.30298173428	-150.220413208	79.7096252441	169.109115601
0.0	-0.0	0.692531943321	-150.778564453	81.399017334	172.482116699
0.0	-0.0	2.52685141563	-149.670684814	83.0232162476	-179.586181641
0.0	-0.0	4.45646762848	-148.287719727	87.8559112549	-171.936019897
0.0	-0.0	7.62142801285	29.3427848816	84.3394241333	13.9287433624
0.0	-0.0	11.4899663925	28.8688545227	81.8235473633	14.1889696121
0.0	-0.0	14.838932991	29.2481803894	81.9596710205	14.7052698135
0.0	-0.0	21.4717235565	29.4079437256	82.8265609741	13.6978721619
0.0	-0.0	62.6796379089	30.9990520477	84.239982605	12.8427886963
0.0	-0.0	104.061561584	33.1111488342	84.2222671509	13.2515878677
0.0	-0.0	116.930839539	31.7363128662	84.2524032593	14.7655344009
0.0	-0.0	120.118179321	34.3098258972	84.118888855	13.7252531052
0.0	-0.0	125.206710815	34.229637146	82.3313293457	8.89927768707
0.0	-0.0	137.272857666	32.5334014893	83.4119033813	6.3868894577
0.0	-0.0	147.683227539	35.3880081177	84.733253479	4.36759281158
0.0	-0.0	154.093978882	40.9417762756	82.1092071533	1.16425824165
0.0	-0.0	162.141693115	41.567325592	77.5953369141	-2.38170289993
0.0	-0.0	163.769332886	37.7514915466	75.835319519	0.0230451337993
0.0	-0.0	159.034545898	37.767364502	79.0429992676	4.09257221222
0.0	-0.0	133.132858276	38.4621810913	80.3916625977	4.22390937805
0.0	-0.0	76.4461135864	39.6882286072	81.4889755249	-0.388355374336
0.0	-0.0	49.3787536621	42.2124404907	81.2817993164	-5.14517211914
0.0	-0.0	56.3190536499	44.0254325867	80.8023300171	-5.83109807968
0.0	-0.0	79.6109619141	45.0278015137	81.0056838989	-5.29683923721
0.0	-0.0	98.2095336914	47.1503639221	81.5592651367	-3.9591190815
0.0	-0.0	113.76260376	47.1778907776	81.3667755127	-1.68845367432
0.0	-0.0	132.446899414	46.1020774841	79.9568862915	-2.14695000648
0.0	-0.0	138.137191772	44.5182723999	79.6438827515	-1.75504457951
0.0	-0.0	138.947006226	43.3807144165	77.6504821777	-3.20748710632
0.0	-0.0	145.473114014	42.5861930847	75.2034301758	-4.71990203857
0.0	-0.0	154.55796814	43.0480880737	76.9419784546	-3.63215732574
0.0	-0.0	162.145095825	43.9859428406	76.2265472412	1.26168596745
0.0	-0.0	168.477630615	41.5403289795	79.7088928223	7.06501579285
0.0	-0.0	173.066314697	40.0350723267	85.9482879639	12.618057251
0.0	-0.0	175.884521484	-138.161682129	87.4008026123	-161.407394409
0.0	-0.0	176.649871826	-136.147232056	86.1784057617	-153.570159912
0.0	-0.0	179.626403809	-134.536300659	87.1579437256	-144.490280151
0.0	-0.0	-179.866912842	-132.318893433	79.8775253296	-138.519256592
0.0	-0.0	159.809356689	-131.984436035	76.2515716553	-143.929718018
0.0	-0.0	124.458808899	-132.934768677	75.2485580444	-149.71697998
0.0	-0.0	96.1620483398	-131.510406494	78.6823501587	-149.354141235
0.0	-0.0	82.5344085693	-130.801452637	83.3634796143	-152.371780396
0.0	-0.0	76.8487930298	-129.256576538	87.9379348755	-154.961273193
0.0	-0.0	71.7513885498	-127.877487183	89.7447509766	-157.643341064
