0.0	-0.0	135.727386475	-138.606536865	82.6353530884	161.194244385
0.0	-0.0	135.416290283	-138.839553833	81.3373031616	161.116271973
0.0	-0.0	134.644592285	-138.536010742	79.7072677612	161.433609009
0.0	-0.0	116.815071106	-141.287643433	82.1920089722	163.440353394
0.0	-0.0	70.7232437134	28.3889484406	84.6677246094	-11.8871335983
0.0	-0.0	55.1046218872	12.0348577499	69.2887496948	-5.04449462891
0.0	-0.0	62.2282791138	-0.0372391007841	54.9864845276	1.7448143959
0.0	-0.0	66.6174087524	2.48506450653	42.96459198	1.35276079178
0.0	-0.0	66.1100540161	8.4339838028	37.0406837463	0.983593344688
0.0	-0.0	66.4464492798	7.40610980988	35.410861969	3.92427587509
0.0	-0.0	66.7272186279	7.23615646362	34.7361793518	4.55839014053
0.0	-0.0	66.7536468506	9.6073102951	30.4853801727	3.47032690048
0.0	-0.0	65.13671875	11.2207841873	26.864107132	2.22572135925
0.0	-0.0	61.0317153931	10.8476648331	27.480342865	1.52574908733
0.0	-0.0	55.0409393311	12.8858556747	31.5737953186	-0.76793640852
0.0	-0.0	54.3694229126	15.5395612717	35.6376953125	-3.5743663311
0.0	-0.0	54.4829711914	13.1723184586	33.1007118225	-2.55265688896
0.0	-0.0	54.9133872986	7.99757480621	31.7600135803	2.59376645088
0.0	-0.0	55.6364250183	0.683755874634	25.7929115295	8.65294456482
0.0	-0.0	56.0479316711	3.05902314186	14.2683286667	6.71202850342
0.0	-0.0	56.2443618774	8.67843055725	13.9819440842	5.1135969162
0.0	-0.0	56.5940246582	9.47884941101	22.3715057373	5.17699623108
0.0	-0.0	56.2551040649	9.41049385071	28.5390739441	5.16933774948
0.0	-0.0	56.2658996582	13.2204151154	30.0446720123	2.38884234428
0.0	-0.0	56.024848938	16.8509216309	29.4023532867	-0.648283660412
0.0	-0.0	56.0444564819	15.4337940216	30.6638507843	-1.12217903137
0.0	-0.0	57.2983894348	14.0489311218	32.4165687561	-0.814573585987
0.0	-0.0	65.3314437866	13.1504917145	36.4617767334	0.616441011429
0.0	-0.0	86.6435089111	13.1797409058	38.5037307739	1.68002736568
0.0	-0.0	97.651260376	14.2424926758	36.2752227783	1.86908948421
0.0	-0.0	92.9748077393	17.1108417511	30.3026008606	-0.92105358839
0.0	-0.0	48.7364578247	18.853887558	25.40766716	-2.41007089615
0.0	-0.0	44.5468711853	17.4582901001	24.2193946838	-2.56997442245
0.0	-0.0	48.1199226379	16.0897350311	24.8056430817	-1.94545984268
0.0	-0.0	53.1817550659	12.7331676483	27.3408470154	-0.237314119935
0.0	-0.0	55.8296508789	9.0049533844	28.6046772003	2.50968956947
0.0	-0.0	62.4859619141	7.10970544815	28.3143444061	4.86542224884
0.0	-0.0	57.7876091003	7.5127325058	30.4108638763	5.33269882202
0.0	-0.0	42.5565567017	9.59187889099	34.4380493164	4.68183422089
0.0	-0.0	41.6138496399	10.9448385239	35.6221160889	4.10716819763
0.0	-0.0	41.673789978	8.76009464264	37.0149917603	6.3031744957
0.0	-0.0	40.517162323	7.70737504959	42.6814155579	8.7065372467
0.0	-0.0	40.1666030884	9.38273239136	45.1053581238	9.41797065735
0.0	-0.0	40.2789382935	11.3913259506	47.0294685364	8.86802387238
0.0	-0.0	39.7838172913	10.4085416794	47.4001350403	9.2303943634
0.0	-0.0	39.738494873	9.47904491425	44.7025337219	9.58215332031
0.0	-0.0	39.2992553711	10.2908830643	43.3885154724	9.35737419128
0.0	-0.0	39.2485427856	12.1733789444	41.1205635071	8.52227115631
0.0	-0.0	39.2794914246	11.7224607468	39.1962585449	10.1210441589
0.0	-0.0	38.933807373	8.50562000275	37.6745414734	15.4044351578
0.0	-0.0	38.6935920715	7.57713270187	38.8103866577	18.9532299042
0.0	-0.0	37.7401657104	15.4125871658	30.3719882965	13.5168714523
0.0	-0.0	38.6484642029	20.8845386505	17.5849342346	10.2387399673
0.0	-0.0	39.7682037354	17.2477550507	11.5344953537	13.9664793015
0.0	-0.0	39.6403198242	14.0900526047	18.683008194	15.0459413528
0.0	-0.0	39.1710510254	17.526807785	31.8543758392	12.5826406479
0.0	-0.0	39.3730773926	19.8724002838	41.0119514465	11.3233041763
0.0	-0.0	40.3591575623	18.0122184753	45.3760757446	12.2462415695
0.0	-0.0	41.3767166138	17.7728176117	44.228351593	11.0601882935
0.0	-0.0	45.3387107849	19.1111812592	45.3133430481	7.01146650314
0.0	-0.0	40.0769538879	19.6709938049	50.5646018982	4.41191911697
0.0	-0.0	25.7555084229	19.5598888397	55.5236930847	4.9166021347
0.0	-0.0	22.4251766205	17.2028770447	53.7306022644	5.62166929245
0.0	-0.0	51.0686149597	15.6894721985	53.6657333374	4.57969903946
0.0	-0.0	62.9478683472	17.3687953949	54.5725746155	3.5532772541
0.0	-0.0	55.676399231	19.5098705292	52.1257514954	1.53040874004
0.0	-0.0	33.2431411743	18.305973053	47.3581008911	1.51848614216
0.0	-0.0	23.1217384338	15.6822929382	44.1677818298	2.82875490189
0.0	-0.0	19.9052352905	12.1026592255	45.4465026855	4.693110466
0.0	-0.0	12.9577932358	9.76156425476	49.7998924255	5.77271080017
0.0	-0.0	12.0900239944	10.4948043823	52.7212257385	5.93018245697
0.0	-0.0	32.4557914734	10.1940641403	53.7588768005	6.45189857483
0.0	-0.0	52.0679016113	9.72868919373	54.5496864319	6.22238492966
0.0	-0.0	49.2343978882	10.2231931686	54.9927825928	5.98573160172
0.0	-0.0	49.1956596375	9.88459968567	53.784942627	6.06943225861
0.0	-0.0	51.5623664856	7.91771030426	50.579750061	7.17754125595
0.0	-0.0	67.431098938	7.24399757385	50.0127563477	7.05891132355
0.0	-0.0	73.9424209595	10.1191072464	48.2415924072	5.27519416809
0.0	-0.0	70.0103225708	12.2119169235	40.135307312	4.17670345306
0.0	-0.0	70.4115982056	7.77079629898	26.5693817139	5.5771241188
0.0	-0.0	65.1876602173	6.78565692902	19.6688423157	5.6864361763
0.0	-0.0	64.9689559937	11.410815239	15.9445762634	1.35255396366
