0.090548992157	1.30366563797	-0.107635736465	0.0674803256989	1.60383915901	-0.343397140503
0.092376947403	1.3051224947	-0.109907865524	0.0677487850189	1.60424470901	-0.346480846405
0.092563867569	1.3047785759	-0.111813783646	0.068386554718	1.60477387905	-0.348843574524
0.0912041664124	1.29963672161	-0.115039110184	0.0685024261475	1.60323214531	-0.349761605263
0.0963480472565	1.29459178448	-0.11904335022	0.0705094337463	1.59711658955	-0.348391056061
0.110386133194	1.2932870388	-0.120962619781	0.0769429206848	1.59039866924	-0.344822525978
0.117493152618	1.28973031044	-0.121650695801	0.0833909511566	1.58628988266	-0.341376781464
0.123727083206	1.28573071957	-0.120829105377	0.0878372192383	1.58546566963	-0.337599754333
0.126739740372	1.28098452091	-0.117874383926	0.0912363529205	1.58538031578	-0.333997249603
0.125941753387	1.27637815475	-0.115483522415	0.0925869941711	1.58696138859	-0.332786798477
0.123464345932	1.27177834511	-0.110049962997	0.0916876792908	1.59061157703	-0.334277391434
0.122297048569	1.2709518671	-0.103198170662	0.0894768238068	1.59365701675	-0.337280988693
0.121316671371	1.27468335629	-0.0974847078323	0.0850610733032	1.59605908394	-0.341735363007
0.118054628372	1.28238534927	-0.0955550670624	0.0797152519226	1.59882438183	-0.345313310623
0.114378929138	1.2881988287	-0.0956861972809	0.0743761062622	1.60042130947	-0.345839858055
0.112834692001	1.28866386414	-0.0954422950745	0.0699129104614	1.5998237133	-0.343240141869
0.111677646637	1.28520476818	-0.0952973365784	0.0668430328369	1.59815239906	-0.339292287827
0.111628293991	1.28233170509	-0.0960540771484	0.0657444000244	1.59546804428	-0.334414958954
0.112714529037	1.28313601017	-0.100515246391	0.0674269199371	1.59134435654	-0.326938986778
0.111912250519	1.28666436672	-0.10928940773	0.0717203617096	1.5874569416	-0.316878557205
0.108268976212	1.28907704353	-0.118312358856	0.0766654014587	1.58423793316	-0.308729052544
0.105706214905	1.28528618813	-0.117851495743	0.0801229476929	1.58403623104	-0.303820490837
0.105985641479	1.28529083729	-0.120505094528	0.0822145938873	1.58661139011	-0.298666834831
0.104974746704	1.28565609455	-0.12296640873	0.084315776825	1.58426678181	-0.291719317436
0.105746984482	1.28413176537	-0.121269226074	0.0847437381744	1.57972931862	-0.284633040428
0.106811761856	1.28335428238	-0.118080854416	0.0842809677124	1.57919967175	-0.279530525208
0.107098340988	1.28569567204	-0.112416863441	0.0846338272095	1.58038699627	-0.276937365532
0.108289718628	1.29013991356	-0.10636138916	0.084698677063	1.58116495609	-0.274213790894
0.110641241074	1.29422187805	-0.100245952606	0.0851690769196	1.58111393452	-0.269381284714
0.11424612999	1.29768824577	-0.094628572464	0.0865843296051	1.58183991909	-0.262174129486
0.117750167847	1.29947507381	-0.0913163423538	0.08944439888	1.58114326	-0.254354476929
0.122494697571	1.29831969738	-0.0909104347229	0.0939991474152	1.57960236073	-0.247532367706
0.12863445282	1.29375517368	-0.0911953449249	0.0975992679596	1.57787501812	-0.242067813873
0.133009433746	1.29055583477	-0.0910911560059	0.100641727448	1.577460289	-0.238438606262
0.135680675507	1.29037761688	-0.0933576822281	0.102484703064	1.57632625103	-0.233667850494
0.136160612106	1.28854680061	-0.0949983596802	0.102923631668	1.5730843544	-0.229354858398
0.136730194092	1.28553771973	-0.0951769351959	0.101051092148	1.57187092304	-0.226219058037
0.138836145401	1.28568434715	-0.0977609157562	0.100829124451	1.57462620735	-0.222327947617
0.142462491989	1.28439033031	-0.0994851589203	0.10410785675	1.57505190372	-0.214892745018
0.148863554001	1.2779892683	-0.0992419719696	0.110228061676	1.56743752956	-0.203478097916
0.157651662827	1.26842796803	-0.0963134765625	0.114612340927	1.5617941618	-0.19020819664
0.166804552078	1.2590931654	-0.0912919044495	0.11923456192	1.56045222282	-0.177377223969
0.168534994125	1.24958002567	-0.0840319395065	0.123525857925	1.55976581573	-0.167418241501
0.165265321732	1.25027596951	-0.0869569778442	0.126023292542	1.55918943882	-0.161219120026
0.160697698593	1.25715100765	-0.0897285938263	0.125948190689	1.55950653553	-0.160411596298
0.156553506851	1.26471352577	-0.0888464450836	0.1243019104	1.56248247623	-0.164052724838
0.160192012787	1.27289509773	-0.0876333713531	0.124666690826	1.56546461582	-0.17026925087
0.168352365494	1.27735817432	-0.0828371047974	0.127245903015	1.56761300564	-0.177756071091
0.172429323196	1.27567899227	-0.0736005306244	0.128164052963	1.56996810436	-0.187697887421
0.174174308777	1.27359449863	-0.0733270645142	0.127152919769	1.57171237469	-0.199790835381
0.171446084976	1.27830922604	-0.0853477716446	0.124869346619	1.57281672955	-0.21203660965
0.16825056076	1.28266525269	-0.0978562831879	0.123703718185	1.57346701622	-0.224013566971
0.172209739685	1.28692638874	-0.110015630722	0.126531362534	1.57259571552	-0.233916521072
0.188990116119	1.29447555542	-0.122359514236	0.132742643356	1.56815671921	-0.240025997162
0.178008556366	1.29780197144	-0.138119220734	0.136567115784	1.56443154812	-0.245514631271
0.145333528519	1.29687261581	-0.157222151756	0.134547233582	1.56550335884	-0.255187034607
0.118371009827	1.29903995991	-0.160939693451	0.129781246185	1.5690176487	-0.267570018768
0.111703157425	1.31929779053	-0.18285369873	0.124779939651	1.57360136509	-0.276971578598
0.110799789429	1.33261728287	-0.206565141678	0.119402170181	1.57589364052	-0.281149864197
0.108335018158	1.32964384556	-0.195850372314	0.116999387741	1.57523870468	-0.283420562744
0.118028640747	1.31667160988	-0.146532297134	0.117171287537	1.57314479351	-0.28740477562
0.14387512207	1.31391239166	-0.133388519287	0.116577386856	1.57305908203	-0.291738271713
0.14669585228	1.31814014912	-0.142792344093	0.11568236351	1.5739389658	-0.295616149902
0.150244951248	1.31970608234	-0.136712670326	0.114508628845	1.57323515415	-0.299817085266
0.151547908783	1.3366792202	-0.150399684906	0.112881422043	1.57106471062	-0.299766778946
0.141834497452	1.34315693378	-0.154999256134	0.109081745148	1.57166695595	-0.299619913101
0.136929988861	1.3381472826	-0.140238523483	0.105113983154	1.57619953156	-0.296272754669
0.130688428879	1.32672858238	-0.128484010696	0.0999870300293	1.57852327824	-0.292378664017
0.118539333344	1.3185583353	-0.127239108086	0.0937063694	1.58103704453	-0.289755821228
0.109173774719	1.31511747837	-0.12961435318	0.0867657661438	1.58412396908	-0.289263010025
0.100088834763	1.315726161	-0.133777856827	0.0799641609192	1.58625626564	-0.289935708046
0.0928909778595	1.31821358204	-0.138960838318	0.0705580711365	1.58967971802	-0.291087150574
0.0887739658356	1.31963324547	-0.14017033577	0.0601298809052	1.59510707855	-0.292490720749
0.0887072086334	1.32051205635	-0.140703558922	0.0527698993683	1.59828066826	-0.292774200439
0.0888566970825	1.31842899323	-0.140507936478	0.0476891994476	1.59385073185	-0.291199088097
0.0893127918243	1.31404936314	-0.142544746399	0.0402641296387	1.59211301804	-0.288182139397
0.0836899280548	1.30493175983	-0.141047954559	0.0355198383331	1.59682905674	-0.289745569229
0.0848450660706	1.30208897591	-0.135475158691	0.0374410152435	1.59784805775	-0.292309522629
0.0829429626465	1.30486297607	-0.13753092289	0.0404579639435	1.59706568718	-0.292395114899
0.0832319259644	1.30391824245	-0.137032270432	0.0416173934937	1.59661531448	-0.291673183441
0.0847890377045	1.30162334442	-0.134754896164	0.0413973331451	1.59728860855	-0.287905573845
0.0848915576935	1.29683601856	-0.128405094147	0.0415048599243	1.60006535053	-0.286000728607
0.0824921131134	1.28974235058	-0.118421912193	0.0410025119781	1.60220432281	-0.288985490799
0.0807993412018	1.28697609901	-0.11229968071	0.0387272834778	1.60340869427	-0.293585658073
0.08167719841	1.29343938828	-0.114453554153	0.0357909202576	1.60371816158	-0.29637169838
0.0795757770538	1.29445576668	-0.113893508911	0.0346496105194	1.60331332684	-0.298398971558
0.0783529281616	1.29065847397	-0.113597512245	0.0337133407593	1.60337769985	-0.300123095512
0.077068567276	1.29117560387	-0.119381189346	0.0342886447906	1.60238015652	-0.300527095795
0.0782158374786	1.29739809036	-0.130113124847	0.0356838703156	1.59911322594	-0.296091794968
0.0718946456909	1.29492402077	-0.135909080505	0.036041021347	1.59713160992	-0.292988300323
0.078182220459	1.28922069073	-0.124419331551	0.0373668670654	1.59844231606	-0.294412374496
0.0835270881653	1.28509736061	-0.114623427391	0.039500951767	1.59827828407	-0.297549128532
0.0906791687012	1.29049181938	-0.115601181984	0.0428085327148	1.59739875793	-0.300719499588
0.093074798584	1.29535019398	-0.119516849518	0.0463609695435	1.59697782993	-0.302166342735
0.0968282222748	1.29402530193	-0.11847114563	0.0500619411469	1.59717345238	-0.302602291107
0.103647470474	1.28858757019	-0.109975337982	0.0549705028534	1.59600698948	-0.304982066154
0.111716508865	1.28928017616	-0.108275651932	0.0603866577148	1.59306788445	-0.308293581009
0.118088722229	1.29500675201	-0.113933205605	0.0637626647949	1.59241116047	-0.311539530754
0.121467828751	1.29753875732	-0.12008357048	0.065290927887	1.59371554852	-0.314051151276
0.124556779861	1.29487478733	-0.123200535774	0.0660500526428	1.59368038177	-0.313335180283
0.127486228943	1.29070568085	-0.126162052155	0.066662311554	1.59167027473	-0.311241745949
0.13327050209	1.28951919079	-0.1297134161	0.0677464008331	1.59181535244	-0.310584068298
0.141917943954	1.29374217987	-0.132736563683	0.0719702243805	1.59153079987	-0.309250354767
0.156491518021	1.30401742458	-0.140695095062	0.0817050933838	1.58832812309	-0.303896784782
0.154452800751	1.30500769615	-0.149729132652	0.0928013324738	1.58293199539	-0.299157142639
0.14728975296	1.29679882526	-0.143914222717	0.0994503498077	1.58203971386	-0.297971010208
0.144059181213	1.29686582088	-0.139490604401	0.103603601456	1.58212447166	-0.29653263092
0.141590595245	1.29950797558	-0.136155843735	0.102803707123	1.58359861374	-0.296354174614
0.140264987946	1.30274760723	-0.132609963417	0.0969529151917	1.58576261997	-0.298354148865
0.1389503479	1.31052279472	-0.132909655571	0.0899472236633	1.58786892891	-0.300356626511
0.138504266739	1.31694233418	-0.132021665573	0.0844027996063	1.58896017075	-0.300080299377
0.139950752258	1.31924104691	-0.128861188889	0.082492351532	1.59079241753	-0.294528961182
