-5.65544605255	0.82569283247	-19.6985569	18.7504119873	24.4509887695	37.1790542603
-5.73200321198	0.738846421242	-19.8308353424	18.8656578064	24.5816555023	37.4031143188
-5.72135162354	0.746441721916	-19.7781600952	19.1468276978	25.2163600922	37.6216964722
-5.92848777771	-0.323026418686	-19.27576828	17.5052032471	24.0480632782	34.5634117126
-8.67824649811	-3.81334090233	-14.5522117615	13.6626701355	22.0926189423	29.8282356262
-11.6359682083	-9.88233470917	-0.256896734238	7.40446472168	20.8162155151	25.4896278381
-12.4293003082	-14.4259061813	9.14213562012	-1.56742346287	20.3826160431	20.8751659393
-11.9641628265	-14.3774585724	8.93805217743	-7.25297641754	21.2350025177	17.3466415405
-12.615521431	-16.5193881989	9.41213703156	-8.36348438263	22.4946613312	15.7229309082
-13.0829772949	-21.0865383148	10.918422699	-8.47867488861	28.4640636444	17.6659431458
-14.3262071609	-24.5252246857	11.5481376648	-10.0359668732	31.6147422791	22.113079071
-14.1133804321	-23.1874256134	13.0978546143	-9.74074935913	32.802280426	24.1281604767
-13.6313905716	-22.3937168121	15.0882368088	-8.56847286224	32.7365684509	25.9351119995
-14.7759561539	-25.1138801575	17.6028862	-11.4860668182	33.0675239563	27.5680503845
-13.2470750809	-23.6406421661	19.121805191	-15.2175559998	33.6183204651	28.3179206848
-13.2834920883	-23.891544342	24.6000537872	-17.7604064941	32.8725967407	28.6008377075
-12.6134023666	-23.5625762939	25.9962787628	-19.9446487427	30.1941146851	28.6460113525
-12.946475029	-25.2495136261	20.1444702148	-23.6489105225	25.3899421692	27.3786849976
-15.5133237839	-22.9818286896	12.0473022461	-25.1888122559	22.040933609	25.7781600952
-17.0764961243	-20.9143619537	12.5489292145	-25.7553768158	24.0875797272	26.5851459503
-17.4783878326	-18.7169208527	14.6367235184	-26.4435329437	25.9152812958	24.9505138397
-17.759344101	-19.1955566406	17.4454536438	-26.725276947	24.6586551666	21.4884853363
-15.2433824539	-19.7563419342	15.995054245	-26.1738014221	23.8784580231	18.9081802368
-13.0783948898	-21.1279964447	15.3460206985	-25.3591098785	24.1981182098	17.2679843903
-12.1281375885	-22.315284729	15.3410978317	-25.0256214142	24.8297977448	16.319934845
-11.8947563171	-20.505979538	13.6059770584	-24.5753383636	25.4902553558	15.864030838
-13.6348218918	-16.0650348663	11.3188848495	-22.3092918396	26.637348175	15.9266700745
-21.2449588776	-18.4121932983	29.3804340363	-19.8026123047	27.4145584106	16.4907131195
-25.5408363342	-19.6540184021	43.7113571167	-18.1301994324	27.4326038361	16.9459896088
-23.714509964	-19.3128948212	41.9005088806	-16.8311405182	26.9868202209	17.1616210938
-21.8355827332	-19.184753418	39.3214073181	-16.3364753723	26.2154712677	17.1079673767
-20.195432663	-18.1480560303	37.0411491394	-15.9706335068	25.0522880554	16.8923377991
-19.5235958099	-18.3400745392	37.1399841309	-15.1419458389	23.744052887	16.048789978
-18.3519897461	-19.5868396759	34.0149116516	-13.4762859344	22.4440574646	14.6960430145
-17.1524238586	-20.6936321259	19.7072601318	-11.8897542953	21.178899765	13.3284626007
-17.2651958466	-19.934425354	15.6502599716	-11.339715004	21.2781600952	12.3204421997
-18.0787296295	-20.2532024384	16.8609409332	-12.1150226593	22.0629997253	11.672917366
-19.5282287598	-21.0350589752	22.1988258362	-12.1579580307	22.2586345673	10.7571563721
-19.0709877014	-21.9181251526	23.2529029846	-11.3277893066	22.7612476349	10.1636857986
-18.4452857971	-23.4341812134	23.8918628693	-10.6788358688	23.1968212128	9.3973903656
-19.0566272736	-24.6122932434	23.6814746857	-10.4390659332	23.3372421265	8.64169692993
-19.4438076019	-24.5733642578	23.4416179657	-10.3274993896	23.871099472	8.45030975342
-19.4656486511	-23.9735813141	23.7400150299	-10.7036018372	24.7959461212	8.47039794922
-19.8933773041	-23.7926025391	25.2078647614	-10.9643697739	26.6276664734	7.79263162613
-20.6877746582	-24.0890598297	28.9259986877	-10.4985837936	30.5600795746	6.85600185394
-19.2368469238	-26.339963913	32.6533088684	-10.1687021255	33.7889099121	5.86593103409
-17.4588527679	-28.7036533356	31.9245738983	-10.0705480576	33.0145721436	4.11686134338
-18.0014839172	-31.5908432007	29.7861156464	-9.97318077087	32.2739524841	3.03766489029
-19.8275909424	-32.6940383911	26.4599666595	-10.4656591415	32.4214744568	3.22705364227
-20.0732555389	-30.3922290802	19.7852611542	-10.9393997192	32.1815109253	3.28984594345
-17.6069068909	-17.5072116852	2.11758852005	-10.5237855911	32.1522827148	3.3451218605
-23.8775253296	-3.34228348732	-4.31094503403	-9.78311252594	31.827960968	4.11228179932
-27.3153133392	-0.881792008877	-1.98580145836	-10.2429695129	31.2398338318	4.61704397202
-29.0072345734	-1.98050951958	5.29152297974	-10.9277486801	30.4752578735	4.49719762802
-29.5660209656	-3.54697990417	10.8648500443	-11.1722555161	29.7057495117	4.49323797226
-29.6241874695	-5.23461866379	17.4821605682	-11.3263874054	30.2974319458	4.02292203903
-30.7900848389	-7.54368877411	20.1630744934	-11.191321373	31.120470047	3.93612909317
-29.8193874359	-9.55829524994	17.8233661652	-10.8222455978	31.2259578705	4.17648649216
-29.3548069	-9.46534633636	13.0374679565	-10.5959787369	31.5013141632	3.98200488091
-30.2719650269	-7.85291242599	10.5579328537	-10.7217483521	32.2932739258	4.17150354385
-31.2474441528	-4.68553686142	10.409869194	-10.7855005264	32.5878753662	4.75170993805
-29.1523990631	-3.4542722702	12.1714134216	-10.7861061096	32.4665985107	4.72983455658
-27.5524692535	-5.01485967636	11.285443306	-10.569981575	32.8743743896	4.19064664841
-27.9858627319	-5.82257080078	11.9148015976	-10.2147827148	32.9778251648	4.08558273315
-26.9469871521	-3.81978034973	13.2751150131	-9.86281585693	32.8422241211	3.90057325363
-24.3689956665	-1.78145825863	9.89970970154	-9.40374183655	32.25623703	4.2682390213
-25.2219543457	0.819853305817	8.58901786804	-9.31608009338	31.6281108856	4.6046090126
-26.8797149658	2.62191605568	9.01646995544	-9.805560112	31.2259101868	4.56461238861
-28.4286060333	2.98276472092	9.90186023712	-10.7617073059	31.0169696808	6.84331798553
-29.0773296356	2.58183407784	9.73093795776	-9.80275249481	31.4689502716	12.9034910202
