0.0	-0.0	138.651290894	-136.36416626	77.9455032349	164.670516968
0.0	-0.0	138.101104736	-136.366104126	77.7874679565	164.96975708
0.0	-0.0	135.597229004	-136.997650146	77.0068664551	165.187789917
0.0	-0.0	125.946624756	-139.092315674	71.6962432861	165.73210144
0.0	-0.0	107.044998169	-143.010375977	56.1502838135	165.957168579
0.0	-0.0	87.887550354	-146.121520996	42.3891181946	166.892608643
0.0	-0.0	85.7196044922	-147.216094971	33.0819740295	167.104736328
0.0	-0.0	84.3868484497	-145.791503906	25.4176692963	165.95602417
0.0	-0.0	94.7908477783	-143.127746582	15.4934720993	164.698806763
0.0	-0.0	108.556404114	-141.475692749	9.52582836151	163.365341187
0.0	-0.0	120.172195435	-140.875106812	8.4372587204	161.882049561
0.0	-0.0	123.282745361	-140.27684021	6.87240791321	159.414123535
0.0	-0.0	119.321960449	-140.632019043	2.88345479965	158.154281616
0.0	-0.0	110.814025879	-140.094573975	-0.653093338013	157.468780518
0.0	-0.0	56.8671531677	-136.770721436	-2.67825889587	157.7215271
0.0	-0.0	7.15194606781	-133.933990479	-2.78935742378	159.201126099
0.0	-0.0	16.5736637115	-134.80128479	-0.726655185223	158.941955566
0.0	-0.0	47.7882843018	-136.227264404	1.0799292326	158.101989746
0.0	-0.0	74.8132705688	-136.097076416	1.87635707855	158.382141113
0.0	-0.0	100.442405701	-135.988677979	2.68338441849	158.163604736
0.0	-0.0	118.273536682	-137.166000366	3.17536330223	158.431335449
0.0	-0.0	128.948684692	-139.76991272	4.83758687973	157.478286743
0.0	-0.0	120.332130432	-142.290222168	4.14200019836	155.265808105
0.0	-0.0	62.3137741089	-140.870834351	2.48857331276	153.996887207
0.0	-0.0	20.8354244232	-134.678970337	1.01523411274	155.140487671
0.0	-0.0	28.8196239471	-130.268341064	2.60356760025	157.29208374
0.0	-0.0	36.6818351746	-130.28843689	6.21448373795	159.400360107
0.0	-0.0	44.5971450806	-129.376464844	10.107963562	159.838043213
0.0	-0.0	45.5610237122	-129.110198975	13.1506347656	160.385452271
0.0	-0.0	45.7400856018	-130.103775024	17.5349063873	161.253982544
0.0	-0.0	46.9912757874	-131.948928833	22.2074928284	160.879806519
0.0	-0.0	73.1424789429	-135.120147705	24.194562912	161.093475342
0.0	-0.0	112.965309143	-139.008209229	24.1286888123	161.659973145
0.0	-0.0	118.625434875	-140.321899414	23.816236496	161.30758667
0.0	-0.0	116.491317749	-139.887710571	22.4369602203	160.222290039
0.0	-0.0	115.209487915	-138.973098755	19.9171543121	159.227493286
0.0	-0.0	115.210159302	-138.5809021	17.7245140076	159.127548218
0.0	-0.0	115.589241028	-137.651824951	14.5392541885	158.359100342
0.0	-0.0	116.967430115	-135.890960693	10.297501564	158.12840271
0.0	-0.0	114.409820557	-134.969863892	7.37561607361	158.471084595
0.0	-0.0	100.430648804	-134.19631958	7.15382623672	158.387069702
0.0	-0.0	38.5902938843	-134.347412109	7.04510259628	157.265686035
0.0	-0.0	38.7050628662	-134.131286621	7.30788755417	156.394973755
0.0	-0.0	42.6420783997	-134.004455566	7.41320896149	155.156326294
0.0	-0.0	55.6393013	-133.888809204	5.51022291183	154.432571411
0.0	-0.0	78.3896179199	-132.716201782	5.67720651627	155.172897339
