-14.5570297241	-30.7981147766	136.501052856	2.47285223007	2.64218878746	-5.23387432098
-14.6284971237	-31.0450000763	136.33303833	2.35441064835	2.70286178589	-5.03256034851
-14.4475059509	-31.099281311	134.390228271	2.17656755447	3.00081944466	-4.8896894455
-8.78211784363	-28.4991054535	100.212333679	1.88206195831	4.08410453796	-4.82331943512
-8.38549804688	-25.0884132385	61.3854904175	3.02480602264	7.85642337799	-5.21681118011
-13.5152902603	-28.3617038727	45.6094322205	4.27271318436	12.8089923859	-5.15646505356
-14.9439678192	-31.1204013824	37.4717445374	5.45911312103	16.3556575775	-5.23521471024
-12.6997909546	-31.7043075562	31.5489234924	6.6985077858	18.8328075409	-5.77806091309
-9.71670341492	-34.1404685974	36.3002166748	7.5363817215	21.0777263641	-6.5171880722
-4.79954481125	-41.478553772	50.4894371033	8.14012336731	22.455904007	-7.06230640411
-6.23517751694	-47.2487945557	70.3857803345	8.61336040497	22.4507541656	-7.52334880829
-3.71731495857	-45.2724761963	88.0649108887	9.5103559494	21.4699497223	-8.06299209595
-3.44211864471	-41.2609519958	95.3770980835	9.83878707886	21.0222759247	-8.25136184692
-1.14980578423	-41.2180633545	92.5204315186	9.622382164	20.6949539185	-8.60512828827
2.2754676342	-46.5976867676	87.3975601196	9.09408950806	20.723575592	-8.54413414001
15.4519910812	-43.3961257935	53.4942207336	9.16882228851	20.6269397736	-8.69614124298
16.6582698822	-32.8278045654	21.150144577	9.95965099335	20.4444713593	-8.85716056824
7.64853143692	-34.5878944397	13.3419361115	10.2963495255	21.011674881	-8.67534923553
7.84976291656	-46.2708244324	32.4521484375	10.6820058823	21.4511585236	-8.47777843475
0.611763000488	-61.0516242981	65.3555831909	11.9605989456	21.0933933258	-8.0945930481
2.06862711906	-64.8407440186	62.337436676	12.0059986115	21.7459449768	-8.11208820343
12.5821552277	-62.0326728821	44.0182571411	11.4803524017	23.1807003021	-8.59131813049
10.8654298782	-67.2601623535	51.0309181213	11.7582044601	22.1936626434	-8.98593044281
2.55853796005	-75.2728042603	70.5064620972	11.3646440506	21.1600990295	-9.2119102478
-37.4969863892	-82.3325881958	122.180778503	10.8459720612	20.8101463318	-9.75092029572
-87.7713546753	-81.8481674194	-177.671615601	11.202671051	20.3924160004	-9.46867752075
-40.7354927063	-82.327041626	128.098175049	11.818561554	20.8203811646	-9.09007263184
16.8359642029	-52.0419082642	24.1012744904	11.9372005463	23.0306739807	-9.06102657318
16.6782493591	-43.0674285889	1.77560997009	12.6079702377	23.8044128418	-8.64231872559
15.0943975449	-54.1365432739	20.5069522858	12.9774007797	23.4357261658	-8.39209365845
18.621427536	-61.0349235535	31.6885261536	13.5595474243	23.6127319336	-9.20850467682
24.5263690948	-68.5504074097	35.4699172974	15.0048904419	25.0618019104	-9.21718883514
17.5615940094	-68.8503417969	41.072555542	15.5865449905	25.5253429413	-9.02563381195
12.3323230743	-48.6595115662	19.7809696198	15.3450222015	25.0656433105	-9.57522964478
7.3473367691	-42.9079551697	20.2782020569	15.9483880997	25.1428127289	-10.3777284622
1.78751516342	-46.956161499	26.9297351837	16.8193492889	22.4996376038	-9.57944488525
-1.67753612995	-48.036945343	26.4248943329	15.7284507751	19.7550754547	-8.85431194305
-1.28424668312	-47.6395530701	26.2625045776	12.5737428665	17.5791301727	-7.2732424736
1.69117176533	-46.7227249146	25.7350063324	8.78019142151	16.069355011	-5.07031774521
4.50982427597	-44.1006698608	24.3266105652	6.72560930252	17.5998020172	-3.99284100533
6.98891448975	-42.6731910706	23.6083450317	7.1796836853	21.7971897125	-3.31334900856
7.97779178619	-42.0722427368	24.3545684814	8.94368934631	24.1020298004	-3.21583819389
8.97545719147	-41.2423095703	24.483549118	11.0480899811	24.1413993835	-4.17419481277
8.62270832062	-40.4406929016	26.1973896027	12.1165246964	22.9022312164	-4.78145599365
8.32341384888	-39.5136032104	32.1111297607	11.1877002716	20.3965454102	-5.02149248123
9.45783996582	-37.9119682312	32.1955070496	10.5463171005	18.4956684113	-5.00434970856
8.9790802002	-40.7941970825	34.264755249	8.55003070831	17.7740516663	-4.69016218185
9.33656311035	-40.9294548035	34.9819869995	2.84466409683	16.3294506073	-3.99011325836
9.47852230072	-38.5668563843	34.7375869751	1.86684596539	16.0110721588	-3.97666835785
8.79459476471	-38.3395690918	35.4415473938	4.10751199722	18.4052181244	-3.67728829384
7.69969034195	-39.5611534119	35.611289978	6.13992786407	19.1256484985	-2.98933959007
6.52673482895	-39.77734375	35.7876625061	6.93999624252	18.3162231445	-3.15896344185
5.8554649353	-38.9483413696	36.6643218994	7.19072198868	17.165807724	-3.74750447273
6.16614294052	-37.8685150146	37.0680999756	7.17606544495	16.5374221802	-3.78081727028
6.57905626297	-37.6652297974	37.7745475769	6.76089715958	15.8034858704	-3.81607222557
6.53922605515	-37.95470047	38.6299057007	6.55773639679	15.1683616638	-3.876963377
6.11550712585	-38.1322135925	40.3303604126	6.40382194519	15.3903083801	-3.85548639297
5.9292678833	-36.9351196289	40.9988441467	5.77644968033	16.0543460846	-3.48600435257
5.06796693802	-36.7205581665	41.9675292969	5.53196430206	15.8002948761	-3.06092810631
4.22171545029	-36.2342262268	42.6233901978	5.49361991882	15.2339868546	-3.00730729103
3.57073521614	-35.4643859863	43.3452262878	5.42676258087	15.8038959503	-3.19230747223
3.24009728432	-35.3766365051	45.0429344177	5.09788894653	16.6774463654	-2.98661494255
3.1854994297	-37.4139404297	54.3179168701	4.39968729019	17.4229698181	-2.95913100243
4.00813245773	-38.8585243225	59.9393196106	4.68062353134	17.5495700836	-3.14939713478
3.65808725357	-39.7380867004	63.9494514465	5.59346199036	17.3714160919	-3.44328212738
4.3248796463	-38.1886558533	62.1259613037	6.34219360352	17.4440059662	-3.69614553452
4.39219093323	-35.7418708801	62.2422409058	6.35595798492	17.7540454865	-3.79154849052
4.04697751999	-32.9863624573	61.8804664612	6.40127229691	18.0883731842	-3.85770487785
4.05127954483	-31.659942627	63.2564659119	6.97696113586	18.0637111664	-4.0592675209
2.98349809647	-32.3437767029	71.8149261475	7.77697038651	18.4856071472	-4.44697523117
1.53993928432	-33.4195098877	81.1150436401	8.90425872803	19.2995471954	-4.64907646179
1.92445445061	-33.2950515747	84.4026184082	9.69033145905	19.8046722412	-4.88194847107
2.67459535599	-33.494228363	83.7967224121	11.1358985901	19.8231906891	-5.30649137497
3.37229347229	-33.618598938	82.5087051392	12.5329885483	19.7853622437	-5.12347459793
4.26238584518	-33.1865730286	79.8933792114	13.295668602	20.2126636505	-4.70364141464
