0.0513381958008	1.17869067192	0.175065875053	0.0509178638458	1.5943852663	-0.155833721161
0.0517010688782	1.17942631245	0.174723863602	0.0502767562866	1.59412264824	-0.156004786491
0.0513989925385	1.17847824097	0.174901723862	0.0488395690918	1.59329223633	-0.156196594238
0.0507862567902	1.17849886417	0.173852443695	0.0470418930054	1.59299397469	-0.155718803406
0.0507671833038	1.1766910553	0.174120187759	0.0464367866516	1.59350907803	-0.155881881714
0.0518798828125	1.17524945736	0.175647735596	0.0474002361298	1.59471237659	-0.156792640686
0.0530741214752	1.18066966534	0.174040317535	0.0487732887268	1.59571766853	-0.157104730606
0.0500178337097	1.18932569027	0.170075058937	0.0489702224731	1.59736979008	-0.157972216606
0.0375125408173	1.19036090374	0.171776771545	0.0476438999176	1.60156369209	-0.160957098007
0.0244162082672	1.17448973656	0.184792757034	0.043438911438	1.60781002045	-0.16636133194
0.0135269165039	1.14255332947	0.203782081604	0.0381984710693	1.61346781254	-0.172857046127
0.0118265151978	1.11831367016	0.210309386253	0.0323238372803	1.61935269833	-0.178733587265
0.018486738205	1.10275828838	0.212030172348	0.0274488925934	1.62558495998	-0.18289065361
0.0227615833282	1.09211301804	0.21086192131	0.0250136852264	1.6301099062	-0.184864640236
0.0197563171387	1.09705233574	0.201195001602	0.0209918022156	1.63675415516	-0.186369180679
0.0182251930237	1.10939133167	0.187205195427	0.0162603855133	1.64314246178	-0.189920186996
0.0183761119843	1.11876988411	0.180099010468	0.0157792568207	1.64794909954	-0.19241809845
0.0222070217133	1.12626004219	0.17997610569	0.0189547538757	1.65364992619	-0.195438981056
0.0307574272156	1.13605189323	0.178899645805	0.0200319290161	1.65828216076	-0.200501680374
0.0373511314392	1.14555418491	0.171651721001	0.0131525993347	1.659912467	-0.202406167984
0.0422687530518	1.16465985775	0.153412222862	0.00741648674011	1.66041660309	-0.200678110123
0.0439705848694	1.18845319748	0.130115151405	0.00570511817932	1.65892457962	-0.196265220642
0.0462799072266	1.20057749748	0.123865127563	0.00598669052124	1.65630102158	-0.190774679184
0.0536923408508	1.20193815231	0.126744627953	0.0048496723175	1.65630483627	-0.189719319344
0.0661268234253	1.1961388588	0.131509065628	0.00280928611755	1.65647935867	-0.193820238113
0.0793151855469	1.18862426281	0.133736371994	0.0051429271698	1.65481102467	-0.197809934616
0.0853409767151	1.18489348888	0.131329774857	0.0087730884552	1.65516555309	-0.20456469059
0.0864849090576	1.18221032619	0.126319408417	0.00717210769653	1.65980029106	-0.214070081711
0.0884845256805	1.17116355896	0.124873280525	0.00447177886963	1.66407752037	-0.225420475006
0.0908901691437	1.15240728855	0.131515979767	0.00731229782104	1.66305184364	-0.233300924301
0.0963792800903	1.13807725906	0.138444423676	0.0109870433807	1.66011369228	-0.236013889313
0.0963542461395	1.13149285316	0.141933917999	0.0116107463837	1.65789163113	-0.236042499542
