0.0	-0.0	132.754364014	-127.219688416	78.9606246948	173.549484253
0.0	-0.0	132.476379395	-126.978881836	79.6927108765	173.216995239
0.0	-0.0	132.326416016	-126.962387085	80.4364776611	173.04119873
0.0	-0.0	109.161003113	-126.640136719	84.4278335571	173.128799438
0.0	-0.0	94.3816757202	55.6626167297	79.6979370117	-5.04831361771
0.0	-0.0	78.9567489624	59.9949874878	64.3912124634	-3.94714307785
0.0	-0.0	73.5272293091	65.6026535034	57.3447761536	-3.9307384491
0.0	-0.0	66.6682891846	68.7803573608	51.9098167419	-4.20103120804
0.0	-0.0	53.3242416382	69.0997695923	44.4799880981	-2.4354827404
0.0	-0.0	53.9534912109	68.7003631592	34.5372695923	-0.176344126463
0.0	-0.0	53.8556632996	70.0099868774	27.8861751556	0.17631931603
0.0	-0.0	50.6394462585	73.4116363525	24.5703239441	-2.7524895668
0.0	-0.0	48.8206253052	78.4506988525	25.0171718597	-5.90656661987
