0.43754196167	1.54811859131	-0.422743558884	-0.091600894928	1.577922225	-0.34157371521
0.436076402664	1.54683947563	-0.427729964256	-0.0933680534363	1.57781481743	-0.343678236008
0.434501171112	1.54342210293	-0.430731534958	-0.0945997238159	1.57749938965	-0.346292972565
0.432225942612	1.53008937836	-0.426944494247	-0.0959765911102	1.57815313339	-0.348872661591
0.41175532341	1.4947873354	-0.410743713379	-0.0975561141968	1.58009016514	-0.350744247437
0.355729579926	1.43835413456	-0.383317232132	-0.0984563827515	1.58099710941	-0.352780342102
0.270193338394	1.38331067562	-0.361315131187	-0.0970051288605	1.5819466114	-0.354776978493
0.185551643372	1.33279657364	-0.346674442291	-0.0925273895264	1.58189463615	-0.356266021729
0.117198467255	1.30029034615	-0.334158182144	-0.0873017311096	1.58147025108	-0.357781529427
0.0735645294189	1.29365086555	-0.329297184944	-0.0841464996338	1.58083868027	-0.358256340027
0.044695854187	1.28987145424	-0.319694280624	-0.0827128887177	1.58018362522	-0.357993125916
0.0161964893341	1.28243529797	-0.310624241829	-0.0818634033203	1.58140623569	-0.358242511749
-0.00971746444702	1.27351224422	-0.305050492287	-0.0827889442444	1.58199703693	-0.356986045837
-0.0240058898926	1.27077698708	-0.298752307892	-0.0853655338287	1.57973670959	-0.352983474731
-0.0254006385803	1.28040981293	-0.295877695084	-0.0879757404327	1.5782930851	-0.348484754562
-0.0324001312256	1.28621840477	-0.295790672302	-0.0900840759277	1.57671332359	-0.344229459763
-0.0377459526062	1.28319513798	-0.284653186798	-0.0920836925507	1.57438206673	-0.341526269913
-0.0306973457336	1.24449646473	-0.240749597549	-0.0936634540558	1.57410228252	-0.34073805809
-0.0243601799011	1.19097113609	-0.214223384857	-0.0951972007751	1.57587373257	-0.338948488235
-0.0356044769287	1.19271636009	-0.215308189392	-0.0977675914764	1.5761910677	-0.333759069443
-0.0476224422455	1.20671236515	-0.215107917786	-0.0990557670593	1.57498824596	-0.327595949173
-0.0541589260101	1.21056187153	-0.207894325256	-0.0994298458099	1.57361125946	-0.321174621582
-0.0508546829224	1.21025884151	-0.197778224945	-0.099161863327	1.57252657413	-0.315306305885
-0.0359160900116	1.20218813419	-0.179122447968	-0.0976965427399	1.57278680801	-0.309903979301
-0.0183353424072	1.20947694778	-0.168076992035	-0.0979256629944	1.57214069366	-0.305030822754
-0.0102760791779	1.23319768906	-0.173094272614	-0.100195646286	1.56882512569	-0.300038099289
-0.00248885154724	1.24773788452	-0.178969144821	-0.102719306946	1.5640257597	-0.295482397079
-0.000161170959473	1.26103520393	-0.1893491745	-0.106503009796	1.5621932745	-0.292693138123
-0.00856566429138	1.25784039497	-0.19855427742	-0.10924911499	1.56206679344	-0.294355750084
-0.0364232063293	1.22655618191	-0.209683418274	-0.110988378525	1.56058096886	-0.297615766525
-0.0626745223999	1.20674872398	-0.227994680405	-0.112284898758	1.56037008762	-0.30172586441
-0.0634784698486	1.21629214287	-0.235064744949	-0.1135866642	1.56192338467	-0.306662321091
