-43.3684844971	-55.3809738159	134.210571289	-0.949479997158	3.68526959419	-8.42577552795
-43.5994415283	-55.5196495056	134.166061401	-1.01175189018	3.63180851936	-8.39905834198
-43.6383705139	-55.7637825012	134.09185791	-1.15492141247	3.60561132431	-8.38194179535
-41.8072128296	-57.1033821106	129.028747559	-1.06904602051	3.80929231644	-8.32544326782
-37.7631721497	-60.0265235901	116.363868713	-0.781536340714	3.55752944946	-8.0873670578
-41.2791290283	-60.9216918945	119.846031189	-0.408560037613	2.17783355713	-7.98410987854
-43.0047645569	-61.2089042664	125.210754395	0.502474188805	0.106262169778	-7.90961456299
-41.9615211487	-63.8884658813	122.653305054	2.07753705978	-2.01592850685	-7.72815895081
-24.8479442596	-70.5251846313	93.7864532471	3.61643481255	-4.19887447357	-7.57025909424
3.32908391953	-72.399887085	50.9760627747	4.85222530365	-6.93574476242	-7.08645915985
8.90264511108	-74.9241256714	41.5426292419	5.45342731476	-9.71808242798	-6.45914983749
-0.992635965347	-75.1102828979	51.1231307983	5.33110952377	-11.1746139526	-5.83595943451
-11.0619382858	-74.6808853149	61.8559837341	5.26109170914	-11.1041784286	-5.74223279953
-22.1465072632	-74.6512298584	75.5765380859	5.92233371735	-11.8407478333	-5.68788480759
-32.3828353882	-74.6045608521	86.925567627	6.30970525742	-13.3021354675	-5.70459604263
-38.2093658447	-75.795715332	91.1524200439	6.64185476303	-14.3032722473	-5.71764612198
-34.4756889343	-75.73777771	85.1987609863	6.66674613953	-15.1381778717	-5.39149427414
-23.863653183	-75.0991973877	72.0889434814	6.44889068604	-15.7219228745	-5.06453037262
-18.0644359589	-72.8493118286	65.380241394	6.07666635513	-16.141910553	-4.63169813156
-19.1539115906	-70.4725036621	68.6163864136	5.66649675369	-16.5519752502	-4.34707450867
-12.5922574997	-68.7717666626	61.6187820435	5.57843399048	-16.8246269226	-4.20091295242
-6.09040212631	-68.2039871216	53.9222221375	5.60818099976	-16.8256416321	-4.19149541855
-2.16826915741	-68.0449523926	48.3958396912	5.41903734207	-16.3979663849	-4.10766839981
-2.95934176445	-67.8152160645	48.5469551086	5.37779760361	-15.8706073761	-3.76146245003
-7.54667425156	-68.4999389648	53.0574302673	4.75905418396	-15.263507843	-3.35978889465
-9.98870849609	-69.5155792236	55.2245368958	4.54331731796	-15.1632757187	-2.86818909645
-7.39813899994	-69.7398223877	49.4077033997	4.19692850113	-15.6607112885	-2.33406233788
-1.36252200603	-68.7496795654	38.4575462341	4.2374458313	-16.4203453064	-2.1358923912
4.59807109833	-62.3817024231	22.7770347595	4.60684156418	-16.2956218719	-2.05311512947
5.29419469833	-57.9059410095	16.1435852051	4.69422578812	-16.3285293579	-1.87867426872
2.64669919014	-55.8953094482	19.3926277161	4.45419740677	-16.1555252075	-1.53542530537
2.63786005974	-55.1483535767	20.3589057922	3.8061811924	-15.8298397064	-1.19423377514
1.12683343887	-55.0272445679	23.6918315887	3.44147777557	-15.5325984955	-0.74952596426
0.770467281342	-55.3158073425	25.7420768738	3.35996031761	-15.4907512665	-0.546319127083
2.08769845963	-56.492855072	23.3515396118	3.58369636536	-15.3863840103	-0.595519542694
4.83964109421	-57.3977203369	16.0021076202	3.55452060699	-14.8347635269	-0.457745283842
3.76667428017	-58.0457458496	13.6992473602	3.17459011078	-14.1803846359	-0.0499649904668
1.67448854446	-58.3629798889	14.0927476883	2.46630954742	-13.7292633057	0.395314484835
-0.259501665831	-58.9024772644	15.4572563171	1.93229329586	-13.5934371948	0.772910296917
-1.19997429848	-58.9222717285	16.8469085693	2.04045081139	-13.8208551407	0.733268558979
-1.14423811436	-58.1917152405	16.4323959351	2.72330260277	-13.9826059341	0.365791141987
1.37975502014	-55.213722229	9.92740154266	3.01391983032	-13.9464740753	0.381209939718
-0.271260231733	-52.7290306091	7.17626571655	2.74230647087	-13.9246044159	0.451773911715
-4.00667953491	-53.4528961182	10.0780763626	2.51087236404	-13.7715873718	0.405150204897
-5.80409049988	-54.389251709	11.5443639755	2.4639942646	-13.4125699997	0.395075112581
-8.69534397125	-54.7261314392	13.9436273575	2.43568897247	-13.3484563828	0.557018518448
-9.93074035645	-54.2014389038	14.1204719543	2.66876316071	-13.6731357574	0.572678506374
-8.30328655243	-54.4596176147	10.4497718811	3.0128467083	-14.0437192917	0.665046453476
-8.663646698	-55.4410133362	7.93757963181	3.46336293221	-14.0656471252	0.805814802647
-12.3215408325	-57.9140472412	13.5253973007	3.77081441879	-13.7814903259	0.994340419769
-17.9008541107	-58.8936538696	22.2518978119	3.93524050713	-13.7822666168	1.0096193552
-25.3686218262	-60.8316841125	36.3417816162	4.18307733536	-13.7489500046	0.879584372044
-39.7424163818	-64.9983139038	63.7688674927	4.47270202637	-13.8573637009	0.910249054432
-49.3354644775	-68.7099990845	79.4652328491	4.54529953003	-13.8016376495	0.878988802433
-52.4562683105	-70.9211502075	83.9191055298	4.77409934998	-13.543671608	0.770068109035
-26.7801361084	-70.7559509277	50.2882766724	4.92614603043	-13.6367902756	0.689841270447
-9.73819541931	-65.4274215698	25.0535106659	4.61151504517	-13.7870874405	0.699883878231
-26.0036659241	-67.4331436157	50.2455253601	3.92647433281	-13.8500757217	1.04220104218
-32.1946601868	-69.0751419067	61.2325019836	3.43414616585	-12.8219451904	1.39707684517
-26.8152961731	-71.1149597168	56.4595146179	4.0128698349	-11.6166629791	1.57055068016
-10.5004081726	-69.1957244873	29.7161388397	4.41990184784	-10.8638420105	1.8009468317
-18.8274860382	-65.4476928711	27.1223602295	4.3181810379	-10.9274196625	2.06459307671
-34.9834785461	-65.9797058105	46.9880943298	4.03814744949	-11.5997829437	2.34796357155
-37.9283409119	-68.022605896	51.6001319885	4.14180850983	-12.2376527786	2.04746460915
-34.422580719	-69.9882888794	46.4231109619	4.7238945961	-12.6397819519	1.76688170433
-33.9181175232	-70.7567520142	44.3034210205	5.08137893677	-12.8046827316	1.83776807785
-34.8299446106	-71.0284576416	44.3966674805	5.08142709732	-13.1712503433	2.21685123444
-35.4810180664	-70.8180618286	45.2301979065	4.90540599823	-13.7750263214	3.18368315697
-36.0119476318	-72.5197296143	46.4115371704	5.05276012421	-14.9265232086	3.88353586197
-42.5898399353	-75.8299942017	54.6848373413	5.39445114136	-15.5715169907	3.93488574028
-57.6764945984	-77.0233383179	73.3672027588	5.93543863297	-15.0232906342	3.652957201
-56.6219596863	-78.2676239014	72.8579711914	6.02652788162	-15.1992921829	3.66968083382
-55.4224281311	-78.8117980957	72.1580276489	6.11719799042	-15.9066810608	3.40563607216
-63.7939567566	-80.5158157349	86.0389099121	6.60934591293	-16.4543056488	2.9418361187
-98.3740005493	-80.0682373047	130.877349854	7.27614068985	-16.4592914581	2.49009370804
-112.666481018	-76.4434890747	154.225738525	7.54995965958	-16.082233429	2.16744184494
-112.988098145	-80.7728500366	152.656311035	7.67932415009	-16.0013637543	2.04701256752
5.87295293808	-87.4492645264	20.2292175293	7.7859582901	-15.9578838348	2.09733200073
13.8535776138	-81.4562149048	-0.930657207966	7.85522603989	-15.5794754028	2.04207468033
-18.3121547699	-83.5968017578	30.9880104065	7.91940116882	-15.2753210068	2.12550449371
-37.4864273071	-81.0304260254	50.7655220032	7.66367769241	-14.9313020706	2.19420623779
-45.6359024048	-79.8897018433	60.1725769043	7.58575201035	-15.0483083725	2.26472735405
-47.6428146362	-79.2520828247	61.6831283569	7.80920648575	-15.2437458038	2.2117934227
-45.5007171631	-76.5496520996	57.8990745544	7.75043344498	-15.2303581238	2.37998247147
-36.360332489	-74.8770370483	46.2093048096	7.54810190201	-15.1610603333	2.46916055679
-31.6684989929	-72.7618255615	38.8872184753	7.21434402466	-15.183262825	2.60098934174
-37.5382003784	-73.3842773438	43.9294586182	6.82459306717	-15.370215416	2.79664874077
-41.1701889038	-74.827911377	46.9526672363	6.87366008759	-15.7189188004	2.73859357834
-43.915145874	-76.4761962891	49.3076591492	7.52532052994	-16.7236042023	2.40716576576
-48.1741714478	-77.9678268433	53.3835983276	8.51533317566	-17.8874034882	1.93891859055
-50.6735992432	-78.0388336182	56.4797782898	9.49906539917	-18.3675174713	1.8010071516
-48.480255127	-77.4288711548	54.5607299805	10.4493198395	-19.6265296936	0.898774683475
-50.0129890442	-76.9675140381	56.2336769104	11.4619226456	-21.166765213	0.0861507430673
-49.7568359375	-77.424911499	56.3272857666	12.1781396866	-21.2657546997	-0.929833710194
