0.182286262512	1.22556746006	-0.0489614009857	0.0341556072235	1.61033773422	-0.299475431442
0.181921958923	1.22491645813	-0.0503721237183	0.0325291156769	1.60983395576	-0.299726366997
0.176457643509	1.21979415417	-0.0480266809464	0.0306973457336	1.60973572731	-0.301524877548
0.149667739868	1.19776153564	-0.0404009819031	0.0277462005615	1.61039197445	-0.30353140831
0.104477882385	1.18865966797	-0.0548979043961	0.0253758430481	1.61148798466	-0.304451227188
0.0565271377563	1.20430934429	-0.0901210308075	0.0224394798279	1.61242938042	-0.303332090378
0.0230443477631	1.22507655621	-0.12671482563	0.0176339149475	1.61463344097	-0.299280285835
0.00322794914246	1.24339902401	-0.156120061874	0.0110690593719	1.61569368839	-0.291306257248
-0.00712323188782	1.25402021408	-0.172034025192	0.00272226333618	1.61465418339	-0.280990481377
-0.0126645565033	1.2585285902	-0.178185343742	-0.00638031959534	1.6141012907	-0.271075129509
-0.00887680053711	1.26116025448	-0.172728896141	-0.0132279396057	1.61438024044	-0.261147260666
-0.00387382507324	1.26514267921	-0.164680957794	-0.0179162025452	1.61387693882	-0.250499367714
0.00187754631042	1.26846766472	-0.155128002167	-0.020635843277	1.61318659782	-0.24035525322
0.0111968517303	1.27435827255	-0.146643877029	-0.022910118103	1.6130065918	-0.233021736145
0.0243797302246	1.28600978851	-0.140599250793	-0.0243084430695	1.61322498322	-0.231325626373
0.0258462429047	1.29898428917	-0.143885374069	-0.0270891189575	1.61551249027	-0.235539197922
0.0212800502777	1.30459415913	-0.144312858582	-0.032475233078	1.61624717712	-0.239334583282
0.0140533447266	1.30754077435	-0.145680189133	-0.0405097007751	1.61498785019	-0.239768981934
0.00643515586853	1.31366622448	-0.146920800209	-0.0501260757446	1.61523640156	-0.236791968346
-0.00459218025208	1.30886971951	-0.141314268112	-0.0611946582794	1.61465680599	-0.232646107674
-0.0184314250946	1.29601407051	-0.134627819061	-0.0720496177673	1.6132825613	-0.230093598366
-0.0403017997742	1.27367842197	-0.13084924221	-0.081650018692	1.61210167408	-0.23170042038
-0.0365977287292	1.25627923012	-0.117949008942	-0.0886573791504	1.61193740368	-0.238128423691
-0.0253043174744	1.26614713669	-0.122530221939	-0.091826915741	1.612865448	-0.247598648071
