0.0985975265503	1.1808835268	0.21420955658	0.0322659015656	1.60333561897	-0.185556650162
0.0991082191467	1.1797670126	0.212599754333	0.0314629077911	1.60277163982	-0.187072277069
0.0973961353302	1.17898237705	0.210231781006	0.0303030014038	1.60316884518	-0.188908219337
0.0939376354218	1.17754888535	0.206758379936	0.028459072113	1.603738904	-0.189587593079
0.0877079963684	1.17741596699	0.198872089386	0.026228427887	1.60348939896	-0.189862251282
0.0737380981445	1.17370164394	0.18697309494	0.0241947174072	1.60342311859	-0.189954519272
0.057758808136	1.17465531826	0.171165466309	0.0223383903503	1.60351932049	-0.189006686211
0.0434856414795	1.18541586399	0.149855017662	0.0215165615082	1.60415029526	-0.187995433807
0.0313763618469	1.2053655386	0.122091293335	0.0220150947571	1.60507917404	-0.186051607132
0.0198369026184	1.22749662399	0.0901948213577	0.0226602554321	1.60530734062	-0.182026386261
0.0130903720856	1.24785327911	0.0557243824005	0.0230202674866	1.60446512699	-0.176411867142
0.00963592529297	1.26296913624	0.0224397182465	0.0224845409393	1.60404860973	-0.168673038483
0.00921297073364	1.2734926939	-0.00609540939331	0.0215711593628	1.60136270523	-0.158340215683
0.0113379955292	1.27918314934	-0.0249569416046	0.0214037895203	1.59637451172	-0.148507237434
0.0110187530518	1.27824902534	-0.0310335159302	0.0210206508636	1.59297454357	-0.142142772675
0.00542545318604	1.27024030685	-0.0202506780624	0.0188450813293	1.59285378456	-0.140055894852
-0.00235176086426	1.26093137264	0.00969159603119	0.0154922008514	1.59312462807	-0.140833616257
-0.00370645523071	1.25241315365	0.0371947288513	0.0120062828064	1.59387493134	-0.142863273621
-0.00392127037048	1.25472044945	0.0387592315674	0.00653791427612	1.59593844414	-0.144038438797
-0.00867915153503	1.26175653934	0.0233073234558	-0.00121283531189	1.59852206707	-0.144457697868
-0.0137622356415	1.26653444767	0.00946950912476	-0.00861048698425	1.59925639629	-0.145164489746
-0.0193152427673	1.26874566078	-0.000141143798828	-0.0166456699371	1.59917509556	-0.14652132988
-0.0245304107666	1.26799988747	-0.00689399242401	-0.0252046585083	1.598954916	-0.149704217911
-0.0303463935852	1.26862204075	-0.0131542682648	-0.0330138206482	1.60004580021	-0.151770114899
-0.0348410606384	1.26992881298	-0.0153197050095	-0.0401012897491	1.60053932667	-0.152019262314
-0.038914680481	1.2652285099	-0.00782001018524	-0.044647693634	1.60041761398	-0.151854395866
-0.0387463569641	1.26138436794	-0.00034236907959	-0.046537399292	1.59968161583	-0.152228832245
-0.0374925136566	1.26314985752	-0.00228345394135	-0.04625415802	1.59981131554	-0.152082324028
-0.0356016159058	1.26591086388	-0.00878369808197	-0.0464067459106	1.60057711601	-0.14990901947
-0.0325202941895	1.26770591736	-0.01440513134	-0.0452935695648	1.60041975975	-0.147873163223
-0.0308740139008	1.26923298836	-0.0167881250381	-0.0420417785645	1.5993360281	-0.145664691925
-0.0280051231384	1.27139163017	-0.0146000385284	-0.0393893718719	1.59622550011	-0.142546415329
-0.0266852378845	1.27030229568	-0.0122382640839	-0.039831161499	1.59541428089	-0.140222191811
-0.0267159938812	1.26910686493	-0.00691831111908	-0.0406687259674	1.59573185444	-0.138810157776
-0.0263090133667	1.27016925812	0.00406122207642	-0.0413355827332	1.59551978111	-0.137979745865
-0.029501914978	1.26896500587	0.0122721195221	-0.0440721511841	1.59620594978	-0.136869668961
-0.0351219177246	1.2621833086	0.0203952789307	-0.0472137928009	1.59623169899	-0.135909080505
-0.0355689525604	1.25932598114	0.0278463363647	-0.0492625236511	1.59700608253	-0.136135816574
-0.0348010063171	1.25598585606	0.0439006090164	-0.0502226352692	1.59790635109	-0.137784004211
-0.0327126979828	1.25209379196	0.0593075752258	-0.0509576797485	1.59864544868	-0.140767335892
-0.0343117713928	1.25425136089	0.05832862854	-0.0530967712402	1.59943556786	-0.14288020134
-0.0381953716278	1.25558745861	0.0518268346786	-0.0565073490143	1.59981715679	-0.142737865448
-0.0411157608032	1.25800800323	0.0402466058731	-0.0594828128815	1.59935200214	-0.141593575478
-0.0414743423462	1.26380825043	0.0260397195816	-0.0588202476501	1.59916341305	-0.141826987267
-0.0406894683838	1.27133524418	0.010892033577	-0.0558636188507	1.59991800785	-0.144502401352
-0.0390334129333	1.27775084972	-0.00323104858398	-0.0527353286743	1.60168528557	-0.148061752319
-0.0369818210602	1.28243815899	-0.0165437459946	-0.0512282848358	1.60375237465	-0.150302052498
-0.0361235141754	1.28502905369	-0.0240006446838	-0.0500667095184	1.60522210598	-0.150978922844
-0.0348858833313	1.28487420082	-0.0264141559601	-0.0476417541504	1.6066172123	-0.151295661926
-0.0330052375793	1.28549849987	-0.0290539264679	-0.0458533763885	1.60941755772	-0.153622627258
-0.0305211544037	1.28774368763	-0.0323446989059	-0.0461399555206	1.61430191994	-0.158476114273
-0.0252809524536	1.29220342636	-0.0344681739807	-0.0491559505463	1.61853909492	-0.161796092987
