5.19792604446	1.79816830158	-5.98512506485	29.7472705841	15.8955402374	32.385887146
4.63786554337	1.99093997478	-5.65252828598	29.330406189	15.8245677948	32.4606781006
3.99636697769	2.2580499649	-5.68321704865	28.7197322845	15.907371521	32.5801391602
3.00785660744	3.18769216537	-5.87060689926	27.2373409271	16.2448482513	32.1348953247
0.880616545677	4.82220315933	-6.65044498444	24.5490932465	17.5349502563	30.8684997559
-2.54455018044	7.87038707733	-6.81306838989	21.218957901	20.2173690796	29.1185894012
-6.19899368286	13.6696872711	-3.70365142822	17.0561943054	24.2368946075	27.4579582214
-9.58844947815	19.7572860718	-0.378497362137	12.5322093964	29.4363517761	25.9450969696
-12.51583004	18.8588447571	-0.000140172371175	8.18706893921	33.7802085876	24.4208831787
-14.7702541351	12.1369256973	-6.40852069855	5.85279369354	36.7047805786	23.6197090149
-17.819278717	9.5759563446	-11.7077894211	5.60919523239	38.0666389465	23.7490558624
-24.2254562378	9.38065052032	-9.10496520996	5.78793096542	38.8349075317	24.3689231873
-27.9459114075	10.8748826981	1.59798133373	5.03596973419	39.4286651611	24.5821208954
-28.5094604492	10.5290412903	5.80338048935	4.40741634369	39.7696456909	24.2522735596
-28.465429306	9.31688117981	5.33432579041	3.87358736992	39.7608680725	23.3908863068
-29.145986557	8.94189453125	-2.34329724312	2.67241978645	39.0898590088	22.0450973511
-34.2929191589	9.2744550705	-7.67382955551	0.872771203518	38.2126121521	20.2919445038
-40.6641960144	15.0174016953	-8.66133022308	-0.233519613743	38.3316383362	18.7781276703
-41.2663650513	19.9302635193	-6.52913618088	-0.333037525415	39.4851837158	18.0953483582
-39.2693443298	21.9085769653	-2.30471682549	0.210718467832	40.4507713318	18.1524982452
-37.9387168884	19.9115581512	2.38007855415	0.669105410576	40.7820587158	17.8839569092
-36.316493988	17.3803863525	3.0874812603	1.62792503834	41.6386947632	18.4829826355
-33.3041534424	18.4739379883	3.32938623428	3.07101964951	42.3933105469	19.4973602295
-31.7745895386	20.499206543	-4.52662467957	3.876060009	42.6552734375	20.0212574005
-33.1811485291	21.0916213989	-8.64015960693	3.67404937744	42.7629852295	20.2773551941
-32.8167991638	20.2618637085	-4.79872608185	3.11116623878	42.5776100159	20.4625225067
-31.5846939087	19.9174404144	-4.17463827133	3.1608042717	43.0082931519	20.8799476624
-30.6583824158	20.0428829193	-3.15171384811	4.54547548294	43.7930526733	21.9864521027
-30.7254562378	21.4822673798	-5.69582605362	5.68595600128	44.1074638367	23.3861980438
-33.3568763733	23.4578361511	-14.164147377	6.23748588562	44.4830932617	24.7514667511
-35.7633056641	27.9083175659	-15.8279399872	6.31942176819	44.813747406	25.2187862396
-35.5121994019	30.6064338684	-13.505689621	5.97239875793	44.8666229248	25.1909866333
-34.4281997681	30.9108333588	-12.4500865936	5.20472192764	44.883266449	24.7526321411
-33.0257492065	30.8049068451	-9.83349514008	4.89067983627	45.1281776428	25.1094818115
-31.24360466	31.1288070679	-10.5393400192	5.36155653	45.5833206177	26.3112831116
-30.2734375	31.4961509705	-12.893872261	6.39486122131	46.1399345398	27.6374034882
-30.4564418793	32.4560699463	-16.8809928894	7.1879940033	46.4361801147	28.4563426971
-28.9890937805	33.5318145752	-15.6503715515	7.6251783371	46.7088241577	28.8576202393
-29.2822227478	34.6070747375	-15.1546134949	7.732172966	46.6898155212	28.7620716095
-30.7155799866	34.3918991089	-19.1220092773	7.72546052933	46.7572135925	28.400478363
-29.8712539673	34.0634498596	-17.3805027008	7.3360285759	46.6884536743	27.9370975494
-29.4187793732	32.625038147	-15.2318172455	6.48790884018	46.4711456299	27.366891861
-29.2729148865	31.4598121643	-13.8535423279	6.02779531479	46.2916145325	27.1651382446
-28.9732875824	31.4366970062	-13.4498682022	5.9482293129	46.1269836426	27.3588275909
-28.7936038971	31.3181190491	-13.095041275	5.65279388428	46.0498008728	27.5745792389
-27.847990036	31.1530685425	-12.0869150162	5.10868644714	45.8853225708	27.6871833801
-27.470872879	31.2301082611	-11.5382452011	4.93069076538	45.7630233765	27.8492717743
-27.3849372864	31.742729187	-11.0470657349	5.21777009964	45.8166313171	28.4217147827
-27.2556056976	32.4612350464	-10.5362110138	5.31338071823	45.8667221069	28.7516345978
-27.0040435791	32.8868217468	-10.1271467209	5.2988910675	46.0310630798	28.8618564606
-26.3271083832	33.5348930359	-9.47257518768	5.41888856888	46.0770454407	29.0737609863
-26.0441169739	34.176158905	-9.21535968781	5.58199691772	45.5974960327	29.2041301727
-25.539648056	34.6364593506	-8.51408576965	5.43309116364	45.119342804	29.2010498047
-23.9928569794	35.1063804626	-7.56078863144	4.81617021561	44.6844520569	28.6933288574
-21.7576160431	35.5892448425	-5.54178524017	3.84674739838	43.9115943909	27.830072403
-19.7701435089	35.6092529297	-4.06836271286	2.97122335434	43.0172767639	26.9749011993
-18.9768676758	36.451877594	-3.49567842484	2.72207736969	42.4933509827	26.4527416229
-17.4219608307	39.0029830933	-2.5095975399	3.23271274567	42.6831932068	26.4620399475
-15.7003126144	41.9015350342	-0.0830219611526	3.66624927521	42.7586288452	26.6383495331
-14.6646661758	44.4380836487	0.66747379303	3.59199786186	42.7411499023	26.7961483002
-13.7908287048	46.3264083862	0.912979006767	3.71693682671	42.8544960022	27.0514984131
-12.5536260605	48.1926231384	1.67412531376	4.0287156105	42.9575271606	27.0934009552
-10.9883050919	51.1878929138	1.34454441071	4.41060018539	42.9593811035	26.8595695496
-8.76541996002	53.1447410583	2.23895049095	4.54830408096	42.8926582336	26.644443512
-7.63779211044	53.4544258118	3.34388327599	4.61120557785	42.7662658691	26.4591674805
-7.23811864853	53.8375473022	3.36072516441	5.31584358215	42.7378845215	26.9480438232
-12.7086372375	53.3742675781	-2.04801177979	5.50497245789	42.6842956543	27.5816040039
-16.1681022644	50.8593940735	-2.30614519119	5.23901891708	43.1742401123	28.138628006
-17.0874767303	48.9555625916	-4.6411690712	6.35498762131	44.4832878113	29.7118778229
-17.0503025055	46.6262626648	-6.69011974335	8.54842758179	45.6847648621	33.1714096069
-17.5442142487	44.4493408203	-9.33891773224	10.3369293213	45.9117698669	37.2751083374
-19.0331439972	42.509979248	-12.1067113876	10.6440677643	46.4068984985	39.5347671509
-19.6664009094	41.3344955444	-13.5221652985	8.54328346252	46.8322105408	38.639957428
-19.113779068	41.2574958801	-13.8502702713	7.10352420807	47.6804542542	37.0815734863
-17.4299793243	40.7865829468	-11.6080474854	7.16224527359	48.1702651978	36.6506462097
-15.2145709991	40.5258827209	-8.75488376617	7.35475969315	48.5147895813	37.0798034668
-13.8022880554	40.6541252136	-8.92662239075	7.790391922	48.2031898499	37.617389679
-12.6310110092	40.7102890015	-8.95418930054	9.22058868408	46.9565467834	37.6388282776
-13.0965824127	38.5584564209	-9.04421329498	10.8655366898	45.0851287842	37.0847625732
-14.4837026596	36.6876525879	-10.6898269653	11.5417537689	42.991985321	34.9280128479
-15.852022171	35.8153038025	-12.1292686462	11.1442804337	40.413143158	31.2519416809
-15.2632246017	35.5632896423	-11.4199447632	9.85243415833	38.3959388733	27.5445556641
-15.1077985764	34.7435836792	-11.5772390366	7.71349000931	37.1173629761	23.8254528046
-15.2935295105	33.5936775208	-11.6188659668	5.44370603561	36.8470001221	19.6695575714
-15.7264451981	32.3944168091	-12.6693716049	3.40597200394	36.2477416992	16.6555271149
-14.8273906708	32.2803840637	-12.162103653	1.91928756237	35.4272079468	15.7669267654
-13.9470424652	32.5243225098	-11.4735841751	0.419212073088	34.4906578064	15.0707702637
-13.1263570786	31.7561759949	-8.54650211334	-0.512241363525	33.5018424988	13.5993452072
-12.3850440979	29.6441783905	-4.63994884491	-0.488748788834	32.9076843262	12.7093086243
-11.7364053726	28.294052124	-0.947231531143	-0.130499690771	32.6655845642	12.4297380447
-12.2748451233	28.6884422302	1.75246286392	-0.150538265705	33.0962142944	12.0896015167
-14.1138982773	27.8171844482	5.71126794815	-0.0833779573441	34.5151901245	11.3878803253
-16.770986557	25.2008991241	9.31434631348	0.0718507543206	36.5005187988	10.8400278091
-18.6719875336	23.3132190704	10.2437591553	0.28025841713	37.0968170166	10.3091993332
-19.5787258148	22.7395248413	9.91880321503	0.660163879395	37.4984855652	10.2311506271
-19.4530315399	23.0978679657	10.4198141098	0.856035351753	39.3198356628	11.6677808762
-19.2950172424	23.7875595093	10.1662101746	0.902604460716	40.730506897	12.7913923264
-19.033700943	23.1964817047	8.98835277557	1.35859525204	41.1847686768	13.4418821335
-18.9897937775	21.9143791199	8.67736721039	1.48502218723	41.7516059875	14.1452722549
-19.7335643768	21.8089027405	8.07196044922	1.71314120293	43.208026886	15.6503372192
-20.1843910217	22.9176864624	7.09035968781	2.50349831581	45.0273933411	18.0722732544
-19.1646022797	24.2277297974	6.29615259171	3.65069293976	45.3528594971	19.5251102448
-17.3864841461	23.9974040985	6.51447153091	4.9398431778	46.0428657532	20.9937171936
-16.5123538971	23.5285568237	5.23098039627	5.08361005783	46.1779022217	21.1823120117
-16.6975479126	24.9277915955	1.90406680107	4.28683423996	45.0657157898	20.5193519592
-15.8973178864	28.2524757385	1.40731143951	3.92897510529	44.1484527588	20.0689659119
-15.1970558167	31.1003932953	2.61346626282	3.90053415298	43.9867935181	19.8846302032
-14.6858301163	31.621257782	2.67407059669	3.50686883926	44.3848457336	19.7371940613
-13.7937068939	31.6912078857	3.35052418709	4.04978322983	45.0623130798	19.8465518951
-12.7988786697	31.4929618835	4.22032499313	5.28708267212	45.8797683716	20.5648231506
-11.8038139343	31.2559738159	5.10722589493	6.31728124619	46.8222732544	21.4679279327
-11.1620254517	30.8939743042	5.68323087692	7.60453176498	47.9042663574	22.8570384979
-12.2186002731	27.8168983459	3.07293057442	8.65529918671	48.6179542542	23.942237854
-11.7006187439	24.8286800385	-4.85891389847	8.96809768677	48.2988204956	23.9077548981
-17.1394824982	28.8007640839	-7.17277574539	8.33619880676	47.1914100647	23.3206481934
-20.0546150208	30.7435131073	-6.46073246002	7.05430555344	47.208656311	22.7846088409
-20.0600852966	30.8106708527	-4.97689151764	6.32503557205	47.4639320374	22.8501224518
-18.689491272	29.7800674438	-3.16485929489	6.39392852783	47.4005050659	23.4803066254
-17.8811893463	29.782743454	-1.29869127274	6.78885936737	47.9586906433	24.3187198639
-17.197769165	31.4908332825	0.499851197004	7.35179758072	48.8614730835	25.6384048462
-15.140376091	32.9555892944	-0.693554222584	8.15380382538	49.3160629272	27.0943946838
-13.4533910751	27.8070640564	-3.95813727379	8.03074455261	48.8801612854	26.9530200958
-14.083073616	22.7006702423	-8.41557979584	7.86832714081	48.6355781555	26.4204177856
-14.1992053986	26.3032817841	-4.86529970169	8.16082286835	48.6036338806	26.1446151733
-14.4768600464	30.2019786835	-1.07454288006	8.19517230988	48.2222366333	26.0249595642
-15.3260507584	33.1471557617	-0.0398701094091	7.99992609024	48.2928466797	26.0974884033
-16.3157596588	34.632396698	-0.85469520092	8.12444877625	48.3561668396	26.5833435059
-17.3365859985	34.9384689331	-3.87262201309	8.40861797333	48.6814651489	27.4246063232
-19.0972213745	35.2929534912	-6.31336116791	8.33726596832	48.7338638306	27.8132266998
-19.6552276611	36.2814331055	-6.29809951782	8.51627635956	48.9562339783	28.4367275238
-19.3441867828	37.2169685364	-5.2542886734	8.47041130066	49.0995521545	29.0002536774
-19.9581508636	38.1796226501	-5.24556112289	8.23017787933	49.1492805481	29.6442184448
-20.744600296	38.9836845398	-6.06355333328	8.07945823669	49.2472038269	30.1915359497
-21.4062309265	39.6794471741	-6.82243490219	7.84161901474	48.9894218445	30.0170230865
-20.6118907928	40.1571426392	-5.8670592308	7.81557941437	48.6793518066	29.8279685974
-19.1373767853	41.0162353516	-4.64797067642	7.97121047974	48.3498001099	29.4566459656
-18.12616539	42.3676834106	-3.46125125885	7.72487926483	47.4841918945	28.7898921967
-19.2599830627	40.7810668945	-4.61991357803	6.60477733612	46.2806587219	27.7202587128
-20.8252811432	38.3414344788	-4.91726446152	5.35564470291	45.2815284729	26.763589859
-19.6138134003	38.9440193176	-1.56556165218	5.27016305923	44.7777023315	26.4321060181
-18.1438922882	40.5348243713	0.714426934719	5.76943445206	44.6803359985	26.4508361816
-16.7977104187	42.6906051636	3.75701665878	6.21227931976	44.7757568359	26.8327445984
-16.2474117279	43.235912323	3.43831396103	5.90493583679	44.4094200134	26.8878307343
-16.0711250305	43.8057327271	3.04939007759	5.3605017662	43.9527130127	26.540719986
-15.627781868	43.9297790527	2.48050427437	5.26006126404	43.4321365356	25.9753456116
-14.3864431381	43.8749198914	2.68713450432	5.2521944046	43.0809173584	25.662607193
-14.3105115891	43.0519104004	1.48725068569	4.9773645401	42.7882003784	25.30610466
-16.4057788849	35.6023635864	-2.03165316582	4.97153568268	42.438583374	25.0658969879
-19.1958255768	28.8483810425	-0.983027696609	5.02095031738	42.4059562683	24.9429779053
-20.9317893982	23.0711345673	2.97331404686	4.96364498138	42.6447715759	24.9089622498
-22.8680038452	16.8217906952	5.73749113083	5.01983070374	43.0095062256	24.9156970978
-23.1292362213	9.23142337799	6.82090950012	5.1320476532	43.118347168	24.902223587
-23.9734764099	2.88165831566	2.37874388695	4.86050844193	43.0777511597	24.2980175018
-24.372297287	-1.75087869167	-1.01565146446	4.7367811203	42.7427024841	23.5502548218
-23.82289505	-1.15971553326	-4.68567466736	4.74889183044	42.0684547424	22.9279956818
-21.6308574677	5.05444526672	-2.48718571663	4.61463880539	41.06508255	22.3444862366
-21.2569847107	9.77706718445	-0.135738238692	4.23669147491	40.3561325073	21.844121933
-23.706193924	11.9329624176	-1.71456849575	3.73360848427	40.3297691345	21.4277381897
-24.8074359894	14.3301610947	-2.12029314041	3.50857400894	40.481803894	21.1450214386
-25.4352741241	15.8338518143	-2.42508745193	3.87463283539	40.8599586487	21.3290195465
-25.5355014801	17.0905170441	-2.86952710152	4.64937114716	41.294002533	21.7164402008
-25.036272049	17.8391494751	-3.67472267151	5.50940752029	41.8261489868	22.0749092102
-24.0831069946	18.3933467865	-4.65496921539	7.03753852844	43.1056022644	22.8850250244
-23.0576610565	18.7813014984	-4.84083938599	8.9582452774	45.0286865234	24.7465438843
-21.8407726288	19.0923423767	-5.02714490891	10.3489837646	47.1335334778	26.5416641235
-20.2782154083	19.4315929413	-5.59376764297	11.012960434	49.3805809021	28.678319931
-18.6446323395	19.9871578217	-6.13778972626	9.79992294312	49.7487297058	28.855802536
-17.9172515869	20.5679359436	-6.26429843903	8.92939758301	49.1075744629	27.6083621979
-18.0021781921	20.0214881897	-6.52572536469	8.84006118774	48.3874855042	26.7327804565
-18.3045578003	19.5026912689	-6.74059820175	8.73284721375	48.1987991333	26.3033618927
-18.6966133118	19.3613128662	-6.39091110229	9.10673332214	48.6324310303	27.0671539307
-19.0202579498	19.3288192749	-5.87001895905	12.8185005188	48.2628974915	31.9668750763
-18.4389228821	18.993970871	-5.03883647919	22.0325145721	45.0345001221	44.0577697754
-17.869468689	18.7835845947	-5.26054811478	25.8465709686	40.9099197388	50.8777923584
-17.2714195251	19.6904582977	-5.35989332199	24.1412887573	39.5009002686	51.0990028381
-16.7839927673	20.0988349915	-4.50934457779	21.2448196411	39.7573280334	49.4316864014
-17.3166465759	19.9507846832	-4.91104030609	19.4685096741	40.439125061	47.7482566833
-18.2806758881	20.1044025421	-4.92087030411	10.8371086121	44.2767753601	38.819152832
-18.2848091125	20.0451984406	-4.97407197952	-9.83851909637	48.7282409668	22.1748600006
-17.8131637573	20.0622558594	-5.15638065338	-19.6704406738	48.9412498474	15.952755928
-17.9381141663	19.5772533417	-5.39634466171	-13.8045682907	48.1107292175	21.517583847
-17.6663208008	18.8346920013	-5.22891712189	-3.18083715439	46.0035743713	29.1123580933
-16.6998081207	18.8233509064	-4.78002738953	3.32850527763	44.1827316284	32.8608589172
-15.7685117722	19.4242954254	-4.27987766266	3.61273884773	44.8794822693	32.6423454285
-14.2265377045	20.1286640167	-3.9702899456	-0.247097536922	47.264289856	30.318687439
-12.8537168503	21.0639457703	-3.49742221832	-3.97143864632	48.3803863525	27.5194034576
-12.0131044388	21.4525756836	-2.99635195732	-2.09496426582	48.8388977051	29.4260978699
-10.9314146042	21.7302856445	-2.45773243904	3.25732588768	47.8552627563	34.4300804138
-9.87679386139	22.8283119202	-1.30221688747	8.85672187805	45.6534233093	38.0708351135
-7.88577795029	23.4220161438	-0.601787090302	10.6048240662	43.7668762207	36.4813652039
-6.72405099869	23.4135780334	-0.961883604527	8.77883148193	42.3255691528	30.361995697
-6.47819805145	23.1166095734	-2.19506955147	5.36371183395	41.6864280701	23.6079177856
-6.42386817932	22.9180049896	-2.9849691391	2.47995352745	42.2041320801	18.3818664551
-7.18550729752	22.4925384521	-3.79971551895	0.789207458496	42.4648323059	14.8397808075
-8.32882022858	21.9425086975	-3.60670018196	0.550478696823	41.1470451355	12.3579483032
-8.56206989288	21.0290699005	-2.18693375587	0.752803742886	39.452255249	10.6555805206
-6.02400779724	18.876329422	1.84487831593	0.99443602562	37.943649292	9.05700492859
-3.40390372276	16.1980838776	3.92340326309	1.51339030266	37.0231742859	8.17346382141
-3.21567249298	16.2356758118	1.73860549927	1.97520375252	37.3344688416	8.41896533966
-5.93731021881	17.6469726562	-0.460609793663	2.56775474548	37.3749008179	8.78042888641
-10.9868421555	17.0019035339	0.254093587399	3.02139401436	37.0861549377	9.55268764496
-16.3229885101	18.085893631	1.20037174225	2.59869599342	36.8288612366	10.3977355957
-19.660692215	18.3970298767	2.27580547333	1.64901566505	37.1810340881	11.5559110641
-22.1486034393	18.582857132	3.48759150505	1.55786192417	37.8549995422	13.7337141037
-24.3585720062	18.7523136139	4.82647037506	1.97969543934	38.5376014709	15.9993581772
-25.9866676331	18.9470615387	5.88901329041	2.02324604988	39.3112030029	18.4250946045
-26.6102161407	19.306634903	6.56153249741	1.66168904305	39.7431564331	19.4443264008
-26.717212677	20.0261535645	7.42248296738	1.21117627621	40.2666244507	20.1488304138
-27.2856369019	20.6940631866	8.71059703827	1.23932647705	40.7967033386	21.3628120422
-27.4193840027	22.5284404755	8.36203479767	1.70808386803	41.398273468	22.488986969
-25.4539241791	25.6404399872	3.09067153931	2.36520004272	41.6138572693	22.7334327698
-25.0094051361	25.9584293365	-0.0666100010276	2.69075059891	41.5457191467	22.7103424072
-23.9272441864	23.9249744415	-0.28040382266	2.77745866776	41.8709831238	22.2467079163
-22.4973831177	23.3034362793	0.0765423253179	3.17979121208	42.371131897	22.160900116
-21.8621730804	23.480140686	-0.654254794121	3.21686911583	42.9924507141	22.0269260406
-21.1350803375	22.4925384521	-2.21900343895	3.13654184341	43.229850769	21.7603416443
-19.7271461487	21.3634262085	-3.20593166351	3.69779610634	43.0594062805	22.1501121521
-19.4003868103	20.0672149658	-2.52398657799	4.10489988327	42.8206481934	22.6391620636
-20.1878490448	19.3640480042	-2.52405381203	3.88944554329	42.9139442444	23.0292301178
-20.0774250031	18.653711319	-1.41857886314	3.03720974922	42.6925964355	22.8351593018
-19.2913398743	16.5064506531	0.456040918827	2.7014632225	42.2823486328	22.5721435547
-19.2730522156	15.0034828186	0.63092404604	2.65497851372	42.0247955322	22.513212204
-16.926076889	20.0766372681	3.862596035	2.77022218704	41.8141708374	22.3871269226
-20.2028045654	30.7513465881	-0.297604799271	3.62636804581	41.8979606628	22.5929374695
-22.716588974	37.269744873	-7.532310009	3.94248580933	42.2698287964	22.2355270386
-25.420835495	38.7597885132	-13.7884883881	4.05452680588	42.555316925	21.6220207214
-23.8394374847	37.3056983948	-13.8017730713	4.15774965286	43.1392364502	21.4745063782
-21.2866783142	34.742980957	-12.0612792969	4.03987455368	43.3245735168	21.0274963379
-20.9837551117	32.4000549316	-11.5419511795	3.82877182961	43.4710693359	20.8815917969
-20.707857132	31.1349487305	-10.4307060242	3.43326210976	44.0121917725	20.8382911682
-21.1120853424	31.0898838043	-10.3070421219	2.6559741497	44.4765625	20.6609039307
-21.5145549774	31.6958370209	-9.86299705505	2.53382587433	44.7488250732	20.8360309601
-21.6460113525	32.36302948	-9.30708503723	2.50399041176	44.9171447754	21.0947971344
-21.6100387573	32.7451210022	-9.25436782837	2.46746730804	45.0559425354	21.313709259
-21.0510673523	32.8418731689	-8.97211456299	2.49855136871	45.1477966309	21.4935836792
-20.7411556244	32.9923324585	-8.92879390717	1.89962732792	45.3219261169	21.3401355743
-20.8814678192	33.7435112	-8.86838531494	1.62033498287	45.3368377686	21.3602752686
-20.996181488	34.5140571594	-8.67895698547	1.44312918186	45.1145057678	21.4702949524
-21.6079559326	35.0969047546	-8.91538619995	1.20974135399	45.154384613	21.4562072754
-22.8029136658	35.1701889038	-9.96492004395	0.969034016132	44.9873313904	21.3068656921
-23.8362731934	34.7430992126	-10.7500448227	0.937341868877	45.1585502625	21.6650810242
-24.3777389526	33.7935142517	-10.2151422501	0.679498374462	45.07654953	21.7646007538
-24.075553894	32.8308143616	-9.69644069672	0.286807060242	44.779094696	21.7112808228
-23.7339344025	32.1281776428	-9.63589954376	-0.0451149754226	44.5812454224	21.5645179749
-22.9441680908	31.0805873871	-8.65989875793	-0.104973897338	44.5863075256	21.4294586182
-23.369134903	30.3722858429	-9.37863254547	-0.191886991262	44.7154273987	21.2420043945
-22.5928630829	29.87758255	-9.2823381424	-0.0610102042556	45.9746017456	21.8652915955
-21.8047122955	29.3951034546	-8.94616699219	-1.57479763031	47.2313690186	23.8119239807
-21.3756198883	30.0805454254	-9.24656200409	-3.23821020126	48.0912055969	25.1038818359
-21.7766685486	31.1683673859	-9.46123504639	-1.87217628956	48.2124977112	26.8465614319
-22.2376003265	31.5535087585	-9.58776473999	-1.0022200346	48.2544670105	27.6766300201
-22.7906112671	31.3311138153	-10.2138538361	-1.20633733273	48.4264373779	27.7278327942
-22.5104904175	31.4682178497	-9.5681886673	-1.3538891077	48.6000785828	27.9704322815
-23.478509903	32.315410614	-9.80326080322	-0.99215310812	48.7376708984	28.4324226379
-25.1552066803	34.0899047852	-10.0769376755	0.0761785656214	48.8139648438	29.2302932739
-25.501953125	35.125705719	-9.35776615143	0.853143751621	48.708530426	29.3720741272
-25.8639812469	36.3877601624	-9.74701881409	1.24426138401	48.3327903748	28.786611557
-26.5236663818	37.4378700256	-10.3178834915	1.38432562351	47.7284965515	28.3064842224
-27.0821933746	37.3420181274	-10.7051916122	1.1129181385	47.0704536438	27.8721103668
-27.0855541229	37.3871154785	-11.5812473297	0.420652776957	47.0725822449	28.0308246613
-26.3463745117	38.0113754272	-12.0324306488	0.635253310204	47.9117660522	28.9531879425
-26.0566043854	37.6690406799	-12.5459461212	1.54902136326	48.3592834473	30.2260494232
-25.7091808319	36.6930770874	-12.2782611847	2.55406999588	48.8307609558	31.3645553589
-26.388923645	34.98279953	-13.0206432343	2.78711485863	48.6474609375	30.5363903046
-25.7500076294	32.3878135681	-13.7138748169	1.87132668495	47.2973976135	27.7409667969
-25.7889041901	31.2713928223	-14.029706955	1.01315176487	46.2787475586	25.3772754669
-25.9037055969	31.5649833679	-14.2503881454	0.923678338528	45.8331489563	23.8513317108
-25.1737308502	31.8423233032	-13.3895206451	0.240575745702	45.3101844788	22.546415329
-25.0034160614	31.1862106323	-13.8882379532	-0.952209830284	45.1008033752	22.3070068359
-25.0105686188	31.1935558319	-14.3824872971	-1.52667558193	45.0038566589	22.4107227325
-24.9249591827	31.9748573303	-14.7809486389	-1.60864293575	44.9778175354	22.8672523499
-24.8793945312	33.4054679871	-14.7949829102	-1.05913841724	45.6323204041	23.4956874847
-25.4801998138	33.8363037109	-15.0425186157	-0.342028796673	46.0737228394	23.8006744385
-25.6264972687	33.5124435425	-14.1481513977	0.314256280661	46.0023155212	23.4505519867
-25.5959224701	32.3082809448	-14.8832902908	0.25194004178	45.2214889526	22.8838996887
-25.0498523712	31.9150047302	-15.9164361954	-0.663878679276	44.404335022	22.2264595032
-24.3450469971	32.2364463806	-15.9124097824	-1.67702400684	44.7235908508	22.1379566193
-24.6023139954	32.6321640015	-15.4939832687	-1.9927533865	45.3711738586	22.2427577972
-25.5235290527	32.6416893005	-15.6943902969	-1.87556660175	45.3750343323	22.2641410828
-24.8736438751	33.0049362183	-15.8892850876	-1.79600596428	45.6125640869	23.0167503357
-23.6849861145	34.4925308228	-15.6690235138	-1.93294155598	45.9126014709	23.7860336304
-23.8541660309	35.7731666565	-15.6900339127	-2.69972872734	44.8671455383	23.8589401245
-23.7565841675	37.1707801819	-14.4226179123	-2.31259274483	44.9745368958	24.8545875549
-24.0930290222	37.4072227478	-13.9770812988	-1.8345708847	44.8762741089	25.870475769
-24.0279407501	37.0617523193	-13.4211416245	-1.54264163971	45.3350791931	26.341375351
-24.5225963593	36.4136734009	-12.870923996	-1.710968256	45.7356109619	26.1379261017
-25.1438331604	34.7114677429	-12.090382576	-1.74094092846	45.8568229675	25.9466629028
-25.2911682129	32.1091804504	-10.8605136871	-1.5855410099	45.4045829773	25.5229206085
-24.0494537354	30.0863437653	-10.0931005478	-1.54988706112	45.2716369629	25.2023410797
-22.6687030792	29.3182010651	-9.89897346497	-1.61148524284	45.6294174194	24.9537620544
-22.9207420349	29.2197570801	-10.6845636368	-1.81963229179	46.4977378845	25.1253204346
-22.9749393463	28.5021247864	-10.5397539139	-1.39319837093	47.1253547668	25.5635814667
-21.1851997375	27.0001468658	-9.07670116425	-0.557246625423	47.1067428589	26.2703227997
-20.8571853638	25.3736019135	-10.3094930649	-0.131641149521	46.4081802368	26.7536373138
-20.8209228516	22.0458030701	-10.5909786224	-0.75147163868	45.7818260193	26.4398574829
-19.8928928375	21.5561962128	-9.14971351624	-1.38552701473	44.9525260925	25.4565734863
-18.3541984558	21.9610481262	-7.1895108223	-0.894233345985	44.0461616516	24.9005317688
-17.6899719238	24.2593593597	-5.48786830902	-0.272438168526	43.4022369385	24.2878417969
-19.7719402313	28.350818634	-6.94653177261	-0.107272736728	42.897983551	23.291469574
-21.5338592529	32.383895874	-9.76090240479	-0.207017555833	42.2826461792	22.1543636322
-23.5308113098	36.3397483826	-11.3656311035	0.0571188814938	42.0669517517	21.3429660797
-23.3194923401	37.8377799988	-8.75883769989	-0.0145259574056	41.9344367981	20.8136501312
-23.3925933838	37.7976875305	-6.4746336937	-0.654171586037	41.9674758911	20.2866573334
-23.9015731812	36.9122695923	-6.50874328613	-0.874553203583	42.0467453003	20.0712680817
-24.6410503387	36.4725761414	-7.34187078476	-0.830269277096	42.4375648499	20.107213974
-24.3751659393	37.0733909607	-6.57991123199	-1.20675373077	42.986492157	20.0630493164
-24.8478221893	38.4831581116	-7.33189678192	-1.96525120735	43.4880599976	19.9164619446
-24.879234314	39.0313148499	-7.51999902725	-1.96102881432	43.9751281738	20.2925758362
-26.1466464996	39.0187263489	-8.39659881592	-2.32255125046	43.4116401672	20.5909767151
-25.9052200317	38.8959541321	-8.87879753113	-3.32357859612	42.6460762024	20.5213260651
-25.5718021393	38.6107215881	-9.92826938629	-3.96492815018	42.2931480408	19.9822845459
-25.9502468109	38.1754074097	-10.6261568069	-3.40364384651	42.7241134644	19.9279251099
-26.3484096527	36.8167190552	-10.1055984497	-2.68863296509	42.691368103	19.8541374207
-26.5282878876	35.0051193237	-8.84394168854	-2.4461774826	42.8064422607	19.6919994354
-26.9094581604	33.2065544128	-9.45140457153	-2.47944235802	42.8916931152	20.4771308899
-26.9805660248	32.1665763855	-9.76667881012	-1.99034106731	44.0416069031	25.8932266235
-26.7949829102	31.8779506683	-11.12200737	-0.721950113773	45.5455665588	35.8352775574
-26.0597686768	33.5091552734	-11.6764764786	0.103645466268	46.455821991	38.1365585327
-25.4763317108	35.5907402039	-10.7968788147	0.0687125176191	47.6391983032	37.1134414673
-25.8422050476	36.246887207	-11.055352211	-2.08708310127	48.1858406067	34.6118202209
-26.0802631378	36.0374145508	-11.4779157639	-4.85146093369	48.8655014038	30.2816295624
-26.0116539001	34.9414672852	-12.7136325836	-5.94137048721	49.0598754883	26.1676311493
-26.1449375153	34.057144165	-14.5387096405	-4.66553497314	48.2626533508	24.2951202393
-26.2157745361	33.8057975769	-15.2846059799	-2.95094490051	46.9378166199	23.8587360382
-25.7996463776	34.1454429626	-16.451543808	-3.27100539207	46.150177002	23.0721435547
-24.3591938019	34.9896507263	-17.4813957214	-5.91430521011	45.8243713379	21.7527103424
-23.2049179077	36.7996635437	-18.0574398041	-8.1460647583	45.3731689453	20.8866462708
-22.2502536774	38.4582023621	-17.7800960541	-8.2986946106	45.1852684021	21.2266178131
-22.3749313354	39.2387313843	-17.1554012299	-6.32918643951	45.0269012451	22.6183204651
-22.0637378693	38.390789032	-16.1625480652	-5.58930301666	45.0218887329	23.1775856018
-23.4535560608	37.3553695679	-17.8241119385	-6.77619886398	45.2221069336	22.4433574677
-24.7383556366	37.5420837402	-18.8899707794	-7.51123189926	45.2045440674	21.9032917023
-25.487909317	37.011756897	-17.0646381378	-6.74581241608	44.7045249939	22.0636959076
-28.637298584	33.5030784607	-17.5071849823	-5.21426343918	44.0004463196	22.0921707153
-28.5836296082	29.4064693451	-14.442445755	-4.03421783447	43.1321144104	21.8887405396
-28.6838932037	28.5040664673	-13.829662323	-3.90250563622	42.7632789612	21.3891105652
-29.2133712769	28.6689052582	-13.7663412094	-4.24973249435	42.769367218	20.7299900055
-29.7060413361	28.6061286926	-13.4474773407	-4.61030101776	42.9074897766	20.2824954987
-30.4398479462	27.8537921906	-14.3974819183	-4.89933586121	43.3789863586	20.4120254517
-31.5072002411	28.5312957764	-15.6680679321	-5.34472131729	43.8544120789	20.9068565369
-31.6164836884	31.0243873596	-14.9297657013	-5.88945388794	44.5867080688	21.4048900604
-32.2547492981	32.8357048035	-14.836977005	-6.66387605667	45.2690925598	21.6791400909
-33.3046340942	32.8850402832	-15.9996767044	-6.88258695602	45.8373413086	22.0689735413
-34.9148674011	31.3027191162	-17.8874530792	-6.50917863846	45.9514579773	22.175359726
-35.1638145447	30.0394001007	-15.9382867813	-5.73932552338	45.4078674316	22.2455005646
-34.9860076904	28.6750106812	-15.8352899551	-5.56168937683	44.2126121521	21.5819225311
-34.030292511	27.9702606201	-15.1956119537	-5.35667467117	43.2216072083	20.5472297668
-33.7479400635	27.507024765	-15.3046722412	-5.33024835587	42.26197052	19.7910327911
-33.1345405579	26.5682144165	-14.5405197144	-6.19901132584	41.8013954163	19.07330513
-33.7345466614	26.0364379883	-14.8135547638	-7.35648965836	41.2406158447	17.8950271606
-34.6328315735	26.3853206635	-15.0650653839	-7.46843481064	41.2975921631	17.804233551
-35.2108078003	27.2175502777	-13.9495162964	-7.28307914734	41.8138313293	18.4115962982
-36.0493278503	27.5733528137	-14.568400383	-8.02540206909	42.1781845093	18.340089798
-36.9262084961	28.0780315399	-15.6401424408	-8.6880273819	42.7363815308	18.5133934021
-37.9666061401	29.0936164856	-16.1983604431	-9.2311964035	43.0969161987	18.525724411
-38.953086853	30.023141861	-16.6915283203	-9.56230735779	43.4989013672	18.3551597595
-39.9721794128	30.3786087036	-17.2405815125	-9.89035987854	43.714012146	18.0079421997
-40.4774703979	29.8151359558	-17.2509536743	-9.85586357117	43.379699707	17.6223506927
-40.1084060669	28.0095100403	-16.8528175354	-9.63188076019	42.4423141479	17.3379802704
-39.1848564148	26.1549549103	-15.7327318192	-9.51451778412	41.2088241577	17.1540470123
-38.824432373	24.1716041565	-14.3476839066	-9.89921379089	40.2749290466	16.9013843536
-39.5274124146	23.0232315063	-14.3900175095	-10.3434352875	40.0146865845	16.7021560669
-39.8570747375	23.3373680115	-13.9822874069	-10.2689476013	40.3105621338	16.7838191986
