0.0	-0.0	132.859725952	-127.275253296	82.188659668	167.583862305
0.0	-0.0	132.993759155	-127.833259583	82.1934127808	168.735092163
0.0	-0.0	132.737243652	-128.710128784	83.1970443726	170.672149658
0.0	-0.0	131.211807251	-132.39692688	86.4546356201	174.3618927
0.0	-0.0	120.200401306	-138.691497803	89.823425293	178.636291504
0.0	-0.0	100.240829468	38.583732605	86.0885391235	0.952281951904
