0.0	-0.0	132.982849121	-135.076416016	79.7140655518	163.4790802
0.0	-0.0	132.876281738	-135.255050659	79.1416091919	162.682235718
0.0	-0.0	131.861221313	-134.633392334	79.6705627441	161.875808716
0.0	-0.0	130.854415894	-134.896179199	82.2581710815	161.463745117
0.0	-0.0	129.403259277	42.5886802673	84.0039291382	-17.1345329285
0.0	-0.0	127.1170578	41.5868110657	70.2566757202	-16.0058364868
0.0	-0.0	125.957015991	44.3432884216	59.7504501343	-16.1693267822
0.0	-0.0	125.878578186	45.9030914307	45.6619758606	-16.0961437225
0.0	-0.0	126.263000488	45.8442001343	30.1283569336	-15.7990036011
0.0	-0.0	125.588928223	46.5025863647	28.1393795013	-16.2961215973
0.0	-0.0	116.035232544	48.1553611755	31.0108623505	-16.5617771149
0.0	-0.0	92.7403869629	47.6512527466	30.6883544922	-14.7177381516
0.0	-0.0	78.0951080322	46.2076950073	27.8276939392	-12.9138832092
0.0	-0.0	72.0760192871	45.7262992859	26.7405891418	-12.5048074722
0.0	-0.0	73.3458023071	45.507194519	27.1443080902	-12.4073009491
0.0	-0.0	79.7734451294	45.102432251	30.1593418121	-12.4199228287
0.0	-0.0	90.5009613037	44.4452171326	32.9425888062	-11.4192276001
0.0	-0.0	95.2057342529	43.3810577393	33.2918357849	-10.2276563644
0.0	-0.0	102.14756012	43.762802124	33.1346626282	-9.46376037598
0.0	-0.0	97.3882064819	45.9009017944	32.1014976501	-9.94271469116
0.0	-0.0	93.5093688965	48.2231750488	30.6770935059	-11.7497110367
0.0	-0.0	92.0530700684	49.0217094421	29.6189250946	-12.2926235199
0.0	-0.0	90.1766052246	46.7793769836	27.0223007202	-9.99416732788
0.0	-0.0	89.8284606934	42.5232200623	23.5060482025	-5.69180393219
0.0	-0.0	91.7019805908	39.759223938	22.3425769806	-2.75723958015
0.0	-0.0	92.8633956909	40.1609191895	22.8715610504	-0.92256295681
0.0	-0.0	88.7632141113	41.4630737305	22.8124313354	-1.34749960899
0.0	-0.0	77.4927368164	43.4104614258	21.1857948303	-2.33888506889
0.0	-0.0	76.8681564331	44.6002426147	21.5035018921	-2.98328733444
0.0	-0.0	79.7033157349	46.0583457947	25.6326313019	-4.04911851883
0.0	-0.0	76.8243942261	46.2602729797	29.3592834473	-4.52927875519
0.0	-0.0	73.9864807129	45.7041397095	32.6760444641	-5.35472488403
0.0	-0.0	71.0698242188	44.7509231567	34.7974128723	-5.26564455032
0.0	-0.0	86.3952255249	44.8139762878	38.7014694214	-5.49845314026
0.0	-0.0	96.8092498779	45.255115509	44.3168029785	-4.56980609894
0.0	-0.0	100.990730286	44.1500930786	47.3073730469	-3.77682256699
0.0	-0.0	105.483535767	43.8299751282	47.4848060608	-2.86577391624
0.0	-0.0	109.573127747	44.4350318909	46.5989151001	-2.34140872955
0.0	-0.0	116.208808899	44.3689804077	44.4470481873	-2.01585650444
0.0	-0.0	129.879974365	44.2144508362	42.2302436829	-2.05381512642
0.0	-0.0	140.03604126	45.0230140686	40.1360015869	-2.67953228951
0.0	-0.0	138.827987671	45.9416160583	37.1060409546	-4.04746103287
0.0	-0.0	136.996734619	45.8632698059	31.0443515778	-4.82462120056
0.0	-0.0	136.325149536	48.7715530396	24.6224975586	-6.4564948082
0.0	-0.0	135.475631714	58.401096344	14.2215719223	-12.6943283081
0.0	-0.0	132.181518555	64.7873764038	4.40338373184	-15.9771051407
0.0	-0.0	127.914108276	66.1665496826	1.33550870419	-16.1905555725
0.0	-0.0	130.905426025	63.2950286865	3.13439917564	-13.2905368805
0.0	-0.0	134.338806152	55.0793800354	5.5486497879	-5.88391876221
0.0	-0.0	137.839553833	47.7868118286	5.95369148254	1.73009288311
0.0	-0.0	142.962875366	46.118106842	4.66651153564	4.22212171555
0.0	-0.0	153.305374146	46.975566864	6.15243530273	4.23553991318
0.0	-0.0	158.272842407	47.0957069397	6.64631032944	4.12564516068
0.0	0.0	-5.770424366	44.1347885132	6.56537294388	6.45235776901
0.0	0.0	-18.981294632	42.821346283	7.95842170715	7.81544589996
0.0	0.0	-5.36220550537	43.2793426514	10.6405344009	7.62924766541
0.0	-0.0	10.9481925964	42.5678520203	14.9743490219	8.51807975769
0.0	-0.0	11.3767108917	42.0212593079	20.7785186768	8.77015781403
0.0	-0.0	11.4293317795	43.341129303	28.7985172272	6.96634340286
0.0	-0.0	13.6805210114	42.8670539856	38.9787216187	6.87736988068
0.0	-0.0	19.9460449219	38.8288192749	50.1854782104	8.77241420746
0.0	-0.0	28.0151004791	34.923789978	56.2333030701	10.2242498398
0.0	-0.0	32.2276153564	36.0616722107	55.9631690979	8.11141395569
0.0	-0.0	36.5863571167	40.1030082703	56.3769569397	5.30525541306
0.0	-0.0	45.6905441284	40.9415817261	57.5149497986	4.96144533157
0.0	-0.0	59.6378707886	38.5287857056	58.052570343	5.64340019226
0.0	-0.0	60.3890991211	38.4387741089	55.2014656067	5.02504348755
0.0	-0.0	56.617477417	41.0468521118	51.0162658691	2.30684232712
0.0	-0.0	55.9880180359	42.102355957	47.5740966797	1.20871853828
0.0	-0.0	55.1402206421	40.2321357727	45.0004043579	1.87090730667
0.0	-0.0	56.1988525391	39.1556053162	42.3075370789	2.2920691967
0.0	-0.0	57.0940475464	40.3295669556	39.1831817627	2.01871228218
0.0	-0.0	57.619594574	42.0735473633	36.156703949	1.00291883945
0.0	-0.0	58.2873725891	43.2371253967	35.1455917358	0.0692891776562
0.0	-0.0	56.9830856323	43.3321685791	37.8754577637	-0.423663496971
0.0	-0.0	56.7996902466	42.2722663879	42.9237213135	0.326373755932
0.0	-0.0	58.8876533508	40.3874664307	48.2421722412	2.45152568817
0.0	-0.0	68.5828018188	39.1449241638	50.7644920349	4.54018878937
0.0	-0.0	84.4755706787	38.8430633545	50.5400238037	5.07920074463
0.0	-0.0	91.2297286987	39.4659538269	50.2697067261	5.21753025055
0.0	-0.0	81.4043655396	40.6392593384	48.9981880188	4.86429643631
0.0	-0.0	66.8154602051	41.8675003052	48.0004310608	3.97197175026
0.0	-0.0	62.1056556702	43.3372268677	44.8883743286	2.73479008675
0.0	-0.0	41.2480964661	43.5700187683	40.7782440186	2.28438043594
0.0	-0.0	31.0652332306	42.0311126709	38.2573165894	3.58028149605
0.0	-0.0	39.1035995483	39.31300354	42.0302581787	5.39536952972
0.0	-0.0	46.7879142761	38.7488479614	45.2445640564	5.95409107208
0.0	-0.0	46.4248771667	38.9680862427	42.3690872192	5.41048717499
0.0	-0.0	45.3000793457	37.5429611206	42.6292457581	5.11733675003
0.0	-0.0	47.1133804321	37.4379920959	45.2459411621	4.91001367569
0.0	-0.0	46.1791763306	38.8736953735	43.7501792908	3.66490697861
0.0	-0.0	45.8294143677	39.9385223389	42.8294219971	3.93346953392
0.0	-0.0	44.6768341064	41.0144462585	47.498134613	4.29258871078
0.0	-0.0	45.2990684509	41.8239402771	63.7797660828	3.10591030121
0.0	-0.0	49.3868179321	42.9616012573	73.2092666626	3.72170996666
0.0	-0.0	63.6640281677	41.0383911133	76.5563735962	6.822306633
0.0	-0.0	73.2193145752	38.161857605	78.1318359375	8.70461940765
0.0	-0.0	69.1260299683	37.0021057129	77.5394363403	7.60852479935
0.0	-0.0	59.9846115112	37.3461990356	73.8320770264	4.66998291016
0.0	-0.0	54.45728302	38.7654495239	65.5506896973	2.3016679287
0.0	-0.0	51.0338363647	40.2560119629	48.6734771729	1.74604558945
0.0	-0.0	46.109249115	40.8265151978	36.9339675903	0.908743262291
0.0	-0.0	38.7254104614	41.187171936	35.3518981934	0.577235817909
0.0	-0.0	36.2185630798	41.701789856	38.3631477356	0.00543283950537
0.0	-0.0	63.5016479492	41.2893218994	40.6775016785	0.861315429211
0.0	-0.0	98.4516220093	40.461605072	43.1118087769	1.84480774403
0.0	-0.0	127.165992737	40.5682411194	44.3017883301	0.890825986862
0.0	-0.0	110.231590271	42.3090362549	44.1349029541	0.179438635707
0.0	-0.0	41.7677841187	43.3118667603	42.8260612488	-0.266013860703
0.0	-0.0	42.856918335	43.4617652893	41.2493247986	0.370764136314
0.0	-0.0	46.192779541	42.3571548462	39.247379303	1.2108041048
0.0	-0.0	49.5177993774	40.6054573059	36.8399505615	1.99427211285
0.0	-0.0	55.0547676086	38.8675765991	35.7250747681	3.91681790352
0.0	-0.0	69.1212539673	36.869304657	34.2846488953	5.54969167709
0.0	-0.0	88.8512649536	36.2508735657	33.3419265747	5.66591215134
0.0	-0.0	31.7049350739	35.8327903748	33.7436637878	6.36503648758
0.0	-0.0	18.1503601074	34.4969978333	34.897480011	7.76313781738
0.0	-0.0	48.8395881653	34.0604896545	36.8466835022	8.76546669006
0.0	-0.0	59.4308204651	33.6884536743	38.3479042053	9.35091114044
0.0	-0.0	31.1701755524	34.1009635925	40.2003631592	9.70097732544
0.0	-0.0	73.1626281738	34.1627960205	45.4630279541	9.71306419373
0.0	-0.0	27.4715442657	34.3456268311	57.6756858826	8.7961473465
0.0	-0.0	43.0877380371	34.1233673096	66.6056671143	7.47927379608
0.0	-0.0	16.3559169769	34.6536140442	71.6682281494	6.08389139175
0.0	-0.0	14.0659160614	36.2402038574	76.5999450684	3.23364305496
0.0	-0.0	14.721818924	38.588432312	82.1481399536	0.346543699503
0.0	-0.0	24.8291149139	40.5604324341	81.1405487061	-0.189222663641
0.0	-0.0	44.2823295593	41.1963310242	75.2322692871	-0.750639438629
0.0	-0.0	41.0047683716	41.8152160645	68.6798248291	-1.59596920013
0.0	-0.0	35.2679481506	42.3202590942	63.7387123108	-1.8918145895
0.0	-0.0	34.5983963013	42.2821006775	58.2416572571	-0.847434520721
0.0	-0.0	36.2247390747	41.3088760376	53.0926589966	0.683925390244
0.0	-0.0	36.7487564087	39.9334030151	48.4269218445	2.07669997215
0.0	-0.0	36.6767654419	38.6897239685	44.7032165527	2.85744905472
0.0	-0.0	36.8767051697	38.4450035095	43.1936759949	3.47454810143
0.0	-0.0	33.629070282	40.6152267456	43.4632072449	3.04622673988
0.0	-0.0	28.7913303375	42.3705978394	43.1625709534	3.03869962692
0.0	-0.0	28.4757652283	41.9630661011	42.6350364685	3.30774331093
0.0	-0.0	30.2831707001	41.3823738098	42.1700401306	3.67865228653
0.0	-0.0	29.9783973694	40.0355262756	41.8598251343	4.90835428238
0.0	-0.0	30.1365966797	37.9630432129	43.2850494385	5.92279005051
0.0	-0.0	31.4646072388	36.6610412598	46.0426826477	6.12885761261
0.0	-0.0	33.7109413147	36.5810585022	49.1996803284	6.5690946579
0.0	-0.0	34.9424781799	36.2936782837	51.9332275391	7.03697729111
0.0	-0.0	35.7281646729	36.5344581604	51.3938980103	6.68170642853
0.0	-0.0	36.5477104187	37.0879592896	47.9681472778	5.90484380722
0.0	-0.0	38.7888793945	36.7585906982	41.7892150879	5.32754993439
0.0	-0.0	43.9914665222	32.320400238	35.2493515015	8.69744682312
0.0	-0.0	44.9362602234	31.3215579987	31.5250244141	9.11155414581
0.0	-0.0	46.7580947876	36.111541748	32.7595977783	6.21781492233
0.0	-0.0	48.8660049438	39.3133201599	37.6732025146	5.46572494507
0.0	-0.0	51.4179382324	38.9337120056	44.5089149475	6.81485795975
0.0	-0.0	53.0496406555	37.6315383911	47.4825820923	7.58901500702
0.0	-0.0	53.4962997437	38.5891571045	49.5368347168	5.5647559166
0.0	-0.0	58.4390106201	39.0683784485	50.5371551514	4.52427864075
0.0	-0.0	72.3291549683	37.8920822144	49.3021507263	6.79755973816
0.0	-0.0	64.4005432129	36.9859657288	49.894443512	6.54171848297
0.0	-0.0	43.3847503662	38.1077003479	50.9146232605	6.75943231583
0.0	-0.0	31.1317977905	38.7780265808	52.0821037292	7.28121519089
0.0	-0.0	25.69880867	38.986492157	52.8555145264	7.98354434967
0.0	-0.0	23.3021316528	38.0635108948	47.7473449707	9.40441894531
0.0	-0.0	23.7557086945	37.153049469	41.6340332031	10.9054174423
0.0	-0.0	23.9539203644	38.253616333	44.2210083008	9.72726631165
0.0	-0.0	25.5373954773	38.9582710266	45.1848945618	10.1091747284
0.0	-0.0	25.8854103088	36.5505027771	35.7845420837	11.4267654419
0.0	-0.0	26.7660713196	37.0076828003	34.867225647	9.79328632355
0.0	-0.0	29.315486908	39.5727729797	39.1613044739	5.27716350555
0.0	-0.0	30.8201446533	40.4608230591	43.9091720581	3.68948030472
0.0	-0.0	32.8383331299	38.3133850098	50.1713867188	6.19333648682
0.0	-0.0	33.748878479	34.7171554565	57.1117668152	9.1291513443
0.0	-0.0	35.1984977722	32.8026161194	63.5054359436	11.3863391876
0.0	-0.0	36.9487953186	33.426399231	67.8590698242	11.8750762939
0.0	-0.0	41.706905365	33.9244880676	71.5241775513	12.8050928116
0.0	-0.0	44.0734405518	33.1129608154	72.8130874634	14.2108592987
0.0	-0.0	40.7912063599	31.2148895264	66.6682128906	14.8249616623
0.0	-0.0	32.7565994263	29.2399692535	63.2656745911	13.7395982742
0.0	-0.0	22.9333972931	28.6186141968	64.641242981	12.4288825989
0.0	-0.0	22.1162509918	33.7610092163	55.2904777527	8.49438381195
0.0	-0.0	24.7241802216	38.2305603027	53.8399887085	8.36931705475
0.0	-0.0	23.7592468262	40.3565711975	59.8618621826	9.5350189209
0.0	-0.0	24.4540691376	39.3199081421	65.1004638672	10.3404226303
0.0	-0.0	27.0835514069	37.964630127	65.5192108154	9.71760940552
0.0	-0.0	29.5554771423	38.1007766724	71.1371307373	8.08409690857
0.0	-0.0	33.7048187256	39.280128479	82.6939544678	6.71443939209
0.0	-0.0	31.8777866364	-140.06048584	76.9124069214	-173.87286377
0.0	-0.0	30.5559272766	-140.999755859	47.1088867188	-171.980697632
0.0	-0.0	31.9903793335	-145.142349243	31.0145015717	-170.29296875
0.0	-0.0	30.4388542175	-149.844314575	21.5877780914	-173.344863892
0.0	-0.0	29.3191680908	-152.44468689	24.8153152466	-178.109100342
0.0	-0.0	28.915895462	-150.350753784	50.6554641724	-179.884765625
0.0	-0.0	28.4415874481	-147.214431763	86.5021591187	178.823348999
0.0	-0.0	27.5733776093	33.0633811951	67.1715316772	0.35277608037
0.0	-0.0	28.2494220734	31.4043045044	55.1684074402	1.6706482172
0.0	-0.0	29.7952232361	31.8626823425	49.2405738831	2.08421492577
0.0	-0.0	31.2658061981	32.2178039551	37.1165390015	1.9225871563
0.0	-0.0	32.1243171692	31.1260452271	28.1813335419	3.52708649635
0.0	-0.0	33.8861579895	31.5311431885	26.3790359497	3.90825486183
0.0	-0.0	35.17237854	32.9988441467	24.6113967896	3.15784907341
0.0	-0.0	36.0310173035	33.8180618286	21.9396152496	1.91769123077
0.0	-0.0	37.735824585	35.4391212463	17.5323429108	0.59228181839
0.0	-0.0	38.1662063599	34.4601402283	13.1898651123	1.74817085266
0.0	-0.0	37.7146682739	32.1994476318	11.9825706482	3.62372612953
0.0	-0.0	38.0561943054	31.7317829132	13.3264160156	4.21560811996
0.0	-0.0	37.2510032654	34.0402641296	15.872677803	2.68028330803
0.0	-0.0	35.7135810852	37.3363723755	21.5593032837	0.870096385479
0.0	-0.0	34.7918395996	38.5960693359	27.738275528	0.145056694746
0.0	-0.0	34.7330169678	37.8893089294	35.9982910156	0.964517712593
0.0	-0.0	34.4285964966	35.6335029602	42.3990287781	2.16907978058
0.0	-0.0	34.6615486145	34.3826522827	42.687210083	2.59335947037
0.0	-0.0	40.3959236145	34.1673278809	41.6735877991	2.84159755707
0.0	-0.0	50.1850547791	34.7148666382	41.5940475464	2.17745637894
0.0	-0.0	65.7093276978	35.8272171021	41.3171691895	1.06377065182
0.0	-0.0	75.1076889038	37.5143547058	39.9908180237	-0.726521849632
0.0	-0.0	82.2512207031	39.5353126526	37.1673240662	-2.4834382534
0.0	-0.0	87.8423919678	41.9307098389	33.4490776062	-4.91585683823
0.0	-0.0	96.7901000977	45.3602981567	30.096496582	-8.48460483551
0.0	-0.0	106.561149597	47.8190841675	29.6305122375	-11.3842716217
0.0	-0.0	116.550262451	48.8011322021	30.6514492035	-12.6097373962
0.0	-0.0	114.05039978	47.9868392944	28.7684307098	-13.5137758255
0.0	-0.0	23.2423763275	47.1581535339	27.308555603	-14.1399478912
0.0	-0.0	29.8903255463	46.4732666016	28.9835968018	-14.2381134033
0.0	-0.0	41.0971832275	45.9460334778	32.1601715088	-13.9988775253
0.0	-0.0	102.866867065	45.2484664917	35.6532592773	-12.7226753235
0.0	-0.0	148.2552948	43.6476097107	40.0448417664	-9.81485462189
0.0	-0.0	145.293685913	42.7467193604	42.5106468201	-6.96069192886
0.0	-0.0	90.6723327637	41.9690132141	42.967754364	-5.75339698792
0.0	-0.0	35.7126998901	41.9109725952	43.7393226624	-4.6441116333
0.0	-0.0	43.8288764954	41.6646614075	43.7352485657	-4.37272834778
0.0	-0.0	86.8384094238	41.1539535522	44.0019683838	-4.16691923141
0.0	-0.0	107.874031067	40.7430114746	44.5637245178	-3.74300885201
0.0	-0.0	62.5153656006	40.8266334534	45.5199127197	-3.55178451538
0.0	-0.0	44.2286720276	40.4603347778	46.0204200745	-3.02761650085
0.0	-0.0	54.1717567444	38.2485122681	46.5999298096	-1.98066031933
0.0	-0.0	57.4499282837	35.2390403748	49.3124694824	0.262450218201
0.0	-0.0	27.9144668579	33.5716209412	54.8770217896	1.80562651157
0.0	0.0	-30.7659358978	33.6522293091	69.0614547729	0.543286979198
0.0	0.0	-74.8167877197	-142.990737915	88.5994644165	179.893600464
0.0	0.0	-64.4420394897	-139.245742798	78.6018981934	-179.576278687
0.0	0.0	-53.8633728027	-138.813461304	78.8336029053	179.868942261
0.0	0.0	-59.3967132568	-141.702224731	77.7580413818	-176.52583313
0.0	0.0	-62.2329940796	-143.3409729	74.4713668823	-174.821762085
0.0	0.0	-66.5295791626	-141.911865234	70.0789794922	-175.149810791
0.0	0.0	-62.1477127075	-137.897491455	55.4893798828	-177.071075439
0.0	0.0	-68.4669723511	-132.896911621	38.7942848206	-179.287597656
0.0	0.0	-74.3740234375	-131.151199341	32.0279388428	179.207015991
0.0	0.0	-76.6263275146	-130.906997681	30.5053577423	177.648071289
0.0	0.0	-83.6521453857	-132.094741821	30.7733058929	178.555404663
0.0	0.0	-79.7690963745	-134.271209717	31.3987426758	178.766189575
0.0	0.0	-66.3883132935	-135.412231445	31.9475765228	179.549438477
0.0	0.0	-64.8339614868	-138.553833008	33.1775436401	-179.813171387
0.0	0.0	-54.4749336243	-142.302719116	39.497215271	-179.819488525
0.0	0.0	-50.2657737732	-144.256317139	47.9025993347	-179.780288696
0.0	0.0	-40.1829681396	-145.075378418	53.7859573364	179.943023682
0.0	0.0	-30.430524826	-148.007797241	54.081829071	-178.296524048
0.0	0.0	-18.1611213684	-151.87071228	56.1722488403	-177.264266968
0.0	-0.0	27.0132694244	-151.751724243	59.426071167	-175.431030273
0.0	-0.0	60.3882255554	-152.917144775	56.5019226074	-174.651947021
0.0	-0.0	51.2783164978	-157.03817749	52.0571289062	-175.227157593
0.0	-0.0	56.0116882324	-157.044998169	50.6937446594	-176.21975708
0.0	-0.0	54.5436859131	-155.982391357	47.8007850647	-174.057052612
0.0	-0.0	33.4943618774	-154.693130493	49.3213882446	-174.28263855
0.0	-0.0	22.3140354156	-149.884841919	51.285610199	-176.704940796
0.0	-0.0	8.24905014038	-144.132125854	54.2204818726	-179.121490479
0.0	-0.0	37.045589447	-139.873550415	56.9670143127	179.161972046
0.0	-0.0	48.4733467102	-137.55279541	60.4809761047	-178.933898926
0.0	-0.0	50.5267562866	-138.731719971	68.9108886719	-178.111907959
0.0	-0.0	43.8886146545	-141.912750244	75.7320709229	-178.075088501
0.0	-0.0	88.3121948242	-144.490692139	85.7387771606	-178.139785767
0.0	-0.0	124.380561829	34.4667625427	79.5381164551	0.980763673782
0.0	-0.0	126.985237122	34.6736869812	65.9447555542	-1.06949365139
0.0	-0.0	126.383651733	36.5993118286	52.5355033875	-1.98696327209
0.0	-0.0	125.55381012	37.417930603	36.9925918579	-1.81488919258
0.0	-0.0	107.8800354	37.9105033875	23.7378139496	-2.48825597763
0.0	-0.0	98.0748138428	41.6421661377	19.7726707458	-5.25932025909
0.0	-0.0	74.956703186	44.051448822	19.6520462036	-7.13297700882
0.0	-0.0	50.7963600159	43.8579330444	19.2620201111	-7.10675621033
0.0	-0.0	55.1083717346	44.3928833008	19.6320495605	-6.83117198944
0.0	-0.0	55.9690856934	44.0729064941	24.1811351776	-6.28875494003
0.0	-0.0	59.9215698242	44.2766952515	31.3110237122	-6.58345413208
0.0	-0.0	66.7124786377	42.3211135864	35.3303756714	-4.77131557465
0.0	-0.0	62.3255615234	38.1991081238	36.6630363464	-1.55755829811
0.0	-0.0	49.2237358093	36.3455543518	38.105682373	0.42046841979
0.0	-0.0	51.8157463074	37.1711883545	36.53332901	0.702831566334
0.0	-0.0	41.7233390808	35.3416938782	36.8191947937	2.20233917236
0.0	-0.0	27.0048885345	32.5082206726	45.0706672668	3.04425501823
0.0	-0.0	26.5204544067	30.1731109619	69.5691680908	5.61050033569
0.0	-0.0	29.1358184814	27.6364402771	80.7650527954	6.60378456116
0.0	-0.0	25.0440635681	27.1456012726	72.256477356	5.47169303894
0.0	-0.0	28.0584697723	27.6860980988	47.5788497925	4.3030128479
0.0	-0.0	30.3878555298	29.5662841797	29.6100292206	3.40118861198
0.0	-0.0	31.2438144684	33.9958457947	28.1002025604	0.00956497527659
0.0	-0.0	33.2452278137	37.262096405	29.4194278717	-2.71264529228
0.0	-0.0	34.4378623962	34.5620117188	37.5305862427	-0.471371799707
0.0	-0.0	37.2750511169	27.2917556763	49.3104324341	6.03350782394
0.0	-0.0	40.6528968811	21.6993179321	53.0963134766	10.523144722
0.0	-0.0	37.9049072266	20.5229740143	53.1596946716	11.706158638
0.0	0.0	-9.41521930695	21.4791507721	52.0722389221	11.144949913
0.0	0.0	-20.2409305573	23.2292385101	52.1954650879	11.3112850189
0.0	0.0	-20.0337581635	25.0865325928	52.0248756409	11.8990831375
0.0	0.0	-20.8412570953	26.0480251312	51.5259666443	10.5917472839
0.0	0.0	-19.938627243	26.0151062012	45.1520195007	9.03170013428
0.0	0.0	-7.01608705521	24.2046203613	29.786190033	9.44013881683
0.0	0.0	-11.069735527	24.6817550659	24.8829154968	10.0072231293
0.0	0.0	-10.0048980713	30.3019428253	34.87159729	5.11812829971
0.0	0.0	-8.0379858017	30.2503395081	28.1373615265	3.59493041039
0.0	0.0	-7.53470659256	24.2608547211	14.1378078461	4.23263883591
0.0	0.0	-8.24495315552	23.7920017242	7.67833375931	4.25270080566
0.0	0.0	-7.0942568779	23.9942893982	6.47507858276	3.43874716759
0.0	0.0	-6.63219881058	23.5944366455	18.2097320557	3.31614518166
0.0	0.0	-6.04237699509	23.2619972229	42.2919502258	4.58070516586
0.0	0.0	-5.42144632339	19.336555481	78.1762619019	6.94088935852
0.0	0.0	-4.83983564377	-169.460708618	88.2150726318	-169.613571167
0.0	0.0	-4.28938150406	8.5733795166	66.4421005249	7.27492189407
0.0	0.0	-3.31705641747	14.7270383835	38.6083297729	5.66939496994
0.0	0.0	-2.54701495171	16.801071167	22.5592460632	10.008061409
0.0	0.0	-2.02773594856	12.8816184998	15.518242836	14.0687704086
0.0	0.0	-1.23081934452	14.5367174149	20.8878231049	12.903924942
0.0	0.0	-1.01313447952	18.8261795044	32.2967300415	12.1560878754
0.0	0.0	-0.865175187588	18.8341217041	46.7042388916	12.6049480438
0.0	0.0	-1.38658201694	16.478925705	70.762588501	12.4087400436
0.0	0.0	-2.06585240364	-164.963668823	75.912727356	-169.955978394
0.0	0.0	-2.37596011162	-166.489181519	36.7143554688	-175.299346924
0.0	0.0	-2.76452755928	-167.113723755	14.2710199356	179.753768921
0.0	0.0	-3.87610697746	-163.507476807	23.6476783752	179.437713623
0.0	0.0	-4.2663025856	-160.044464111	57.0014801025	179.386703491
0.0	0.0	-4.08435583115	24.2592411041	65.8249511719	-2.68917369843
0.0	0.0	-2.74515175819	27.8010082245	43.3292236328	-1.43533086777
0.0	0.0	-1.88592004776	29.441608429	34.4857902527	0.137216582894
0.0	0.0	-0.432077527046	23.4001483917	30.8476676941	5.65485572815
0.0	-0.0	2.50166893005	7.81337833405	28.4870910645	21.4667987823
0.0	-0.0	3.99555635452	-3.96252775192	31.7869129181	31.561794281
0.0	-0.0	4.70676612854	12.5708723068	36.6238288879	21.1943702698
0.0	-0.0	4.4979300499	43.0298805237	45.0523605347	11.8150472641
0.0	-0.0	3.9089858532	37.322177887	49.9072952271	15.045706749
0.0	-0.0	3.57932186127	-12.1080465317	53.3841743469	21.8267803192
0.0	-0.0	3.46507287025	-40.6143913269	57.6747550964	15.6434879303
0.0	-0.0	3.5176460743	22.2297611237	58.1681022644	-0.0236258357763
0.0	-0.0	3.25586152077	69.5103378296	61.4588241577	-2.3571536541
0.0	-0.0	2.10284280777	41.2270584106	56.150478363	3.92526841164
0.0	-0.0	2.37109017372	-16.9496536255	59.1716117859	9.1635684967
0.0	-0.0	2.63672041893	-4.97261285782	63.5640068054	3.87590527534
0.0	-0.0	3.21012997627	51.4595909119	71.5038070679	-0.382918655872
0.0	-0.0	2.56477117538	62.236114502	71.5501861572	4.68737506866
0.0	-0.0	2.04512095451	8.85923862457	72.2556533813	10.1874008179
0.0	-0.0	2.77306032181	-17.8660163879	73.1572189331	6.78271198273
0.0	-0.0	3.32112526894	27.5789928436	73.3151016235	1.04103600979
0.0	-0.0	3.13364315033	91.167350769	75.9779586792	0.58469247818
0.0	-0.0	1.91079342365	81.2648239136	71.3342819214	3.41212129593
0.0	-0.0	0.996345043182	26.3196086884	72.0369262695	6.34643030167
0.0	-0.0	1.32524287701	3.39228129387	73.4660797119	4.92172670364
0.0	-0.0	2.06158256531	16.7034568787	73.9177322388	5.94407367706
0.0	-0.0	1.56983804703	29.6881370544	67.8328933716	7.20581054688
0.0	-0.0	1.12159526348	33.6560668945	60.2794876099	9.39012241364
0.0	0.0	-0.126784369349	27.6580257416	45.8045005798	12.77602005
0.0	-0.0	1.31254553795	22.6957683563	32.5509719849	15.0292024612
0.0	-0.0	3.80420041084	30.0769996643	30.6276245117	8.83002471924
0.0	-0.0	4.65133142471	35.6007080078	24.5782318115	3.73343086243
0.0	-0.0	5.10025882721	29.5281066895	16.4387874603	6.93395709991
0.0	-0.0	5.52079153061	24.7626361847	12.2269935608	8.52382659912
0.0	-0.0	5.81445360184	22.5290584564	11.2646141052	9.70084381104
0.0	-0.0	6.61258077621	20.1313591003	12.5860805511	11.5261850357
0.0	-0.0	6.69572496414	21.4019947052	17.0789527893	11.3226737976
0.0	-0.0	6.45110368729	29.0137748718	24.1053104401	6.68315935135
0.0	-0.0	6.19559001923	32.2291717529	36.0051879883	3.9737071991
0.0	-0.0	6.02956628799	29.75639534	48.9711837769	4.28687524796
0.0	-0.0	7.92372369766	25.3150119781	53.636089325	6.31752586365
0.0	-0.0	20.6983642578	24.3237476349	49.5668449402	7.62696409225
0.0	-0.0	32.5840110779	25.270980835	43.5283889771	6.96774530411
0.0	-0.0	40.1093826294	26.5114383698	39.0980072021	6.50650453568
0.0	-0.0	43.6521148682	27.7602653503	37.5499916077	5.75431442261
0.0	-0.0	44.9722137451	29.1371250153	37.3918685913	4.68034076691
0.0	-0.0	45.7406425476	31.2703170776	37.4594154358	3.15567183495
0.0	-0.0	52.9606933594	33.9656066895	37.6970787048	0.335057556629
0.0	-0.0	76.3545379639	36.0335464478	36.1097068787	-1.78608191013
0.0	-0.0	113.429229736	36.2170677185	33.9757461548	-2.86884784698
0.0	-0.0	119.777572632	36.8803672791	33.0008125305	-3.51517987251
0.0	-0.0	70.7771911621	38.0374259949	32.828666687	-3.56308436394
0.0	-0.0	27.2066192627	38.9834251404	31.2197742462	-4.5017952919
0.0	-0.0	22.7490615845	38.8534889221	29.8639431	-4.72299289703
0.0	-0.0	73.9554138184	37.4245796204	30.264081955	-4.45986795425
0.0	-0.0	45.7586212158	35.0503883362	35.1422805786	-3.51125693321
0.0	-0.0	56.3640441895	33.7686729431	41.1137199402	-2.65969800949
0.0	-0.0	22.3198223114	32.752494812	43.6505622864	-1.70143520832
0.0	-0.0	69.8461151123	32.5963134766	47.3945465088	-1.22934353352
0.0	-0.0	46.3515548706	32.4860992432	49.6190261841	-0.488999664783
0.0	-0.0	39.9398841858	32.5745506287	50.774723053	-0.230902761221
0.0	-0.0	71.2450790405	32.408996582	51.1120605469	-0.256193041801
0.0	-0.0	15.4125480652	32.4647827148	49.6262359619	0.564830303192
0.0	-0.0	60.5497093201	32.7701148987	46.9199333191	1.65064334869
0.0	-0.0	54.2408790588	31.2520313263	43.1228218079	3.28403258324
0.0	-0.0	29.6047477722	29.4034824371	37.2867584229	5.12636423111
0.0	-0.0	69.9369812012	28.5208110809	31.8573627472	6.11667156219
0.0	-0.0	22.0575771332	28.5756244659	26.6370735168	5.65893220901
0.0	-0.0	61.0317687988	30.6652679443	25.1317520142	3.62150382996
0.0	-0.0	37.0339050293	33.3627510071	25.6159572601	2.04248952866
0.0	-0.0	33.0646591187	35.1309013367	26.1658306122	1.68721055984
0.0	-0.0	67.720375061	36.0287513733	28.7485656738	1.52369046211
0.0	-0.0	16.7997264862	37.6394996643	32.7224731445	2.16658830643
0.0	-0.0	62.4803161621	40.857131958	37.1635131836	2.19851374626
0.0	-0.0	25.9205741882	42.7550354004	41.570350647	5.81814479828
0.0	-0.0	38.5792922974	43.7248306274	45.6572570801	8.95802021027
0.0	-0.0	23.0661048889	44.5191192627	50.7902755737	10.3961343765
0.0	-0.0	16.4822673798	44.9831314087	56.2188720703	10.9811706543
0.0	0.0	-4.04592084885	44.0550575256	68.6726150513	10.9104127884
0.0	0.0	-4.17540645599	-137.535751343	87.1511688232	-168.479415894
0.0	0.0	-3.43007802963	-139.532226562	63.0208778381	-169.990982056
0.0	0.0	-2.85362482071	-143.403060913	43.3801651001	-175.715957642
0.0	0.0	-2.70424008369	-146.768676758	27.107881546	-179.853179932
0.0	0.0	-3.53465175629	-145.602600098	20.6743755341	179.03678894
0.0	0.0	-3.67397904396	-144.009216309	21.7618656158	178.580703735
0.0	0.0	-3.83470273018	-144.052581787	30.4906024933	179.014755249
0.0	0.0	-3.98678922653	-146.448379517	45.4341430664	-179.03062439
0.0	0.0	-3.89559531212	-149.382507324	59.3132591248	-177.60848999
0.0	0.0	-3.53753709793	-150.458206177	67.5230941772	-177.491714478
0.0	0.0	-3.08700323105	-150.088363647	73.3496627808	-177.380493164
0.0	0.0	-2.65467453003	30.9943847656	89.2668685913	4.25447750092
0.0	0.0	-2.27950811386	30.4201450348	68.711517334	5.27639102936
0.0	0.0	-1.81697010994	30.6429729462	54.7200431824	4.42517805099
0.0	0.0	-1.78470790386	32.3958511353	45.2335968018	3.82330703735
0.0	0.0	-0.921449840069	32.7146034241	40.3021278381	3.86532354355
0.0	-0.0	0.481732666492	31.7914295197	38.5363426208	3.63191819191
0.0	-0.0	2.93621730804	31.0415534973	34.8862609863	3.89309477806
0.0	-0.0	5.81372070312	29.7913722992	29.7229785919	4.58156299591
0.0	-0.0	7.46739912033	27.8284740448	27.2991027832	5.71660327911
0.0	-0.0	9.06150245667	26.6775894165	26.9243068695	5.61516523361
0.0	-0.0	8.99608325958	26.1051311493	30.2015285492	4.84317016602
0.0	-0.0	9.07062911987	25.2998123169	33.6053085327	4.94623231888
0.0	-0.0	9.05690288544	24.1950340271	32.197555542	5.76876068115
0.0	-0.0	11.1187601089	24.5264186859	28.8681907654	5.79119205475
0.0	-0.0	11.3854255676	25.9548912048	27.4453372955	5.07084178925
0.0	-0.0	19.031873703	26.6107540131	28.445482254	5.20024442673
0.0	-0.0	24.2571048737	26.3713550568	29.7587661743	4.73388290405
0.0	-0.0	25.192609787	27.0403575897	29.1286697388	4.42024087906
0.0	-0.0	33.0871543884	27.9892921448	28.524553299	3.04518413544
0.0	-0.0	56.6182594299	29.5123844147	28.7699146271	1.47162926197
0.0	-0.0	77.0235214233	30.461315155	29.3404808044	0.249494746327
0.0	-0.0	85.52709198	31.0019950867	30.1187896729	-1.6517124176
0.0	-0.0	91.4439468384	32.0094985962	30.4285202026	-3.15588498116
0.0	-0.0	93.6078643799	34.5445632935	29.5606079102	-5.84647846222
0.0	-0.0	95.6071166992	38.3621025085	27.7805728912	-9.07361221313
0.0	-0.0	102.514793396	42.9933776855	27.2974967957	-13.8253192902
0.0	-0.0	106.522117615	46.3151054382	29.6246318817	-18.7599964142
0.0	-0.0	109.295684814	47.1995925903	31.460811615	-21.4597396851
0.0	-0.0	112.042205811	44.7367248535	31.0204048157	-21.4579467773
0.0	-0.0	116.902755737	41.7952804565	29.4867038727	-19.5874252319
0.0	-0.0	124.581726074	40.8744277954	28.8892822266	-18.3060379028
0.0	-0.0	129.100585938	40.3128356934	28.8949375153	-17.4154758453
0.0	-0.0	85.0881500244	39.5672912598	27.2583675385	-17.0028591156
0.0	-0.0	31.9808940887	38.48179245	25.8639888763	-16.9917125702
0.0	-0.0	36.0557899475	36.9712715149	27.798576355	-16.4137382507
0.0	-0.0	47.7611923218	34.6626815796	31.3630924225	-15.196475029
0.0	-0.0	75.7097320557	32.6420936584	35.6245536804	-12.9653940201
0.0	-0.0	104.437995911	30.6659908295	40.3124847412	-10.3457784653
0.0	-0.0	120.732940674	29.6109256744	42.6856231689	-7.91459512711
0.0	-0.0	131.317871094	29.717338562	43.6527099609	-6.46324634552
0.0	-0.0	134.809082031	29.9593639374	45.9334030151	-5.88048219681
0.0	-0.0	128.8019104	29.9916820526	47.0764541626	-6.07693099976
0.0	-0.0	124.222640991	30.7009906769	46.3056221008	-7.2064166069
0.0	-0.0	121.635505676	31.7058238983	47.2808837891	-6.9392375946
0.0	-0.0	121.788787842	31.8237133026	48.9339103699	-6.61951398849
0.0	-0.0	121.429603577	30.3555316925	50.2652549744	-5.51900815964
0.0	-0.0	121.835586548	28.3931732178	51.6269264221	-4.09434938431
0.0	-0.0	125.051132202	26.8010215759	52.909614563	-3.70117783546
0.0	-0.0	132.254669189	25.7175331116	54.0398368835	-3.60310125351
0.0	-0.0	136.897521973	24.6888694763	54.5551643372	-3.76284503937
0.0	-0.0	140.252960205	24.2885379791	53.9358100891	-4.21408987045
0.0	-0.0	141.158096313	24.746837616	53.3729019165	-4.24384832382
0.0	-0.0	140.969711304	25.2123737335	53.9854507446	-4.45213508606
0.0	-0.0	138.322235107	26.2348480225	55.0203323364	-4.91027736664
0.0	-0.0	134.81640625	27.4334316254	53.9075889587	-5.56368875504
0.0	-0.0	137.852035522	28.5993118286	50.1813278198	-6.9488940239
0.0	-0.0	137.56187439	29.8466663361	43.2913398743	-8.88182067871
0.0	-0.0	134.995330811	30.3749923706	32.479888916	-11.8265457153
0.0	-0.0	134.364883423	30.2896404266	25.1911754608	-13.475935936
0.0	-0.0	134.663116455	32.5246696472	20.7853088379	-16.8569068909
0.0	-0.0	135.575241089	39.4594192505	14.680270195	-25.0127639771
0.0	-0.0	136.321609497	50.8205032349	5.73960161209	-34.6078033447
0.0	-0.0	136.172302246	56.9101219177	-1.6865439415	-37.8564605713
0.0	-0.0	134.342437744	56.6671142578	-1.12774050236	-38.4950523376
0.0	-0.0	134.446731567	52.8592643738	3.20280528069	-37.30809021
0.0	-0.0	135.472473145	48.6414833069	2.78829026222	-34.1113700867
0.0	-0.0	137.562316895	47.4191589355	-0.685552895069	-33.3414306641
0.0	-0.0	138.067321777	49.5765419006	-2.86543035507	-33.331363678
0.0	-0.0	127.57359314	49.2606887817	-0.862970590591	-30.1949386597
0.0	-0.0	122.42124939	48.5264854431	3.43381142616	-28.7056789398
0.0	-0.0	119.301002502	48.9442062378	8.13664627075	-29.1008090973
0.0	-0.0	115.404472351	49.6620368958	11.6295623779	-29.2496070862
0.0	-0.0	113.675575256	50.8839530945	12.5692119598	-29.7945690155
0.0	-0.0	111.183357239	51.359413147	13.2679672241	-29.8601493835
0.0	-0.0	107.243270874	51.8251876831	12.0098876953	-30.8221855164
