16.5222206116	7.65162038803	8.93504810333	27.7849445343	15.8734340668	33.7523956299
16.2803058624	7.66560554504	8.79321670532	27.4180812836	15.7909002304	33.5444755554
15.1153764725	7.57846498489	7.50764513016	26.6747989655	15.9762372971	32.7152061462
11.0584411621	7.11148834229	4.78378582001	25.3954181671	16.3659992218	31.4608650208
5.21705055237	3.30029559135	-2.64133143425	23.0998649597	15.6292076111	29.5491695404
-0.422075092793	-2.07676005363	-10.4965162277	20.5541763306	14.3204030991	26.8588428497
-1.93253540993	-8.95083999634	-16.6161060333	18.9212245941	12.4296207428	23.8561935425
-4.33365631104	-14.0295248032	-11.3100824356	17.9933986664	8.71405887604	19.8734226227
-10.4896316528	-16.124874115	-9.98852825165	16.8996524811	5.00538063049	16.1237640381
-15.4687147141	-11.9047327042	-12.6791667938	15.4509534836	2.26327633858	13.2270803452
-14.0502614975	-7.94787502289	-11.9273538589	15.5129575729	0.119910858572	10.4813194275
-11.5042543411	-10.7603254318	-9.18729782104	15.8600616455	-1.24701714516	8.85329532623
-7.86042022705	-6.37481164932	-3.28375077248	15.5999011993	-1.34463536739	8.32304954529
-5.8012676239	-9.14682006836	0.911464393139	15.5638408661	-1.06950676441	7.85146617889
-2.88967728615	-16.4206390381	3.34032964706	15.9469242096	-0.852595627308	7.97496652603
-1.9099906683	-22.7964115143	6.7936797142	16.3005695343	-1.24600017071	7.99599838257
-1.15171432495	-27.419631958	9.3483581543	16.6662921906	-1.68148946762	7.70568752289
0.738956332207	-31.0195388794	9.1321516037	17.4618148804	-2.13877606392	6.69107437134
4.05645465851	-36.0399246216	7.44555234909	18.2783527374	-2.21943902969	5.69593477249
8.9297170639	-40.2903327942	3.02653598785	18.8514633179	-1.74286830425	5.02523183823
14.4037599564	-40.6929397583	-5.10747623444	19.1089839935	-0.71388822794	4.64409208298
14.535194397	-32.3543510437	-17.99792099	18.7622470856	1.42243397236	5.06773900986
6.00435590744	-24.6775283813	-22.1868839264	17.9384250641	3.40070271492	5.97153329849
1.8284072876	-24.7597694397	-16.8376426697	16.9122104645	3.72856831551	5.90045118332
0.0146181248128	-25.8461761475	-10.2728176117	16.6319637299	3.38498401642	5.63806629181
-1.0840857029	-25.5746955872	-6.84134864807	17.049911499	3.30514621735	5.8536567688
-0.788349986076	-24.7528152466	-6.41331148148	17.6514911652	3.37448382378	5.93847179413
0.683086693287	-24.4749698639	-5.23206329346	17.8256988525	3.40227341652	5.76906013489
1.73859989643	-24.2295379639	-4.85494327545	17.8431816101	3.25681328773	5.6290307045
1.82953667641	-24.4343204498	-3.75006532669	17.8185653687	3.07701420784	5.54616546631
1.43077623844	-24.0312519073	-3.1392083168	17.5647315979	2.75238275528	5.52248048782
0.551284432411	-23.600812912	-2.19755458832	17.1708431244	2.48558688164	5.60002660751
-0.623454213142	-23.5382957458	-1.34864771366	16.5986785889	2.60737204552	5.81832790375
-1.22057127953	-25.1186847687	-1.16246414185	16.1554355621	2.88507866859	5.64259719849
-1.49658274651	-24.7556743622	-0.602867424488	16.6311531067	2.63939428329	5.25293016434
-1.99685490131	-22.7857341766	-0.494966268539	17.0300559998	1.90577852726	4.78107690811
-1.81848013401	-21.1357955933	-0.406571745872	16.9588680267	1.38501620293	4.47276306152
-2.62599468231	-19.0884914398	1.23178303242	16.9254341125	1.15674090385	4.2871222496
-3.05023980141	-16.1804904938	2.19839668274	17.1895427704	1.20810770988	4.49136209488
-3.03789067268	-13.8577356339	3.58354449272	17.6532077789	1.44800746441	4.54619979858
-4.28618001938	-13.7612838745	5.19366598129	17.905960083	2.37805628777	5.02804231644
-6.75540494919	-14.9868526459	6.09543657303	18.6971588135	2.60461306572	6.25483751297
-7.6542339325	-14.1129140854	6.2102355957	20.9961872101	2.2780957222	7.49514722824
-9.0693359375	-14.960310936	5.47804927826	22.2806129456	1.95208883286	7.66262197495
-10.2697238922	-16.3041667938	1.95137310028	22.1633853912	2.83776783943	7.05058908463
-11.2668886185	-15.4905557632	0.844923496246	20.9102840424	4.9940290451	6.0288438797
-12.2709922791	-15.3018989563	0.614855587482	19.4132709503	8.76712989807	4.47990369797
-12.5696716309	-15.9070396423	0.603845000267	17.9846515656	9.80711936951	2.21618533134
-13.1869916916	-15.1013612747	0.534293651581	17.5812950134	10.0614500046	-0.293766319752
-13.7960586548	-15.4933080673	-0.224357262254	17.9775943756	10.1433334351	-2.55662107468
-14.1196632385	-15.1630020142	-1.64648473263	18.5744285583	10.038816452	-3.82488107681
-14.7201366425	-15.4081287384	-1.02407705784	18.3550167084	9.46259212494	-3.19718194008
-14.7152500153	-16.2359695435	-0.755612313747	18.3950138092	8.35594844818	-2.11611557007
-14.0965719223	-16.0423431396	0.232044249773	19.3661651611	6.95444488525	-1.64804029465
-13.556555748	-15.6178121567	1.1087808609	19.9437675476	5.4908747673	-0.826988995075
-13.324385643	-15.9753265381	1.930128932	20.1545619965	3.53733301163	1.29990386963
-12.9629707336	-16.2009067535	1.60209751129	20.297088623	-0.497032910585	4.73421239853
-12.5765209198	-16.2906017303	1.19451260567	19.6408729553	-3.59759664536	7.33844852448
-12.8028583527	-17.1513710022	1.44097065926	18.5496940613	-4.6808848381	10.2616500854
-13.1044387817	-17.3837795258	1.28240799904	17.3711338043	-3.1968934536	13.4884881973
-13.6641397476	-17.0460700989	0.932599723339	16.9788818359	0.835345923901	16.8001594543
-14.0098104477	-16.6418952942	0.402992874384	18.2289886475	3.76412653923	21.4334716797
-14.4042110443	-16.2900409698	-0.253220647573	20.7342662811	3.48616123199	25.9532699585
-13.5411758423	-15.6869001389	-0.694657385349	21.5902366638	2.31137776375	26.8791599274
-8.51175022125	-15.8845405579	-3.06728959084	20.8750171661	2.01552200317	25.8517875671
-2.81626391411	-17.9867515564	-4.63930130005	21.0469703674	1.44652986526	24.7638530731
-2.35096383095	-18.0402469635	-3.84372425079	22.5968170166	0.475815623999	23.8732910156
-3.2538523674	-17.1554813385	-3.43134570122	23.8180046082	-1.03150522709	22.8249206543
-4.55789661407	-16.4524936676	-3.04935097694	24.2420959473	-2.17635989189	22.1695632935
-4.70691156387	-17.0702781677	-3.42423725128	24.3634719849	-2.43115234375	22.206489563
-4.66666841507	-17.4975547791	-3.08942127228	24.1434574127	-2.36199045181	22.5167636871
-5.22247982025	-18.011800766	-2.59462308884	23.5321407318	-2.58942270279	22.5210590363
-6.52134943008	-18.0676460266	-2.4199411869	22.8831768036	-3.02645540237	22.1010513306
-8.04589557648	-17.1798877716	-2.78094768524	21.8385658264	-2.0353679657	22.9821624756
-8.95191383362	-16.2516555786	-3.33371901512	21.0535774231	0.0799708813429	24.4175548553
-8.85469436646	-15.3492488861	-3.18708300591	21.0756492615	0.496176034212	24.8785934448
-8.69876861572	-15.544547081	-3.12964487076	20.2472629547	-1.19308483601	24.7785587311
-8.61653423309	-15.5239868164	-3.55629038811	18.2009143829	-1.99422752857	24.3479118347
-9.09515285492	-15.3002729416	-3.57331609726	16.765537262	-2.02798652649	23.5768909454
-9.50626277924	-15.3522224426	-3.43166399002	16.3548736572	-2.59134840965	22.6946220398
-9.91210365295	-15.6038322449	-3.40679645538	16.6868152618	-3.01447892189	22.1376132965
-10.7159929276	-16.6318454742	-3.20593285561	16.9654483795	-3.03711390495	21.8805618286
-10.3750543594	-17.8574352264	-1.81516337395	17.6858844757	-1.97694444656	22.035861969
-9.70973300934	-18.9838161469	-0.0559017173946	18.6330471039	-0.55131649971	22.3988876343
-8.9083738327	-19.3834323883	0.0416790097952	19.359210968	-0.849315881729	21.6639728546
-7.87164640427	-19.36485672	0.115293510258	20.3285179138	-1.86385965347	20.3883953094
-5.725938797	-20.1543464661	1.30787396431	21.253162384	-2.33223938942	19.0973339081
-3.44017672539	-21.699924469	2.19823336601	22.2350616455	-2.01548409462	18.3374481201
-1.66987729073	-22.0867271423	3.01294827461	23.3983898163	-1.73875117302	17.364982605
-0.61581659317	-20.8502902985	2.87625622749	24.421169281	-1.36964356899	16.0589790344
-0.311624199152	-19.6315364838	2.77205705643	25.3361549377	-1.21069276333	13.2211313248
-0.226004704833	-20.0119075775	2.90365338326	25.6327629089	-0.587230980396	10.6228504181
0.75703561306	-21.3944377899	3.78510856628	25.3255748749	0.322470963001	9.71953868866
4.04167890549	-20.0911998749	2.30584573746	24.8621368408	0.563896894455	9.47412395477
6.07628107071	-15.1998538971	0.475128799677	24.7643814087	0.92429369688	9.26453876495
7.15218925476	-16.6435089111	-0.481003046036	24.7978038788	0.950144350529	8.91221618652
9.73913097382	-19.5161571503	-1.77688765526	24.9410514832	0.453948974609	8.39907646179
12.3548765182	-20.4536361694	-3.14539194107	24.8314590454	-0.352542877197	8.07234287262
11.4333124161	-22.2902336121	-2.21150660515	24.4242115021	-0.565617799759	7.96053743362
8.2118806839	-23.5094356537	2.61689639091	23.6770896912	0.224507316947	8.12350273132
6.72141218185	-20.8190670013	4.62053775787	23.4062862396	1.07724678516	7.99905633926
6.23402452469	-17.8082275391	4.77719545364	23.1802120209	1.16673719883	7.58513641357
5.15693807602	-17.199962616	5.31741952896	22.8887367249	1.27836859226	7.2998008728
4.04062128067	-17.7051258087	6.42839622498	22.5645771027	1.53753876686	7.64258241653
4.12152957916	-23.2892036438	6.2334113121	22.2285308838	1.61253738403	7.78574514389
4.04892158508	-31.3192405701	7.20040035248	22.1848831177	1.21844899654	7.70637893677
4.44118309021	-36.2914009094	9.70032119751	22.7250385284	0.825229465961	7.40275907516
6.38348770142	-38.3358230591	10.0663490295	23.440738678	1.06824111938	6.8786315918
9.98191261292	-41.4356040955	9.19415950775	23.9676208496	1.45406866074	6.51109457016
14.8152494431	-45.4109535217	7.58648014069	24.1732978821	1.79455780983	6.390832901
18.3861522675	-47.8290328979	6.09050178528	23.9642372131	1.79864943027	6.12524414062
21.1212482452	-49.9992752075	4.77270317078	23.7732620239	1.38608336449	5.78645324707
22.0696697235	-53.0233955383	3.90055370331	23.9636669159	1.32707941532	5.55168294907
19.8144931793	-56.2923469543	5.81131505966	24.1824302673	1.61571407318	5.63782262802
12.2636413574	-59.7902832031	11.1458187103	24.1938114166	2.02091503143	5.66225862503
5.18608236313	-60.5064659119	16.0910835266	24.2079944611	2.26105642319	5.79287099838
7.05672359467	-58.1572494507	14.4986352921	24.0250358582	2.10589146614	5.64249038696
14.708480835	-54.8478546143	10.3657674789	23.591135025	2.14456963539	5.50261116028
18.7081241608	-54.5463371277	9.36646747589	23.4083137512	2.38673782349	5.60319519043
20.9131755829	-53.9073371887	9.13862133026	23.4451904297	2.83583712578	5.67919826508
23.1398792267	-51.7032432556	9.73403263092	23.4181938171	2.99583005905	5.53092908859
22.6679821014	-52.9769897461	11.0817565918	22.8504734039	3.10862088203	5.2393951416
31.7087306976	-59.4454727173	4.68576097488	22.5225276947	3.24762535095	4.63874149323
43.7200126648	-60.5242538452	-3.25692558289	22.6033306122	3.75786232948	4.13217830658
53.7318115234	-54.3509178162	-14.8499860764	22.3025722504	3.40091538429	3.84001612663
62.0346832275	-46.7341117859	-28.7090988159	21.7830257416	2.91438055038	3.92175173759
63.5005912781	-44.3098907471	-34.866230011	21.5106086731	2.72875189781	3.82984805107
62.0365943909	-40.9334754944	-37.5110549927	21.5363960266	2.77867269516	3.71514344215
61.6843566895	-40.3852539062	-37.1186714172	21.7737789154	2.95876526833	3.58637857437
63.4638519287	-41.3968696594	-37.3854064941	21.723241806	3.10462713242	3.72675704956
69.7987442017	-41.9428787231	-38.3012161255	21.3756275177	3.11236596107	3.92402791977
76.1405639648	-38.6063995361	-44.9420967102	20.705406189	3.10821199417	4.21035766602
80.3022460938	-32.5197982788	-51.5416107178	20.111951828	3.1201851368	4.52984905243
80.7323989868	-28.831785202	-54.1155166626	19.8742275238	2.96716213226	4.58196258545
78.5010223389	-30.069311142	-53.2797203064	19.3621864319	3.1721227169	4.60461854935
78.0737228394	-31.4757156372	-53.5452728271	18.8126220703	3.68376374245	4.92034482956
79.029838562	-34.7453269958	-52.7413063049	18.4268264771	3.62631630898	4.954621315
75.8252487183	-39.1145172119	-48.4418525696	18.3432617188	3.67721676826	5.02188682556
58.8428153992	-40.8749923706	-37.9545402527	18.3547382355	3.78018927574	5.32643175125
33.2604980469	-39.8055458069	-22.3661956787	18.1028900146	3.91053271294	5.68829774857
10.1578102112	-36.477935791	-9.65820217133	17.83061409	3.91558814049	5.98901700974
-1.94267129898	-30.6492424011	-5.18937349319	17.4306106567	3.94162082672	6.21263504028
-5.47498750687	-28.9561271667	-3.46174955368	16.5424633026	4.08147954941	6.73359870911
-6.62687969208	-28.6033859253	-2.57396531105	16.1185798645	4.09373617172	6.69804286957
-5.86226654053	-29.6304359436	-2.46217393875	16.4797916412	4.19297027588	6.49825143814
-4.59081840515	-30.9063262939	-3.18069028854	17.0416240692	4.09996080399	6.02922344208
-4.04765224457	-30.7663955688	-2.9889485836	17.8080234528	4.2449593544	5.59454345703
-2.37142348289	-30.675359726	-4.22410535812	18.3603420258	4.463367939	5.49203205109
-0.590491652489	-31.0967178345	-5.06723403931	18.677570343	4.66514778137	5.22099256516
-0.0176864881068	-30.8689231873	-5.15613794327	19.2428512573	4.95026350021	5.03439760208
-0.131136283278	-30.0935821533	-5.47725582123	19.3572216034	5.55465459824	4.97032594681
-0.325141191483	-29.2263660431	-6.08390903473	19.1719703674	6.37356710434	5.07131624222
-0.180874183774	-28.425693512	-6.61673355103	18.9383277893	6.87765264511	5.05934858322
-0.327999383211	-27.2144966125	-6.90000391006	18.5099830627	7.58605909348	5.08595705032
-1.13711488247	-25.4359912872	-7.08461236954	18.2957725525	8.27201080322	4.90534973145
-1.63681960106	-23.9044113159	-6.54951381683	18.1980075836	8.65584659576	5.08318758011
-1.54366362095	-23.4166316986	-5.72112512589	18.37641716	8.77115058899	5.152592659
-1.50356400013	-24.113817215	-4.41745090485	18.4644527435	8.56188774109	5.24140071869
-1.97171199322	-24.5560073853	-4.22188282013	18.3749599457	8.10222244263	5.38885068893
-2.911662817	-24.3939094543	-3.81441736221	18.1987133026	7.40369224548	5.21175336838
-3.74655103683	-24.5562877655	-3.8080124855	17.7330570221	7.04053974152	5.24639749527
-3.84710907936	-24.675113678	-4.2225985527	17.3476848602	6.93207120895	4.99176263809
-3.26550364494	-24.2060832977	-4.56963157654	17.5177822113	6.91577100754	4.62644958496
-2.67136120796	-23.7108955383	-4.90785503387	17.7069950104	8.09368610382	4.93288850784
-2.43264603615	-23.895822525	-4.70420074463	17.8155727386	8.53918647766	5.26483488083
-1.85762655735	-23.2451038361	-4.07647895813	18.421257019	9.58872032166	5.89547491074
-1.48190236092	-22.9136276245	-3.52351951599	19.586057663	10.4046554565	6.57547998428
-1.24324572086	-24.0422115326	-3.26927542686	19.7415046692	8.9805021286	7.52442121506
-0.527549922466	-24.5833034515	-3.23365259171	19.2591514587	6.98710823059	7.48003005981
0.130308479071	-25.4143714905	-2.8924176693	19.8854484558	5.42586421967	6.65807723999
0.408400595188	-26.561384201	-2.73077917099	21.0903167725	5.0957274437	5.97111558914
0.599012136459	-26.6925830841	-2.87416672707	21.4682369232	4.61854362488	5.59851551056
0.468628764153	-26.6116008759	-3.03311705589	21.4093933105	4.23387861252	4.95118045807
-0.155667215586	-27.1680183411	-3.1430311203	21.612745285	4.32903623581	4.41863203049
-0.232544049621	-27.142660141	-3.27983689308	21.4901161194	4.53618717194	4.52411174774
0.406014561653	-27.0489864349	-3.52380633354	21.4452552795	4.60578250885	4.15572786331
0.647505164146	-27.2013168335	-3.74899196625	21.7852210999	4.47991371155	3.76615333557
0.621875226498	-27.1695175171	-3.75774717331	21.8740253448	4.74109983444	3.97434425354
0.626992762089	-27.5126209259	-2.52486348152	21.7818450928	5.14173603058	4.22073364258
-0.392189770937	-26.2924499512	-0.141141071916	21.7612857819	5.35543584824	4.23987960815
-0.259812504053	-24.5160579681	1.40574252605	21.8812217712	5.21288156509	4.37507343292
0.442154973745	-24.9478111267	2.12193012238	22.4574337006	5.22454166412	4.43236589432
1.2279484272	-26.9325866699	3.0806851387	22.9370479584	5.08813858032	4.18303012848
2.33627295494	-27.1268196106	3.13135242462	23.2943820953	4.78486633301	3.92847967148
4.73465394974	-24.7400741577	1.98862218857	23.84283638	4.7525472641	4.13862514496
7.74846029282	-22.9612255096	0.504285037518	24.3165416718	5.69586610794	4.73539495468
9.68105125427	-21.428106308	1.16092407703	24.6127243042	6.35483407974	5.63688373566
11.2240371704	-20.0219745636	3.2415907383	24.8348808289	6.00567722321	6.29875278473
11.5052728653	-19.2579936981	5.55558156967	25.1160182953	5.25484848022	6.72641944885
11.4667701721	-16.6656665802	7.91326141357	25.0922794342	4.61659765244	7.296667099
11.8844232559	-14.129034996	8.02089309692	24.8003082275	4.43344926834	7.9844083786
12.1040792465	-17.7775192261	4.77818822861	24.5470542908	5.38917160034	8.75505638123
14.2817583084	-38.8343200684	4.4262304306	24.3237228394	5.70613241196	8.99984169006
12.6322031021	-44.2126655579	8.02879524231	24.490354538	5.42385816574	9.0140619278
15.8751087189	-30.4144191742	7.22633504868	24.9012775421	4.92818546295	8.7601146698
15.583106041	-38.2422561646	3.14321422577	24.5425662994	4.54208564758	8.37405109406
10.0176277161	-34.0253944397	9.49021720886	24.8713321686	4.5538277626	8.24710845947
13.517455101	-33.3195838928	6.40681934357	25.8224658966	4.16542482376	7.99257946014
11.0592441559	-32.8395957947	8.32128429413	26.0773563385	4.27270841599	7.99365949631
12.8138952255	-32.1327819824	7.94499254227	26.223772049	4.57066440582	8.63504505157
9.22426509857	-31.3805274963	8.04171276093	25.1954059601	4.85857343674	9.55495738983
9.07153511047	-28.3407917023	7.75212001801	24.4287967682	5.39720726013	9.93047332764
9.55852985382	-31.5316066742	6.47204637527	23.4529838562	5.30468416214	9.09987640381
5.39958667755	-15.1874904633	8.65625667572	23.3298530579	5.73380088806	7.36847448349
8.69346809387	-32.07837677	0.874406635761	23.0205440521	4.83677339554	6.04040145874
12.9439744949	-31.7732715607	0.0115321297199	22.7045783997	5.11438703537	4.66593647003
9.93234729767	-20.52551651	-1.97764253616	22.5249042511	4.98913812637	3.54764580727
7.83059644699	-30.2331027985	-0.79829198122	21.7085037231	4.51369190216	3.36792373657
3.80181765556	-18.8600730896	2.62638688087	21.1108322144	5.3499455452	3.80333065987
7.93822145462	-28.6637248993	0.313448935747	19.906665802	4.47587537766	3.82108449936
4.38849067688	-21.5620212555	5.49982881546	19.6548023224	5.54882717133	3.83558273315
4.6214928627	-25.6119155884	3.28301501274	18.9236450195	5.42577171326	4.23985767365
3.47407341003	-19.2151069641	3.50461101532	18.3437328339	5.96531391144	4.59269714355
2.40731143951	-20.6748867035	3.9480817318	17.6897602081	6.46701002121	4.6232380867
2.16785025597	-18.8162670135	4.12026262283	17.7612342834	6.9369635582	4.95006465912
1.99360942841	-24.4353179932	2.5700469017	17.8872680664	6.33227777481	4.95108413696
2.84855365753	-21.277759552	3.92399525642	18.355430603	5.91757011414	4.60371828079
3.37818217278	-24.9500007629	4.31736898422	18.3382301331	5.87975692749	4.1421122551
4.82351207733	-28.7246799469	5.43947124481	18.7866516113	6.64456653595	3.08366966248
6.99886512756	-30.14412117	5.22372484207	19.4875507355	5.5933675766	2.31554269791
8.85529232025	-30.7285518646	5.2168431282	19.9329814911	5.12525415421	1.93656563759
9.64540672302	-30.2379226685	5.70296096802	20.1546325684	5.6530547142	2.18006920815
10.544675827	-29.1687431335	5.38622903824	19.8906555176	6.40236473083	2.6507730484
11.9459877014	-29.5066776276	4.76126527786	19.9651317596	6.51489257812	2.78681135178
12.6872816086	-29.2185268402	4.80155277252	20.2563743591	6.65088939667	2.52009892464
13.3550758362	-28.7654247284	4.8144197464	20.6781673431	6.92085599899	2.46913671494
13.3503580093	-28.3643035889	4.91283941269	20.9506778717	7.12427997589	2.45726799965
13.0705404282	-28.2971878052	4.9819688797	20.8185520172	7.55153989792	2.61456894875
12.2102918625	-27.8547840118	5.2412314415	20.3486843109	8.53563499451	3.29776549339
11.6660499573	-27.1103630066	5.58617973328	19.9340782166	9.06240272522	3.85247540474
11.3823022842	-27.0914173126	6.02996301651	19.8031845093	8.86882019043	3.9541478157
10.7180728912	-27.2396869659	6.59372329712	19.9767494202	8.6906452179	3.90908265114
10.275677681	-27.7441215515	7.29159832001	20.3683605194	8.18517684937	3.520403862
10.1357660294	-27.2650909424	7.92764091492	20.7450084686	7.48934793472	3.42686843872
10.1319122314	-27.1749477386	7.75438594818	20.7187690735	7.29656028748	3.94090843201
10.0162858963	-28.3052597046	7.67834568024	20.5319137573	7.22180891037	4.11687660217
9.75469398499	-28.2330818176	7.82643842697	20.9733467102	7.05164575577	3.43372273445
9.74912261963	-27.8632164001	7.78039646149	21.2305469513	6.70331716537	1.65287220478
9.61242580414	-27.9899978638	7.53831911087	20.3661613464	7.35456991196	-1.88615632057
9.47878551483	-27.8483867645	7.59933280945	17.8126010895	9.11852359772	-7.62362337112
9.21971035004	-27.6726379395	7.28358888626	15.0705595016	10.0352964401	-11.8037061691
8.44664859772	-26.9340782166	7.04563474655	13.0495510101	9.97147369385	-12.7664909363
7.80606460571	-26.2691345215	8.14169883728	11.63758564	9.42743301392	-13.8499956131
7.81041240692	-25.9699687958	8.89976501465	9.35577487946	8.40135097504	-14.2102794647
7.13281774521	-25.593126297	9.33540534973	6.87375831604	7.52706432343	-13.9328145981
6.52441215515	-25.1019954681	10.2114715576	5.92053699493	7.47768831253	-13.8414506912
5.85578203201	-24.482006073	11.05128479	5.92918491364	7.83063793182	-12.7847766876
4.55833530426	-23.1185493469	12.2457666397	5.74503660202	8.6253118515	-11.5128221512
2.55876803398	-20.4275283813	12.549241066	5.44791698456	9.26933002472	-10.7572546005
0.924755692482	-20.6250972748	12.9134807587	5.28905296326	9.35652923584	-10.6413946152
1.89976215363	-20.7403564453	13.1024904251	5.36952018738	8.95034885406	-10.5812044144
2.56371045113	-20.4953384399	13.8158121109	6.00779294968	8.65870952606	-10.9229154587
2.29925227165	-20.1344299316	14.1213245392	5.98719215393	9.02695846558	-10.7732133865
2.16392254829	-20.224319458	14.1278982162	5.95557308197	9.05797958374	-10.1005344391
2.74206209183	-20.3215007782	15.415435791	7.50323390961	9.22355937958	-9.05728912354
3.86409831047	-22.121049881	16.8682384491	9.85414028168	9.44359302521	-7.60547399521
5.40305042267	-26.6848163605	16.9040870667	10.3727054596	9.52728748322	-7.44776582718
6.71789979935	-29.8647193909	16.3925247192	10.4344997406	9.88851165771	-7.33022546768
7.56022596359	-30.2882347107	17.52576828	10.489783287	10.3456096649	-7.32125806808
8.82851696014	-30.8912944794	19.9365234375	10.6063985825	10.9487113953	-7.56067276001
10.4367837906	-32.8949279785	19.8072433472	10.6163730621	11.7529411316	-7.8314909935
11.8303890228	-35.8397712708	18.5173053741	10.8215093613	12.1341238022	-7.95471715927
13.5738134384	-37.3428230286	17.2576255798	11.1094064713	12.4158163071	-8.57226753235
15.4808673859	-36.4539413452	15.7454013824	11.1102838516	13.4911079407	-9.75176143646
16.5515708923	-35.1918945312	13.9265108109	10.7800540924	14.1635160446	-10.1414871216
17.3747177124	-34.9574356079	12.4820604324	10.5284433365	14.9269123077	-9.79657173157
17.858543396	-34.7848320007	11.529211998	10.5789718628	15.7985515594	-7.34011888504
17.4936771393	-35.1107177734	11.0479803085	11.030921936	15.9520349503	-3.34253573418
16.862279892	-35.76927948	11.4512462616	10.6560564041	15.5593948364	-3.41247725487
16.7861766815	-36.32787323	12.1454086304	5.35953760147	14.0162858963	-9.41637325287
16.5212993622	-36.6864128113	12.4970464706	-2.78837609291	10.5586299896	-17.3866271973
15.5239286423	-36.3942947388	11.6763000488	-5.4205789566	8.74393558502	-21.7177257538
14.2033147812	-36.2271118164	10.5928211212	-4.70474863052	9.2542552948	-23.0214595795
13.6836805344	-36.1616630554	10.1142778397	-4.70312404633	9.24320983887	-23.3658485413
14.0097866058	-35.466293335	7.97931957245	-5.65187597275	8.63693618774	-23.8553333282
17.1718006134	-33.8473701477	-2.68108081818	-6.22303438187	8.25538063049	-24.0690689087
18.3187522888	-31.7517108917	-10.7427930832	-5.96346569061	8.16361141205	-23.4854640961
17.1518383026	-31.9935379028	-11.9404382706	-6.15875387192	8.33875179291	-23.0750865936
15.639087677	-31.9172401428	-10.9059123993	-6.04983472824	8.30020141602	-22.830997467
14.4989490509	-31.2118930817	-10.0365543365	-5.51483154297	8.06043148041	-22.1387233734
15.0018053055	-31.4451408386	-11.7990970612	-5.05033874512	7.79975748062	-21.4442253113
16.3231067657	-32.957950592	-12.5616502762	-4.92207717896	7.60737991333	-21.2506923676
18.8226699829	-33.1590385437	-15.4560413361	-4.75872182846	7.35258388519	-21.6696147919
19.9560089111	-31.5478820801	-16.720243454	-4.49741792679	6.86291837692	-21.9377670288
22.9997692108	-23.7077922821	-23.0335140228	-3.95627117157	7.00065803528	-21.7245121002
23.9730243683	-22.2316188812	-21.4429168701	-3.13775348663	7.40237808228	-21.4888896942
24.0164661407	-23.3741321564	-20.1168575287	-2.56462740898	7.5657954216	-21.4717559814
23.1198997498	-25.4329681396	-18.8343715668	-2.16567420959	7.77721214294	-21.4372577667
22.4036636353	-25.6621685028	-20.6035327911	-1.59380102158	8.00586509705	-21.0850143433
21.560842514	-27.1207637787	-19.6871681213	-1.31471669674	8.06524753571	-20.8996925354
20.7787475586	-29.7843513489	-15.7523908615	-1.17781281471	8.02913379669	-20.6186828613
19.5477600098	-32.9661750793	-13.1138191223	-1.23400211334	8.17147445679	-20.5182170868
17.2408657074	-34.8182830811	-9.99779129028	-1.17628622055	8.27880859375	-20.4719352722
15.7176628113	-33.9615592957	-9.60426807404	-0.692647397518	8.38590335846	-20.2613677979
12.2723445892	-33.1027069092	-7.80715751648	-0.357747018337	8.47743320465	-20.0478057861
9.45159816742	-30.3363075256	-5.32332372665	-0.572627842426	8.58155250549	-20.0885810852
8.91629600525	-30.1686782837	-2.1709485054	-0.801233410835	8.67587852478	-20.1501293182
8.31257152557	-32.3851852417	1.2417024374	-1.26448071003	8.84399795532	-20.0953769684
9.0276517868	-33.3970413208	0.199727147818	-1.88585686684	9.20026397705	-20.2061786652
9.15809249878	-33.0613365173	-0.824560821056	-2.3904440403	9.72018909454	-20.4940090179
7.60626411438	-32.927230835	-1.44725286961	-2.91330718994	9.70314979553	-20.8074569702
6.11085987091	-34.1064910889	-3.06393265724	-3.36561965942	9.56930732727	-20.9163074493
6.55433750153	-34.571685791	-3.64216685295	-3.76915383339	9.68425750732	-21.1319484711
8.14700222015	-33.8573188782	-5.52576398849	-4.09849882126	10.063574791	-21.9889755249
8.29182720184	-32.2343940735	-6.60834217072	-4.26943683624	10.4029636383	-23.4692115784
6.3030962944	-30.606546402	-7.06777620316	-4.53834199905	10.0141057968	-24.4448451996
5.99669790268	-30.2463665009	-7.79965305328	-5.39616394043	9.79775714874	-24.7554130554
6.76781177521	-30.8099918365	-9.01801395416	-6.28868436813	9.43419837952	-25.1736698151
7.72272586823	-31.2356796265	-9.64141941071	-7.23918104172	8.61341381073	-25.474647522
9.30044651031	-30.9777317047	-10.274389267	-7.36073541641	8.16154384613	-25.5414390564
10.1552677155	-29.4339504242	-7.71484184265	-7.25480747223	8.58862304688	-25.3729972839
9.33574199677	-28.4718818665	-4.49958133698	-7.56321525574	8.62615203857	-25.3308410645
6.29581308365	-26.2646884918	-0.00850651506335	-7.39340209961	8.72238445282	-25.2091274261
4.88226985931	-23.6012058258	5.58533287048	-6.79317808151	9.02238941193	-25.0904808044
3.18598413467	-23.8134021759	10.4242238998	-6.3833231926	9.23873615265	-25.008392334
2.21290707588	-25.1831130981	15.0172157288	-6.32793951035	9.30376720428	-24.9290294647
1.68564045429	-26.030960083	20.4579372406	-6.12783288956	9.25527191162	-24.6457366943
1.44621992111	-25.7782516479	23.0118312836	-6.00294113159	9.28800678253	-24.2998867035
1.21123278141	-25.9398288727	23.8649597168	-5.9457859993	9.23579216003	-24.0916080475
1.11147403717	-26.9784679413	24.69282341	-5.93741130829	8.94383525848	-23.9234428406
1.0281778574	-27.1072158813	24.730682373	-5.81734609604	8.62344169617	-23.5973205566
1.31157374382	-26.2663879395	24.3490390778	-5.46178627014	8.47229290009	-23.344669342
0.958236753941	-24.8943004608	24.184337616	-5.03695774078	8.84376907349	-23.2879085541
-0.280630290508	-23.905872345	24.6480522156	-4.78840923309	9.25154685974	-23.1262969971
-0.696313142776	-23.3321609497	24.9797859192	-4.85053682327	9.45297813416	-22.7629489899
-0.629072368145	-23.2225437164	25.844045639	-4.77678346634	9.50104522705	-22.6209392548
-1.04921352863	-23.4693717957	26.6789455414	-4.74556350708	9.58003520966	-22.4611034393
-1.60632634163	-25.0401229858	26.7284374237	-4.77856063843	9.14862251282	-22.3542308807
-1.89584505558	-28.6053905487	25.023109436	-4.56705665588	8.9861869812	-22.5390262604
-1.74066591263	-30.866771698	24.6242599487	-3.96632647514	8.75101947784	-22.5284156799
-1.30031073093	-31.7510662079	24.3268260956	-3.35095143318	8.39626121521	-22.6442508698
-0.886290967464	-32.3400001526	21.8123245239	-2.9156332016	8.02653694153	-22.9155921936
-0.798597216606	-32.7631759644	18.5820388794	-2.37649655342	7.98432207108	-23.2112827301
-1.40985274315	-33.1094245911	17.7100200653	-2.07447314262	8.13844871521	-23.31092453
-2.30696415901	-32.3322486877	15.4756994247	-1.87411952019	8.38809013367	-23.2608222961
-3.79364466667	-31.4366893768	14.2240858078	-1.80653488636	8.71623706818	-23.0188274384
-5.27318954468	-31.1836242676	14.2481412888	-1.66306948662	9.02740001678	-22.6273975372
-7.2852973938	-31.4516830444	14.7297096252	-1.91824901104	8.85704517365	-22.2636013031
-11.7817726135	-31.4803333282	13.9494428635	-1.89145612717	8.75393390656	-22.1070766449
-12.3013687134	-31.4124259949	12.1792049408	-1.66989684105	8.90386199951	-22.234790802
-11.7862377167	-30.6241149902	11.0990877151	-1.39807283878	9.23078632355	-22.3346843719
-11.8674898148	-29.2814464569	11.9424352646	-1.415371418	9.28189277649	-22.3034934998
-12.9017934799	-28.3343849182	12.2984828949	-1.7455791235	9.24865818024	-22.1066093445
-14.7134332657	-28.1407756805	11.7188100815	-2.05715322495	9.1232919693	-22.0513057709
-15.3017501831	-28.2801456451	13.2620716095	-1.90133702755	9.22910308838	-21.8439693451
-14.6932430267	-27.862909317	13.4198188782	-1.76358032227	9.35025501251	-21.6699447632
-13.6108503342	-27.9832859039	13.7615432739	-1.70825517178	9.30515193939	-21.5200843811
-13.2898960114	-28.3910427094	12.6675415039	-1.76882994175	9.01641559601	-21.3655261993
-13.609585762	-29.1393737793	13.3873262405	-1.79058992863	8.89869689941	-21.2096881866
-14.4045295715	-29.2888088226	13.6137514114	-1.98792648315	8.90287780762	-20.9405326843
-15.4998025894	-28.9848613739	14.2368116379	-2.02021169662	8.94617271423	-20.8583183289
-16.4760494232	-28.7476501465	14.469748497	-1.89251077175	9.12965965271	-20.7155246735
-17.1325550079	-28.4084625244	14.6244764328	-1.66166698933	9.46574115753	-20.6109466553
-17.6834335327	-27.9432735443	15.008808136	-1.30678975582	9.78949451447	-20.5641803741
-17.6184406281	-27.8854999542	15.1269226074	-0.945260465145	9.95468711853	-20.4340648651
-17.5135364532	-28.3571624756	15.2837848663	-0.643628835678	10.0206851959	-20.3948230743
-17.5236911774	-28.459192276	15.4745445251	-0.457589805126	9.78932094574	-20.3059444427
-16.9590797424	-28.6780052185	14.3680143356	-0.111127749085	9.71647834778	-20.4152488708
