-27.9416866302	-49.4651031494	143.995483398	-1.71998178959	3.16746616364	-8.8875579834
-27.6813030243	-48.962146759	143.754714966	-1.56923878193	3.36426329613	-8.95318984985
-26.6625080109	-47.6661682129	142.057022095	-1.6838299036	4.22756528854	-8.94641399384
-22.9786930084	-46.6517829895	135.476425171	-1.54895508289	7.62235832214	-8.98166370392
-19.6857433319	-46.1131896973	130.435806274	-0.342079728842	14.3714876175	-9.18632411957
-13.0485248566	-46.6971054077	121.38634491	2.81071853638	19.4870529175	-8.40703010559
-6.52105665207	-48.9283256531	110.466781616	5.27524232864	21.148349762	-8.01351261139
-3.02407670021	-52.2198104858	103.083000183	6.64375448227	21.8944320679	-8.1345911026
5.76892995834	-55.2011070251	92.7884140015	7.94618749619	22.4032173157	-8.3771572113
17.994562149	-53.091255188	76.9231262207	9.06339263916	22.9202861786	-8.62075138092
24.0403137207	-49.5449295044	67.8093719482	9.27407360077	23.2257270813	-8.96715164185
21.6365013123	-52.0158576965	72.4021453857	8.71325302124	22.9721221924	-9.61943340302
22.7113800049	-56.1689414978	73.6037445068	8.75395679474	22.8767032623	-9.9473323822
30.3270072937	-57.6953849792	63.3319473267	10.1817846298	23.7288131714	-10.02298069
36.6325073242	-57.1672210693	53.9054641724	11.3210124969	24.1366043091	-10.1112670898
40.2510795593	-59.7136726379	48.9098396301	11.8036832809	23.8856239319	-10.518371582
44.2721595764	-64.4658966064	46.0349159241	11.441069603	24.4616832733	-11.2276573181
50.9856338501	-65.5770339966	40.2430725098	10.9831314087	24.4597625732	-11.9619817734
58.6927146912	-65.9027557373	31.9696617126	11.4791183472	24.4424152374	-12.3693265915
52.4716682434	-68.0696563721	38.4302902222	11.5852584839	24.8461112976	-12.9589929581
47.7735137939	-64.6381149292	43.6750411987	11.3288507462	24.5248451233	-13.2613945007
34.811290741	-56.8953895569	61.6911468506	11.0552892685	24.6002235413	-13.3007659912
29.0134429932	-41.0632400513	63.5813522339	11.3125772476	24.8424606323	-13.1854019165
30.4999217987	-26.1996212006	54.7029380798	11.604060173	25.0757904053	-13.3012571335
30.3917198181	-14.5784864426	47.1965103149	11.7965364456	25.0024757385	-13.417016983
29.4067420959	-8.22400569916	40.9803924561	11.7459897995	24.954744339	-13.3546924591
28.827293396	-4.30466604233	34.0740966797	11.155134201	24.9646568298	-13.3800420761
26.8460845947	3.80220961571	27.4757728577	10.9906396866	24.8436355591	-13.2897882462
25.7828826904	-0.0763550102711	26.3547649384	11.054599762	24.5958156586	-13.3306465149
23.776638031	-17.6477394104	29.602853775	10.7525959015	24.5575962067	-13.2306184769
23.4133796692	-30.3745498657	33.3331336975	10.5414094925	24.9267196655	-12.9764194489
21.7862052917	-32.6428222656	32.8385658264	9.92471694946	26.9629306793	-13.3021116257
19.9542045593	-32.9629440308	31.0220603943	9.36190128326	30.5008068085	-15.2588157654
20.3962631226	-30.9683761597	30.1336345673	10.4989891052	32.5457611084	-16.1209659576
20.594871521	-28.1774044037	29.0376644135	12.3158168793	33.6978187561	-15.8058671951
20.3989868164	-28.1454772949	30.1555213928	13.1877059937	34.3994369507	-15.7191934586
20.9161224365	-27.837556839	29.4198875427	12.1778450012	33.0509033203	-15.7284870148
20.5899829865	-28.2341690063	30.0797576904	10.7919692993	31.1298732758	-15.7339038849
20.1038608551	-28.7253170013	30.526763916	10.0777235031	29.265542984	-14.8904161453
19.0443401337	-29.0742893219	30.6988315582	8.5121717453	23.9157733917	-12.9061822891
18.2117919922	-29.5956764221	30.9548435211	5.54302597046	16.2387275696	-10.0676240921
17.3423099518	-29.6571998596	31.6060199738	3.56325650215	14.9149179459	-9.12802886963
17.0481510162	-30.0998516083	31.8305778503	3.36164450645	14.7864303589	-8.25366687775
16.4935569763	-29.8547821045	31.2628097534	3.80176973343	14.4473714828	-7.69757699966
15.7726898193	-29.5315208435	31.5906238556	4.78206825256	13.9736890793	-7.70261764526
16.1200408936	-28.8169403076	31.0807743073	4.71295833588	14.6848449707	-7.58754968643
16.3040008545	-29.4722213745	31.1578006744	3.62114191055	15.403924942	-7.75078725815
16.6666736603	-30.9417476654	30.455450058	3.47377204895	14.8820028305	-8.3267288208
15.6243896484	-36.8362159729	40.1505126953	4.03470563889	15.2391338348	-8.58936309814
