4.39949893951	-8.76626682281	-3.27708029747	18.6297340393	28.8863544464	34.051158905
4.39330101013	-8.73248958588	-3.29276752472	18.5703487396	28.7546043396	34.0949554443
4.61417722702	-8.82064914703	-3.250030756	17.5761699677	28.5590305328	32.9646606445
4.61390733719	-8.84951400757	-3.53902077675	14.0117034912	27.5968513489	29.0871582031
4.50068998337	-8.52653694153	-4.23908519745	9.85640144348	25.4477710724	24.9798316956
4.19123888016	-7.84569644928	-4.70470714569	7.65467691422	22.9725151062	22.1587638855
4.09657907486	-7.42947340012	-5.05635166168	7.78711271286	19.5256614685	20.0067520142
4.68803453445	-7.43623685837	-5.05677270889	8.38720703125	14.324224472	17.6496524811
5.27108001709	-6.89529895782	-3.54818916321	9.25989532471	7.9692864418	14.9218454361
4.81605148315	-7.17028856277	-3.24415707588	10.0754804611	2.44117164612	12.7514419556
4.47422266006	-7.73701667786	-3.42874646187	10.6186094284	-2.62185096741	11.1721496582
5.06279039383	-7.71911525726	-0.11368393153	10.8044195175	-6.78370189667	10.1239423752
5.93677902222	-7.80084657669	1.85519742966	10.780421257	-9.61829471588	9.5105381012
7.0938835144	-8.39774990082	5.35597848892	11.0034332275	-12.3492765427	8.37967586517
7.79238033295	-8.27139949799	7.79972171783	11.7287931442	-14.53810215	7.05257368088
7.99505186081	-7.00574350357	8.35531997681	11.9619426727	-13.7909679413	7.17053079605
7.98378658295	-6.38222360611	6.87509727478	12.7305383682	-11.2436571121	7.62251138687
7.2564201355	-7.69890213013	4.91984510422	13.3948364258	-8.51319885254	7.9270939827
6.38788700104	-10.6055393219	5.32395792007	13.8065862656	-5.95054531097	8.03679847717
5.4096031189	-12.1825551987	5.35134029388	14.1170148849	-4.93504810333	7.79596281052
4.1515288353	-13.3953027725	6.16173601151	14.498046875	-5.34231138229	7.40787172318
3.8140130043	-14.8119926453	7.54792881012	14.772321701	-6.21325016022	6.84440088272
3.26711463928	-16.3407363892	9.45882129669	15.334982872	-6.76563024521	6.36444044113
2.36036944389	-18.286315918	11.9362478256	15.8374385834	-7.03012275696	6.22740411758
1.27175629139	-20.1584243774	14.0901012421	16.2007293701	-6.89854717255	6.21194648743
0.345547199249	-21.4029521942	15.5413274765	16.4770870209	-6.70741939545	6.16191577911
-0.309452295303	-21.8763103485	16.4755039215	16.3638343811	-6.81771564484	6.25677871704
-1.00464117527	-22.2505397797	16.1855640411	15.7064676285	-6.38125085831	6.5976934433
1.9522331953	-25.0875167847	13.7484817505	15.1542606354	-5.47605991364	7.0446767807
6.51976060867	-26.5119113922	13.0836858749	15.0863656998	-5.02101230621	7.00345993042
8.43616104126	-26.6016998291	13.962518692	15.2870702744	-4.93086576462	7.09423542023
10.3192749023	-26.0845355988	15.2217416763	15.5348701477	-5.23875570297	7.1852722168
14.6833190918	-25.3676605225	15.4402189255	16.0345497131	-5.39649486542	7.13898849487
18.8761730194	-26.4587097168	16.4492206573	16.4837856293	-5.34123849869	7.06045722961
21.8425674438	-27.442653656	17.7657966614	16.9855213165	-5.21634101868	7.26854324341
25.0357875824	-27.0601329803	19.3146095276	17.6233291626	-5.30827856064	7.62761116028
27.3556919098	-26.289232254	19.2421169281	18.0103969574	-5.52202606201	7.72282028198
28.9395561218	-27.1254425049	20.2147598267	18.4183616638	-5.42637729645	7.87582778931
30.3377475739	-28.6817817688	20.4100112915	18.8619747162	-5.28711891174	7.96427631378
31.8419857025	-30.1401939392	21.3730449677	19.1178283691	-5.63092708588	7.90249824524
33.5291595459	-31.1162395477	21.8690013885	19.1064243317	-5.97187614441	7.7526640892
34.5304946899	-31.9585456848	22.5143756866	19.1369800568	-5.67423677444	7.77666378021
35.0692520142	-32.65807724	22.4927902222	18.9488563538	-5.41220235825	7.87663793564
35.3614807129	-32.4570503235	22.3886528015	19.0030632019	-5.78078651428	7.65270042419
35.3819198608	-31.6164035797	22.838634491	19.0736980438	-6.51473999023	7.37023067474
35.5166664124	-31.6418590546	23.1505737305	18.8267040253	-6.92210960388	7.26670408249
35.708896637	-32.1153259277	22.784910202	18.6898097992	-7.58594274521	7.27902269363
35.4252586365	-31.3097953796	22.8131389618	18.3507442474	-9.35130310059	7.16995668411
34.9307060242	-30.6254501343	22.7162342072	18.0156860352	-11.2032413483	6.71985626221
34.4947052002	-30.36860466	22.257144928	16.9464378357	-12.1967697144	6.89962291718
34.0113563538	-29.8926811218	22.1671733856	14.9332838058	-13.1424951553	7.54734373093
33.3321495056	-29.5656471252	22.1577091217	11.8402013779	-15.0772247314	9.0636844635
32.577091217	-29.1603431702	22.3342456818	9.28572940826	-17.3141593933	10.2743206024
31.3040885925	-29.0432605743	22.6779727936	10.276350975	-15.3368148804	10.5721940994
30.4490814209	-29.6319141388	22.8226470947	11.6967954636	-13.1137809753	11.5260372162
29.9374237061	-29.1841030121	23.4716415405	12.0986404419	-13.3700819016	11.8748807907
30.2480201721	-28.3186664581	23.8974990845	12.6134080887	-16.1245346069	11.366850853
30.2787761688	-27.5034656525	23.6743888855	13.2215433121	-17.1412563324	11.0961952209
30.4195175171	-27.0152492523	22.7984466553	13.287062645	-13.8438367844	12.8695259094
30.8929958344	-27.1237010956	22.1467342377	13.7943983078	-7.49142074585	15.5436096191
31.3862285614	-28.0300655365	21.6823139191	14.2270307541	-0.462318688631	18.7855491638
31.2199764252	-28.6039123535	21.3921871185	14.0213117599	6.31231546402	23.2383060455
30.4354076385	-27.7914562225	22.2207736969	14.4132938385	9.68949127197	26.403585434
29.5720996857	-26.6984233856	23.4186401367	14.9490633011	8.79807186127	26.2584438324
29.6686534882	-25.9702968597	23.8231010437	15.1261644363	5.33840513229	24.8367328644
29.4443035126	-25.3241424561	24.1013355255	15.3936223984	0.556547701359	23.075881958
29.4353160858	-25.0280456543	24.1439418793	15.986700058	-3.66964554787	22.1255283356
29.9557189941	-25.5298728943	23.7852516174	16.4207229614	-7.0629119873	21.8098564148
30.7810287476	-26.1604957581	23.7744960785	16.8371906281	-8.92045497894	21.5103378296
31.303062439	-26.8335475922	23.3909549713	17.5712547302	-8.07652187347	21.3558578491
31.1115036011	-27.4130744934	23.239112854	17.8946094513	-7.3082318306	21.3772201538
30.8298778534	-27.3885669708	23.2409305573	17.5885791779	-7.36120462418	21.4294776917
30.7628860474	-27.0535430908	23.5767383575	17.3002147675	-7.40584516525	21.5435943604
30.7303009033	-26.9615764618	23.8731632233	16.6568279266	-9.39217281342	20.8497886658
30.8161964417	-26.4571208954	24.2034282684	15.8484106064	-12.6838359833	19.4133224487
30.8283061981	-25.6232261658	24.3462734222	17.1041584015	-13.2174797058	17.2645282745
30.5782680511	-26.1013259888	23.9221115112	19.7724666595	-10.058224678	15.4849815369
30.3310756683	-26.6354064941	23.3745956421	20.8999462128	-5.23171186447	14.7775583267
30.6637420654	-26.4827461243	23.1963500977	20.2961788177	-1.1161968708	13.6116905212
31.0626468658	-26.006565094	23.305644989	18.4726772308	1.63885700703	10.950966835
31.1124954224	-25.9337177277	22.8701515198	15.0538787842	4.6192445755	6.18054866791
30.9456310272	-25.8463687897	22.1595134735	10.215927124	7.17319631577	1.6938303709
30.7748699188	-25.4157962799	21.5416069031	6.96175193787	7.40375947952	-0.735251605511
30.9148101807	-24.5622234344	21.1527614594	6.03755712509	6.32967758179	-1.2013386488
30.9285392761	-24.0253257751	21.2419433594	5.22217512131	4.36999988556	-2.10427284241
30.8663864136	-24.1567897797	21.3680896759	3.77314329147	1.57325172424	-3.48995041847
30.9095058441	-24.8656005859	21.180683136	2.22004580498	-1.0163693428	-4.64251804352
30.7135105133	-25.1921825409	20.883266449	-0.300888866186	-3.69176483154	-4.83657407761
30.5945453644	-24.5943984985	20.8378677368	-3.62811946869	-5.01511001587	-3.68472743034
30.9254341125	-24.2341556549	20.802066803	-6.72840023041	-4.20513629913	-1.53640794754
31.7544689178	-24.5371990204	20.3281211853	-8.42420864105	-2.3582508564	0.743409454823
32.0656471252	-25.0082626343	20.8555355072	-5.65980625153	-0.739902377129	1.25072002411
30.2163181305	-24.7435283661	20.3877162933	-1.91544103622	0.0712025612593	1.24864578247
25.7949924469	-22.8513660431	20.3964290619	1.13587629795	0.292822778225	1.33794462681
20.5076656342	-19.3509197235	14.8895215988	3.17078113556	0.0907811000943	1.42775571346
16.4879207611	-17.905632019	10.9288873672	4.3640499115	-0.310833841562	1.23097300529
16.8687000275	-18.4346427917	12.1809301376	5.23072147369	-0.469602972269	1.33952963352
19.0757923126	-19.7730789185	13.2016887665	5.98058748245	-0.303151726723	1.29300069809
22.508398056	-21.3164749146	13.6063022614	6.79220819473	0.381267726421	1.19249248505
26.735622406	-22.3985900879	13.6716012955	7.43026065826	0.745640933514	1.22529327869
30.3698005676	-22.1943836212	13.9379682541	7.18130064011	0.850659608841	1.44872176647
33.803894043	-21.2648181915	14.5131559372	7.00325679779	0.853693962097	1.66641461849
38.0363121033	-20.4519538879	16.8540306091	7.31745433807	0.772838592529	1.81903743744
40.9056091309	-20.8769931793	17.8601932526	7.72948026657	0.579051434994	2.0896961689
41.2012786865	-20.4776191711	18.1524429321	7.89501571655	0.499819397926	2.43013095856
39.9510040283	-19.0671215057	17.4895153046	8.46176242828	0.5654515028	2.83034515381
39.0952415466	-18.0053787231	16.8027572632	9.07488441467	-0.0584087260067	3.16157269478
38.4039497375	-17.6937274933	16.9675369263	9.53851890564	-1.6508961916	3.7905023098
38.0457801819	-17.529296875	17.5603160858	9.76062297821	-2.80049347878	4.6301150322
37.4320220947	-17.1330490112	17.4010868073	9.88725852966	-2.2460129261	4.87476301193
36.833656311	-16.9587364197	16.618724823	9.73701286316	-2.07106614113	4.81449508667
37.3072013855	-16.7283782959	16.3013935089	9.18812656403	-2.33253097534	4.7533955574
37.3138198853	-16.6286373138	15.8050394058	8.22213363647	-3.59079527855	4.15753126144
36.7352905273	-16.4842185974	15.2994651794	1.2372405529	-6.26940202713	3.96917247772
36.6343688965	-15.5472536087	14.7681894302	-7.13915872574	-4.452003479	4.71879482269
36.3809356689	-15.9105844498	14.0880041122	-4.3572602272	0.174366801977	5.65458202362
35.2200889587	-16.1872520447	13.305811882	3.72193455696	2.63692450523	6.60997724533
34.7416000366	-15.2619075775	13.1252098083	9.24223995209	3.21822309494	8.16314029694
34.9868621826	-14.1788387299	12.8790464401	10.7521820068	2.91181063652	9.4921875
35.0941429138	-13.6214561462	12.6697282791	11.2774343491	3.43032073975	11.8669099808
35.107711792	-13.1800289154	12.9699459076	13.6668348312	5.1140203476	15.7433767319
35.6470909119	-13.2040910721	13.2832717896	16.6396217346	5.5902223587	18.3725070953
36.6192741394	-13.4805831909	14.0739221573	18.3845405579	4.52755880356	18.8576793671
36.9544067383	-13.7298717499	14.188952446	19.31300354	2.90826225281	18.7179088593
36.5879936218	-13.0396413803	13.6718254089	19.7864131927	1.5907034874	19.238948822
36.0270080566	-11.9982824326	13.7141828537	19.9261665344	0.660288870335	20.7465000153
35.8473472595	-12.3212242126	14.4887924194	20.3550682068	0.205247431993	22.5675201416
35.6629943848	-13.2162275314	15.419757843	20.2509784698	-0.532104194164	23.3738899231
35.2592468262	-13.1115570068	15.6872081757	19.5342903137	-3.89488863945	23.1459274292
34.5924835205	-11.8475790024	15.6272754669	19.5139331818	-7.99319934845	22.4669532776
34.4932441711	-11.5979681015	15.3441581726	18.7064609528	-11.8206186295	21.8624458313
34.6715240479	-11.5922660828	15.6527967453	17.7089233398	-12.8688669205	21.5219211578
34.5643615723	-11.8856506348	15.4415740967	19.2374267578	-7.71140956879	21.3034381866
34.2782325745	-12.1680221558	14.7297353745	19.618019104	-3.72148442268	21.3908615112
34.8694610596	-11.1273145676	15.0399742126	19.6272945404	-0.614145517349	21.4213962555
35.2820968628	-10.804186821	15.0378303528	21.012298584	6.48698472977	22.0086212158
34.7836875916	-11.0554122925	14.713013649	22.7992687225	17.5332756042	23.4507465363
34.2683448792	-10.9448900223	14.2300367355	22.4328479767	24.369884491	23.4535617828
34.4253387451	-9.93317699432	14.209651947	21.4538898468	25.5214309692	23.1469364166
34.4304580688	-9.34707641602	13.9240102768	20.4634838104	24.6750907898	22.6374931335
34.0944709778	-9.13690185547	13.4312019348	19.07097435	21.6574783325	21.6338386536
33.7474365234	-9.07178020477	13.4382505417	18.0904045105	18.3151741028	20.5833454132
32.3403167725	-9.62422657013	14.0000591278	18.0928478241	16.4221286774	19.8921203613
30.7456321716	-11.3019189835	14.8886098862	18.5089187622	15.5145530701	19.742816925
29.2672958374	-13.1906852722	15.6018543243	18.7846336365	14.6693239212	19.814874649
27.9586315155	-14.7858409882	16.2201805115	18.736032486	13.3040761948	19.6776046753
26.0578746796	-15.7495946884	16.8037815094	18.5588722229	11.7530574799	19.5416164398
23.2167358398	-17.5259380341	17.9497146606	18.3377857208	10.3818368912	19.2500534058
20.2408409119	-20.3615646362	19.8508148193	18.3515281677	9.37739467621	18.7762889862
17.1373405457	-22.8804283142	21.5336227417	18.7206687927	8.41020011902	18.2193470001
14.2676830292	-24.2853050232	22.4503192902	19.0975265503	7.30555009842	17.5788497925
11.3489542007	-25.9813613892	22.9739494324	19.364982605	6.19996452332	16.9475421906
8.14817523956	-27.432472229	23.0436248779	19.5578460693	5.53462028503	16.4815349579
4.44540977478	-28.5735836029	25.977684021	19.4192390442	5.03630065918	16.2790737152
1.16607201099	-29.0878295898	27.3899402618	19.0275211334	4.47700119019	16.2184448242
-1.28769779205	-29.7138633728	29.6027545929	18.5459423065	4.3610086441	16.4497928619
-3.24891757965	-30.1071395874	30.3910579681	17.9990577698	4.35492372513	16.6639328003
-4.19437932968	-30.583864212	30.7322998047	17.4489955902	4.18243169785	16.7795810699
-4.8922829628	-32.173866272	31.265007019	16.762720108	4.31143951416	17.0080413818
-4.68363666534	-34.7136230469	31.9698905945	16.2161655426	4.5774230957	17.0050411224
-4.1828751564	-37.8414573669	32.3334121704	15.7892665863	5.14599084854	17.1165332794
-3.18366074562	-40.5553131104	32.6612968445	15.6194057465	5.60477256775	17.2233943939
-2.14563345909	-42.2435722351	32.768787384	15.5959701538	5.6238117218	17.1110134125
-1.15403175354	-42.7866134644	33.2182197571	15.30975914	5.64821910858	17.1012134552
-0.0345652252436	-42.7277259827	33.058052063	15.0135955811	5.90393257141	16.868560791
1.1182435751	-42.8165817261	32.1349411011	15.062046051	5.96578645706	16.0801410675
2.60686421394	-42.8250465393	31.0155296326	15.1253671646	5.90631532669	14.8272705078
3.99817156792	-42.176525116	30.2136459351	15.126660347	5.89089584351	13.6559886932
5.69452381134	-41.3192558289	29.1140556335	15.0352678299	5.46485757828	12.2772216797
8.11885356903	-40.404510498	27.3345184326	15.0356807709	4.96341180801	10.7164306641
10.812997818	-39.2830314636	25.0705699921	15.2991762161	4.58864498138	9.57033061981
13.8987045288	-37.8821640015	22.1418838501	15.8053131104	3.96128368378	8.76898384094
17.3039360046	-34.9760513306	18.8429908752	16.2329025269	3.03843569756	8.13622760773
20.2744216919	-32.5434036255	17.8173065186	16.4690322876	2.01761817932	7.70759057999
21.5466747284	-31.0469322205	15.7698030472	16.6853847504	1.41908860207	7.51311349869
22.08644104	-29.8925361633	15.8367996216	16.6231613159	1.14933860302	7.36884069443
22.7543411255	-28.5991954803	14.9684095383	16.7509460449	1.08412861824	7.06367683411
23.4446220398	-26.8266525269	14.0593585968	16.8971633911	0.991335511208	7.02767801285
23.8871135712	-24.6415119171	13.1736106873	16.5602607727	0.343040823936	7.27188968658
24.5266475677	-23.4207248688	13.0424222946	15.7007398605	-0.485265046358	7.99582481384
24.9717674255	-23.3254909515	13.7897062302	14.9196748734	-1.68612706661	8.9953584671
24.5360355377	-24.035943985	13.8566331863	14.9290552139	-2.59997963905	9.83015727997
23.4684810638	-23.6529560089	13.9652881622	15.7337837219	-2.95722937584	10.1155843735
22.3063964844	-20.4347000122	14.1447277069	16.4231548309	-3.60652756691	10.1788883209
19.5563755035	-15.5914459229	9.50951957703	16.6145801544	-4.91398000717	9.87552547455
17.8372993469	-12.588593483	3.68294811249	15.6617689133	-8.00590229034	8.78534698486
14.9433774948	-9.32735157013	-2.39362001419	15.1856527328	-8.79464912415	8.02225112915
12.1879281998	-6.62547159195	-7.0076675415	15.5961790085	-5.0211520195	8.75365829468
10.094461441	-5.34845685959	-6.68689155579	16.1226234436	0.981722712517	9.70966243744
5.99649906158	-4.55969429016	-5.49188613892	16.5952301025	8.09145259857	10.5634717941
1.30217599869	-1.5695142746	-5.09254217148	17.4230422974	16.6232357025	11.1714468002
-0.287154763937	0.694595396519	-4.41272592545	17.0818576813	20.1333084106	10.6784124374
-1.73071956635	1.04465866089	-5.46598815918	16.6853199005	19.7893867493	9.97458553314
-2.58404946327	-0.623574078083	-5.02769374847	16.7783279419	19.0957431793	8.76808071136
-1.69425296783	-2.97161841393	-4.51060819626	17.0866394043	18.9204139709	7.87435865402
-0.747268557549	-3.79103541374	-3.62244415283	16.9518241882	18.2961101532	7.23379802704
-0.186930686235	-4.22914505005	-3.32580637932	16.8432102203	16.9782829285	6.32813978195
-0.332980722189	-4.51478338242	-2.85804533958	17.0813789368	16.3334255219	5.73783636093
0.54047960043	-5.01722383499	-3.01559948921	17.3868465424	16.3243045807	5.26361608505
4.62345457077	-6.17048835754	-1.41800129414	17.6505298615	16.1739902496	4.52761316299
8.77113628387	-7.07922029495	0.851984322071	18.0542564392	15.5679092407	3.55719637871
11.7091569901	-7.54240894318	1.32783567905	18.3274898529	14.8207483292	2.86071658134
13.2483406067	-7.52516555786	1.98390769958	18.2561950684	13.9789590836	2.05955553055
13.7731876373	-7.27597475052	1.5966527462	17.8564147949	12.2923307419	1.20869743824
14.0681686401	-6.70588827133	1.11848652363	17.0172138214	9.75018024445	0.409890770912
14.4234647751	-6.82285118103	0.71484541893	15.9954528809	7.35343694687	-0.601637423038
15.2082624435	-7.90708017349	0.841686546803	15.1252851486	5.52562522888	-1.61400592327
15.2403249741	-8.28327941895	1.45559179783	13.6278953552	3.52106952667	-2.01472020149
15.3237400055	-7.75868463516	0.728467524052	10.5112056732	1.30836641788	-2.24414610863
15.456609726	-6.95994567871	0.52099686861	7.8485918045	-0.958752036095	-2.46779084206
15.1740751266	-6.81191253662	0.57227319479	6.31223726273	-3.01654601097	-2.84142327309
14.781496048	-7.28004169464	0.700277924538	5.90552806854	-4.04537677765	-3.48490309715
14.4835510254	-7.44739198685	0.371831804514	6.46988582611	-4.11324357986	-4.05269527435
14.5427026749	-6.450278759	0.146404027939	6.88892269135	-4.12482595444	-4.54146957397
15.26359272	-5.34229564667	0.470311999321	6.98327112198	-3.91383361816	-4.87883806229
15.6989717484	-5.19275712967	0.697741031647	6.9376373291	-3.20924186707	-5.03540039062
15.0050020218	-5.46136236191	0.79254502058	7.35795593262	-2.03894162178	-5.16761922836
13.5362491608	-5.44795703888	0.807780921459	7.88600587845	-0.769360244274	-5.45134830475
11.5529651642	-4.97376680374	1.2201488018	8.10242557526	0.074365913868	-5.73888111115
9.88667106628	-4.98006820679	0.729373693466	8.05400943756	0.785972058773	-5.78308343887
9.37905979156	-5.25689697266	0.469297111034	8.43611049652	1.60690033436	-5.71533155441
9.04710483551	-5.17655229568	0.759820401669	9.3895368576	2.70388936996	-5.60137605667
8.11755752563	-5.23096895218	0.489486396313	10.4450511932	3.17543911934	-5.50366258621
7.42022418976	-5.47247028351	0.357192635536	10.7592163086	3.06257152557	-5.35056734085
6.92599391937	-5.84343290329	0.684409916401	10.4346008301	3.38444828987	-5.17273855209
6.16270399094	-5.70055341721	0.8516497612	10.3568229675	3.46024227142	-4.76082897186
5.44494628906	-5.32039546967	1.01909101009	10.1047515869	3.69286942482	-4.23863744736
5.58723068237	-5.17607736588	1.00037336349	9.15696811676	3.616355896	-3.6358332634
5.75925064087	-5.04249572754	1.68119418621	8.627617836	3.39759159088	-3.50314331055
5.2636847496	-5.48305749893	1.50496029854	8.32850551605	2.34901070595	-3.28056955338
5.13794136047	-6.12020397186	1.24053227901	8.03514003754	2.05147266388	-3.19198989868
5.42355823517	-6.1908493042	1.27075278759	8.14607810974	1.89414966106	-3.01059293747
5.47315740585	-4.82203292847	1.56648659706	8.19403171539	0.43862208724	-2.51118469238
5.23718547821	-4.44427919388	1.25776469707	7.80303668976	-1.59223151207	-2.18852472305
5.03095149994	-5.13173437119	2.02350020409	7.80251073837	-1.94265878201	-2.18111848831
4.75982713699	-6.44323015213	2.47862195969	8.80708789825	-0.105539895594	-1.97570168972
4.15982151031	-6.93496370316	2.84533238411	9.64070415497	2.61357450485	-1.38299691677
3.15458607674	-6.32544279099	3.42186141014	9.64998054504	3.27065253258	-1.00542402267
2.75153326988	-6.48188638687	3.93524289131	9.55537223816	2.90611743927	-1.00950336456
2.39633488655	-6.36151075363	4.99058008194	9.71491336823	2.8043627739	-0.902784526348
1.17762470245	-6.02415418625	4.96686935425	9.59350776672	3.78628063202	-0.645471513271
0.652723431587	-5.90345335007	4.50309705734	9.54402351379	6.44431304932	-0.162401467562
0.700978815556	-6.37198925018	4.31926679611	9.57789325714	7.51528787613	0.564439535141
1.15718734264	-6.80224704742	4.73852062225	9.47291564941	7.23042631149	0.789192795753
1.36821162701	-7.83333539963	4.82804346085	9.47878837585	6.64637041092	0.736856102943
2.14866137505	-9.4236574173	4.72676277161	9.66949367523	5.40193223953	0.78902643919
3.35292887688	-10.8526449203	5.44848918915	9.98976612091	2.8419342041	0.395023286343
3.37009763718	-11.2649593353	6.00492238998	10.2615404129	-2.29653811455	0.150828570127
3.47046375275	-11.4506282806	6.19975328445	9.32959842682	-7.21197271347	1.53331267834
3.23134660721	-11.7131071091	6.93160915375	8.16651153564	-11.0334568024	3.18249440193
2.4529542923	-12.3088598251	7.6197104454	8.2550907135	-15.1439733505	4.2818274498
1.67499411106	-12.9458789825	8.16481208801	9.70170211792	-13.5892505646	5.14442586899
0.54727691412	-13.4692935944	8.26869106293	11.4089679718	-6.90040588379	6.56703519821
-0.221588760614	-12.9948549271	8.59554481506	12.4508657455	-0.560924828053	7.36358976364
-0.377772480249	-11.8178863525	8.80766296387	12.8838748932	4.5962600708	7.26786422729
-0.466233879328	-10.8256254196	8.50551605225	13.0461339951	11.5169067383	7.27034568787
0.0706201344728	-10.3910169601	8.24970531464	12.5366630554	18.0408687592	7.54335451126
1.17709290981	-10.0594511032	7.72952699661	11.8599824905	18.2698478699	6.81190061569
2.01348829269	-9.12918186188	8.01608085632	12.282907486	17.652469635	5.88303899765
2.50145530701	-9.43551254272	7.68249368668	13.0335044861	17.0417003632	5.37696695328
2.5071310997	-9.73874855042	7.7500705719	13.5681419373	16.9580497742	4.98682880402
2.28508377075	-10.6176013947	7.69587182999	13.5985383987	16.0644721985	4.82088422775
2.13725733757	-11.204703331	7.71881437302	13.5591239929	15.1858091354	4.89124345779
1.88563930988	-10.7621650696	7.81681442261	13.6062517166	14.6161880493	4.65400934219
1.61817884445	-9.95147418976	7.861764431	13.7738037109	13.9011878967	4.31188154221
1.39849984646	-9.71828460693	7.84492635727	13.9003763199	13.5212011337	4.30218744278
1.20043480396	-9.93785095215	7.88820314407	13.954574585	13.1638450623	4.2964515686
1.2120963335	-9.93213558197	7.91555976868	14.1449489594	10.5903787613	3.99704623222
1.35186600685	-9.55329322815	7.95567321777	14.9099378586	5.47428321838	3.62158894539
1.44020557404	-9.96032810211	7.84813213348	15.8394680023	1.5469827652	3.06955599785
1.30523860455	-10.6389665604	8.03075122833	15.9759788513	2.5346186161	3.33730340004
1.01688230038	-10.9561519623	8.05924510956	15.7002534866	7.82778739929	4.39904928207
0.939458608627	-10.7051753998	7.88917684555	15.3247404099	15.6522397995	5.25523471832
0.706071734428	-9.87319850922	8.14415740967	15.4553604126	26.7877616882	7.8228020668
0.970629513264	-10.713180542	6.97643136978	16.656621933	30.9095935822	13.7417182922
1.61383664608	-9.5670633316	7.17741394043	16.6834316254	28.0913562775	16.2185096741
1.79735517502	-8.7517747879	7.6873793602	16.864118576	25.1415920258	16.7111244202
1.69305860996	-9.31472301483	7.20320510864	17.4893379211	20.4659404755	17.5206394196
1.19724619389	-8.82734489441	7.22251462936	17.8518924713	12.8260688782	17.2579269409
0.840968132019	-8.04921245575	7.54566240311	17.8614616394	4.09306955338	16.0340499878
0.536877214909	-7.64862680435	7.66360139847	17.8454647064	-1.74816274643	15.5509595871
0.430762946606	-8.25295257568	7.90269851685	17.8302154541	-1.89646792412	15.6585245132
1.34805846214	-12.060423851	7.9870429039	17.755279541	0.899076163769	16.1415901184
2.20228409767	-17.0088691711	7.11031675339	17.9222888947	2.65345907211	16.2146606445
2.39913964272	-19.6996803284	7.60605239868	18.4144039154	2.76917481422	15.8350276947
2.14419221878	-20.3526916504	8.27260017395	18.7861442566	2.40662169456	15.3343000412
2.19336819649	-21.9466285706	9.8475189209	19.1553993225	1.64046132565	14.5636739731
2.32445454597	-25.9894332886	12.5635452271	19.5361461639	0.780142724514	13.7453269958
2.49844837189	-30.9970111847	15.3076438904	19.6239738464	0.39221188426	13.3102560043
2.4267718792	-33.9342269897	17.557094574	19.4549407959	0.366318881512	13.1777572632
2.61812853813	-35.4802780151	18.7478485107	19.4175434113	0.237454682589	12.5501194
3.10116171837	-37.4955444336	20.0368232727	19.6281929016	-0.319119066	11.5844745636
4.52681446075	-40.0454025269	22.1182842255	19.6836910248	-0.415029257536	11.085226059
6.08538866043	-41.5773544312	23.7276306152	19.7344398499	-0.225390821695	10.8499755859
7.9040184021	-41.7980728149	24.1013736725	19.9643630981	0.0299077406526	10.7030200958
9.69620990753	-42.3670463562	24.714012146	19.8390960693	0.19062782824	10.4087743759
10.7609291077	-43.2968025208	24.9158554077	19.4056148529	0.486383736134	10.3797502518
11.5437002182	-44.250453949	25.5146179199	19.1772174835	0.471206396818	10.4872579575
13.1943836212	-45.3666419983	25.9766769409	19.1671104431	0.479272395372	10.5143499374
13.8394079208	-46.9849128723	26.9315280914	19.4363307953	0.0886848494411	10.4846658707
12.3447847366	-48.9612846375	27.2844791412	19.7744922638	-0.188203930855	10.4688835144
9.30230331421	-49.659236908	25.992307663	19.8248786926	0.932561993599	10.4245882034
4.60003805161	-47.780330658	22.9893703461	19.2522563934	2.93262386322	9.85114383698
-1.58500921726	-44.0614509583	15.6095590591	17.8316822052	3.37943124771	8.62025260925
-4.87400102615	-43.1198234558	9.37214279175	16.7277565002	3.27756094933	7.48979234695
-7.31066656113	-42.8654556274	5.88019895554	16.5190639496	3.29275369644	6.41018247604
-9.70726966858	-41.9946670532	5.59956932068	16.6062965393	3.83825516701	5.57951402664
-8.62526798248	-42.1100196838	4.57540225983	16.42918396	4.77084732056	4.7944355011
-2.78249526024	-44.8437423706	1.45054662228	16.3522548676	5.26206588745	3.85493135452
2.59257388115	-47.2605361938	-1.59074354172	16.5627040863	5.48379135132	2.48980021477
4.58516693115	-46.9933509827	-3.54617738724	16.6951160431	6.83113574982	0.994517445564
5.39131259918	-45.5835037231	-4.28177499771	16.5728397369	7.54489564896	-0.0814440399408
5.3485918045	-44.5551757812	-4.590695858	16.4243736267	7.69349431992	-0.826154053211
6.1844792366	-43.8048667908	-4.80005502701	16.4829483032	7.93736219406	-1.83033967018
6.77657079697	-43.6416397095	-4.8765540123	16.551492691	9.05368423462	-3.17485237122
6.64561271667	-43.6160507202	-4.80041408539	16.3748397827	11.1207561493	-3.3512802124
5.99648618698	-43.0890922546	-4.5276055336	15.991361618	13.9028778076	-2.59146809578
6.22219657898	-42.9605331421	-4.44560098648	15.697221756	17.232208252	-2.21023631096
6.02424955368	-42.6442222595	-3.91847777367	15.3153905869	21.304933548	-2.82305288315
5.66028213501	-42.7214431763	-3.87301707268	13.6940450668	22.577249527	-6.16156244278
5.96338367462	-42.6512184143	-3.98221921921	11.2050504684	21.3370018005	-10.1715393066
6.41358184814	-42.2398338318	-3.81960844994	8.81247138977	18.6871795654	-14.1412210464
5.57632446289	-41.2517242432	-3.47283387184	7.82298374176	16.9535102844	-17.1509151459
7.21902990341	-41.1032066345	-4.83725786209	8.49102687836	16.0442638397	-18.2567577362
9.01982498169	-40.2701911926	-5.65209531784	9.01147174835	14.5050020218	-19.0892391205
9.76636314392	-39.4521789551	-6.16124725342	7.72932958603	11.547296524	-18.7694549561
8.15920543671	-38.5402984619	-5.14748716354	6.13997220993	9.3303976059	-18.0123634338
5.97445678711	-37.7931518555	-3.69272828102	6.17661905289	9.5914440155	-17.371969223
4.60214519501	-38.1423339844	-2.30894994736	7.31296777725	10.6773395538	-17.0183830261
3.90528464317	-38.4016914368	-2.04816865921	7.55415487289	10.9864902496	-16.452375412
3.31971144676	-37.9407310486	-1.92570221424	7.60205125809	10.9268321991	-16.3118057251
1.56022906303	-37.2858047485	-1.81665718555	7.07827949524	11.0097503662	-17.0120029449
0.168500855565	-37.7839355469	-2.21996569633	6.27051210403	11.2566337585	-17.4412250519
0.91797119379	-36.7826461792	-3.00316023827	5.91213560104	11.4116268158	-17.4352092743
1.73195791245	-34.9441947937	-4.54562711716	5.65568256378	11.2081480026	-17.1163921356
0.890023291111	-34.7926445007	-3.4485669136	4.97387313843	11.3804178238	-16.48371315
-0.512953579426	-34.9808082581	-1.82239365578	5.17827320099	11.2666330338	-15.9974365234
-1.19925558567	-35.8524742126	-1.24491941929	5.39483880997	11.0689687729	-15.5457954407
-1.81370317936	-36.3373641968	-0.775772929192	5.41519165039	11.0325622559	-15.3681621552
-2.47459316254	-36.554271698	-0.692864835262	5.17821359634	10.937379837	-15.1859617233
-2.53010988235	-35.7186164856	0.0697168037295	5.45711708069	10.9770765305	-15.2291698456
-2.49897289276	-33.5830917358	-0.359317362309	6.18114757538	11.1144199371	-15.2907838821
-2.17585849762	-32.1600914001	0.38544139266	6.75663232803	11.2794952393	-15.2445392609
-1.92946720123	-31.2173442841	1.90402710438	6.82904624939	11.4736833572	-14.9296922684
-2.06138110161	-31.9039363861	1.75320649147	6.11834955215	11.3824615479	-14.7366628647
-2.79073882103	-32.0661468506	1.64845907688	5.06332159042	11.4783344269	-14.9160671234
-3.81305623055	-31.9141521454	2.38343286514	4.31179189682	11.6934022903	-15.0436191559
-4.22393989563	-32.508014679	2.75456047058	3.53792190552	12.1430606842	-13.6861600876
-4.45698022842	-32.4114532471	2.64885735512	3.96407699585	13.2701644897	-8.4869260788
-4.00157403946	-31.4881076813	3.1847205162	6.59321069717	14.5748224258	-2.84734940529
-4.47100400925	-30.7694301605	3.35445833206	8.96851444244	15.7840633392	0.719449400902
-5.29119110107	-29.7147064209	3.31117653847	10.614033699	16.3854980469	0.825666844845
-4.16811037064	-29.051071167	2.57197618484	12.4943180084	15.7739534378	-1.07216107845
-2.29363155365	-29.2196941376	1.19960200787	13.385225296	15.2573356628	-2.22359418869
-1.39842402935	-29.5551795959	0.676025927067	13.0675783157	15.3961677551	-2.97504401207
-0.392229706049	-30.3627262115	0.462567716837	12.5150518417	15.336725235	-2.94871473312
-0.145205751061	-31.2838630676	0.60612154007	12.3367328644	15.0441532135	-2.86093878746
-0.560092329979	-32.2853355408	0.321593850851	12.0016098022	15.1688938141	-2.75671100616
-0.204270988703	-31.9513206482	-0.0632830113173	12.3236446381	15.8263587952	-2.99701762199
0.823634386063	-30.1965084076	0.023373009637	12.6690711975	16.3200187683	-3.19549107552
1.46729266644	-28.9344406128	-0.0729091539979	12.7477941513	16.5509681702	-3.27783465385
1.6359975338	-28.9082717896	0.0912271738052	12.5012760162	17.0082511902	-3.15423369408
0.918124973774	-29.1442584991	0.230168163776	11.8922109604	17.1355476379	-2.13276386261
0.103888250887	-28.925359726	1.06026232243	12.0034608841	16.9287471771	0.482007026672
-0.815066456795	-28.9735031128	2.09629750252	13.2794389725	16.9299030304	2.66530585289
-1.56229507923	-29.5080223083	2.60660791397	14.1903610229	17.2091560364	3.79979538918
-2.14641332626	-30.026468277	3.29734039307	14.7546625137	17.0499916077	3.7270424366
-1.83761000633	-30.436712265	3.19411873817	15.7284727097	16.9183959961	3.01334762573
-1.45076203346	-29.7433185577	4.94833946228	16.8638267517	16.6337604523	1.47768986225
-0.625106751919	-30.3714103699	4.48900270462	17.1399440765	16.0613136292	0.358676970005
1.10567927361	-31.7424411774	3.5923666954	16.631570816	15.721116066	-0.608211040497
3.71673035622	-31.7388515472	2.79776310921	16.3927173615	15.6368198395	-1.71356940269
5.00077295303	-30.2587928772	2.92593574524	16.4620914459	15.5969934464	-2.13539147377
3.90472602844	-29.948890686	2.39454865456	16.3549232483	15.7322540283	-2.29047203064
3.77324986458	-29.0706558228	2.10285139084	16.4146347046	15.9192390442	-2.46571707726
4.06232595444	-28.3123188019	2.41881275177	16.6485786438	16.1674442291	-2.5059902668
3.22802186012	-27.9298496246	2.56109142303	16.2117271423	16.6063766479	-2.27193975449
2.69400167465	-27.7988815308	2.35488033295	15.6590929031	16.5991744995	-1.89554452896
3.11390447617	-27.4770565033	2.23902750015	15.4032506943	16.5227546692	-1.96938884258
2.96042132378	-27.0423564911	2.11186552048	15.6438770294	16.6018466949	-1.85633647442
2.87163472176	-26.9952831268	1.89583814144	15.6178340912	16.7397155762	-1.65139973164
3.06318378448	-27.0251922607	1.80207443237	15.2782154083	16.8794612885	-1.60762822628
2.89087462425	-26.8940410614	1.80877995491	15.1277418137	16.9133167267	-1.41255283356
2.45005822182	-26.5948352814	1.92663311958	15.0845079422	17.0117397308	-0.971428930759
1.82638943195	-26.5320243835	2.41519618034	15.1158571243	16.7393836975	-0.575044691563
1.48693978786	-26.5378494263	2.96369123459	15.2059526443	16.6191883087	-0.242350623012
1.01680624485	-26.1816329956	2.77316427231	15.5635671616	16.5694007874	-0.157547622919
1.49507510662	-25.847360611	2.83373618126	16.0325450897	16.6172504425	-0.388052731752
1.5345531702	-25.3620815277	2.73083543777	16.2398014069	16.7096118927	-0.496094971895
1.1510181427	-24.4715442657	2.99440050125	16.0646286011	16.9053611755	-0.340869069099
0.612061858177	-23.8111114502	3.44555187225	15.8495864868	16.9285526276	-0.174256190658
-0.113535068929	-24.2374305725	3.41933608055	15.7849054337	16.4336624146	0.0758180171251
-0.130240216851	-24.6617450714	3.87120604515	15.7693834305	16.0026721954	0.171496912837
0.239309519529	-25.011762619	3.77568602562	15.8995094299	15.6454296112	0.216249614954
0.910006344318	-25.1171836853	3.67406988144	16.2638835907	15.3765878677	0.0747891589999
2.68275880814	-24.4721832275	4.01464319229	16.6468544006	15.2426586151	-0.0987185835838
4.40812158585	-23.7197570801	4.01894617081	16.9273853302	15.5107078552	-0.135293439031
4.1687836647	-22.7883300781	4.45535469055	17.1128845215	15.7953481674	-0.065856680274
3.46042156219	-22.4910202026	4.88493919373	17.0596408844	15.8131752014	0.157032683492
2.72742199898	-21.7687473297	5.66006326675	17.1744823456	15.7460536957	0.381844818592
2.37677788734	-21.0989570618	6.95172405243	17.4262275696	15.6686506271	0.524441659451
2.64395022392	-21.440032959	8.60359954834	17.3311195374	15.2642011642	0.537817060947
3.21509122849	-24.9234218597	8.43764686584	17.1575202942	14.7442264557	0.41361105442
2.99084377289	-27.756565094	9.94295120239	17.261138916	14.5282297134	0.297498971224
3.52515292168	-27.366897583	10.4612159729	17.3129062653	14.4383487701	0.090988561511
3.56525707245	-26.6914234161	10.7718229294	17.3422851562	14.5367441177	-0.0197274889797
2.98271536827	-25.6728725433	11.2390422821	17.4626960754	14.5875101089	0.0516339428723
2.64180135727	-25.2348918915	11.6293363571	17.6794071198	14.4096384048	0.190048336983
2.36013841629	-24.8213729858	12.1120290756	17.8276596069	14.3691539764	0.286853909492
3.0959239006	-24.9549427032	12.1704416275	17.6587944031	14.3761873245	0.399220049381
5.55939483643	-25.8762569427	11.5810241699	17.6018848419	14.2606420517	0.311595231295
6.56243896484	-26.5494308472	11.5189781189	17.8640708923	14.3594856262	0.118126526475
6.85256528854	-26.1551532745	11.5671405792	17.960691452	14.7172727585	0.258130192757
8.42119407654	-26.2308540344	12.1151695251	17.8519153595	14.7930278778	0.380533069372
9.93493080139	-26.989730835	12.553563118	17.8655986786	14.4234790802	-0.412713199854
10.4731693268	-27.8531188965	12.6435155869	18.1142845154	13.9414815903	-1.45091724396
9.98466205597	-27.6772632599	12.7366199493	18.3143062592	13.3378038406	-2.17450451851
9.60380268097	-27.1012306213	13.0071849823	18.2681427002	13.4938936234	-2.80969119072
9.21093082428	-27.0884742737	13.2138462067	18.1096420288	13.7045536041	-3.00028610229
8.99996852875	-27.2292842865	13.1911725998	18.0235748291	13.8523321152	-3.03274559975
8.89215946198	-26.6518611908	13.2330436707	18.1190624237	14.3389358521	-3.66054844856
8.93231391907	-26.4572429657	13.411948204	18.5220413208	14.940738678	-4.49299240112
8.55308151245	-26.603975296	13.3827781677	18.2161579132	15.4757328033	-4.59403276443
8.10673809052	-26.4572563171	13.260682106	17.1704883575	15.9993600845	-4.11668348312
8.43920326233	-25.9722633362	13.4185199738	16.3261642456	15.106303215	-5.35585355759
8.65758514404	-26.3011875153	13.2498970032	16.4521789551	14.8370876312	-6.56627559662
8.88358020782	-26.665599823	12.869679451	16.3957309723	15.3488750458	-6.48444652557
8.95565319061	-26.1660671234	13.2431640625	15.3392009735	15.5276613235	-5.95576429367
8.61846542358	-25.9334373474	13.9365024567	14.477312088	15.6066141129	-5.38993167877
8.47231578827	-26.6740970612	14.8288917542	14.1376495361	15.7694368362	-4.70208501816
8.08003139496	-27.1549873352	15.4566364288	14.0099897385	15.7088871002	-4.32057666779
7.34140539169	-26.9821166992	15.9427185059	14.4922838211	15.6494216919	-4.32456588745
6.75202608109	-26.9811210632	15.5758838654	14.8853597641	15.9802894592	-4.30736064911
6.85838365555	-27.2499351501	15.5762071609	14.9247503281	16.5290813446	-4.55247020721
6.90664386749	-27.1662139893	15.6791133881	15.4214715958	17.1738300323	-5.65486240387
6.79309129715	-26.9785499573	15.4242639542	17.3797130585	17.2940979004	-7.99467134476
6.66682863235	-26.9403705597	15.1108236313	18.5691432953	17.32654953	-9.57649326324
6.88755512238	-27.2602233887	14.8416728973	17.766658783	17.3033847809	-10.2865037918
7.5595035553	-26.8608531952	15.0077362061	16.2098941803	17.427438736	-10.9603290558
7.68655204773	-26.5636444092	14.6334533691	15.1787137985	17.0801067352	-11.4907197952
7.38893604279	-26.9511642456	14.0657892227	14.9203662872	16.3327178955	-12.1954488754
7.82171297073	-27.2565746307	13.3998632431	14.7514276505	15.8229398727	-12.9356403351
8.77481937408	-27.1158504486	12.9425239563	14.0798692703	15.5884742737	-13.4206991196
9.5667257309	-26.6176586151	12.4628276825	13.6113548279	15.776761055	-13.6897163391
10.466345787	-26.4968452454	12.4174404144	12.8788661957	16.0080852509	-13.6536397934
10.4565181732	-25.8632392883	12.7926530838	12.2585830688	15.902261734	-13.2678556442
10.1672945023	-25.3540649414	13.2505178452	11.7759628296	15.9605741501	-12.8749418259
9.93192958832	-25.2341594696	13.6535825729	10.7621231079	15.8000936508	-12.6727313995
10.0035810471	-25.2813358307	13.3368186951	8.02435302734	15.1905317307	-11.9467144012
10.4908132553	-25.1463298798	12.906291008	3.42708849907	14.6169538498	-9.64413261414
10.9104509354	-24.6914768219	12.7701931	1.4494330883	15.4025287628	-6.23167133331
10.8621072769	-24.4986209869	12.8065481186	4.51208877563	17.3766441345	0.134811341763
10.6321125031	-24.6683425903	13.1561079025	7.07801055908	17.4324321747	2.51742076874
11.0476045609	-24.356502533	13.880979538	9.12430477142	17.019990921	1.82632124424
10.4647703171	-24.0749740601	13.8904905319	10.1681289673	16.7052707672	0.455337166786
10.4749193192	-23.5802650452	13.7154779434	10.054889679	16.1838207245	0.0601047761738
12.1167840958	-22.8034763336	14.0408172607	9.68148708344	15.072473526	0.015333305113
13.7946481705	-22.2560558319	13.78033638	9.1241569519	13.9045286179	-0.518932163715
14.7365159988	-22.3669147491	13.6920347214	8.45072841644	12.6360521317	0.129354253411
14.6413269043	-22.9652576447	14.0310926437	9.00214290619	12.0437545776	0.729304552078
14.4943170547	-24.2418956757	13.9825782776	9.70185470581	12.2069234848	1.89128553867
13.8142347336	-23.5003547668	15.2178430557	11.5545225143	10.9900569916	2.08488988876
11.7450561523	-22.9555206299	16.0603942871	13.6749486923	8.7685174942	1.83482015133
8.67013263702	-24.9405517578	15.0871686935	14.625166893	8.25762653351	1.41464245319
7.29658222198	-26.0838088989	10.247051239	14.8605594635	8.39903831482	0.205110624433
7.51316308975	-26.0197315216	6.8685464859	15.2827377319	8.51744842529	-1.15563488007
7.18915271759	-23.9587955475	7.1322350502	15.2232570648	9.30135917664	-1.54630970955
7.46545791626	-23.3100700378	6.95161151886	14.562335968	9.1248292923	-2.38263320923
8.30630683899	-23.4292049408	6.82835149765	13.6332387924	8.58083629608	-3.56670880318
7.88515233994	-23.1097221375	6.62449741364	13.2223110199	8.99280071259	-3.32675909996
7.37249755859	-23.1125049591	6.31074285507	13.2551298141	9.04438495636	-2.2028400898
8.03197669983	-22.8677253723	6.70324134827	13.1031274796	9.01590824127	-0.879384636879
8.70012569427	-22.1027603149	7.86456394196	13.4446516037	9.21825790405	-0.13921391964
8.60668945312	-22.8126754761	7.84408044815	14.0134782791	8.76037120819	1.21293711662
8.46027946472	-22.807975769	7.99083900452	14.2434778214	7.98183584213	1.72927188873
8.87270927429	-22.4894542694	8.56805610657	14.865114212	6.98683166504	1.48969113827
8.83702659607	-22.1338062286	8.41534137726	15.2534990311	6.47516441345	1.58014917374
8.8627281189	-21.672876358	8.14546966553	15.2503299713	5.79233551025	1.73241090775
9.08630943298	-21.101234436	8.3059425354	14.9530467987	5.55649375916	2.26801919937
8.97871780396	-20.5587120056	8.74050235748	15.0910692215	5.29193258286	1.93862581253
8.41556453705	-20.6268234253	8.95519447327	15.4346294403	4.89831209183	2.29909348488
7.07309484482	-20.9537906647	9.34974193573	15.8163261414	5.20144701004	3.18956565857
6.30743265152	-20.7796554565	9.36238098145	15.5409030914	5.05929756165	3.31801390648
5.85523939133	-20.7964286804	9.52715873718	15.4369926453	3.52686166763	2.93833613396
5.63940048218	-20.5200595856	9.70583820343	15.505355835	2.49148988724	2.79654145241
5.46827077866	-19.7149353027	10.924407959	15.5634689331	2.00813484192	2.62514162064
7.79862594604	-19.7428398132	17.1173267365	15.7129230499	1.96420311928	1.6734726429
9.73063850403	-22.3800296783	22.0724716187	16.2871437073	3.27273511887	0.150247335434
9.20768642426	-24.0072383881	20.5702533722	16.7612075806	4.36072874069	-0.719948530197
9.73330974579	-22.8688983917	20.5147533417	16.9362239838	4.87379217148	-1.42849302292
10.3985748291	-21.0434341431	20.2648258209	16.8574180603	4.84249734879	-1.91526210308
11.3871097565	-20.8652420044	20.1952857971	16.6922893524	5.03215503693	-2.14384150505
13.0946912766	-21.4528427124	21.1122379303	16.8342933655	4.84401607513	-2.4948861599
13.6036682129	-21.6831321716	24.5093097687	16.8328533173	4.84761810303	-2.53271174431
13.6812057495	-22.1818027496	26.4020004272	16.7896289825	5.04615068436	-2.57700037956
13.0029201508	-22.5013713837	26.1683197021	17.2066631317	4.63199663162	-2.6332025528
12.5552444458	-22.1536960602	24.7849025726	17.604516983	4.21121263504	-3.0276632309
11.9988803864	-21.30742836	24.2068748474	17.4295253754	4.10525131226	-3.4283862114
11.2719278336	-20.016784668	24.168920517	16.9979400635	4.7450056076	-3.43027734756
11.1891317368	-19.9398727417	23.8241291046	16.3627796173	4.91350030899	-3.50729751587
11.3985147476	-19.4914608002	23.7427597046	15.5332431793	5.43355464935	-3.76139879227
10.9504060745	-20.4823513031	22.8902664185	15.1803283691	5.43825483322	-4.01102781296
10.1628398895	-21.0489807129	22.2848930359	14.9615459442	5.09287118912	-4.23039770126
9.120221138	-20.514087677	22.7277774811	14.7723369598	4.88642787933	-4.39069747925
8.39046001434	-20.8334827423	22.6942386627	14.9835615158	4.56679677963	-4.27935695648
7.93325233459	-21.4778079987	21.7639465332	15.4639625549	4.34346103668	-4.59016752243
6.97035360336	-21.0688114166	21.0125713348	15.6661310196	4.27601146698	-4.60508537292
6.00423240662	-20.0303077698	21.0830764771	16.0560131073	4.10230779648	-4.57033967972
6.19719552994	-19.1327152252	21.7090454102	16.6480751038	4.03797721863	-4.40664339066
5.8212890625	-17.7396392822	21.9831237793	16.8953342438	4.26512145996	-3.72153139114
5.66225337982	-17.1565494537	21.7128715515	17.0446681976	4.44012022018	-3.01902484894
4.70836162567	-15.881857872	21.8009395599	16.8703956604	4.14060020447	-2.06066632271
3.19121193886	-15.5426645279	22.095457077	16.176733017	4.10812091827	-0.983120799065
2.74150919914	-16.0195236206	21.4277973175	15.5617256165	4.31655740738	-0.469126701355
1.87642204762	-15.0096054077	21.4292564392	15.4388589859	4.46769571304	-0.143019840121
2.46452450752	-14.277630806	21.3410797119	15.2888412476	4.9174489975	0.628018498421
4.05812072754	-15.4362564087	20.2956676483	14.6972370148	5.95126342773	0.984479367733
6.26551818848	-18.5861053467	16.7591171265	14.6936655045	6.90438699722	1.51363146305
7.23119163513	-19.7440872192	13.0446062088	14.7266588211	7.80690670013	1.85899829865
6.9335231781	-19.5790500641	11.9232082367	15.1841974258	8.14411258698	1.9332729578
6.56461811066	-19.4778823853	11.2304172516	15.8991384506	8.00066757202	1.92058503628
7.77474498749	-20.5651512146	10.7571001053	15.901391983	7.27254056931	1.69957506657
11.3948478699	-21.6678352356	14.9857501984	16.3693466187	6.52646589279	1.53915917873
14.7836875916	-22.3101119995	16.4736232758	16.9393005371	5.74289226532	1.49280917645
16.0834312439	-22.103761673	16.5935573578	16.6935825348	5.26827430725	1.66981124878
15.5204391479	-21.2065925598	16.4263019562	16.3383350372	5.28817653656	2.01733326912
15.0345106125	-20.5899009705	16.0066566467	16.8216743469	4.73952054977	2.20293831825
14.9934768677	-19.0609169006	16.3255558014	16.6865196228	4.86901855469	2.2162566185
13.6263818741	-18.9117965698	16.6046009064	16.2009048462	5.09036016464	2.36175537109
12.0114412308	-19.9238204956	16.2187976837	15.8739614487	5.08779430389	2.42480111122
11.6276597977	-21.0178604126	15.5691823959	16.3774719238	4.82021665573	2.11195373535
11.7737226486	-21.0355186462	14.8627986908	16.8596286774	5.1520781517	2.10602259636
11.3613595963	-19.6408233643	14.1328496933	16.9145965576	4.81336736679	2.41299510002
12.2840003967	-18.9770622253	13.481669426	16.9857959747	4.79858064651	2.34768080711
13.3755807877	-19.3315086365	13.5839347839	17.0844993591	5.15866422653	2.41145896912
12.4749937057	-19.5250854492	13.5836744308	17.2217693329	5.45235681534	2.6040661335
12.2836523056	-20.109703064	13.4412727356	16.9199371338	5.4627995491	2.87996816635
12.2203063965	-20.2838783264	13.8946781158	16.5746707916	5.64621067047	3.18350672722
12.5148143768	-20.7382926941	14.1557846069	16.6230239868	6.0555524826	3.33700203896
12.3850355148	-21.1537666321	14.2393894196	16.9851551056	6.24813652039	3.49249076843
13.0215339661	-21.3523139954	13.5364217758	17.5254325867	6.55137872696	3.23203992844
13.7358732224	-21.1576709747	12.385433197	17.5618648529	6.68880987167	3.22988271713
17.0242404938	-23.4993972778	8.6472158432	17.1417312622	6.3535861969	3.54040718079
21.4124298096	-26.045042038	6.46301174164	17.5133152008	6.19892930984	3.3207244873
25.2543449402	-27.8198451996	2.34243655205	17.944070816	6.51255846024	3.27156662941
27.0609092712	-28.9608345032	0.243826910853	17.6969966888	6.23810243607	3.53462767601
28.9787025452	-28.7614345551	-1.44853460789	16.50415802	6.22349309921	3.46087026596
33.2767906189	-27.623922348	-5.62245702744	15.5142688751	7.09146404266	3.57976675034
39.3327407837	-26.8239860535	-8.81822776794	14.8965473175	7.52053928375	4.25531291962
46.8160896301	-28.4736423492	-11.4616880417	14.7122850418	7.5069065094	4.7139339447
50.8824386597	-30.5833950043	-12.479133606	14.9806222916	7.66990184784	4.73538446426
52.1983528137	-31.4627857208	-14.8922100067	15.2881603241	7.72610139847	4.57683563232
55.5678138733	-31.3741970062	-23.1717281342	15.353395462	7.54644155502	4.21848726273
64.2495880127	-30.1310501099	-33.3522758484	14.5237350464	7.137591362	3.51836967468
66.9904403687	-31.6585540771	-32.4026069641	11.147315979	7.31041669846	2.89998888969
62.3332977295	-35.0257949829	-32.0236282349	5.55122804642	8.89450740814	3.13608145714
54.9171676636	-37.14503479	-26.3533172607	0.868226230145	10.3522415161	2.70626735687
54.5927505493	-35.3153457642	-26.2127895355	-1.42121207714	10.8018007278	2.22179436684
56.0985641479	-34.8098220825	-26.2969284058	-1.26415741444	10.630988121	2.19274544716
55.0307197571	-34.9077796936	-25.7645988464	-1.30602550507	10.5633554459	2.19416213036
54.0741539001	-33.8120803833	-25.5103626251	-1.93149149418	10.6654100418	2.07161545753
53.860748291	-30.9572982788	-24.6039981842	-1.8728260994	10.8903713226	2.09451055527
52.1909866333	-29.7838115692	-22.5415096283	-1.77132153511	10.8224029541	2.18895959854
50.824092865	-30.789773941	-23.1833972931	-1.61699390411	10.799033165	2.27832746506
42.7570343018	-30.8391780853	-23.3045215607	-0.723439097404	11.3877916336	2.69365334511
35.3828468323	-31.212392807	-21.8306159973	0.271936714649	11.7409362793	3.20273113251
34.7036743164	-32.7204742432	-17.3170394897	1.23630857468	11.6194410324	3.41596484184
36.1791954041	-33.595489502	-19.6079711914	2.29098534584	10.7094326019	3.55938887596
37.4627189636	-32.2799224854	-18.9221382141	3.83946275711	9.36250686646	3.3198094368
28.2777862549	-37.9603233337	-11.8422031403	5.78070831299	7.71239376068	2.98444080353
34.2955627441	-58.9945487976	-19.6091804504	7.5971660614	6.00757598877	2.64711022377
57.9071578979	-51.348236084	-53.3296165466	9.10369205475	5.35743045807	2.0735783577
46.4271888733	-33.1476135254	-27.7681655884	9.70334911346	4.61049413681	2.35041666031
26.8244075775	-45.1881217957	-18.8259906769	8.90638637543	4.11182308197	3.04861521721
-9.06490421295	-53.8517951965	-7.85353565216	7.85972976685	5.37404680252	2.57793664932
-25.5903129578	-32.6210289001	-6.85727882385	7.2130188942	5.99259138107	2.06055808067
-49.8478813171	-15.9717531204	9.14649200439	6.65369367599	5.69663143158	2.04807186127
-57.8723983765	-19.6142177582	13.5751676559	5.72265291214	5.40483808517	2.18410277367
-68.9361953735	-19.7586174011	18.7322463989	4.41945695877	5.4244260788	1.93911600113
-71.5360565186	-15.6947336197	21.5916042328	3.07106924057	5.23473024368	1.75547027588
-72.6652450562	-13.1178588867	16.6671028137	2.25793123245	5.05694389343	1.90425026417
-73.5201416016	-11.2925806046	9.92764377594	0.972065150738	4.53889894485	2.80946850777
-73.4905395508	-11.9007787704	5.87727499008	-3.54580259323	5.44013309479	8.50382423401
-71.9735031128	-13.2080173492	2.06807661057	-10.709564209	8.5240650177	15.4863348007
-67.9552078247	-13.3665485382	-2.10465502739	-13.9079685211	12.4570178986	19.5109367371
-64.268371582	-12.3056993484	-2.57504534721	-12.5018415451	14.1380290985	21.9103374481
-62.2885704041	-13.1237812042	-2.35548853874	-10.5274181366	14.2329292297	21.7207527161
-60.9079589844	-13.9733486176	-2.86103487015	-8.48776912689	14.0020132065	20.2756481171
-59.530632019	-13.9161243439	-3.61397886276	-6.31569480896	13.6203985214	19.0917873383
-57.8880157471	-14.3619747162	-6.51987361908	-4.83666849136	13.1533050537	17.9341011047
-54.5594749451	-18.5761528015	-11.4315977097	-3.60871887207	13.1448717117	16.628452301
-49.3582878113	-23.9463787079	-12.3161811829	-1.76864504814	12.9824666977	15.2587099075
-45.5673980713	-28.3967761993	-13.3460283279	1.08470439911	11.9494447708	13.7666406631
-46.267364502	-26.7609615326	-12.3182630539	4.05719137192	11.0767707825	12.7926206589
-48.6397628784	-25.1663742065	-10.4006872177	6.163002491	10.7190532684	12.1390104294
-49.9008865356	-24.5164337158	-8.97567462921	7.11385679245	10.6242418289	11.5587425232
-49.2923240662	-24.0989398956	-9.62846851349	7.3460483551	10.7111053467	11.161195755
-48.5002288818	-24.3470077515	-10.4221925735	7.31113243103	10.5419254303	11.0570383072
-44.1695671082	-24.5571537018	-15.0953617096	7.11523914337	10.2824106216	10.7758264542
-36.3962783813	-24.4356975555	-24.0154132843	7.01662254333	9.94381141663	10.3857507706
-33.6684570312	-25.0773639679	-26.0609436035	7.38185739517	9.62527275085	10.0280179977
-33.2088623047	-25.1253890991	-25.7983493805	7.87735843658	9.21475505829	9.53008937836
-32.1633033752	-23.8116874695	-25.9590454102	8.63700008392	8.60040473938	8.81136417389
-30.7713375092	-21.5929927826	-26.9615707397	9.90252780914	7.45917892456	7.60668325424
-31.1237373352	-20.763710022	-26.6885643005	11.3003120422	6.43166351318	6.51871061325
-32.1721343994	-20.9635601044	-25.7760868073	11.6119508743	6.03760528564	6.80649089813
-32.9781684875	-20.8246650696	-25.128326416	10.8674898148	6.28382015228	7.4865436554
-34.4664611816	-20.906703949	-23.5417938232	10.0568876266	5.6211438179	8.56309890747
-43.8238639832	-21.6817321777	-8.49126720428	8.11070632935	4.53177022934	12.8027172089
-56.1676330566	-19.1796035767	4.84201955795	4.73260402679	5.50355291367	16.3188591003
-62.4111061096	-15.3566579819	11.6823701859	3.33779764175	7.05432462692	16.3997573853
-62.2915687561	-13.9268436432	14.3044528961	3.97455096245	7.66098403931	15.9527235031
-60.6030044556	-13.1470413208	16.2429065704	4.86173439026	8.33289241791	15.5183591843
-58.0000457764	-13.3645048141	12.5037508011	5.48171663284	8.51495742798	14.7369318008
-53.0038414001	-12.8873882294	-0.134985461831	6.33563899994	8.59827136993	14.0201911926
-51.9335899353	-13.471868515	-0.15589183569	7.11581802368	8.55928993225	13.5782232285
-52.1602516174	-13.3710956573	0.510685503483	7.58571863174	8.85873699188	13.6249599457
-51.2467308044	-13.5640830994	0.5124771595	7.80102300644	9.00897121429	14.0017375946
-51.4505004883	-13.5794916153	0.121180459857	8.49290657043	8.96286773682	16.1132164001
-52.3486366272	-13.26404953	0.448704749346	11.3789987564	8.21368312836	20.7109909058
-53.0608901978	-12.2656459808	-0.0216881874949	16.0773410797	4.74931812286	24.1004619598
-53.6458930969	-10.5384168625	-0.671016335487	20.4809150696	1.74347543716	25.9333724976
-53.6187286377	-8.6428937912	-2.54264593124	23.9923839569	-0.425713151693	26.5733547211
-52.6960601807	-7.19605493546	-3.73743510246	26.1612091064	-1.15493905544	26.83735466
-51.3531036377	-6.0745344162	-4.83821487427	26.1280593872	-0.520713686943	27.4348392487
-50.153213501	-5.26501989365	-5.39197254181	22.8653469086	2.69027638435	30.3400478363
-48.603477478	-4.8434715271	-5.57762527466	18.216085434	9.90159702301	36.2030601501
-48.0809707642	-4.34705924988	-5.04215955734	16.0038642883	17.497800827	42.8901977539
-48.8753738403	-3.21150827408	-4.46214294434	16.480047226	21.4395694733	48.2625007629
-50.2577781677	-1.73530733585	-3.76106953621	18.6659736633	20.1148948669	51.5955543518
-51.236492157	-0.542074143887	-3.50867438316	21.2214794159	16.2269153595	53.5247116089
-51.0223808289	0.359272330999	-3.43176317215	23.1169872284	14.1283283234	54.5653190613
-50.2782440186	0.952325582504	-3.39928174019	24.2054786682	14.0440979004	55.1699066162
-49.2653579712	1.07731068134	-3.11383724213	25.5016307831	13.1632938385	55.1668891907
-48.6991920471	1.58657228947	-3.03601241112	27.8228912354	11.0042877197	54.2271537781
-48.1496162415	1.80236589909	-3.34987068176	29.4622478485	9.26615524292	52.1943054199
-47.3060722351	1.47891402245	-4.12329339981	29.6621131897	8.03831291199	49.7079048157
-46.8343696594	0.912145972252	-4.67003536224	29.4879455566	6.33783054352	46.1289634705
-46.6863555908	0.323064535856	-5.48076295853	28.8706436157	4.36112833023	40.5761260986
-45.6803779602	-0.750619471073	-6.97033214569	28.1625213623	3.50804400444	34.9798927307
-42.2238845825	-5.27993774414	-7.29741382599	27.2313461304	4.42586612701	32.6960945129
-39.7400131226	-9.88457202911	-8.06794643402	25.4530220032	5.32477855682	32.4246482849
-36.3220329285	-13.9216346741	-10.6606702805	24.268737793	5.37405586243	31.318862915
-32.7403526306	-16.390039444	-14.7896175385	23.6159133911	4.64361715317	30.0842380524
-32.1114425659	-15.9523382187	-15.2910251617	23.3546180725	4.13301563263	29.4406013489
-30.5761375427	-16.6976013184	-16.1132678986	23.1821231842	3.8092622757	28.7587871552
-27.1316566467	-17.2719497681	-19.1834888458	23.3853588104	3.12104511261	27.9777050018
-24.9547843933	-18.19688797	-20.6676578522	23.8629169464	2.17053318024	26.7897529602
-22.5792598724	-19.8461780548	-21.8934841156	24.4246330261	1.59480750561	25.5895824432
-19.9894123077	-20.6638336182	-22.8776683807	24.9411048889	1.01205933094	24.634016037
-18.4653816223	-20.5997695923	-23.4278011322	25.7996425629	0.12157150358	23.3847808838
-18.1081085205	-20.4618206024	-23.9935855865	27.401714325	-0.888735532761	21.2934303284
-18.1681575775	-21.3655223846	-23.8522014618	29.6130008698	-1.95144271851	18.5363101959
-18.1942195892	-21.8140983582	-23.5047855377	32.2457237244	-2.70662355423	15.7598247528
-18.3101806641	-21.9558773041	-23.0138607025	33.5277862549	-2.80054712296	14.0160865784
-18.6498241425	-21.5260982513	-21.5978126526	32.5344352722	-2.73603153229	13.4938240051
-18.0378952026	-20.9303970337	-21.3036880493	30.8803443909	-2.81083273888	13.5163249969
-18.5058193207	-20.767742157	-20.3706207275	30.6175708771	-2.6702709198	13.1063985825
-19.2907142639	-20.8885936737	-19.5243701935	31.0763969421	-2.691218853	13.2685527802
-19.2310161591	-20.9698066711	-18.793422699	31.2374382019	-3.07474160194	14.1292324066
-19.5524902344	-20.4928874969	-18.0882205963	32.2387619019	-3.22437930107	14.3760414124
-20.5679759979	-19.8804302216	-17.5743694305	33.8209266663	-2.99611139297	14.1026124954
-21.2725296021	-19.7965698242	-16.972492218	35.5237159729	-2.77391147614	13.3359060287
-20.9853439331	-19.6943893433	-17.0734329224	35.0029258728	-2.73107028008	13.1508684158
-20.3194484711	-19.804523468	-17.3912372589	33.5433807373	-2.49655985832	13.5290613174
-20.1616077423	-20.1684074402	-17.3926086426	32.9300270081	-1.81613087654	13.6977777481
-19.8700218201	-20.3785152435	-17.8334026337	32.9692268372	-1.37359082699	13.8980855942
-18.4012317657	-20.6746692657	-19.0788230896	32.7285614014	-0.887865304947	14.1718387604
-12.2852268219	-20.9662532806	-23.5262813568	32.3770256042	-0.416883051395	14.4558887482
-7.18477582932	-20.679851532	-27.2628593445	32.2860717773	-0.0212291441858	14.4997148514
-6.13286161423	-20.5463085175	-27.7852191925	32.2471885681	0.201369002461	14.4884729385
-6.37986183167	-20.4638137817	-27.0747089386	31.9984779358	0.3568341434	14.6725711823
-6.59035682678	-20.5539989471	-26.215215683	31.6874237061	0.356055021286	14.6105070114
-7.29068899155	-20.0832958221	-25.469171524	30.9547309875	0.167352229357	14.7745246887
-8.40995883942	-19.7557582855	-24.7495155334	30.0881538391	0.181475698948	15.0218658447
-9.52960109711	-19.8871135712	-24.1200847626	29.4175930023	0.223321869969	15.2127370834
-10.6965942383	-19.9366664886	-23.6565685272	28.8399906158	0.156365483999	15.2756948471
-11.2331781387	-20.0921649933	-23.5706615448	28.2431411743	0.0667452514172	15.2920532227
-11.5810594559	-20.3364334106	-23.2018795013	27.9339771271	0.0251873638481	15.1817827225
-11.8315601349	-20.5609970093	-23.0743408203	27.7482452393	-0.0466686859727	15.1132831573
-11.4522008896	-20.7122268677	-23.1017303467	27.3626155853	-0.0886772423983	15.1738243103
-11.0482435226	-20.9214115143	-23.194890976	27.2974128723	-0.0777318179607	15.2245473862
-9.68348312378	-21.7717018127	-23.7973423004	27.2038612366	0.402387917042	15.5709571838
-8.91026592255	-22.4856204987	-24.1943740845	27.3536167145	0.602359712124	15.561665535
-8.41916561127	-22.2903614044	-24.3383045197	27.556596756	0.537541031837	15.5592374802
-7.88125753403	-22.3913993835	-24.4175720215	27.4806728363	0.581918358803	15.6765108109
-7.52239322662	-22.4882717133	-24.3375396729	27.2034492493	0.537225425243	15.7317075729
-7.02183389664	-22.6963310242	-24.5920391083	27.0612182617	0.251984268427	15.6477642059
-6.44716501236	-23.1726894379	-24.9766731262	26.9538440704	0.0274463482201	15.6672124863
-6.03568458557	-23.418088913	-25.2541980743	26.6734580994	0.0596373938024	15.8018760681
-6.2759604454	-23.3369827271	-25.2108001709	26.5062942505	0.0996753200889	15.7719039917
-6.42437887192	-23.346572876	-25.1069564819	26.4462203979	0.088203959167	15.7799663544
-6.51917028427	-23.4121685028	-25.066570282	26.2953624725	0.0897756814957	15.7713766098
-6.72528648376	-23.4396781921	-24.8565006256	26.1239032745	-0.0754277184606	15.7039651871
-7.00394868851	-23.4749011993	-24.7063579559	25.8404655457	-0.267986506224	15.5996637344
-7.66543579102	-23.495967865	-24.450881958	25.6540126801	-0.490627557039	15.5247964859
-8.01544284821	-23.528383255	-24.329870224	25.4850978851	-1.11454236507	15.2335042953
-8.3998632431	-23.6727085114	-24.1640357971	25.3232860565	-1.95575511456	14.8377666473
-8.46831417084	-23.9249229431	-23.9154148102	24.3034973145	-3.66013932228	14.784658432
-7.95133686066	-24.2133789062	-24.1572399139	20.3742656708	-5.69380331039	15.9786891937
-7.21822357178	-24.2228679657	-24.5404663086	12.9247055054	-4.82402181625	19.1767940521
-7.16975688934	-24.3440341949	-24.2467651367	10.7422609329	-4.51681804657	20.5643196106
-8.06109714508	-23.9436283112	-23.7841796875	11.481344223	-6.07182407379	20.9993648529
-8.45076751709	-23.4636325836	-23.4952411652	11.9969558716	-7.76505565643	21.0906200409
-8.31280326843	-23.3148231506	-23.3907852173	12.7408533096	-9.42504119873	20.5080947876
-7.85610771179	-23.454706192	-23.5051078796	14.2098112106	-10.9999055862	19.4489040375
-7.51385211945	-23.4919509888	-23.7466983795	14.9979734421	-11.8595428467	18.8100509644
-6.68482398987	-23.3831329346	-24.0397224426	13.9525470734	-12.1223917007	19.0526771545
-5.75098991394	-23.1896152496	-24.198299408	13.0060272217	-12.4851121902	19.2230014801
-5.22443437576	-23.0981063843	-23.4494934082	12.5344734192	-13.0903272629	19.2389030457
-4.39096927643	-23.114982605	-22.6659069061	12.3383026123	-12.8391399384	19.589258194
-3.05084705353	-24.452671051	-22.0716648102	12.9624967575	-11.4610137939	19.6717357635
