0.0	-0.0	140.159210205	-142.30897522	79.7621765137	157.201675415
0.0	-0.0	139.76272583	-142.176315308	79.1620483398	157.617950439
0.0	-0.0	139.386428833	-143.022735596	79.1303634644	157.673217773
0.0	-0.0	135.883651733	-143.253265381	79.1601257324	157.866851807
0.0	-0.0	110.678314209	-142.493377686	81.0138473511	158.212982178
0.0	-0.0	86.3795547485	-141.469726562	83.5565490723	158.267837524
0.0	-0.0	81.4451446533	-140.023330688	86.1627883911	158.194671631
0.0	-0.0	81.0072097778	-137.947937012	89.8894271851	158.682983398
0.0	-0.0	79.5381240845	44.950012207	83.8094558716	-20.1402702332
0.0	-0.0	78.3230667114	46.8362731934	77.6007461548	-18.7582321167
0.0	-0.0	75.785446167	48.1101875305	74.3710861206	-17.8957386017
0.0	-0.0	75.765007019	47.879322052	75.0289993286	-16.6946258545
0.0	-0.0	77.0307540894	48.0550613403	76.207359314	-16.4325332642
0.0	-0.0	76.3618011475	48.8049468994	77.8483581543	-16.064157486
0.0	-0.0	76.1696472168	48.8034057617	79.8527450562	-16.1173324585
0.0	-0.0	76.0716247559	49.9083786011	82.1034469604	-16.5399799347
0.0	-0.0	75.794708252	50.9842567444	84.0981826782	-16.6312160492
0.0	-0.0	75.7456588745	51.9914894104	86.8046340942	-17.3353347778
0.0	-0.0	74.7502288818	53.2193908691	89.3501205444	-17.4936466217
0.0	-0.0	72.9822006226	-125.95716095	88.4758682251	162.348617554
0.0	-0.0	72.0992202759	-124.361183167	86.9529800415	162.598724365
0.0	-0.0	71.8392562866	-122.653823853	86.0162734985	162.779098511
0.0	-0.0	71.6156768799	-120.996543884	83.9608154297	162.669448853
0.0	-0.0	71.8860778809	-118.458702087	79.5162277222	162.381988525
0.0	-0.0	71.1586227417	-115.938079834	73.6966323853	162.565841675
0.0	-0.0	70.9698486328	-115.924339294	71.2069015503	162.621109009
0.0	-0.0	70.7508163452	-117.73915863	70.0582580566	162.215301514
0.0	-0.0	70.0816268921	-120.93687439	69.812828064	161.762954712
0.0	-0.0	70.2581329346	-125.467056274	71.2102432251	161.524459839
0.0	-0.0	70.8316421509	-129.573944092	72.596572876	161.380722046
0.0	-0.0	71.5621566772	-131.857467651	74.2421722412	161.934143066
0.0	-0.0	71.2458496094	-134.198364258	76.3667602539	162.322525024
0.0	-0.0	71.1645507812	-136.219238281	77.8666152954	162.11100769
0.0	-0.0	71.3822937012	-137.27192688	79.3841781616	162.486862183
0.0	-0.0	71.474281311	-137.418930054	81.2703857422	162.669555664
0.0	-0.0	71.3270950317	-137.474090576	80.7382049561	162.831542969
0.0	-0.0	71.4184570312	-137.361129761	79.7335510254	162.925308228
0.0	-0.0	71.8406524658	-140.053848267	80.2556915283	163.373153687
0.0	-0.0	82.0659103394	-142.570709229	80.0097885132	163.023742676
0.0	-0.0	107.754646301	-142.338516235	78.857383728	163.057815552
0.0	-0.0	112.668937683	-141.863525391	78.5204238892	162.253036499
0.0	-0.0	115.063049316	-142.202133179	79.2748184204	161.770019531
0.0	-0.0	132.556625366	-143.366699219	80.4409484863	161.958358765
0.0	-0.0	158.400314331	-144.72946167	80.885269165	162.756149292
0.0	-0.0	170.338821411	-144.918624878	79.1258773804	163.715759277
0.0	-0.0	155.394699097	-144.043106079	77.2374267578	164.153991699
0.0	-0.0	136.894577026	-144.218399048	76.1147766113	165.105224609
0.0	-0.0	156.581817627	-145.095718384	75.9666137695	165.963973999
0.0	-0.0	-160.576980591	-146.930435181	76.6409912109	168.268203735
0.0	-0.0	-158.563461304	-148.976547241	76.835319519	171.557128906
0.0	-0.0	-166.882415771	-150.397872925	75.6934661865	173.500167847
0.0	-0.0	-163.933731079	-150.229873657	74.3717498779	173.648300171
0.0	-0.0	-157.446289062	-147.834213257	73.8788146973	173.098022461
0.0	-0.0	-166.220031738	-146.773803711	74.5759048462	173.300704956
0.0	-0.0	179.592132568	-145.705856323	75.1352615356	172.461700439
0.0	-0.0	53.8455276489	-144.057617188	75.5457382202	171.590621948
0.0	0.0	-9.7296667099	-142.779800415	76.5630111694	171.645278931
0.0	-0.0	170.545791626	-143.40637207	76.7518463135	172.703918457
0.0	-0.0	147.059310913	-144.77746582	76.2719802856	173.10118103
0.0	-0.0	160.276779175	-144.823043823	76.8446578979	173.218429565
0.0	-0.0	168.613296509	-144.75100708	79.6163635254	174.51234436
0.0	-0.0	166.900634766	-146.91708374	81.4953155518	177.4894104
0.0	-0.0	164.326461792	-149.381988525	80.0440139771	179.974761963
0.0	-0.0	164.504196167	-147.093276978	80.6040039062	179.770507812
0.0	-0.0	170.241760254	-144.276229858	83.0453567505	-179.926651001
0.0	-0.0	166.162246704	-144.387893677	83.9789886475	-179.254928589
0.0	-0.0	114.929855347	-144.640228271	77.9848022461	-178.729568481
0.0	-0.0	82.0254898071	-145.001419067	74.3010177612	-177.500076294
0.0	-0.0	61.0655593872	-145.914001465	70.8514480591	-175.817214966
0.0	-0.0	77.4427261353	-148.143005371	68.6370315552	-173.764541626
0.0	-0.0	73.2961883545	-149.88230896	67.4222869873	-173.024078369
0.0	-0.0	64.2297439575	-147.989700317	67.1580886841	-172.733291626
0.0	-0.0	39.6577339172	-146.255447388	68.634437561	-172.90447998
0.0	-0.0	25.3440589905	-146.718063354	69.7938613892	-173.540374756
0.0	-0.0	68.1046676636	-147.139953613	69.1360397339	-174.252624512
0.0	-0.0	77.4275588989	-147.670150757	68.8464431763	-175.10748291
0.0	-0.0	64.5539550781	-147.334991455	69.9121932983	-176.288650513
0.0	-0.0	59.6549263	-146.921798706	72.1642532349	-177.392364502
0.0	-0.0	64.4786453247	-148.17149353	77.9227294922	-177.274200439
0.0	-0.0	61.830997467	-150.899139404	84.436340332	-177.352661133
