0.215400218964	1.21610617638	0.00142574310303	0.0721604824066	1.60775482655	-0.330955982208
0.214323997498	1.21718215942	-0.00181174278259	0.0696558952332	1.60859191418	-0.335596323013
0.205765247345	1.21070027351	-0.00278449058533	0.066742181778	1.6092966795	-0.338923215866
0.166566133499	1.20795238018	-0.0170114040375	0.0622344017029	1.61152648926	-0.339231491089
0.107832193375	1.21636474133	-0.0526065826416	0.0563349723816	1.61224079132	-0.335788726807
0.059413433075	1.2344366312	-0.101313591003	0.0497725009918	1.61116302013	-0.328810572624
0.0298452377319	1.25026535988	-0.138139486313	0.0408682823181	1.61206352711	-0.319068074226
0.020391702652	1.26173567772	-0.149910092354	0.0299484729767	1.61407804489	-0.308648586273
0.0199892520905	1.27015018463	-0.147721290588	0.0183842182159	1.61504554749	-0.297603607178
0.023695230484	1.27572381496	-0.141942620277	0.00736284255981	1.61408102512	-0.28805744648
0.0273351669312	1.28198885918	-0.139976739883	-0.00162553787231	1.61319613457	-0.280222654343
0.0285532474518	1.28524398804	-0.132992267609	-0.00682401657104	1.61391854286	-0.274676084518
0.0301122665405	1.28864264488	-0.124704837799	-0.00865316390991	1.61502051353	-0.270132660866
0.0341901779175	1.29715275764	-0.123881936073	-0.0103361606598	1.6159760952	-0.266407728195
