0.221934318542	1.25257754326	-0.250695943832	-0.113746404648	1.54716229439	-0.285028934479
0.220837593079	1.25348925591	-0.248913407326	-0.115370988846	1.54735696316	-0.286213994026
0.219744682312	1.25367736816	-0.246101617813	-0.117253541946	1.54823696613	-0.28715467453
0.214026212692	1.25038015842	-0.24129140377	-0.120178699493	1.54977679253	-0.288719177246
0.20258641243	1.23902177811	-0.232110023499	-0.124074220657	1.55018496513	-0.291924715042
0.177070379257	1.20968961716	-0.216750741005	-0.128712892532	1.54261100292	-0.296546578407
0.120698690414	1.17113018036	-0.205507040024	-0.13506436348	1.53006184101	-0.299252510071
0.049512386322	1.13591563702	-0.210368871689	-0.141103029251	1.52340471745	-0.300600767136
-0.00317001342773	1.10740876198	-0.216767549515	-0.143963098526	1.52183830738	-0.300581693649
-0.0359749794006	1.07277870178	-0.216266393661	-0.14369058609	1.52167105675	-0.302026033401
-0.048214673996	1.03641653061	-0.214247107506	-0.143407344818	1.52303826809	-0.305105805397
-0.0504016876221	1.02527785301	-0.214996695518	-0.144135475159	1.52334010601	-0.308362960815
-0.0465331077576	1.02498412132	-0.213541030884	-0.143935918808	1.52307236195	-0.311195611954
-0.0399231910706	1.01898097992	-0.210958719254	-0.142968893051	1.52059662342	-0.314473152161
-0.0295548439026	1.00739336014	-0.212923049927	-0.144840478897	1.51636171341	-0.316421508789
-0.0131599903107	0.992385864258	-0.211410284042	-0.148573875427	1.51495790482	-0.315638422966
-0.0133199691772	0.985330343246	-0.197398066521	-0.151072502136	1.51522278786	-0.314840555191
-0.0251650810242	0.986992359161	-0.168685674667	-0.151549816132	1.51444160938	-0.315069198608
-0.0347812175751	0.997227430344	-0.140931010246	-0.151448726654	1.51475095749	-0.315630435944
-0.0401020050049	1.00430393219	-0.124898433685	-0.153578281403	1.51395106316	-0.316081047058
-0.0403959751129	1.00697445869	-0.107434272766	-0.155760765076	1.51080060005	-0.316398859024
-0.0437350273132	1.01210546494	-0.085213303566	-0.156746149063	1.5072247982	-0.316301822662
-0.0511045455933	1.02429461479	-0.0712780952454	-0.155469417572	1.50186085701	-0.315740346909
-0.0577173233032	1.03965163231	-0.069965839386	-0.156646251678	1.4962580204	-0.314302206039
-0.0632884502411	1.05121970177	-0.0738083124161	-0.161350250244	1.49143087864	-0.313082575798
-0.0699110031128	1.03763318062	-0.0819981098175	-0.165503263474	1.48920214176	-0.313448905945
-0.0726659297943	1.00359249115	-0.101576566696	-0.170474052429	1.48742032051	-0.314420700073
-0.0656642913818	0.966504096985	-0.12213742733	-0.176608085632	1.48602163792	-0.314779162407
-0.057784318924	0.938395023346	-0.134746074677	-0.180424451828	1.48724126816	-0.314673900604
-0.0646295547485	0.933768749237	-0.14250254631	-0.182545900345	1.48885214329	-0.31346976757
-0.0705771446228	0.922772169113	-0.149479389191	-0.18274474144	1.49184370041	-0.312852978706
-0.063836812973	0.903762102127	-0.153214931488	-0.185849905014	1.49240577221	-0.313104510307
-0.0541372299194	0.89443731308	-0.159284591675	-0.192704439163	1.49262976646	-0.312970161438
-0.0429124832153	0.894344568253	-0.162511825562	-0.195001363754	1.49440956116	-0.311060428619
-0.0307450294495	0.897407531738	-0.160573482513	-0.189640045166	1.49437558651	-0.3073335886
-0.0191788673401	0.906963586807	-0.155848264694	-0.184109687805	1.49299252033	-0.303088784218
-0.0108406543732	0.928414821625	-0.149736642838	-0.182695150375	1.4924749136	-0.300318598747
-0.01651263237	0.957210063934	-0.147348165512	-0.183110237122	1.49343216419	-0.299712538719
-0.019850730896	0.969145774841	-0.142440915108	-0.18323636055	1.49539792538	-0.302261829376
-0.0173788070679	0.952368974686	-0.139335155487	-0.18278503418	1.49834656715	-0.307631850243
-0.0121591091156	0.929443836212	-0.137839913368	-0.182429790497	1.50072586536	-0.31375181675
-0.00665974617004	0.913031578064	-0.137167215347	-0.182317495346	1.50163400173	-0.318968057632
0.000723838806152	0.907904863358	-0.130760908127	-0.182004928589	1.50123691559	-0.322973370552
0.00416779518127	0.911999225616	-0.122735500336	-0.182734966278	1.5001591444	-0.325372695923
0.0033438205719	0.924404144287	-0.11750793457	-0.184555768967	1.49914240837	-0.325824737549
0.000165224075317	0.939794540405	-0.119437217712	-0.189027070999	1.49742043018	-0.323900699615
-0.00682997703552	0.954522371292	-0.123318433762	-0.194864988327	1.49499905109	-0.320344924927
-0.0190572738647	0.959888219833	-0.122081160545	-0.198632717133	1.4926571846	-0.316820859909
-0.0236413478851	0.94139957428	-0.12165248394	-0.200860500336	1.49014997482	-0.315681934357
-0.0182464122772	0.913652658463	-0.134189128876	-0.204744577408	1.48926281929	-0.315656542778
-0.00452399253845	0.891699552536	-0.152733564377	-0.210655450821	1.48774850368	-0.31621670723
-0.00257420539856	0.889669418335	-0.168786287308	-0.216684341431	1.48557400703	-0.315715551376
-0.011572599411	0.895485162735	-0.174664974213	-0.220957040787	1.48533785343	-0.314047574997
-0.0215446949005	0.893163442612	-0.169074416161	-0.223172187805	1.48644042015	-0.311888217926
-0.0282731056213	0.889705657959	-0.164755582809	-0.22584438324	1.48635601997	-0.308967351913
-0.022322177887	0.88384103775	-0.165285110474	-0.228610277176	1.48677647114	-0.305700778961
-0.0127029418945	0.878863573074	-0.162916183472	-0.230556249619	1.48901152611	-0.301247358322
-0.0124740600586	0.874934673309	-0.156196594238	-0.230880260468	1.4913738966	-0.296017885208
-0.0158984661102	0.86551117897	-0.15916967392	-0.232264280319	1.49310553074	-0.290423631668
-0.00711369514465	0.852061271667	-0.168329000473	-0.236796855927	1.49317109585	-0.284810781479
-0.000350952148438	0.851573705673	-0.173117280006	-0.241528987885	1.49325549603	-0.28177523613
-0.00240516662598	0.856617927551	-0.169150114059	-0.243063926697	1.49543905258	-0.282300949097
-0.00893402099609	0.859937667847	-0.169310212135	-0.242775917053	1.49925804138	-0.283896923065
-0.00861024856567	0.855844974518	-0.178263783455	-0.239477157593	1.50548803806	-0.284813046455
-0.00243139266968	0.851095199585	-0.190815806389	-0.232059240341	1.51028585434	-0.28535759449
0.00509572029114	0.848717212677	-0.197543144226	-0.220398187637	1.51280105114	-0.285510540009
0.0136346817017	0.847164869308	-0.199705243111	-0.211201429367	1.51310527325	-0.286758065224
0.0241820812225	0.841505527496	-0.205738067627	-0.207483768463	1.51127254963	-0.288212537766
0.0372972488403	0.829738378525	-0.218451976776	-0.20494890213	1.50949919224	-0.289322495461
0.0453357696533	0.823286056519	-0.228562355042	-0.201395273209	1.5082359314	-0.290030837059
0.050865650177	0.818234920502	-0.228046178818	-0.199371337891	1.50790202618	-0.291477441788
0.0671212673187	0.809351205826	-0.222430467606	-0.201136827469	1.50887989998	-0.293836355209
0.0758464336395	0.812872886658	-0.216474294662	-0.206867694855	1.50964415073	-0.296406030655
0.0807049274445	0.818363904953	-0.20757818222	-0.209766387939	1.50987052917	-0.300159454346
0.0792307853699	0.824836015701	-0.192636847496	-0.208890199661	1.50914394855	-0.303915023804
0.0746431350708	0.834763050079	-0.175944566727	-0.205630064011	1.50668728352	-0.305064201355
0.0664124488831	0.849200248718	-0.164422273636	-0.198773622513	1.50278973579	-0.302881479263
0.0456111431122	0.879928827286	-0.15457034111	-0.191484928131	1.49882042408	-0.299751281738
0.0202639102936	0.917730808258	-0.150395393372	-0.190068006516	1.49507927895	-0.296285271645
0.005859375	0.947978496552	-0.150144219398	-0.192919254303	1.48954820633	-0.293898940086
0.00833415985107	0.958708286285	-0.158464789391	-0.198078632355	1.48500549793	-0.292789459229
0.0281536579132	0.945923566818	-0.168564796448	-0.202477693558	1.48534047604	-0.292397975922
0.0578072071075	0.915098190308	-0.181872487068	-0.203993320465	1.49015152454	-0.292004942894
0.0613491535187	0.906905412674	-0.193955659866	-0.205764770508	1.49467110634	-0.292671561241
0.04652094841	0.909453392029	-0.198061823845	-0.208129882812	1.49719965458	-0.294743537903
0.0356912612915	0.907080411911	-0.194162368774	-0.211033582687	1.49890863895	-0.296213507652
0.0279443264008	0.904098749161	-0.192779779434	-0.215756654739	1.50043654442	-0.294923424721
0.0186460018158	0.902500629425	-0.191378593445	-0.222030878067	1.49947082996	-0.290697336197
0.0105092525482	0.893347024918	-0.192030906677	-0.228304624557	1.49876856804	-0.286169528961
-0.00259947776794	0.880262136459	-0.189219594002	-0.23302936554	1.49995613098	-0.282694458961
-0.0356905460358	0.878378152847	-0.164947152138	-0.233865261078	1.50206327438	-0.281707882881
-0.0675790309906	0.889388084412	-0.140381813049	-0.230997800827	1.5050920248	-0.282098293304
-0.0965178012848	0.900592803955	-0.14274418354	-0.227059364319	1.50744974613	-0.283136725426
-0.101811647415	0.890866041183	-0.163625240326	-0.222455739975	1.50993132591	-0.285874962807
-0.0814790725708	0.877586603165	-0.174092769623	-0.219707012177	1.51214599609	-0.28848028183
-0.0682651996613	0.874104499817	-0.182239770889	-0.218566656113	1.5110231638	-0.289566516876
-0.0688915252686	0.877107620239	-0.182144165039	-0.218564987183	1.50906765461	-0.289466381073
-0.0835945606232	0.884452342987	-0.17992401123	-0.219765901566	1.50741517544	-0.2877202034
-0.0999426841736	0.887501955032	-0.184927225113	-0.222272157669	1.50532960892	-0.285169839859
-0.0927722454071	0.870405673981	-0.199612855911	-0.224286794662	1.50275683403	-0.284600377083
-0.07688331604	0.856202363968	-0.211904764175	-0.22453045845	1.50268435478	-0.286246299744
-0.0715329647064	0.888683319092	-0.181715488434	-0.221307039261	1.5047365427	-0.288969516754
-0.062025308609	0.941570043564	-0.123496055603	-0.212695598602	1.5079408884	-0.29410803318
-0.0706875324249	0.968829631805	-0.0932501554489	-0.201040029526	1.51325190067	-0.302030563354
-0.0667018890381	0.958011865616	-0.0931116342545	-0.190582990646	1.51562786102	-0.311807870865
-0.0582096576691	0.941222667694	-0.108494281769	-0.183930873871	1.51384019852	-0.318647861481
-0.0530397891998	0.934152126312	-0.121447324753	-0.183780431747	1.51157402992	-0.32083106041
-0.0524744987488	0.936597585678	-0.125222682953	-0.18706703186	1.50960016251	-0.319165706635
-0.0492362976074	0.941611051559	-0.124426364899	-0.191977024078	1.5049264431	-0.315415620804
-0.0437145233154	0.949418544769	-0.124196529388	-0.202906608582	1.4962221384	-0.309701800346
-0.0357055664062	0.952424764633	-0.126274466515	-0.213524341583	1.49063813686	-0.304910182953
-0.0343248844147	0.949506521225	-0.130618453026	-0.220372200012	1.48763263226	-0.302674055099
-0.0354859828949	0.938780546188	-0.139050960541	-0.223667144775	1.48738849163	-0.304255723953
-0.0392282009125	0.926373958588	-0.154324293137	-0.222701072693	1.49159836769	-0.308198571205
-0.0559794902802	0.932896614075	-0.16593670845	-0.219151258469	1.49703896046	-0.313519954681
-0.067551612854	0.934603214264	-0.164487838745	-0.214273929596	1.5027012825	-0.319910526276
-0.0842533111572	0.925669670105	-0.172911763191	-0.211776256561	1.5081474781	-0.324700117111
-0.0930387973785	0.911999940872	-0.182192444801	-0.214395284653	1.51157736778	-0.326186418533
-0.084219455719	0.900466680527	-0.18167257309	-0.220323324203	1.51311683655	-0.326444864273
-0.0872888565063	0.903757572174	-0.185240745544	-0.225118398666	1.51545512676	-0.326016187668
-0.0980663299561	0.905589103699	-0.190312862396	-0.226572751999	1.51738369465	-0.327139735222
-0.109197854996	0.899441242218	-0.199496746063	-0.224417686462	1.52089178562	-0.330448865891
-0.111798524857	0.8957862854	-0.20806145668	-0.220650672913	1.52465391159	-0.334240436554
-0.105082273483	0.892514705658	-0.213801860809	-0.215003252029	1.52656698227	-0.338012218475
-0.101472139359	0.891511917114	-0.21978354454	-0.208210468292	1.52631103992	-0.34138250351
-0.103469133377	0.893814086914	-0.227092266083	-0.202169418335	1.52266609669	-0.343367934227
-0.105234861374	0.898592233658	-0.236079216003	-0.197617769241	1.51874780655	-0.343996524811
-0.101435661316	0.898228645325	-0.241247415543	-0.196328401566	1.51738405228	-0.343622684479
-0.0980451107025	0.895600557327	-0.242681741714	-0.197309017181	1.51504707336	-0.341899394989
-0.0934579372406	0.894514322281	-0.239300370216	-0.197833538055	1.51209640503	-0.340532064438
-0.0868451595306	0.895778417587	-0.235478401184	-0.19703245163	1.51061308384	-0.340401887894
-0.0770692825317	0.895578622818	-0.237304210663	-0.196176767349	1.51000750065	-0.340511322021
-0.0636076927185	0.891731500626	-0.239771366119	-0.196276187897	1.50674152374	-0.340188741684
-0.0495526790619	0.885712385178	-0.243293762207	-0.199277877808	1.50370621681	-0.337881565094
-0.0346086025238	0.877005338669	-0.24633026123	-0.202622652054	1.50219547749	-0.334068536758
-0.0203213691711	0.866781711578	-0.245818376541	-0.20455121994	1.50118911266	-0.331278800964
-0.00192975997925	0.848265171051	-0.24521780014	-0.204354763031	1.50121021271	-0.330552577972
0.0213851928711	0.830487728119	-0.247837305069	-0.203759431839	1.50240850449	-0.3314909935
0.0576395988464	0.81126832962	-0.255971431732	-0.204393863678	1.50332224369	-0.332488298416
0.100043773651	0.789178848267	-0.273509263992	-0.206658363342	1.50198698044	-0.332777738571
0.132011890411	0.773066520691	-0.293649196625	-0.210609912872	1.50137960911	-0.329987764359
0.125026464462	0.775289058685	-0.297771334648	-0.213838100433	1.5022765398	-0.324967265129
0.105325698853	0.785974979401	-0.284696340561	-0.212465286255	1.50278449059	-0.319826722145
0.0967745780945	0.786644220352	-0.28097319603	-0.207842111588	1.50220298767	-0.315873622894
0.101025819778	0.778407812119	-0.285085678101	-0.204574346542	1.50216042995	-0.312083244324
0.116047382355	0.768673181534	-0.293754577637	-0.204691171646	1.50119519234	-0.306200265884
0.125929832458	0.771112442017	-0.297821879387	-0.205436229706	1.49975752831	-0.298183441162
0.125435590744	0.782440662384	-0.296984434128	-0.205811738968	1.49618434906	-0.291646003723
0.121443986893	0.794965744019	-0.297157287598	-0.203663825989	1.49352490902	-0.287892103195
0.111301422119	0.812152862549	-0.297207355499	-0.196209192276	1.49400341511	-0.286119937897
0.104992628098	0.835781812668	-0.304334402084	-0.188848018646	1.49768447876	-0.286153316498
0.111991167068	0.85449719429	-0.312568426132	-0.186571121216	1.50083231926	-0.287841081619
0.126543998718	0.859811306	-0.322456359863	-0.187200307846	1.5032428503	-0.290828466415
0.139504432678	0.855884313583	-0.335578322411	-0.189189910889	1.50776827335	-0.295310974121
0.146405935287	0.848958492279	-0.350181460381	-0.190836906433	1.51232278347	-0.30090713501
0.150660991669	0.843591690063	-0.360189914703	-0.191614627838	1.51422274113	-0.306646585464
0.150912761688	0.84222817421	-0.361660480499	-0.193311452866	1.51182603836	-0.311140537262
0.148339271545	0.846281051636	-0.357203602791	-0.200885295868	1.50373518467	-0.31334733963
0.145180940628	0.857189178467	-0.352147579193	-0.210678100586	1.48966598511	-0.313248157501
0.146603107452	0.869884490967	-0.350157499313	-0.21466755867	1.48365676403	-0.310356736183
0.151154756546	0.883707046509	-0.337182998657	-0.214672803879	1.4859893322	-0.307513952255
0.159078836441	0.891398429871	-0.326643228531	-0.215359449387	1.48817920685	-0.307008504868
0.164147377014	0.894757509232	-0.320017337799	-0.216705322266	1.48985898495	-0.308042764664
0.154054403305	0.908250570297	-0.300124168396	-0.216945886612	1.4914406538	-0.309998035431
0.122321128845	0.935572147369	-0.264237523079	-0.216619968414	1.49377250671	-0.312077760696
0.0691440105438	0.951284885406	-0.219729661942	-0.216434717178	1.4962323904	-0.31407725811
0.0221152305603	0.95726776123	-0.148706316948	-0.215875148773	1.49830496311	-0.316259384155
-0.021805524826	0.967427015305	-0.0741639137268	-0.214544773102	1.50088560581	-0.316888809204
-0.0561563968658	0.980991125107	-0.00984764099121	-0.21290063858	1.50312650204	-0.315493822098
-0.0763628482819	0.985378742218	0.0437310934067	-0.21157169342	1.50509369373	-0.312878131866
-0.0960812568665	0.987758159637	0.080530166626	-0.210335254669	1.50648903847	-0.310517549515
-0.114609479904	0.986150979996	0.103123664856	-0.208729743958	1.50717759132	-0.308211088181
-0.131734371185	0.991816282272	0.119069099426	-0.206529140472	1.50773608685	-0.305197834969
-0.143207550049	1.00192022324	0.130555510521	-0.203976631165	1.50827717781	-0.30172753334
-0.149209976196	1.01111245155	0.141355514526	-0.200996160507	1.50840306282	-0.298434257507
-0.146406173706	1.01593089104	0.148125767708	-0.198136329651	1.50962769985	-0.295702219009
-0.140997171402	1.01104235649	0.139900922775	-0.194828987122	1.51109313965	-0.29570555687
-0.136737823486	1.00763583183	0.112178325653	-0.191108465195	1.51234328747	-0.298307776451
-0.129545688629	1.00104165077	0.0673991441727	-0.187063455582	1.51392865181	-0.301065921783
-0.109931707382	1.00356483459	0.0223604440689	-0.181290388107	1.51619136333	-0.302503347397
-0.0929000377655	0.98912191391	-0.025390625	-0.173052549362	1.51860272884	-0.302221536636
-0.0833420753479	0.978989601135	-0.0674228668213	-0.163142681122	1.51924705505	-0.301708936691
-0.0787048339844	0.968021392822	-0.099860906601	-0.153743028641	1.51847565174	-0.300792217255
-0.0761902332306	0.958804607391	-0.117232084274	-0.147655487061	1.51642096043	-0.300003051758
-0.0717296600342	0.961467504501	-0.118721008301	-0.146345376968	1.51262140274	-0.301769256592
-0.0747046470642	0.98170542717	-0.12047970295	-0.149057149887	1.5074211359	-0.303249359131
-0.0737636089325	0.990466833115	-0.1244597435	-0.154594659805	1.50189697742	-0.305586099625
-0.0703279972076	0.986486434937	-0.129804849625	-0.168768405914	1.49215877056	-0.308244466782
-0.0679261684418	0.980493783951	-0.134740829468	-0.183539867401	1.47940886021	-0.309160709381
-0.0650236606598	0.976815223694	-0.136906981468	-0.195126771927	1.46951711178	-0.307680845261
-0.061995267868	0.970643043518	-0.139092922211	-0.204509496689	1.46792793274	-0.305481314659
-0.0594623088837	0.955664157867	-0.141936779022	-0.209783792496	1.47229540348	-0.303633451462
-0.0617892742157	0.941611051559	-0.14780497551	-0.206106185913	1.48333334923	-0.301177024841
-0.0717136859894	0.942500114441	-0.156558632851	-0.188867092133	1.50516831875	-0.297243118286
-0.0800960063934	0.94704914093	-0.160125732422	-0.171630382538	1.52046597004	-0.296258449554
-0.077657699585	0.9454164505	-0.16020834446	-0.159251451492	1.52752542496	-0.296468734741
-0.068208694458	0.943139791489	-0.159428358078	-0.150031805038	1.53452110291	-0.296205282211
-0.058366060257	0.940651416779	-0.158707141876	-0.144088029861	1.54148387909	-0.296741008759
-0.052562713623	0.940202236176	-0.158187627792	-0.139228582382	1.54901087284	-0.29874753952
-0.0503764152527	0.941682338715	-0.157641172409	-0.134122133255	1.5552970171	-0.303404211998
-0.0498340129852	0.942893743515	-0.158949494362	-0.129451990128	1.56137895584	-0.310195446014
-0.048175573349	0.943938732147	-0.161118030548	-0.12407875061	1.56540429592	-0.318739175797
-0.0466523170471	0.946215867996	-0.163704872131	-0.11902141571	1.56530082226	-0.327508211136
-0.0448298454285	0.950979232788	-0.167595148087	-0.112957954407	1.5614991188	-0.334126472473
-0.0381488800049	0.954254388809	-0.172549009323	-0.102836370468	1.55941653252	-0.337824344635
-0.0323112010956	0.957745552063	-0.177078485489	-0.0942120552063	1.55861377716	-0.340695023537
-0.0280113220215	0.957237005234	-0.180789709091	-0.0898430347443	1.55919516087	-0.342411518097
-0.02654504776	0.955451488495	-0.183753967285	-0.0890071392059	1.56276774406	-0.344240903854
-0.0295233726501	0.956044197083	-0.186078071594	-0.0911471843719	1.56540381908	-0.347322940826
-0.0359845161438	0.959120750427	-0.186029195786	-0.0953254699707	1.5677652359	-0.351051807404
-0.0405416488647	0.955732107162	-0.184205174446	-0.0984883308411	1.57111620903	-0.356381177902
-0.0432615280151	0.953186273575	-0.178074598312	-0.101543426514	1.57214963436	-0.359485387802
-0.0474138259888	0.957051038742	-0.172274947166	-0.10487985611	1.56635034084	-0.357593417168
-0.0511558055878	0.959714412689	-0.168167114258	-0.110145330429	1.56189489365	-0.354864835739
-0.0513126850128	0.960381031036	-0.166372060776	-0.116454362869	1.56230676174	-0.354325413704
-0.0487742424011	0.961884498596	-0.165333509445	-0.119226455688	1.56160724163	-0.353261709213
-0.0458145141602	0.961492300034	-0.16615819931	-0.118597745895	1.55970299244	-0.353745937347
-0.0432171821594	0.959921121597	-0.16882610321	-0.117474555969	1.56001830101	-0.356544733047
-0.043182849884	0.959641456604	-0.172166228294	-0.116652488708	1.56087088585	-0.360611915588
-0.0458087921143	0.962183952332	-0.174286842346	-0.115498781204	1.56138336658	-0.364920735359
-0.0482451915741	0.967354536057	-0.173750400543	-0.114005088806	1.56206488609	-0.369403004646
-0.0488088130951	0.971889972687	-0.172482967377	-0.110952854156	1.56292843819	-0.373407125473
-0.0491468906403	0.978860139847	-0.171986341476	-0.107084274292	1.56347334385	-0.376495361328
-0.0488641262054	0.990909337997	-0.173290848732	-0.103680849075	1.56327581406	-0.378079414368
-0.0460047721863	1.00304985046	-0.17685687542	-0.101751327515	1.56244790554	-0.378337025642
-0.0392444133759	1.00761508942	-0.180987358093	-0.101828575134	1.56113100052	-0.377455115318
-0.0318751335144	1.0057451725	-0.185910701752	-0.103017568588	1.55816876888	-0.376605033875
-0.0247414112091	1.00557398796	-0.190981864929	-0.105506658554	1.55294537544	-0.375501155853
-0.0180938243866	1.00824046135	-0.196354389191	-0.108528614044	1.54756486416	-0.374513864517
-0.013313293457	1.01610422134	-0.200987696648	-0.110798358917	1.54250836372	-0.373644113541
-0.0102722644806	1.02814865112	-0.205318689346	-0.11397600174	1.53766536713	-0.373225331306
-0.00595378875732	1.03521633148	-0.209960222244	-0.115009784698	1.53471136093	-0.372401714325
-0.000709056854248	1.0344555378	-0.213529706001	-0.114619255066	1.53110218048	-0.370958566666
0.0040500164032	1.03076076508	-0.217078089714	-0.115406274796	1.52639818192	-0.369822502136
0.00742554664612	1.02913951874	-0.219307303429	-0.115471124649	1.52302706242	-0.368166923523
0.00764942169189	1.03002429008	-0.217713356018	-0.114646673203	1.5214523077	-0.365825653076
0.00459551811218	1.03191423416	-0.215829133987	-0.114714860916	1.52144050598	-0.362987279892
-0.0013542175293	1.03585577011	-0.214095830917	-0.115944862366	1.52306485176	-0.359343886375
-0.0061092376709	1.03387594223	-0.211499929428	-0.117817163467	1.52447926998	-0.355456709862
-0.00798320770264	1.01681876183	-0.212453603745	-0.12081360817	1.52384757996	-0.351833343506
