0.0	-0.0	141.198974609	-136.166351318	85.8730773926	148.867904663
0.0	-0.0	140.915115356	-136.859069824	85.1967468262	149.218826294
0.0	-0.0	140.554901123	-137.604324341	85.6699447632	149.368682861
0.0	-0.0	138.31060791	-138.428970337	86.2520294189	148.42237854
0.0	-0.0	127.885757446	-136.36428833	84.492805481	149.757858276
0.0	-0.0	111.203849792	-120.967399597	82.9748764038	154.884399414
0.0	-0.0	92.2165985107	-100.799613953	88.658531189	161.826721191
0.0	-0.0	76.4635848999	76.1211853027	82.7395324707	-19.2815170288
0.0	-0.0	64.9348373413	71.1153259277	78.9747085571	-21.1967906952
0.0	-0.0	51.4496803284	70.0369262695	79.7850418091	-22.7295570374
0.0	-0.0	43.6488075256	68.768119812	78.8708496094	-26.9361019135
0.0	-0.0	43.9804611206	68.8806762695	79.1724700928	-29.8596897125
0.0	-0.0	46.0839653015	69.8940353394	80.3267974854	-29.7208690643
0.0	-0.0	48.09608078	70.5760116577	81.9671859741	-31.0412635803
0.0	-0.0	47.4451789856	71.0929336548	85.2010726929	-35.607208252
0.0	-0.0	41.0793876648	68.8795394897	84.9554214478	-37.7359428406
0.0	-0.0	34.000125885	64.5349349976	82.2913589478	-39.1879463196
0.0	-0.0	25.0837650299	64.2392196655	80.8123703003	-41.7141647339
0.0	-0.0	8.86315631866	63.4113349915	82.3393630981	-52.8772201538
0.0	0.0	-6.02896881104	57.7547874451	81.5020141602	-62.7222557068
0.0	0.0	-15.3888158798	53.1920967102	79.6493682861	-62.4432678223
0.0	0.0	-21.1616344452	52.2042007446	78.7911224365	-60.4298667908
0.0	0.0	-24.6885757446	50.6644744873	78.3914260864	-62.4758453369
0.0	0.0	-28.332239151	47.4812431335	77.4264068604	-68.1074676514
0.0	0.0	-33.3090248108	41.8768348694	71.9088134766	-68.3676757812
0.0	0.0	-44.9470787048	37.0030784607	70.7606658936	-66.9076538086
0.0	0.0	-79.1883850098	35.3788375854	73.1838760376	-62.8928222656
0.0	0.0	-116.061325073	32.3394737244	74.1612091064	-65.6164016724
0.0	-0.0	-131.299835205	30.6478214264	74.0894393921	-66.3665924072
0.0	-0.0	-131.941574097	28.3325653076	72.8268737793	-67.8922195435
0.0	-0.0	-129.857833862	28.3436031342	72.2369842529	-70.9304046631
0.0	-0.0	-129.213317871	31.1286907196	73.8397521973	-69.8939437866
0.0	-0.0	-131.622283936	35.0665283203	75.20362854	-68.9560165405
0.0	-0.0	-135.306365967	35.5877304077	72.2128143311	-72.2780838013
0.0	-0.0	-137.677566528	36.0808830261	72.188659668	-72.5852432251
0.0	-0.0	-137.423126221	37.0159111023	73.5381393433	-72.1055221558
0.0	-0.0	-133.969848633	37.9590911865	75.0924835205	-70.3072814941
0.0	-0.0	-126.939910889	36.8684806824	75.195854187	-69.63256073
0.0	0.0	-110.270385742	35.5732269287	75.4263839722	-68.3156738281
0.0	0.0	-76.7809524536	33.7093086243	74.6445388794	-67.9523696899
0.0	0.0	-19.2076339722	32.5592803955	72.6903991699	-67.5455932617
0.0	-0.0	36.4624176025	33.3732414246	71.4164047241	-68.3832244873
0.0	-0.0	69.2876586914	34.4485702515	73.2937850952	-69.4730682373
0.0	-0.0	80.9565505981	36.9083862305	74.0455932617	-66.2509689331
0.0	-0.0	81.4900588989	40.5286636353	79.8810272217	-68.8656158447
0.0	-0.0	75.8842468262	45.9595031738	86.6967849731	-69.1135559082
0.0	-0.0	71.763130188	44.6524848938	89.0846481323	-77.089263916
0.0	-0.0	67.8617324829	-139.18132019	89.5199203491	97.45362854
0.0	-0.0	64.3257675171	-140.17074585	87.1508178711	94.3975830078
0.0	-0.0	59.6614570618	-145.533630371	87.1276473999	76.8834609985
0.0	-0.0	56.353767395	30.3063335419	89.9637908936	-101.808151245
0.0	-0.0	54.748840332	26.3803806305	89.5711288452	-97.588722229
0.0	-0.0	53.4452629089	-152.245285034	89.6056900024	87.9104690552
0.0	-0.0	54.1477851868	27.689125061	89.5314559937	-91.4331970215
0.0	-0.0	54.6169052124	-150.339935303	84.2159576416	93.8732376099
0.0	-0.0	54.5962257385	-142.374572754	76.972328186	110.280784607
0.0	-0.0	53.2865753174	-139.404800415	83.1939315796	113.050956726
0.0	-0.0	52.5915794373	-140.456130981	88.6798858643	113.175498962
0.0	-0.0	52.2961845398	-139.521224976	85.6935119629	113.791664124
0.0	-0.0	52.1032867432	-139.015686035	83.8065719604	114.714530945
0.0	-0.0	49.1513671875	-141.740219116	87.1855545044	111.385391235
0.0	-0.0	45.9915504456	32.9545555115	89.6321029663	-66.2976379395
0.0	-0.0	44.6948165894	27.9933891296	88.482635498	-60.4916229248
