-83.0106201172	-66.7782287598	138.622299194	0.684896588326	2.26184773445	-8.172747612
-81.9971694946	-67.1659927368	136.908187866	0.511750221252	2.62947154045	-7.87938308716
-81.1314468384	-68.0691070557	134.789825439	0.149977192283	2.97937870026	-7.6240439415
-78.6060180664	-70.5298233032	128.800491333	-0.75609177351	3.55195784569	-7.09953260422
-64.3072738647	-74.9734191895	106.131408691	-3.39162039757	5.01783418655	-6.01574277878
-68.8134841919	-72.8794555664	110.443061829	-7.59908294678	7.17908620834	-5.27553129196
-72.158241272	-72.6619720459	112.260482788	-11.5721006393	9.73794078827	-4.47781324387
-74.4797439575	-72.3069992065	113.885597229	-14.641084671	11.7123842239	-3.68485021591
-73.3596496582	-71.9810180664	112.339408875	-16.5774459839	13.4096269608	-3.21481633186
-72.9001998901	-71.5916976929	111.53302002	-17.7448863983	14.9267520905	-2.83141422272
-73.4114608765	-71.2734680176	111.799713135	-18.6600780487	16.2402992249	-2.5982401371
-74.0843887329	-71.2513427734	112.761360168	-19.4186611176	17.3865413666	-2.36876988411
-73.0020828247	-71.3057174683	111.865493774	-19.9603805542	17.8800849915	-2.14170837402
-71.0442504883	-70.7146072388	109.571861267	-20.1059055328	17.9266471863	-1.96640300751
-68.9795684814	-70.4063949585	107.633041382	-19.9978981018	17.8131484985	-1.81895148754
-68.6767730713	-70.6549377441	106.840278625	-20.4125061035	17.5420322418	-1.69497203827
-66.4794082642	-72.9526367188	101.710357666	-20.9783573151	16.0907020569	-1.47438395023
-69.8459091187	-72.3968582153	103.711135864	-21.2974910736	15.6699790955	-1.0321624279
-67.9580154419	-71.566078186	101.585205078	-19.5858650208	16.5899276733	-0.890650510788
-65.7240524292	-70.7759017944	99.8747024536	-17.8822174072	19.3817367554	-0.974164068699
-65.4278411865	-71.541053772	99.1090621948	-17.3761253357	20.4668922424	-0.541925787926
-65.9067764282	-71.2912063599	99.7058181763	-16.7166404724	20.003993988	-0.471306085587
-63.9347076416	-71.4952316284	97.8860473633	-15.8719148636	20.1379032135	-0.403928130865
-63.7168006897	-72.2484359741	97.3735961914	-15.583442688	20.5780601501	-0.280320256948
-65.6807327271	-72.6846160889	99.0851516724	-15.4263792038	20.123916626	0.466119587421
-67.3249511719	-72.422088623	101.120933533	-14.5765657425	20.4206848145	1.44329023361
-66.1475448608	-72.4480209351	99.7604827881	-13.8421058655	21.564666748	2.45881938934
-66.6204071045	-72.0078887939	100.089836121	-13.659160614	22.5589981079	3.09796404839
-67.5302963257	-71.5688323975	100.783729553	-13.3396167755	23.0819225311	3.62886667252
-62.0253982544	-71.6688766479	93.8639221191	-12.7364082336	23.6508483887	3.98151946068
-38.8775863647	-70.9021835327	63.9846534729	-12.2478208542	24.8190479279	4.30076551437
-26.2098331451	-69.8478775024	45.1103019714	-12.4050998688	24.420217514	4.07255601883
-43.7962532043	-70.9573059082	67.3982543945	-12.858798027	22.9146232605	3.25366401672
-52.2118759155	-69.5543441772	80.1803436279	-13.4421520233	21.0518608093	2.15404081345
-54.6229057312	-69.507019043	84.3647766113	-13.3185338974	20.0676364899	0.756373524666
-56.3264694214	-72.2038345337	85.8851013184	-13.7839784622	18.3769512177	-0.215978980064
-61.0454216003	-73.7165222168	92.2790985107	-14.7914218903	16.5324401855	-0.727634608746
