0.211036920547	1.06896078587	0.234247565269	0.0431728363037	1.6077350378	-0.190607070923
0.21099281311	1.06938314438	0.231909990311	0.041512966156	1.60803258419	-0.192354559898
0.2092461586	1.06875026226	0.229623198509	0.0394644737244	1.60837054253	-0.19349694252
0.199986219406	1.07626307011	0.21958899498	0.0388674736023	1.61383771896	-0.195519924164
0.148321866989	1.09125769138	0.203357577324	0.0411367416382	1.62108278275	-0.200114011765
0.0923964977264	1.11840653419	0.162814378738	0.0440068244934	1.62723767757	-0.205640792847
0.0618705749512	1.13880825043	0.130967378616	0.0465369224548	1.6316934824	-0.211642622948
0.0501294136047	1.14152276516	0.126237154007	0.0495133399963	1.6362426281	-0.218608140945
0.0689129829407	1.16015136242	0.124303460121	0.0540413856506	1.63867688179	-0.226458311081
0.0882658958435	1.19817745686	0.0992200374603	0.0561785697937	1.64042937756	-0.232840299606
0.0918371677399	1.22478020191	0.0711654424667	0.0547325611115	1.64127373695	-0.237353086472
0.0894765853882	1.23572552204	0.0485988855362	0.051477432251	1.64157879353	-0.241125106812
0.0842347145081	1.22985363007	0.0460996627808	0.0487368106842	1.64262795448	-0.243940711021
0.0795443058014	1.21464729309	0.054176568985	0.0452265739441	1.64311313629	-0.243953227997
0.0809705257416	1.20456135273	0.0568337440491	0.0413975715637	1.64239490032	-0.242605924606
0.0827925205231	1.19479930401	0.0668414831161	0.0395905971527	1.64293646812	-0.241738080978
0.0840482711792	1.17647111416	0.0828511714935	0.0381896495819	1.64282464981	-0.24148607254
0.0875415802002	1.14249396324	0.102908492088	0.0348801612854	1.64169430733	-0.240720391273
0.106009960175	1.10930025578	0.118901014328	0.0314021110535	1.64194595814	-0.23953461647
0.109837532043	1.09118390083	0.127154946327	0.0277485847473	1.64397644997	-0.237560033798
0.0789933204651	1.07604062557	0.134093999863	0.0231280326843	1.64534604549	-0.234692335129
0.0772686004639	1.06503295898	0.136066317558	0.0187771320343	1.64586150646	-0.231773138046
0.0671308040619	1.06584107876	0.135480284691	0.0141572952271	1.6461789608	-0.228857278824
0.0566363334656	1.07205235958	0.131447076797	0.00811862945557	1.64645910263	-0.227022171021
0.0498094558716	1.07265651226	0.12845480442	-0.000551700592041	1.64552783966	-0.225170612335
0.0532553195953	1.07133483887	0.128148794174	-0.00830793380737	1.64507603645	-0.222953915596
0.0525848865509	1.06732928753	0.129158616066	-0.0133311748505	1.64525592327	-0.221605300903
0.0523309707642	1.07544565201	0.127240419388	-0.01495885849	1.64549183846	-0.220869541168
0.0556771755219	1.09821677208	0.121604800224	-0.0149435997009	1.64473390579	-0.221331357956
0.0580804347992	1.12149584293	0.116895437241	-0.0145099163055	1.64382135868	-0.223140716553
0.0588297843933	1.13466489315	0.115326404572	-0.0150635242462	1.64346039295	-0.226673841476
0.0681507587433	1.13193619251	0.122300624847	-0.0147607326508	1.64381587505	-0.231565356255
0.0867872238159	1.13378286362	0.128091812134	-0.0128180980682	1.6445826292	-0.235685586929
0.0854198932648	1.14092040062	0.127957463264	-0.0129840373993	1.64431869984	-0.238603830338
0.0686321258545	1.14649617672	0.118054032326	-0.0171253681183	1.64431762695	-0.242131829262
0.0665898323059	1.13315951824	0.118596315384	-0.0215582847595	1.64512634277	-0.247248768806
0.0714221000671	1.12825322151	0.121873140335	-0.0234384536743	1.64623641968	-0.252976894379
0.0791289806366	1.13180077076	0.127604484558	-0.023148059845	1.64592421055	-0.256480932236
0.0754837989807	1.15652740002	0.117068886757	-0.0224652290344	1.64472985268	-0.257138967514
0.0650382041931	1.17625272274	0.099901676178	-0.0229704380035	1.64401423931	-0.256977319717
0.0590345859528	1.18060863018	0.0881283283234	-0.0247228145599	1.64417803288	-0.256713628769
0.0620431900024	1.18739688396	0.0742297172546	-0.0273749828339	1.64456379414	-0.256320953369
0.0688996315002	1.19838678837	0.0579500198364	-0.0290043354034	1.64524877071	-0.256536126137
0.075001001358	1.20421350002	0.0475038290024	-0.0293827056885	1.64568793774	-0.258015155792
0.0868592262268	1.20340645313	0.0423583984375	-0.0303521156311	1.64485812187	-0.260958909988
0.0974817276001	1.20658540726	0.0327149629593	-0.0307657718658	1.64420008659	-0.263652324677
0.0960431098938	1.21685266495	0.0154309272766	-0.0307483673096	1.64336800575	-0.265735030174
0.0896055698395	1.22593152523	0.000856518745422	-0.0297408103943	1.64290571213	-0.266178369522
0.0789906978607	1.22657680511	-0.00969815254211	-0.0298862457275	1.64374804497	-0.265782833099
0.0740962028503	1.22172439098	-0.018134355545	-0.0317466259003	1.64538919926	-0.26430106163
0.0749788284302	1.21447730064	-0.0174236297607	-0.0331044197083	1.6455925703	-0.260773897171
0.0763967037201	1.20692181587	-0.00866150856018	-0.0340006351471	1.64417183399	-0.25577378273
0.0746140480042	1.20726275444	-0.00251078605652	-0.0340187549591	1.64280545712	-0.24979698658
0.0722737312317	1.20561861992	0.00131416320801	-0.0331521034241	1.63963842392	-0.243649482727
0.0708873271942	1.20207297802	0.00343871116638	-0.0318446159363	1.63898968697	-0.238780260086
0.0730321407318	1.19629454613	0.00645744800568	-0.0220320224762	1.6414386034	-0.237234830856
0.0772662162781	1.19102597237	0.0100948810577	0.00284337997437	1.64061009884	-0.237834453583
0.0816111564636	1.18863618374	0.0120673179626	0.0221803188324	1.63885879517	-0.240114927292
0.0867183208466	1.18686187267	0.0115263462067	0.0297036170959	1.63903725147	-0.240804195404
0.0930156707764	1.18443048	0.0104320049286	0.0311651229858	1.63987720013	-0.239466309547
0.0980019569397	1.18423616886	0.00821363925934	0.0261945724487	1.64001429081	-0.235886573792
0.10005235672	1.18693578243	0.00505971908569	0.0140180587769	1.64225435257	-0.232567191124
0.0969188213348	1.19038653374	0.00273847579956	-0.0102789402008	1.6503714323	-0.232783555984
0.0936901569366	1.19086635113	0.00231289863586	-0.033863067627	1.65645575523	-0.236609697342
0.0944902896881	1.19634962082	0.00336456298828	-0.037337064743	1.65799963474	-0.237401247025
0.0877888202667	1.20485079288	0.0035148859024	-0.0254096984863	1.65427041054	-0.23574924469
0.0806245803833	1.21213853359	-4.74452972412e-05	-0.0118145942688	1.64878535271	-0.233575582504
0.0747635364532	1.20722353458	-0.00301337242126	-0.00936460494995	1.6479947567	-0.231405496597
0.0753281116486	1.19383478165	-0.00139534473419	-0.0115008354187	1.64879798889	-0.230053067207
0.07878947258	1.18475162983	0.00261914730072	-0.0131552219391	1.64886343479	-0.230465769768
0.0834412574768	1.1784119606	0.0100526809692	-0.0193586349487	1.65049386024	-0.234879851341
0.0869665145874	1.17138254642	0.0194389820099	-0.0295617580414	1.65131437778	-0.240942716599
0.0871448516846	1.17467010021	0.0212783813477	-0.033145904541	1.65294039249	-0.245939970016
0.0807888507843	1.17760682106	0.0195919275284	-0.0309565067291	1.65309536457	-0.249872207642
0.0774164199829	1.17560374737	0.0171043872833	-0.0329947471619	1.65384638309	-0.254379272461
0.0759854316711	1.17086613178	0.0127003192902	-0.038792848587	1.65529620647	-0.260212182999
0.0744521617889	1.16781008244	0.00834000110626	-0.040739774704	1.65750920773	-0.26858150959
0.072046995163	1.17057824135	0.00757789611816	-0.0365138053894	1.65789234638	-0.278373241425
0.0699071884155	1.18583965302	0.0078125	-0.0311408042908	1.65468657017	-0.287825345993
0.0645501613617	1.20281326771	0.00697541236877	-0.0318462848663	1.65194153786	-0.293351888657
0.0612623691559	1.2136297226	0.00236904621124	-0.03595662117	1.65039861202	-0.296073913574
0.0565207004547	1.22993469238	-0.00842118263245	-0.0395140647888	1.65002310276	-0.296242237091
0.0522375106812	1.24953508377	-0.0199437141418	-0.0416135787964	1.64936184883	-0.294343948364
0.0497162342072	1.25826787949	-0.0214463472366	-0.0417170524597	1.64884507656	-0.291878938675
0.0513443946838	1.2574146986	-0.0161967277527	-0.0399627685547	1.64926064014	-0.28849196434
0.0558815002441	1.25603675842	-0.0127816200256	-0.0400898456573	1.65039622784	-0.28467464447
0.0577187538147	1.25306344032	-0.00791668891907	-0.0403070449829	1.65210354328	-0.280719518661
0.0604112148285	1.24803805351	0.00565826892853	-0.0390224456787	1.65322327614	-0.277302384377
0.0681347846985	1.25367474556	0.0185933113098	-0.0360267162323	1.6524169445	-0.27286195755
0.0866267681122	1.27168762684	0.0264887809753	-0.0321056842804	1.65109944344	-0.267238378525
0.0966908931732	1.275349617	0.0342531204224	-0.0290205478668	1.65035414696	-0.261690855026
0.0872461795807	1.26792991161	0.0332853794098	-0.0275473594666	1.65021526814	-0.256329298019
0.0855152606964	1.25582373142	0.0371351242065	-0.025643825531	1.65028619766	-0.252198815346
0.0890297889709	1.25331473351	0.0389301776886	-0.0236167907715	1.6504907608	-0.249222517014
0.0906646251678	1.26074755192	0.0347491502762	-0.0218453407288	1.65050625801	-0.247545003891
0.0877866744995	1.27034413815	0.0272486209869	-0.0205907821655	1.65018785	-0.246254444122
0.0882620811462	1.27837824821	0.0233502388	-0.0194947719574	1.65004754066	-0.244738101959
0.0965754985809	1.28244566917	0.0315382480621	-0.0174679756165	1.64986336231	-0.243589878082
0.109247922897	1.28306925297	0.0383129119873	-0.0157203674316	1.64946997166	-0.242180109024
0.0984871387482	1.28330647945	0.0303955078125	-0.0145146846771	1.64910268784	-0.241030454636
0.0948343276978	1.27938234806	0.0281810760498	-0.0144643783569	1.64924621582	-0.240830183029
0.0964910984039	1.27826762199	0.0290455818176	-0.0151188373566	1.64968562126	-0.24072945118
0.0930609703064	1.27561593056	0.0318744182587	-0.0156383514404	1.64949536324	-0.240141868591
0.0901064872742	1.27130281925	0.0339696407318	-0.0155520439148	1.64787852764	-0.239603161812
0.0856442451477	1.26737570763	0.032910823822	-0.0153732299805	1.64847934246	-0.238210678101
0.0796763896942	1.26404237747	0.0314517021179	-0.0181131362915	1.65040290356	-0.236257314682
0.0787663459778	1.26050639153	0.0339612960815	-0.0215122699738	1.65168023109	-0.233523726463
0.0766723155975	1.25829052925	0.0377187728882	-0.0209238529205	1.65388965607	-0.232797384262
0.0728859901428	1.25798261166	0.0445238351822	-0.0169332027435	1.6561870575	-0.236015796661
0.0665018558502	1.26011502743	0.0495442152023	-0.0130014419556	1.65603220463	-0.23805475235
0.063006401062	1.26107537746	0.0528433322906	-0.00845074653625	1.65134203434	-0.239542484283
0.0641758441925	1.26043605804	0.0566115379333	-0.00622773170471	1.64346504211	-0.240372419357
0.0668253898621	1.26135003567	0.0579246282578	-0.0130925178528	1.643881917	-0.23831152916
0.0631337165833	1.25761902332	0.0591309070587	-0.0248217582703	1.64825332165	-0.235904693604
0.0542685985565	1.24951505661	0.0611370801926	-0.025820016861	1.65189778805	-0.233657360077
0.0438032150269	1.24219596386	0.0634390115738	-0.0223867893219	1.65486872196	-0.232210755348
0.0378079414368	1.23963272572	0.0635051727295	-0.0230383872986	1.65724873543	-0.232588291168
0.0383129119873	1.24011182785	0.0637671947479	-0.0273330211639	1.65778625011	-0.234354019165
0.040253162384	1.24112796783	0.0650109052658	-0.0283784866333	1.65696310997	-0.236535310745
0.0404279232025	1.2431384325	0.0645346641541	-0.0268502235413	1.65644431114	-0.238882660866
0.0383317470551	1.24523699284	0.0612258911133	-0.0251669883728	1.65653216839	-0.242267131805
0.0386393070221	1.24490141869	0.0577201843262	-0.024986743927	1.65701508522	-0.246669530869
0.0402526855469	1.24215972424	0.0553476810455	-0.02556681633	1.65884661674	-0.252069234848
0.0409371852875	1.24008333683	0.0530531406403	-0.0248844623566	1.66087734699	-0.259079456329
0.0379378795624	1.24092137814	0.0493009090424	-0.0214905738831	1.66130280495	-0.266482710838
0.0337409973145	1.24494016171	0.0443750619888	-0.0170404911041	1.65894496441	-0.273400068283
0.032906293869	1.24889445305	0.0397181510925	-0.0150775909424	1.65656673908	-0.278507113457
0.0339560508728	1.24937522411	0.0368068218231	-0.0161943435669	1.65548682213	-0.281044960022
0.0335676670074	1.24620616436	0.0362025499344	-0.0180041790009	1.65488803387	-0.281792521477
0.0300478935242	1.24235296249	0.0379445552826	-0.0194067955017	1.65414226055	-0.282002925873
0.0263521671295	1.24427223206	0.0390546321869	-0.0210688114166	1.65415012836	-0.28313100338
0.0247523784637	1.25106906891	0.0389227867126	-0.0233645439148	1.651242733	-0.285862922668
0.0244190692902	1.25890409946	0.0384888648987	-0.0266318321228	1.64770722389	-0.288900613785
0.0226278305054	1.2583835125	0.0364692211151	-0.0305571556091	1.64662504196	-0.290170907974
0.01962018013	1.25278437138	0.0323785543442	-0.0332274436951	1.64665770531	-0.290371894836
0.0177652835846	1.24738764763	0.0298211574554	-0.0333046913147	1.64930582047	-0.290823340416
0.0191223621368	1.24463248253	0.0290451049805	-0.0333092212677	1.65805447102	-0.291305303574
0.0226769447327	1.24013543129	0.0293560028076	-0.0328526496887	1.66240060329	-0.294359207153
0.0244903564453	1.23398470879	0.0307303667068	-0.0293340682983	1.66274285316	-0.296802997589
0.0258016586304	1.23362541199	0.0291024446487	-0.0256750583649	1.66176199913	-0.298673510551
