0.0	-0.0	131.217712402	-103.361915588	78.5396118164	-171.818939209
0.0	-0.0	130.18196106	-104.968650818	78.1085662842	-171.492919922
0.0	-0.0	127.655700684	-107.122200012	78.5604934692	-172.450073242
0.0	-0.0	123.929039001	-110.348129272	78.6700363159	-173.61491394
0.0	-0.0	119.965606689	-115.215698242	80.1434707642	-175.616088867
0.0	-0.0	113.655067444	-119.485092163	82.1867218018	-175.571304321
0.0	-0.0	106.594696045	-120.019920349	85.4704589844	-179.636901855
0.0	-0.0	99.2744445801	-122.909439087	86.4274902344	-177.744567871
0.0	-0.0	91.3731918335	47.3949127197	87.8345184326	-1.82845985889
0.0	-0.0	80.5333251953	33.6767120361	78.2370452881	-15.0126504898
0.0	-0.0	73.4303359985	23.741361618	74.004776001	-8.30381298065
0.0	-0.0	70.5511169434	15.2466363907	70.3969116211	-4.00315856934
0.0	-0.0	69.5175170898	6.94000387192	67.4042434692	-2.55542564392
0.0	-0.0	71.1435012817	3.65530109406	67.8376464844	-3.17539834976
0.0	-0.0	72.8820571899	5.52720403671	70.9483566284	-3.52492451668
0.0	-0.0	76.5079879761	7.76046419144	72.2788696289	-2.68873810768
0.0	-0.0	95.0661087036	10.1589345932	71.6949691772	-3.40582513809
0.0	-0.0	127.900123596	16.3750972748	71.7052841187	-2.54539823532
0.0	-0.0	151.909103394	23.4804725647	72.5747451782	-2.09094262123
0.0	-0.0	158.435668945	28.2632274628	74.7715454102	-0.887283265591
0.0	-0.0	158.684967041	31.6900959015	77.7678222656	-0.641855835915
0.0	-0.0	151.856430054	32.38904953	81.3131408691	1.64927685261
0.0	-0.0	136.64906311	35.9661979675	88.5353164673	3.09077763557
0.0	-0.0	113.530250549	-140.357543945	86.5717163086	-174.4584198
0.0	-0.0	87.6996917725	-140.559524536	86.1819610596	-174.68460083
0.0	-0.0	69.1218490601	-144.808868408	87.2913818359	-173.622421265
