0.0	-0.0	133.966156006	-132.32762146	82.8141860962	164.279907227
0.0	-0.0	132.073501587	-131.922943115	82.6857299805	163.670227051
0.0	-0.0	132.803695679	-132.187484741	81.7337493896	163.555435181
0.0	-0.0	132.824172974	-131.674575806	81.9380645752	163.66217041
0.0	-0.0	133.008651733	-132.134536743	82.0445785522	163.282577515
0.0	-0.0	128.589630127	-132.884109497	81.5980072021	164.042053223
0.0	-0.0	106.685768127	-136.431793213	87.0802154541	164.898635864
0.0	-0.0	99.839225769	37.8119354248	83.5675354004	-14.5749559402
0.0	-0.0	100.105049133	31.7601413727	74.9387283325	-13.127289772
0.0	-0.0	87.3567276001	27.1174240112	69.5861587524	-10.293431282
0.0	-0.0	71.0643768311	24.6335506439	68.4314498901	-8.46200180054
0.0	-0.0	72.8743057251	23.0340099335	67.8503799438	-7.76807117462
0.0	-0.0	93.1702270508	18.9990062714	63.8518791199	-4.82970285416
0.0	-0.0	89.7563171387	13.3232040405	56.5709228516	-2.93736076355
0.0	-0.0	92.7713928223	13.3323001862	50.2227973938	-3.45526885986
0.0	-0.0	99.6975631714	13.9945135117	43.065410614	-2.83561515808
0.0	-0.0	109.353363037	11.8203887939	33.2431640625	-1.37257623672
0.0	-0.0	91.0597229004	11.6744556427	24.9838695526	-1.25487935543
