-71.9013442993	-57.6923599243	136.140716553	-2.54124236107	3.03265881538	-7.00523424149
-71.5498428345	-57.8886451721	135.569366455	-2.80130124092	3.35800480843	-6.81531953812
-71.4216537476	-58.0172157288	135.298187256	-3.08307600021	3.38131666183	-6.66521787643
-70.5223617554	-58.5539169312	132.675506592	-3.33047580719	3.87827420235	-6.57291793823
-68.2958755493	-60.580291748	126.441299438	-2.71411013603	5.46103906631	-6.5697593689
-67.5298156738	-60.9758796692	124.004638672	-0.496412932873	7.89390134811	-6.88575792313
-66.9616241455	-60.8394699097	123.474609375	3.99797964096	11.7535161972	-7.21401596069
-66.3748474121	-59.9904060364	124.442626953	9.02926158905	15.298956871	-7.45893001556
-63.8041114807	-59.6818275452	123.039787292	12.3694667816	15.2234992981	-7.97524452209
-61.2375946045	-60.7814903259	121.179954529	13.6229124069	13.7484416962	-8.65826892853
-58.2681999207	-62.9014549255	118.624641418	13.9344148636	14.5607051849	-9.76455879211
-52.43384552	-63.8710861206	113.086624146	15.0293302536	17.0618495941	-10.9775438309
-45.0206947327	-63.8146438599	105.141281128	16.4353866577	17.3252124786	-10.6627340317
-39.6694908142	-63.8432998657	99.4295959473	17.5923519135	15.8220357895	-9.98785018921
-37.3485107422	-64.0922622681	96.0171051025	17.8828449249	15.6266126633	-9.15879631042
-37.5101509094	-64.7672195435	94.2668533325	17.2663612366	14.5834789276	-8.15104866028
