0.0	-0.0	136.318527222	-141.393890381	76.9666976929	153.580276489
0.0	-0.0	136.027893066	-141.773864746	76.4190826416	153.88470459
0.0	-0.0	133.36831665	-142.535797119	76.007232666	154.165863037
0.0	-0.0	109.918403625	-143.383392334	75.5127487183	155.163467407
0.0	-0.0	80.2486038208	-145.45022583	71.343421936	156.661361694
0.0	-0.0	76.1310577393	-146.498199463	67.5403442383	157.496948242
0.0	-0.0	66.0878601074	-144.91619873	62.258605957	157.338821411
0.0	-0.0	60.859172821	-140.622634888	49.323135376	156.802215576
0.0	-0.0	59.3835868835	-131.153945923	35.969959259	157.373428345
0.0	-0.0	57.900806427	-125.842948914	30.9790019989	158.947021484
0.0	-0.0	56.8273239136	-122.319328308	29.3108215332	158.128967285
0.0	-0.0	55.8915710449	-115.936523438	28.0517463684	158.067260742
0.0	-0.0	57.9486427307	-113.505577087	29.9502239227	158.298202515
0.0	-0.0	58.9289741516	-114.061386108	33.9872055054	156.677947998
0.0	-0.0	57.8564414978	-112.541595459	34.8864593506	156.100189209
0.0	-0.0	53.1994743347	-113.64352417	37.2357940674	156.09614563
0.0	-0.0	50.4615631104	-114.766181946	41.6396942139	155.08531189
0.0	-0.0	52.2320404053	-115.722839355	37.2989463806	154.055618286
0.0	-0.0	56.14894104	-118.881690979	29.7209072113	154.670425415
0.0	-0.0	60.2873420715	-117.148483276	28.4606533051	154.878616333
0.0	-0.0	57.5634765625	-113.033409119	26.8833885193	155.339019775
0.0	-0.0	30.9917602539	-110.704460144	23.8071517944	154.917480469
0.0	-0.0	19.1870441437	-110.776390076	18.5425510406	153.158859253
0.0	-0.0	18.6078624725	-110.803314209	11.674331665	154.584960938
0.0	-0.0	19.7906188965	-112.172821045	11.482966423	156.334503174
0.0	-0.0	17.1809806824	-110.35749054	10.8458995819	156.134780884
0.0	-0.0	31.8969669342	-108.726005554	8.7521314621	155.763687134
0.0	-0.0	48.939956665	-107.796852112	9.84813022614	156.396408081
0.0	-0.0	51.7648925781	-107.623458862	10.9053888321	156.359466553
0.0	-0.0	54.7466773987	-105.321754456	10.1825637817	154.496826172
0.0	-0.0	61.9772262573	-97.097869873	10.0854244232	152.867019653
0.0	-0.0	66.187713623	-88.648223877	10.4168367386	151.848892212
0.0	-0.0	65.4904327393	-86.4558944702	10.4811944962	149.607330322
0.0	-0.0	61.5014572144	-86.3412094116	11.6673374176	146.749420166
0.0	-0.0	54.5813140869	-88.8818588257	13.9173650742	142.766448975
0.0	-0.0	48.2158088684	-90.1968917847	14.8091020584	141.091506958
0.0	-0.0	50.8441925049	-90.8166351318	14.3555078506	142.522506714
0.0	-0.0	53.4419212341	-93.4398574829	14.8619403839	145.187515259
0.0	-0.0	56.6366996765	-96.2414932251	16.6273517609	146.438476562
0.0	-0.0	57.8776893616	-96.5159683228	18.8211650848	147.466659546
0.0	-0.0	57.7490196228	-97.3418807983	22.8515281677	148.324859619
0.0	-0.0	54.0082130432	-100.809791565	28.1408519745	148.564468384
0.0	-0.0	47.0199928284	-109.132225037	28.6091995239	148.468795776
0.0	-0.0	52.6940078735	-120.004234314	10.6303920746	152.406768799
0.0	-0.0	51.7234764099	-125.555801392	-14.2513046265	157.510345459
0.0	-0.0	46.3404312134	-120.689956665	-37.198474884	163.100387573
0.0	-0.0	44.6874542236	-113.903068542	-45.7179031372	165.01411438
0.0	-0.0	42.0803756714	-118.109832764	-34.8556213379	156.312728882
0.0	-0.0	42.7864341736	-123.053611755	-22.912569046	148.95980835
0.0	-0.0	42.9342689514	-123.941818237	-1.66475403309	141.903991699
0.0	-0.0	35.1122665405	-112.130249023	46.3864707947	141.267623901
0.0	-0.0	43.8977394104	-106.674499512	62.024772644	150.316253662
0.0	-0.0	54.4636726379	-112.212936401	54.4844322205	160.108947754
0.0	-0.0	52.7009353638	-133.291519165	32.9076309204	164.442642212
0.0	-0.0	45.802192688	158.782943726	19.4521274567	140.760345459
0.0	-0.0	41.0270500183	153.460906982	19.8799571991	129.045578003
0.0	-0.0	39.3639297485	-155.959579468	13.956870079	137.368103027
0.0	-0.0	26.8647289276	-110.784011841	15.7226247787	156.056411743
0.0	-0.0	19.1660041809	-109.612625122	18.8218650818	154.07800293
0.0	-0.0	38.494392395	-112.372055054	24.206035614	147.769683838
0.0	-0.0	23.3944473267	-115.190750122	39.3689041138	148.983596802
0.0	-0.0	22.3564586639	-116.61857605	51.6088485718	152.064193726
0.0	-0.0	27.0445461273	-121.263832092	57.806968689	155.724822998
0.0	-0.0	36.8638038635	-131.389053345	38.303276062	158.416381836
0.0	-0.0	46.5918197632	-156.857925415	42.104549408	150.79498291
0.0	-0.0	20.0805206299	-101.848770142	38.5890617371	163.009109497
0.0	-0.0	42.9693527222	-90.4971466064	28.7411689758	170.584609985
0.0	-0.0	44.6838989258	-112.874664307	27.8453273773	162.617446899
0.0	-0.0	36.3180122375	-118.996620178	29.832365036	158.262878418
0.0	-0.0	26.8710727692	-116.264671326	37.0083084106	158.447723389
0.0	-0.0	20.1741104126	-118.512908936	45.4746589661	159.286758423
0.0	-0.0	27.8760242462	-125.486122131	41.1176376343	159.73298645
0.0	-0.0	40.778465271	-135.399887085	33.9041252136	159.399963379
0.0	-0.0	34.719619751	-135.251754761	33.0404510498	160.740081787
0.0	-0.0	34.1728401184	-128.394973755	31.42852211	160.970840454
0.0	-0.0	32.1451148987	-127.472587585	32.4515075684	160.801513672
0.0	-0.0	31.5983486176	-129.952774048	38.6992874146	159.302825928
0.0	-0.0	30.324590683	-131.390396118	43.8321113586	158.709228516
0.0	-0.0	38.4452171326	-132.924209595	38.4585609436	159.96244812
0.0	-0.0	38.5629272461	-135.710266113	38.31665802	160.96321106
0.0	-0.0	38.5618133545	-135.271118164	40.0285949707	161.242492676
0.0	-0.0	38.5928955078	-131.818328857	40.0529060364	161.942321777
0.0	-0.0	36.7249259949	-128.263244629	37.6615409851	162.758575439
0.0	-0.0	31.9536476135	-125.834602356	37.8800201416	162.777664185
0.0	-0.0	29.2347221375	-125.387542725	40.6759147644	162.225601196
0.0	-0.0	30.1572265625	-126.643203735	43.4814033508	161.723007202
0.0	-0.0	31.6647815704	-128.158172607	43.449256897	162.350402832
0.0	-0.0	35.1119689941	-129.279708862	38.3081893921	162.75289917
0.0	-0.0	33.497756958	-129.16444397	37.1737518311	163.942047119
0.0	-0.0	29.9382324219	-128.836273193	39.251449585	164.112014771
0.0	-0.0	31.4556407928	-128.20690918	39.3901901245	163.797409058
0.0	-0.0	37.3833427429	-126.9141922	38.0547904968	164.401809692
0.0	-0.0	52.0508766174	-125.361564636	36.1243057251	165.455154419
0.0	-0.0	44.9362449646	-123.75969696	37.0843887329	166.025650024
0.0	-0.0	36.2764930725	-123.253944397	37.8784484863	164.384216309
0.0	-0.0	29.7635116577	-122.506088257	36.6626205444	163.175460815
0.0	-0.0	22.2750816345	-122.842071533	36.1293182373	161.952896118
0.0	-0.0	18.0603733063	-121.153877258	35.661655426	161.331436157
0.0	-0.0	21.3385848999	-119.831291199	35.6770210266	161.673797607
0.0	-0.0	22.9463596344	-121.434425354	35.7987785339	161.504135132
0.0	-0.0	28.5005474091	-121.665565491	36.5192832947	161.684066772
0.0	-0.0	30.9465179443	-120.810974121	37.7349739075	161.168945312
0.0	-0.0	29.7997913361	-119.919708252	37.9112472534	160.952972412
0.0	-0.0	29.2953891754	-120.333396912	37.9626083374	160.425811768
0.0	-0.0	27.7924537659	-122.190231323	38.9287147522	160.049697876
0.0	-0.0	25.662065506	-126.051902771	41.0628433228	159.175247192
0.0	-0.0	22.433134079	-129.683898926	37.9169425964	158.785690308
0.0	-0.0	21.1987228394	-130.512161255	35.0137329102	158.812728882
0.0	-0.0	18.4838275909	-130.698104858	33.0931625366	158.639907837
0.0	-0.0	10.344909668	-130.403259277	33.7205886841	157.948547363
0.0	-0.0	1.63459837437	-130.971969604	34.6106109619	157.937240601
0.0	-0.0	4.68527936935	-132.050506592	35.0384178162	157.860351562
0.0	-0.0	10.2686882019	-132.722290039	34.1690444946	157.856521606
0.0	-0.0	16.2371444702	-132.952697754	33.7645301819	157.860717773
0.0	-0.0	20.9022388458	-132.363128662	33.8863792419	158.051696777
0.0	-0.0	25.6814365387	-131.71496582	33.7883834839	158.604690552
0.0	-0.0	31.455575943	-131.716461182	33.2117881775	158.387008667
0.0	-0.0	41.1922264099	-131.136322021	32.9446716309	158.619400024
0.0	-0.0	45.6757850647	-130.462661743	33.0627975464	158.380706787
0.0	-0.0	47.2957839966	-129.087356567	32.9683647156	157.703216553
0.0	-0.0	44.2559204102	-126.646308899	33.7973594666	155.697891235
0.0	-0.0	49.7937393188	-123.223205566	35.3777809143	153.242919922
