0.0	-0.0	133.10395813	-131.931808472	88.9736328125	157.25302124
0.0	-0.0	133.194473267	-131.550308228	88.6852493286	157.564315796
0.0	-0.0	132.448791504	-131.281814575	88.7860641479	157.608795166
0.0	-0.0	130.878417969	45.872959137	89.9517288208	-20.3838443756
0.0	-0.0	117.469558716	38.5706977844	85.1056137085	-15.8122911453
