0.151281356812	1.10090601444	-0.295504570007	-0.131342887878	1.56310915947	-0.27229809761
0.151055574417	1.09938168526	-0.291056871414	-0.131031036377	1.56336247921	-0.272597908974
0.148578643799	1.09921443462	-0.284889698029	-0.131891012192	1.56326019764	-0.272874355316
0.143664360046	1.09612667561	-0.278669834137	-0.132967710495	1.56270194054	-0.273337602615
0.135082006454	1.08471333981	-0.270593881607	-0.133241891861	1.56071376801	-0.275161504745
0.117581367493	1.06477057934	-0.257881760597	-0.133985280991	1.55462133884	-0.278967618942
0.0951797962189	1.06329321861	-0.241773605347	-0.136092185974	1.54593336582	-0.282763123512
0.0716121196747	1.06137692928	-0.21994304657	-0.138575077057	1.53798389435	-0.286668419838
0.0446255207062	1.03216052055	-0.195152282715	-0.139291763306	1.53374314308	-0.290920972824
0.0236237049103	0.968690156937	-0.184605717659	-0.13976931572	1.53124046326	-0.294801712036
0.0110363960266	0.914645910263	-0.188807487488	-0.141429901123	1.52881026268	-0.297892808914
0.00084114074707	0.902242183685	-0.196167230606	-0.144139766693	1.52825331688	-0.300715923309
-0.00959849357605	0.912548542023	-0.198744177818	-0.146382331848	1.52759981155	-0.303349971771
-0.0160074234009	0.919332504272	-0.196480989456	-0.148152828217	1.52607965469	-0.304726600647
-0.0216689109802	0.923934459686	-0.194437980652	-0.149344921112	1.52366030216	-0.304217815399
-0.0302917957306	0.923250198364	-0.195863485336	-0.150186061859	1.52041089535	-0.303478837013
-0.0328409671783	0.910559415817	-0.193912625313	-0.149668216705	1.51804363728	-0.304620623589
-0.0276029109955	0.893710374832	-0.182859063148	-0.14816904068	1.51648461819	-0.30775141716
-0.0235958099365	0.891441345215	-0.17436671257	-0.148030996323	1.51538944244	-0.312128067017
-0.0232152938843	0.903352499008	-0.170296907425	-0.149854183197	1.51507174969	-0.316264152527
-0.0251159667969	0.909042358398	-0.170026659966	-0.153688907623	1.51409614086	-0.319065451622
-0.0298302173615	0.907556772232	-0.173977375031	-0.159466266632	1.51148998737	-0.318853616714
-0.0349798202515	0.903781890869	-0.181823730469	-0.164403438568	1.50880181789	-0.316999197006
-0.0374839305878	0.897837400436	-0.189438223839	-0.166735649109	1.50671720505	-0.315924286842
-0.0399537086487	0.891812086105	-0.196160078049	-0.167973995209	1.50517129898	-0.317299365997
-0.0468564033508	0.881632804871	-0.200606822968	-0.169525384903	1.50422561169	-0.319643735886
-0.0558242797852	0.856224775314	-0.202262997627	-0.170880794525	1.50367295742	-0.32229411602
-0.0616030693054	0.827219724655	-0.206289172173	-0.173065662384	1.50322532654	-0.325721263885
-0.0664324760437	0.825968980789	-0.202584028244	-0.177253007889	1.503682971	-0.328774452209
-0.0687198638916	0.834116697311	-0.195878386497	-0.182070732117	1.50349247456	-0.330682516098
-0.0724322795868	0.837580442429	-0.189582109451	-0.186211824417	1.50114321709	-0.330509662628
-0.0782256126404	0.833595275879	-0.190191745758	-0.190403461456	1.496540308	-0.329318284988
-0.0839078426361	0.841599941254	-0.191213846207	-0.194185733795	1.49603223801	-0.329838633537
-0.0887117385864	0.865798950195	-0.183706760406	-0.19756269455	1.49655079842	-0.330655813217
-0.0839705467224	0.877317428589	-0.173974275589	-0.199424743652	1.49730241299	-0.331105828285
-0.0684838294983	0.863630056381	-0.161609172821	-0.200233459473	1.4984639883	-0.331221818924
-0.0570883750916	0.859587192535	-0.145746231079	-0.200328111649	1.49987637997	-0.330656409264
-0.0503172874451	0.871379375458	-0.131328225136	-0.199282646179	1.50139129162	-0.329733133316
-0.0386810302734	0.875316381454	-0.124992370605	-0.198657512665	1.50312066078	-0.329223871231
-0.0253083705902	0.872264862061	-0.12514770031	-0.198505878448	1.50360119343	-0.328511357307
-0.0103821754456	0.877421855927	-0.12722826004	-0.198450565338	1.50242519379	-0.326331853867
0.00158166885376	0.892005443573	-0.130747675896	-0.197729587555	1.50186085701	-0.32411634922
0.00767040252686	0.908117771149	-0.128859877586	-0.196017980576	1.50325500965	-0.322990179062
0.0139837265015	0.90093588829	-0.133160352707	-0.192024946213	1.50263428688	-0.323570966721
0.0224635601044	0.895806074142	-0.138441085815	-0.186536550522	1.50126612186	-0.325013875961
0.0378351211548	0.893557071686	-0.149071216583	-0.181518316269	1.50142359734	-0.326200962067
0.053325176239	0.895023345947	-0.162672281265	-0.177716732025	1.50258243084	-0.325634717941
0.0570104122162	0.894979953766	-0.178030729294	-0.175537824631	1.50364685059	-0.323261022568
0.053906917572	0.893754243851	-0.18857884407	-0.173989295959	1.50427365303	-0.318915367126
0.0503196716309	0.894428491592	-0.188098430634	-0.173404693604	1.50357747078	-0.31259226799
0.044239282608	0.896335363388	-0.181757450104	-0.174170255661	1.50261950493	-0.305591106415
0.0374910831451	0.901404857635	-0.173612475395	-0.176954030991	1.50082588196	-0.297649383545
0.0254821777344	0.905126571655	-0.16821706295	-0.180681705475	1.49751162529	-0.290653705597
0.00409054756165	0.879076242447	-0.166082262993	-0.183907747269	1.49375545979	-0.285915613174
-0.0137116909027	0.813580274582	-0.16342830658	-0.185183048248	1.48934519291	-0.286293745041
-0.0268025398254	0.784939527512	-0.140417098999	-0.185384511948	1.48855400085	-0.290866851807
-0.0370614528656	0.801868677139	-0.123475313187	-0.186218261719	1.49163579941	-0.296673774719
-0.0396192073822	0.830513000488	-0.116409778595	-0.187579870224	1.49300289154	-0.303977489471
-0.0410091876984	0.841906309128	-0.12974190712	-0.188720226288	1.49587070942	-0.31246650219
-0.0470383167267	0.850062608719	-0.148626565933	-0.189810037613	1.4982663393	-0.321492314339
-0.0548379421234	0.860868453979	-0.157869815826	-0.19157075882	1.49896883965	-0.327115058899
-0.068186044693	0.871315717697	-0.159429550171	-0.194147825241	1.49913787842	-0.328466176987
-0.0774395465851	0.875756025314	-0.163421630859	-0.197444677353	1.4974874258	-0.325305938721
-0.0785098075867	0.868850231171	-0.175260782242	-0.20005607605	1.49501848221	-0.321984052658
-0.0783593654633	0.860141277313	-0.191095709801	-0.201755046844	1.49222111702	-0.321158409119
-0.0807402133942	0.854930877686	-0.201514005661	-0.203382253647	1.49050462246	-0.321368098259
-0.084611415863	0.852385759354	-0.203996181488	-0.20486497879	1.48894524574	-0.321376204491
-0.0893943309784	0.849434614182	-0.201365709305	-0.20574760437	1.48753452301	-0.32195854187
-0.0938768386841	0.843286752701	-0.191422104836	-0.206662654877	1.4877461195	-0.324117898941
-0.103447437286	0.837091684341	-0.169475436211	-0.207065820694	1.48901665211	-0.326282024384
-0.112849712372	0.837083816528	-0.142588376999	-0.207621335983	1.4894464016	-0.327624201775
-0.1213991642	0.847352743149	-0.122645616531	-0.208891630173	1.48840653896	-0.326524615288
-0.126282691956	0.860424995422	-0.110041975975	-0.210537433624	1.48650383949	-0.32301735878
-0.133272171021	0.854722499847	-0.101177930832	-0.211025476456	1.48355221748	-0.318965911865
-0.150300502777	0.83823132515	-0.0864815711975	-0.209856033325	1.48337435722	-0.31743311882
-0.151307106018	0.822853088379	-0.076264500618	-0.207674026489	1.48579847813	-0.317891359329
-0.143236637115	0.835732698441	-0.0858669281006	-0.207205533981	1.49027752876	-0.317396998405
-0.135785102844	0.869235277176	-0.100630998611	-0.206389188766	1.49481415749	-0.317951202393
-0.127583503723	0.904091119766	-0.124862909317	-0.203346967697	1.50010168552	-0.317313194275
-0.117919206619	0.935304164886	-0.153104305267	-0.197288036346	1.50323915482	-0.315555214882
-0.104029178619	0.948793172836	-0.176352977753	-0.191211700439	1.50343847275	-0.31346988678
-0.089213848114	0.954869747162	-0.19426214695	-0.186779737473	1.50117695332	-0.310449123383
-0.0791399478912	0.965130090714	-0.210590600967	-0.184850931168	1.49936187267	-0.305949687958
