0.28484249115	1.24844622612	-0.0934859514236	0.0332143306732	1.6149790287	-0.345910072327
0.286837339401	1.25045776367	-0.0960726737976	0.0332884788513	1.61496722698	-0.347417354584
0.287281036377	1.25214231014	-0.0979223251343	0.0333299636841	1.61536157131	-0.349264383316
0.287445545197	1.25182712078	-0.0982706546783	0.0334503650665	1.61617529392	-0.350395679474
0.288420200348	1.25207567215	-0.0993313789368	0.0333828926086	1.61648321152	-0.349890470505
0.295777082443	1.24899220467	-0.0964512825012	0.0332632064819	1.61819541454	-0.350193738937
0.305138111115	1.22349882126	-0.0725014209747	0.0343923568726	1.62501239777	-0.353245735168
0.271453380585	1.20256352425	-0.0505477190018	0.0351192951202	1.63349545002	-0.358935117722
0.231799125671	1.2031275034	-0.0506019592285	0.034074306488	1.6389824152	-0.36434173584
0.21441411972	1.18857514858	-0.0424952507019	0.0323522090912	1.64036989212	-0.369262218475
0.225329637527	1.1737061739	-0.0288515090942	0.0312333106995	1.6414949894	-0.373167514801
0.24121928215	1.16605126858	-0.00647044181824	0.0301740169525	1.64535033703	-0.377402067184
0.258630990982	1.15463805199	0.0162771940231	0.0296545028687	1.64964735508	-0.38100874424
0.277369976044	1.14026594162	0.0280202627182	0.0312204360962	1.65043926239	-0.381082177162
0.269130945206	1.12774479389	0.0455230474472	0.0319094657898	1.64928078651	-0.377544403076
0.264507770538	1.11456942558	0.0554914474487	0.0297038555145	1.64939618111	-0.37580537796
0.266293048859	1.08983421326	0.0735878944397	0.0287208557129	1.65078222752	-0.374919295311
0.270527839661	1.05754208565	0.0948348045349	0.0296039581299	1.65176594257	-0.372586250305
0.270157814026	1.04623413086	0.111052155495	0.0318148136139	1.65122771263	-0.36795425415
0.264310359955	1.04839944839	0.118169546127	0.0339140892029	1.64956367016	-0.362291097641
0.261217832565	1.05348873138	0.117982506752	0.0350770950317	1.64734578133	-0.356598734856
0.260750293732	1.05480504036	0.116141557693	0.035829782486	1.64588987827	-0.350639820099
0.273218870163	1.04169631004	0.116426348686	0.0386953353882	1.64583539963	-0.345536470413
0.292476892471	1.02595901489	0.120424866676	0.0436239242554	1.64555156231	-0.340728640556
0.290073156357	1.01273107529	0.121240377426	0.0480346679688	1.64447534084	-0.336035966873
0.281649589539	1.00726127625	0.118110537529	0.0513072013855	1.64266061783	-0.332529187202
0.286598443985	1.00950407982	0.0995223522186	0.0546250343323	1.64233195782	-0.33126950264
0.292104244232	1.01771640778	0.0861934423447	0.0576162338257	1.64258885384	-0.332872629166
0.303161859512	1.02039337158	0.0799978971481	0.0579597949982	1.64321708679	-0.337862491608
0.319267272949	1.02924871445	0.0666583776474	0.055645942688	1.64338314533	-0.346000432968
0.315239906311	1.05759954453	0.0558433532715	0.0515899658203	1.64248538017	-0.353117704391
0.304323196411	1.09425616264	0.038672208786	0.0478031635284	1.63933968544	-0.358718156815
0.28871679306	1.12451076508	0.01846575737	0.0439684391022	1.63938975334	-0.365731477737
0.269397974014	1.13836538792	-0.000585675239563	0.0381724834442	1.64226996899	-0.374993801117
0.240862607956	1.12765300274	-0.00481998920441	0.0297720432281	1.64656674862	-0.387275218964
0.217255830765	1.09865283966	-0.011131644249	0.024998664856	1.65123617649	-0.405323386192
0.197285413742	1.0792131424	-0.0194413661957	0.0298135280609	1.65072274208	-0.424051761627
0.180313110352	1.08899986744	-0.0258345603943	0.0326089859009	1.64421963692	-0.434933662415
0.169830799103	1.10240387917	-0.0332341194153	0.0264375209808	1.6442387104	-0.440725564957
0.162086963654	1.10361266136	-0.041291475296	0.0148520469666	1.64822125435	-0.444289684296
0.15558218956	1.09565246105	-0.0502157211304	0.0044059753418	1.65336632729	-0.446358442307
0.14928817749	1.09310829639	-0.0561616420746	-0.000987529754639	1.65558755398	-0.448176980019
0.144715070724	1.09463071823	-0.0562496185303	-0.000935554504395	1.65543663502	-0.448475003242
0.141179561615	1.09864699841	-0.0542987585068	-0.00023078918457	1.65623545647	-0.449609994888
0.13937330246	1.10152745247	-0.0515193939209	-0.00315737724304	1.65860807896	-0.452348947525
0.142366409302	1.10245704651	-0.0491735935211	-0.00655055046082	1.65907883644	-0.45484662056
0.147556304932	1.11356019974	-0.0479452610016	-0.00779628753662	1.65459322929	-0.452462911606
0.14936375618	1.11895942688	-0.0486459732056	-0.0104413032532	1.65234696865	-0.44672870636
0.150087356567	1.11586785316	-0.0501285791397	-0.0177156925201	1.65388429165	-0.441886901855
0.151757955551	1.11017906666	-0.0497398376465	-0.0226054191589	1.65330910683	-0.435530543327
0.15248966217	1.10453987122	-0.0486617088318	-0.0158250331879	1.64959168434	-0.427199602127
0.149206638336	1.10115289688	-0.0470135211945	-0.00022029876709	1.64775121212	-0.421677827835
0.146992444992	1.09466803074	-0.0446726083755	0.00347065925598	1.65152776241	-0.418859481812
0.14860701561	1.08460843563	-0.0428981781006	-0.00321555137634	1.65679061413	-0.418711662292
0.149777173996	1.07873535156	-0.0387840270996	-0.00560975074768	1.66215896606	-0.424225568771
0.146040439606	1.0814627409	-0.0323884487152	-0.00440835952759	1.66719615459	-0.433433294296
0.14116191864	1.08719325066	-0.0291079282761	-0.00344133377075	1.66881453991	-0.443462967873
0.139718770981	1.09199500084	-0.0300557613373	0.00290298461914	1.66502761841	-0.448726534843
