0.0	-0.0	137.369400024	-128.929611206	84.1624221802	164.406021118
0.0	-0.0	136.91557312	-130.555084229	84.3622055054	164.040283203
0.0	-0.0	136.702102661	-131.397903442	85.4627075195	163.881271362
0.0	-0.0	135.165908813	-132.03704834	85.9235229492	164.353637695
0.0	-0.0	120.721817017	-138.169921875	82.5281524658	166.793548584
0.0	-0.0	122.846359253	-156.736068726	72.5740737915	171.260314941
0.0	-0.0	122.319274902	-178.64453125	58.3298377991	175.676696777
0.0	-0.0	119.138664246	171.747879028	49.6641464233	178.149871826
0.0	-0.0	114.18132019	174.472061157	41.3003883362	176.850662231
0.0	-0.0	110.852996826	174.422561646	27.6363887787	178.094696045
0.0	-0.0	89.6357574463	167.576950073	20.8836650848	-177.073257446
0.0	-0.0	52.340637207	165.12701416	23.2248668671	-177.790679932
0.0	-0.0	33.8182830811	170.369247437	34.8746948242	-178.367050171
0.0	-0.0	46.8299407959	169.700485229	44.7054176331	-176.950668335
0.0	-0.0	66.3718032837	168.452377319	45.9261207581	-178.439651489
0.0	-0.0	75.7136993408	171.267486572	46.6730003357	177.243255615
0.0	-0.0	83.4303359985	174.884902954	52.4806938171	173.891220093
0.0	-0.0	100.450698853	174.324890137	57.8717498779	172.805084229
0.0	-0.0	124.248245239	171.242111206	56.6524810791	170.46987915
0.0	-0.0	137.040512085	169.19480896	51.2550201416	168.715652466
0.0	-0.0	142.457473755	165.022964478	46.2317695618	170.538497925
0.0	-0.0	133.41557312	157.685317993	44.4776687622	172.695068359
0.0	-0.0	132.885467529	152.581954956	40.7732086182	172.607192993
0.0	-0.0	132.416748047	154.380310059	37.272064209	172.258499146
0.0	-0.0	119.43888855	150.277404785	36.7104988098	174.302001953
0.0	-0.0	68.7097167969	140.240020752	36.9439315796	177.515167236
0.0	-0.0	29.4960021973	141.80581665	37.5949783325	176.773010254
0.0	-0.0	34.5358314514	148.021270752	42.0006446838	177.859283447
0.0	-0.0	74.2370452881	149.201477051	47.7040328979	178.589996338
0.0	-0.0	84.9042282104	151.370880127	52.0281410217	175.716094971
