0.0	-0.0	131.478622437	-128.862350464	86.4137649536	158.013305664
0.0	-0.0	130.725509644	-127.980606079	85.5467071533	158.740188599
0.0	-0.0	128.334320068	-128.073379517	86.3233947754	159.986083984
0.0	-0.0	115.381469727	-131.123092651	89.9983215332	161.994827271
0.0	-0.0	106.488624573	44.9394264221	89.273399353	-16.8979740143
0.0	-0.0	109.351219177	-135.451187134	87.6765136719	162.815704346
0.0	-0.0	115.394668579	-136.969665527	79.5360488892	163.539230347
0.0	-0.0	114.498893738	-145.042327881	62.1177940369	165.142166138
0.0	-0.0	99.0456390381	-160.069641113	43.0361976624	168.870742798
0.0	-0.0	94.0076293945	-172.695022583	28.3681774139	170.679916382
0.0	-0.0	86.5620956421	-176.306152344	13.6310720444	169.527633667
0.0	-0.0	77.2762908936	-176.873428345	-4.67753696442	168.391555786
0.0	-0.0	60.0017967224	-179.102828979	-12.8840780258	171.878479004
0.0	-0.0	40.0689353943	177.19392395	-8.21460437775	172.861434937
0.0	-0.0	28.5046043396	172.708511353	-0.467913925648	171.175125122
0.0	-0.0	26.8231735229	164.685913086	13.5665121078	173.055114746
0.0	-0.0	48.9334526062	160.829208374	26.0241775513	176.828277588
0.0	-0.0	49.6276397705	165.39251709	26.1306724548	176.493759155
0.0	-0.0	53.7356071472	175.69480896	19.7667255402	173.865036011
0.0	-0.0	53.506477356	179.637115479	32.8600082397	172.462814331
0.0	-0.0	51.2258110046	-179.241821289	45.7964515686	172.253417969
0.0	-0.0	49.1320571899	-178.280609131	47.3593292236	171.847732544
0.0	-0.0	49.6616821289	176.020019531	32.1642951965	170.5493927
0.0	-0.0	51.7741317749	167.633773804	31.6719760895	170.22517395
0.0	-0.0	51.7000427246	169.790222168	45.0409011841	167.660644531
0.0	-0.0	52.2993278503	176.258255005	52.1304702759	167.201965332
0.0	-0.0	52.2756919861	175.304214478	43.0949325562	167.093826294
0.0	-0.0	52.8893165588	165.319503784	31.3248653412	164.459854126
0.0	-0.0	53.8717575073	152.679641724	29.0162906647	163.984741211
