0.0	-0.0	134.264572144	-140.436401367	80.2593688965	159.880462646
0.0	-0.0	134.26940918	-140.844558716	80.113243103	160.139785767
0.0	-0.0	133.198104858	-141.133499146	79.6822280884	160.495178223
0.0	-0.0	128.686767578	-142.553787231	80.0958175659	161.207244873
0.0	-0.0	112.577972412	-149.476135254	83.5810394287	162.999038696
0.0	-0.0	91.2908096313	14.6724452972	88.6972579956	-12.2759895325
0.0	-0.0	87.4836120605	-0.413751989603	80.2509384155	-7.06168317795
0.0	-0.0	90.2067489624	-11.1706476212	72.8005752563	-1.69163870811
0.0	-0.0	92.0857391357	-15.1460418701	69.733581543	0.678913116455
0.0	-0.0	92.2843856812	-14.2408809662	69.9183502197	0.534666121006
0.0	-0.0	90.4552230835	-13.9800157547	68.4278640747	1.19242286682
0.0	-0.0	83.7110061646	-16.8628063202	63.9342422485	2.96048021317
0.0	-0.0	66.6507034302	-19.3655261993	60.4515151978	3.07198023796
0.0	-0.0	54.184551239	-16.7776947021	64.2515945435	-0.613672912121
0.0	-0.0	56.303062439	-14.1368103027	73.5933151245	-3.38620018959
0.0	-0.0	59.1801300049	-14.9603452682	77.4941177368	-3.03998041153
0.0	-0.0	63.9584541321	-16.17993927	73.2311019897	-2.60088229179
0.0	-0.0	68.1584091187	-14.0493221283	68.41040802	-3.08887147903
0.0	-0.0	68.4851455688	-11.1582317352	68.5956878662	-4.08169651031
0.0	-0.0	71.7571563721	-10.0254077911	69.3406982422	-6.21803665161
0.0	-0.0	85.9947662354	-11.6590747833	68.1864471436	-5.89206314087
0.0	-0.0	102.063011169	-13.798573494	67.1748275757	-4.36146450043
0.0	-0.0	115.011146545	-12.3755836487	65.9816894531	-4.94031906128
0.0	-0.0	116.482536316	-10.3893699646	64.5396347046	-5.29379034042
0.0	-0.0	110.954475403	-11.0658245087	62.5819244385	-4.79018878937
0.0	-0.0	86.3070220947	-12.3982486725	61.2944335938	-5.15282726288
0.0	-0.0	70.838394165	-12.3508825302	60.41355896	-5.61647987366
0.0	-0.0	66.8020477295	-11.8791723251	60.4286422729	-6.09343290329
0.0	-0.0	81.2699966431	-12.0949611664	60.4278373718	-7.15568208694
0.0	-0.0	89.3345031738	-12.6221008301	60.3986549377	-6.77103567123
0.0	-0.0	84.8512115479	-13.8616981506	59.2675323486	-5.46520614624
0.0	-0.0	59.8019943237	-14.9425401688	58.4718589783	-5.92645025253
0.0	-0.0	66.2888641357	-16.6429653168	61.9189872742	-7.8671207428
0.0	-0.0	56.3212051392	-18.5078334808	69.4383392334	-8.84576702118
0.0	-0.0	49.4998092651	-19.1932239532	72.1017456055	-9.39563941956
0.0	-0.0	46.9160461426	-20.0048828125	71.6324157715	-9.86867523193
0.0	-0.0	48.5044364929	-21.3118515015	71.2224655151	-9.57512187958
0.0	-0.0	63.5125236511	-22.7818756104	71.0580291748	-9.11122989655
0.0	-0.0	81.597076416	-23.9963550568	71.8544006348	-9.19491100311
0.0	-0.0	108.072380066	-24.3652992249	72.2651443481	-9.19450759888
0.0	-0.0	121.398521423	-25.2634983063	70.9348144531	-9.27491283417
0.0	-0.0	113.026580811	-25.6888198853	69.0980377197	-9.65797233582
0.0	-0.0	121.894737244	-25.6870937347	68.3055648804	-9.73725318909
0.0	-0.0	155.270797729	-24.3372840881	69.1311798096	-10.0826377869
0.0	-0.0	151.196578979	-24.248041153	70.6204910278	-9.36306190491
0.0	-0.0	140.371307373	-24.6929016113	70.3632202148	-7.14818763733
0.0	-0.0	128.310928345	-26.0167770386	66.6650695801	-3.76326537132
0.0	-0.0	116.342422485	-25.6219825745	56.8358955383	-2.69802379608
0.0	-0.0	108.164329529	-20.0180740356	45.1317710876	-5.47716903687
0.0	-0.0	110.086296082	-17.4294624329	45.2491378784	-5.32154083252
0.0	-0.0	114.755958557	-18.7489242554	50.0936965942	-5.51090574265
0.0	-0.0	119.931877136	-19.4790611267	53.8019294739	-5.65384626389
0.0	-0.0	114.773300171	-18.6663608551	52.3359184265	-6.08038425446
