0.0	-0.0	137.167633057	-124.947509766	83.7472000122	173.068008423
0.0	-0.0	137.513397217	-125.164390564	84.0848464966	173.432861328
0.0	-0.0	137.775512695	-125.548194885	84.4920730591	173.470077515
0.0	-0.0	132.692962646	-124.763694763	84.132232666	173.539703369
0.0	-0.0	91.8361587524	-121.832824707	82.798210144	172.786499023
0.0	-0.0	59.1119194031	-115.094230652	81.6340560913	172.330566406
0.0	-0.0	59.6303253174	-106.277496338	80.5198745728	171.515914917
0.0	-0.0	59.0894432068	-99.7891616821	80.4115524292	170.944946289
0.0	-0.0	58.4492645264	-94.4089584351	81.7655639648	170.106643677
0.0	-0.0	58.5224189758	-90.8506851196	84.0275497437	169.575759888
0.0	-0.0	62.4992408752	-89.7820129395	84.4949417114	168.788253784
0.0	-0.0	68.1103057861	-88.5255050659	82.9880981445	169.068984985
0.0	-0.0	76.103012085	-87.325668335	83.8604125977	169.576187134
