0.0	-0.0	133.404846191	-81.3963088989	86.7973327637	-142.015487671
0.0	-0.0	133.594512939	-80.8913803101	86.8499603271	-141.87399292
0.0	-0.0	133.297073364	-81.195350647	86.3014602661	-141.134155273
0.0	-0.0	132.74571228	-82.0997848511	85.7737884521	-141.442474365
0.0	-0.0	131.141143799	-83.2963943481	84.6293029785	-142.984039307
0.0	-0.0	124.445198059	-84.5084381104	86.0106811523	-148.358016968
0.0	-0.0	112.917053223	84.9176559448	89.65599823	14.1575622559
0.0	-0.0	103.975578308	65.5308380127	88.1980361938	-9.00705814362
0.0	-0.0	98.0215148926	49.9126167297	88.0894546509	-21.3820323944
0.0	-0.0	93.9650497437	38.8758125305	87.1934051514	-25.4121398926
0.0	-0.0	89.0890808105	30.2458362579	85.8228683472	-28.001033783
0.0	-0.0	84.3952255249	23.807390213	84.3269042969	-26.3234939575
0.0	-0.0	80.9710693359	21.5708255768	83.7962036133	-25.8585796356
0.0	-0.0	80.2413101196	21.605846405	83.8668289185	-25.8372001648
0.0	-0.0	82.0837478638	21.7585735321	84.1865081787	-24.3946704865
0.0	-0.0	83.3971633911	22.28033638	85.1559371948	-22.3958797455
0.0	-0.0	83.6128158569	22.9584102631	85.2058334351	-20.5020923615
0.0	-0.0	84.3164825439	23.1718864441	84.5054779053	-19.5248088837
0.0	-0.0	86.09740448	23.0213603973	84.5276107788	-19.1992492676
0.0	-0.0	86.9237670898	23.5725135803	85.2992019653	-19.7512340546
0.0	-0.0	89.5061187744	23.7640457153	85.9931106567	-19.491104126
0.0	-0.0	92.4463500977	23.902929306	86.4189605713	-20.0684299469
0.0	-0.0	95.0233459473	25.2888374329	86.5996627808	-24.3227005005
0.0	-0.0	96.1840591431	24.8854808807	86.4552536011	-33.0701751709
0.0	-0.0	97.4181060791	25.2561244965	88.8216400146	-37.1943855286
0.0	-0.0	98.3085021973	-153.309692383	89.4125976562	149.133926392
0.0	-0.0	97.3513259888	-153.465911865	89.2537231445	156.805084229
0.0	-0.0	96.375213623	23.5388641357	89.1518554688	-24.4589481354
0.0	-0.0	94.8165740967	21.3176212311	88.5623626709	-25.265745163
0.0	-0.0	93.6919021606	19.8760356903	88.3633651733	-26.9616260529
0.0	-0.0	93.2034683228	-159.940383911	89.4130630493	150.992736816
0.0	-0.0	93.1706771851	-159.590866089	88.2039413452	147.511383057
0.0	-0.0	93.7415084839	-158.287704468	86.0074234009	143.853912354
0.0	-0.0	94.1415481567	-155.886657715	84.1254043579	147.234802246
0.0	-0.0	92.816116333	-155.077133179	83.4392623901	151.2237854
0.0	-0.0	91.3344573975	-154.114120483	84.0459213257	151.718429565
0.0	-0.0	88.706161499	-152.82699585	86.1476898193	154.131088257
0.0	-0.0	86.3235321045	-152.0443573	88.3074188232	154.496002197
0.0	-0.0	83.767791748	-152.16255188	89.7288818359	154.492889404
0.0	-0.0	81.6641540527	-150.625717163	89.5498428345	155.850158691
0.0	-0.0	79.7556686401	-147.316802979	88.6646118164	157.761932373
0.0	-0.0	78.5960540771	-144.864364624	88.7095565796	158.979705811
0.0	-0.0	77.3228683472	-143.492263794	89.1529769897	160.994216919
0.0	-0.0	76.0720596313	37.612285614	89.9712905884	-16.0188903809
0.0	-0.0	75.4834442139	37.4930953979	88.6099090576	-16.1289291382
0.0	-0.0	76.4984359741	37.1618232727	88.6517944336	-16.078458786
0.0	-0.0	78.5841140747	36.7991447449	89.7894897461	-16.3288917542
0.0	-0.0	86.8843002319	-142.83984375	88.8252029419	163.73008728
0.0	-0.0	91.4320220947	-142.733184814	87.1246109009	164.673126221
0.0	-0.0	94.2035980225	-142.432006836	85.4244537354	165.910171509
0.0	-0.0	97.0790328979	-141.888336182	85.2971191406	165.922088623
0.0	-0.0	97.8712310791	-142.705291748	86.0234527588	165.885879517
0.0	-0.0	98.0841369629	-142.683013916	85.4576187134	166.493606567
0.0	-0.0	97.7770996094	-142.949905396	85.5524520874	166.735275269
0.0	-0.0	97.3206558228	-143.764175415	86.0104904175	166.537414551
0.0	-0.0	95.6691207886	-144.354598999	86.7977752686	166.672485352
0.0	-0.0	93.3231048584	-145.562683105	87.559425354	166.150085449
0.0	-0.0	89.6589050293	-146.530029297	87.4845581055	166.141830444
0.0	-0.0	86.9446487427	-147.122238159	86.8529968262	166.825744629
0.0	-0.0	83.2032623291	-148.745269775	87.3437652588	166.920318604
