-92.3078918457	-78.6778030396	141.346481323	3.08994626999	1.15685260296	-2.67125082016
-92.3269882202	-78.6760025024	141.133026123	2.90770101547	1.23640656471	-2.49417972565
-92.1717529297	-78.6076049805	140.865615845	2.82198143005	1.55648446083	-2.28568220139
-92.6473388672	-78.4661178589	141.122177124	2.70086050034	1.69678175449	-2.1938970089
-94.9828720093	-78.5982437134	143.108413696	2.40888786316	1.87914061546	-2.12541508675
-97.4012527466	-78.8758010864	144.716949463	1.79335176945	2.1783413887	-1.97032666206
-103.025657654	-80.5938186646	145.696395874	-0.539754271507	1.60994756222	-1.18955039978
-89.4634628296	-80.6343078613	123.699951172	-5.28424024582	-0.258805453777	0.273471534252
-56.3870315552	-77.8637390137	83.7007446289	-9.06920433044	-2.04669380188	0.921203196049
-47.9989318848	-76.1405181885	71.8000030518	-10.9508953094	-3.27742934227	1.26241695881
-47.7160415649	-75.355255127	69.8924789429	-13.0131206512	-3.32353758812	2.1749060154
-50.1488685608	-74.5832748413	74.0367736816	-14.6971263885	-2.88208961487	3.21343970299
-64.6878662109	-73.1525650024	95.0549545288	-14.8464012146	-2.81633353233	3.34991955757
-80.2563934326	-65.873260498	123.935462952	-14.3963832855	-3.2014093399	3.06512570381
-81.9566879272	-61.9445648193	136.977310181	-14.8049898148	-4.0155248642	3.1591591835
-83.5834197998	-59.9754142761	144.028366089	-15.8636789322	-4.93339538574	3.56813955307
-83.4393692017	-60.7757873535	144.525405884	-16.6354980469	-5.65675926208	3.85902285576
-80.289680481	-62.6021385193	142.650894165	-16.4804496765	-6.38215398788	3.6306886673
-73.7910461426	-66.2841110229	134.39364624	-15.7317066193	-7.0997710228	2.94678211212
-60.587436676	-71.4407348633	115.297981262	-15.0538053513	-7.31811475754	2.34454393387
-40.1185684204	-73.1832733154	88.5097045898	-14.799788475	-7.39441537857	1.73800230026
-37.4630012512	-71.9954681396	85.6809158325	-14.7324409485	-7.35488653183	1.25760138035
-36.7851066589	-71.6610488892	85.2756576538	-14.9592161179	-7.23518705368	1.19212710857
-35.1160888672	-71.6049499512	84.5845336914	-15.0278320312	-7.65193033218	1.14033055305
-32.0122375488	-72.0308532715	81.7051620483	-14.8787164688	-8.40192222595	1.1001945734
-32.3909301758	-71.8046951294	81.1285018921	-14.5662670135	-8.6758108139	0.903414189816
-43.3278274536	-70.8421325684	95.0102996826	-14.3981876373	-8.22152614594	0.923949718475
-42.9066238403	-71.1663970947	95.9614562988	-14.5024986267	-8.25462532043	1.12048399448
-42.7571525574	-71.9778518677	96.8219451904	-14.6380615234	-9.77948093414	1.01222980022
-36.767829895	-75.7021026611	83.997756958	-14.9515161514	-11.7144145966	0.817177772522
-39.5832023621	-78.0134658813	82.1084213257	-15.2733650208	-13.0064067841	0.460935086012
-38.9150352478	-77.9095458984	80.8630371094	-15.7668504715	-13.2044811249	0.349955022335
-38.9920349121	-77.756149292	81.3797302246	-16.5736274719	-12.9841156006	0.489799410105
