0.0	-0.0	141.160186768	-137.957015991	81.7936935425	152.77432251
0.0	-0.0	141.103668213	-137.92401123	82.0847854614	153.751983643
0.0	-0.0	141.744949341	-137.430862427	82.294670105	154.594726562
0.0	-0.0	141.12109375	-137.643554688	81.4354553223	154.974822998
0.0	-0.0	139.087432861	-137.121490479	78.778968811	154.926773071
0.0	-0.0	123.752494812	-132.575012207	73.138053894	153.103042603
0.0	-0.0	97.4340591431	-123.071678162	64.8749313354	152.220901489
0.0	-0.0	92.0097045898	-114.787574768	60.3389472961	151.918960571
0.0	-0.0	86.7161178589	-108.8175354	58.2839393616	150.979751587
