0.0	-0.0	133.212112427	-70.7843170166	70.2391281128	-139.259063721
0.0	-0.0	131.251083374	-69.6483306885	70.1929244995	-139.64604187
0.0	-0.0	130.278518677	-68.5935211182	70.0634078979	-140.030563354
0.0	-0.0	127.305999756	-70.6345977783	69.3307266235	-141.302444458
0.0	-0.0	124.806472778	-81.9334335327	73.8667221069	-145.747879028
0.0	-0.0	124.746681213	-90.539642334	72.0616149902	-152.848098755
0.0	-0.0	124.543197632	-92.5135345459	70.0566253662	-153.573760986
0.0	-0.0	125.57144165	-93.5739212036	70.3880233765	-153.606430054
0.0	-0.0	124.372497559	-95.0003890991	71.3886642456	-153.754821777
0.0	-0.0	122.575515747	-98.6464233398	73.6031494141	-153.455810547
0.0	-0.0	121.423278809	-105.604454041	79.0212173462	-155.643600464
0.0	-0.0	122.631141663	-113.817573547	82.0894317627	-162.383163452
0.0	-0.0	123.857528687	-121.478569031	84.3930664062	-175.900344849
0.0	-0.0	123.753410339	-127.553039551	84.5099258423	174.103683472
0.0	-0.0	125.031478882	-134.088684082	85.8612747192	169.543243408
0.0	-0.0	126.335456848	-140.655212402	88.4171981812	164.719665527
0.0	-0.0	126.079582214	32.6825370789	86.301071167	-21.6254997253
0.0	-0.0	121.812652588	28.7749576569	81.3986129761	-21.6494617462
0.0	-0.0	117.001029968	23.7634162903	74.584564209	-19.8309268951
0.0	-0.0	112.975914001	19.9204483032	66.6185531616	-23.6791992188
0.0	-0.0	109.629013062	13.3044605255	63.9535675049	-25.4178085327
0.0	-0.0	105.954223633	5.79459810257	64.4058685303	-22.8022785187
0.0	-0.0	101.293960571	4.71508741379	62.7478942871	-22.5314617157
0.0	-0.0	96.6535415649	5.37798070908	60.1251869202	-23.7116355896
0.0	-0.0	91.7424087524	9.89302444458	61.1778564453	-27.4436817169
0.0	-0.0	87.9167480469	19.3549556732	75.0464096069	-27.8264331818
0.0	-0.0	86.5903930664	26.012922287	89.7376480103	-18.8548583984
0.0	-0.0	86.5595016479	23.9526557922	89.957862854	-22.5669593811
0.0	-0.0	86.8638534546	20.9416561127	87.0372467041	-24.1490287781
0.0	-0.0	86.6597518921	21.1168632507	86.930480957	-25.105424881
0.0	-0.0	87.9398040771	20.9304332733	86.9019546509	-26.529291153
0.0	-0.0	90.0108184814	22.6991004944	86.3102493286	-27.5214080811
0.0	-0.0	91.7043533325	23.6833305359	85.9085464478	-27.8087863922
0.0	-0.0	93.2171707153	23.4190731049	85.9675369263	-27.5711593628
0.0	-0.0	95.4101409912	22.0748901367	87.326385498	-28.4161186218
0.0	-0.0	96.7546615601	21.3662033081	89.1530838013	-24.7543411255
0.0	-0.0	96.6822280884	21.4711074829	89.148651123	-22.6607723236
0.0	-0.0	96.4393539429	19.9298439026	87.6813201904	-24.8042163849
0.0	-0.0	96.0613174438	19.0106124878	88.3485870361	-24.4976520538
0.0	-0.0	96.622467041	19.7137126923	88.6386795044	-23.6509647369
0.0	-0.0	97.9854660034	19.6440925598	88.4913253784	-24.2613964081
0.0	-0.0	98.931602478	20.5201129913	89.6321792603	-23.8488292694
0.0	-0.0	100.009147644	-157.700836182	89.3955078125	156.250564575
0.0	-0.0	101.090759277	-156.626724243	88.280456543	155.552001953
0.0	-0.0	102.5103302	-159.148880005	88.3963851929	156.440368652
0.0	-0.0	102.897590637	-161.203613281	88.8734436035	157.115341187
0.0	-0.0	103.281890869	-161.809570312	88.6034545898	158.218002319
0.0	-0.0	103.832748413	-162.560623169	88.9203948975	158.88142395
0.0	-0.0	104.51865387	-161.652786255	88.464515686	158.310821533
0.0	-0.0	105.035270691	-160.750991821	85.4274978638	159.543243408
0.0	-0.0	105.507705688	-161.013290405	84.6249008179	158.050140381
0.0	-0.0	106.561599731	-161.012451172	83.782875061	157.059036255
0.0	-0.0	106.790267944	-160.283370972	82.3701782227	157.594421387
0.0	-0.0	106.030441284	-155.147415161	81.2464675903	157.575515747
0.0	-0.0	103.811141968	-144.665023804	80.1954879761	154.863922119
0.0	-0.0	101.895149231	-133.617279053	80.9679336548	155.106964111
0.0	-0.0	99.5821685791	-127.739974976	81.9535675049	160.085205078
0.0	-0.0	97.4600067139	-127.124664307	83.9343719482	165.080581665
0.0	-0.0	95.6664810181	-128.437255859	86.8450164795	165.50390625
0.0	-0.0	93.9484100342	-132.482620239	88.2546234131	164.782577515
0.0	-0.0	92.1300506592	-135.41293335	88.7194747925	163.723907471
0.0	-0.0	91.1395492554	-136.539642334	88.8765716553	163.284393311
0.0	-0.0	90.3253631592	-137.225631714	89.3458404541	162.193954468
0.0	-0.0	89.5554580688	-139.607208252	89.758605957	161.251571655
0.0	-0.0	88.8432998657	36.6710548401	89.2661972046	-18.713312149
0.0	-0.0	88.0265426636	33.0842323303	86.7082595825	-21.2681388855
0.0	-0.0	85.5539321899	31.8769378662	86.2071380615	-20.4891815186
0.0	-0.0	83.423034668	29.79778862	85.5542297363	-22.8171005249
0.0	-0.0	88.2083740234	28.6971855164	86.005859375	-23.0867919922
0.0	-0.0	105.692512512	28.8722438812	86.5679702759	-23.5642681122
0.0	-0.0	122.656532288	28.3932170868	87.5065536499	-24.1486377716
0.0	-0.0	137.159805298	28.0296344757	88.1632232666	-24.3582839966
0.0	-0.0	147.629135132	29.0673999786	88.6405639648	-23.9296588898
0.0	-0.0	152.311248779	-149.430725098	89.9119567871	155.807830811
0.0	-0.0	149.621276855	-149.136398315	87.3668670654	156.547912598
0.0	-0.0	148.028152466	-149.613220215	87.4159622192	155.722702026
0.0	-0.0	144.556793213	-149.275482178	87.6656265259	154.840377808
0.0	-0.0	134.699539185	-148.901565552	88.3452072144	154.637908936
0.0	-0.0	121.593223572	-148.989822388	89.5832748413	153.691879272
0.0	-0.0	108.88344574	30.3050327301	89.9275436401	-27.0239162445
0.0	-0.0	100.968894958	30.1216278076	89.4642486572	-28.1061096191
0.0	-0.0	98.8739471436	30.6206531525	89.4657516479	-28.9574165344
0.0	-0.0	98.4161376953	31.1662578583	89.6966781616	-29.5304679871
0.0	-0.0	97.7261581421	-148.610290527	89.2114028931	149.856033325
0.0	-0.0	98.8163604736	-151.76449585	87.8572006226	151.119537354
0.0	-0.0	99.2018356323	-155.725616455	87.9498519897	151.787536621
0.0	-0.0	99.0157928467	-156.213562012	88.6021499634	156.809051514
0.0	-0.0	98.630531311	-156.496047974	89.535987854	155.291366577
0.0	-0.0	97.5469512939	-156.339324951	89.5954589844	154.594955444
0.0	-0.0	97.6703338623	23.8376960754	89.5911407471	-21.801738739
0.0	-0.0	98.1581878662	23.2875881195	88.850769043	-16.3156414032
0.0	-0.0	97.1736373901	22.8076095581	87.3550109863	-13.0928173065
0.0	-0.0	96.0735931396	23.4004230499	85.1762695312	-12.4215345383
0.0	-0.0	96.2398452759	25.0451183319	84.9129104614	-12.0991411209
0.0	-0.0	98.4778366089	26.5844764709	86.95652771	-13.3583297729
0.0	-0.0	108.799491882	27.8331947327	89.1561737061	-14.598361969
0.0	-0.0	147.73197937	29.4916877747	88.3862609863	-16.7837696075
0.0	-0.0	176.658248901	31.8772506714	88.7350311279	-18.9407444
0.0	-0.0	-176.958847046	-146.616378784	88.8067855835	160.929351807
0.0	-0.0	179.576202393	-146.873596191	85.2801208496	160.137939453
0.0	-0.0	173.811782837	-148.11630249	83.7482681274	160.719665527
0.0	-0.0	163.79864502	-150.355987549	85.6289749146	159.252182007
0.0	-0.0	139.778884888	-150.907440186	84.8627548218	158.500549316
0.0	-0.0	118.548248291	-152.558822632	85.9322891235	155.682235718
0.0	-0.0	108.67918396	-154.643463135	87.6235427856	153.108612061
0.0	-0.0	101.938743591	-155.556793213	86.9409561157	152.763702393
0.0	-0.0	95.6474990845	-156.894378662	86.0802612305	153.880950928
0.0	-0.0	87.8436355591	-157.145050049	87.049331665	154.99520874
0.0	-0.0	78.2098312378	-155.428955078	87.0077285767	153.462814331
0.0	-0.0	71.9906692505	-153.934539795	85.9492797852	156.426528931
0.0	-0.0	68.1274795532	-154.81451416	85.0718841553	156.433074951
0.0	-0.0	64.8600158691	-157.224822998	85.6070861816	155.108016968
0.0	-0.0	61.5517959595	-159.436477661	85.8456192017	154.091247559
0.0	-0.0	58.1668395996	-161.542068481	86.0113983154	153.669342041
0.0	-0.0	54.1452178955	-162.3465271	87.5610046387	154.213104248
0.0	-0.0	51.4892730713	17.3337459564	89.5888061523	-24.8339138031
0.0	-0.0	49.1040306091	19.625246048	87.0302352905	-17.6806602478
0.0	-0.0	47.7892074585	22.9148635864	85.8888320923	-14.6361951828
0.0	-0.0	46.8589706421	24.322435379	84.564453125	-13.7064609528
0.0	-0.0	49.3079719543	24.4066581726	84.0891189575	-13.7457847595
0.0	-0.0	64.1630477905	23.8844261169	83.4193878174	-14.4311876297
0.0	-0.0	84.0292129517	23.9202899933	83.8471755981	-15.6220445633
0.0	-0.0	91.7730560303	23.9791355133	85.2254638672	-13.4442720413
0.0	-0.0	94.2218933105	22.6494941711	84.3929595947	-12.9909162521
0.0	-0.0	96.2319030762	22.1038722992	83.931388855	-13.4672708511
0.0	-0.0	101.787261963	22.6783695221	86.7307128906	-13.8707904816
0.0	-0.0	113.421035767	21.5097694397	89.4785919189	-14.1952152252
0.0	-0.0	124.594650269	-157.725997925	88.4983596802	162.506515503
0.0	-0.0	130.005767822	-157.617767334	88.9427185059	164.227676392
0.0	-0.0	130.802398682	25.1890144348	89.8000259399	-10.7436609268
0.0	-0.0	127.020927429	-149.921569824	89.6046676636	172.888473511
0.0	-0.0	116.453765869	-143.970474243	89.7772827148	-179.350967407
0.0	-0.0	103.646316528	38.3711624146	88.983581543	7.59933900833
0.0	-0.0	94.5183944702	37.3921508789	85.7779312134	8.70778560638
0.0	-0.0	87.2240524292	36.6321029663	82.8674468994	11.7956371307
0.0	-0.0	81.6842575073	34.8339157104	80.6961364746	14.3997735977
0.0	-0.0	77.8970870972	32.6724739075	79.9401855469	16.2790527344
0.0	-0.0	75.6412506104	31.4531536102	79.3759384155	18.8803215027
0.0	-0.0	73.1041564941	29.970582962	79.4172058105	20.1406040192
0.0	-0.0	69.2283630371	24.6687259674	79.982170105	19.7611160278
0.0	-0.0	64.1514358521	19.0218448639	85.0055465698	24.1906757355
0.0	-0.0	58.8871879578	21.2747478485	86.7842941284	27.6541500092
0.0	-0.0	51.4521064758	28.3032722473	85.3845596313	30.9830856323
0.0	-0.0	42.0555229187	34.6402664185	85.3763809204	32.945514679
0.0	-0.0	34.5155639648	39.2901687622	84.9654922485	32.8963279724
0.0	-0.0	29.7588043213	42.6582298279	84.8103713989	32.3957176208
0.0	-0.0	25.902223587	44.8454322815	85.6813735962	32.4781799316
0.0	-0.0	22.4941501617	46.5751113892	86.1237411499	32.7150764465
0.0	-0.0	19.8921108246	47.6977043152	86.336807251	33.2807044983
0.0	-0.0	18.7299823761	48.1124916077	86.4989089966	34.3024291992
0.0	-0.0	17.0647087097	47.2958259583	87.2158889771	36.1833114624
0.0	-0.0	13.7550230026	49.8483123779	86.8057403564	39.6666526794
0.0	-0.0	8.82981491089	53.2298736572	87.0725708008	40.9208374023
0.0	-0.0	4.88718891144	51.7798690796	88.1316680908	42.0560760498
0.0	-0.0	2.26516985893	50.1361465454	87.6208114624	43.5339126587
0.0	-0.0	2.93087124825	49.1979255676	86.4667053223	42.0840492249
0.0	-0.0	12.2456226349	49.1920814514	87.0879592896	40.1722297668
0.0	-0.0	26.2957286835	48.4902305603	89.8249206543	38.3805732727
0.0	-0.0	51.8571090698	-132.471923828	89.9721832275	-142.732086182
0.0	-0.0	74.8301620483	48.5932846069	88.1093597412	36.6477012634
0.0	-0.0	81.649559021	49.9016151428	87.1604537964	37.0847473145
0.0	-0.0	83.6140060425	50.8493919373	84.9120330811	37.1806106567
0.0	-0.0	84.0313262939	52.1916427612	83.3237380981	35.8268852234
0.0	-0.0	85.9344482422	52.1975479126	84.877532959	37.9516296387
0.0	-0.0	88.1354904175	-129.661148071	88.2997665405	-143.367584229
0.0	-0.0	84.8334884644	-125.431045532	84.6014938354	-137.377670288
0.0	-0.0	76.6796646118	-118.965805054	84.6925354004	-136.126342773
0.0	-0.0	63.7149238586	-112.360610962	83.9664764404	-137.691848755
