3.79269456863	5.17946577072	-12.2559890747	12.2571325302	24.3498592377	35.8079109192
3.44646668434	4.37397813797	-13.106426239	11.6647195816	24.2142486572	35.0853385925
2.48111605644	3.49316096306	-14.3361282349	10.6642875671	24.0036640167	32.9698104858
0.0686675310135	-0.671593368053	-13.6515817642	8.64114952087	21.8892974854	28.5292358398
-3.85923504829	-3.64042854309	-12.7283258438	6.61939287186	19.2023010254	24.2927093506
-5.82760715485	-6.12437391281	-10.6034202576	5.29642963409	17.4271621704	20.5310649872
-7.05487012863	-5.97875642776	-11.3176841736	4.32330083847	17.0539360046	17.419216156
-7.66473674774	-5.30954647064	-11.8757190704	3.9084174633	19.3011245728	15.5260057449
-8.56681632996	-5.2993979454	-10.6046390533	3.13950037956	21.6112232208	14.3926696777
-8.7562828064	-10.1468305588	5.24606800079	1.7298374176	22.3940944672	12.7632865906
-1.91722130775	-10.8752498627	17.8756351471	1.60203099251	22.5288105011	9.50068092346
5.09537601471	-10.6848125458	15.0662460327	3.63194417953	23.2553195953	7.02297592163
6.33013153076	-13.3389358521	5.65856552124	6.31764125824	24.0464382172	6.17525291443
5.86015701294	-17.4897823334	0.0035112365149	9.53676319122	26.5687332153	11.0134811401
3.99301457405	-18.1389198303	-3.02230811119	12.3352327347	27.8100223541	20.0454730988
0.77672046423	-16.3480758667	-3.46187496185	14.1940011978	28.0341396332	23.1843166351
-0.207138508558	-13.7288589478	-4.18426561356	14.2760858536	28.1488189697	24.0831298828
0.209482178092	-13.0365257263	-3.47280073166	14.7941026688	27.6553936005	25.5939006805
0.66607272625	-13.1562719345	-2.50534129143	16.6202449799	27.5891895294	28.3825836182
2.21475887299	-13.5515794754	-2.46728634834	17.1841106415	27.2781848907	29.769865036
3.10552453995	-15.0746593475	-3.89905571938	16.9159107208	27.8523521423	30.601940155
2.01759195328	-16.2610836029	-9.75752639771	17.2130203247	28.5066833496	30.7139472961
-0.5050791502	-16.533493042	-13.1927480698	15.4803638458	28.3326091766	26.4635219574
-2.98662853241	-13.2151155472	-15.5267181396	10.8041973114	28.810716629	19.8013191223
-5.070977211	-8.71265602112	-14.9179964066	6.22942876816	28.6536808014	14.8692293167
-7.28837394714	-6.35100984573	-11.5355653763	5.62102413177	27.5722560883	12.9971427917
-9.68037128448	-6.33997011185	-9.03725147247	6.23609304428	26.5470867157	11.2941732407
-10.1945352554	-8.5743227005	-6.03693819046	6.95769405365	27.7411842346	10.7892942429
-7.76702833176	-12.067404747	2.00945258141	7.09792757034	29.948595047	8.83867740631
-1.48271381855	-16.0662307739	7.44155883789	5.38499069214	30.9669189453	5.02186489105
1.58240294456	-13.9406242371	-0.827459871769	4.17910671234	29.6906356812	2.54294252396
0.0139520904049	-11.1312541962	-7.98005580902	3.86087703705	28.6430110931	2.08885979652
-4.12511873245	-5.04800701141	-14.2927103043	2.99673056602	27.2894077301	1.22375297546
-7.01514148712	-0.142957091331	-17.9998817444	2.03840327263	25.590215683	0.277010262012
-7.24420833588	-0.179372265935	-16.7964248657	1.39950811863	24.4085826874	-0.460123598576
-7.56293535233	0.348969638348	-16.1765155792	1.35094451904	23.7795848846	-0.850438535213
-8.48720550537	2.25884699821	-14.7931060791	1.8152602911	24.3561878204	-0.713069975376
-9.52572345734	5.20091438293	-12.6171092987	2.18053865433	24.6526069641	-0.686402857304
-9.60458087921	6.30870342255	-10.5829706192	2.38142514229	24.5706424713	-0.709744632244
-8.80767345428	5.71672344208	-7.70867824554	2.1153011322	24.9812278748	-0.559844136238
-7.58375072479	5.11550617218	-5.34837818146	1.85572576523	25.2163200378	-0.297839522362
-8.1365070343	4.04013776779	-3.41710448265	1.55873227119	25.2350406647	0.247655361891
-7.16851520538	3.10367512703	0.93509376049	1.1817663908	25.1016235352	0.662713885307
-6.62181997299	0.909274220467	4.32609891891	0.963202416897	25.1944274902	1.19682168961
-7.89773702621	-3.17223167419	7.18645906448	0.752396225929	25.0518321991	2.02099680901
-8.09905147552	-4.12572860718	7.05364084244	0.697468817234	25.7690677643	2.99014234543
-7.8087720871	-4.01005649567	7.29300260544	1.08327424526	27.1095275879	3.78119111061
-7.75190925598	-3.4668135643	6.74168777466	2.75812029839	30.9385185242	5.79638385773
-6.84168148041	-2.87273716927	6.26571989059	8.98750591278	33.2851448059	17.6604633331
-5.93750667572	-2.87848925591	6.71949005127	15.1309041977	32.1497917175	26.4988975525
-6.58295726776	-2.8513379097	7.39983987808	18.6177043915	31.1357250214	29.3936481476
-5.2987704277	-3.00384402275	6.61640882492	20.1991405487	29.9085483551	30.0544013977
-5.461124897	-3.82843565941	4.38932323456	22.2562255859	28.0531044006	31.6775417328
-6.22941637039	-3.29992651939	3.13659954071	23.5413818359	26.2375125885	34.6904067993
-4.376537323	-2.58361124992	1.95416295528	24.8386821747	24.7249927521	37.165599823
-1.84985089302	-4.09295415878	0.370832681656	25.3714332581	23.5864849091	38.6772842407
-1.88455080986	-6.5018157959	-1.24096548557	24.8883476257	24.4000873566	40.7207832336
-3.79691100121	-6.94215536118	0.273062437773	23.6123275757	25.4246234894	40.9026985168
-3.56518292427	-5.41759109497	2.31624221802	19.5166072845	27.5292739868	39.4123649597
-3.27136325836	-4.72339916229	1.87753307819	13.7444915771	30.0061435699	31.9923763275
-2.53527140617	-4.25800132751	-0.441866785288	4.63792324066	31.362077713	17.7218570709
-1.29806828499	-4.45847415924	-2.74752688408	0.31246688962	31.6958770752	12.2195320129
-0.478534817696	-4.65132713318	-2.79612565041	2.43572473526	32.5182342529	14.5540523529
0.201032787561	-4.38257312775	-2.64249968529	4.06840753555	32.5996246338	20.5727310181
1.11234593391	-4.10210418701	-1.95653927326	6.35996198654	32.1171760559	24.9256095886
1.03577423096	-4.47440814972	-0.814210891724	10.3869562149	32.2440567017	29.0177688599
0.487361192703	-5.12315750122	-1.02985143661	13.0856761932	32.1031188965	33.4508781433
-0.256490468979	-5.15735292435	-0.898368000984	14.0564193726	31.654045105	34.549949646
-0.812155127525	-6.26836872101	-1.77097904682	14.6557035446	30.7602539062	34.7921180725
-1.22984278202	-7.41405344009	-2.3946685791	15.6156635284	30.0179843903	36.6784210205
-0.975223481655	-6.49232578278	-1.56741189957	15.8625812531	29.4921016693	38.8335342407
-0.598254859447	-6.92399406433	1.06770789623	15.5889606476	29.294878006	40.7822494507
-1.78276968002	-4.87854576111	3.72121810913	16.1073188782	28.9244632721	42.2397041321
-2.41429805756	-1.60932195187	6.50238084793	16.2498054504	28.2971363068	43.3677253723
-1.51143717766	1.37025666237	9.78994274139	15.8797025681	27.2733783722	44.0139694214
-0.569805920124	1.87872159481	13.70566082	15.5130109787	25.9959259033	44.230266571
0.356518357992	1.48911070824	18.2057857513	14.8262119293	25.8136291504	44.9830284119
1.53051555157	5.54321575165	20.5119533539	12.5854473114	27.6439933777	44.7892456055
1.16920828819	6.86785316467	17.9271697998	8.04092407227	30.6309337616	39.0421180725
1.00551450253	7.25768327713	15.0194816589	4.18534994125	31.1253204346	30.1869487762
1.84272921085	5.40467643738	15.1255321503	3.85183048248	29.0185260773	23.4584064484
2.20914912224	3.07029652596	13.5261659622	6.61635112762	27.7734928131	20.458688736
2.94752240181	0.862323284149	12.3016338348	9.4595041275	26.5161952972	19.0472545624
3.70140695572	0.0811469331384	10.9519300461	11.1568527222	25.873872757	17.8470840454
