0.169639587402	1.15980994701	-0.331321954727	-0.0916147232056	1.55927944183	-0.317769527435
0.169551849365	1.15895581245	-0.326979994774	-0.09193110466	1.55909669399	-0.316439032555
0.164110183716	1.15669834614	-0.319823265076	-0.0923748016357	1.55913901329	-0.314856529236
0.151062965393	1.14759790897	-0.305844068527	-0.0906336307526	1.55771529675	-0.314487218857
0.141282558441	1.13218271732	-0.291878461838	-0.0869047641754	1.55303108692	-0.31542468071
0.146537065506	1.08979892731	-0.295636892319	-0.0828702449799	1.54533171654	-0.316020846367
0.145928621292	1.05471014977	-0.311105966568	-0.0826125144958	1.53612959385	-0.314383745193
0.138315677643	1.05188703537	-0.316572666168	-0.0826027393341	1.52806925774	-0.313982009888
0.13613986969	1.05867242813	-0.316250801086	-0.081360578537	1.52212369442	-0.314774036407
0.136028051376	1.06448554993	-0.320834159851	-0.080249786377	1.51524806023	-0.313602685928
0.129156112671	1.06450116634	-0.327276468277	-0.0788972377777	1.50843667984	-0.311774253845
0.125616788864	1.04239153862	-0.322797775269	-0.0761995315552	1.50471818447	-0.311649799347
0.12965798378	0.995998620987	-0.306589603424	-0.0746207237244	1.50579273701	-0.311502933502
0.136240005493	0.956640005112	-0.291890501976	-0.0734601020813	1.50863301754	-0.310067892075
0.138877153397	0.955049037933	-0.279238462448	-0.0689129829407	1.51176023483	-0.306862831116
0.140444040298	0.966974258423	-0.266173481941	-0.0617747306824	1.51311659813	-0.301490902901
0.144757032394	0.967417001724	-0.250174283981	-0.0548434257507	1.5128262043	-0.294627785683
0.149956941605	0.962069511414	-0.228184342384	-0.0488998889923	1.51254570484	-0.288172721863
0.152035713196	0.959836959839	-0.202493309975	-0.0436358451843	1.51236236095	-0.281504869461
0.150914907455	0.969149112701	-0.179549813271	-0.0390403270721	1.5115531683	-0.27446269989
0.144963502884	0.973756790161	-0.160016298294	-0.0355935096741	1.51010715961	-0.267863512039
0.138882160187	0.962678432465	-0.142010450363	-0.0341930389404	1.50854599476	-0.263809919357
0.135453939438	0.945082187653	-0.130656123161	-0.0341148376465	1.50670731068	-0.262005090714
0.129555940628	0.932662963867	-0.129175186157	-0.0338447093964	1.50433313847	-0.262758970261
0.120371818542	0.92311000824	-0.134346246719	-0.0340209007263	1.50261175632	-0.265482902527
0.112115859985	0.913443803787	-0.138702630997	-0.0357692241669	1.5017182827	-0.270091176033
0.103997707367	0.906046390533	-0.141462564468	-0.0382397174835	1.502800107	-0.274245500565
0.0960083007812	0.913039445877	-0.145013213158	-0.0408811569214	1.50293564796	-0.275387525558
0.0947768688202	0.920684576035	-0.151348114014	-0.0419971942902	1.50159561634	-0.275111794472
0.100403308868	0.919468641281	-0.158403396606	-0.0421371459961	1.50090277195	-0.275856733322
0.111104249954	0.916649103165	-0.16482758522	-0.0426497459412	1.50083875656	-0.278292417526
0.12206697464	0.915421485901	-0.167067050934	-0.043327331543	1.50104176998	-0.282913208008
0.130132436752	0.919053554535	-0.164636135101	-0.0445837974548	1.50173187256	-0.290161848068
0.135969400406	0.925882816315	-0.16079556942	-0.0459935665131	1.50254118443	-0.297388792038
0.138703346252	0.934162139893	-0.15603685379	-0.0458798408508	1.50128138065	-0.303741812706
0.142782211304	0.938524723053	-0.153328418732	-0.0455446243286	1.49908661842	-0.308513402939
0.148789167404	0.940715312958	-0.154183864594	-0.0457842350006	1.49672043324	-0.312668323517
0.155789375305	0.945118665695	-0.158042907715	-0.0458722114563	1.49541151524	-0.316705822945
0.164883852005	0.952100992203	-0.164835214615	-0.0459439754486	1.49431478977	-0.321743965149
0.175673723221	0.9583735466	-0.172773838043	-0.0457191467285	1.49349486828	-0.325827598572
0.183029174805	0.962735652924	-0.178272366524	-0.0460739135742	1.49244642258	-0.327288866043
0.184879541397	0.960451364517	-0.177999615669	-0.0471765995026	1.49181699753	-0.326886415482
0.183849573135	0.9551653862	-0.176055550575	-0.0484991073608	1.491938591	-0.325441598892
0.182363986969	0.955713510513	-0.17276597023	-0.0488517284393	1.49002504349	-0.323123812675
0.184744358063	0.959803342819	-0.16573548317	-0.0491366386414	1.48886406422	-0.321472167969
0.187288045883	0.956566333771	-0.161167740822	-0.0498423576355	1.49060475826	-0.320841431618
0.188937425613	0.956593751907	-0.159460544586	-0.0504472255707	1.49185836315	-0.32085776329
0.189871072769	0.956654071808	-0.158894777298	-0.051206111908	1.49264347553	-0.320956587791
0.191114187241	0.956337451935	-0.157470822334	-0.051162481308	1.49343621731	-0.320808172226
0.193464517593	0.957723379135	-0.157098770142	-0.0493533611298	1.49406921864	-0.320478200912
0.196143865585	0.960829496384	-0.158846139908	-0.0471377372742	1.49412608147	-0.319591522217
0.198870420456	0.965609073639	-0.161543607712	-0.0458183288574	1.49428272247	-0.318501472473
0.201107978821	0.972807884216	-0.164412379265	-0.0447840690613	1.49487566948	-0.317746758461
0.199024677277	0.98353433609	-0.166460990906	-0.0431406497955	1.49522960186	-0.318170547485
0.195527076721	0.989847898483	-0.168750524521	-0.0412321090698	1.49527621269	-0.319416046143
0.191370487213	0.989822149277	-0.170883774757	-0.0398933887482	1.49504482746	-0.320955753326
0.18914604187	0.989674091339	-0.172677755356	-0.0387272834778	1.49445104599	-0.322141647339
0.18846821785	0.989143848419	-0.176059007645	-0.0372288227081	1.49376678467	-0.322474956512
0.189765691757	0.983844995499	-0.178973197937	-0.0367004871368	1.4924864769	-0.321200847626
0.190444469452	0.977720737457	-0.18094933033	-0.0374836921692	1.49229252338	-0.319869041443
0.188692569733	0.975754022598	-0.180330038071	-0.0388684272766	1.49242305756	-0.318868398666
0.185869455338	0.976748466492	-0.17745256424	-0.0407004356384	1.49253976345	-0.317992687225
0.182879209518	0.976761341095	-0.174433469772	-0.0419290065765	1.4924672842	-0.317495584488
0.181141376495	0.973458528519	-0.173089027405	-0.0419461727142	1.49212861061	-0.31736946106
0.180327415466	0.968217372894	-0.175448417664	-0.0417256355286	1.49250888824	-0.317780613899
0.181145906448	0.963047981262	-0.179456472397	-0.0414917469025	1.49316692352	-0.318195343018
0.183057308197	0.960757732391	-0.182203054428	-0.0407950878143	1.49283790588	-0.318759202957
0.185717344284	0.961187124252	-0.184289216995	-0.0390117168427	1.49238264561	-0.319317221642
0.188619852066	0.960281848907	-0.187822580338	-0.0375816822052	1.49193310738	-0.320170521736
0.191473722458	0.957971096039	-0.192271828651	-0.0370597839355	1.49127280712	-0.320545434952
0.192338943481	0.95580124855	-0.197417974472	-0.0368750095367	1.49017286301	-0.321521043777
0.192924499512	0.95762181282	-0.201612114906	-0.0360677242279	1.49015843868	-0.321960449219
0.19291305542	0.957990169525	-0.205391168594	-0.0349853038788	1.48950350285	-0.321643829346
0.19332408905	0.954190969467	-0.208049058914	-0.0340435504913	1.48974955082	-0.321478366852
0.192719936371	0.953224658966	-0.206643342972	-0.0335288047791	1.48991405964	-0.321467876434
0.190781831741	0.956676959991	-0.202196717262	-0.0328166484833	1.49040675163	-0.321675658226
0.188787937164	0.958791732788	-0.197236061096	-0.0324618816376	1.49073791504	-0.32124710083
0.187121152878	0.960054636002	-0.19427895546	-0.0324673652649	1.48993659019	-0.320264458656
0.185594320297	0.958698987961	-0.193823337555	-0.0328786373138	1.48939013481	-0.318816423416
0.183903932571	0.954382181168	-0.194964528084	-0.0331008434296	1.48847711086	-0.31725859642
0.183540821075	0.946059465408	-0.197025775909	-0.0328440666199	1.48740589619	-0.316342115402
0.179464101791	0.93181180954	-0.19914150238	-0.0322787761688	1.48748290539	-0.315814256668
0.170795202255	0.916059494019	-0.202887415886	-0.0317995548248	1.48801636696	-0.316145658493
0.16091132164	0.910160303116	-0.204313278198	-0.0314526557922	1.48862922192	-0.316407203674
0.15315747261	0.912501335144	-0.202956795692	-0.0310084819794	1.48885715008	-0.317728281021
0.150221586227	0.915120840073	-0.200928449631	-0.0309987068176	1.48904705048	-0.319813489914
0.150407075882	0.911529541016	-0.199368715286	-0.0329151153564	1.48952317238	-0.322011709213
0.151788234711	0.903796672821	-0.198099374771	-0.0348455905914	1.490046978	-0.323114395142
0.152445554733	0.898013114929	-0.195334911346	-0.0354087352753	1.48989808559	-0.323199510574
0.152606248856	0.896536827087	-0.192604422569	-0.0354766845703	1.48911869526	-0.322762012482
0.153166294098	0.896058559418	-0.190682888031	-0.0351700782776	1.48846948147	-0.322527050972
0.154886960983	0.893023729324	-0.188903570175	-0.0347630977631	1.48786497116	-0.322230100632
0.156829833984	0.8876080513	-0.186785101891	-0.0341534614563	1.48707485199	-0.321792840958
0.159125328064	0.87974023819	-0.184906244278	-0.0333681106567	1.48731327057	-0.320994377136
0.161922454834	0.870050191879	-0.184554815292	-0.0324258804321	1.48760020733	-0.319260835648
0.162231206894	0.86520242691	-0.185798406601	-0.0317893028259	1.4869761467	-0.317317247391
0.161779165268	0.864699363708	-0.186692237854	-0.0310604572296	1.48700404167	-0.315534353256
0.161107540131	0.863111257553	-0.186449766159	-0.0299711227417	1.48727786541	-0.313496828079
0.15926027298	0.859374046326	-0.186252236366	-0.0289118289948	1.48755705357	-0.310492753983
0.156867027283	0.854085683823	-0.185959100723	-0.0276381969452	1.48738670349	-0.306419491768
0.155589103699	0.850671291351	-0.186898589134	-0.0261344909668	1.48722398281	-0.302709579468
0.154947757721	0.850854158401	-0.187812328339	-0.0257170200348	1.4868710041	-0.300419807434
0.155523300171	0.848289012909	-0.187515974045	-0.0262413024902	1.48682904243	-0.300476551056
0.155101776123	0.838068962097	-0.193321228027	-0.0273022651672	1.48772752285	-0.301306962967
0.153785228729	0.827259302139	-0.205722689629	-0.0292387008667	1.48865759373	-0.302257061005
0.152358531952	0.819016218185	-0.220878601074	-0.0317752361298	1.48942947388	-0.302428245544
0.149901390076	0.813856124878	-0.236652135849	-0.0343525409698	1.49002850056	-0.301566958427
0.149126768112	0.81541967392	-0.246009230614	-0.0355136394501	1.48985624313	-0.299488186836
0.155881881714	0.822902441025	-0.252390623093	-0.034782409668	1.48924005032	-0.296375393867
0.164643764496	0.839726924896	-0.260481119156	-0.0342421531677	1.48855483532	-0.292766809464
0.174447059631	0.863609790802	-0.263257265091	-0.0341832637787	1.48839151859	-0.290409564972
0.182131528854	0.88857460022	-0.258771538734	-0.0342135429382	1.48893356323	-0.290220499039
0.185217618942	0.917235136032	-0.25340628624	-0.0350069999695	1.48996269703	-0.291868925095
0.18085193634	0.951514005661	-0.254079341888	-0.0368711948395	1.4909632206	-0.294312000275
0.167553663254	0.983306884766	-0.262961626053	-0.0390648841858	1.49133563042	-0.296234607697
0.149244785309	0.996425390244	-0.277325630188	-0.0404534339905	1.49057602882	-0.296661734581
0.140957117081	0.971016168594	-0.289687633514	-0.0408601760864	1.48978257179	-0.296073198318
0.127993106842	0.948147535324	-0.298055052757	-0.0407493114471	1.48858034611	-0.296821594238
0.114839076996	0.951820611954	-0.297389507294	-0.0407452583313	1.48824906349	-0.300863027573
0.112330436707	0.949897050858	-0.290068387985	-0.0414173603058	1.48911964893	-0.306282281876
0.111639261246	0.948529005051	-0.277759075165	-0.0424880981445	1.48915994167	-0.310307502747
0.109912872314	0.945054292679	-0.265779256821	-0.043714761734	1.48859369755	-0.311147928238
0.110507249832	0.936425447464	-0.259996652603	-0.0436205863953	1.4867515564	-0.30789732933
0.111127853394	0.9373087883	-0.260816574097	-0.0428063869476	1.48333120346	-0.302167654037
0.107450723648	0.950672149658	-0.258991837502	-0.0416316986084	1.48482060432	-0.297900676727
0.101914167404	0.968904495239	-0.251592874527	-0.0391964912415	1.48811483383	-0.298255205154
0.0947616100311	0.985477685928	-0.244912147522	-0.0365395545959	1.48566567898	-0.304356813431
0.0919494628906	0.982347488403	-0.244418144226	-0.035475730896	1.4854568243	-0.310649991035
0.0952751636505	0.961950540543	-0.247696638107	-0.0364003181458	1.48970782757	-0.313786029816
0.101155757904	0.933845281601	-0.254106283188	-0.0371723175049	1.49306213856	-0.313268065453
0.103313446045	0.921550035477	-0.259518027306	-0.0364425182343	1.49276959896	-0.309139490128
0.10509967804	0.922114610672	-0.262104034424	-0.0356526374817	1.48992776871	-0.304990172386
0.104852437973	0.92489695549	-0.262938737869	-0.0357501506805	1.48855507374	-0.300804495811
0.100850105286	0.924319505692	-0.260462641716	-0.0362389087677	1.48750245571	-0.295710921288
0.0942118167877	0.917176008224	-0.254545927048	-0.0356547832489	1.48581719398	-0.291046619415
0.0880300998688	0.893445730209	-0.252677083015	-0.0348694324493	1.48548090458	-0.28905582428
0.0897676944733	0.856860160828	-0.256381034851	-0.0356373786926	1.48526871204	-0.289804935455
0.0905768871307	0.829402685165	-0.259966611862	-0.0372407436371	1.48577272892	-0.293506503105
0.0898861885071	0.825805187225	-0.259337663651	-0.0385115146637	1.48771643639	-0.299730539322
0.0873153209686	0.83180475235	-0.255051374435	-0.039413690567	1.49003207684	-0.305874586105
0.0890393257141	0.825451135635	-0.253813862801	-0.0399024486542	1.49147546291	-0.309842348099
0.0918436050415	0.806526660919	-0.256617307663	-0.0406324863434	1.4922440052	-0.311813354492
0.0982756614685	0.779320001602	-0.264263629913	-0.04154753685	1.49308514595	-0.312499284744
0.104606389999	0.752153635025	-0.276065349579	-0.0420670509338	1.49442970753	-0.311558485031
0.111665725708	0.735523223877	-0.288655996323	-0.043205499649	1.49454760551	-0.30822467804
0.115152597427	0.738081216812	-0.297305464745	-0.0438392162323	1.49344849586	-0.302927494049
0.11582326889	0.7531914711	-0.300803184509	-0.0440475940704	1.49331951141	-0.297397613525
0.117647647858	0.764773607254	-0.299347877502	-0.0441765785217	1.4927893877	-0.292802095413
0.119156599045	0.768237113953	-0.288866519928	-0.044314622879	1.49037671089	-0.290328502655
0.120797634125	0.777902841568	-0.271508812904	-0.0449092388153	1.48929166794	-0.287974596024
0.115954875946	0.793720960617	-0.25634932518	-0.0455782413483	1.48794329166	-0.286417961121
0.107267379761	0.810602664948	-0.24707198143	-0.0461809635162	1.4864487648	-0.285786986351
0.0952949523926	0.826414108276	-0.244456768036	-0.0478479862213	1.48552703857	-0.286368370056
0.0846738815308	0.838091850281	-0.246562004089	-0.0496206283569	1.48483979702	-0.288437128067
0.0801777839661	0.837553739548	-0.256747961044	-0.0515003204346	1.4850577116	-0.290894508362
0.0878057479858	0.821626663208	-0.277711391449	-0.0531747341156	1.48563766479	-0.293685913086
0.105987787247	0.799158096313	-0.292673826218	-0.0532426834106	1.48668110371	-0.296560525894
0.117308855057	0.78240442276	-0.295424699783	-0.0513679981232	1.48887741566	-0.299464583397
0.116866111755	0.779886007309	-0.288640975952	-0.0480284690857	1.49147415161	-0.300417423248
0.106803894043	0.791550159454	-0.278866410255	-0.0450530052185	1.49166822433	-0.298488140106
0.103139400482	0.793352127075	-0.274613022804	-0.0427241325378	1.48943853378	-0.293896198273
0.104859113693	0.786894321442	-0.275052309036	-0.0415153503418	1.48733794689	-0.288190841675
0.111013412476	0.777237892151	-0.275595426559	-0.0402939319611	1.48679101467	-0.28347671032
0.113183498383	0.777422189713	-0.271381616592	-0.0386953353882	1.48577237129	-0.280912995338
0.112061738968	0.784416437149	-0.26600921154	-0.0382151603699	1.48415112495	-0.279661178589
0.110918045044	0.790208816528	-0.263587236404	-0.0387725830078	1.48338711262	-0.280058145523
0.111309051514	0.793857336044	-0.262557506561	-0.0400338172913	1.48479950428	-0.282617807388
0.112559556961	0.795304298401	-0.26148545742	-0.0414655208588	1.48650276661	-0.285841464996
0.115568637848	0.782547950745	-0.266739606857	-0.0431427955627	1.48654770851	-0.289447784424
0.119315385818	0.775181293488	-0.271116733551	-0.0450358390808	1.48666608334	-0.290481328964
0.120827913284	0.778174638748	-0.271786928177	-0.0447390079498	1.4867067337	-0.289218902588
0.118630170822	0.782202959061	-0.270311832428	-0.0425772666931	1.48705101013	-0.286579489708
0.116078138351	0.783685445786	-0.269154787064	-0.0413377285004	1.48662590981	-0.283972859383
0.116703510284	0.782082080841	-0.270662069321	-0.0403399467468	1.48628890514	-0.282419204712
0.116512298584	0.781434297562	-0.271660804749	-0.0398170948029	1.4862433672	-0.282351016998
0.118771791458	0.781430959702	-0.268229007721	-0.0400693416595	1.48802697659	-0.283472061157
0.119720458984	0.777987480164	-0.263304948807	-0.0405988693237	1.49030566216	-0.284448862076
0.117690086365	0.760152578354	-0.268292427063	-0.0403568744659	1.49058496952	-0.285252571106
0.116439342499	0.738889932632	-0.278200626373	-0.039822101593	1.4900649786	-0.286207437515
0.115704059601	0.73604798317	-0.28063762188	-0.0398972034454	1.48973846436	-0.287579894066
0.111527919769	0.747546672821	-0.280784487724	-0.0404102802277	1.49060750008	-0.289944648743
0.107434749603	0.764367580414	-0.276373624802	-0.0402286052704	1.49215114117	-0.292098283768
0.107105493546	0.783399820328	-0.264957666397	-0.0387651920319	1.49328327179	-0.293018579483
0.110329627991	0.803151845932	-0.255285024643	-0.0367546081543	1.4940148592	-0.291877031326
0.115588665009	0.819578647614	-0.255197763443	-0.0347530841827	1.49357712269	-0.289756059647
0.118802785873	0.828833818436	-0.263452768326	-0.0338363647461	1.49241614342	-0.287535667419
0.123202800751	0.837511777878	-0.277184486389	-0.0331869125366	1.49131381512	-0.286024332047
0.127286434174	0.845862150192	-0.295657157898	-0.0323882102966	1.48986661434	-0.284938335419
0.128640174866	0.856520414352	-0.315876722336	-0.0314090251923	1.48879563808	-0.284403920174
0.127915859222	0.866842031479	-0.333213329315	-0.0314881801605	1.4879860878	-0.284375667572
0.129312515259	0.86950135231	-0.348092317581	-0.0324141979218	1.48787105083	-0.285264730453
0.133140802383	0.860731363297	-0.35874080658	-0.0339891910553	1.48786115646	-0.286225795746
0.139119148254	0.844649553299	-0.360289096832	-0.0357306003571	1.48707294464	-0.28845500946
0.145407915115	0.840324878693	-0.351454257965	-0.0369000434875	1.48756968975	-0.290740728378
0.142992973328	0.852088451385	-0.337187886238	-0.0367934703827	1.48743128777	-0.292917609215
0.135212659836	0.85909318924	-0.325983166695	-0.0360331535339	1.48670089245	-0.295900583267
0.131827831268	0.858104705811	-0.31837105751	-0.0367605686188	1.48754346371	-0.299081206322
0.130298137665	0.853220701218	-0.312648653984	-0.0373585224152	1.48779904842	-0.300934791565
0.130883693695	0.846215248108	-0.307515859604	-0.0351192951202	1.48882448673	-0.299632072449
0.133094787598	0.838684082031	-0.303693771362	-0.0316114425659	1.48984909058	-0.295749425888
0.1350440979	0.834270477295	-0.301532030106	-0.027012348175	1.48846101761	-0.289718031883
0.136201620102	0.835366249084	-0.299838542938	-0.0218212604523	1.48511087894	-0.283427476883
0.1372153759	0.843110084534	-0.301721096039	-0.017276763916	1.481970191	-0.277805328369
0.134070396423	0.852025032043	-0.310788750648	-0.0142545700073	1.48015809059	-0.272921442986
0.128531455994	0.853606462479	-0.323433756828	-0.0127911567688	1.47829020023	-0.269757270813
0.127769708633	0.84363079071	-0.332424879074	-0.0134932994843	1.47815823555	-0.268986940384
0.130727767944	0.838164329529	-0.332308769226	-0.0160341262817	1.47939932346	-0.270352482796
0.132223129272	0.833022356033	-0.328408718109	-0.0192842483521	1.48107969761	-0.273848414421
0.131400108337	0.828274011612	-0.325605630875	-0.0230412483215	1.48292732239	-0.27728676796
0.130650758743	0.822757005692	-0.326054573059	-0.0265417098999	1.48375093937	-0.279705405235
0.128820896149	0.823905229568	-0.329025030136	-0.0297136306763	1.48405992985	-0.279006481171
0.122845411301	0.830633401871	-0.328641176224	-0.0324046611786	1.48535680771	-0.277307271957
0.117839097977	0.83020401001	-0.320895195007	-0.033921957016	1.48785078526	-0.27649474144
0.114850521088	0.820232868195	-0.311891078949	-0.0367870330811	1.48722910881	-0.276285529137
0.111313581467	0.819280147552	-0.30281162262	-0.0407938957214	1.48564004898	-0.275641202927
0.101453304291	0.831483840942	-0.293537259102	-0.0442049503326	1.48554456234	-0.275225162506
0.088418006897	0.843245267868	-0.285120725632	-0.0460965633392	1.48678636551	-0.274999380112
0.0720901489258	0.843799591064	-0.274441003799	-0.0473139286041	1.48717963696	-0.274655103683
0.055920124054	0.832555055618	-0.260926008224	-0.0480160713196	1.48660886288	-0.275078415871
0.0478501319885	0.819266557693	-0.247627019882	-0.0484025478363	1.48594903946	-0.277492523193
0.0465660095215	0.811527252197	-0.238996505737	-0.048862695694	1.48573744297	-0.281127691269
0.0476124286652	0.793653488159	-0.238496661186	-0.0492663383484	1.48690736294	-0.285371184349
0.0494818687439	0.771023988724	-0.242164492607	-0.0497431755066	1.48771476746	-0.290022850037
0.0503530502319	0.763844490051	-0.243238449097	-0.049852848053	1.48859739304	-0.293010115623
0.050267457962	0.77400970459	-0.243040442467	-0.0491218566895	1.4885225296	-0.293535709381
0.0573308467865	0.776315450668	-0.247430801392	-0.0477499961853	1.4875087738	-0.291258096695
0.0668435096741	0.770958662033	-0.254002094269	-0.0457592010498	1.4867118597	-0.28586435318
0.07581782341	0.765082120895	-0.257081747055	-0.0418367385864	1.48380446434	-0.277610182762
0.0876393318176	0.759823322296	-0.254341244698	-0.0361022949219	1.48032689095	-0.266719818115
0.0949485301971	0.760580062866	-0.246374964714	-0.0295348167419	1.4790365696	-0.253366947174
0.103250265121	0.758192062378	-0.235365867615	-0.0220723152161	1.47831726074	-0.238554477692
0.113706827164	0.748655557632	-0.221960067749	-0.0139720439911	1.47740578651	-0.223468780518
0.123355388641	0.738620281219	-0.208080768585	-0.00604963302612	1.47573959827	-0.210818052292
0.134768724442	0.72446680069	-0.194770336151	0.000854015350342	1.47455322742	-0.202189445496
0.148300170898	0.710041046143	-0.179547071457	0.00527024269104	1.47499513626	-0.198073863983
0.164999961853	0.699874162674	-0.16065621376	0.00837326049805	1.47690665722	-0.199953198433
0.180124282837	0.699854373932	-0.138593435287	0.0114123821259	1.48030984402	-0.20424079895
0.190447092056	0.705016851425	-0.1182949543	0.0135915279388	1.4832546711	-0.208700060844
0.196892023087	0.708054304123	-0.102108001709	0.0157856941223	1.48433613777	-0.212115049362
0.205106973648	0.708136796951	-0.0844037532806	0.0185995101929	1.48508000374	-0.214622974396
0.212469816208	0.714388370514	-0.063592672348	0.0215952396393	1.48558020592	-0.217028617859
0.222203969955	0.728265285492	-0.0409197807312	0.0229094028473	1.48540699482	-0.220111727715
0.242627859116	0.740678071976	-0.0238641500473	0.0232062339783	1.48543941975	-0.225018024445
0.269802808762	0.753611087799	-0.0130558013916	0.0225524902344	1.48624050617	-0.229754924774
0.293074131012	0.773263216019	-0.0111339092255	0.0210320949554	1.48626291752	-0.233640909195
0.314602851868	0.79194188118	-0.0249383449554	0.0199089050293	1.48633563519	-0.237142801285
0.325972795486	0.802619218826	-0.0561761856079	0.0183043479919	1.4863461256	-0.239814996719
0.324235200882	0.79852437973	-0.0965120792389	0.0177133083344	1.48562192917	-0.24227643013
0.315551280975	0.789623260498	-0.133941411972	0.0192065238953	1.48515796661	-0.243393182755
0.310793399811	0.781357526779	-0.165803194046	0.0213327407837	1.48414957523	-0.242310523987
0.306976318359	0.7839448452	-0.191241383553	0.0245079994202	1.4835203886	-0.240189790726
0.28514289856	0.793322086334	-0.209415555	0.0271663665771	1.48226034641	-0.237959861755
0.25276350975	0.788586139679	-0.216910600662	0.0261857509613	1.48016250134	-0.23926782608
0.238121509552	0.771040678024	-0.205469846725	0.0235273838043	1.4809139967	-0.24291741848
0.228793144226	0.762017250061	-0.181074976921	0.0203380584717	1.48229336739	-0.246505737305
0.223649263382	0.755565643311	-0.149685144424	0.0183236598969	1.48105680943	-0.247671842575
0.224403142929	0.745659351349	-0.118233919144	0.0188691616058	1.47996640205	-0.245956540108
0.225774526596	0.744134664536	-0.0880699157715	0.0202329158783	1.47908949852	-0.242224574089
0.223715782166	0.753045558929	-0.0614702701569	0.0205183029175	1.47708535194	-0.239305496216
0.222806215286	0.763807058334	-0.0377194881439	0.0184135437012	1.4767087698	-0.237257242203
0.223762273788	0.774465560913	-0.0151039361954	0.0151076316833	1.47718632221	-0.234761953354
0.227761507034	0.784569263458	0.00232446193695	0.0127143859863	1.47623896599	-0.231756091118
0.228772878647	0.788882017136	0.00861799716949	0.0105159282684	1.47572302818	-0.229845046997
0.228255748749	0.785662174225	0.00559186935425	0.00806713104248	1.47585439682	-0.22976899147
0.227495193481	0.783665418625	-0.00155007839203	0.00715088844299	1.47611796856	-0.231278419495
0.227039337158	0.783917188644	-0.00975131988525	0.00818848609924	1.47627985477	-0.234367012978
0.228541851044	0.782957553864	-0.0192220211029	0.0108489990234	1.47660124302	-0.237765073776
0.230212211609	0.779334068298	-0.0309725999832	0.01336145401	1.47652220726	-0.24172604084
0.233130216599	0.774792194366	-0.0466649532318	0.0153925418854	1.47663211823	-0.245700120926
0.233486413956	0.768723726273	-0.0671536922455	0.0163259506226	1.47681128979	-0.24976849556
0.23473739624	0.76070189476	-0.0889546871185	0.0159945487976	1.47643876076	-0.252578735352
0.237322807312	0.750493764877	-0.107778787613	0.0147385597229	1.47589838505	-0.253231287003
0.239271402359	0.744292020798	-0.115599870682	0.0139837265015	1.47447502613	-0.250703334808
0.241983890533	0.751106500626	-0.106632471085	0.0153386592865	1.4717322588	-0.245888471603
0.241196155548	0.767763137817	-0.0825862884521	0.0182664394379	1.46908903122	-0.241048812866
0.243739843369	0.779769420624	-0.053610086441	0.0211157798767	1.46768593788	-0.238151788712
0.247208118439	0.78270983696	-0.0288562774658	0.0224049091339	1.4675732851	-0.238107681274
0.248448371887	0.78871846199	-0.00850427150726	0.0225577354431	1.46856606007	-0.239995718002
0.247788190842	0.801810979843	0.0149457454681	0.0221209526062	1.46971380711	-0.242899417877
0.250248432159	0.824678421021	0.0427258014679	0.0218086242676	1.47079896927	-0.245226025581
0.252996683121	0.84920334816	0.0670911073685	0.0219938755035	1.47240483761	-0.246120095253
0.257275104523	0.869280099869	0.0869374275208	0.023054599762	1.47275209427	-0.246242761612
0.262387752533	0.883793115616	0.104542016983	0.0232577323914	1.47269546986	-0.246037483215
0.266803264618	0.892164468765	0.12019443512	0.0229506492615	1.47275280952	-0.245651006699
0.270013332367	0.894161224365	0.132364749908	0.023530960083	1.47266197205	-0.245056390762
0.270824670792	0.887375354767	0.136123180389	0.02388048172	1.47309648991	-0.244054913521
0.264612913132	0.874811649323	0.127843856812	0.0236797332764	1.47343456745	-0.24222445488
0.257390975952	0.857560873032	0.111396193504	0.0247473716736	1.47206282616	-0.240398526192
0.25495672226	0.838978528976	0.0904183387756	0.027393579483	1.47011196613	-0.239126801491
0.256161928177	0.82314324379	0.0704075098038	0.0306930541992	1.46874177456	-0.239000558853
0.262790679932	0.813053607941	0.0552598237991	0.0342810153961	1.46740710735	-0.239429354668
0.272100687027	0.809569835663	0.0452752113342	0.0376133918762	1.46512150764	-0.239735484123
0.281060218811	0.810876846313	0.0374569892883	0.0410339832306	1.46291053295	-0.239795207977
0.290204763412	0.812745571136	0.0298640727997	0.0430860519409	1.46316492558	-0.240495443344
0.30352973938	0.809727430344	0.020182967186	0.0422251224518	1.46392309666	-0.242794275284
0.315941095352	0.805114984512	0.0106065273285	0.0405604839325	1.46538567543	-0.245893478394
0.323829889297	0.803035497665	0.00316381454468	0.0392680168152	1.46760976315	-0.249556303024
0.330132961273	0.804231405258	-0.00342202186584	0.0392916202545	1.46987235546	-0.253265142441
0.330625534058	0.807244300842	-0.00941324234009	0.0398142337799	1.47065377235	-0.256507396698
0.327267408371	0.810519933701	-0.0143287181854	0.0408599376678	1.47074317932	-0.259372591972
0.321042537689	0.811559200287	-0.0185675621033	0.0424683094025	1.47123837471	-0.262034893036
0.3229637146	0.813217878342	-0.0222328901291	0.0433416366577	1.470739007	-0.264849901199
0.332145690918	0.820534944534	-0.0294506549835	0.043933391571	1.4712562561	-0.266847729683
0.335858345032	0.82662820816	-0.0458962917328	0.0455842018127	1.47319173813	-0.267710447311
0.321640729904	0.821830034256	-0.0704981088638	0.04820561409	1.4749931097	-0.267127275467
0.285403490067	0.802304267883	-0.0986983776093	0.0511846542358	1.47842299938	-0.267303586006
0.254877328873	0.786464929581	-0.123574256897	0.0547533035278	1.48273706436	-0.269933462143
0.232027053833	0.784690141678	-0.136376976967	0.0577478408813	1.48845922947	-0.275041818619
0.212297916412	0.79283952713	-0.138736248016	0.059191942215	1.49647462368	-0.281438589096
0.192253351212	0.805032730103	-0.139126300812	0.0589215755463	1.50444185734	-0.288407921791
0.173804998398	0.812671422958	-0.143463492393	0.0575685501099	1.51124644279	-0.294775009155
0.161519050598	0.80880856514	-0.151228070259	0.0558218955994	1.51566815376	-0.300467967987
0.150515556335	0.803120613098	-0.160402536392	0.0543723106384	1.51883029938	-0.304890036583
0.144617795944	0.805817842484	-0.168039083481	0.0527610778809	1.52397429943	-0.307838201523
0.142739057541	0.808984041214	-0.175141215324	0.0504732131958	1.53302371502	-0.308774352074
0.140180587769	0.809374332428	-0.182237625122	0.0477774143219	1.54091250896	-0.30871629715
0.136956691742	0.808845758438	-0.188672780991	0.0469284057617	1.54406535625	-0.308709740639
0.133075714111	0.811411857605	-0.192433834076	0.0466520786285	1.53982877731	-0.307741999626
0.130044460297	0.81326341629	-0.195250868797	0.0408871173859	1.53625357151	-0.305142879486
0.123737335205	0.813488006592	-0.198654174805	0.0424048900604	1.53651928902	-0.30696117878
0.117151498795	0.816189050674	-0.20082950592	0.0412969589233	1.53756189346	-0.312670826912
0.114631652832	0.821287631989	-0.201182842255	0.0303149223328	1.54106664658	-0.318088769913
0.112580537796	0.827086687088	-0.200196743011	0.0169355869293	1.54523801804	-0.325917124748
0.114406108856	0.834187507629	-0.19709944725	0.00447344779968	1.54772675037	-0.332414865494
0.125468254089	0.838569641113	-0.196040153503	-0.00639843940735	1.54675245285	-0.336748838425
0.130873918533	0.844251871109	-0.193957567215	-0.0154848098755	1.5461820364	-0.338366270065
0.128385543823	0.865372180939	-0.185575962067	-0.0234639644623	1.54647862911	-0.336728334427
0.119148731232	0.918443441391	-0.177221417427	-0.0303907394409	1.54666244984	-0.332245111465
0.126446485519	0.908318519592	-0.17355799675	-0.03426861763	1.54607892036	-0.326941251755
0.135046720505	0.842361927032	-0.182347178459	-0.0341699123383	1.54463684559	-0.320417284966
0.126824140549	0.88498210907	-0.168146252632	-0.0311589241028	1.54366624355	-0.310749769211
0.0965993404388	0.931822299957	-0.162374734879	-0.028178691864	1.54260718822	-0.301670789719
0.110935688019	0.869343519211	-0.168298363686	-0.026490688324	1.54211723804	-0.296123743057
0.0939652919769	0.864234685898	-0.167021751404	-0.0273649692535	1.54125189781	-0.291575431824
0.07967877388	0.895604133606	-0.16829252243	-0.0304956436157	1.54020810127	-0.290329694748
0.0855047702789	0.883590698242	-0.173533916473	-0.0336599349976	1.54186308384	-0.293074369431
0.0472030639648	0.89292883873	-0.173735976219	-0.0365443229675	1.5439555645	-0.294856548309
0.0388028621674	0.934046983719	-0.168656587601	-0.0382125377655	1.54661107063	-0.296464204788
0.0908365249634	0.901371717453	-0.161420226097	-0.0403113365173	1.5492452383	-0.299337387085
0.0667366981506	0.883698940277	-0.169115543365	-0.0421509742737	1.55109298229	-0.301549315453
0.0674571990967	0.885473966599	-0.174022197723	-0.0434076786041	1.55052876472	-0.305778980255
0.0900363922119	0.867954730988	-0.173483967781	-0.0444858074188	1.55018532276	-0.310477495193
0.0751764774323	0.881937265396	-0.176241874695	-0.0450909137726	1.54769420624	-0.31554889679
0.0683069229126	0.884043216705	-0.18262553215	-0.0459523200989	1.54419577122	-0.3195104599
0.0653870105743	0.887606620789	-0.19029545784	-0.0462999343872	1.54069519043	-0.320326805115
0.0581865310669	0.887668848038	-0.202179670334	-0.0471482276917	1.53430640697	-0.319461345673
0.0568187236786	0.88239812851	-0.211151957512	-0.048618555069	1.52845931053	-0.317558765411
0.0614655017853	0.875675678253	-0.21476650238	-0.0496699810028	1.52422499657	-0.316454052925
0.0713832378387	0.870160341263	-0.210553407669	-0.0511481761932	1.52066087723	-0.317903518677
0.0834341049194	0.872907161713	-0.201099157333	-0.0554025173187	1.51979446411	-0.32086288929
0.0957975387573	0.877779006958	-0.192640066147	-0.0605375766754	1.52084672451	-0.322795033455
