0.324154376984	1.29914808273	-0.266724467278	-0.115989923477	1.55450820923	-0.293003559113
0.322990655899	1.29816365242	-0.266318559647	-0.117809772491	1.5546309948	-0.292857170105
0.320968866348	1.29695081711	-0.264870166779	-0.120004892349	1.55460047722	-0.291942119598
0.315728187561	1.28826451302	-0.260999083519	-0.122081279755	1.55392122269	-0.291400909424
0.295310735703	1.25172615051	-0.254246234894	-0.122926712036	1.55025064945	-0.292450666428
0.255780220032	1.20077109337	-0.239842176437	-0.120581865311	1.54485702515	-0.294494390488
0.197429656982	1.16341173649	-0.221166610718	-0.11255979538	1.54114592075	-0.296220541
0.12907910347	1.14935290813	-0.204349040985	-0.101163387299	1.53981328011	-0.297038435936
0.086462020874	1.14942371845	-0.193936109543	-0.0895655155182	1.53592705727	-0.297036886215
0.0632650852203	1.14559853077	-0.192220211029	-0.0782518386841	1.53402388096	-0.297991037369
0.0482375621796	1.13523089886	-0.190514922142	-0.0661973953247	1.53474259377	-0.300947785378
0.0354955196381	1.11967742443	-0.186085224152	-0.0531821250916	1.53488361835	-0.305818915367
0.0205812454224	1.10495460033	-0.184745669365	-0.040337562561	1.53178119659	-0.312502503395
0.0122880935669	1.10467624664	-0.186673521996	-0.0307097434998	1.5304775238	-0.318985462189
0.0128908157349	1.10833489895	-0.184517621994	-0.0228772163391	1.5308599472	-0.329165816307
0.0185000896454	1.11667227745	-0.179242134094	-0.0173375606537	1.53326046467	-0.343242645264
0.0198426246643	1.12260580063	-0.177207231522	-0.0129837989807	1.53626787663	-0.353785514832
0.0155301094055	1.11971783638	-0.180727243423	-0.00905847549438	1.53588461876	-0.359358906746
0.0156562328339	1.11208379269	-0.185940027237	-0.00486159324646	1.53109252453	-0.358079314232
0.031905412674	1.10296487808	-0.18525660038	0.00603437423706	1.54073083401	-0.355716943741
0.0510051250458	1.08959627151	-0.17983341217	0.0157198905945	1.55731701851	-0.359058856964
0.0624670982361	1.09406542778	-0.173429965973	0.0133526325226	1.55938386917	-0.352644681931
0.061329126358	1.10053515434	-0.168061733246	0.00551509857178	1.5520298481	-0.34021282196
0.0574715137482	1.10587513447	-0.164137721062	-0.00407409667969	1.5498458147	-0.327063679695
0.0568904876709	1.09604609013	-0.161181688309	-0.0061674118042	1.5446485281	-0.315527558327
0.0601155757904	1.08142721653	-0.159057974815	-0.00202178955078	1.5390611887	-0.302987098694
0.0741009712219	1.07863974571	-0.151994228363	0.00249290466309	1.53417181969	-0.286879181862
0.101442098618	1.06250119209	-0.142905712128	0.00567674636841	1.52065122128	-0.267674922943
0.116263628006	1.0418639183	-0.143895149231	0.0116603374481	1.51105058193	-0.25367808342
0.11426949501	1.0345594883	-0.153564691544	0.00925374031067	1.50430417061	-0.247945308685
0.104561090469	1.02831697464	-0.166476488113	-0.00172352790833	1.50210547447	-0.252306938171
0.0936896800995	1.03294801712	-0.176236867905	-0.0148701667786	1.50577116013	-0.262122392654
0.0918939113617	1.04426383972	-0.177178859711	-0.0263543128967	1.50259816647	-0.275769948959
0.0984499454498	1.06635308266	-0.169872760773	-0.0317664146423	1.49544608593	-0.28976893425
0.115886926651	1.09936451912	-0.156892538071	-0.0367081165314	1.49085235596	-0.303526997566
0.142210245132	1.13159763813	-0.146078824997	-0.0425236225128	1.4867054224	-0.315415740013
0.168218135834	1.16505861282	-0.143353939056	-0.052116394043	1.48604333401	-0.320903658867
0.182327270508	1.17043149471	-0.148605823517	-0.0619728565216	1.50309455395	-0.322224378586
0.15060710907	1.08961772919	-0.145596265793	-0.0666220188141	1.51771461964	-0.322674155235
0.109128236771	1.01074337959	-0.156059503555	-0.0654330253601	1.52003884315	-0.321088075638
0.0708703994751	1.00707173347	-0.158982038498	-0.0597085952759	1.51957952976	-0.317481040955
0.0518853664398	1.01036262512	-0.153467655182	-0.0512216091156	1.51860129833	-0.316420078278
0.0475916862488	1.01159739494	-0.149123907089	-0.044385433197	1.5189589262	-0.316477775574
0.0585775375366	1.01340699196	-0.144787073135	-0.0411570072174	1.51905977726	-0.317290782928
0.0751478672028	1.02013349533	-0.139192819595	-0.0421323776245	1.5158251524	-0.318647861481
0.091245174408	1.0324845314	-0.134961843491	-0.0447292327881	1.51415479183	-0.320801496506
0.104475736618	1.03598952293	-0.132804632187	-0.0459733009338	1.51903295517	-0.322521209717
0.106933832169	1.03254580498	-0.133640289307	-0.0412919521332	1.52646064758	-0.323487639427
0.103406906128	1.03040719032	-0.135514974594	-0.0306911468506	1.52951157093	-0.3246281147
0.0951359272003	1.02793598175	-0.138583421707	-0.0194969177246	1.5296318531	-0.324533700943
0.0868437290192	1.02285552025	-0.144167423248	-0.00893259048462	1.52959799767	-0.324242591858
0.0890398025513	1.00866365433	-0.149879932404	-0.00168609619141	1.52805483341	-0.325105309486
0.0962059497833	0.994444608688	-0.15320110321	0.00270819664001	1.52717852592	-0.327366352081
0.10711479187	0.977522611618	-0.155625104904	0.0050528049469	1.52671468258	-0.329918384552
0.112494945526	0.965005397797	-0.152820587158	0.0051589012146	1.52400898933	-0.330176830292
0.111199140549	0.959491252899	-0.148463726044	0.00484585762024	1.52061271667	-0.326907157898
0.100862026215	0.95650434494	-0.146576762199	0.0045645236969	1.51889848709	-0.322414636612
0.0855398178101	0.943126440048	-0.151621580124	0.00421476364136	1.51830852032	-0.318444371223
0.0687277317047	0.915050268173	-0.165652513504	0.00346517562866	1.51722300053	-0.315507411957
0.0594089031219	0.880705595016	-0.180686712265	0.00154185295105	1.51628994942	-0.313601016998
0.0595874786377	0.849172115326	-0.192582130432	-0.00187063217163	1.51436293125	-0.313473701477
0.0616364479065	0.844188213348	-0.197524309158	-0.00599932670593	1.51365685463	-0.315189361572
0.0654394626617	0.85302901268	-0.193856358528	-0.00935482978821	1.5147459507	-0.317979812622
0.0720684528351	0.856620550156	-0.187695741653	-0.0112760066986	1.51633608341	-0.321155548096
0.0767195224762	0.861414670944	-0.179757595062	-0.0141756534576	1.51748788357	-0.3219871521
0.0797557830811	0.868666648865	-0.170641899109	-0.0184891223907	1.51762294769	-0.319371461868
0.0799508094788	0.880085706711	-0.162924528122	-0.0214397907257	1.51769530773	-0.315757036209
0.0803542137146	0.887638092041	-0.162797212601	-0.024002790451	1.51797676086	-0.312413215637
0.0817384719849	0.888389110565	-0.167090177536	-0.0289676189423	1.51659739017	-0.309609413147
