-3.98745560646	-33.3696022034	133.226501465	0.81437754631	4.66355752945	-4.99216747284
-3.92310810089	-33.6802978516	132.895431519	0.962911128998	4.83275651932	-4.92564868927
-4.06733131409	-33.3567008972	133.716781616	0.955305755138	5.01997756958	-4.83456611633
-4.01068305969	-33.362663269	132.414825439	0.842658281326	4.71913433075	-4.77975845337
-2.79557275772	-34.5999641418	119.916648865	0.180834650993	4.35193634033	-4.40470218658
-5.62852907181	-29.3438911438	117.804000854	-6.15355920792	3.40635061264	-2.49532341957
-12.8531503677	-25.7985115051	125.913162231	-17.9465827942	2.66735744476	0.155151084065
-13.1427593231	-26.1256160736	110.934043884	-24.5937976837	2.91486620903	1.37562060356
-12.9736042023	-26.6121807098	100.232658386	-23.9738044739	3.87796974182	1.48997688293
-10.9875268936	-28.8849544525	84.8879470825	-23.7034988403	3.99186038971	1.69171464443
-6.60793590546	-27.36028862	62.6800231934	-23.4922428131	4.34000587463	1.60887920856
-2.72698068619	-24.7899074554	43.9368057251	-22.458147049	4.54286909103	1.45767211914
-3.86652994156	-25.8241386414	53.362991333	-22.2347679138	4.35922193527	1.28146839142
-5.78070259094	-27.756357193	71.6528244019	-22.1842899323	4.07396697998	1.03328955173
-3.02350401878	-26.9478130341	72.3745880127	-21.2337989807	3.44036149979	0.482756525278
-1.63189291954	-27.4358234406	72.4914169312	-21.3496818542	1.87040638924	0.390557825565
