-59.2127876282	-74.9958724976	135.877059937	4.28862953186	2.89760899544	-1.96870791912
-59.0677452087	-75.1465988159	135.506256104	4.25763368607	2.80218315125	-2.17152762413
-57.086025238	-75.2011184692	133.006988525	3.92972421646	3.20259475708	-2.48087239265
-54.1729354858	-75.9434127808	127.182693481	3.34187650681	3.81832027435	-2.60785937309
-41.9702835083	-79.4363479614	105.639854431	1.86305248737	3.4130179882	-2.39870524406
-27.846654892	-78.1248092651	81.2296981812	-2.83043646812	0.763884961605	-1.46812617779
-26.0937900543	-73.4176330566	70.8909759521	-10.2142868042	-3.22636699677	0.267539978027
-28.0653934479	-69.6474914551	67.1371002197	-15.5403709412	-5.13929796219	1.80402445793
-28.8829174042	-68.3846588135	67.0000228882	-17.5863723755	-6.37130641937	2.76004362106
-30.277923584	-67.5097122192	68.9702301025	-16.7796630859	-7.77986955643	1.6637070179
-29.4941883087	-68.0517349243	67.1427536011	-15.6035060883	-7.57450723648	1.07739496231
-29.0224971771	-67.7146224976	65.104598999	-16.712978363	-8.0434551239	1.10416519642
-28.7096843719	-67.188293457	65.1099395752	-18.1154460907	-8.4426574707	0.68720293045
-41.8171348572	-67.7644958496	86.0552597046	-18.0410289764	-8.46085834503	0.0996043458581
-50.8668060303	-63.5624008179	115.453170776	-17.5934867859	-7.69415855408	-0.395068645477
-55.0809020996	-63.0469436646	128.918884277	-17.104385376	-7.2944149971	-1.03608477116
-55.9759712219	-63.0223350525	134.073257446	-17.1940498352	-7.40187835693	-1.45795500278
-54.2915687561	-64.4792098999	133.725067139	-18.0372829437	-7.8166680336	-1.33754730225
-52.3094062805	-66.8964233398	131.08934021	-18.5486526489	-8.57059001923	-1.30210483074
-46.0570640564	-69.6732788086	124.81224823	-18.2947368622	-9.24078845978	-1.70201385021
-30.7297821045	-71.4961471558	107.170593262	-17.8200645447	-9.40099620819	-1.72401201725
-26.0796794891	-71.0835647583	102.145225525	-17.9895858765	-9.68144798279	-1.62073755264
-20.6132640839	-70.9869918823	96.1689453125	-18.3886127472	-9.92936897278	-1.41634619236
-9.95159053802	-68.9703521729	83.659866333	-18.8904819489	-10.0502328873	-1.43212461472
-1.56433880329	-65.7675857544	72.9398193359	-19.1121006012	-10.4061746597	-1.54420351982
-4.63226032257	-63.3636474609	75.6709365845	-18.6892242432	-10.0747413635	-1.79673171043
-13.5256261826	-63.1482849121	85.6817550659	-18.112663269	-9.06725025177	-1.7929610014
-16.7800655365	-64.7511291504	90.385269165	-18.6658039093	-8.32099914551	-1.14406704903
-16.6668720245	-65.6649932861	90.3253555298	-20.3385295868	-8.50198745728	0.258269757032
-16.7382602692	-65.8332748413	90.0010375977	-21.3466625214	-8.44955921173	1.62405228615
-16.7242774963	-66.7335891724	89.4508666992	-21.0258197784	-6.22908878326	4.68065881729
-15.5965547562	-67.5818481445	88.0817871094	-19.5450496674	-5.28639698029	9.28736019135
-14.5011253357	-67.8965301514	87.1629104614	-14.3437318802	-8.13225841522	11.4516735077
-13.8021087646	-66.9580078125	86.0816116333	-9.92539024353	-12.5281324387	10.3905296326
-12.0388708115	-66.1654891968	84.4196014404	-10.37413311	-13.2708101273	10.2839241028
-10.0300703049	-65.4994354248	82.870300293	-13.1836013794	-16.5510234833	9.82116889954
-6.00292682648	-63.755279541	79.779914856	-14.4671573639	-19.8044261932	7.74584817886
0.458577394485	-63.6129226685	74.5501251221	-11.8163747787	-19.190618515	4.10368251801
-2.44061613083	-64.4224395752	78.157661438	-8.8985824585	-15.189748764	0.178576812148
0.850300192833	-67.7844009399	71.5462112427	-10.4030370712	-10.6979942322	-0.477925091982
4.18274736404	-64.7023391724	61.8663482666	-12.5962877274	-9.17930412292	-0.412062704563
0.87861597538	-64.6588973999	65.0210342407	-13.5415773392	-9.39035415649	-0.103621572256
-3.09619998932	-66.4680480957	68.9436416626	-14.5350914001	-8.64244270325	0.503564119339
-7.90653610229	-68.5223922729	76.3406219482	-15.3722486496	-8.04493999481	1.47707104683
-22.7364807129	-68.647605896	97.0904769897	-16.413728714	-8.00999832153	2.37562727928
-39.7103424072	-67.6694335938	122.386123657	-16.9032554626	-8.67526054382	2.73704862595
-46.8224563599	-67.3268280029	132.010055542	-16.3512935638	-9.23111629486	2.04501843452
0.360755264759	-74.5915374756	62.5010452271	-15.9320669174	-9.34613895416	1.75395190716
8.73099422455	-71.6235656738	49.9524841309	-16.1746902466	-9.6919593811	1.42618012428
6.39758014679	-70.3824539185	51.126121521	-16.8089828491	-9.81358623505	1.11259424686
-0.154053837061	-71.1794128418	57.3275527954	-17.5147075653	-9.53846740723	0.990783691406
-7.2060585022	-72.1448669434	66.6681213379	-17.4963378906	-9.27287387848	0.78835773468
-7.82333803177	-72.9674453735	68.9236831665	-17.912940979	-9.49523639679	0.993526697159
-16.5118274689	-74.7939071655	80.1865692139	-18.5456867218	-9.47223472595	0.997406482697
-21.1477279663	-79.5831756592	80.3916702271	-19.5537281036	-9.01062774658	1.10520589352
3.67180275917	-80.3108444214	48.5308570862	-19.7625160217	-8.49458122253	1.29301655293
3.47633051872	-77.3622817993	46.3836898804	-19.2071075439	-7.84174919128	1.56570851803
4.58080339432	-74.4903793335	43.006942749	-18.8288574219	-7.22556352615	2.16459298134
3.73288917542	-73.8025741577	43.0936355591	-18.8982830048	-6.43529939651	2.6761674881
3.75859737396	-74.0668563843	43.1938400269	-18.2845783234	-5.34870100021	2.65191650391
-3.76239109039	-73.014793396	48.6422309875	-16.9822978973	-3.38747811317	2.61858558655
-9.12432575226	-71.6163024902	50.5636138916	-16.2471256256	-2.00479054451	2.34752893448
-9.28921604156	-70.2753448486	47.8859634399	-15.7252635956	-1.40566861629	2.01694202423
-7.35726547241	-69.0427322388	41.6370315552	-14.7436380386	-1.30284559727	1.60151290894
-5.63215351105	-67.4361343384	33.6791305542	-13.9692268372	-0.773595392704	1.19766414165
-5.55581235886	-65.4271316528	27.623260498	-13.7943096161	-0.251758575439	1.19515240192
-5.50370740891	-63.0467300415	20.5525722504	-14.0159282684	-0.491688966751	1.22941112518
-5.52093982697	-60.8420143127	15.6413602829	-14.324593544	-0.712020993233	1.32978355885
-6.35086488724	-59.4031982422	13.4939231873	-14.271935463	-0.313299298286	1.36414372921
-7.14142942429	-58.4734573364	13.0039596558	-13.9553012848	-0.132839545608	1.05417668819
-5.70677280426	-56.9270362854	11.1670322418	-13.6291837692	-0.263693869114	1.10015702248
-5.48400640488	-55.433971405	10.4247665405	-13.6925878525	-0.185539022088	1.69872689247
-5.63343715668	-54.8438072205	10.4961833954	-14.1154546738	0.375810682774	2.13390302658
-10.6036090851	-56.8586425781	20.5659275055	-14.0890607834	0.556854367256	2.13681364059
-25.1699466705	-58.8348045349	47.4011192322	-13.4447965622	0.149653926492	1.66014802456
-22.3394756317	-58.7916946411	44.9685516357	-12.9527721405	-0.156862482429	1.3952640295
-22.239522934	-60.592250824	44.010383606	-12.909491539	-0.80957454443	1.06992006302
-24.4529075623	-61.4455871582	45.8133239746	-12.9418544769	-1.38015663624	0.844228863716
-26.4110832214	-60.9853210449	48.0152359009	-13.1951150894	-2.2130408287	0.911280035973
-26.3764896393	-61.3774490356	47.380657196	-13.3421363831	-3.43518924713	1.08950269222
-25.7254047394	-62.0995178223	45.5374259949	-13.4710054398	-4.26490497589	1.28842282295
-25.5248279572	-62.0652084351	44.8686904907	-13.9208688736	-4.38826465607	1.76581180096
-25.136390686	-61.8880844116	43.9589729309	-14.2741031647	-4.43251085281	2.00679850578
-25.5344009399	-62.4060630798	44.397769928	-14.1951808929	-4.7086853981	1.99099707603
-25.7613182068	-62.6259231567	44.3942604065	-14.0985488892	-5.24352073669	1.96482658386
-26.8012371063	-62.5831718445	45.0224990845	-14.0437116623	-5.71337032318	2.0658493042
-27.1816158295	-62.9041099548	45.4067840576	-14.1463403702	-5.72427082062	2.27276420593
-27.6158390045	-63.5160751343	45.9028244019	-14.3508167267	-5.15466690063	2.55425786972
-28.5141906738	-63.9385528564	46.9344177246	-14.5708856583	-4.95405673981	3.03686213493
-29.7051544189	-63.4025650024	48.2401428223	-14.4021892548	-5.90657043457	3.26635289192
-30.5754871368	-62.0252304077	48.6933898926	-14.175450325	-7.48594999313	3.05758309364
-31.1368751526	-61.950881958	48.3755607605	-14.3273267746	-9.41699504852	2.83652710915
-32.0140419006	-62.7704849243	48.8192062378	-15.2392225266	-9.18377399445	2.97225570679
-32.9191818237	-63.5288505554	49.595664978	-15.8119096756	-8.1127986908	2.83734202385
-34.5301399231	-63.9811630249	51.3333053589	-15.6974458694	-8.08306598663	2.30674648285
-38.029094696	-65.9685440063	56.4753799438	-16.1227855682	-8.13962554932	1.96729767323
-48.0405960083	-68.9237213135	71.4847793579	-16.3740367889	-7.43922328949	1.95781052113
-53.3745574951	-72.7729721069	77.3692092896	-16.3642272949	-6.29156351089	1.98619806767
-55.7274894714	-74.1243591309	80.5996780396	-15.9239349365	-6.13674545288	1.4730297327
-53.4449691772	-73.8989105225	78.0739212036	-15.4324893951	-7.16827106476	0.596590399742
-63.666519165	-73.7334289551	90.2561187744	-15.5101203918	-8.000041008	0.329565376043
-87.8108901978	-69.7061920166	121.438774109	-15.9042520523	-8.28126525879	0.275162667036
-95.6221847534	-68.0194168091	131.907867432	-15.8981218338	-8.11041069031	0.100395940244
-99.8062973022	-67.5250473022	137.849075317	-15.7045221329	-7.85451745987	-0.0808287411928
-100.494796753	-67.5293960571	138.988327026	-16.1413021088	-8.10107326508	-0.0254373345524
-102.010856628	-67.3349304199	141.775390625	-16.6878204346	-8.95582580566	0.30204898119
-106.035705566	-68.6185302734	147.157562256	-17.1920967102	-9.67184066772	0.599867165089
-110.687889099	-68.6506881714	152.579055786	-17.5528259277	-9.91836166382	0.835574030876
-107.581886292	-70.8953933716	147.953536987	-17.8255233765	-9.8863363266	1.00306463242
-101.564697266	-73.957359314	136.8540802	-17.743598938	-9.66409301758	1.12878108025
-80.7121276855	-77.7824020386	107.234306335	-17.7418689728	-9.3046579361	1.17920720577
-84.3566741943	-75.5935134888	110.444549561	-17.9205608368	-8.93909263611	1.08389306068
-81.6601333618	-75.4931945801	107.445419312	-18.0875549316	-8.8712310791	0.773108661175
-76.0237045288	-75.8064193726	101.327690125	-18.1581192017	-9.23044967651	0.292279571295
-68.3645553589	-76.1961212158	92.3087997437	-18.1693954468	-9.66027355194	-0.0516687370837
-67.4707946777	-76.3518295288	90.9301528931	-18.3757896423	-9.84482288361	-0.373843163252
-67.34349823	-76.5874176025	90.7568664551	-18.557182312	-9.53553581238	-0.415301173925
-67.1802978516	-76.7349853516	90.8618240356	-18.7290458679	-9.32910728455	-0.44051361084
-67.568649292	-76.5506744385	91.489616394	-18.6468067169	-9.727643013	-0.414369791746
