0.0	-0.0	132.517120361	-144.448471069	82.9028167725	143.996902466
0.0	-0.0	130.988098145	-144.565353394	82.7919845581	144.044509888
0.0	-0.0	130.246002197	-144.481246948	82.2257766724	144.198150635
0.0	-0.0	128.93069458	-144.222595215	82.2100448608	144.600631714
0.0	-0.0	128.796447754	-144.218002319	82.7138671875	145.125183105
0.0	-0.0	127.420387268	-143.842895508	86.8636398315	145.755157471
0.0	-0.0	95.1312637329	40.3325996399	79.7305603027	-32.7531814575
0.0	-0.0	55.5034141541	47.5988807678	63.60389328	-30.8885765076
0.0	-0.0	62.4993743896	54.9160804749	43.8261184692	-27.8349113464
