0.130730390549	1.34001278877	-0.209128856659	0.0587556362152	1.622651577	-0.388743519783
0.130201339722	1.33989810944	-0.209078907967	0.0585622787476	1.62259268761	-0.387835741043
0.130979537964	1.33983099461	-0.20952963829	0.0584423542023	1.62260663509	-0.388033151627
0.13187122345	1.33926260471	-0.209227085114	0.058700799942	1.62262427807	-0.387951016426
0.13197016716	1.33874940872	-0.209982156754	0.0591289997101	1.62272679806	-0.386933207512
0.132695436478	1.33797824383	-0.21087539196	0.0628907680511	1.6265963316	-0.385669231415
0.135219573975	1.3357180357	-0.207785129547	0.0683400630951	1.63191497326	-0.385797739029
0.137512683868	1.33360636234	-0.204603910446	0.0738582611084	1.63523006439	-0.385481476784
0.137375593185	1.33116447926	-0.20185148716	0.0794358253479	1.63586115837	-0.384633779526
0.135766029358	1.32722437382	-0.196145296097	0.0831151008606	1.63643813133	-0.383261084557
