0.0	-0.0	134.514389038	-135.835189819	78.2745513916	159.121154785
0.0	-0.0	134.368057251	-136.512435913	77.4661178589	159.18548584
0.0	-0.0	134.498748779	-136.741882324	76.9158248901	159.454391479
0.0	-0.0	131.941864014	-137.198577881	76.6220626831	159.769393921
0.0	-0.0	105.152053833	-137.835876465	77.369354248	160.598739624
0.0	-0.0	70.5635299683	-137.847305298	80.9038314819	161.639343262
0.0	-0.0	86.8865814209	43.7330932617	89.6530761719	-16.552438736
0.0	-0.0	105.985778809	48.1382331848	74.218132019	-13.0425806046
0.0	-0.0	131.02986145	52.5118751526	64.7052383423	-9.86531066895
0.0	-0.0	122.521385193	53.4434280396	66.1114807129	-10.181265831
0.0	-0.0	112.870124817	51.3279838562	74.08959198	-10.9069185257
0.0	-0.0	108.713088989	49.5825309753	74.573348999	-9.83313846588
0.0	-0.0	101.668365479	52.1419143677	61.2659683228	-7.78261041641
0.0	-0.0	94.0247497559	56.8685951233	47.6690444946	-6.42147684097
0.0	-0.0	104.864311218	60.9125137329	42.0139846802	-6.7698507309
0.0	-0.0	104.375579834	66.1346054077	38.9264717102	-8.53079319
0.0	-0.0	112.865821838	71.7423324585	35.7759895325	-10.8880691528
0.0	0.0	-79.3185806274	73.0869369507	32.1212806702	-11.6498012543
0.0	0.0	-102.662590027	73.9098510742	30.1840019226	-11.9789810181
0.0	0.0	-101.86631012	72.5774841309	32.2719268799	-11.148853302
0.0	-0.0	103.433555603	69.8274154663	34.0389251709	-10.1360006332
0.0	-0.0	83.7935256958	67.5218353271	34.4838943481	-8.86730098724
0.0	-0.0	85.1991195679	67.339553833	35.5613746643	-8.69897556305
0.0	-0.0	83.6749572754	66.9113464355	37.6970596313	-7.53868579865
0.0	-0.0	83.6802978516	67.0897903442	38.1269836426	-7.96466684341
0.0	-0.0	83.9732131958	67.0744552612	38.3314628601	-8.39955329895
0.0	-0.0	86.8958511353	67.1205749512	38.933013916	-8.72222995758
0.0	-0.0	95.1140823364	66.4619750977	38.9469108582	-8.35251140594
0.0	-0.0	132.196166992	66.0855941772	39.0711555481	-8.08825874329
0.0	-0.0	171.577636719	66.555267334	39.1424789429	-8.14712810516
0.0	-0.0	-176.014831543	67.5083999634	39.0883522034	-8.17519283295
0.0	-0.0	177.591262817	68.594039917	38.179145813	-8.15774059296
0.0	-0.0	176.840591431	68.1480331421	37.0899810791	-7.58654165268
0.0	-0.0	-174.947769165	68.0279769897	37.1637153625	-7.65113162994
0.0	-0.0	-166.592834473	68.785369873	39.2595176697	-8.43615722656
0.0	-0.0	-170.93208313	70.53175354	39.5918197632	-9.27690410614
0.0	-0.0	168.984176636	69.1037368774	33.81798172	-8.93121910095
0.0	-0.0	141.247528076	67.1792907715	28.8379611969	-7.86197805405
0.0	-0.0	122.224075317	68.2265625	26.5271282196	-7.43687295914
0.0	-0.0	111.036506653	69.5321960449	28.5939273834	-8.32496643066
0.0	-0.0	106.65045166	70.3385314941	30.8032741547	-7.93500518799
0.0	-0.0	98.7458114624	70.3254089355	30.6600837708	-7.89816331863
0.0	-0.0	93.859992981	70.9472198486	30.1691551208	-7.90164089203
0.0	-0.0	89.9060821533	72.6470870972	34.5660018921	-8.19378852844
0.0	-0.0	92.6438522339	73.9000320435	41.800163269	-7.66221618652
0.0	-0.0	93.5047454834	72.8221893311	45.2038574219	-6.50482606888
0.0	-0.0	95.5919113159	71.2637405396	43.9496154785	-6.67245912552
0.0	-0.0	96.5220413208	71.7345504761	40.8823242188	-8.17371273041
0.0	-0.0	101.384513855	75.0058898926	39.3936271667	-10.7638692856
0.0	-0.0	104.003051758	87.261100769	41.697177887	-13.8015089035
0.0	-0.0	107.583953857	108.973121643	48.492099762	-14.7512044907
0.0	-0.0	108.577148438	122.345603943	54.0444946289	-9.90964221954
0.0	-0.0	107.366729736	123.064285278	55.2953910828	-5.55769777298
0.0	-0.0	101.60282135	116.806480408	52.3865470886	-3.38066673279
0.0	-0.0	97.059463501	113.608451843	48.8413581848	-1.84046781063
0.0	-0.0	97.0964279175	114.043952942	46.3659057617	-1.7988820076
0.0	-0.0	99.1977920532	111.430038452	44.9365348816	-2.40329003334
0.0	-0.0	102.443687439	104.643028259	43.1867446899	-2.6152112484
0.0	-0.0	104.092933655	98.4148712158	42.0308189392	-2.5408642292
0.0	-0.0	104.2915802	93.2945022583	42.578704834	-2.50112581253
0.0	-0.0	103.275588989	79.3194122314	38.6627044678	-1.93932521343
0.0	-0.0	101.499710083	50.3630638123	32.2345733643	-1.86894345284
0.0	-0.0	99.3425064087	2.39614105225	35.1758346558	-0.66474878788
0.0	-0.0	99.5427322388	-25.6091537476	45.6688766479	1.67120563984
0.0	-0.0	102.621192932	-33.4802055359	55.9096221924	4.71659517288
0.0	-0.0	104.021018982	-33.2755203247	59.571685791	6.08112239838
0.0	-0.0	100.557060242	-31.1998672485	60.9386329651	5.59496307373
0.0	-0.0	100.404319763	-16.4492530823	60.5124397278	4.5674123764
0.0	-0.0	99.7730255127	11.4743022919	56.2257957458	1.13724112511
0.0	-0.0	97.8245773315	46.2267303467	47.9136695862	-4.9458026886
0.0	-0.0	94.5268173218	75.4898605347	42.5703926086	-10.869146347
0.0	-0.0	91.675239563	90.1036605835	40.3926963806	-14.6372413635
0.0	-0.0	88.0330657959	93.2293701172	37.5817909241	-15.4895191193
0.0	-0.0	85.3233718872	95.7553253174	31.7253131866	-16.843334198
0.0	-0.0	82.5445709229	95.2950668335	27.3120250702	-16.5306491852
