0.107567548752	1.01920461655	0.0196750164032	0.0276064872742	1.60680878162	-0.371331214905
0.102525472641	1.01057720184	0.0133410692215	0.0270125865936	1.60459959507	-0.37012386322
0.09752368927	1.00460505486	0.00448441505432	0.0253851413727	1.60064685345	-0.369748353958
0.0794048309326	1.0021777153	-0.0158181190491	0.0231950283051	1.59619700909	-0.366606473923
0.0644865036011	1.00559711456	-0.0345547199249	0.0268156528473	1.60173952579	-0.36491048336
0.0585358142853	1.00607609749	-0.043062210083	0.0359334945679	1.61253666878	-0.36701464653
0.0631411075592	1.01923775673	-0.0432949066162	0.0431892871857	1.62121403217	-0.369851827621
0.0699596405029	1.03547668457	-0.0427349805832	0.0478754043579	1.62510442734	-0.370236039162
0.0798437595367	1.05408501625	-0.043276309967	0.0557980537415	1.62745893002	-0.367168664932
0.0888178348541	1.07129216194	-0.0465698242188	0.0651416778564	1.62889289856	-0.360481262207
0.0961339473724	1.08488309383	-0.0506572723389	0.0722613334656	1.62960040569	-0.351705551147
0.0973360538483	1.09846067429	-0.0573492050171	0.0795094966888	1.62581694126	-0.339294672012
0.0898880958557	1.11521220207	-0.0662450790405	0.0851590633392	1.61489057541	-0.321946024895
0.077127456665	1.12892889977	-0.0775330066681	0.0840411186218	1.60881912708	-0.309503674507
0.0593609809875	1.12141919136	-0.0856580734253	0.0774741172791	1.61311721802	-0.308163881302
0.0544281005859	1.10488891602	-0.0820128917694	0.0718097686768	1.617577672	-0.31275498867
0.0492398738861	1.10577905178	-0.0778014659882	0.0656561851501	1.61934602261	-0.317543745041
0.0439622402191	1.12210047245	-0.0771703720093	0.0578310489655	1.62307524681	-0.32174539566
0.0421557426453	1.12866294384	-0.0750070810318	0.0504405498505	1.62683260441	-0.326684474945
0.0418598651886	1.12699306011	-0.0736620426178	0.0431807041168	1.6328792572	-0.334502696991
0.0392546653748	1.12708675861	-0.0751168727875	0.0376822948456	1.63779401779	-0.34421312809
0.0338449478149	1.13370072842	-0.0804836750031	0.0349416732788	1.63724684715	-0.350967526436
0.0294697284698	1.14581811428	-0.0906715393066	0.0362029075623	1.63353538513	-0.348896503448
0.0327334403992	1.16008234024	-0.112408399582	0.0349900722504	1.63203322887	-0.335480690002
0.0357568264008	1.16898703575	-0.144338130951	0.0333161354065	1.62890470028	-0.314624905586
0.0414457321167	1.15789222717	-0.156261205673	0.0375242233276	1.62009096146	-0.292706727982
0.048318862915	1.14388585091	-0.158896207809	0.0374722480774	1.61215269566	-0.275344848633
0.0455589294434	1.12305653095	-0.153147220612	0.0328600406647	1.6138459444	-0.267860293388
0.0567760467529	1.08360648155	-0.132197260857	0.0287539958954	1.61610305309	-0.268405675888
0.0725185871124	1.06322789192	-0.11353623867	0.0263433456421	1.61768639088	-0.27281332016
0.0840511322021	1.05461907387	-0.096107006073	0.02592253685	1.61918640137	-0.28125679493
0.0887379646301	1.05783891678	-0.08216381073	0.0243623256683	1.61880218983	-0.293032169342
0.0923464298248	1.08286297321	-0.0755670070648	0.0216424465179	1.62040245533	-0.304995536804
0.102716207504	1.1051145792	-0.0684223175049	0.0187096595764	1.62003481388	-0.317524433136
0.0869178771973	1.12766075134	-0.0692338943481	0.0139408111572	1.6178599596	-0.328369855881
0.0690450668335	1.13679027557	-0.074021935463	0.00643587112427	1.61718964577	-0.336134672165
0.0628223419189	1.13820660114	-0.0758211612701	-0.000309467315674	1.61856544018	-0.34262573719
0.0539281368256	1.14961349964	-0.0773732662201	-0.00450110435486	1.61980128288	-0.348840236664
0.0481944084167	1.16911566257	-0.0775992870331	-0.00790405273438	1.62099599838	-0.355639576912
0.0319256782532	1.1781835556	-0.0794100761414	-0.0115270614624	1.62313878536	-0.362733006477
0.0455498695374	1.17116606236	-0.0717971324921	-0.0137295722961	1.6237719059	-0.370465755463
0.062441110611	1.17902553082	-0.0759410858154	-0.0129339694977	1.62523019314	-0.377135038376
0.0732898712158	1.18450021744	-0.0791344642639	-0.00821375846863	1.62690877914	-0.384641885757
0.0874180793762	1.19230604172	-0.0829528570175	-0.00398063659668	1.62989246845	-0.392167568207
0.103584766388	1.20449268818	-0.0913090705872	-0.00117039680481	1.63522160053	-0.399812936783
0.12046289444	1.21504211426	-0.093043923378	0.00413489341736	1.64030849934	-0.408937215805
0.13774561882	1.23069834709	-0.084016919136	0.0120558738708	1.64313054085	-0.41650390625
0.153238534927	1.25614786148	-0.0825424194336	0.0207104682922	1.64375126362	-0.419943451881
0.16620516777	1.27320599556	-0.087317943573	0.0287930965424	1.64331531525	-0.418419361115
0.173670053482	1.27397358418	-0.092253446579	0.0360500812531	1.64413464069	-0.412177920341
0.171015262604	1.26585292816	-0.0945098400116	0.0424036979675	1.64573454857	-0.401933431625
0.156587600708	1.25485527515	-0.0927350521088	0.0486624240875	1.64471328259	-0.391558289528
0.130516290665	1.2422066927	-0.0918444395065	0.0531210899353	1.6398665905	-0.381157040596
0.0987627506256	1.22902929783	-0.0948984622955	0.0504968166351	1.63567650318	-0.374982833862
0.0784530639648	1.22068631649	-0.0963997840881	0.0427477359772	1.63734614849	-0.371985197067
0.0649769306183	1.22069299221	-0.0939825773239	0.0330758094788	1.64161968231	-0.371780395508
0.0539362430573	1.22559571266	-0.0911786556244	0.0252003669739	1.64535045624	-0.37510240078
0.0444850921631	1.2294948101	-0.0913925170898	0.0205788612366	1.64605331421	-0.379220843315
0.03782081604	1.23221194744	-0.0988420248032	0.0163781642914	1.64693045616	-0.383767962456
0.036116361618	1.23017728329	-0.106028079987	0.0118007659912	1.64913916588	-0.388014674187
0.038533449173	1.22661232948	-0.111550092697	0.00796723365784	1.65088713169	-0.391857624054
0.0420701503754	1.2238984108	-0.114650011063	0.00666308403015	1.65273094177	-0.395978569984
0.0440113544464	1.22259104252	-0.116371631622	0.0068211555481	1.6537694931	-0.399366140366
0.0432977676392	1.22358119488	-0.118051290512	0.00836730003357	1.65385055542	-0.401422977448
0.0411105155945	1.22488963604	-0.119274377823	0.0105338096619	1.65330803394	-0.401872515678
0.0400133132935	1.22618365288	-0.118472337723	0.0137348175049	1.65273427963	-0.399685382843
0.0390157699585	1.22602248192	-0.117020726204	0.017954826355	1.65160369873	-0.393756866455
0.0375816822052	1.22319042683	-0.117546439171	0.0238511562347	1.64778792858	-0.383948087692
0.0396823883057	1.21660459042	-0.12053835392	0.0288898944855	1.64387214184	-0.369980573654
0.0489156246185	1.20422947407	-0.120632410049	0.0286676883698	1.64523077011	-0.355886697769
0.0611846446991	1.19100594521	-0.114408016205	0.0290510654449	1.64614713192	-0.343007206917
0.0698156356812	1.18678629398	-0.106667637825	0.0347752571106	1.64316403866	-0.329493045807
0.0753242969513	1.18859899044	-0.0986931324005	0.0424776077271	1.6400359869	-0.315338134766
0.0816266536713	1.18367338181	-0.0872104167938	0.047500371933	1.64016330242	-0.300806999207
0.0887887477875	1.17823052406	-0.0735335350037	0.0520358085632	1.64104187489	-0.289247512817
0.0954864025116	1.18125963211	-0.0603680610657	0.0574994087219	1.64264822006	-0.280759334564
0.102886915207	1.1873704195	-0.0468230247498	0.0635092258453	1.6435598135	-0.272264122963
0.109305620193	1.18814504147	-0.0343325138092	0.0707912445068	1.6435880661	-0.261157035828
0.115880966187	1.18565917015	-0.0246753692627	0.0801708698273	1.64294695854	-0.247483372688
0.121874332428	1.18021082878	-0.0180957317352	0.091808795929	1.64092111588	-0.232867479324
0.126997947693	1.17236721516	-0.0142438411713	0.104101896286	1.63672232628	-0.217683076859
0.132588148117	1.16167545319	-0.0126402378082	0.11558842659	1.62858355045	-0.202327609062
0.131988763809	1.14897739887	-0.0140835046768	0.121737718582	1.62363469601	-0.192918777466
0.130491256714	1.14137065411	-0.0161542892456	0.119014501572	1.62538254261	-0.194006919861
0.127243518829	1.14421868324	-0.0180130004883	0.112236499786	1.63066196442	-0.205633878708
0.122080087662	1.15390169621	-0.0212371349335	0.102573156357	1.63620221615	-0.224729418755
0.115381479263	1.16521549225	-0.0269160270691	0.0910222530365	1.64049839973	-0.248170614243
0.106784820557	1.17357122898	-0.0354536771774	0.0793163776398	1.64372420311	-0.273722887039
0.0956547260284	1.18063306808	-0.0460193157196	0.0690829753876	1.64403772354	-0.299235463142
0.0833539962769	1.1877630949	-0.0585021972656	0.0584244728088	1.63944733143	-0.323052883148
0.0717835426331	1.191401124	-0.0717477798462	0.0452554225922	1.63533556461	-0.344864368439
0.0593376159668	1.19423949718	-0.0864189863205	0.029128074646	1.63608622551	-0.366971373558
0.0467789173126	1.20152914524	-0.100982189178	0.016893863678	1.63538241386	-0.390606403351
0.0350208282471	1.21581351757	-0.116045713425	0.00900459289551	1.63477778435	-0.409557580948
0.0272438526154	1.2182277441	-0.126079559326	0.00364851951599	1.63364434242	-0.418934345245
0.0214948654175	1.20729148388	-0.129532575607	-0.00293684005737	1.63363611698	-0.424051403999
0.0172030925751	1.20018839836	-0.13153219223	-0.00786542892456	1.63370239735	-0.4261251688
0.0116248130798	1.20345473289	-0.133131742477	-0.0167536735535	1.63401544094	-0.421589136124
-0.000732421875	1.20053601265	-0.137181758881	-0.0503482818604	1.63340008259	-0.411505222321
-0.0145435333252	1.18734526634	-0.141509175301	-0.0927784442902	1.63077485561	-0.409846782684
-0.0257740020752	1.17881798744	-0.14103615284	-0.0982336997986	1.62913477421	-0.402368664742
-0.0347378253937	1.18143236637	-0.139325618744	-0.0789155960083	1.62967288494	-0.389901280403
-0.0367634296417	1.17815923691	-0.136245727539	-0.0516467094421	1.63440418243	-0.387635707855
-0.0287656784058	1.17122972012	-0.135347008705	-0.0309846401215	1.64097392559	-0.394673585892
