0.0670943260193	1.06256747246	-0.2543592453	-0.0486402511597	1.55368161201	-0.293845653534
0.0661373138428	1.06176936626	-0.254758358002	-0.0465407371521	1.5543615818	-0.294011831284
0.0651926994324	1.06175160408	-0.254767417908	-0.0461006164551	1.55456221104	-0.295097351074
0.0634069442749	1.06128704548	-0.254665374756	-0.0462672710419	1.55481314659	-0.296785473824
0.0621819496155	1.0624037981	-0.255133152008	-0.0462350845337	1.55566871166	-0.298905134201
0.0629441738129	1.06200993061	-0.257230997086	-0.047479391098	1.55664813519	-0.300884246826
0.0644948482513	1.06127512455	-0.259285449982	-0.0498430728912	1.55734968185	-0.303875923157
0.065842628479	1.06478071213	-0.259706735611	-0.0524780750275	1.55910670757	-0.3083319664
0.0636644363403	1.0689457655	-0.257806301117	-0.0547757148743	1.56225764751	-0.31329536438
0.0597574710846	1.07017588615	-0.256769895554	-0.0555069446564	1.56567060947	-0.318873882294
0.0572094917297	1.07168602943	-0.255965352058	-0.0542662143707	1.57026314735	-0.325454354286
0.0528709888458	1.0730599165	-0.255288243294	-0.0531980991364	1.5751516819	-0.332746148109
0.048347234726	1.0728110075	-0.255471229553	-0.0522844791412	1.58109652996	-0.339349269867
0.0462560653687	1.06996428967	-0.254640817642	-0.054370880127	1.58748841286	-0.345264196396
0.0424506664276	1.06415653229	-0.252835273743	-0.0670728683472	1.58928656578	-0.350163936615
0.0323812961578	1.06444227695	-0.252825975418	-0.0894417762756	1.58247661591	-0.353930592537
0.0227885246277	1.08005452156	-0.256465196609	-0.106724023819	1.5773267746	-0.355319261551
0.0147995948792	1.08607494831	-0.260731220245	-0.116368532181	1.57581102848	-0.353461503983
0.0119664669037	1.09314477444	-0.263129234314	-0.127465963364	1.57196474075	-0.350866556168
0.00298452377319	1.10264778137	-0.270762562752	-0.140459775925	1.56575918198	-0.348749876022
-0.00939893722534	1.10513806343	-0.279071807861	-0.153283834457	1.56181371212	-0.348857402802
-0.0210254192352	1.10889804363	-0.286088228226	-0.165786266327	1.55891776085	-0.350617527962
-0.0247013568878	1.11246597767	-0.286873340607	-0.175669670105	1.55766689777	-0.352110385895
-0.0281929969788	1.11468374729	-0.288796901703	-0.184289455414	1.55584049225	-0.353491544724
-0.029088973999	1.11669516563	-0.289137601852	-0.192541599274	1.55254793167	-0.353790998459
-0.0309662818909	1.11910188198	-0.290823698044	-0.200749158859	1.54875171185	-0.352042675018
-0.0350153446198	1.1193395853	-0.29408121109	-0.208990097046	1.5439453125	-0.349400997162
-0.0385203361511	1.11935329437	-0.295777320862	-0.21720790863	1.53820300102	-0.347645521164
-0.040798664093	1.12171399593	-0.295256137848	-0.225301980972	1.53348600864	-0.346107125282
-0.0419473648071	1.12868094444	-0.295477151871	-0.233309268951	1.53121674061	-0.346329450607
-0.0469162464142	1.12504649162	-0.292382717133	-0.241247177124	1.53183472157	-0.34826529026
-0.0577516555786	1.11165368557	-0.288160920143	-0.247718334198	1.53252434731	-0.349336385727
-0.065797328949	1.10979247093	-0.286714911461	-0.252714633942	1.53084874153	-0.349847793579
-0.0670635700226	1.11038029194	-0.285520792007	-0.256103277206	1.52973926067	-0.348741292953
-0.0679359436035	1.11152613163	-0.282775521278	-0.26117181778	1.52846062183	-0.34498000145
-0.0726964473724	1.11385345459	-0.282689332962	-0.269184350967	1.52499055862	-0.337906718254
-0.076996088028	1.10937738419	-0.280964612961	-0.27686047554	1.52436435223	-0.332628488541
-0.0820326805115	1.1052082777	-0.277268767357	-0.279045581818	1.52665305138	-0.331367969513
-0.0849432945251	1.10348510742	-0.273968219757	-0.276426553726	1.53133916855	-0.331713676453
-0.0842595100403	1.10370159149	-0.269738674164	-0.270859479904	1.53698611259	-0.332228183746
-0.0844311714172	1.10494923592	-0.266141176224	-0.264657020569	1.54117643833	-0.33105969429
-0.0823805332184	1.10465931892	-0.262017726898	-0.2591984272	1.54140341282	-0.327574491501
-0.0810716152191	1.10693895817	-0.258736848831	-0.253106355667	1.54154968262	-0.322754263878
-0.081458568573	1.10866463184	-0.257375001907	-0.248689413071	1.54241430759	-0.318215608597
-0.0783886909485	1.11274456978	-0.257667779922	-0.248115777969	1.54036784172	-0.315066695213
-0.0729379653931	1.1211258173	-0.25764811039	-0.248535394669	1.53733551502	-0.312122583389
-0.0714750289917	1.12469422817	-0.258987665176	-0.250515937805	1.53407716751	-0.309954762459
-0.0700991153717	1.11877632141	-0.25958275795	-0.254214048386	1.53137886524	-0.310486674309
