0.253989696503	1.37016737461	-0.362176060677	-0.0456018447876	1.55980420113	-0.278258562088
0.253761291504	1.3698362112	-0.363933563232	-0.0467596054077	1.55977451801	-0.280225515366
0.254038095474	1.36929011345	-0.364686965942	-0.0481038093567	1.56035208702	-0.282380342484
0.252495288849	1.36715698242	-0.363439440727	-0.05011510849	1.56151247025	-0.285115003586
0.246295928955	1.35960924625	-0.357155561447	-0.052857875824	1.56640517712	-0.290876746178
0.235601425171	1.33986592293	-0.343791723251	-0.0565857887268	1.57472777367	-0.299441933632
0.223827362061	1.29578614235	-0.32144343853	-0.0606005191803	1.58356595039	-0.310033798218
0.21474480629	1.24514508247	-0.28821516037	-0.0618867874146	1.59227788448	-0.322548747063
0.200223684311	1.20953309536	-0.250704050064	-0.0592761039734	1.60051584244	-0.336286306381
0.176604747772	1.20069611073	-0.217831134796	-0.0541951656342	1.60480439663	-0.349073886871
0.150192260742	1.21065986156	-0.194374799728	-0.0488319396973	1.6086512804	-0.360010623932
0.131807088852	1.22759878635	-0.182644248009	-0.0461256504059	1.61246562004	-0.36883187294
0.127326965332	1.24031579494	-0.177217245102	-0.046266078949	1.61581122875	-0.375138521194
0.131252288818	1.25093352795	-0.172855019569	-0.0469853878021	1.61793422699	-0.380383968353
0.135824203491	1.26776921749	-0.173811197281	-0.048238992691	1.61812531948	-0.38468003273
0.136457920074	1.28460800648	-0.179378032684	-0.0497140884399	1.61673378944	-0.389106035233
0.136041641235	1.29269742966	-0.184743881226	-0.0505425930023	1.61514055729	-0.393365621567
0.136692523956	1.28976857662	-0.185182571411	-0.0485942363739	1.61392343044	-0.396642446518
0.140935897827	1.28407359123	-0.183297276497	-0.0453057289124	1.61364042759	-0.398990392685
0.146326303482	1.28198206425	-0.181959986687	-0.0421948432922	1.61391115189	-0.401619911194
0.151657819748	1.27999031544	-0.182640314102	-0.0396859645844	1.61460888386	-0.40378010273
0.158073425293	1.27464008331	-0.183392286301	-0.0383007526398	1.61424303055	-0.403988361359
0.163774490356	1.27089869976	-0.185467481613	-0.0388214588165	1.61366033554	-0.4035333395
0.167862415314	1.26955366135	-0.186199903488	-0.0392718315125	1.61424148083	-0.403711557388
0.172842979431	1.2702409029	-0.186660408974	-0.0387985706329	1.61511075497	-0.403259277344
0.174794197083	1.27556586266	-0.188897132874	-0.0387105941772	1.61599159241	-0.40097117424
0.172598600388	1.28055977821	-0.190317749977	-0.038941860199	1.61617946625	-0.398159503937
0.174896478653	1.26784539223	-0.181105971336	-0.0398035049438	1.61511623859	-0.394761681557
0.175057649612	1.26055216789	-0.171738743782	-0.0423548221588	1.61541068554	-0.390391111374
0.169454097748	1.26626598835	-0.163981318474	-0.0447592735291	1.61607897282	-0.386053085327
0.160685539246	1.26863276958	-0.155309677124	-0.0462145805359	1.6162225008	-0.382682085037
0.150703191757	1.27160894871	-0.154379248619	-0.0469450950623	1.61640417576	-0.38023686409
0.142242670059	1.27251923084	-0.156788349152	-0.0481204986572	1.61791884899	-0.379528284073
0.134817123413	1.27477550507	-0.161389112473	-0.0494556427002	1.61918485165	-0.380975484848
0.129714012146	1.27644073963	-0.163553118706	-0.0504717826843	1.61980652809	-0.383840203285
0.126540660858	1.27783477306	-0.165664434433	-0.0521175861359	1.61985778809	-0.387848377228
0.123542308807	1.27834761143	-0.169109225273	-0.055082321167	1.61986625195	-0.393385887146
0.121027708054	1.28117263317	-0.173578023911	-0.0580623149872	1.6190776825	-0.400839924812
0.120216369629	1.28857183456	-0.179645657539	-0.0593361854553	1.61788761616	-0.409123182297
0.118502378464	1.29317677021	-0.183579802513	-0.0599884986877	1.61704325676	-0.416133403778
0.110181093216	1.29334759712	-0.187174797058	-0.0609359741211	1.61789166927	-0.420022964478
0.0967285633087	1.2889611721	-0.193264007568	-0.0620934963226	1.61817765236	-0.419914960861
0.0881192684174	1.2867898941	-0.200849056244	-0.0624055862427	1.61796355247	-0.419156312943
0.0818026065826	1.28182804585	-0.20096373558	-0.0615496635437	1.61811089516	-0.418999195099
0.083466053009	1.27717256546	-0.19669854641	-0.061690568924	1.61831045151	-0.418580293655
0.0883479118347	1.27941381931	-0.19648194313	-0.0620858669281	1.61787140369	-0.417063713074
0.0930325984955	1.28288984299	-0.197869896889	-0.0634143352509	1.61622595787	-0.415239095688
0.0981676578522	1.28564012051	-0.197672605515	-0.0655527114868	1.61436641216	-0.413574934006
0.101892709732	1.28794825077	-0.196476817131	-0.0671260356903	1.61331701279	-0.412422895432
0.103457450867	1.29020369053	-0.19532763958	-0.0672376155853	1.61305820942	-0.412280082703
0.10317158699	1.29134130478	-0.195179700851	-0.0670282840729	1.61312425137	-0.412441730499
0.102970123291	1.29040253162	-0.194932222366	-0.0669434070587	1.61300361156	-0.412489056587
0.101986885071	1.29090464115	-0.19559264183	-0.0674796104431	1.61199939251	-0.413453102112
0.100245952606	1.29370963573	-0.198328971863	-0.0683217048645	1.61051476002	-0.416693806648
0.0988156795502	1.29740202427	-0.202131748199	-0.0690567493439	1.60877215862	-0.420904874802
0.0971686840057	1.3021261692	-0.206585407257	-0.0695805549622	1.6080416441	-0.423446416855
0.0953102111816	1.30463337898	-0.210303902626	-0.0696411132812	1.60766541958	-0.4244556427
0.0963578224182	1.30349135399	-0.212231397629	-0.0677733421326	1.60736584663	-0.424665927887
0.099862575531	1.30053496361	-0.213357686996	-0.0632877349854	1.60712444782	-0.42519569397
0.102314472198	1.29816758633	-0.215335726738	-0.0574855804443	1.60695719719	-0.425533294678
0.104528188705	1.29432570934	-0.217493057251	-0.0520851612091	1.60573601723	-0.424767613411
0.109947681427	1.28932571411	-0.218992710114	-0.0476875305176	1.60402619839	-0.423322200775
0.114981889725	1.28588545322	-0.218080401421	-0.0449688434601	1.60330665112	-0.420873880386
0.114701271057	1.28534603119	-0.216272950172	-0.0450513362885	1.60252940655	-0.417170286179
0.112493038177	1.28429758549	-0.213481426239	-0.0473351478577	1.60165905952	-0.412611842155
0.111457824707	1.2850664854	-0.211869597435	-0.0488798618317	1.60127532482	-0.409609794617
0.11158323288	1.28719067574	-0.211229085922	-0.0487823486328	1.60146784782	-0.408275842667
0.11278963089	1.28656125069	-0.209027290344	-0.0479183197021	1.60182154179	-0.406916260719
0.113005638123	1.28382086754	-0.206638455391	-0.0459938049316	1.60135257244	-0.404540777206
0.110148668289	1.27939510345	-0.204877734184	-0.0439367294312	1.59935498238	-0.399859666824
0.0998501777649	1.27111244202	-0.204670190811	-0.042900800705	1.59635829926	-0.394739866257
0.0913531780243	1.26388895512	-0.203803777695	-0.0422737598419	1.59524548054	-0.392266988754
0.0880260467529	1.26327443123	-0.204164505005	-0.0420303344727	1.59514200687	-0.392783164978
0.0879147052765	1.26740145683	-0.206784009933	-0.0424864292145	1.59555494785	-0.394733786583
0.0884013175964	1.26700150967	-0.211840867996	-0.0431244373322	1.59624099731	-0.396912932396
0.0876002311707	1.25900316238	-0.216277599335	-0.0435490608215	1.59705126286	-0.39968585968
0.0843472480774	1.25050258636	-0.220930099487	-0.0432503223419	1.59755182266	-0.402678489685
0.0785872936249	1.24194765091	-0.228139162064	-0.0433320999146	1.59776496887	-0.404764413834
0.0734348297119	1.23146510124	-0.232037305832	-0.0436275005341	1.5988471508	-0.406221389771
0.0735282897949	1.21906268597	-0.23007106781	-0.0434889793396	1.59976840019	-0.406179666519
0.0740399360657	1.21417319775	-0.226997852325	-0.0437309741974	1.60063385963	-0.403727412224
0.0771195888519	1.22594726086	-0.223130702972	-0.0435903072357	1.60102045536	-0.400222063065
0.0839128494263	1.24196636677	-0.21658706665	-0.043345451355	1.60074782372	-0.3965934515
0.088303565979	1.24850678444	-0.209487199783	-0.0453078746796	1.60193502903	-0.391919732094
0.0902025699615	1.24814081192	-0.203795433044	-0.0471704006195	1.60191082954	-0.386682152748
0.0902745723724	1.24798190594	-0.200743913651	-0.0492293834686	1.60144090652	-0.381825685501
0.0906312465668	1.25186979771	-0.202466845512	-0.0505704879761	1.60119903088	-0.378244876862
0.0907871723175	1.25278103352	-0.204660415649	-0.0503492355347	1.60057783127	-0.377532958984
0.0888636112213	1.25015485287	-0.207821369171	-0.0504975318909	1.60036063194	-0.379882216454
0.0866527557373	1.25872635841	-0.218341112137	-0.0504131317139	1.60274994373	-0.384031414986
0.0922923088074	1.27114152908	-0.224994897842	-0.0486238002777	1.60496747494	-0.389126300812
0.101361989975	1.27387619019	-0.223808050156	-0.0470690727234	1.60595595837	-0.392234563828
0.0999341011047	1.26547038555	-0.220442295074	-0.0471019744873	1.6045268774	-0.391119122505
0.0895776748657	1.26240777969	-0.224308252335	-0.0464584827423	1.60241985321	-0.388353466988
0.0825128555298	1.25543105602	-0.224843740463	-0.0477495193481	1.6014329195	-0.387696027756
0.0784156322479	1.24789524078	-0.221882343292	-0.0478553771973	1.60067272186	-0.389662504196
0.0716774463654	1.24716520309	-0.219862937927	-0.0457601547241	1.59952676296	-0.393485784531
0.0655124187469	1.24664354324	-0.216942310333	-0.04350233078	1.59888970852	-0.398268699646
0.0629260540009	1.24301743507	-0.213276147842	-0.0431876182556	1.59792625904	-0.403444766998
0.0582568645477	1.24247157574	-0.210933923721	-0.0429840087891	1.59666585922	-0.408031105995
0.0493750572205	1.24293255806	-0.211081981659	-0.0451798439026	1.59713840485	-0.411650657654
0.0441911220551	1.24164092541	-0.213618755341	-0.0487313270569	1.59782135487	-0.413990259171
0.0463304519653	1.24002742767	-0.215767741203	-0.0523931980133	1.59787499905	-0.413731813431
0.051812171936	1.23783063889	-0.217319726944	-0.0567345619202	1.59678256512	-0.41070830822
0.0547785758972	1.23469114304	-0.218640327454	-0.0602197647095	1.59630393982	-0.407425403595
0.0560696125031	1.23128509521	-0.217976093292	-0.0659003257751	1.59641492367	-0.403213381767
0.0555045604706	1.22893106937	-0.215954065323	-0.0703771114349	1.59734201431	-0.401073455811
0.0539255142212	1.22764992714	-0.211565971375	-0.0716822147369	1.59832346439	-0.400421380997
0.0506083965302	1.2255153656	-0.206448316574	-0.072741985321	1.59885120392	-0.399198651314
0.0473461151123	1.22240662575	-0.202498435974	-0.0730772018433	1.59926438332	-0.396706581116
0.0470383167267	1.21845257282	-0.197398662567	-0.0724487304688	1.59920346737	-0.39358663559
0.0468900203705	1.22067546844	-0.194176316261	-0.0727276802063	1.59938097	-0.392689943314
0.0483291149139	1.22713077068	-0.194432258606	-0.0756514072418	1.60179913044	-0.395565986633
0.0500898361206	1.228977561	-0.193279385567	-0.0732908248901	1.60509800911	-0.402886748314
0.0499620437622	1.23130977154	-0.193698167801	-0.066440820694	1.60726106167	-0.412709236145
0.0483646392822	1.23470616341	-0.196835756302	-0.0586085319519	1.60868644714	-0.424066781998
0.0489201545715	1.23414766788	-0.199994921684	-0.0520398616791	1.61031329632	-0.435155391693
