0.0993828773499	1.31143605709	0.0971338748932	0.0234770774841	1.60285866261	-0.16753590107
0.0995523929596	1.31178987026	0.0977762937546	0.0231466293335	1.60300266743	-0.166746616364
0.0999350547791	1.31234884262	0.0997471809387	0.0225491523743	1.60231149197	-0.164876461029
0.099622964859	1.31247293949	0.0999077558517	0.0213210582733	1.60195016861	-0.163138866425
0.0993320941925	1.31094539165	0.1000187397	0.0194311141968	1.60078251362	-0.162610292435
0.0980687141418	1.30629110336	0.0988132953644	0.0154399871826	1.59647285938	-0.162382364273
0.0899059772491	1.29191541672	0.0970854759216	0.00919222831726	1.59013056755	-0.161412477493
0.0713863372803	1.27580690384	0.0779993534088	0.00107645988464	1.58584141731	-0.157972216606
0.0556297302246	1.26514732838	0.0571525096893	-0.00562047958374	1.58208990097	-0.15371465683
0.0484623908997	1.26302754879	0.0417125225067	-0.0108690261841	1.57687473297	-0.149183988571
0.0444395542145	1.26820003986	0.0262098312378	-0.016259431839	1.56741416454	-0.144430160522
0.0408661365509	1.27578949928	0.0111532211304	-0.0216555595398	1.56005811691	-0.141132593155
0.0355870723724	1.27948176861	0.00211429595947	-0.0273780822754	1.55689680576	-0.13968205452
0.0319063663483	1.28248894215	-0.00249266624451	-0.0323431491852	1.55597925186	-0.138571858406
0.0297312736511	1.28493118286	-0.00842905044556	-0.0365371704102	1.55507993698	-0.136396169662
0.0283682346344	1.2878382206	-0.0195655822754	-0.0420310497284	1.55189561844	-0.13257420063
0.0253853797913	1.28640723228	-0.0278205871582	-0.0474722385406	1.54889023304	-0.130265712738
0.0210835933685	1.28506028652	-0.0402693748474	-0.0510485172272	1.54804635048	-0.130398273468
0.0172090530396	1.28461790085	-0.0475200414658	-0.0531969070435	1.54803597927	-0.133101701736
0.0143678188324	1.28569567204	-0.0416009426117	-0.0542163848877	1.54774606228	-0.136633992195
0.0117321014404	1.28773200512	-0.0354535579681	-0.0548694133759	1.54657042027	-0.139358520508
0.0099241733551	1.28809833527	-0.028909444809	-0.0550286769867	1.54743647575	-0.140891313553
0.00832200050354	1.28872966766	-0.0206706523895	-0.055685043335	1.54777598381	-0.141620635986
0.00447273254395	1.28655552864	-0.0132052898407	-0.056736946106	1.54761910439	-0.14272069931
-5.69820404053e-05	1.28693795204	-0.0132368803024	-0.0571579933167	1.54793441296	-0.145125865936
-0.00668478012085	1.29164540768	-0.0230941772461	-0.0563888549805	1.54911386967	-0.148196935654
-0.0163540840149	1.29220426083	-0.0407147407532	-0.0559566020966	1.55044221878	-0.149987816811
-0.0232162475586	1.28929328918	-0.0512745380402	-0.0563862323761	1.55078756809	-0.149804472923
-0.0268595218658	1.28843069077	-0.0607702732086	-0.0572903156281	1.55031847954	-0.148412942886
-0.0325706005096	1.28847825527	-0.0690188407898	-0.0588383674622	1.54917407036	-0.146092653275
-0.033545255661	1.29227936268	-0.0708609819412	-0.0604894161224	1.54881727695	-0.145130038261
-0.0415804386139	1.28572893143	-0.075043797493	-0.0623104572296	1.54788219929	-0.14649438858
-0.0476958751678	1.27832984924	-0.0811030864716	-0.0633625984192	1.54746508598	-0.149814605713
-0.0515258312225	1.27865946293	-0.0884556770325	-0.062459230423	1.54646575451	-0.153457760811
-0.0593390464783	1.2830016613	-0.0895721912384	-0.0600187778473	1.54622101784	-0.154720067978
-0.0644247531891	1.28740811348	-0.0815703868866	-0.0591223239899	1.54743671417	-0.155034780502
-0.0609471797943	1.29014122486	-0.0730500221252	-0.0593638420105	1.54816746712	-0.154541730881
-0.0518636703491	1.29363775253	-0.0843957662582	-0.0593070983887	1.54843699932	-0.152370333672
-0.0473322868347	1.29339826107	-0.0943276882172	-0.0567359924316	1.54806864262	-0.148471713066
-0.0459887981415	1.29325342178	-0.102396965027	-0.0523421764374	1.54750454426	-0.143929243088
-0.0421624183655	1.29777908325	-0.0987887382507	-0.0491790771484	1.54889881611	-0.140072107315
-0.0376634597778	1.29842340946	-0.0558886528015	-0.0477483272552	1.55125355721	-0.138471603394
-0.0218749046326	1.30435705185	-0.0352187156677	-0.0472705364227	1.5531321764	-0.136461019516
-0.020849943161	1.31003701687	-0.0424411296844	-0.0478031635284	1.55566382408	-0.133832454681
-0.0287642478943	1.30831718445	-0.0509278774261	-0.0489773750305	1.55530118942	-0.131287455559
-0.033171415329	1.30875468254	-0.0587793588638	-0.0506982803345	1.55315852165	-0.128397464752
-0.0288219451904	1.31203663349	-0.0733687877655	-0.0539345741272	1.55319094658	-0.127093553543
-0.0311939716339	1.31037032604	-0.0841341018677	-0.0556542873383	1.55260276794	-0.128062009811
-0.0322332382202	1.30871427059	-0.104280114174	-0.0563793182373	1.55187034607	-0.13153386116
-0.0334169864655	1.31135821342	-0.112684726715	-0.056972026825	1.5534954071	-0.137801170349
-0.0474643707275	1.30915665627	-0.0874562263489	-0.0545358657837	1.55503153801	-0.144389629364
-0.0510697364807	1.30329740047	-0.0605744123459	-0.0508348941803	1.55409646034	-0.148507118225
-0.0497677326202	1.2991784811	-0.0433447360992	-0.0471241474152	1.5528460741	-0.149138689041
-0.041243314743	1.29752647877	-0.0242302417755	-0.0444595813751	1.5542062521	-0.147083520889
-0.0274367332458	1.29923200607	-0.012761592865	-0.041312456131	1.55479860306	-0.144075036049
-0.00787305831909	1.29744935036	0.00892519950867	-0.0363051891327	1.55520093441	-0.14181804657
0.0213680267334	1.29175198078	0.0332049131393	-0.0298297405243	1.55868506432	-0.139014005661
0.0526802539825	1.28883254528	0.044867515564	-0.0229873657227	1.56606721878	-0.133726239204
0.0749275684357	1.29099416733	0.0472401380539	-0.0166084766388	1.57313501835	-0.126742839813
0.0818572044373	1.29385781288	0.0445780754089	-0.0159282684326	1.57307946682	-0.121739149094
0.0809626579285	1.29478740692	0.0394498109818	-0.0255370140076	1.56444978714	-0.119532465935
0.0708801746368	1.29390358925	0.0273244380951	-0.0446982383728	1.55577933788	-0.119393587112
0.0639524459839	1.29286050797	0.0200568437576	-0.0616669654846	1.54985964298	-0.120329141617
0.060703754425	1.29435825348	0.0177131891251	-0.070125579834	1.54388022423	-0.119081020355
0.0587186813354	1.29724884033	0.0144209861755	-0.0756912231445	1.53870546818	-0.116123795509
0.0551795959473	1.29892551899	0.00958013534546	-0.0870227813721	1.53524804115	-0.115993022919
0.051513671875	1.29983139038	0.00365591049194	-0.0979778766632	1.53441441059	-0.117902040482
0.0499188899994	1.30171322823	-0.000109195709229	-0.103086233139	1.53512787819	-0.119638681412
0.0519773960114	1.3038828373	-0.00415754318237	-0.106615543365	1.53716897964	-0.122467875481
0.0606281757355	1.3061041832	0.000360488891602	-0.10623550415	1.54242312908	-0.124817848206
0.0679688453674	1.30399119854	0.010892868042	-0.101926326752	1.54961407185	-0.126169204712
0.0758497714996	1.30248868465	0.0140334367752	-0.0988335609436	1.55593836308	-0.127037525177
0.0813879966736	1.30291569233	0.0132224559784	-0.096932888031	1.55987715721	-0.126930356026
0.0868566036224	1.30561494827	0.0119318962097	-0.0954868793488	1.56117010117	-0.125334024429
0.090277671814	1.3113912344	0.00864279270172	-0.0959949493408	1.56075191498	-0.122147798538
0.0879857540131	1.32007288933	-0.00195622444153	-0.0977530479431	1.56097173691	-0.118912935257
0.0788028240204	1.32737457752	-0.018073797226	-0.0996887683868	1.56153464317	-0.117551326752
0.0697631835938	1.32981431484	-0.0304666757584	-0.101126670837	1.56166279316	-0.117837667465
0.0639250278473	1.32870352268	-0.0336203575134	-0.100907564163	1.56051886082	-0.118008136749
0.0628037452698	1.32586705685	-0.0310246944427	-0.100446462631	1.55776178837	-0.116766929626
0.0656492710114	1.32499051094	-0.0304001569748	-0.101115226746	1.55726099014	-0.115938782692
0.0661978721619	1.32665991783	-0.0392413139343	-0.100860595703	1.55749988556	-0.11485350132
0.0658056735992	1.32843339443	-0.0505752563477	-0.0987143516541	1.55590379238	-0.115161180496
0.0625784397125	1.32864820957	-0.0626404285431	-0.0965435504913	1.55442428589	-0.118367195129
0.0625131130219	1.32855796814	-0.066789150238	-0.095047712326	1.55475533009	-0.122206926346
0.0637762546539	1.32788288593	-0.065899848938	-0.0949783325195	1.55440354347	-0.124819040298
0.0650050640106	1.32829725742	-0.0632985830307	-0.0952382087708	1.55344069004	-0.125466346741
0.0623285770416	1.33012223244	-0.0651748180389	-0.0956485271454	1.55299305916	-0.125207781792
0.0553419589996	1.33180606365	-0.0752211809158	-0.0959446430206	1.55245637894	-0.123239994049
0.0497987270355	1.33223628998	-0.0896627902985	-0.0956833362579	1.55090153217	-0.120279669762
0.0476517677307	1.33248126507	-0.0925116539001	-0.0946300029755	1.54870939255	-0.116187930107
0.0513145923615	1.33392035961	-0.0873274803162	-0.0941607952118	1.54730224609	-0.111549377441
0.0570061206818	1.33532500267	-0.0857479572296	-0.0935301780701	1.5459856987	-0.108170747757
0.0572154521942	1.33640956879	-0.0895334482193	-0.0917208194733	1.54672300816	-0.107650756836
0.0570306777954	1.33766424656	-0.0921316146851	-0.0901737213135	1.54717636108	-0.105995893478
0.0588421821594	1.33696687222	-0.0893542766571	-0.0903122425079	1.54300165176	-0.102068901062
0.0566792488098	1.33464753628	-0.0870263576508	-0.0903697013855	1.53990209103	-0.100914955139
0.0551426410675	1.33517086506	-0.0879815816879	-0.0892117023468	1.53978729248	-0.102355003357
0.0526914596558	1.33610475063	-0.0918636322021	-0.087703704834	1.54069972038	-0.105139255524
0.0430347919464	1.33219075203	-0.0844628810883	-0.0870561599731	1.54172980785	-0.107086420059
0.0355632305145	1.32543253899	-0.0736479759216	-0.0872251987457	1.54053986073	-0.108758687973
0.0310471057892	1.3203612566	-0.0667245388031	-0.0864436626434	1.54147720337	-0.110207676888
0.028938293457	1.31323814392	-0.0484479665756	-0.0843555927277	1.54418456554	-0.111470937729
0.0359134674072	1.29362237453	0.000385284423828	-0.0825793743134	1.54699969292	-0.11385011673
0.0380520820618	1.3034901619	0.00405097007751	-0.0799472332001	1.54742538929	-0.115545988083
0.0287971496582	1.33479475975	-0.040367603302	-0.0769953727722	1.54805493355	-0.116390585899
0.0226907730103	1.34331858158	-0.0735863447189	-0.0746877193451	1.5492041111	-0.118459224701
0.0246956348419	1.34473061562	-0.0792741775513	-0.0717120170593	1.55015957355	-0.120236635208
0.0282106399536	1.34762203693	-0.0855512619019	-0.0693483352661	1.550593853	-0.120626688004
0.0318059921265	1.34998929501	-0.0872038602829	-0.0688140392303	1.55044460297	-0.120227575302
0.0377905368805	1.35505449772	-0.0888705253601	-0.0700960159302	1.55078876019	-0.118794322014
0.0420775413513	1.3619222641	-0.0878477096558	-0.071596622467	1.54987764359	-0.117309808731
0.0413775444031	1.36521136761	-0.0881381034851	-0.0711240768433	1.54754662514	-0.117022275925
0.0400171279907	1.36537861824	-0.0911717414856	-0.070787191391	1.54750943184	-0.119359254837
0.0433382987976	1.36508572102	-0.0792434215546	-0.0721204280853	1.54983699322	-0.123481154442
0.0365033149719	1.3633004427	-0.0548658370972	-0.0723106861115	1.54937636852	-0.12502849102
0.0317034721375	1.36043894291	-0.0496126413345	-0.0728425979614	1.54638135433	-0.123636722565
0.027599811554	1.36153292656	-0.053960442543	-0.0736513137817	1.54692649841	-0.121339201927
0.026823759079	1.36623096466	-0.0665938854218	-0.0740745067596	1.54827570915	-0.117950081825
0.0288460254669	1.3676507473	-0.0760586261749	-0.0745327472687	1.54792666435	-0.113277673721
0.0290787220001	1.36566495895	-0.0734351873398	-0.0745022296906	1.54635059834	-0.107895374298
0.029545545578	1.36305010319	-0.0723512172699	-0.0741236209869	1.54242098331	-0.102955460548
0.0293803215027	1.36127948761	-0.0791707038879	-0.0756511688232	1.53912103176	-0.0995033979416
0.031270980835	1.36123669147	-0.0833687782288	-0.0781073570251	1.53890550137	-0.0982582569122
0.0357403755188	1.36223864555	-0.0872452259064	-0.07985496521	1.5395103693	-0.0984313488007
0.0351638793945	1.36265981197	-0.0903873443604	-0.0787782669067	1.53838276863	-0.101154565811
0.0324721336365	1.36129140854	-0.0919159650803	-0.0764744281769	1.53617608547	-0.104310274124
0.0247559547424	1.35795843601	-0.0781021118164	-0.0758349895477	1.5329066515	-0.107377529144
0.0219178199768	1.34988462925	-0.054651260376	-0.0776083469391	1.53645431995	-0.111506938934
0.00163245201111	1.32947611809	-0.0138332843781	-0.0782940387726	1.53780221939	-0.11557161808
0.00482749938965	1.33529686928	-0.00791501998901	-0.0769948959351	1.53773403168	-0.115944743156
0.00652074813843	1.34394276142	-0.0368123054504	-0.0767493247986	1.54077041149	-0.116361141205
0.00658655166626	1.34224319458	-0.064205288887	-0.0757281780243	1.54429888725	-0.11763882637
0.00454044342041	1.33701896667	-0.0700221061707	-0.0719623565674	1.54644596577	-0.11952984333
-0.00718879699707	1.31598746777	-0.0324432849884	-0.0675015449524	1.546646595	-0.122816324234
-0.019544839859	1.28724336624	0.0101797580719	-0.0639791488647	1.54328608513	-0.124562263489
-0.0135276317596	1.30352544785	0.0033837556839	-0.0625624656677	1.54335331917	-0.120373249054
-0.0126016139984	1.31949007511	-0.0181708335876	-0.0600082874298	1.54100227356	-0.116287231445
-0.0137393474579	1.32453262806	-0.0324523448944	-0.0565140247345	1.53992545605	-0.113920450211
-0.0211927890778	1.32764947414	-0.0334596633911	-0.0522422790527	1.54005646706	-0.11248922348
-0.0440390110016	1.31705510616	-0.0131411552429	-0.0476934909821	1.53795850277	-0.113419771194
-0.0499448776245	1.29837572575	0.0179152488708	-0.044070482254	1.53666234016	-0.116346359253
-0.0368473529816	1.28507971764	0.0375280380249	-0.0437638759613	1.53923678398	-0.121997117996
-0.0252335071564	1.27912247181	0.044509768486	-0.0456545352936	1.53939712048	-0.12941133976
-0.0371403694153	1.26502656937	0.0415114164352	-0.0453708171844	1.54004013538	-0.135905504227
-0.0486333370209	1.22365486622	0.0487222671509	-0.0447471141815	1.5411850214	-0.138965845108
-0.0252344608307	1.21042954922	0.0564827919006	-0.044264793396	1.54239654541	-0.138482451439
0.0110213756561	1.20790028572	0.070326924324	-0.0423202514648	1.54217910767	-0.136265277863
0.0375320911407	1.21398448944	0.0859977006912	-0.0396859645844	1.5429224968	-0.134440898895
0.0252006053925	1.2230104208	0.089150428772	-0.0355644226074	1.54383111	-0.133432388306
0.00577783584595	1.22740077972	0.0748856067657	-0.031943321228	1.54504477978	-0.132532835007
-0.0089635848999	1.23245596886	0.0572636127472	-0.0303361415863	1.54292309284	-0.12821495533
-0.0198559761047	1.24056851864	0.0404373407364	-0.0303184986115	1.54194712639	-0.120891332626
-0.0365586280823	1.23662614822	0.0278594493866	-0.0304529666901	1.53930830956	-0.114076495171
-0.0571057796478	1.23739933968	0.000215291976929	-0.0317952632904	1.53841602802	-0.108555793762
-0.0681788921356	1.24465155602	-0.0380752086639	-0.0336954593658	1.53924155235	-0.104513406754
-0.0668637752533	1.24994695187	-0.0343544483185	-0.0346426963806	1.53902065754	-0.102273702621
-0.0648205280304	1.25126612186	-0.0315896272659	-0.0365455150604	1.53851759434	-0.100950717926
-0.0555009841919	1.26350700855	-0.051500082016	-0.0411298274994	1.54057991505	-0.100281715393
-0.0491111278534	1.27326273918	-0.0784277915955	-0.046638250351	1.54349815845	-0.0990581512451
-0.0518710613251	1.27580964565	-0.0925738811493	-0.0488498210907	1.54362368584	-0.100287079811
-0.0533730983734	1.27800917625	-0.104754209518	-0.0492100715637	1.54245650768	-0.104049444199
-0.051696062088	1.27995336056	-0.113809227943	-0.0502743721008	1.54240441322	-0.109381437302
-0.0490703582764	1.28356933594	-0.124363660812	-0.0519037246704	1.54259896278	-0.112216234207
-0.0486834049225	1.28548836708	-0.128712296486	-0.055465221405	1.54043018818	-0.107986211777
-0.0708620548248	1.27778792381	-0.100959777832	-0.0605249404907	1.53668940067	-0.0998789072037
-0.0788114070892	1.2691628933	-0.0850105285645	-0.0649559497833	1.53330636024	-0.0933592319489
-0.0788445472717	1.27028214931	-0.088182091713	-0.0676455497742	1.53419971466	-0.0889654159546
-0.0831718444824	1.27046823502	-0.0886461734772	-0.067854642868	1.53564548492	-0.086891412735
-0.0946388244629	1.26421153545	-0.0790548324585	-0.068422794342	1.5356926918	-0.0867366790771
-0.0889008045197	1.26403868198	-0.0943214893341	-0.0719487667084	1.53760576248	-0.0890678167343
-0.0664222240448	1.27935290337	-0.105844020844	-0.0773367881775	1.54059863091	-0.0923931598663
-0.0673758983612	1.2863227129	-0.109733462334	-0.0812559127808	1.54252719879	-0.0956518650055
-0.0744478702545	1.28752231598	-0.124140501022	-0.0884692668915	1.54306912422	-0.0999486446381
-0.0858418941498	1.28795087337	-0.125381708145	-0.100590467453	1.54435133934	-0.104226112366
-0.0885033607483	1.28899991512	-0.121275424957	-0.11380648613	1.5449835062	-0.106819748878
-0.0873711109161	1.29185819626	-0.130235910416	-0.124393701553	1.54561066628	-0.108495235443
-0.0873162746429	1.29515647888	-0.138144493103	-0.128984928131	1.5455211401	-0.110712528229
-0.0955965518951	1.29582560062	-0.138314127922	-0.128072023392	1.54538202286	-0.113346338272
-0.102260112762	1.297285676	-0.125806450844	-0.125509500504	1.54431974888	-0.114681243896
-0.114264249802	1.29429244995	-0.108130931854	-0.123074293137	1.54509294033	-0.117067575455
-0.125378847122	1.29235076904	-0.0933883190155	-0.120310544968	1.54743456841	-0.119875669479
-0.134251117706	1.28959012032	-0.0914354324341	-0.119724035263	1.54872405529	-0.12186229229
-0.137601613998	1.28822350502	-0.0935418605804	-0.122375249863	1.54755055904	-0.121809720993
