0.0	-0.0	135.200500488	-135.619125366	82.1314926147	158.049057007
0.0	-0.0	135.119476318	-135.991455078	82.1315994263	158.6746521
0.0	-0.0	134.852554321	-136.128738403	82.1020736694	159.46055603
0.0	-0.0	135.001495361	-136.781799316	81.9034118652	159.859481812
0.0	-0.0	133.619171143	-137.748428345	80.8566894531	159.768920898
0.0	-0.0	132.826065063	-136.931167603	80.7783126831	159.404769897
0.0	-0.0	127.602043152	-129.662261963	85.6963119507	158.817718506
0.0	-0.0	95.3844528198	69.603515625	83.1751480103	-23.7727813721
0.0	-0.0	70.7431259155	79.403503418	78.2870483398	-24.3418331146
0.0	-0.0	64.2130355835	80.9432067871	75.7575836182	-23.9371452332
0.0	-0.0	76.9686965942	79.374961853	75.2240219116	-23.3045539856
0.0	-0.0	99.19506073	78.5155029297	76.9080581665	-22.2426719666
0.0	-0.0	115.100288391	79.6810760498	73.8803787231	-20.5985298157
0.0	-0.0	119.568252563	80.8179779053	70.2434844971	-19.0781555176
0.0	-0.0	70.3336715698	81.1942672729	69.4979476929	-18.6432285309
0.0	-0.0	37.8092155457	81.5993499756	70.2630767822	-17.5878772736
0.0	-0.0	41.8436889648	80.467918396	71.198600769	-14.0814704895
0.0	-0.0	75.6843719482	79.6600723267	74.7277374268	-10.5478191376
0.0	-0.0	95.5170211792	78.4899749756	75.2178268433	-6.37504005432
0.0	-0.0	82.1519088745	77.6958389282	74.8040466309	-3.12959814072
0.0	-0.0	43.1582183838	79.5169219971	74.9195327759	-0.107573918998
0.0	-0.0	38.4525566101	79.622253418	74.1299743652	3.70305418968
0.0	-0.0	61.6655654907	78.7169113159	74.2494812012	7.25170612335
0.0	-0.0	54.7981719971	80.0753860474	76.154258728	8.62995910645
0.0	-0.0	47.8916091919	83.7428817749	77.4426193237	10.0431022644
0.0	-0.0	45.1159172058	84.727180481	77.0362930298	11.9011993408
0.0	-0.0	48.5152435303	85.1798477173	75.2271118164	11.3972911835
0.0	-0.0	50.2997817993	89.3031539917	76.0160293579	8.98748016357
0.0	-0.0	45.4258155823	94.894859314	77.638092041	6.35833787918
0.0	-0.0	44.1313056946	92.4841079712	75.5064926147	8.34609508514
0.0	-0.0	47.0480918884	89.8020782471	69.8790664673	8.63394546509
0.0	-0.0	49.2711868286	93.2216644287	66.3034591675	7.51017189026
0.0	-0.0	50.8860549927	99.0592346191	63.7500419617	7.93234205246
0.0	-0.0	49.9009780884	97.4753875732	59.3379402161	11.4560823441
0.0	-0.0	48.8342094421	92.3728256226	60.2071113586	14.7146806717
0.0	-0.0	48.9328575134	90.7916793823	65.8799133301	14.6979312897
0.0	-0.0	50.1728973389	91.9220581055	73.0447540283	14.7688941956
0.0	-0.0	50.5198898315	91.5876998901	74.7823867798	16.3918838501
0.0	-0.0	51.6752815247	89.6836395264	74.2492523193	15.4437303543
0.0	-0.0	46.7989997864	90.9617462158	80.4998168945	11.7689905167
0.0	-0.0	41.934589386	-88.1896057129	89.6530990601	-169.645767212
0.0	-0.0	41.7605628967	-89.7704544067	86.3645629883	-169.746582031
0.0	-0.0	47.7488594055	-91.3761367798	87.8404312134	-170.962371826
0.0	-0.0	66.0694198608	88.991065979	88.0279769897	7.66722393036
0.0	-0.0	76.7792358398	89.5101242065	84.6645889282	6.14706802368
0.0	-0.0	76.1918029785	91.0160369873	84.5216903687	5.04553127289
0.0	-0.0	71.7326812744	92.1232757568	86.5637054443	4.68259000778
0.0	-0.0	67.8627319336	92.1530609131	86.5385818481	4.09619474411
0.0	-0.0	82.3878097534	92.5943756104	83.7483215332	3.42931318283
0.0	-0.0	89.5407180786	92.7536773682	81.241394043	3.83602762222
0.0	-0.0	89.7255325317	91.8721084595	83.0277786255	3.78542995453
0.0	-0.0	92.9372711182	92.3270568848	83.8253936768	2.54646921158
0.0	-0.0	79.1406936646	92.010597229	81.2380218506	3.72633671761
0.0	-0.0	64.7688293457	90.9115905762	75.3742141724	3.45709133148
0.0	-0.0	57.447681427	90.5983810425	69.8468780518	3.21512341499
0.0	-0.0	56.1036758423	89.8999328613	63.1279296875	3.75184845924
0.0	-0.0	61.8844299316	87.8347320557	58.3504600525	5.15521812439
0.0	-0.0	61.3656272888	86.6397628784	67.9643859863	3.9664144516
0.0	-0.0	64.4629669189	88.758354187	76.6806488037	3.05048704147
0.0	-0.0	64.9598464966	89.7772445679	76.8186569214	4.98186302185
0.0	-0.0	61.768787384	88.851600647	72.9421844482	3.90277528763
0.0	-0.0	60.9031295776	89.2211532593	69.741317749	2.32198095322
0.0	-0.0	64.8802871704	90.0670013428	71.1296310425	2.80139946938
0.0	-0.0	65.3073120117	87.7067260742	72.2196578979	2.73556518555
0.0	-0.0	61.8435745239	83.4752044678	74.0241012573	1.08151876926
0.0	-0.0	55.2419586182	82.1622619629	81.6549606323	0.228998973966
0.0	-0.0	27.8332138062	82.9954376221	86.9251098633	1.0778118372
0.0	-0.0	27.473859787	83.6374740601	87.5677490234	1.18545496464
0.0	-0.0	42.6785926819	84.8028640747	86.3335266113	1.68344271183
0.0	-0.0	50.9221725464	85.6689910889	86.8620605469	4.63696527481
0.0	-0.0	61.4441719055	88.6480560303	88.2917785645	4.1406083107
0.0	-0.0	58.8101615906	-88.7101821899	85.9934539795	-172.759536743
0.0	-0.0	57.7758789062	-88.0141830444	82.9904937744	-169.985717773
0.0	0.0	-5.45715856552	-89.4281005859	82.7469406128	-172.577346802
0.0	0.0	-13.8542976379	-90.835899353	84.4718780518	-172.431243896
0.0	-0.0	7.05038785934	-91.2763290405	85.1601638794	-172.563568115
0.0	-0.0	60.8233947754	-89.7766189575	84.1377716064	-174.725097656
0.0	-0.0	86.1161346436	-89.113319397	86.2190093994	-174.490936279
0.0	-0.0	113.234260559	90.5372924805	89.0293502808	5.18054914474
0.0	-0.0	132.385986328	90.6322250366	83.9157867432	4.40401744843
0.0	-0.0	140.90057373	93.141418457	75.4961090088	2.10836172104
0.0	-0.0	141.385467529	100.256958008	65.2959365845	-3.78382515907
0.0	-0.0	138.551361084	110.377166748	56.2543411255	-11.8578672409
0.0	-0.0	127.60308075	116.708656311	52.6565895081	-16.4217090607
0.0	-0.0	124.748039246	116.134124756	51.9088363647	-19.4163990021
0.0	-0.0	124.543716431	108.962669373	52.242313385	-16.6880931854
0.0	-0.0	127.37071228	105.077636719	49.7427444458	-17.609254837
0.0	-0.0	130.12878418	104.979705811	47.0213127136	-19.5871181488
0.0	-0.0	140.727722168	106.032920837	48.0898704529	-21.4672813416
0.0	-0.0	149.335372925	104.830276489	50.4625740051	-22.5168914795
0.0	-0.0	126.279586792	103.731643677	51.4343032837	-24.5897903442
0.0	-0.0	76.6571807861	101.268554688	55.7059631348	-24.5971736908
0.0	-0.0	109.672637939	98.9201660156	57.740901947	-23.4315013885
