0.101802349091	1.28524041176	-0.0911152362823	0.0640439987183	1.61378693581	-0.338935732841
0.100834846497	1.28493213654	-0.0918037891388	0.0631158351898	1.61372852325	-0.339138031006
0.0994091033936	1.28444743156	-0.0930298566818	0.0621480941772	1.61367225647	-0.340015649796
0.0978405475616	1.28574573994	-0.0973443984985	0.0596010684967	1.61431396008	-0.341257095337
0.0889942646027	1.28469526768	-0.107051610947	0.0526776313782	1.61698806286	-0.342980861664
0.0656611919403	1.27254879475	-0.11710691452	0.0392417907715	1.6224449873	-0.346243858337
0.0339512825012	1.25652885437	-0.127228975296	0.0254073143005	1.62859833241	-0.350175380707
0.0103182792664	1.24863648415	-0.135990858078	0.012579202652	1.63340997696	-0.35324716568
0.00136089324951	1.24863803387	-0.140678048134	0.0041389465332	1.6356703043	-0.354613780975
-0.00227546691895	1.24711096287	-0.141509532928	0.000553369522095	1.63636612892	-0.353319883347
-0.00310611724854	1.2420732975	-0.138163566589	-0.000126361846924	1.63804590702	-0.348907709122
-0.00226950645447	1.22962498665	-0.131922721863	-0.00103831291199	1.64091002941	-0.341471076012
0.00250673294067	1.219825387	-0.126888513565	-0.000934600830078	1.64187645912	-0.330176353455
0.00556135177612	1.21466910839	-0.123208045959	0.00046706199646	1.63788032532	-0.31826364994
0.00470566749573	1.2177118063	-0.125400304794	-0.00107932090759	1.63252341747	-0.312720537186
0.00120139122009	1.22009456158	-0.120578289032	-0.00570797920227	1.63144791126	-0.315377950668
-0.00568819046021	1.2240575552	-0.114201307297	-0.00823187828064	1.63531768322	-0.322299003601
-0.00969457626343	1.23254215717	-0.111035704613	-0.00612378120422	1.63779449463	-0.327461242676
-0.00624561309814	1.24232971668	-0.110451102257	-0.00109839439392	1.63756287098	-0.330835580826
-0.00017261505127	1.24891364574	-0.110302448273	0.00467085838318	1.63657355309	-0.336220264435
0.00625705718994	1.2527654171	-0.110688447952	0.00799465179443	1.63713681698	-0.344159603119
0.0161652565002	1.25917112827	-0.111173987389	0.00978684425354	1.63743376732	-0.350462198257
0.0264616012573	1.26591587067	-0.112865924835	0.011622428894	1.63745641708	-0.353680372238
0.0360431671143	1.27339017391	-0.114387154579	0.0117115974426	1.63864636421	-0.356168150902
0.0434432029724	1.28303253651	-0.117188215256	0.00963568687439	1.63986432552	-0.357527017593
0.0516767501831	1.29121267796	-0.119098186493	0.00787138938904	1.64121377468	-0.359520196915
0.0556588172913	1.29106891155	-0.119312882423	0.00761079788208	1.64207291603	-0.362620592117
0.0536546707153	1.28743493557	-0.120282292366	0.00836753845215	1.64250528812	-0.366735458374
0.050021648407	1.29172539711	-0.130448102951	0.00906610488892	1.64245724678	-0.371625900269
0.0501909255981	1.29568624496	-0.135606050491	0.00887393951416	1.64300656319	-0.377011060715
0.0563061237335	1.29994535446	-0.137572050095	0.00894808769226	1.64416909218	-0.383206129074
0.0607030391693	1.31039071083	-0.142923355103	0.0110318660736	1.64420902729	-0.388903856277
0.0563776493073	1.32103157043	-0.163313627243	0.014251947403	1.64185607433	-0.39394724369
0.059889793396	1.32569646835	-0.171074151993	0.0171568393707	1.63744199276	-0.397846341133
0.066942691803	1.32821965218	-0.176895141602	0.0198459625244	1.63566637039	-0.400055646896
0.0689675807953	1.32776832581	-0.180786967278	0.0217082500458	1.63579010963	-0.401776075363
0.0662066936493	1.32786631584	-0.184092521667	0.0229268074036	1.63636338711	-0.402872562408
0.0636579990387	1.33007204533	-0.191160678864	0.0233142375946	1.63634431362	-0.403066396713
0.06778383255	1.33449196815	-0.199995756149	0.023594379425	1.63554823399	-0.403347492218
0.0720455646515	1.33794283867	-0.209244608879	0.0249152183533	1.63494586945	-0.404313564301
0.0734338760376	1.34256708622	-0.215435266495	0.0278012752533	1.63559055328	-0.405838727951
0.0746872425079	1.34927845001	-0.217375516891	0.0313363075256	1.63655543327	-0.405464410782
0.0731632709503	1.35847330093	-0.230551600456	0.0336322784424	1.63692784309	-0.403789997101
0.0711147785187	1.36655533314	-0.245284080505	0.0333681106567	1.6362811327	-0.401577949524
0.0648889541626	1.36658060551	-0.250240802765	0.0298721790314	1.63557398319	-0.400772094727
0.0602140426636	1.36269021034	-0.246024370193	0.0247938632965	1.63615834713	-0.400705099106
0.0568580627441	1.35923612118	-0.239217638969	0.0194509029388	1.63922274113	-0.401680707932
0.0521650314331	1.35627985001	-0.230951189995	0.018057346344	1.64547300339	-0.40333545208
0.0463080406189	1.35462975502	-0.223224878311	0.021648645401	1.65011250973	-0.404886484146
0.0455241203308	1.35445606709	-0.220337867737	0.022271156311	1.6492484808	-0.403119564056
0.047544002533	1.35568666458	-0.220340132713	0.019683599472	1.64655470848	-0.397054791451
0.0519676208496	1.35752379894	-0.222108721733	0.0166614055634	1.64538311958	-0.38901245594
0.0522739887238	1.35579812527	-0.222779989243	0.0124273300171	1.64670467377	-0.381865978241
