0.00972056388855	1.22103738785	0.18604850769	0.0547113418579	1.60597455502	-0.198806285858
0.0100967884064	1.22074580193	0.186856031418	0.054515838623	1.60560274124	-0.197905898094
0.0118417739868	1.22210538387	0.188081026077	0.05437707901	1.60555446148	-0.197367668152
0.0134863853455	1.22194933891	0.18801856041	0.0530138015747	1.60655510426	-0.197229981422
0.014301776886	1.2178606987	0.187498569489	0.0503454208374	1.60774219036	-0.197609186172
0.0138683319092	1.21214199066	0.187307953835	0.0472440719604	1.60649442673	-0.197411060333
0.00669002532959	1.20199096203	0.183370232582	0.040641784668	1.60155940056	-0.194764614105
-0.00531029701233	1.18928337097	0.167350053787	0.0304484367371	1.59239113331	-0.188950777054
-0.0187766551971	1.17855870724	0.140189886093	0.0192239284515	1.58514392376	-0.181582212448
-0.0287051200867	1.17412495613	0.111466288567	0.0101382732391	1.57895803452	-0.175150990486
-0.0388712882996	1.17222750187	0.0911493301392	0.00545763969421	1.57253670692	-0.169317603111
-0.0457572937012	1.17419481277	0.0774643421173	0.00125217437744	1.56645452976	-0.165672302246
-0.0489912033081	1.17609131336	0.0643088817596	-0.0061936378479	1.56105816364	-0.164440393448
-0.0485947132111	1.1777203083	0.0553461313248	-0.013197183609	1.55709290504	-0.164397954941
-0.0463771820068	1.18427884579	0.0495657920837	-0.018728017807	1.55326282978	-0.163383603096
-0.0454232692719	1.1933836937	0.0417237281799	-0.0246722698212	1.54980313778	-0.16232252121
-0.0454280376434	1.2029967308	0.0241687297821	-0.0314209461212	1.54817485809	-0.160846114159
-0.04656291008	1.20986700058	0.00210642814636	-0.0373065471649	1.54754531384	-0.159190654755
-0.0458731651306	1.21749174595	-0.0230371952057	-0.0414657592773	1.54668271542	-0.15953040123
-0.0481088161469	1.21973407269	-0.039076089859	-0.0437359809875	1.54852628708	-0.163087129593
-0.045031785965	1.22372972965	-0.0432522296906	-0.0442941188812	1.55152904987	-0.168498754501
-0.0385794639587	1.23207032681	-0.0506188869476	-0.0432457923889	1.55375301838	-0.173854351044
-0.0252833366394	1.2445526123	-0.0665469169617	-0.0416367053986	1.55410850048	-0.174937009811
-0.00367045402527	1.25879085064	-0.0865833759308	-0.0425925254822	1.55062460899	-0.172309160233
0.00883150100708	1.2712572813	-0.0953285694122	-0.0446856021881	1.54740393162	-0.170179128647
-0.00965285301208	1.26318967342	-0.0899690389633	-0.0480265617371	1.54595172405	-0.168531894684
-0.0299286842346	1.2466878891	-0.0970900058746	-0.0518484115601	1.54506778717	-0.166503429413
-0.0330765247345	1.24836444855	-0.103286981583	-0.0549278259277	1.54458415508	-0.16422533989
-0.0353608131409	1.25206851959	-0.108439564705	-0.058527469635	1.54293119907	-0.161991238594
-0.0288383960724	1.26166117191	-0.114690542221	-0.0620093345642	1.54006588459	-0.159269571304
-0.0211052894592	1.27252411842	-0.117522239685	-0.0663657188416	1.5367051363	-0.159075498581
-0.0199477672577	1.27741324902	-0.11123418808	-0.0683743953705	1.53683698177	-0.161417484283
-0.0472991466522	1.26377260685	-0.0899939537048	-0.0692837238312	1.54026269913	-0.163965702057
-0.0732679367065	1.23392987251	-0.0390090942383	-0.0707156658173	1.54443597794	-0.165518045425
-0.0735743045807	1.2170675993	-0.0115126371384	-0.0728023052216	1.54765534401	-0.164196014404
-0.0675132274628	1.22215855122	-0.00605535507202	-0.0739023685455	1.54989516735	-0.160417199135
-0.0568091869354	1.23787271976	-0.00898361206055	-0.0744547843933	1.54992747307	-0.157341957092
-0.0415773391724	1.26174330711	-0.0272467136383	-0.0761494636536	1.54776728153	-0.156395196915
-0.0354425907135	1.26931452751	-0.0299823284149	-0.0773801803589	1.54965293407	-0.157898545265
-0.0480618476868	1.23498702049	0.0199055671692	-0.0765266418457	1.55260646343	-0.161277294159
-0.0384719371796	1.21855950356	0.0411559343338	-0.0743732452393	1.55369770527	-0.162850141525
-0.0314393043518	1.23597180843	0.0295125246048	-0.0725388526917	1.55299150944	-0.161573886871
-0.0213496685028	1.26434099674	0.00330495834351	-0.0715973377228	1.5541716814	-0.159339547157
-0.0125041007996	1.28384912014	-0.0289306640625	-0.0698344707489	1.555077672	-0.157201290131
-0.0117645263672	1.28926813602	-0.0461137294769	-0.0693633556366	1.55434024334	-0.155935764313
-0.0122957229614	1.28914701939	-0.0517276525497	-0.0707166194916	1.55392599106	-0.156114339828
-0.0129823684692	1.29153895378	-0.0568073987961	-0.0726475715637	1.55506563187	-0.157796978951
-0.014986038208	1.2966889143	-0.059383392334	-0.0738923549652	1.55663585663	-0.159422874451
-0.0192081928253	1.29893195629	-0.0542538166046	-0.0758945941925	1.5568344593	-0.158223628998
-0.0242216587067	1.29646921158	-0.0419371128082	-0.0781619548798	1.55480110645	-0.153059959412
-0.0300912857056	1.29259181023	-0.0313074588776	-0.0810837745667	1.55411231518	-0.145073056221
-0.0358734130859	1.29069912434	-0.0232000350952	-0.0847411155701	1.55366802216	-0.137077569962
-0.0469784736633	1.29560065269	-0.0338243246078	-0.0885772705078	1.55296266079	-0.129940271378
-0.0614097118378	1.30372750759	-0.0615663528442	-0.0907018184662	1.55175197124	-0.124217510223
-0.0668294429779	1.30678892136	-0.0784754753113	-0.0929887294769	1.55161499977	-0.122561216354
-0.0701327323914	1.30245578289	-0.0881638526917	-0.0984816551208	1.55128419399	-0.121797800064
-0.0676310062408	1.30311119556	-0.096292257309	-0.105888366699	1.54816663265	-0.12127494812
-0.0691788196564	1.3058296442	-0.102926254272	-0.113025426865	1.54861092567	-0.121709108353
-0.0942792892456	1.29288303852	-0.107705950737	-0.122649431229	1.54810535908	-0.123351335526
-0.124206066132	1.27655827999	-0.106428742409	-0.135149240494	1.54638135433	-0.124643087387
-0.128701210022	1.28751826286	-0.107098579407	-0.147979021072	1.54621779919	-0.124157190323
-0.141647100449	1.28906166553	-0.121222496033	-0.158839941025	1.54588878155	-0.124134063721
-0.155772924423	1.29330635071	-0.118655204773	-0.16672539711	1.54524612427	-0.124555110931
-0.164546728134	1.30246269703	-0.10454916954	-0.170499324799	1.54478704929	-0.12538921833
-0.187269449234	1.28395676613	-0.0900166034698	-0.171225070953	1.54472005367	-0.126569032669
-0.184847831726	1.28037822247	-0.0971494913101	-0.169868469238	1.54367256165	-0.126942873001
-0.176039934158	1.2836253643	-0.112169861794	-0.166797876358	1.54447555542	-0.127963542938
-0.173558950424	1.28334319592	-0.113924980164	-0.162557601929	1.54500842094	-0.129065394402
-0.178310632706	1.28052258492	-0.0971574783325	-0.157982110977	1.54530441761	-0.129557609558
-0.186702251434	1.27287602425	-0.0506168603897	-0.152842760086	1.54538023472	-0.131286144257
-0.183840990067	1.2612426281	0.004310131073	-0.146807670593	1.54674732685	-0.13457763195
-0.18436217308	1.2491247654	0.0350838899612	-0.142303705215	1.54895317554	-0.137544393539
-0.182417154312	1.23952960968	0.0594682693481	-0.13990187645	1.54967749119	-0.140016555786
-0.1774995327	1.2559800148	0.0628974437714	-0.138231992722	1.54917955399	-0.14045214653
-0.168453216553	1.28044044971	0.0547077655792	-0.135571479797	1.54859423637	-0.141094088554
-0.146459817886	1.30197679996	0.0531293153763	-0.132352113724	1.54903590679	-0.140567302704
-0.114793777466	1.32492244244	0.0276658535004	-0.13022518158	1.55010914803	-0.138586044312
-0.0992650985718	1.33207190037	-0.00441122055054	-0.127514362335	1.55391788483	-0.135783433914
-0.113633394241	1.32360887527	-0.00461888313293	-0.122257232666	1.55928623676	-0.131789088249
