0.0939965248108	1.2464621067	0.0909039974213	0.00347471237183	1.61025953293	-0.178361415863
0.0953707695007	1.24922204018	0.0856605768204	0.00280714035034	1.61082172394	-0.183699369431
0.0978240966797	1.24941051006	0.0811184644699	0.00290250778198	1.61205470562	-0.187381744385
0.100207090378	1.24840021133	0.0765542984009	0.00424671173096	1.61355149746	-0.190461397171
0.103572368622	1.244987607	0.0759925842285	0.00922513008118	1.61111044884	-0.194851160049
0.104856491089	1.23848235607	0.0760724544525	0.0168950557709	1.60037851334	-0.198444247246
0.10107922554	1.23404467106	0.0715223550797	0.0208439826965	1.58996450901	-0.198192596436
0.0976798534393	1.23428046703	0.0613358020782	0.0228586196899	1.58309197426	-0.19703412056
0.0983564853668	1.24085056782	0.0447225570679	0.0258016586304	1.58092701435	-0.19593834877
