0.0	-0.0	133.056518555	-146.481201172	78.7035827637	146.129898071
0.0	-0.0	132.592514038	-145.792358398	78.3047332764	146.552474976
0.0	-0.0	130.483551025	-145.037063599	78.3483657837	147.038528442
0.0	-0.0	125.99131012	-146.545288086	76.8890533447	148.854629517
0.0	-0.0	119.155601501	-154.062011719	71.0529022217	153.231613159
0.0	-0.0	114.568450928	-167.362289429	62.4045066833	158.267959595
0.0	-0.0	116.027755737	-177.66708374	55.7146034241	162.338729858
0.0	-0.0	115.876098633	178.193130493	50.2941970825	164.636901855
0.0	-0.0	116.776329041	176.914718628	45.2748603821	166.507202148
0.0	-0.0	117.85546875	174.290802002	41.2326965332	168.806274414
0.0	-0.0	117.976493835	170.550857544	38.1551017761	170.019088745
0.0	-0.0	113.003715515	168.513381958	34.7747154236	171.514511108
0.0	-0.0	108.184944153	168.390228271	32.755355835	173.663208008
0.0	-0.0	104.735542297	169.131835938	32.2020149231	175.366210938
0.0	-0.0	99.4622344971	169.120620728	33.2350387573	175.73576355
0.0	-0.0	89.8734130859	167.284515381	36.8410377502	175.462081909
