-34.3288841248	-40.8248634338	133.715042114	-2.7631020546	2.66361737251	-7.18982744217
-34.103061676	-40.6351280212	133.606796265	-2.77485466003	2.82136511803	-7.09069395065
-34.0551719666	-40.5262260437	133.074935913	-2.7853243351	2.86553621292	-6.94780826569
-30.9544391632	-42.1900749207	122.920669556	-2.87194108963	2.78158712387	-6.73087978363
-21.7841186523	-45.4529380798	95.9498901367	-3.02603268623	2.84899330139	-6.43198347092
-24.7659683228	-46.5205497742	94.687286377	-3.1342651844	2.84518122673	-6.27703762054
-29.5915985107	-48.6491851807	94.6703872681	-3.25963616371	2.85278224945	-6.06351423264
-34.1861724854	-53.2551689148	94.043296814	-3.22969460487	2.63483810425	-6.00148868561
-39.9567604065	-60.2695121765	92.9206314087	-2.90872788429	2.10752296448	-6.07125616074
-50.0849723816	-66.7918243408	96.2545471191	-2.75769400597	1.76380753517	-6.23305940628
-70.1747894287	-72.1564407349	112.747505188	-2.66273832321	1.58932733536	-6.28760719299
-98.9147644043	-73.7924728394	138.292541504	-2.60107159615	0.584245741367	-6.04094791412
-121.07850647	-73.0417098999	157.005157471	-2.30413770676	-0.32680311799	-5.80481481552
-134.539169312	-73.5105133057	166.316635132	-1.82104730606	0.737094759941	-5.51382446289
-137.458297729	-74.300491333	165.705291748	-1.40964925289	2.08857631683	-5.5798535347
-123.988616943	-75.2233886719	152.092025757	-1.41751825809	2.39107060432	-5.46987009048
-78.179725647	-76.2246627808	105.207084656	-1.87608516216	2.57064533234	-5.24756240845
-39.1908416748	-71.3619842529	60.5612678528	-1.92755448818	2.37360835075	-5.04362154007
-31.3069171906	-70.5142745972	44.5587692261	-2.14184331894	2.09578752518	-4.40900659561
-41.5279769897	-73.1498413086	49.0264434814	-2.5315155983	1.68870091438	-3.11532902718
-51.7920608521	-75.291053772	57.7379264832	-2.61385536194	1.77129423618	-2.44041061401
-59.3011550903	-76.1979827881	64.9063720703	-2.61102938652	2.18093919754	-1.59953629971
-64.4149093628	-76.127243042	70.6137924194	-2.73472762108	2.65591144562	-0.843217670918
-69.7218856812	-75.7365646362	76.2298660278	-2.54236197472	2.38145327568	-0.425422906876
-71.7000579834	-75.4964599609	79.9216995239	-2.27419066429	2.5487074852	0.184653177857
-67.8863983154	-74.1701889038	80.2928771973	-2.34357500076	2.64561772346	0.240453854203
-61.6802406311	-73.6103439331	76.888092041	-2.64634680748	2.85825490952	0.0497605130076
-65.5609359741	-74.0362854004	81.4086303711	-2.75063562393	2.54310917854	-0.0243505500257
-75.2633972168	-75.119468689	91.8869247437	-3.07188415527	1.48880887032	0.0470481403172
-83.1271209717	-76.1767120361	100.295097351	-2.95134520531	1.651278615	-0.23947994411
-87.9792556763	-76.2849731445	105.134620667	-1.94900548458	2.07093715668	-0.570704877377
-81.3198547363	-77.1547241211	96.4790496826	-1.40797448158	3.23600840569	-0.669822573662
-74.8197097778	-77.1056060791	88.258102417	-1.91137063503	3.64039158821	-0.629289031029
-62.6358833313	-76.8795700073	73.6047973633	-2.05260109901	3.7148308754	-0.611743628979
-39.364276886	-75.5604476929	46.112197876	-1.4818713665	3.90955471992	-0.602886557579
-32.5679588318	-73.6809692383	37.5213050842	-1.62047767639	3.76165032387	-0.599185883999
-34.9309692383	-71.9053344727	40.4554443359	-2.04386901855	3.90293741226	-0.752499163151
-31.4611339569	-70.5727844238	37.0632133484	-2.26120948792	3.81584048271	-0.90243345499
-21.6976642609	-64.5135650635	24.7859230042	-2.0930314064	3.76466655731	-0.761850476265
-15.1383714676	-59.2648200989	16.356803894	-1.74424135685	3.7068066597	-0.720179736614
-17.0414962769	-60.5287322998	19.903470993	-1.87946212292	3.70474600792	-0.778510093689
-24.3180122375	-63.0701675415	30.0296630859	-2.5684530735	3.61232852936	-0.622958064079
-32.8179588318	-65.6763153076	39.4725151062	-3.49085450172	3.74813270569	-0.49538475275
-39.8092803955	-68.4158554077	45.6980895996	-3.50689840317	3.95135712624	-0.382792502642
-47.2774200439	-71.0786590576	51.4226570129	-3.18723106384	3.83787035942	-0.298837065697
-56.4160766602	-73.088973999	59.2074012756	-3.26556634903	3.311242342	-0.471016049385
-62.3261146545	-74.5087585449	63.0907745361	-3.6520178318	2.80440402031	-0.742110013962
-61.0759887695	-74.8031921387	60.9622192383	-3.75187087059	2.8080637455	-1.10875248909
-58.4188346863	-74.951210022	58.0851516724	-3.40735077858	2.87991070747	-1.78174936771
-56.0872955322	-75.0493240356	55.6448249817	-3.29256701469	2.44956016541	-2.08359122276
-56.8321990967	-74.7658920288	55.9896011353	-3.63009810448	1.41189479828	-1.83701431751
-57.3624000549	-75.1559753418	56.4149665833	-4.7886390686	0.114980682731	-1.38481509686
