0.0	-0.0	138.926513672	-140.235321045	80.8046646118	153.26914978
0.0	-0.0	138.216186523	-139.098709106	81.9097900391	153.896316528
0.0	-0.0	137.079742432	-138.204559326	82.9480361938	154.167922974
0.0	-0.0	131.631988525	-137.866012573	85.1134109497	154.963043213
0.0	-0.0	102.377220154	-138.471435547	86.550453186	155.875045776
0.0	-0.0	78.9094619751	-140.447402954	86.8067550659	158.204238892
0.0	-0.0	68.7294692993	-144.794708252	89.5408172607	162.455551147
0.0	-0.0	65.5649108887	30.5741348267	89.2661972046	-13.1968393326
0.0	-0.0	65.6122055054	-150.695663452	89.9460906982	170.082748413
0.0	-0.0	57.4678192139	-150.500640869	87.5726394653	173.521057129
0.0	-0.0	49.4542999268	-151.007339478	83.4065628052	177.379272461
0.0	-0.0	50.419506073	-151.803848267	81.0894012451	179.859558105
0.0	-0.0	54.0808792114	-152.084442139	80.7819366455	-179.269943237
0.0	-0.0	57.4367752075	-150.666381836	81.0433425903	179.468612671
0.0	-0.0	74.4513702393	-149.687088013	81.9239120483	178.290527344
0.0	-0.0	95.2573471069	-149.532363892	83.8601455688	176.723602295
0.0	-0.0	104.607780457	-147.955596924	85.8354644775	175.483383179
0.0	-0.0	105.822891235	-145.921157837	87.2362823486	174.072677612
0.0	-0.0	100.544021606	-145.92288208	86.3752822876	175.800369263
0.0	-0.0	77.5397644043	-148.719085693	87.0770797729	178.730377197
