7.35787963867	-56.3375740051	137.887237549	1.30098330975	3.61618328094	-4.29591560364
7.07764005661	-56.3548469543	138.290664673	1.10568583012	3.80803394318	-4.04366254807
5.87176084518	-55.0770225525	136.928085327	0.700445652008	3.99499988556	-3.83928513527
5.93165588379	-44.3581848145	111.051681519	-0.245246887207	3.84059262276	-3.42211461067
3.97412824631	-32.2049598694	67.6116714478	-1.03920125961	3.35379004478	-3.17326068878
-7.5897898674	-35.4691162109	55.0744285583	-1.7561365366	2.94668006897	-2.87376308441
-16.5579776764	-40.9251174927	50.2468643188	-2.54115247726	2.36062836647	-2.4975066185
-23.9885215759	-46.3045539856	52.922492981	-2.92701840401	2.03212213516	-1.98082280159
-28.3747177124	-49.2755699158	59.0303840637	-3.33969974518	2.3457839489	-1.30522239208
-32.7859039307	-53.2354202271	77.2280578613	-3.87615060806	2.6826672554	-0.930040955544
-30.8057060242	-53.5576248169	78.4227600098	-3.83520793915	2.46922063828	-0.963348686695
-28.0096111298	-54.4759597778	79.2138061523	-3.39474821091	2.35062432289	-0.64904910326
-24.681388855	-55.8419876099	80.0093765259	-2.99880671501	2.44999694824	-0.522909164429
-18.8628349304	-57.4070358276	76.2737197876	-2.87370443344	2.29020905495	-0.746678888798
-8.69815635681	-57.350566864	61.5771980286	-2.42885756493	2.19336986542	-1.07879936695
-8.62943172455	-62.4480018616	63.2413063049	-2.26325821877	1.53693842888	-0.970567047596
-11.5324525833	-62.3783149719	60.915309906	-2.36815738678	1.35669374466	-0.734673917294
-13.1820526123	-58.2110328674	48.7021026611	-2.4383919239	1.74289476871	-0.297990292311
-13.5485115051	-50.4121627808	23.0563869476	-2.53620934486	1.67735683918	0.112507425249
-16.1168670654	-41.680267334	6.20142555237	-2.60536646843	1.8452848196	0.676993191242
-17.6013641357	-35.9968986511	2.09433102608	-2.81838393211	2.46978235245	1.1518226862
-23.3512763977	-44.5536384583	58.3200035095	-3.37147879601	2.80846714973	1.12373948097
-26.2732086182	-48.2683181763	86.5291213989	-3.54621863365	2.8535618782	0.99321860075
-24.6551570892	-52.6914024353	91.8205871582	-3.14800548553	2.28603196144	0.767906308174
