-1.88745713234	-31.5746555328	135.946426392	1.2115855217	4.85165643692	-4.134953022
-1.85710561275	-31.0249900818	135.332839966	1.20591509342	4.51237392426	-4.19668912888
-1.97843921185	-31.013299942	134.361236572	0.865229666233	4.39522743225	-4.27100849152
-0.92621243	-31.7844028473	118.389022827	-0.0348812267184	4.2260260582	-4.03706502914
-3.63497209549	-30.9862957001	92.4987487793	-1.87272977829	1.92401027679	-3.40496969223
-8.79221439362	-28.1866188049	74.2139205933	-6.10106372833	-3.72511935234	-1.73403894901
-15.3980798721	-25.9618415833	69.4324035645	-10.9029045105	-8.37363147736	0.296159029007
-19.0080318451	-28.84400177	80.5167312622	-12.9692192078	-11.3692579269	1.3487612009
-16.5892086029	-30.4778671265	87.6562423706	-11.3771162033	-13.8610858917	0.390377789736
-17.3091716766	-35.2527008057	98.0695343018	-10.692152977	-16.1868572235	0.877788484097
-20.8726501465	-45.8292655945	108.673606873	-13.2130260468	-18.2971630096	2.78926229477
-20.775604248	-57.2675476074	108.062477112	-13.8944292068	-19.967918396	3.35721111298
6.00351715088	-56.11095047	66.2461090088	-12.8737535477	-20.4182548523	3.16272878647
21.1171264648	-38.7522354126	35.47315979	-12.1308689117	-20.0282077789	3.04190778732
21.5659732819	-36.2676429749	37.8295097351	-11.6763162613	-19.4180412292	2.75590014458
21.3545303345	-39.4822692871	44.2245445251	-11.3446493149	-18.4025363922	2.47070717812
16.3703517914	-43.4278373718	59.8903427124	-10.8937072754	-17.2180309296	2.01514434814
15.2629308701	-41.8694534302	67.8952026367	-10.7365684509	-17.145357132	1.70400309563
13.2744398117	-43.4941368103	78.586227417	-10.9266805649	-17.6420783997	1.25521659851
8.00814533234	-49.1962738037	95.8152236938	-10.9738330841	-18.1126384735	0.994288265705
8.59278011322	-50.6941795349	97.9123077393	-10.6325206757	-18.3420696259	0.198880717158
17.2083511353	-46.3847732544	77.831161499	-10.1134109497	-18.035867691	-0.565221250057
22.2104663849	-39.542339325	61.2802581787	-10.7085504532	-17.7079849243	-0.115112178028
20.4023723602	-42.0847129822	63.7898139954	-12.7807044983	-18.6785087585	1.56653523445
20.9753990173	-41.2445144653	63.6670837402	-13.4827547073	-19.4960575104	2.2166454792
22.3823509216	-39.5794715881	59.3689537048	-11.4984931946	-19.4262237549	1.64882874489
22.3228302002	-41.850276947	58.0115318298	-8.7723903656	-17.6913757324	1.24521100521
21.0514183044	-43.0001220703	59.3724327087	-8.40078639984	-16.9225215912	1.47211933136
19.5887451172	-41.3690452576	60.3336029053	-9.31155967712	-16.9808921814	2.01927495003
19.2667102814	-40.6035690308	60.498500824	-9.28928756714	-17.8859100342	2.0675098896
18.0001831055	-42.0684509277	60.2420082092	-8.96136283875	-18.6463432312	2.1643345356
16.7492198944	-41.7222633362	55.5453720093	-9.11084461212	-19.5461616516	2.88073348999
16.0227222443	-40.9234466553	55.7328147888	-9.24684429169	-21.6226940155	3.12219524384
15.0190210342	-37.4741859436	56.1290893555	-9.33393192291	-24.606584549	3.62135124207
15.2591810226	-33.9622344971	55.2892341614	-8.04514598846	-25.6635894775	2.73195338249
