0.0997180938721	1.31794440746	-0.169083833694	0.0305075645447	1.61737143993	-0.362733364105
0.0993695259094	1.3177382946	-0.169218420982	0.0300674438477	1.61734437943	-0.362456083298
0.0987093448639	1.31710636616	-0.169006586075	0.0298361778259	1.61720407009	-0.361975550652
0.0975947380066	1.31601762772	-0.169723153114	0.0288994312286	1.61624109745	-0.361344575882
0.0959424972534	1.31413853168	-0.171708583832	0.0263538360596	1.61244904995	-0.359176874161
0.0920197963715	1.31219661236	-0.174684882164	0.0235776901245	1.60599637032	-0.355165958405
0.0885939598083	1.31270694733	-0.178300857544	0.0213875770569	1.59779131413	-0.349424362183
0.08740234375	1.31482613087	-0.183332204819	0.0205473899841	1.5866740942	-0.34187734127
0.0905017852783	1.31440460682	-0.182893633842	0.0201313495636	1.57401323318	-0.332966327667
0.0877039432526	1.30775272846	-0.183148980141	0.0193333625793	1.56413769722	-0.324897170067
0.0791013240814	1.2986894846	-0.18706202507	0.0176815986633	1.55908918381	-0.319083690643
0.0731155872345	1.29059433937	-0.1837246418	0.0171635150909	1.56293785572	-0.316118240356
0.0665130615234	1.28044068813	-0.170926094055	0.0206549167633	1.56971621513	-0.316587090492
0.0613830089569	1.27763307095	-0.160748839378	0.0236294269562	1.57549476624	-0.31991481781
0.0586974620819	1.28746831417	-0.158554792404	0.0239057540894	1.58002209663	-0.325284719467
0.0581102371216	1.30015420914	-0.156908988953	0.0240378379822	1.58213508129	-0.3302693367
0.0612375736237	1.31025207043	-0.152189254761	0.0254652500153	1.58152627945	-0.332387924194
0.0681426525116	1.32042241096	-0.150998830795	0.0284323692322	1.57941782475	-0.331095099449
0.0769906044006	1.32824730873	-0.153706431389	0.033510684967	1.57437646389	-0.326575994492
0.0819730758667	1.32644045353	-0.156519770622	0.03764128685	1.56740260124	-0.319712042809
0.0842542648315	1.31788754463	-0.155166864395	0.0409414768219	1.56330680847	-0.313297748566
0.0859446525574	1.31249451637	-0.154833555222	0.0450222492218	1.56035125256	-0.309408903122
0.0868301391602	1.31289064884	-0.15856051445	0.048828125	1.55723893642	-0.306698441505
0.0877883434296	1.3133841753	-0.160873532295	0.0514905452728	1.55463826656	-0.303873300552
0.0882859230042	1.31235337257	-0.162036657333	0.0534448623657	1.55037903786	-0.300701618195
0.0890347957611	1.31100177765	-0.164056301117	0.0548195838928	1.54695236683	-0.298924088478
0.0907833576202	1.30951499939	-0.165304422379	0.0551974773407	1.54546773434	-0.298837184906
0.0933945178986	1.30897510052	-0.166137814522	0.0547080039978	1.54453384876	-0.299564599991
0.0924952030182	1.30664348602	-0.165436267853	0.052764415741	1.54634916782	-0.301277279854
0.0901565551758	1.30356740952	-0.161610364914	0.0493626594543	1.54967617989	-0.302449464798
0.0874636173248	1.30349266529	-0.158615469933	0.0457773208618	1.55097079277	-0.303400039673
0.0862784385681	1.30844986439	-0.160064458847	0.0428438186646	1.5517655611	-0.303551673889
0.0850698947906	1.31194651127	-0.159374713898	0.0415470600128	1.55109286308	-0.300809383392
0.0857853889465	1.31083571911	-0.155949831009	0.0431475639343	1.5474152565	-0.294703722
0.0884461402893	1.30700993538	-0.153752207756	0.0461912155151	1.54316198826	-0.285891532898
0.0932703018188	1.30119585991	-0.15121781826	0.0481371879578	1.54076087475	-0.27876329422
0.0975244045258	1.29540336132	-0.147667884827	0.0462284088135	1.5422514677	-0.276606440544
0.0965497493744	1.29451501369	-0.148817300797	0.0427129268646	1.54548382759	-0.278417110443
0.0923199653625	1.29760193825	-0.153149366379	0.0387787818909	1.54998552799	-0.282245635986
0.0914747714996	1.30212700367	-0.154786705971	0.0359854698181	1.55373859406	-0.285907149315
0.0907616615295	1.30577886105	-0.154534339905	0.0359060764313	1.55477046967	-0.287209033966
0.0897545814514	1.30633962154	-0.153169393539	0.0378708839417	1.55398380756	-0.285773038864
0.0897300243378	1.30487561226	-0.150322675705	0.0446920394897	1.55104649067	-0.282809495926
0.089558839798	1.30250895023	-0.147264957428	0.0571656227112	1.54740953445	-0.279489398003
0.0900382995605	1.30038678646	-0.144226789474	0.0639622211456	1.54400324821	-0.27471768856
0.0915007591248	1.2977912426	-0.140375375748	0.0610971450806	1.54059410095	-0.267975687981
0.0924088954926	1.29608631134	-0.138309955597	0.0535542964935	1.53991043568	-0.265165090561
0.0916609764099	1.29815232754	-0.138223171234	0.0476593971252	1.54333770275	-0.2681889534
0.0894436836243	1.30397331715	-0.140006780624	0.0446693897247	1.54644870758	-0.274597883224
0.08775806427	1.3092893362	-0.143643140793	0.0446484088898	1.54800832272	-0.280431747437
0.0879287719727	1.3097679615	-0.146536827087	0.0503590106964	1.5493439436	-0.284852385521
0.0909531116486	1.30656826496	-0.147670507431	0.0614836215973	1.54892146587	-0.286468982697
0.0970828533173	1.30204343796	-0.148919701576	0.0748062133789	1.54461169243	-0.285096764565
0.105888128281	1.29668557644	-0.151426553726	0.0827875137329	1.54255628586	-0.279937028885
0.114940643311	1.29037499428	-0.150604009628	0.086348772049	1.54406702518	-0.275435447693
0.121584415436	1.28598606586	-0.149105548859	0.0833814144135	1.55466341972	-0.273306727409
0.125780105591	1.28668475151	-0.148394823074	0.072717666626	1.56677436829	-0.274264335632
0.126802921295	1.29061484337	-0.148077964783	0.0548677444458	1.56938922405	-0.276608228683
0.124279499054	1.29538440704	-0.148324728012	0.0397794246674	1.5642772913	-0.27787899971
0.120949029922	1.29679882526	-0.146548986435	0.0349969863892	1.56575155258	-0.276635885239
