0.0	-0.0	138.353134155	-131.23789978	72.7950592041	163.722167969
0.0	-0.0	137.951751709	-130.428817749	73.5556182861	164.225692749
0.0	-0.0	134.100418091	-130.78364563	74.5749359131	164.441574097
0.0	-0.0	95.8072128296	-133.060943604	78.0747146606	164.971801758
0.0	-0.0	65.7195358276	-136.566238403	80.2569046021	166.073287964
0.0	-0.0	45.5477523804	-138.925598145	78.0857162476	167.504638672
0.0	-0.0	47.8407516479	-140.496124268	77.9367141724	169.977813721
0.0	-0.0	55.4859161377	-141.931289673	79.8879241943	172.539855957
0.0	-0.0	69.4805603027	-143.114654541	80.7958526611	174.909378052
0.0	-0.0	88.258026123	-144.15737915	79.3797988892	177.192199707
0.0	-0.0	101.920783997	-144.683761597	77.5928726196	178.872375488
0.0	-0.0	106.215927124	-143.592422485	78.3752212524	179.413955688
0.0	-0.0	100.573425293	-141.784606934	79.9214859009	179.677871704
0.0	-0.0	88.5217285156	-141.037353516	82.1880569458	-179.498794556
