26.807472229	1.62477362156	19.0445308685	20.6826915741	23.4196605682	33.3535385132
26.9962654114	1.59503674507	19.0991744995	20.7341079712	23.3878974915	33.3973770142
26.8371105194	1.87373805046	19.3798484802	20.516330719	23.3966617584	33.3355522156
26.399641037	2.15301251411	19.273015976	20.1483383179	23.392999649	33.1665267944
25.7959136963	2.74466967583	18.3164329529	19.2805747986	23.3375358582	32.6753959656
24.9403896332	1.93843686581	15.6145601273	17.8285503387	23.1192970276	30.8060150146
19.1850280762	-0.309988170862	5.85769796371	16.0857143402	22.8653087616	27.9380340576
9.32343387604	-0.920677304268	-6.06915664673	14.659989357	22.9640235901	25.782377243
1.81739616394	-1.03764843941	-11.1611661911	13.430970192	23.0379104614	24.3999671936
-3.73477673531	-1.52727079391	-12.6388139725	12.1504535675	22.9412593842	23.3456726074
-7.81997108459	-2.19115924835	-13.93247509	10.9191179276	22.95611763	22.1162147522
-10.7314481735	-2.92155361176	-13.2028017044	9.98508167267	23.4424247742	20.9680728912
-11.7035665512	-3.15836644173	-12.968298912	9.67022800446	23.9851799011	20.1822338104
-11.8000087738	-2.99467968941	-12.7654514313	9.96148777008	24.4297771454	20.0852642059
-11.5705938339	-2.78591156006	-12.1231002808	9.97735023499	25.0251102448	20.5651988983
-11.2875938416	-2.40853977203	-11.1100378036	9.56296157837	25.6206855774	20.8619327545
-11.0037546158	-2.49482011795	-10.2675008774	9.44613742828	25.8582420349	20.8969345093
-10.9788408279	-2.75260519981	-9.67417240143	9.6391210556	26.2682704926	21.1172294617
-11.0275859833	-2.68198466301	-9.62815952301	9.74808216095	26.7257289886	21.5656509399
-10.6795034409	-2.31303954124	-9.86705780029	9.76896381378	27.5530109406	21.7844047546
-10.5901222229	-1.96778357029	-9.89164829254	10.8244352341	29.0637664795	22.4582290649
-10.5356798172	-1.76691269875	-10.0845708847	11.7050189972	29.0655250549	23.1947402954
-9.76773262024	-1.66339194775	-12.6409835815	11.1349925995	28.2342529297	23.8017730713
-10.0235681534	-1.73181009293	-17.2131996155	10.9864234924	28.0766582489	24.0764961243
-9.88942432404	-0.551892638206	-18.1921443939	11.7261619568	28.449754715	24.393371582
-9.11825752258	0.30451592803	-14.5745000839	11.4657936096	28.0101642609	24.548418045
-9.34764289856	0.313909053802	-11.6387367249	10.6738023758	27.5293712616	24.3002586365
-10.9430646896	-0.516982734203	-12.2151823044	10.1023139954	27.1495990753	24.0527687073
-11.8668460846	-0.710833370686	-12.7577171326	9.90741348267	26.7218360901	23.6755104065
-12.6119728088	-0.802040576935	-13.6375522614	9.64260101318	26.3535041809	23.3968448639
-12.4082221985	0.48580956459	-14.5283966064	9.2611579895	26.2283210754	23.2990074158
-12.3393754959	0.986481189728	-16.4613742828	9.00054550171	25.9833984375	23.304479599
-11.4163293839	2.24032449722	-18.1954574585	8.96331214905	25.961107254	23.4576683044
-10.4158973694	2.97514867783	-16.1844005585	8.92314243317	25.783575058	23.5120239258
-10.0358123779	3.27683258057	-14.0968132019	8.7394285202	25.4436073303	23.1639595032
-9.49151134491	2.87938261032	-14.1088905334	8.70157051086	25.0082855225	22.7602329254
-8.86930751801	1.76736140251	-12.7733659744	8.58234024048	24.2006950378	22.1234817505
-8.5716085434	0.759331941605	-12.6933364868	8.182264328	23.442899704	21.5092887878
-8.58009910583	0.0517824888229	-12.6434907913	7.83126926422	22.74700737	20.8892765045
-7.57772350311	0.21991455555	-11.9839057922	7.85491657257	22.3490028381	20.3562831879
-5.99412345886	0.654288589954	-11.0096616745	7.66915273666	22.0351829529	19.902048111
-4.84358739853	0.633747637272	-10.3619318008	7.20603370667	21.8126239777	19.6151542664
-4.17705011368	0.406557142735	-9.37937164307	6.70812559128	21.8864631653	19.285112381
-3.61437702179	-0.122369632125	-8.00708007812	5.98176717758	22.1454296112	18.999540329
-3.79523944855	-0.774449884892	-8.13373088837	5.2708272934	22.3148670197	18.8829498291
-3.94512414932	-0.595227539539	-8.0896282196	4.97365856171	22.7781295776	19.1516628265
-4.08470249176	-0.0226618070155	-8.14548873901	4.21981430054	23.3316326141	19.7998065948
-3.90973567963	0.652305006981	-8.06816864014	2.29107260704	24.4457492828	21.9448871613
-3.87956833839	1.55168330669	-7.58299303055	1.09860825539	24.7369556427	22.9381580353
-3.66009092331	2.35046672821	-7.02925157547	1.72589528561	24.3966503143	23.6457061768
-3.40828371048	2.34947538376	-7.00883102417	2.00165605545	23.8171463013	24.3133831024
-3.89104437828	1.94681692123	-7.20286369324	1.93353033066	23.3557910919	24.4685230255
-3.90304160118	2.19784903526	-6.7905626297	2.33799529076	22.5207996368	24.5185451508
-4.02816867828	2.21286678314	-6.48042488098	2.82979941368	21.2944316864	24.4412307739
-4.39374876022	2.00455904007	-6.71708250046	3.44862222672	20.3450717926	24.2964477539
-4.70515394211	1.58520591259	-6.74940013885	4.08704519272	19.4262924194	23.8598384857
-5.34431266785	1.1694933176	-6.99575853348	4.51594543457	18.2843875885	23.2397193909
-5.79488134384	1.30326676369	-6.96017456055	4.52678394318	16.4858551025	22.3408184052
-6.14976215363	1.54490208626	-6.70214653015	4.70483112335	14.8731899261	21.6537342072
-6.9741859436	1.28199267387	-6.33887434006	5.20715427399	13.8839702606	20.7032203674
