0.096123456955	1.24981486797	0.0117115974426	0.0382409095764	1.61480855942	-0.191334009171
0.0938327312469	1.25355899334	0.00644636154175	0.0384838581085	1.61476492882	-0.192494750023
0.0915417671204	1.25634872913	0.00305831432343	0.0386095046997	1.61533212662	-0.193624377251
0.0893576145172	1.25924432278	-0.00415110588074	0.0379712581635	1.61417818069	-0.194229364395
0.0870914459229	1.26042962074	-0.0090240240097	0.0339112281799	1.61193728447	-0.194512367249
0.0683798789978	1.25018668175	-0.00937676429749	0.0252423286438	1.6114102602	-0.196447968483
0.0319836139679	1.23140490055	-0.019513130188	0.0128571987152	1.61248898506	-0.198889732361
0.00551509857178	1.22010552883	-0.0323328971863	0.000821590423584	1.61440098286	-0.201529026031
-0.0102219581604	1.21194553375	-0.0344556570053	-0.00874519348145	1.6157772541	-0.204564332962
-0.0263519287109	1.19784510136	-0.0288853645325	-0.0156893730164	1.61631560326	-0.206963777542
-0.0420138835907	1.18575882912	-0.032998085022	-0.0202655792236	1.61673343182	-0.207224369049
-0.0420269966125	1.19536328316	-0.0692172050476	-0.0257513523102	1.61732625961	-0.205615282059
-0.0294044017792	1.21273052692	-0.0939903259277	-0.0312752723694	1.61687624454	-0.203523397446
-0.0351345539093	1.21403312683	-0.0953938961029	-0.0338406562805	1.61529159546	-0.201266765594
-0.0376877784729	1.21711862087	-0.0887217521667	-0.0348422527313	1.61417257786	-0.199259281158
-0.0317595005035	1.22288763523	-0.0901215076447	-0.0370538234711	1.61367511749	-0.198051571846
-0.0267286300659	1.22468352318	-0.0972499847412	-0.0422048568726	1.61430251598	-0.198414802551
-0.0234272480011	1.22331798077	-0.0939798355103	-0.0506656169891	1.61453723907	-0.199885964394
-0.0212664604187	1.2205530405	-0.086742401123	-0.0586838722229	1.61372292042	-0.199810862541
-0.016966342926	1.22235393524	-0.0863406658173	-0.0654850006104	1.6141191721	-0.198896169662
-0.0135791301727	1.2254793644	-0.0918227434158	-0.0711469650269	1.61666572094	-0.196802616119
-0.0135507583618	1.2266343832	-0.0970170497894	-0.0791869163513	1.61783003807	-0.194719910622
-0.0174899101257	1.22616279125	-0.100649833679	-0.0884404182434	1.61694061756	-0.19252538681
-0.0211474895477	1.22702431679	-0.105235338211	-0.0960569381714	1.61570191383	-0.189893484116
-0.0185976028442	1.23449766636	-0.111210346222	-0.0998837947845	1.61416447163	-0.186592102051
-0.0207107067108	1.23483800888	-0.124209403992	-0.100928783417	1.6117054224	-0.185168027878
-0.0243229866028	1.23340582848	-0.130072951317	-0.100875377655	1.61097037792	-0.186423778534
-0.0261542797089	1.23374915123	-0.130799174309	-0.100488185883	1.61133563519	-0.188719987869
-0.0279548168182	1.2344481945	-0.13115632534	-0.0990750789642	1.61161184311	-0.191160917282
-0.0306770801544	1.2358289957	-0.135689973831	-0.097733259201	1.61209392548	-0.194338679314
-0.0305473804474	1.23854160309	-0.148858547211	-0.0959370136261	1.61360442638	-0.197016477585
-0.0357921123505	1.23935854435	-0.160620689392	-0.0929918289185	1.61338806152	-0.199599266052
-0.0409924983978	1.23854076862	-0.167236804962	-0.0909337997437	1.61080539227	-0.201374292374
-0.0419807434082	1.23861634731	-0.17130446434	-0.0940568447113	1.60872972012	-0.201868772507
-0.0389666557312	1.24159657955	-0.170445919037	-0.0963017940521	1.60708618164	-0.197668790817
-0.036169052124	1.24288702011	-0.166355133057	-0.0913991928101	1.6038672924	-0.18556189537
-0.0312359333038	1.24731683731	-0.159532785416	-0.093474149704	1.6031396389	-0.1746352911
-0.0283167362213	1.24785804749	-0.153071165085	-0.105298280716	1.60200786591	-0.17027592659
-0.0268571376801	1.2482187748	-0.147164821625	-0.123126268387	1.60137200356	-0.168800354004
-0.0245156288147	1.25171864033	-0.140441417694	-0.138528823853	1.59866631031	-0.164973855019
-0.0249452590942	1.25715899467	-0.134155273438	-0.148763418198	1.59558010101	-0.158421516418
-0.0330016613007	1.25797975063	-0.124380469322	-0.159710645676	1.59488737583	-0.150819301605
-0.0384063720703	1.26086747646	-0.106292486191	-0.16771197319	1.59398233891	-0.144657611847
-0.0476751327515	1.26648879051	-0.0849967002869	-0.174673318863	1.59371995926	-0.13839173317
-0.0566005706787	1.27217948437	-0.0772973299026	-0.182025432587	1.59451115131	-0.134002447128
-0.0632982254028	1.27520906925	-0.0766100883484	-0.187792778015	1.5970031023	-0.130294084549
-0.0725336074829	1.27092957497	-0.0764045715332	-0.193978071213	1.59973073006	-0.12738609314
-0.0810739994049	1.26534724236	-0.0721683502197	-0.197128534317	1.60214436054	-0.12459051609
-0.0844359397888	1.26543474197	-0.0676960945129	-0.194974660873	1.60379397869	-0.120895147324
-0.0865902900696	1.26668941975	-0.0662472248077	-0.190501928329	1.60420370102	-0.117896795273
-0.0866024494171	1.26506221294	-0.0641870498657	-0.188027381897	1.60485625267	-0.116812586784
-0.0854105949402	1.26280832291	-0.0623517036438	-0.18595790863	1.60619115829	-0.116810202599
