0.158561706543	1.11493849754	-0.0310871601105	0.0303893089294	1.60765373707	-0.290088415146
0.155003547668	1.12133717537	-0.0362339019775	0.0305671691895	1.60352540016	-0.29129743576
0.143723011017	1.13953316212	-0.0509061813354	0.0317878723145	1.59301114082	-0.291642904282
0.127335309982	1.15730345249	-0.0688320398331	0.03342461586	1.58504593372	-0.290584564209
0.113008499146	1.16209316254	-0.0799641609192	0.035276889801	1.58478033543	-0.291550397873
0.111338376999	1.15384936333	-0.0770676136017	0.0388615131378	1.58888876438	-0.295402765274
0.128778219223	1.15672445297	-0.071671962738	0.0465953350067	1.5945533514	-0.301332235336
0.149610280991	1.18941366673	-0.0802394151688	0.056923866272	1.59839868546	-0.307844877243
0.161649227142	1.22442162037	-0.0955910682678	0.0668160915375	1.59968209267	-0.31233048439
0.162024736404	1.24707615376	-0.10936832428	0.0712883472443	1.60072290897	-0.313941001892
0.158484697342	1.25740885735	-0.119449615479	0.073947429657	1.60273611546	-0.315419197083
0.158899068832	1.26203095913	-0.126315593719	0.0786581039429	1.60438764095	-0.31821501255
0.161880493164	1.26215684414	-0.126555919647	0.0803787708282	1.60705602169	-0.320380210876
0.16605257988	1.25869119167	-0.123468637466	0.0826389789581	1.61016821861	-0.323359847069
0.174546480179	1.26279687881	-0.127534389496	0.0868935585022	1.6097817421	-0.325171232224
0.178780794144	1.27135646343	-0.135003447533	0.0915083885193	1.60739719868	-0.323171615601
0.181043863297	1.27882885933	-0.145132184029	0.0932412147522	1.60705888271	-0.319210529327
0.179668664932	1.28021752834	-0.147934913635	0.0941123962402	1.60671055317	-0.315391302109
0.178454399109	1.27767765522	-0.145277142525	0.0938620567322	1.60590052605	-0.313257694244
0.176454782486	1.27991759777	-0.146559000015	0.0924699306488	1.6079750061	-0.311810016632
0.168616771698	1.28451430798	-0.147654414177	0.0920932292938	1.60957992077	-0.309967756271
0.160734415054	1.28698682785	-0.148616075516	0.0921912193298	1.6083855629	-0.307987928391
0.155114650726	1.28921735287	-0.148290634155	0.0902171134949	1.60632073879	-0.306712627411
0.15926361084	1.29025483131	-0.146868467331	0.0854170322418	1.60444951057	-0.306354761124
0.167709827423	1.28547585011	-0.134291648865	0.0792193412781	1.6047308445	-0.306668996811
0.174095392227	1.27707517147	-0.122287273407	0.07208776474	1.60726630688	-0.306770086288
0.176651239395	1.27475571632	-0.116369962692	0.0657172203064	1.61108326912	-0.305379152298
0.185076713562	1.27472233772	-0.10996222496	0.0613162517548	1.61312425137	-0.303200006485
0.190442323685	1.27539145947	-0.107375502586	0.0574109554291	1.61450016499	-0.300060987473
0.193853855133	1.27669203281	-0.109813451767	0.0522933006287	1.61628842354	-0.296471118927
