-82.3690567017	-71.8158493042	140.987030029	-0.0848592072725	4.8989443779	-7.72676038742
-81.6063613892	-71.912940979	139.966949463	0.0943339243531	4.76506185532	-7.72780179977
-80.0433883667	-72.0382995605	137.374053955	-0.131347447634	4.81183385849	-7.63899278641
-74.8170776367	-76.0875167847	127.983451843	0.0330217033625	4.13457775116	-7.45886039734
-60.621761322	-79.3465576172	111.746200562	2.64271354675	2.93734145164	-7.52213954926
-65.5239715576	-78.7883682251	116.733291626	6.56417703629	1.48548793793	-7.26378154755
-66.0905075073	-79.0027542114	117.820343018	10.0148162842	-0.253668755293	-6.87990570068
-62.5142059326	-78.9391098022	116.020736694	12.3570709229	-3.17504572868	-6.33056259155
-55.6173095703	-78.4537353516	109.489433289	14.2218580246	-5.46709251404	-5.980489254
-56.6548347473	-78.0553970337	110.161598206	16.5727558136	-5.54000234604	-6.24403047562
-61.1534309387	-77.1053924561	115.723327637	16.8302536011	-5.72210025787	-5.96626281738
-62.8140525818	-74.8531799316	119.976478577	16.2301654816	-7.16174888611	-5.28274583817
-65.2970275879	-73.1652297974	124.424713135	16.9931354523	-8.73759078979	-5.36394643784
-69.0845947266	-72.0089111328	130.100280762	18.1288070679	-8.73271751404	-5.3578619957
-74.8318939209	-71.2356719971	138.160400391	18.5879974365	-8.23704528809	-5.06850194931
-76.9169998169	-70.6703948975	144.318862915	17.9595737457	-8.7856798172	-4.89217233658
-74.612739563	-72.1001205444	139.686187744	17.7488193512	-9.0403842926	-5.01435899734
