0.0	-0.0	139.395324707	56.9388389587	80.5751419067	-12.5743875504
0.0	-0.0	140.483963013	56.3537101746	81.0321960449	-11.429681778
0.0	-0.0	140.185897827	55.673740387	80.893661499	-10.8101119995
0.0	-0.0	137.326934814	54.7946548462	80.9021759033	-11.1297388077
0.0	-0.0	128.057754517	53.8575706482	82.4672393799	-11.3473539352
0.0	-0.0	117.227890015	52.4182510376	84.9380493164	-11.2434368134
0.0	-0.0	105.850959778	51.1052474976	86.7245330811	-11.5328054428
0.0	-0.0	92.6033477783	53.7645263672	86.6356506348	-10.3107376099
0.0	-0.0	79.1560897827	61.5151901245	82.0881576538	-3.6731235981
0.0	-0.0	65.5232391357	60.8706550598	77.6685256958	1.39840316772
0.0	-0.0	53.7103004456	51.077293396	80.979019165	3.7926223278
0.0	-0.0	44.2708778381	48.0438842773	89.3906707764	5.42214202881
0.0	-0.0	33.9565963745	-127.102981567	81.8071060181	-168.746337891
0.0	-0.0	25.942232132	-124.421714783	76.62449646	-164.614532471
0.0	-0.0	26.9261493683	-132.049179077	81.3909225464	-174.807937622
0.0	-0.0	27.9432430267	-139.826446533	84.6927261353	174.433609009
0.0	-0.0	25.7970542908	-143.851806641	83.8417358398	167.787277222
0.0	-0.0	21.8458328247	-139.398712158	79.854057312	174.386917114
0.0	-0.0	17.9507369995	-135.997406006	83.3712081909	-178.642593384
0.0	-0.0	16.4476089478	37.9428215027	82.9667739868	4.06973314285
0.0	-0.0	17.7300777435	36.9680213928	67.0722198486	3.79578399658
0.0	-0.0	17.1784114838	37.878162384	53.7282752991	5.67685127258
0.0	-0.0	15.6739120483	38.3444366455	52.6330184937	6.58854627609
0.0	-0.0	13.3042478561	41.4682235718	54.7107620239	6.78131628036
0.0	-0.0	10.2875242233	43.8928642273	52.9653358459	11.3096551895
0.0	-0.0	8.38130569458	45.3462219238	50.5790138245	21.1116542816
0.0	-0.0	6.82560539246	50.441280365	50.9047355652	33.2906074524
0.0	-0.0	5.42886400223	54.2647972107	51.3929443359	43.2875442505
0.0	-0.0	5.96157741547	55.064994812	46.0051383972	37.8779029846
0.0	-0.0	7.4597992897	53.4252853394	40.0634651184	36.1116867065
0.0	-0.0	8.60128974915	52.3951301575	40.5934295654	35.6804275513
0.0	-0.0	7.75672292709	51.1815299988	45.0436058044	33.5495262146
0.0	-0.0	5.13977718353	49.7026596069	45.0546760559	31.1168899536
0.0	-0.0	2.88018274307	48.7052536011	43.5358161926	29.9157676697
0.0	-0.0	1.77805602551	49.586769104	38.7832832336	29.2937297821
0.0	0.0	-0.045612283051	50.2277336121	36.0359115601	28.4865226746
0.0	0.0	-3.26933145523	49.9491004944	36.150894165	27.690322876
0.0	0.0	-10.1868886948	49.0998268127	37.6295585632	26.5838356018
0.0	0.0	-17.5382938385	47.7411460876	39.2702865601	26.6512813568
0.0	0.0	-18.6814441681	48.1645851135	39.4065551758	25.9526119232
0.0	0.0	-21.7864780426	50.206829071	42.3521194458	25.718914032
0.0	0.0	-29.4063835144	52.4210281372	43.7781867981	26.9347229004
0.0	0.0	-33.3002548218	54.8553733826	44.4595184326	30.022769928
0.0	0.0	-34.2675895691	55.656337738	45.2915687561	30.6295509338
0.0	0.0	-35.3243942261	56.4583473206	45.2124481201	29.9991035461
0.0	0.0	-35.2912445068	58.1902694702	46.1041374207	29.5453529358
0.0	0.0	-31.8405723572	58.3551063538	45.6777381897	29.9599685669
0.0	0.0	-23.0374355316	57.4989013672	46.5249519348	30.5807170868
0.0	0.0	-18.1410865784	56.3382339478	47.2649040222	30.5529403687
0.0	0.0	-17.7456951141	52.7282676697	47.9396858215	29.5252323151
0.0	0.0	-16.6846847534	48.5945281982	34.8776664734	26.9981651306
0.0	0.0	-16.4630966187	50.5457229614	24.7447834015	23.6633529663
0.0	0.0	-16.5695133209	52.5765800476	22.1387329102	17.6303634644
0.0	0.0	-18.754529953	48.6560974121	22.6320590973	18.0239887238
0.0	0.0	-18.0127468109	49.0243492126	24.1891937256	18.0070228577
0.0	0.0	-16.2958087921	49.2761268616	24.956079483	18.5333366394
0.0	0.0	-15.3299427032	50.0881080627	25.2947387695	18.4678115845
0.0	0.0	-11.8614997864	50.2616271973	25.4439105988	18.0043869019
0.0	0.0	-9.10170269012	50.4707069397	25.7384262085	18.4659729004
0.0	0.0	-8.97535228729	52.2592926025	26.6192569733	16.0081787109
0.0	0.0	-9.01852703094	52.0151786804	25.1745834351	17.3764533997
0.0	0.0	-8.85254859924	52.1589241028	22.9951725006	17.4650764465
0.0	0.0	-7.61742639542	51.4585762024	21.5431976318	17.0950546265
0.0	0.0	-6.76592063904	51.2189941406	20.3051071167	16.0733509064
0.0	0.0	-6.11073350906	49.7601013184	20.3779315948	15.4224214554
0.0	0.0	-5.55446195602	48.6101455688	21.6333332062	14.7929458618
0.0	0.0	-5.09507226944	48.1084327698	21.2799167633	14.764799118
0.0	0.0	-5.194190979	46.7837982178	22.007101059	15.0829591751
0.0	0.0	-6.80138635635	46.1657485962	23.3306503296	14.7308750153
0.0	0.0	-18.9128875732	46.8195457458	24.4879608154	14.3533506393
0.0	0.0	-33.9299964905	48.1742858887	23.8984832764	12.9648351669
0.0	0.0	-46.1630020142	49.0365028381	24.1210479736	12.5290765762
0.0	0.0	-50.368927002	48.7108459473	25.0486373901	11.9098434448
0.0	0.0	-48.3910675049	47.7513809204	26.7074508667	11.3215990067
0.0	0.0	-42.9622001648	46.9728431702	27.7749443054	10.0182275772
0.0	0.0	-38.1267280579	47.9628982544	30.4292068481	3.66506290436
0.0	0.0	-33.7721443176	47.9497680664	34.0158691406	-3.500197649
0.0	0.0	-19.722070694	47.0145454407	38.4424209595	-5.20333623886
0.0	0.0	-5.72446060181	47.1395454407	41.4943962097	-4.03871250153
0.0	0.0	-0.253063350916	48.0292358398	41.3758735657	-2.64117336273
0.0	-0.0	1.82430505753	48.3682518005	40.7589454651	-1.86071848869
0.0	-0.0	9.44180011749	47.5467987061	41.6136894226	-2.36721563339
0.0	-0.0	37.6769676208	47.4801597595	42.4588165283	-3.37944126129
0.0	-0.0	78.3701934814	48.5777549744	41.1169624329	-4.16768312454
0.0	-0.0	88.3100662231	49.2697982788	37.4271774292	-3.30602669716
0.0	-0.0	85.8631591797	50.2469367981	38.1125602722	-3.25697636604
0.0	-0.0	78.5899887085	49.0733985901	41.3876113892	-3.7429857254
0.0	-0.0	71.307723999	47.5608863831	43.386920929	-2.06315565109
0.0	-0.0	68.9886398315	49.9137115479	42.6964874268	-1.65866661072
0.0	-0.0	68.5601272583	53.026802063	41.518447876	-1.47919142246
0.0	-0.0	68.2961196899	55.3360939026	39.5388832092	-1.16587138176
0.0	-0.0	71.5194396973	56.3096885681	38.8289642334	-2.80278706551
0.0	-0.0	77.0688705444	56.3758735657	39.026725769	-2.81753516197
0.0	-0.0	81.1638565063	56.349193573	41.4073486328	0.955300748348
0.0	-0.0	85.8204727173	56.7340888977	43.6702194214	2.90895485878
0.0	-0.0	90.4173965454	56.6444473267	44.3250312805	4.53729152679
0.0	-0.0	94.5424346924	55.881072998	45.1252632141	5.87926006317
0.0	-0.0	97.9870681763	54.3847312927	46.7071533203	8.5985326767
0.0	-0.0	102.09375	52.0724945068	48.0103225708	11.4181976318
0.0	-0.0	104.18535614	50.5612831116	49.4781761169	12.9936790466
0.0	-0.0	104.084877014	49.6450691223	50.3570785522	13.4865465164
0.0	-0.0	103.654563904	49.4391670227	50.8199005127	12.8536863327
0.0	-0.0	103.222717285	48.3231887817	51.5872764587	12.1918334961
0.0	-0.0	100.884925842	47.2729644775	51.3436546326	11.637389183
0.0	-0.0	99.3138198853	46.4678573608	50.7517967224	11.7449378967
0.0	-0.0	102.089729309	44.8753433228	51.0173225403	11.7538881302
0.0	-0.0	115.444168091	42.9074707031	50.5403518677	11.1666650772
0.0	-0.0	138.266845703	43.5070610046	50.2698783875	9.94876289368
0.0	-0.0	150.617752075	44.927482605	52.7816238403	11.6465072632
0.0	-0.0	155.593429565	47.4944763184	53.4247093201	12.2121191025
0.0	-0.0	160.940917969	47.682258606	54.6091537476	12.7952136993
0.0	-0.0	162.143035889	47.5186042786	56.1790504456	13.4436292648
0.0	-0.0	162.129547119	48.5517349243	56.2501068115	14.5438089371
0.0	-0.0	162.029327393	50.4288215637	53.801158905	13.6954708099
0.0	-0.0	159.65914917	55.7805519104	46.6143760681	10.0465936661
0.0	-0.0	155.543685913	63.3012924194	39.8634300232	5.99019479752
0.0	-0.0	152.962432861	68.9272918701	36.7972831726	6.42123651505
0.0	-0.0	150.842910767	76.3188095093	33.205116272	7.79624795914
0.0	-0.0	147.707733154	84.1378097534	27.5767440796	10.3585796356
0.0	-0.0	143.880599976	90.7890853882	18.7493667603	13.2360315323
0.0	-0.0	141.574111938	92.5235214233	13.4308185577	20.5730133057
0.0	-0.0	140.177963257	92.2557144165	9.32277870178	29.5179519653
0.0	-0.0	139.158004761	91.2935028076	6.39891195297	42.7557792664
0.0	-0.0	138.284378052	88.7568969727	5.46397304535	53.0619010925
0.0	-0.0	138.295852661	87.0934829712	5.33028745651	54.467300415
0.0	-0.0	139.10546875	85.6417922974	4.93268632889	53.8895683289
0.0	-0.0	139.702941895	83.8004074097	4.33207082748	53.7439002991
0.0	-0.0	140.271636963	84.4692993164	2.29361748695	53.9188537598
0.0	-0.0	140.31539917	82.5106506348	2.92791056633	52.4828453064
0.0	-0.0	140.064575195	79.2117462158	8.05753326416	50.4850006104
0.0	-0.0	139.243087769	78.4919509888	8.71128845215	47.8277244568
0.0	-0.0	137.399124146	76.2498703003	-0.2681401968	41.7680664062
0.0	-0.0	134.836090088	71.4898529053	-7.83911991119	38.5911636353
0.0	-0.0	133.901519775	63.9578666687	-10.0564146042	43.107624054
0.0	-0.0	132.722442627	56.9436264038	-11.857583046	49.0623626709
0.0	-0.0	131.295425415	51.2272186279	-15.5504388809	53.6333961487
0.0	-0.0	130.762268066	26.0067844391	-11.105255127	65.8242263794
0.0	-0.0	130.050491333	-5.68346738815	10.979019165	60.3264656067
0.0	-0.0	128.225036621	-32.1464347839	47.3131408691	60.5160942078
0.0	-0.0	125.508743286	-41.5095329285	74.5038986206	48.0222015381
0.0	-0.0	124.379646301	129.141906738	79.3578414917	-139.214477539
0.0	-0.0	122.678886414	124.207710266	64.6838302612	-146.067459106
0.0	-0.0	119.730361938	129.525665283	72.0092926025	-146.676620483
0.0	-0.0	117.527832031	-40.4659767151	84.7481765747	27.7513446808
0.0	-0.0	115.611732483	-20.0210418701	62.0190200806	23.3561000824
0.0	-0.0	113.598556519	6.35011577606	53.1376533508	9.1844367981
0.0	-0.0	110.227783203	31.4169578552	52.8023338318	0.103628724813
0.0	-0.0	108.060134888	42.8126564026	52.1411972046	1.8945633173
0.0	-0.0	105.855697632	46.5101470947	52.0997276306	6.43073320389
0.0	-0.0	103.905036926	54.024269104	45.7903137207	19.8916778564
0.0	-0.0	103.300643921	61.5487251282	37.9726867676	23.8352088928
0.0	-0.0	102.800514221	62.8750190735	33.607585907	25.7046318054
0.0	-0.0	101.795433044	62.4493865967	32.246006012	29.1571445465
0.0	-0.0	88.4725418091	61.1996307373	34.7967529297	31.5493202209
0.0	-0.0	63.96276474	58.8599395752	37.661529541	32.4004364014
0.0	-0.0	45.2596969604	56.8703041077	39.6506767273	32.0397377014
0.0	-0.0	30.6043224335	56.8556251526	39.9623527527	30.4091243744
0.0	-0.0	22.1316757202	58.9638137817	40.0331382751	28.150138855
0.0	-0.0	12.3431825638	60.9284591675	42.4769477844	26.0813732147
0.0	0.0	-4.92863368988	62.432674408	45.5682144165	24.1341190338
0.0	0.0	-28.0351467133	64.647567749	49.5061378479	23.1577110291
0.0	0.0	-42.6823310852	65.5099868774	52.8316001892	22.1025695801
0.0	0.0	-45.3837890625	64.5336227417	54.2231483459	21.2899341583
0.0	0.0	-42.5308609009	62.2039756775	54.2901039124	22.5730381012
0.0	0.0	-33.3929634094	59.9135055542	56.5938720703	27.5174770355
0.0	0.0	-25.1852474213	57.4357070923	57.4376296997	31.3862075806
0.0	0.0	-21.5465164185	54.371131897	57.0055274963	34.1262817383
0.0	0.0	-19.5685997009	54.0565986633	54.8337593079	34.0293312073
0.0	0.0	-18.3051700592	54.33644104	55.4749259949	33.6700706482
0.0	0.0	-16.7601070404	54.4733428955	58.6342849731	32.9052810669
0.0	0.0	-13.620631218	55.1673202515	59.9626312256	31.9301757812
0.0	0.0	-7.60378789902	55.8168640137	58.9133224487	30.6474666595
0.0	0.0	-4.12102890015	56.0653152466	58.1067695618	29.9553050995
0.0	-0.0	4.95746040344	55.2423286438	58.3387336731	30.4160518646
0.0	-0.0	24.8684520721	55.1343154907	57.693977356	29.4717273712
0.0	-0.0	53.1896362305	56.6866531372	59.3660354614	28.8085975647
0.0	-0.0	65.539352417	59.3473587036	61.8810997009	31.2212200165
0.0	-0.0	62.6716575623	59.1853027344	63.7988204956	33.1622276306
0.0	-0.0	56.7288093567	57.2904777527	64.6282348633	33.7208480835
0.0	-0.0	48.0344696045	53.9491157532	66.01146698	32.8488273621
0.0	-0.0	42.5237503052	51.8483276367	66.0620269775	31.4487934113
0.0	-0.0	40.5489425659	51.3574371338	66.422492981	30.5483894348
0.0	-0.0	37.470161438	51.0377388	67.1607666016	30.1000099182
0.0	-0.0	30.9003829956	49.9740753174	66.5244598389	30.0097236633
0.0	-0.0	23.3748912811	48.9778518677	66.6298370361	29.4443492889
0.0	-0.0	18.496301651	47.4943656921	66.9770050049	28.4594116211
0.0	-0.0	14.9469451904	47.9469985962	61.0676422119	24.8023300171
0.0	-0.0	10.2523727417	49.7551307678	42.8978652954	20.5750350952
0.0	-0.0	8.12289810181	49.6389961243	30.9440402985	17.7550563812
0.0	-0.0	6.82124710083	47.2629776001	28.0131816864	19.8783664703
0.0	-0.0	3.44009137154	47.8710784912	26.2934036255	20.1105136871
0.0	0.0	-0.771320998669	50.3828926086	23.6326599121	19.5961875916
0.0	0.0	-4.41618919373	56.9601516724	20.5181980133	19.9402427673
0.0	0.0	-8.6970243454	66.825920105	20.8144016266	14.9774141312
0.0	0.0	-10.5525522232	71.9851989746	21.3243942261	11.5851840973
0.0	0.0	-8.99396038055	72.4368286133	21.8128147125	11.9377040863
0.0	0.0	-9.2498588562	72.9132614136	24.4876651764	10.9501094818
0.0	0.0	-13.5701265335	73.3753128052	27.9636974335	9.9276638031
0.0	0.0	-18.7548313141	75.16796875	29.6414737701	8.09067058563
0.0	0.0	-21.2023124695	75.2594299316	31.9894256592	8.28157615662
0.0	0.0	-22.1772575378	75.1507263184	33.7167510986	9.12638473511
0.0	0.0	-21.9043140411	74.606086731	33.231086731	10.3835020065
0.0	0.0	-21.1673145294	74.6291503906	32.4573402405	12.8710231781
0.0	0.0	-19.6885585785	74.9985046387	31.9456100464	13.1760187149
0.0	0.0	-18.4821910858	74.0648880005	31.3281955719	13.8749933243
0.0	0.0	-17.4668636322	74.0897598267	30.8315467834	13.4636793137
0.0	0.0	-18.9166355133	73.24949646	30.7795181274	12.61216259
0.0	0.0	-21.6935424805	73.2632675171	32.0732383728	10.165186882
0.0	0.0	-13.2898693085	72.1500167847	34.034942627	6.85371637344
0.0	-0.0	22.367565155	69.1897583008	36.3389167786	5.26807260513
0.0	-0.0	67.137298584	68.4198455811	34.0955886841	3.14591193199
0.0	-0.0	85.44165802	67.8246536255	32.8258972168	4.41485691071
0.0	-0.0	89.8472213745	67.814125061	32.4642715454	6.13154792786
0.0	-0.0	86.346206665	65.8089675903	33.274105072	7.5345788002
0.0	-0.0	74.6187896729	63.3889923096	35.8093986511	9.40518665314
0.0	-0.0	62.482711792	63.9819297791	37.5669975281	11.6124048233
0.0	-0.0	54.4813842773	67.3245773315	37.4346237183	12.1110963821
0.0	-0.0	42.2666473389	69.0819320679	37.2087059021	12.666425705
0.0	-0.0	34.7903823853	70.5500717163	34.0396499634	12.353269577
0.0	-0.0	34.4187660217	71.7848587036	33.0416679382	12.0345640182
0.0	-0.0	35.0327529907	70.9729309082	34.6541023254	12.5532779694
0.0	-0.0	32.2991752625	70.55909729	34.4907226562	12.8350448608
0.0	-0.0	29.4799022675	70.1644515991	31.9742946625	13.507443428
0.0	-0.0	26.1798725128	71.1571121216	30.5369720459	13.9982309341
0.0	-0.0	22.0997943878	72.1305084229	30.2319812775	13.9082355499
0.0	-0.0	18.8548564911	72.3600006104	28.484046936	12.6200065613
0.0	-0.0	11.2899208069	72.8201980591	28.6653614044	12.280787468
0.0	-0.0	3.29124450684	73.5545120239	31.0129108429	12.123000145
0.0	0.0	-0.882328748703	73.3581008911	31.9380397797	11.7251253128
0.0	0.0	-2.64537501335	72.849822998	32.5646858215	12.1653108597
0.0	0.0	-2.02899837494	72.4593658447	33.4826316833	12.8305463791
0.0	0.0	-0.786062598228	72.2315216064	33.5830230713	13.39727211
0.0	0.0	-0.156958654523	72.1530532837	33.8195457458	13.9664888382
0.0	0.0	-0.217436686158	71.951713562	33.9505386353	14.286236763
0.0	-0.0	0.358321070671	71.6880493164	34.241230011	14.422958374
0.0	-0.0	1.77628982067	71.8844451904	34.173789978	14.1861982346
0.0	-0.0	3.30712485313	72.1687011719	33.8169326782	14.2511739731
0.0	-0.0	3.64509296417	71.8807525635	34.1119918823	14.4012060165
0.0	-0.0	5.97793626785	70.3402175903	34.0572128296	14.3520889282
0.0	-0.0	11.2617340088	69.0213241577	33.7783203125	14.4048852921
0.0	-0.0	19.618106842	68.9912338257	32.1585121155	13.6858091354
0.0	-0.0	18.2490825653	70.4167861938	29.6188831329	14.4204235077
0.0	-0.0	15.5941305161	71.5797348022	28.4194793701	14.5494842529
0.0	-0.0	14.5723972321	70.6848068237	30.6148948669	14.7553920746
0.0	-0.0	14.4128952026	71.4749069214	31.9672470093	14.4980754852
0.0	-0.0	15.2620334625	73.4446105957	31.3183612823	14.3874349594
0.0	-0.0	16.1630268097	72.9022293091	26.4837532043	14.5269393921
0.0	-0.0	16.3164100647	71.5398178101	17.9984283447	13.103064537
0.0	-0.0	14.4667253494	66.252532959	14.011475563	12.8570461273
0.0	-0.0	12.7733707428	59.830329895	30.9496212006	11.3807353973
0.0	-0.0	9.89025020599	56.6661300659	28.8891487122	9.50741481781
0.0	-0.0	8.06417369843	56.8669395447	17.5057296753	11.0651836395
0.0	-0.0	6.69128274918	59.9583892822	24.5381164551	11.5678606033
0.0	-0.0	5.57122945786	59.9404067993	36.8002548218	11.015619278
0.0	-0.0	4.95787811279	59.5613288879	37.1195755005	9.48125171661
0.0	-0.0	5.50715684891	58.8351364136	39.0033416748	10.6131010056
0.0	-0.0	5.36825084686	58.7361412048	42.7562217712	11.4913978577
0.0	-0.0	4.11250591278	58.397441864	43.7491188049	10.8858890533
0.0	-0.0	2.60033345222	57.3004875183	43.3418807983	10.9879360199
0.0	-0.0	2.47297859192	56.3391075134	43.4327201843	11.0694036484
0.0	-0.0	2.65972423553	56.0821723938	42.4684371948	11.4614782333
0.0	-0.0	4.25868368149	55.7825088501	40.9604911804	12.8526506424
0.0	-0.0	6.17409849167	55.4450111389	39.0257720947	14.1849899292
0.0	-0.0	6.40895795822	54.9763298035	35.9210891724	14.7732858658
0.0	-0.0	6.15189409256	54.5803337097	33.5975379944	14.5225839615
0.0	-0.0	6.41720533371	53.4548416138	31.7877216339	14.5731840134
0.0	-0.0	5.2050614357	53.3287239075	29.9831180573	14.5996685028
0.0	-0.0	4.46520280838	55.1818199158	29.0193481445	14.5439777374
0.0	-0.0	4.59823942184	56.7210998535	27.5932731628	13.6529874802
0.0	-0.0	5.56651639938	58.1152458191	26.1253948212	12.8414125443
0.0	-0.0	3.20594620705	60.2911987305	25.996805191	12.117723465
0.0	0.0	-0.369491457939	61.2042541504	27.4288158417	10.9455718994
0.0	0.0	-1.96501004696	61.9580841064	26.1825370789	9.31984615326
0.0	0.0	-2.39939641953	63.3346138	28.0704421997	9.39497756958
0.0	0.0	-3.69531989098	64.6932678223	30.2012767792	9.41303825378
0.0	0.0	-4.06726837158	65.7410354614	31.8853721619	7.94614744186
0.0	0.0	-3.88522815704	66.9063262939	34.3687095642	7.79222774506
0.0	0.0	-2.28432846069	68.193901062	37.022228241	8.5877456665
0.0	-0.0	0.599104642868	68.7622070312	39.6548118591	10.2619667053
0.0	-0.0	5.27938556671	68.9420852661	41.3306922913	11.8380584717
0.0	-0.0	9.01403808594	69.3273849487	42.6230278015	13.5477409363
0.0	-0.0	12.2875652313	68.8589248657	43.6547393799	14.8141222
0.0	-0.0	13.4798851013	68.5328674316	43.6733894348	15.0699663162
0.0	-0.0	12.7695827484	68.5224990845	44.2190208435	14.9992036819
0.0	-0.0	12.9854927063	67.4877624512	43.1719779968	14.4974622726
0.0	-0.0	13.6940612793	66.6969146729	43.0796356201	13.9880933762
0.0	-0.0	16.420923233	64.0568084717	43.5640907288	13.6613330841
0.0	-0.0	16.9328346252	60.5628471375	44.515007019	15.2498340607
0.0	-0.0	17.8466262817	58.940158844	44.2584877014	15.9540052414
0.0	-0.0	17.559469223	59.2731132507	42.6180877686	15.4825601578
0.0	-0.0	14.4260816574	58.6262588501	39.8656806946	14.6482477188
0.0	-0.0	10.1114282608	58.9295654297	35.2312583923	14.6970481873
0.0	-0.0	7.49769210815	61.4788208008	31.7928104401	13.6858377457
0.0	-0.0	5.56113767624	63.0149688721	28.3809604645	12.6602630615
0.0	-0.0	4.40831184387	62.9700317383	25.3879795074	13.4873971939
0.0	-0.0	5.12438440323	63.3653755188	22.5340118408	12.9874753952
0.0	-0.0	4.62404298782	64.4540328979	21.8614349365	12.2790699005
0.0	-0.0	2.64396715164	65.2522735596	19.9443817139	11.0965976715
0.0	-0.0	0.570716440678	65.1839981079	16.1990680695	9.20542144775
0.0	-0.0	0.405085533857	67.1169433594	22.3782672882	10.094288826
0.0	-0.0	0.937981545925	66.808921814	28.0580425262	10.5753479004
0.0	-0.0	2.08523035049	63.9470024109	33.051864624	12.5800685883
0.0	-0.0	3.54093241692	60.8615608215	40.7598953247	13.5894918442
0.0	-0.0	2.76413178444	60.3107872009	42.6010742188	14.4582490921
0.0	-0.0	2.38095164299	60.7170143127	41.8791885376	14.3409328461
0.0	-0.0	3.0559220314	60.5827522278	42.5057449341	15.4760255814
0.0	-0.0	2.73558783531	60.5910987854	44.019733429	16.5771694183
0.0	-0.0	2.33033370972	60.827293396	42.9160995483	17.2021064758
0.0	-0.0	1.71767365932	61.6673088074	41.8260307312	17.0530929565
0.0	-0.0	1.14005804062	62.3074150085	41.9055290222	16.8343486786
0.0	0.0	-0.443101584911	62.3224334717	42.9683074951	17.1368942261
0.0	-0.0	12.6002693176	61.932346344	43.2051239014	16.120677948
0.0	-0.0	44.0794219971	63.0286064148	41.9775695801	13.9080429077
0.0	-0.0	59.4061088562	64.3971786499	40.972568512	13.5002069473
0.0	-0.0	60.3137016296	64.2569351196	41.774471283	15.0863342285
0.0	-0.0	61.281578064	63.6225128174	41.8453369141	15.1355667114
0.0	-0.0	52.1337203979	63.0092086792	44.5876312256	16.2521762848
0.0	-0.0	40.3188018799	62.4766960144	49.2969284058	17.8880596161
0.0	-0.0	36.3221054077	62.2834777832	50.5672531128	17.9031333923
0.0	-0.0	29.9345874786	62.822593689	52.0500335693	18.6176948547
0.0	-0.0	23.4141349792	62.2967414856	53.4719429016	19.6226997375
0.0	-0.0	15.8420467377	60.6507263184	52.3813514709	19.6499271393
0.0	-0.0	9.28769302368	58.9818115234	50.8179168701	19.8566207886
0.0	-0.0	0.50376111269	57.3922080994	48.5749015808	20.4406032562
0.0	0.0	-3.36478614807	56.7390327454	44.663444519	20.8620948792
0.0	0.0	-6.09987258911	56.2526893616	42.2407646179	20.7381820679
0.0	0.0	-12.2257995605	54.5210609436	41.7182922363	20.8799247742
0.0	0.0	-17.8960933685	52.6779289246	38.7344245911	20.2934360504
0.0	0.0	-20.2116603851	51.3759384155	33.7997398376	19.7521858215
0.0	0.0	-21.6052742004	50.6404075623	30.4843196869	19.8611412048
0.0	0.0	-23.8293018341	50.8753929138	29.1451969147	19.5990161896
0.0	0.0	-26.8513698578	51.3276939392	28.766418457	18.783782959
0.0	0.0	-27.0927810669	52.9430465698	29.9400520325	18.0934524536
0.0	0.0	-23.9625015259	53.7610473633	32.3854980469	17.8315849304
0.0	0.0	-21.0208263397	55.7826080322	34.2890892029	17.0442028046
0.0	0.0	-21.5349750519	58.023109436	36.6213264465	17.0840568542
0.0	0.0	-22.177236557	59.7792015076	39.8639678955	16.9519081116
0.0	0.0	-22.1651992798	62.0497169495	42.6256484985	16.8646793365
0.0	0.0	-20.9260826111	62.8791999817	44.8104476929	18.7888336182
0.0	0.0	-15.362279892	61.2622642517	46.1364974976	21.0864448547
0.0	0.0	-8.68785572052	56.9737129211	47.5557861328	24.162525177
0.0	0.0	-1.30263471603	52.8144645691	48.2893104553	26.3539714813
0.0	-0.0	2.52645611763	53.2150001526	47.8713951111	28.4851055145
0.0	-0.0	6.12521409988	54.7299995422	47.9729270935	29.4695472717
0.0	-0.0	13.9659910202	55.5088806152	50.3856697083	28.9318580627
0.0	-0.0	21.2475948334	51.7799873352	62.0620498657	14.7594766617
0.0	-0.0	27.6066207886	36.7782249451	83.4467697144	-6.1866350174
0.0	-0.0	29.5973587036	35.2159881592	80.9234161377	-9.08550357819
0.0	-0.0	30.4237976074	42.2551879883	74.4591522217	-4.29683303833
0.0	-0.0	31.5424728394	49.651725769	67.8492126465	12.2100458145
0.0	-0.0	30.5779724121	55.4599494934	62.9608612061	26.0034275055
0.0	-0.0	28.4112071991	56.32787323	58.1734275818	37.6579055786
0.0	-0.0	28.3794345856	51.1737747192	52.2228469849	40.893119812
0.0	-0.0	29.1211967468	38.2774085999	53.8463401794	35.3748130798
0.0	-0.0	30.5526599884	20.896572113	65.2017440796	23.4476623535
0.0	-0.0	33.6500396729	6.96111536026	71.3181228638	21.7829914093
0.0	-0.0	36.0525169373	-10.6008663177	76.5556182861	15.8651790619
0.0	-0.0	38.0514717102	-29.3783512115	81.1611480713	8.58765506744
0.0	-0.0	39.4878807068	-36.1475982666	80.7856903076	4.18266057968
0.0	-0.0	41.7319107056	-22.7934589386	77.3975067139	3.88407826424
0.0	-0.0	41.8338470459	4.5753660202	71.9909133911	4.37102603912
0.0	-0.0	41.8191070557	30.46118927	57.7190856934	6.95257043839
0.0	-0.0	41.4759063721	50.9260597229	48.2310523987	-20.2623806
0.0	-0.0	33.9598617554	54.1727600098	43.2568702698	-20.3488445282
0.0	-0.0	27.1850776672	34.2862815857	34.780834198	-7.74643278122
0.0	-0.0	25.1263237	30.4446029663	27.7911643982	-1.46044993401
0.0	-0.0	20.215675354	37.7478790283	27.7859134674	8.96352958679
0.0	-0.0	13.2370567322	42.0133590698	26.8570804596	12.5041303635
0.0	-0.0	10.4027233124	44.4201202393	16.3663101196	5.83776903152
0.0	-0.0	11.6370639801	50.1801605225	15.3236379623	-10.4090976715
0.0	-0.0	11.570734024	48.7860984802	23.3657398224	-10.5707054138
0.0	-0.0	9.54226970673	39.7509155273	29.9150161743	-13.2317380905
0.0	-0.0	8.02651786804	34.8577919006	28.1816177368	-15.5845336914
0.0	-0.0	7.08669948578	36.3165817261	26.9367694855	-14.5441818237
0.0	-0.0	3.87919592857	37.7475776672	28.6197223663	-12.5199117661
0.0	-0.0	3.19123673439	37.282535553	31.2497520447	-12.9626712799
0.0	-0.0	4.39465808868	35.2944641113	31.8806438446	-12.4284000397
0.0	-0.0	5.78060007095	33.9902153015	32.3601913452	-12.0350351334
0.0	-0.0	5.91222333908	33.3847579956	33.2615623474	-12.3501157761
0.0	-0.0	5.94781923294	32.5470504761	33.6517677307	-11.8340959549
0.0	-0.0	7.17889404297	32.1320266724	34.1926193237	-11.822599411
0.0	-0.0	7.78113603592	32.9003448486	34.1551818848	-11.4235181808
0.0	-0.0	7.54756259918	33.4277267456	33.8366165161	-11.1409101486
0.0	-0.0	6.49151515961	32.561126709	33.980922699	-11.1113977432
0.0	-0.0	6.41592884064	31.6842918396	33.9791679382	-11.2916603088
0.0	-0.0	8.98187637329	30.961233139	34.2269287109	-10.9553289413
0.0	-0.0	16.5897693634	30.5238342285	33.8070526123	-11.2150402069
0.0	-0.0	22.1555595398	30.185962677	32.5197944641	-10.1992349625
0.0	-0.0	17.8089027405	29.9744911194	33.9119033813	-9.52097702026
0.0	-0.0	9.59407520294	29.1304664612	34.6872901917	-9.7271938324
0.0	-0.0	1.49989819527	28.6669616699	33.5798454285	-9.24194908142
0.0	0.0	-2.34193325043	29.0274658203	33.1294746399	-9.78920650482
0.0	0.0	-6.74599456787	29.1924819946	32.4673194885	-10.2721757889
0.0	0.0	-10.76263237	29.6754817963	31.3816337585	-10.7053384781
0.0	0.0	-12.0914678574	29.5447940826	31.723657608	-11.1060962677
0.0	0.0	-8.88867092133	29.5282859802	33.5506668091	-11.7784261703
0.0	-0.0	10.385887146	30.8779201508	36.3696899414	-12.2900342941
0.0	-0.0	41.4153900146	32.7345085144	37.0224113464	-12.0546894073
0.0	-0.0	54.4958000183	34.2886009216	37.924369812	-10.0117292404
0.0	-0.0	50.5671844482	34.7874755859	39.4538764954	-7.51391983032
0.0	-0.0	33.9500999451	34.1070747375	40.0464096069	-6.41309022903
0.0	0.0	-0.186134517193	34.7342987061	40.5473518372	-6.0128455162
0.0	0.0	-29.9724197388	37.3085021973	39.2564811707	-7.93306589127
0.0	0.0	-36.9493560791	38.8700332642	38.6155929565	-10.075879097
0.0	0.0	-35.3614349365	37.5573692322	38.1698722839	-9.1312417984
0.0	0.0	-27.2472286224	34.9187316895	39.0951385498	-6.12484788895
0.0	0.0	-18.4628486633	30.7021331787	42.5231933594	-2.50902986526
0.0	0.0	-14.2629022598	26.9521656036	43.2849159241	1.24051010609
0.0	0.0	-8.24357700348	25.6148929596	43.6001739502	4.42725324631
0.0	0.0	-1.01103436947	25.3386669159	45.0065689087	6.72623205185
0.0	-0.0	1.31973671913	25.0315971375	48.2526779175	6.92916584015
0.0	0.0	-5.16232728958	25.9744358063	48.0549278259	5.81509208679
0.0	0.0	-10.6459159851	27.8562374115	45.7552757263	3.90439581871
0.0	0.0	-12.5270299911	29.0542182922	47.5057678223	1.20489835739
0.0	0.0	-12.0511255264	28.1085338593	49.3303031921	-0.90051651001
0.0	0.0	-11.0777797699	26.6718254089	49.3914642334	-0.398297458887
0.0	0.0	-10.3354024887	27.3286743164	45.1573371887	0.381897419691
0.0	0.0	-9.8819360733	26.6103019714	45.9684562683	0.0869528725743
0.0	0.0	-9.83021736145	25.9912757874	47.7643890381	0.00875919591635
0.0	0.0	-9.5331735611	26.3792114258	49.5464782715	-1.18923974037
0.0	0.0	-7.1135802269	26.315328598	52.6277313232	-1.35563886166
0.0	0.0	-2.79304766655	25.5802497864	58.5585823059	-1.22467660904
0.0	-0.0	2.4883286953	25.2871417999	64.1633377075	-0.906500697136
0.0	-0.0	8.10098934174	26.4283046722	67.0420761108	0.431804150343
0.0	-0.0	12.9160118103	26.173330307	63.8645477295	2.51344442368
0.0	-0.0	9.50694942474	25.7388706207	58.4810829163	4.57492876053
0.0	-0.0	3.52120995522	23.8304462433	52.7605400085	6.28397035599
0.0	0.0	-1.54339551926	22.5004138947	46.5727729797	8.58316612244
0.0	0.0	-5.28529453278	21.6990413666	41.5104942322	10.0743904114
0.0	0.0	-8.45661735535	21.3197212219	35.6628570557	11.0140638351
0.0	0.0	-10.594745636	21.8760318756	31.9876346588	12.128408432
0.0	0.0	-11.7865962982	22.4987220764	29.5773258209	12.9434013367
0.0	0.0	-11.0371799469	23.9270591736	27.7237873077	11.7207698822
0.0	0.0	-9.78507900238	25.8490695953	26.8334312439	10.036034584
0.0	0.0	-8.99781417847	27.7262382507	27.4233226776	8.17357540131
0.0	0.0	-7.21181249619	29.1991825104	29.2050247192	6.05006504059
0.0	0.0	-5.57933616638	31.4811725616	32.1488418579	5.19044876099
0.0	0.0	-4.04891061783	33.7557258606	34.7767944336	5.00560426712
0.0	0.0	-3.42987513542	35.4131889343	38.7194442749	5.56900119781
0.0	0.0	-6.14553117752	37.0887260437	41.4386978149	6.45732116699
0.0	0.0	-5.88507795334	39.384437561	42.8114433289	6.75843811035
0.0	0.0	-4.32071971893	41.242729187	44.316570282	7.43061637878
0.0	0.0	-1.82540750504	41.0291442871	46.1457061768	8.0724811554
0.0	0.0	-2.3019220829	39.8374938965	45.277557373	9.20428657532
0.0	0.0	-3.77417826653	37.5480690002	43.7079200745	10.7621011734
0.0	0.0	-6.02672863007	35.2386207581	42.1505088806	10.8622045517
0.0	0.0	-10.4823179245	33.5629577637	39.9938011169	11.2040061951
0.0	0.0	-16.3137798309	33.7110671997	37.1345100403	10.5468826294
0.0	0.0	-26.0534648895	34.8182678223	35.0555458069	9.00130748749
0.0	0.0	-35.8199157715	38.3336830139	33.0605964661	5.76134538651
0.0	0.0	-41.156955719	42.8998680115	32.7343902588	1.43593084812
0.0	0.0	-45.2453079224	46.5202903748	33.4117431641	-1.18223333359
0.0	0.0	-47.5300788879	48.4678077698	34.6182632446	-2.21708440781
0.0	0.0	-46.2490692139	47.8279304504	33.810092926	-1.44026720524
0.0	0.0	-44.1091537476	47.209148407	34.0465812683	0.294379472733
0.0	0.0	-40.7683677673	45.5939483643	36.1621932983	2.35012078285
0.0	0.0	-36.0311584473	44.2668151855	38.9388847351	4.61918449402
0.0	0.0	-30.2539463043	43.2804107666	39.3992919922	6.68049955368
0.0	0.0	-24.546459198	42.0885543823	41.9375152588	8.87598991394
0.0	0.0	-21.0347385406	39.7276344299	44.2273292542	10.740691185
0.0	0.0	-19.8122005463	37.8362808228	44.5225410461	11.6482458115
0.0	0.0	-19.641834259	35.8097801208	44.8837280273	13.3441762924
0.0	0.0	-20.3089923859	35.2467651367	45.3389511108	13.4916772842
0.0	0.0	-21.6372680664	36.0461044312	45.2723770142	13.0215587616
0.0	0.0	-22.5069789886	37.426158905	45.2325019836	12.4426488876
0.0	0.0	-22.4007873535	39.0402259827	45.6432762146	12.4662132263
0.0	0.0	-22.3652534485	39.0967521667	46.1575889587	13.3980312347
0.0	0.0	-21.9690876007	38.9504051208	46.2075233459	13.806678772
0.0	0.0	-21.4385051727	38.9114608765	46.2043075562	13.8466768265
0.0	0.0	-19.362159729	38.2350692749	47.0583992004	13.8779592514
0.0	0.0	-18.1510295868	38.7950401306	47.7906913757	14.3410377502
0.0	0.0	-18.5278358459	38.4381942749	48.9332046509	14.8012800217
0.0	0.0	-19.6365814209	37.1318435669	49.3002052307	14.920715332
0.0	0.0	-19.2032299042	35.9621124268	50.1645889282	15.2940530777
0.0	0.0	-19.012922287	35.8410987854	51.2036743164	15.2875394821
0.0	0.0	-19.1010494232	35.8275756836	51.419178009	15.2247285843
0.0	0.0	-19.6262168884	35.4854164124	52.0601043701	15.2053661346
0.0	0.0	-19.126657486	35.3858413696	51.8412590027	15.1233253479
0.0	0.0	-18.5045604706	35.4900894165	51.7084846497	15.4703016281
0.0	0.0	-17.7425460815	35.2583847046	52.0705032349	15.9178876877
0.0	0.0	-17.6523532867	35.0966491699	51.1612739563	16.4980449677
0.0	0.0	-18.5799446106	36.7853507996	48.165019989	14.2599725723
0.0	0.0	-20.9831237793	38.3165626526	43.3676567078	13.6079473495
0.0	0.0	-21.8759422302	38.5063438416	43.1365318298	14.0020751953
0.0	0.0	-22.2240562439	38.4891281128	43.3521575928	13.7582349777
0.0	0.0	-23.0481491089	38.4327316284	44.0740356445	14.5035886765
0.0	0.0	-24.0314254761	38.0173339844	43.655002594	15.4421472549
0.0	0.0	-24.4123210907	37.3574028015	44.0206375122	16.5210609436
0.0	0.0	-25.0663852692	37.1092758179	44.4174232483	16.858291626
0.0	0.0	-25.2860965729	37.2161369324	43.8986358643	16.4297218323
0.0	0.0	-25.5330352783	36.6495170593	43.9905815125	16.6144351959
0.0	0.0	-25.8008480072	35.8608970642	44.9305877686	19.0859832764
0.0	0.0	-26.0570774078	35.3677139282	45.2315216064	20.0481414795
0.0	0.0	-25.9458961487	34.8983802795	44.5224227905	19.1232700348
0.0	0.0	-25.4090843201	34.719909668	44.8020210266	19.0630989075
0.0	0.0	-25.5889492035	34.6283226013	45.4660339355	18.7548828125
0.0	0.0	-25.2900123596	35.2208175659	44.8733215332	18.7053623199
0.0	0.0	-24.9380168915	36.1969566345	44.5985298157	18.2118053436
0.0	0.0	-22.896478653	37.0051994324	45.1373901367	17.5859241486
0.0	0.0	-21.4438018799	37.8765449524	45.2235031128	17.4931964874
0.0	0.0	-18.510307312	38.6506919861	45.6040611267	16.9960460663
0.0	0.0	-15.5779323578	38.4637489319	47.4850540161	16.6307067871
0.0	0.0	-13.7983541489	36.9934616089	49.1251411438	15.6086912155
0.0	0.0	-4.76120090485	31.7215576172	50.8293190002	14.2287683487
0.0	0.0	-1.66834747791	23.9123306274	54.8413772583	14.7370166779
0.0	0.0	-4.84393072128	16.9314918518	51.2666740417	14.3739671707
0.0	0.0	-2.58147215843	14.3858089447	53.7167053223	13.1344404221
0.0	0.0	-6.60823392868	14.6236333847	51.8859367371	14.5907316208
0.0	0.0	-3.65158438683	17.2286167145	54.5326805115	12.2512235641
0.0	0.0	-2.57561945915	19.1999034882	56.3526229858	10.9031057358
0.0	0.0	-0.894646644592	18.9711360931	59.3837852478	11.0219717026
0.0	0.0	-2.73861980438	20.6436710358	59.7694854736	12.1336727142
0.0	0.0	-4.21311569214	23.2006587982	58.07239151	10.0555000305
0.0	0.0	-2.12418556213	20.7362327576	61.402179718	9.72869205475
0.0	0.0	-0.915993928909	18.0775756836	58.8622817993	12.1280269623
0.0	0.0	-3.19842743874	18.8251132965	54.7020149231	11.4649076462
0.0	0.0	-8.54846382141	19.784029007	53.4842987061	10.951590538
0.0	0.0	-8.36374759674	21.8640022278	53.5322761536	11.5495615005
0.0	0.0	-8.25946712494	25.3579406738	49.8125762939	13.9041996002
0.0	0.0	-9.13682460785	25.8396911621	44.8600730896	19.0258617401
0.0	0.0	-10.7848997116	24.32447052	46.5041542053	22.7205085754
0.0	0.0	-12.5113201141	22.9141521454	47.226764679	24.7495746613
0.0	0.0	-13.811712265	22.1068325043	47.3076095581	24.8470516205
0.0	0.0	-13.8637390137	21.5676860809	46.4388504028	26.33177948
0.0	0.0	-13.5442419052	22.1460094452	46.4728622437	29.6390571594
0.0	0.0	-13.2286462784	22.0372314453	49.9863204956	30.3537216187
0.0	0.0	-10.862039566	19.7614650726	50.6103057861	26.5448932648
0.0	0.0	-10.2854089737	17.1644420624	49.8819122314	23.852891922
0.0	0.0	-10.7321929932	16.3226032257	49.790222168	22.4998722076
0.0	0.0	-9.51327419281	16.7215976715	52.4430351257	20.4799461365
0.0	0.0	-9.35240936279	18.2349796295	53.4258575439	18.6640205383
0.0	0.0	-9.51585292816	18.1449260712	53.6806144714	17.4507141113
0.0	0.0	-16.3828296661	17.7401847839	54.5097045898	18.1236858368
0.0	0.0	-31.9817466736	18.1487884521	52.5967559814	17.6408405304
0.0	0.0	-39.9833755493	16.8507041931	49.988067627	18.3248500824
0.0	0.0	-46.6056404114	16.2214508057	50.3051872253	18.3151855469
0.0	0.0	-61.4345741272	16.9876499176	53.1597175598	19.0723896027
0.0	0.0	-75.2767105103	16.1098823547	54.2725639343	19.9015636444
0.0	0.0	-76.2722320557	14.9363298416	55.6683502197	21.5537166595
0.0	0.0	-76.188621521	13.9291276932	60.2671051025	25.4969825745
0.0	0.0	-80.0940093994	11.2519245148	62.7719268799	26.8236083984
0.0	0.0	-79.4516296387	9.37884521484	62.4763755798	26.3645133972
0.0	0.0	-73.9222488403	9.87515544891	61.0520439148	24.2784519196
0.0	0.0	-70.5669784546	13.6392536163	61.6554908752	23.0142097473
0.0	0.0	-64.1463928223	15.8215551376	64.0519485474	21.3999938965
0.0	0.0	-56.7756958008	15.9573335648	66.8547744751	21.0785923004
0.0	0.0	-47.9719734192	16.4587688446	68.7650527954	23.3242588043
0.0	0.0	-38.9868431091	18.6133270264	70.6631088257	23.9235038757
0.0	0.0	-30.916097641	19.8894176483	70.279045105	24.2940349579
0.0	0.0	-15.9696998596	19.6445713043	67.6513671875	22.0226459503
0.0	-0.0	2.08542990685	20.4212207794	63.5419692993	23.2420082092
0.0	-0.0	12.5943536758	23.1502914429	62.6508483887	24.4449653625
0.0	-0.0	17.4963150024	27.0394077301	62.9751281738	24.5024280548
0.0	-0.0	25.9358825684	35.4518089294	52.7053833008	16.9669132233
0.0	-0.0	33.748298645	47.9780006409	36.6057395935	14.2405109406
0.0	-0.0	32.5768127441	53.4718284607	33.8108901978	16.3222408295
0.0	-0.0	31.4873313904	52.2515983582	42.7583770752	21.3960704803
0.0	-0.0	28.0403575897	50.8022193909	46.5127944946	25.8372936249
0.0	-0.0	22.0547142029	49.9699134827	46.5900688171	31.7804737091
0.0	-0.0	23.6140594482	50.2398643494	47.8604698181	30.9055309296
0.0	-0.0	30.0143051147	49.5811691284	46.7526283264	27.5589790344
0.0	-0.0	35.5505943298	48.2878761292	43.9866943359	23.3486404419
0.0	-0.0	35.7996520996	47.2750701904	44.0089302063	21.4330806732
0.0	-0.0	35.0280914307	46.2261505127	45.9799575806	19.7256965637
0.0	-0.0	35.2440872192	44.0292053223	47.2958946228	19.1413898468
0.0	-0.0	36.3132858276	43.6357078552	46.9228401184	20.8083248138
0.0	-0.0	39.6087875366	45.6573867798	45.1716651917	25.0781879425
0.0	-0.0	42.5535697937	47.0782203674	42.5005760193	25.2947673798
0.0	-0.0	42.6507568359	45.8357887268	41.4736099243	24.440820694
0.0	-0.0	42.2337265015	43.1864852905	42.3232192993	23.8436470032
0.0	-0.0	42.6445960999	42.1475105286	41.293296814	24.9284343719
0.0	-0.0	42.8517799377	44.0441856384	39.4523353577	25.2841110229
0.0	-0.0	41.8416862488	45.4758834839	40.292427063	24.2155227661
0.0	-0.0	38.7729949951	43.1163749695	41.1966514587	24.7341117859
0.0	-0.0	37.6321601868	40.0153312683	41.4925308228	25.2842559814
0.0	-0.0	37.8116874695	36.573764801	41.4214782715	25.8374977112
0.0	-0.0	36.8552017212	33.1230278015	42.7189674377	26.0077037811
0.0	-0.0	36.5257453918	29.6019001007	42.2674865723	27.2468299866
0.0	-0.0	37.7006187439	29.7222919464	40.9908828735	27.2423553467
0.0	-0.0	36.7283439636	31.3930568695	41.981716156	26.3605327606
0.0	-0.0	37.9295883179	32.8129959106	45.0348472595	26.1528759003
0.0	-0.0	36.8821601868	34.957824707	45.8828697205	25.447511673
0.0	-0.0	33.6046791077	34.9506034851	46.3721122742	25.1029338837
0.0	-0.0	28.6184978485	35.5417556763	49.4140548706	24.5900554657
0.0	-0.0	21.7052459717	37.4348258972	53.8771629333	24.2762069702
0.0	-0.0	17.6696376801	40.2415847778	57.2876167297	24.7609519958
0.0	-0.0	16.4376068115	45.7310791016	59.3606414795	25.6413879395
0.0	-0.0	16.6917743683	51.6582679749	56.1047554016	23.3704662323
0.0	-0.0	19.3440856934	61.9631309509	41.6054077148	14.8963298798
0.0	-0.0	19.6048183441	66.0622406006	33.8716812134	11.1303339005
0.0	-0.0	19.0754795074	60.2208213806	36.8855934143	17.8424816132
0.0	-0.0	19.1871109009	54.9297218323	41.2473335266	20.3905143738
0.0	-0.0	16.3655891418	56.4342498779	40.862411499	25.3638019562
0.0	-0.0	12.8210668564	59.5245742798	37.4577255249	30.4945068359
0.0	-0.0	11.6225414276	64.5659942627	33.2937049866	31.3000450134
0.0	-0.0	13.6469421387	70.424621582	30.5485515594	24.1173305511
0.0	-0.0	16.8405418396	76.6522750854	28.6171188354	11.1352519989
0.0	-0.0	16.6751003265	80.1578369141	32.4114112854	0.686060249805
0.0	-0.0	18.8443012238	78.8799209595	37.3857078552	5.47933244705
0.0	-0.0	21.2434844971	78.6453170776	38.1057815552	8.04179382324
0.0	-0.0	21.3903751373	79.218536377	35.7898712158	13.3729162216
0.0	-0.0	21.1749801636	79.8046417236	38.2754173279	14.6943130493
0.0	-0.0	20.5610084534	78.8228530884	39.5799560547	15.7782316208
0.0	-0.0	20.738155365	77.1452636719	39.3632774353	16.952878952
0.0	-0.0	20.0523643494	76.6263580322	40.2381973267	17.8705768585
0.0	-0.0	19.5033836365	76.2181777954	41.0960006714	18.9566440582
0.0	-0.0	19.5309753418	75.1184692383	41.0154342651	19.0718841553
0.0	-0.0	19.9122219086	74.0535888672	41.0619468689	20.1428661346
0.0	-0.0	19.5174808502	73.2617111206	40.3456573486	20.9596729279
0.0	-0.0	19.6974277496	73.6704406738	35.8968315125	20.2967853546
0.0	-0.0	19.3176612854	75.4023666382	27.0616893768	21.2103862762
0.0	-0.0	17.384103775	77.1890411377	25.4050865173	20.5392837524
0.0	-0.0	15.5903177261	77.3220443726	27.338508606	20.9964847565
0.0	-0.0	14.7919816971	77.1208953857	27.007522583	20.6659088135
0.0	-0.0	13.2198524475	76.3233947754	27.6748046875	20.6017494202
0.0	-0.0	12.3349113464	75.0536727905	28.1093578339	20.3731498718
0.0	-0.0	11.7091398239	73.0631561279	28.1992683411	20.6665782928
0.0	-0.0	11.9255943298	71.8750457764	29.004989624	20.5997753143
0.0	-0.0	12.4108161926	71.2349395752	30.5518474579	20.0455417633
0.0	-0.0	11.7372703552	70.7372283936	30.6759243011	19.6167640686
0.0	-0.0	9.79525852203	71.2236328125	26.0314884186	19.1524658203
0.0	-0.0	7.83188295364	73.2964553833	21.5934696198	23.0154819489
0.0	-0.0	8.14458370209	75.4501190186	18.3078708649	29.5341567993
0.0	-0.0	9.56100273132	77.1536102295	18.6019458771	30.2623729706
0.0	-0.0	11.5241374969	76.8831100464	19.6974277496	29.9170703888
0.0	-0.0	13.0103778839	74.8641662598	21.9107341766	29.6702270508
0.0	-0.0	14.377872467	71.4814682007	22.2597732544	30.6769371033
0.0	-0.0	16.6345157623	67.5005645752	20.6646900177	31.9041595459
0.0	-0.0	17.5986747742	66.1195373535	18.6754302979	31.5685539246
0.0	-0.0	17.7686653137	63.1075439453	20.1192321777	32.8033485413
0.0	-0.0	13.0897035599	63.1235656738	20.3609371185	33.5452232361
0.0	0.0	-4.20375823975	64.0465698242	20.1413917542	34.0445709229
0.0	0.0	-32.290977478	66.7895355225	18.2124557495	32.9926757812
0.0	0.0	-43.8281745911	67.0798034668	19.2517051697	31.5240249634
0.0	0.0	-47.1998214722	63.4768295288	20.1472091675	32.4427986145
0.0	0.0	-55.9027519226	63.4668197632	19.3256988525	32.2982292175
0.0	0.0	-68.8532867432	60.8562393188	18.7010269165	33.1710777283
0.0	0.0	-73.7948684692	61.2749633789	17.3828125	30.6248188019
0.0	0.0	-77.1924438477	65.1858215332	19.0731258392	28.9180603027
0.0	0.0	-86.5043411255	69.4088821411	21.8706893921	28.0212574005
0.0	0.0	-90.9690093994	73.0801773071	22.6728591919	26.263376236
0.0	0.0	-93.5189590454	74.0885162354	24.0604095459	26.4117164612
0.0	0.0	-93.8058166504	73.6851577759	26.0685634613	26.6779232025
0.0	0.0	-92.6890487671	71.3832931519	26.2853164673	27.1598052979
0.0	0.0	-92.0472793579	69.2221908569	26.0848770142	27.3658828735
0.0	0.0	-91.1553344727	67.7727737427	26.8316726685	27.3332920074
0.0	0.0	-91.1797485352	66.8860244751	26.4685096741	27.6874542236
0.0	0.0	-91.2294998169	66.9254989624	26.3156585693	27.2854614258
0.0	0.0	-89.8778991699	67.0708236694	27.4008426666	27.781955719
0.0	0.0	-87.121055603	66.7969818115	29.8015937805	28.4162731171
0.0	0.0	-75.4647216797	66.9788665771	30.9038219452	27.9249076843
0.0	0.0	-52.9639053345	65.5930633545	34.1479187012	28.9020061493
0.0	0.0	-29.266620636	62.8941345215	37.3435516357	32.0376663208
0.0	0.0	-17.3561077118	59.9175796509	36.5546302795	33.8007278442
0.0	0.0	-9.36466789246	56.9902763367	35.8192405701	36.0842323303
0.0	0.0	-7.03505849838	55.1147079468	35.9650650024	37.005153656
0.0	0.0	-7.75180912018	54.4846496582	35.3922157288	36.4624328613
0.0	0.0	-5.69260787964	55.4211425781	33.5293426514	34.8275146484
0.0	0.0	-5.41629552841	56.8152770996	32.0834465027	34.3210830688
0.0	0.0	-7.85693120956	57.2617073059	31.2346057892	34.9560966492
0.0	0.0	-6.88549613953	56.7158088684	29.9970588684	35.0876502991
0.0	0.0	-3.48046541214	56.2788658142	28.233335495	35.542591095
0.0	0.0	-1.42275857925	56.2800483704	26.8643035889	36.1853179932
0.0	-0.0	2.54103827477	54.960849762	26.1034679413	38.1647720337
0.0	-0.0	2.31149625778	54.9573059082	25.982175827	38.4892349243
0.0	-0.0	0.388284832239	56.3104743958	27.6421165466	38.665096283
0.0	0.0	-1.33346831799	58.620716095	29.8749790192	37.188079834
0.0	0.0	-8.1881980896	62.0117874146	30.2352714539	35.4589538574
0.0	0.0	-19.5586185455	63.8716659546	30.5981864929	34.447013855
0.0	0.0	-32.150100708	63.5725097656	30.4390296936	34.2103385925
0.0	0.0	-38.8320045471	62.6218643188	30.3800392151	34.4366645813
0.0	0.0	-39.4616279602	62.8413009644	30.8180465698	34.3058815002
0.0	0.0	-39.3157119751	63.9007530212	30.4253330231	33.3260192871
0.0	0.0	-41.8943099976	65.3533554077	29.3589000702	32.376789093
0.0	0.0	-45.8417701721	65.0848007202	31.2486553192	31.2123603821
0.0	0.0	-49.6550750732	64.7244186401	32.5099029541	29.9694690704
0.0	0.0	-51.9080467224	64.2430496216	32.4850311279	29.9609909058
0.0	0.0	-51.5376548767	63.8385810852	32.1175804138	30.4876747131
0.0	0.0	-50.6972389221	63.7178955078	31.7757854462	31.2875347137
0.0	0.0	-49.2571372986	63.6909446716	31.6370849609	32.2213745117
0.0	0.0	-48.6558837891	64.1012268066	31.4907169342	32.6831016541
0.0	0.0	-49.708026886	64.4775009155	31.9699001312	33.0429077148
0.0	0.0	-51.0286979675	64.6580657959	32.0959739685	32.8349227905
0.0	0.0	-51.6730880737	64.921913147	31.2342185974	32.6986503601
0.0	0.0	-51.6054725647	65.6382293701	30.5227031708	33.0096435547
0.0	0.0	-50.9992980957	66.6667327881	31.1313858032	32.9864654541
0.0	0.0	-50.4263458252	66.6110992432	32.1436424255	33.0083045959
0.0	0.0	-48.9648094177	65.8948287964	32.6757240295	33.3456192017
0.0	0.0	-40.6567993164	66.191116333	32.5384025574	33.1838798523
0.0	0.0	-26.8561687469	66.5549697876	33.5019187927	34.0687255859
0.0	0.0	-18.701669693	65.846862793	34.3427696228	35.7051048279
0.0	0.0	-15.3727645874	64.9928283691	33.4499397278	36.9191055298
0.0	0.0	-13.079249382	63.970790863	32.7628822327	38.1615066528
0.0	0.0	-11.7776355743	64.0995178223	32.9103012085	38.8267250061
0.0	0.0	-15.0737419128	64.4491424561	32.7498397827	39.0552062988
0.0	0.0	-24.6607074738	66.1541595459	31.7940444946	38.1573562622
0.0	0.0	-38.3012504578	68.1954956055	30.9900035858	36.9757270813
