0.233384847641	1.25677454472	-0.0736002922058	0.0125098228455	1.61436402798	-0.351393699646
0.233926296234	1.25748312473	-0.0753955841064	0.0130460262299	1.61400258541	-0.352130889893
0.234483480453	1.25569760799	-0.0761601924896	0.0130684375763	1.61378383636	-0.35370528698
0.225570201874	1.24679899216	-0.0670802593231	0.0119917392731	1.61495530605	-0.355108261108
0.190137147903	1.2205747366	-0.0491578578949	0.00936985015869	1.61924314499	-0.356772661209
0.151301622391	1.19676208496	-0.0517730712891	0.00519776344299	1.6256762743	-0.359975099564
0.109922885895	1.18073177338	-0.0578529834747	-0.000210762023926	1.63115036488	-0.362726449966
0.0798497200012	1.17197918892	-0.0596098899841	-0.00618433952332	1.63470900059	-0.364066123962
0.0625514984131	1.17048120499	-0.0579245090485	-0.010769367218	1.63760054111	-0.365164279938
0.0492522716522	1.16674804688	-0.0529323816299	-0.0137481689453	1.63962805271	-0.366708040237
0.0374975204468	1.15783965588	-0.0513122081757	-0.0178830623627	1.64118242264	-0.367789030075
0.0248696804047	1.16412293911	-0.0607423782349	-0.0241301059723	1.64260792732	-0.366942763329
0.0194602012634	1.16563057899	-0.0662500858307	-0.0314645767212	1.64398944378	-0.365960359573
0.0337626934052	1.14384543896	-0.0498011112213	-0.036524772644	1.64488971233	-0.366163849831
0.0627388954163	1.14150393009	-0.0345686674118	-0.0371503829956	1.64717769623	-0.367727518082
0.0899608135223	1.15763986111	-0.0286614894867	-0.036550283432	1.64959895611	-0.370144128799
0.117186307907	1.17384767532	-0.0270278453827	-0.0382869243622	1.65229153633	-0.373839616776
0.144346237183	1.18486368656	-0.0302729606628	-0.0387940406799	1.65549337864	-0.378587722778
0.171903133392	1.19135165215	-0.0380911827087	-0.0353300571442	1.65698254108	-0.382810592651
0.1989133358	1.18963253498	-0.0451188087463	-0.0314304828644	1.6580593586	-0.383512735367
0.212295293808	1.15826642513	-0.0371160507202	-0.0288405418396	1.65800833702	-0.383340597153
0.215895652771	1.13301885128	-0.03806245327	-0.0258269309998	1.65674293041	-0.382518768311
0.215693950653	1.13061773777	-0.0426256656647	-0.0238490104675	1.65587115288	-0.381119728088
0.22177195549	1.13360452652	-0.0428241491318	-0.0222306251526	1.6557469368	-0.379933357239
0.230437278748	1.1282967329	-0.0367223024368	-0.0201864242554	1.65623033047	-0.380110025406
0.240717172623	1.12313318253	-0.0330753326416	-0.0183012485504	1.65605759621	-0.379844903946
0.254371881485	1.12296748161	-0.033839225769	-0.015992641449	1.65642774105	-0.379215717316
0.266156435013	1.1236590147	-0.0325086116791	-0.0128438472748	1.65813565254	-0.378834009171
0.277522325516	1.11653077602	-0.0294847488403	-0.00910305976868	1.65957438946	-0.379566907883
