19.7351837158	-10.6966991425	6.43968153	28.2662563324	19.2946434021	35.8872413635
19.2953071594	-10.8990678787	6.49206590652	27.7769908905	19.198884964	35.8123970032
19.0159015656	-11.039021492	6.4827466011	27.2156982422	19.1075057983	35.6510848999
17.965970993	-10.5751132965	6.35530805588	25.4500923157	19.5114040375	34.3471374512
16.1060905457	-9.07920646667	7.09288644791	22.8582668304	21.0440158844	32.2258224487
13.3879060745	-5.86885929108	13.1162195206	20.0984687805	26.0761966705	30.7101860046
5.79628276825	-1.53945970535	7.39181613922	15.8489370346	32.3731498718	28.5276412964
-6.03223752975	2.97789216042	-5.08466434479	11.3953933716	36.1221885681	26.0889625549
-14.8168840408	4.51977777481	-12.5787210464	8.70938873291	37.1976699829	24.5262680054
-20.7593898773	4.45811891556	-0.100908279419	8.2192401886	37.6315040588	24.0986614227
-22.1875743866	9.26695346832	7.39352416992	7.8795747757	37.6381645203	23.3635292053
-22.0830669403	10.3848218918	12.4423742294	6.86881685257	37.9651527405	22.3761882782
-20.4228019714	12.1381530762	9.4421043396	6.22437667847	38.3261299133	21.4874687195
-18.0278968811	15.0317201614	10.7223291397	6.86757802963	39.4632530212	21.5872192383
-16.0564098358	19.5406341553	13.5420227051	7.40717411041	41.3035469055	22.6536216736
-12.6427946091	23.285276413	12.6279706955	7.04980611801	41.9086990356	22.8249034882
-15.1174907684	24.6211719513	0.466875821352	6.98013401031	41.7745780945	22.6641273499
-17.6838436127	24.260477066	-4.97267627716	7.5512638092	41.9355697632	22.9955234528
-17.5000228882	21.4860191345	-1.39845180511	7.75060319901	41.7620849609	23.0482635498
-17.4688930511	20.9341278076	2.94432902336	7.27570533752	42.0274429321	23.0810680389
-16.1541900635	20.8011360168	5.33905601501	7.07562875748	42.9561920166	23.47631073
-15.3490581512	20.5175762177	1.58178210258	7.37919855118	43.8425178528	24.0782623291
-15.9177093506	18.5921497345	0.877411484718	9.53876209259	45.036895752	26.0263576508
-17.362651825	16.7748908997	0.0816391706467	12.4285430908	45.5287704468	30.3715057373
-19.2820606232	15.0109462738	-2.53225922585	14.7561712265	45.1179428101	36.5095481873
-19.7962226868	17.4614219666	-1.46627438068	15.4034471512	44.9720001221	38.3402442932
-21.3216495514	23.431098938	-1.02953147888	15.3486509323	45.1201057434	38.9263916016
-21.3032073975	28.6431598663	3.70932459831	14.4107990265	45.0958862305	39.5932655334
-21.1704673767	31.6197052002	5.97547674179	13.7793655396	44.5932807922	39.5637130737
-24.3572635651	31.7040786743	3.90777039528	13.0221910477	43.9529037476	39.4545555115
-25.8254203796	33.1120300293	8.01706600189	12.4746656418	43.2606086731	38.5880584717
-24.1139221191	35.7905311584	13.498041153	9.69267845154	44.207736969	35.8950843811
-23.6298503876	37.1302452087	16.1150016785	3.22499775887	46.1649169922	30.2870769501
-22.7768287659	37.351600647	17.2093677521	-0.715588748455	46.8690986633	26.1864929199
-20.9701137543	37.1750831604	17.3379478455	2.23917031288	46.7171440125	27.4837913513
-18.8560600281	35.9518737793	17.3870258331	6.93962478638	46.2295303345	30.5203952789
-17.3778133392	32.9972610474	13.3690299988	9.48759174347	45.738861084	32.1684074402
-19.7104682922	29.698595047	3.10865187645	10.430680275	45.2083930969	32.6659355164
-17.6560573578	28.6160049438	-4.16334104538	10.8290262222	44.696975708	32.2337341309
-15.1309309006	32.5539703369	-4.04590511322	10.8135938644	43.9915428162	31.482093811
-13.8115158081	36.6185722351	-3.65652012825	10.3998565674	43.4887390137	30.6499881744
-12.6679906845	40.4011001587	-4.37425470352	9.83159255981	43.3555183411	29.8505744934
-11.4203901291	41.476978302	-10.3073425293	9.86430072784	43.3577194214	29.7291603088
-10.796795845	41.2056922913	-13.751200676	9.71505641937	43.6123352051	29.7376613617
-10.0808315277	39.2809371948	-12.2420005798	9.70063781738	43.7481193542	29.9254055023
-11.5248908997	36.9209823608	-10.0079164505	9.82397842407	43.9332427979	30.8093414307
-14.6431741714	32.8667259216	-10.6100473404	10.0492105484	44.2670555115	31.9715690613
-18.1756420135	31.2754268646	-14.097743988	10.6065731049	44.5979118347	33.0211105347
-15.6162691116	35.5471343994	-8.50719356537	11.6694431305	45.0183677673	34.3194046021
-14.1812553406	39.4420471191	-3.43197655678	12.2189235687	44.6714248657	35.4231033325
-12.8209533691	42.6170921326	0.411403566599	12.1275234222	44.4794120789	36.9565238953
-15.737909317	42.877532959	0.625747740269	11.5436601639	44.4527893066	37.8543930054
-19.6494731903	41.7030181885	-1.29958975315	11.6084051132	44.1713790894	38.5210380554
-20.3138961792	41.8068008423	-1.34150779247	12.2021589279	43.5920753479	38.9198608398
-20.7667999268	42.4851379395	-3.85192394257	12.3443088531	43.1664237976	39.2738990784
-18.7712173462	44.3584098816	-5.1102347374	12.3350105286	42.8595085144	39.5134048462
-16.4441738129	45.7774505615	-6.39760637283	12.2705011368	41.671672821	39.4762916565
-15.3644962311	46.5164146423	-4.38217020035	13.3086051941	39.9899406433	40.246131897
-16.4822235107	48.4301872253	-0.0846054330468	14.551858902	38.4112205505	41.3940925598
-15.3323307037	51.1247138977	2.13204455376	14.7823095322	37.2421684265	42.3864936829
-14.8552541733	51.7800369263	2.41882538795	14.6840648651	36.3006706238	43.6355743408
-15.2856483459	50.6610717773	2.53098702431	14.7501859665	35.3744125366	44.2681388855
-17.7562656403	49.5961380005	3.1168115139	15.2231683731	33.5468025208	44.907875061
-18.7668609619	50.6477737427	3.2571606636	18.0306053162	29.6252403259	47.3799934387
-19.024805069	52.681804657	1.83056604862	22.5753688812	25.6971912384	50.5967025757
-18.250082016	53.3164405823	1.73915755749	27.2294769287	23.2508182526	52.7641448975
-16.3040370941	53.3401374817	1.33355557919	28.6643028259	23.4892158508	52.4192428589
-14.7961406708	53.9113731384	-0.974980533123	26.0695533752	26.5431919098	50.3129425049
-13.4142999649	55.5861282349	-3.50791501999	22.9886302948	29.2295303345	48.0919532776
-13.929060936	56.7777442932	-5.29880809784	20.6231174469	31.0326595306	46.3964309692
-13.73487854	55.7726020813	-1.57657122612	17.7492332458	32.7604789734	44.1830253601
-6.24642467499	54.3203659058	16.366607666	13.1866006851	34.7139282227	40.4950485229
-7.16907072067	53.9684524536	12.5467433929	6.86086606979	36.7201690674	35.9969482422
-8.19816684723	53.3572235107	11.8276786804	2.57747268677	38.2923278809	32.5402641296
-9.34060096741	51.8117294312	11.8381528854	0.403306752443	40.2027702332	29.7482471466
-9.96869850159	49.3983802795	11.884560585	-0.0380145981908	42.1348876953	28.8787517548
-11.9802370071	47.5389251709	9.58230876923	2.78975224495	43.6607971191	30.5816726685
-18.7720184326	43.274684906	-2.6540248394	7.48199558258	44.5941314697	34.809223175
-25.1255931854	39.1337165833	-13.3041572571	10.8303918839	44.1909179688	40.1896781921
-27.6057300568	35.3915100098	-16.1404361725	12.9977312088	43.7195320129	45.0244140625
-28.5263118744	35.1570396423	-16.3869113922	14.9385719299	42.9338035583	48.0825576782
-26.448102951	38.5307807922	-11.6806554794	17.9222736359	40.5949745178	50.8097305298
-18.3034324646	44.1643066406	8.90239238739	21.3904876709	36.4797401428	52.8798332214
-17.1770839691	45.3894424438	15.840795517	22.7080383301	33.8186759949	53.5561294556
-21.3701686859	45.0451507568	10.2909660339	21.8602828979	33.5849761963	52.3375511169
-21.1801948547	44.2347106934	9.07364368439	20.4904308319	34.3186607361	50.4701271057
-21.5803813934	44.2878303528	8.31573295593	19.3079376221	34.5697021484	49.3457107544
-23.919178009	44.4652366638	8.81465530396	18.2611694336	34.885471344	49.0360069275
-25.0283031464	45.7495422363	13.6958208084	17.667591095	35.005771637	49.1404190063
-24.3794116974	47.0827560425	8.44260597229	16.8992042542	34.8450126648	48.5535812378
-22.9717979431	42.7865562439	-11.2252368927	15.9250326157	35.1554718018	46.8938980103
-20.9053668976	39.1108665466	-27.8940315247	14.1116552353	36.0884208679	43.888053894
-26.0399303436	36.1303482056	-21.233039856	11.6883773804	37.291053772	40.6021766663
-31.703868866	38.0160064697	-5.88972139359	9.95618724823	38.099697113	38.1119346619
-29.4646110535	39.8426551819	2.71569228172	8.56862449646	38.3687210083	37.0794906616
-31.2080173492	40.535774231	2.69190955162	7.51813602448	39.1762771606	37.1273422241
-32.6361999512	39.2878646851	4.11324930191	7.3859539032	39.8185462952	37.5539741516
-34.7470436096	37.4075164795	8.16553020477	7.95547056198	40.161026001	38.3352813721
-36.9957427979	37.9119873047	10.6220750809	8.6632194519	40.3175201416	39.3471107483
-34.6802978516	44.4650115967	5.96205234528	9.7466211319	40.3571662903	40.7614059448
-33.5079689026	46.5278129578	3.0534119606	10.180970192	40.1709899902	41.1405410767
-28.2334899902	36.7728233337	-8.99873352051	9.77590370178	40.0180702209	40.0165290833
-17.2253284454	23.2984886169	-8.46847343445	9.82269573212	39.9740562439	38.0731315613
-18.2175941467	18.8427772522	1.0971609354	10.1373128891	39.6390914917	35.2132110596
-18.2947807312	24.1977996826	12.4709892273	10.3290157318	40.7116127014	31.2155990601
-20.6436233521	28.6261062622	8.84243869781	8.74946403503	42.6499214172	25.9457454681
-22.7024478912	29.9872264862	7.26525878906	6.98012781143	43.7015609741	24.5971412659
-24.2646484375	29.1314468384	6.69449520111	7.39602279663	43.7353782654	27.9060020447
-23.4369354248	28.4331817627	9.48273563385	8.85624027252	44.4941596985	31.3528652191
-22.2708129883	27.96833992	9.4993391037	11.2744407654	44.851764679	38.923915863
-20.8819999695	29.0327949524	7.14463090897	13.5729904175	44.3206062317	44.407169342
-21.1975154877	31.2354984283	7.69829082489	14.8100910187	44.2423362732	45.9225502014
-21.9636363983	34.09217453	8.79847621918	15.4396190643	43.9549064636	46.250579834
-23.9903106689	37.0976142883	14.3576288223	15.2923746109	42.8037986755	45.1921768188
-31.4196529388	36.7555389404	7.69685554504	14.1554040909	41.6718025208	43.2619781494
-32.47864151	34.8569374084	10.22544384	13.234957695	40.6210441589	40.9947967529
-35.091632843	34.4630432129	19.3685474396	12.5565719604	39.3134765625	39.2854385376
-36.0431976318	36.1600112915	20.6068325043	11.5468854904	37.9578475952	38.530708313
-31.7022800446	39.1874694824	15.7494754791	10.0458040237	37.0851478577	38.370388031
-33.4941062927	39.4423484802	11.9610509872	8.49573230743	36.309463501	37.6690940857
-35.1241569519	39.0558738708	8.17659759521	7.26438713074	35.8302154541	36.8257522583
-36.0756263733	39.4673423767	9.44247055054	6.16241121292	35.2794914246	35.0219192505
-37.8440132141	39.5870094299	11.2833766937	4.79261636734	34.7021903992	32.9193382263
-37.1615219116	39.6995582581	14.8772830963	3.71907997131	34.6544342041	30.4198131561
-36.0334205627	39.4399719238	13.6264076233	3.69917011261	35.0794525146	28.8720989227
-37.115814209	38.1254272461	10.2500476837	4.70980644226	35.5970649719	29.3835487366
-40.4079551697	36.3020706177	5.82243108749	5.9232339859	36.2340507507	29.4760551453
-40.9645690918	36.7712783813	6.62983369827	6.99922943115	36.6615409851	29.8547878265
-39.9122467041	37.4959449768	9.16049385071	7.44823265076	37.3138999939	30.5756587982
-37.9311485291	37.2711143494	9.97713661194	7.73267364502	38.1206626892	31.0273113251
-35.5218734741	37.2381286621	10.4926548004	8.38524723053	38.6082725525	31.6351985931
-34.7337684631	38.2394676208	10.4319257736	9.28718471527	38.9070053101	32.2207832336
-33.4680366516	39.6961288452	10.5915288925	10.4026222229	40.0502166748	33.401309967
-31.2888870239	41.2163772583	10.4436197281	10.8601741791	40.6618003845	34.7722167969
-28.5767478943	43.1251144409	8.24352550507	11.1704416275	40.9271125793	35.3373527527
-24.9374771118	44.088634491	6.93062257767	11.8998556137	41.1040916443	35.8629951477
-20.5686664581	46.1580543518	8.06705284119	12.7176427841	41.0320205688	36.0931625366
-16.6720542908	49.2916870117	8.58477878571	13.196059227	40.6199264526	36.1423187256
-10.3769655228	53.2983894348	12.7583723068	13.2579030991	40.2768287659	36.1605148315
-4.26696777344	58.0229187012	16.1571483612	13.4036855698	40.399433136	36.5585250854
-0.946330010891	61.1735076904	16.2855262756	13.2256345749	40.3596954346	36.9360466003
-11.4042339325	62.1429443359	-3.44856238365	12.4795703888	40.4231910706	36.9390258789
-16.8811969757	59.9892158508	-16.3419342041	12.0530376434	40.5742912292	36.4294013977
-16.0305271149	60.0603561401	-10.5760917664	12.3779640198	41.0358428955	35.9220619202
-14.8895683289	62.2148513794	-9.21108818054	12.1949071884	41.2565994263	35.4426269531
-9.83511924744	64.982673645	-4.36813783646	11.6752147675	41.8192939758	35.039932251
-6.39693021774	65.9220275879	-1.68910419941	12.1818494797	42.1181716919	35.5223999023
-8.43185329437	65.1258850098	-4.95575809479	13.4215888977	43.0606460571	36.4376678467
-10.6956300735	63.9866790771	-7.32523012161	16.1664409637	43.4474067688	38.20520401
-17.715675354	61.478061676	-14.4965190887	21.0818939209	42.0221138	40.7769889832
-24.9649600983	59.5217628479	-19.7031536102	24.9690990448	39.5849342346	42.4741668701
-25.2245235443	58.5649452209	-20.3639030457	25.7100734711	38.3400802612	42.3879508972
-21.925359726	59.0623588562	-18.4115810394	24.6256256104	37.6629333496	41.5664672852
-19.6529579163	60.6540718079	-17.4093933105	22.6178207397	36.528427124	40.2948265076
-19.8218135834	62.7153930664	-16.7958507538	20.3553657532	35.6955718994	38.7829627991
-19.9030799866	64.3768920898	-15.9450645447	18.5621757507	35.5629234314	37.8191604614
-20.0627326965	64.2686538696	-15.586807251	17.5012493134	36.3921966553	38.7345199585
-20.8908500671	63.1540641785	-17.1237735748	16.2516651154	38.5197296143	42.5846710205
-23.6873626709	61.5570259094	-23.3662223816	16.9694538116	40.9307632446	49.8695411682
-25.1218719482	61.2071228027	-27.0441570282	20.1446685791	39.7691383362	55.0547790527
-21.2762317657	58.4205093384	-23.7224292755	22.9030570984	37.0845794678	56.6160888672
-16.2576465607	57.5686569214	-16.9136753082	23.8626403809	35.3397598267	56.8764343262
-12.8207979202	56.2748641968	-15.3957901001	23.1482067108	34.876121521	56.086807251
-9.34677219391	48.8586807251	-9.83192253113	22.1787376404	35.1309051514	54.6913948059
-8.7132101059	35.4024848938	-2.34407496452	20.6636371613	35.6876411438	52.4282798767
-13.2322750092	28.9578132629	2.1496424675	18.6086559296	36.4311981201	49.4330940247
-11.6035737991	26.2766170502	3.15378117561	16.2316532135	37.4854621887	46.419090271
-12.1424646378	23.8872432709	3.93762993813	14.1980390549	38.2319602966	43.7359390259
-13.9979076385	22.5019435883	2.78495049477	13.2368822098	38.5352897644	42.047668457
-13.0045728683	24.0704174042	-0.234573587775	12.2922105789	38.5954780579	40.8529853821
-12.8458156586	25.3989257812	-3.64948391914	10.7446699142	39.078502655	39.3203926086
-13.2549114227	26.7504920959	-7.61887693405	8.87005233765	39.7281799316	37.4857635498
-14.1527404785	24.4802951813	-9.29267024994	7.60267877579	40.0901260376	36.0807495117
-14.9932518005	22.5104789734	-10.4623613358	6.99066066742	40.1832923889	35.1951560974
-15.2530670166	21.6796455383	-9.62019634247	7.0655374527	40.292766571	34.5733985901
-12.6039676666	22.2372245789	-6.43573141098	7.02926015854	39.9001121521	33.8208770752
-10.7579288483	24.9059028625	-2.71385622025	6.94598722458	39.5172042847	33.2151565552
-13.1815919876	23.4171524048	-0.47247582674	6.4921298027	39.4956932068	32.4809532166
-16.299118042	23.1699523926	-4.32580089569	5.2885184288	39.2491493225	31.3742008209
-14.1214199066	20.4403457642	-5.49445056915	4.08656930923	39.0296173096	30.0642051697
-13.8542995453	23.6547813416	-9.58152580261	3.51226496696	38.5992546082	28.7641391754
-16.8240375519	28.628780365	-15.7949523926	3.72917842865	38.7761878967	27.7577781677
-21.1915664673	34.7341041565	-27.5256767273	4.30246448517	39.3038711548	27.4127922058
-21.9194335938	35.8776397705	-27.4099712372	4.31805515289	39.8373260498	27.160030365
-18.1470432281	33.6173477173	-20.6692409515	3.48606181145	40.8697280884	27.3027267456
-19.8830051422	29.6717185974	-18.4851169586	2.77587652206	42.0216255188	28.1277484894
-20.5069465637	28.2123088837	-14.5335578918	3.16083168983	43.2773742676	30.1374263763
-20.6813488007	29.3596153259	-14.226559639	1.92364251614	45.1060256958	34.5165176392
-20.8032035828	30.7835521698	-14.5508718491	2.61641550064	46.6937332153	40.8219451904
-20.6420154572	32.2492294312	-15.526632309	5.09253501892	47.4165878296	45.7542800903
-20.4110012054	34.0843391418	-13.337805748	6.2854590416	47.3749809265	46.7790489197
-20.4586334229	37.8207931519	-14.6055631638	6.26027011871	46.5263824463	45.4059524536
-20.6041049957	39.9401016235	-14.5938186646	5.684902668	45.2725219727	40.3196525574
-22.9509830475	40.0301017761	-16.3546848297	6.86120271683	40.8749961853	31.5218486786
-24.286190033	38.8387069702	-18.8694763184	7.65420866013	38.2860908508	25.4401931763
-22.6789741516	38.286605835	-20.7812309265	6.46789836884	38.2483901978	20.5477390289
-20.0330219269	37.7902526855	-21.5738811493	4.20699882507	37.3789367676	15.5248527527
-17.6470546722	37.6851768494	-21.8147544861	1.96434402466	35.8158454895	11.6059761047
-16.4305915833	37.4582214355	-21.8642597198	0.590750515461	33.7815055847	8.94222640991
-15.6810951233	36.6234855652	-20.4128189087	-0.120028495789	32.1885795593	7.37454652786
-16.1549701691	36.1438484192	-20.5358409882	-1.49366414547	30.4235935211	5.96988248825
-16.8711624146	35.8019332886	-20.8264064789	-3.02661991119	29.2069606781	4.75140714645
-18.0139560699	35.0490570068	-21.5820960999	-4.1379404068	29.821559906	4.31739711761
-19.87059021	32.8948402405	-19.4935970306	-3.82891631126	31.5097846985	4.89903736115
-20.00623703	31.3435573578	-14.0238790512	-0.901688575745	32.0020256042	5.94276380539
-20.7858638763	30.7219581604	-15.3195486069	0.506211459637	32.24741745	6.0081372261
-20.9980716705	30.3725261688	-14.1770811081	-0.782301485538	31.7336921692	5.45601081848
-21.7861938477	30.0807628632	-13.7366695404	-4.20874452591	30.1526279449	4.73918628693
-23.8837585449	29.3348693848	-13.7017345428	-8.89291572571	29.0168514252	4.37641334534
-26.8646507263	27.195608139	-12.1211462021	-13.881269455	27.6467247009	4.14062452316
-27.615983963	26.9423561096	-6.56516456604	-17.3552455902	26.1345081329	3.99110078812
-27.1839942932	26.9666957855	-3.6694188118	-18.4900455475	25.8553028107	5.058552742
-28.1094779968	26.3204212189	-2.9242169857	-17.5614204407	28.2870464325	7.07564353943
-29.1314868927	26.1765975952	-1.97157561779	-17.0214576721	29.9707927704	8.56794166565
-29.1272201538	26.5872173309	-0.632721781731	-17.2051563263	30.131690979	9.62713336945
-28.3050765991	26.9267959595	-0.669296443462	-16.5207920074	30.4312973022	10.0329427719
-27.4749202728	27.2463760376	-0.720441937447	-15.090719223	31.0829257965	10.4749488831
-26.8975353241	27.6876869202	-1.51109910011	-14.2198991776	30.9832515717	10.7781152725
-27.1982269287	27.8601264954	-1.65117800236	-13.8428211212	30.6671504974	10.9335861206
-28.2726612091	27.6555900574	-1.48204815388	-13.2464141846	30.3579425812	11.1357154846
-28.6118183136	26.7792320251	-0.954276025295	-12.5998220444	30.123090744	11.3393096924
-28.6330318451	26.068069458	-0.321246802807	-11.5312681198	29.8234062195	11.1193761826
-28.7381362915	25.1351490021	-0.0186217967421	-10.0034484863	29.6023139954	11.0879993439
-28.5142288208	23.6506023407	-0.0526135787368	-8.60579395294	29.5913906097	11.1190309525
-27.777639389	22.2927722931	0.10305377841	-7.59206581116	29.8187408447	11.1246566772
-26.4295463562	21.9037704468	0.579835951328	-7.3081407547	30.3100986481	11.0690927505
-25.5205249786	22.5689239502	0.778787493706	-7.098549366	31.5402927399	11.3599815369
-24.5468101501	22.8941230774	0.675833642483	-7.119328022	33.6173553467	11.9508342743
-23.7640972137	22.908946991	0.611112415791	-7.10796642303	35.623916626	12.5412368774
-23.3673400879	22.3058891296	0.894210040569	-6.39385938644	37.3849220276	13.5430021286
-23.3178119659	21.0720710754	0.95842730999	-6.04252004623	38.9895935059	14.7946777344
-23.1864204407	20.7502613068	1.29122710228	-5.13526058197	39.9969978333	15.2077722549
-22.8273506165	21.2332191467	2.2006289959	-3.8405725956	41.1144714355	15.6639575958
-22.6210193634	22.0427513123	2.80279064178	-3.26586151123	42.6336669922	16.3719940186
-22.6595172882	22.4829349518	3.42880606651	-3.02424240112	43.7660903931	16.4175491333
-22.3329143524	22.1596717834	3.89580774307	-2.30209088326	44.2722663879	16.2449970245
-22.1971378326	21.8334064484	3.26621937752	-1.59320116043	44.2254371643	16.2434749603
-22.8408679962	21.3146953583	1.53771591187	-1.17506718636	43.6334724426	16.0626125336
-23.1219787598	21.6571102142	0.259589672089	-0.828671038151	43.1018943787	15.8220262527
-24.1326789856	25.0459918976	-1.96502459049	-0.596808314323	43.2489509583	15.8603658676
