-23.6210479736	-41.4491233826	135.012527466	-2.32404136658	1.73067390919	-6.54197263718
-24.6798553467	-40.8065948486	134.499099731	-2.49974322319	2.56083202362	-6.37621212006
-25.7217884064	-40.1932601929	134.416885376	-2.99170517921	3.7435297966	-5.77271652222
-25.8666934967	-39.4747467041	130.651565552	-4.53494119644	4.49587249756	-4.62341737747
-22.433008194	-35.5432853699	111.590354919	-8.82217502594	3.36110067368	-2.55063033104
-24.2663936615	-27.6810779572	91.8082733154	-12.9522066116	0.957034230232	-0.985311567783
-31.0129585266	-21.665184021	72.4667205811	-15.6134195328	-1.66112112999	0.34364759922
-35.3664474487	-21.5051193237	68.3608093262	-16.5804862976	-3.95604801178	1.02496778965
-34.384223938	-22.3309841156	65.9882583618	-16.7800731659	-5.60554933548	1.76060175896
-33.4801750183	-23.774728775	71.2280578613	-16.9705371857	-6.14642047882	2.3192076683
-33.8833961487	-23.7121372223	81.3093490601	-17.3606510162	-6.11164140701	2.57243680954
-34.8609886169	-24.072725296	94.3070678711	-17.363658905	-7.0217871666	2.47085499763
-39.8755302429	-26.2812385559	117.729148865	-16.6393756866	-8.88160896301	1.32058691978
-42.3985137939	-28.6138629913	132.964141846	-16.1001033783	-10.6077413559	0.63887566328
-40.6378860474	-31.6576519012	133.989013672	-17.104888916	-12.7443761826	0.60498726368
-31.7441940308	-35.4572753906	120.265090942	-17.5687618256	-13.6145763397	-0.121028840542
-26.5136470795	-34.2890396118	111.613800049	-16.5787715912	-13.5857868195	-1.30106258392
-23.1198692322	-33.3096046448	105.092414856	-16.1073246002	-13.8912525177	-1.46243810654
