0.0	-0.0	135.477371216	-128.500350952	77.7200393677	170.468826294
0.0	-0.0	135.771987915	-128.202209473	77.550163269	170.855300903
0.0	-0.0	135.297866821	-128.64440918	77.0153198242	170.750839233
0.0	-0.0	135.061416626	-130.475219727	78.5088272095	171.036300659
0.0	-0.0	112.486198425	-135.121200562	85.3018188477	171.905426025
0.0	-0.0	75.6890106201	37.5534210205	84.0658721924	-6.87471532822
0.0	-0.0	70.7189865112	29.4486656189	74.8819961548	-4.10393571854
0.0	-0.0	68.7668533325	22.099615097	68.2396011353	-0.832508742809
0.0	-0.0	59.1449432373	17.1234760284	62.7773361206	1.41553771496
0.0	-0.0	41.8087692261	14.919960022	58.5081367493	1.93513154984
0.0	-0.0	22.7145252228	12.9583892822	55.0458030701	4.18251943588
0.0	-0.0	8.01013755798	8.29873943329	52.2721176147	7.24959421158
0.0	-0.0	12.7594203949	2.5781712532	50.2423057556	10.6389389038
0.0	-0.0	64.9677124023	-0.999318420887	48.8799133301	12.7268772125
0.0	-0.0	92.0925445557	0.482434749603	44.2101593018	11.0968532562
0.0	-0.0	106.357620239	2.60101866722	39.470249176	10.1254148483
0.0	-0.0	113.599258423	0.577741265297	33.8590011597	12.4714546204
0.0	-0.0	119.101081848	-1.56684470177	26.7670440674	13.0637407303
0.0	-0.0	113.995689392	2.87467908859	23.8052768707	10.7204236984
0.0	-0.0	70.753288269	8.57505512238	22.8168201447	9.37709331512
0.0	-0.0	52.8209075928	10.2273015976	23.0636386871	8.59814834595
0.0	-0.0	52.3387413025	12.9775314331	24.8157596588	6.48817062378
0.0	-0.0	53.2121238708	13.9318771362	26.6352939606	5.91014766693
0.0	-0.0	55.9089050293	14.8860559464	27.3121070862	5.06893587112
0.0	-0.0	66.1572799683	17.1434116364	26.1008491516	3.43326163292
0.0	-0.0	73.6564559937	18.7256717682	25.8022899628	2.41795349121
0.0	-0.0	73.3296203613	19.5480079651	24.9859867096	1.22916507721
0.0	-0.0	75.8200912476	20.7105617523	21.6407814026	0.144282996655
0.0	-0.0	77.9370574951	21.7847595215	18.6444759369	-1.03822684288
