0.0	-0.0	145.577163696	-145.152481079	86.7716217041	148.744659424
0.0	-0.0	146.154525757	-144.447875977	86.822807312	148.48890686
0.0	-0.0	144.106674194	-145.900436401	86.5355834961	148.245452881
0.0	-0.0	132.95173645	-146.64050293	85.006729126	148.573974609
0.0	-0.0	116.114883423	-146.258636475	86.0968704224	149.283538818
0.0	-0.0	100.487503052	-149.484405518	88.9562454224	150.881103516
0.0	-0.0	83.7498703003	23.2547988892	88.4975509644	-14.4466943741
0.0	-0.0	64.4381790161	-162.911102295	81.1996994019	177.124313354
0.0	-0.0	48.9986305237	-170.089538574	87.1159210205	175.545730591
0.0	-0.0	35.1568641663	-174.799697876	87.0818862915	173.186477661
0.0	-0.0	27.7504520416	-179.754333496	76.5555877686	-179.910461426
0.0	-0.0	23.8721504211	178.864715576	69.4644622803	-177.956771851
0.0	-0.0	19.0838489532	-173.848724365	82.5568466187	-177.91973877
0.0	-0.0	15.0786352158	17.4379024506	75.7177429199	-3.31572389603
0.0	-0.0	14.8816661835	21.6046352386	42.1958236694	-6.88569974899
0.0	-0.0	17.4234142303	13.6181344986	18.2342624664	5.81901168823
0.0	-0.0	18.1498374939	1.45066821575	18.0896759033	33.2184257507
0.0	-0.0	17.1659431458	7.49166917801	28.7386894226	33.9708480835
0.0	-0.0	16.8364658356	6.20332336426	31.0308895111	30.2017650604
0.0	-0.0	16.8791885376	3.29670619965	31.1912670135	29.1048603058
0.0	-0.0	14.0291662216	1.32081925869	31.6719074249	29.1424350739
0.0	-0.0	9.61451053619	0.279633790255	30.9458179474	29.9176979065
0.0	-0.0	8.53416156769	3.45615291595	29.6682853699	29.0230445862
0.0	-0.0	7.54442596436	6.7531504631	29.8854198456	27.3673114777
0.0	-0.0	6.65758275986	7.26463317871	32.4722900391	28.3748283386
0.0	-0.0	6.29084014893	6.61629104614	33.6843757629	29.4086608887
0.0	-0.0	6.27825069427	7.40977954865	34.1030082703	29.7415943146
0.0	-0.0	6.738260746	10.445848465	34.5313568115	26.7270278931
0.0	-0.0	8.81170845032	15.0403366089	40.4765472412	14.176153183
0.0	-0.0	12.190372467	14.868853569	41.9313697815	10.4332523346
0.0	-0.0	16.2097969055	14.3509836197	41.5979881287	11.305896759
0.0	-0.0	20.8363075256	14.7376155853	41.4371032715	13.960650444
0.0	-0.0	19.0088119507	15.8342142105	41.5794677734	18.3334331512
0.0	-0.0	15.4995594025	17.1933994293	41.5166320801	28.4829864502
0.0	-0.0	16.5129127502	25.7061367035	48.8605461121	28.7216300964
0.0	-0.0	16.9546337128	29.0762138367	54.2295913696	30.0692672729
0.0	-0.0	15.9007883072	28.5802783966	55.8818435669	31.6764221191
0.0	-0.0	15.7515001297	28.2491703033	55.1397743225	32.3920097351
0.0	-0.0	14.6412200928	28.6857967377	53.0893592834	32.4883460999
0.0	-0.0	14.0248527527	28.8130817413	49.1492347717	31.8183822632
0.0	-0.0	12.3970470428	31.7056350708	45.561668396	27.759513855
0.0	-0.0	10.4260139465	34.2603187561	42.7439842224	26.5657806396
0.0	-0.0	10.8535356522	34.7152175903	40.8193206787	27.7279262543
0.0	-0.0	12.5031671524	36.7471809387	38.0109939575	31.815404892
0.0	-0.0	16.0974025726	40.9867630005	34.897605896	31.8523406982
0.0	-0.0	20.1517238617	43.5114974976	28.982624054	31.1780910492
0.0	-0.0	23.1088848114	43.7542953491	22.0894069672	30.2364788055
0.0	-0.0	24.5927886963	43.6081314087	16.6708621979	29.5620212555
0.0	-0.0	24.7725639343	43.6941986084	14.396484375	29.0147514343
0.0	-0.0	24.4997558594	44.5629653931	14.2240056992	29.2023029327
0.0	-0.0	23.8967990875	46.0320396423	13.608757019	30.1562786102
0.0	-0.0	23.1512985229	47.3971977234	13.0499505997	31.2406482697
0.0	-0.0	22.9239768982	47.9150009155	13.2576856613	31.5124912262
0.0	-0.0	22.6032104492	48.648223877	12.9501819611	30.4030704498
0.0	-0.0	21.9154148102	48.9416389465	10.8486728668	29.3963603973
0.0	-0.0	22.1265239716	45.8360710144	5.67317152023	32.1701431274
0.0	-0.0	21.8665599823	41.1403083801	1.68405127525	35.144367218
0.0	-0.0	23.3016643524	41.123550415	2.0668182373	34.2240333557
0.0	-0.0	38.0895271301	41.4645957947	4.70527696609	32.3139038086
0.0	-0.0	65.5718612671	41.0621604919	4.97445631027	30.6787948608
0.0	-0.0	78.8558425903	41.6073913574	4.78048610687	30.0176239014
0.0	-0.0	79.6764907837	44.2850189209	6.35156202316	29.2444648743
0.0	-0.0	76.2704162598	46.6121406555	10.4835195541	27.9710178375
0.0	-0.0	71.8282775879	47.1996459961	14.0209665298	26.2971591949
0.0	-0.0	69.0663757324	45.1113586426	15.8343429565	27.2550201416
0.0	-0.0	66.9578094482	44.2083816528	17.5781421661	27.8819084167
0.0	-0.0	63.0492134094	41.4468421936	15.0308332443	28.5387306213
0.0	-0.0	60.4978981018	38.3141441345	10.4144678116	28.0972290039
0.0	-0.0	62.5183753967	36.8322181702	8.665391922	29.0474128723
0.0	-0.0	66.4890899658	35.9609375	11.6951532364	29.7936935425
0.0	-0.0	67.6205444336	36.3714408875	13.7978515625	29.5186653137
0.0	-0.0	68.3068161011	35.7275428772	14.8299407959	29.6995315552
0.0	-0.0	70.0126266479	36.0157852173	16.8436603546	29.8725891113
0.0	-0.0	72.7274093628	37.0398674011	19.2638645172	29.7128677368
0.0	-0.0	74.1046981812	36.8519706726	19.7942733765	29.6993083954
0.0	-0.0	76.0263595581	31.9504890442	23.8540000916	32.8923912048
0.0	-0.0	77.4111328125	19.6034145355	33.5698127747	38.7321548462
0.0	-0.0	75.7240447998	18.8226623535	34.3978538513	33.2606468201
0.0	-0.0	74.8807144165	20.0603218079	31.5773868561	26.6340885162
0.0	-0.0	75.8302078247	18.5245838165	31.1202049255	25.4181346893
0.0	-0.0	75.4769134521	18.5264282227	36.8482170105	28.0617103577
0.0	-0.0	70.6918182373	22.5074615479	40.9132728577	27.3597679138
0.0	-0.0	64.4404983521	24.2523517609	37.6311950684	22.7207336426
0.0	-0.0	57.5753517151	25.335395813	36.6034202576	20.6859760284
0.0	-0.0	50.0895843506	27.9269618988	40.8456840515	18.4386482239
0.0	-0.0	35.4223022461	29.5440731049	45.1051559448	20.63240242
0.0	-0.0	19.7207374573	30.1585865021	47.2792625427	21.7624835968
0.0	-0.0	11.983045578	29.2655773163	45.514377594	23.0303611755
0.0	-0.0	12.117609024	26.782749176	43.3022499084	24.8272533417
0.0	-0.0	18.8161945343	24.5909900665	41.4109115601	26.0486946106
0.0	-0.0	28.3851547241	25.0200710297	39.0400161743	26.8383579254
0.0	-0.0	36.9016227722	25.5838127136	38.807472229	28.4349479675
0.0	-0.0	40.1802139282	26.5682468414	41.2046432495	28.7679195404
0.0	-0.0	40.1484794617	27.4990615845	42.8483963013	27.3605117798
0.0	-0.0	40.5758857727	28.5063209534	44.7912368774	24.7839012146
0.0	-0.0	42.9664001465	32.7122573853	43.8540725708	22.0480728149
0.0	-0.0	45.2249259949	34.9601593018	31.6226882935	18.6668071747
0.0	-0.0	45.9258346558	34.1365966797	19.0785369873	17.476266861
0.0	-0.0	45.5591506958	33.8120307922	14.7545480728	16.3837394714
0.0	-0.0	44.2989501953	36.2855949402	12.2743139267	15.8359489441
0.0	-0.0	43.6088829041	37.9945106506	7.51185655594	15.5905208588
0.0	-0.0	44.319858551	40.9898681641	-1.19282603264	14.9720678329
0.0	-0.0	44.329120636	43.0452384949	-8.07476139069	14.3769102097
0.0	-0.0	43.8641395569	43.545135498	-8.64443397522	15.5392351151
0.0	-0.0	43.8913955688	44.0740280151	-7.7322769165	15.5563716888
0.0	-0.0	42.0477600098	43.5686187744	-7.72769212723	15.4365634918
0.0	-0.0	37.3605117798	42.8666915894	-7.37921237946	16.0660324097
0.0	-0.0	28.5442085266	43.0507659912	-6.90190124512	15.9641141891
0.0	-0.0	20.5102424622	43.0937805176	-8.35729312897	15.6669635773
0.0	-0.0	24.2630519867	42.222328186	-8.46945953369	14.0244293213
0.0	-0.0	34.9626274109	35.1073112488	8.57629394531	9.54023551941
0.0	-0.0	38.3499145508	15.1135406494	12.4590988159	24.3676948547
0.0	-0.0	40.7047653198	11.2306051254	9.91642856598	31.8158588409
0.0	-0.0	41.3672027588	16.3343029022	12.2052612305	30.3907661438
0.0	-0.0	29.683095932	17.8058757782	14.7701501846	27.3436698914
0.0	-0.0	18.4357051849	17.658323288	14.8859796524	25.173418045
0.0	-0.0	12.2002830505	16.8670749664	14.3473300934	26.1345996857
0.0	-0.0	11.5380783081	18.9518146515	14.0592746735	27.0836925507
0.0	-0.0	11.9883594513	20.8091278076	13.2920627594	26.0119590759
0.0	-0.0	15.1976585388	21.7613925934	13.6071176529	24.9550266266
0.0	-0.0	22.6536846161	23.8555316925	13.5478286743	23.4892101288
0.0	-0.0	9.04454803467	26.5111541748	13.2346591949	22.8253211975
0.0	0.0	-26.4716396332	27.9129638672	14.3990564346	23.3248176575
0.0	0.0	-55.3226547241	28.1667575836	15.5866012573	23.0258808136
0.0	0.0	-67.2300415039	27.6491947174	15.8968896866	20.9796028137
0.0	0.0	-73.6657867432	27.479637146	16.3394374847	18.2139854431
0.0	0.0	-83.3339157104	27.2588539124	17.5608673096	16.3420391083
0.0	0.0	-95.5749511719	27.5255088806	19.7391452789	16.3071212769
0.0	0.0	-100.812133789	28.188703537	19.1966781616	15.8822002411
0.0	0.0	-99.0072021484	28.8893318176	18.6388225555	16.4429454803
0.0	0.0	-96.0224609375	28.4841308594	18.5868930817	19.1425457001
0.0	0.0	-93.8330688477	29.0617523193	18.949754715	17.414516449
0.0	0.0	-88.1400909424	26.3887653351	20.5864315033	17.9858169556
0.0	0.0	-77.2715988159	20.8892822266	26.9153881073	22.2398929596
0.0	0.0	-67.0821685791	17.292755127	41.3860931396	16.7406864166
0.0	0.0	-56.0993614197	-0.976446568966	56.1783752441	19.0954093933
0.0	0.0	-41.7831916809	-14.4006223679	60.945274353	22.5222949982
0.0	0.0	-28.4553279877	-16.2535209656	54.1923904419	31.2956447601
0.0	0.0	-18.2968826294	-8.99276351929	46.5922927856	40.0317840576
0.0	0.0	-7.60440206528	-2.22719740868	43.3336906433	41.5058403015
0.0	-0.0	1.39860641956	5.81615352631	40.703502655	40.648147583
0.0	-0.0	7.90902042389	9.04391956329	34.964427948	37.1250724792
0.0	-0.0	11.1091175079	11.8601665497	26.0390167236	35.8794746399
0.0	-0.0	12.2531833649	18.1831645966	21.3977069855	35.3245391846
0.0	-0.0	12.0142374039	25.3606872559	23.0377521515	31.6957473755
0.0	-0.0	10.9608240128	29.0272674561	23.9247684479	28.1700706482
0.0	-0.0	10.914059639	29.2717323303	22.8669528961	27.9340057373
0.0	-0.0	11.6696634293	26.9337558746	25.3838806152	30.2368431091
0.0	-0.0	12.755022049	26.9154453278	28.6827774048	33.2609291077
0.0	-0.0	14.4083852768	24.8248977661	27.8091392517	34.7763786316
0.0	-0.0	17.6376609802	17.4594726562	19.2874088287	34.0343971252
0.0	-0.0	20.8961868286	9.87307739258	8.17343902588	35.4873313904
0.0	-0.0	22.408159256	5.12273406982	-2.17165374756	42.5032844543
0.0	-0.0	21.8770847321	4.48841142654	-9.23558139801	43.5208244324
0.0	-0.0	21.3052654266	6.35442781448	-12.7116775513	41.0304985046
0.0	-0.0	20.8827152252	17.8743419647	-7.84073781967	36.0830345154
0.0	-0.0	20.0530261993	33.4806518555	3.19528126717	28.9256248474
0.0	-0.0	19.3106746674	32.6267051697	3.85972619057	26.0718250275
0.0	-0.0	20.232170105	33.0795669556	2.56177544594	25.8801269531
0.0	-0.0	20.0300483704	33.8628005981	3.47306108475	26.6980648041
0.0	-0.0	20.7880764008	32.612663269	4.54940128326	26.984582901
0.0	-0.0	22.2602539062	32.3422088623	4.9317483902	25.9667110443
0.0	-0.0	24.9087123871	31.4968509674	7.92052555084	24.7640342712
0.0	-0.0	28.1698684692	31.8464317322	10.4715433121	24.3980007172
0.0	-0.0	30.2990226746	31.3244915009	11.417175293	24.6796875
0.0	-0.0	32.1860160828	32.5498733521	12.9875555038	26.5054187775
0.0	-0.0	32.4188423157	33.3729362488	14.7608270645	27.2690029144
0.0	-0.0	32.9235420227	32.1546211243	14.5514698029	27.4160480499
0.0	-0.0	34.8763618469	27.8644714355	14.7905263901	30.0717258453
0.0	-0.0	37.1727600098	22.4234390259	16.1832733154	33.2186012268
0.0	-0.0	39.2751159668	12.9479894638	21.45977211	36.1177940369
0.0	-0.0	40.6936340332	2.65681052208	28.8149623871	32.4618148804
0.0	-0.0	44.275100708	1.42110860348	30.7212677002	26.9603881836
0.0	-0.0	46.7659301758	5.65751934052	29.3768978119	29.6596317291
0.0	-0.0	49.5238952637	9.37677001953	30.3003959656	32.3964805603
0.0	-0.0	52.4976463318	10.3536987305	31.8515357971	36.6203079224
0.0	-0.0	61.4193534851	5.11633253098	34.9232330322	40.1316795349
0.0	-0.0	81.1615753174	1.64656400681	38.3740310669	35.9432373047
0.0	-0.0	100.754920959	4.33968162537	38.6840782166	33.4041213989
0.0	-0.0	109.587203979	9.54021930695	41.3657989502	28.4090919495
0.0	-0.0	109.302856445	12.0693225861	46.6333084106	20.8086261749
0.0	-0.0	106.423309326	15.6519966125	52.3657150269	13.7274208069
0.0	-0.0	104.394493103	20.1910171509	55.7953453064	10.1433887482
0.0	-0.0	104.291069031	21.8974189758	54.7952232361	7.27188158035
0.0	-0.0	104.601409912	22.7862968445	57.4014701843	8.78592967987
0.0	-0.0	104.881469727	27.4289970398	64.9550170898	12.2101106644
0.0	-0.0	103.101242065	33.8617973328	73.6985626221	11.2601480484
0.0	-0.0	101.439926147	39.6798248291	78.6036148071	6.09998273849
0.0	-0.0	100.317672729	39.4767303467	81.5896911621	0.329192250967
0.0	-0.0	100.328399658	36.0757904053	84.0101470947	-1.07695102692
0.0	-0.0	101.394126892	30.4779529572	80.5950393677	-0.803667366505
0.0	-0.0	100.985054016	24.7975273132	70.0673980713	-0.167358160019
0.0	-0.0	100.847389221	20.4842147827	60.4855537415	-1.01409637928
0.0	-0.0	99.0421295166	16.9532032013	55.6372261047	-2.57003927231
0.0	-0.0	97.7526245117	13.2861156464	49.4514808655	-3.02223563194
0.0	-0.0	97.4159927368	11.9906425476	39.2774543762	-4.06573390961
0.0	-0.0	97.281288147	10.9355783463	30.6490535736	-2.34575748444
0.0	-0.0	96.7519683838	10.9098167419	22.1708831787	-0.610778570175
0.0	-0.0	95.1365814209	10.7418403625	13.5062503815	6.3467798233
0.0	-0.0	93.8773651123	9.86753177643	5.46884918213	10.422832489
0.0	-0.0	92.5507049561	12.9166612625	-2.12118530273	12.9137525558
0.0	-0.0	90.1332626343	17.6743373871	-5.78904008865	14.8678064346
0.0	-0.0	88.7856216431	21.8654537201	-7.73532867432	15.6421089172
0.0	-0.0	89.7044754028	21.9628486633	-9.87969207764	16.6494045258
0.0	-0.0	90.8246078491	19.5114326477	-11.2191162109	18.0885047913
0.0	-0.0	90.2766952515	16.7044887543	-10.841711998	20.9872627258
0.0	-0.0	89.5592575073	17.1529026031	-6.41162919998	24.0089187622
0.0	-0.0	88.6371536255	29.063615799	-0.316757261753	17.0963344574
0.0	-0.0	90.5929641724	42.8161354065	4.12016248703	7.61736440659
0.0	-0.0	91.4164428711	46.8359527588	6.50492811203	1.78253591061
0.0	-0.0	91.6031417847	49.2769126892	8.02132415771	0.178181529045
0.0	-0.0	91.1639938354	51.1361198425	6.71440982819	-0.548762798309
0.0	-0.0	90.1626205444	50.5925445557	2.08482384682	1.66945755482
0.0	-0.0	89.3376541138	48.618347168	-1.17596399784	5.43108177185
0.0	-0.0	87.4669418335	49.3410110474	-3.23667144775	7.3390212059
0.0	-0.0	87.4989089966	47.9575233459	-7.20160007477	10.1479082108
0.0	-0.0	88.6944656372	39.422328949	-14.6897344589	17.6075820923
0.0	-0.0	88.1634979248	24.7271556854	-19.303691864	39.9727096558
0.0	-0.0	87.2265853882	17.613779068	-14.2678012848	56.4854660034
0.0	-0.0	86.7160110474	23.3874797821	10.427154541	45.6787910461
0.0	-0.0	87.5395050049	11.8768529892	24.1315002441	30.5768184662
0.0	-0.0	87.601020813	1.02748858929	16.5402812958	37.7935523987
0.0	-0.0	86.6946334839	1.16836559772	12.7683706284	29.2208709717
0.0	-0.0	85.628944397	4.53240585327	11.1787490845	22.5653572083
0.0	-0.0	82.9338302612	11.712469101	9.95977020264	13.592218399
0.0	-0.0	80.4101409912	17.4463500977	8.4517288208	6.66591501236
0.0	-0.0	78.6291656494	19.8271827698	6.42046451569	3.68982458115
0.0	-0.0	77.2912216187	21.9771728516	5.71048736572	2.37280273438
0.0	-0.0	75.5955123901	27.2966575623	5.54605865479	-0.337417244911
