0.232537046075	-59.3266944885	133.074066162	0.370787411928	7.41410970688	-7.54654312134
3.01494002342	-60.2157669067	128.036315918	1.27925765514	9.72188854218	-7.35495901108
7.37280225754	-62.1533279419	120.587715149	2.33019518852	11.8509817123	-7.05067157745
8.75359630585	-64.3553237915	115.473075867	2.47104310989	12.5102653503	-6.99180316925
6.85427904129	-65.9671020508	116.436546326	1.13182163239	11.4020586014	-7.07566308975
-2.26658511162	-63.5093460083	121.266304016	-0.907046914101	11.3490962982	-7.13785982132
-10.3270120621	-53.6360816956	129.338058472	-3.74789452553	13.0940294266	-7.15836429596
-10.979681015	-48.6632957458	130.480743408	-7.13158988953	15.4573078156	-7.17030668259
-13.9503669739	-50.6830444336	130.092956543	-10.4147205353	17.5071468353	-7.04262399673
-19.051820755	-53.8815155029	131.658676147	-13.6363391876	18.9300861359	-6.93254995346
-20.375120163	-56.7972679138	130.582931519	-15.2526674271	19.8079776764	-7.21492671967
-10.1843757629	-55.7494087219	112.149169922	-15.0852127075	21.0482692719	-7.27781963348
1.89622688293	-44.4413261414	85.3106613159	-15.4456577301	22.110376358	-7.42432260513
-1.74759948254	-42.5736312866	86.6332168579	-16.0810813904	22.4737701416	-7.51722145081
-4.71955490112	-43.8601036072	91.9976654053	-16.8839111328	22.2580032349	-7.57063150406
-6.5839676857	-44.6107139587	94.7881317139	-17.7517814636	22.2001094818	-7.67734670639
-10.5874176025	-46.3548927307	101.438941956	-18.1591339111	23.1979541779	-7.42567062378
-13.1637878418	-48.5064888	100.629051208	-18.8930606842	24.019733429	-7.06343603134
-14.763584137	-51.2968025208	98.5911178589	-19.5131893158	24.427072525	-6.8465180397
-16.2004890442	-56.5864715576	94.0959396362	-19.7583904266	24.7648696899	-6.77488946915
-20.066652298	-59.7295951843	95.4979248047	-19.6360378265	25.2101268768	-6.64963006973
-23.8264064789	-61.5277137756	97.6763839722	-19.5817756653	24.8486042023	-6.64427757263
-29.0681762695	-65.171333313	101.765083313	-19.5409317017	24.2986869812	-6.73290491104
-31.7052440643	-69.5549545288	103.669425964	-19.3323020935	24.6306991577	-6.91248130798
-34.9149246216	-70.4545898438	108.716148376	-19.3047962189	25.083820343	-7.17865467072
-33.1086959839	-68.7155609131	108.753364563	-19.5392570496	25.4353313446	-7.46389913559
-19.7074394226	-63.6086807251	86.1802520752	-19.6918773651	25.7007961273	-7.36921310425
-9.31733322144	-55.8527374268	69.7092666626	-19.7779045105	25.9039859772	-7.29294061661
-9.41227054596	-54.5654678345	66.1813735962	-20.1140956879	25.5884284973	-7.22267723083
-12.6891613007	-53.3623924255	66.9635925293	-20.7017974854	25.1843338013	-7.49279975891
-11.4856309891	-51.983215332	63.2619361877	-21.2226390839	24.6014690399	-7.67866659164
-10.1617412567	-50.665309906	55.1472473145	-21.3992996216	23.744512558	-7.58803224564
-7.95444583893	-49.8052101135	45.6809959412	-21.1729469299	23.3130779266	-7.57731676102
-2.78281378746	-47.2288627625	37.7189216614	-20.2362174988	23.8370170593	-7.74042701721
-2.31032776833	-47.430015564	42.7506103516	-19.6235370636	24.0667915344	-7.68977832794
-15.1547470093	-51.9391860962	76.2942123413	-19.296710968	23.6738204956	-7.60713291168
-33.0198745728	-53.5807723999	109.766075134	-19.1274681091	23.1913051605	-7.67295074463
-35.5050964355	-54.7807884216	111.118270874	-18.8406543732	23.1279659271	-7.89934444427
-35.0300865173	-55.1913871765	110.307189941	-18.5550136566	24.1772270203	-7.96308994293
-34.7213249207	-54.8479194641	110.035308838	-17.9027633667	25.3263092041	-6.59294891357
-33.3184547424	-55.1843223572	107.418251038	-13.6431789398	26.095582962	-1.18558251858
-34.1434402466	-55.2291374207	107.275909424	-7.90737104416	27.2816734314	4.70511198044
-35.1756439209	-54.2072639465	108.943115234	-7.21004581451	29.9116916656	6.20666456223
-35.0596694946	-53.1410255432	109.30116272	-10.4821386337	33.1996498108	5.93382692337
-34.7625274658	-52.1194877625	108.784439087	-14.0241231918	35.8960952759	5.21059465408
-36.0052871704	-51.3407478333	109.769248962	-13.5555782318	36.8299942017	5.78620481491
-37.5523262024	-50.8742446899	111.074577332	-12.2955331802	36.3143501282	6.28375816345
-38.2039642334	-50.5083503723	111.335418701	-13.3766403198	36.093624115	4.81825733185
-37.5899581909	-50.3655281067	111.13709259	-14.963719368	35.2405853271	2.36448001862
-37.1514511108	-51.0992927551	111.047874451	-15.8635387421	33.5055503845	0.415717512369
-37.1075363159	-51.6117172241	111.615188599	-15.4846553802	32.0151786804	-1.32567250729
-36.5014572144	-52.1032066345	111.832801819	-14.3716287613	30.0428848267	-2.17813897133
-34.5422134399	-52.8756484985	110.096374512	-12.5680541992	28.0418968201	-2.40983343124
-32.5504226685	-53.2938919067	108.829849243	-9.87870788574	26.4430007935	-1.78498399258
-31.653219223	-53.7938652039	108.569389343	-8.14155769348	25.23320961	-1.16760694981
-30.1241970062	-54.0598678589	107.312637329	-8.15674114227	24.3076286316	-0.868512988091
-29.9885540009	-53.8855056763	107.752128601	-8.91798877716	23.9753875732	-0.657676815987
-30.2897644043	-53.6940002441	108.480979919	-9.05784702301	24.2546863556	0.207597777247
-30.9940395355	-53.9151535034	109.423744202	-6.98456335068	25.2785606384	4.30688524246
-31.0331630707	-53.9020042419	109.829528809	-5.29191207886	25.5606250763	7.54622554779
-30.8954486847	-53.0604553223	110.033355713	-6.70944547653	25.3511924744	6.90642738342
-30.4299869537	-52.4985466003	109.544921875	-10.0218868256	25.1626834869	4.91833972931
-30.6270751953	-52.2841644287	109.280281067	-13.4003133774	27.5967559814	2.49685192108
-31.8701534271	-52.559879303	110.052528381	-13.1888771057	33.560333252	3.46703124046
-33.3170166016	-53.1505355835	111.361534119	-8.23433113098	40.7372589111	8.46426105499
-34.1807899475	-53.2221488953	111.883483887	-4.48740577698	41.277015686	11.327249527
-33.3653869629	-51.8736457825	111.754890442	-5.77879476547	40.2687644958	9.95935821533
-32.3811798096	-51.6578292847	110.641944885	-8.81601810455	39.7875099182	8.02797985077
-33.4167442322	-51.4901695251	111.313789368	-11.0855484009	39.1311836243	5.76088857651
-33.2744941711	-51.6200485229	110.688308716	-12.2340641022	36.6405792236	2.07191777229
-33.1238861084	-51.7362480164	110.438499451	-12.3398733139	32.4185791016	-2.25621557236
-31.869228363	-51.2958259583	109.617530823	-9.38784599304	28.0986118317	-5.71777105331
-31.6479034424	-51.7566680908	110.315361023	-3.37350726128	24.7419776917	-8.09822368622
-32.2382469177	-52.8577575684	112.299743652	1.85214328766	23.9052391052	-9.76124954224
-30.3778572083	-53.9469413757	111.709007263	4.12557125092	24.8572864532	-10.4631443024
-27.4690189362	-54.5236282349	110.241386414	2.67231678963	26.3584079742	-11.6172904968
-25.1543254852	-54.7877464294	109.442382812	-0.290692090988	28.1618404388	-13.0874481201
-22.7667388916	-55.3464889526	107.442375183	-3.71485257149	29.5469665527	-14.118347168
-20.6446456909	-57.0080757141	102.613128662	-5.88619661331	29.245267868	-14.0951747894
-20.7188491821	-58.2866096497	100.650382996	-6.78624868393	28.4792232513	-13.1123495102
-22.4158859253	-58.0938034058	102.14743042	-7.60285139084	28.9886608124	-11.304353714
-22.8974475861	-57.6766014099	101.656723022	-6.29991102219	29.8291568756	-6.28470659256
-24.0431995392	-57.6763534546	102.305526733	-4.42258167267	30.1521396637	-1.71418213844
-24.4005794525	-57.7433815002	102.52003479	-5.11769914627	30.5241413116	-1.57708775997
-25.2307929993	-57.7521324158	103.376670837	-7.15671205521	32.3916091919	-3.10228180885
-25.5275039673	-57.7105941772	103.105026245	-8.74434566498	34.8126602173	-2.76154971123
-26.0318317413	-57.4942321777	103.425521851	-8.28950786591	37.2885932922	-0.691388845444
-25.7816925049	-56.9489479065	103.53162384	-5.47798919678	39.0267982483	1.62313258648
-26.2650165558	-56.3895301819	104.040596008	-4.71237754822	39.0063972473	1.42145693302
-24.747051239	-56.5111961365	102.373954773	-7.17052984238	37.6500091553	-0.838331222534
-23.6484298706	-56.9552459717	100.557098389	-10.6944503784	35.3461532593	-4.53784990311
-24.1320762634	-57.3550682068	100.658027649	-13.0352334976	32.4280433655	-9.61407089233
-22.9333229065	-57.8433761597	99.2142562866	-12.1506271362	29.0336017609	-14.4108972549
-21.9467582703	-58.2476425171	98.1979751587	-8.07514476776	26.7986850739	-16.5787792206
-21.1282577515	-58.7921409607	97.2945404053	-2.91278362274	27.3879299164	-16.124956131
-20.9228649139	-59.4564247131	97.1713562012	1.25810921192	28.8472385406	-14.4934139252
-21.2269020081	-59.7255020142	97.8774795532	1.77147161961	29.4698181152	-13.0474071503
-20.850019455	-59.5989952087	97.6584243774	-1.31996846199	29.6802330017	-12.6483926773
-20.2501468658	-59.4445724487	96.7013015747	-4.5193529129	29.9415130615	-12.4978542328
-18.8616809845	-59.3740310669	92.1591644287	-7.1581788063	30.5866661072	-12.0169391632
-10.4128818512	-56.7996406555	78.9453887939	-8.02187919617	30.846036911	-11.5881567001
-6.83893823624	-47.9782714844	76.8997039795	-7.73086118698	31.1372184753	-10.6677246094
-14.3047542572	-42.9457740784	94.944519043	-7.82488393784	30.7314987183	-10.4303970337
-19.1986808777	-43.9822273254	101.850639343	-8.54575061798	29.7895126343	-10.6043481827
-21.723400116	-44.9707489014	103.725585938	-9.21206569672	29.7272071838	-10.7973098755
-28.684753418	-45.5935935974	112.963592529	-9.99088764191	30.2586250305	-10.6816663742
-36.1716842651	-45.8654518127	122.968917847	-10.5487613678	30.5349006653	-10.7259063721
-36.5219612122	-47.3312454224	121.99647522	-10.3939990997	31.2157535553	-10.5031414032
-31.004278183	-47.8860588074	111.789962769	-10.3102846146	31.3897686005	-10.3060016632
-23.6546955109	-45.9002075195	96.937286377	-10.5681219101	31.3237228394	-10.3211889267
-20.4153957367	-42.2585716248	91.6497650146	-10.6004705429	30.9131393433	-10.0569972992
-21.844997406	-40.2102928162	89.1339569092	-10.9108991623	30.3018379211	-9.76138114929
-23.4147281647	-39.3947563171	87.3930358887	-11.2467479706	30.3184490204	-9.65015220642
-23.3671398163	-38.6444587708	82.9527359009	-11.9126577377	30.5189552307	-9.46453475952
-21.933839798	-37.4915275574	75.3092041016	-12.9311742783	30.1372718811	-9.34827423096
-19.5039749146	-36.8179931641	63.6269645691	-13.7111768723	29.7857990265	-9.29565620422
-16.4009838104	-31.9262714386	55.2019386292	-13.987279892	29.7053718567	-9.25764656067
-13.6454191208	-23.0076122284	46.5297775269	-13.8501281738	29.5309886932	-9.3304271698
-16.619468689	-23.2617378235	50.0530700684	-13.3941640854	29.2068786621	-9.16899394989
-20.0192928314	-20.9455127716	55.4209251404	-12.8474969864	28.8201122284	-9.10272026062
-17.7087440491	-13.0331745148	50.8614807129	-12.0756473541	28.4276828766	-8.86944389343
-9.24868583679	-2.99241733551	42.7622337341	-11.746099472	27.9893035889	-8.49154663086
-3.03367209435	-5.34233045578	37.1744918823	-12.3910303116	26.9356613159	-8.25431060791
-15.1933584213	-14.8994379044	45.9950370789	-13.2931509018	26.834192276	-8.35961818695
-17.6208648682	-26.7027568817	53.8841552734	-13.3396444321	27.2154788971	-8.32907581329
-23.5928211212	-36.2343635559	69.3253173828	-13.1949892044	27.3726768494	-8.36707019806
-36.8249092102	-43.8873939514	101.799934387	-12.910785675	27.498714447	-8.45520782471
-41.6317749023	-46.8197364807	113.86190033	-12.6079978943	27.7401008606	-8.4410200119
-41.269569397	-47.9629592896	114.956253052	-12.5257329941	27.8390140533	-8.63660144806
-37.7850456238	-47.7928771973	105.528770447	-12.6044940948	28.3917922974	-8.78938961029
-34.8771438599	-51.9329147339	88.2325744629	-12.6885118484	28.8621444702	-8.66114330292
-37.0167274475	-52.6109199524	87.9365158081	-12.7298583984	28.9947433472	-8.64418506622
-39.0469284058	-52.9690475464	89.442489624	-13.1799592972	28.7877864838	-8.63057804108
-46.9379425049	-55.5991210938	98.3010559082	-14.0228462219	28.8113021851	-8.84941387177
-56.353603363	-58.2119636536	107.140357971	-14.5146493912	28.3035202026	-8.778673172
-59.2382545471	-60.1939468384	107.705444336	-15.2786283493	28.7963809967	-8.78104496002
-60.6429862976	-61.2407073975	104.525741577	-15.164516449	29.4202384949	-8.24870967865
-62.8722915649	-62.5353507996	101.55670166	-14.9698810577	29.4376182556	-7.91976881027
-65.0900650024	-63.1123886108	103.921432495	-15.4132795334	29.2934207916	-8.13983345032
-68.8341903687	-61.1542701721	112.328765869	-15.3943996429	29.1497344971	-8.12353134155
-74.4559860229	-55.4056015015	128.285980225	-15.6734457016	29.1243801117	-8.1526517868
-75.2926712036	-54.3157691956	130.650802612	-15.8281602859	29.050239563	-8.26238250732
-70.9382400513	-51.1451301575	131.644073486	-15.7637681961	29.076417923	-8.25282859802
-60.667098999	-47.7299118042	126.996025085	-15.5003242493	29.1845779419	-8.15131473541
-53.9981002808	-48.7056274414	113.765991211	-14.8268232346	29.0917854309	-7.6947722435
-66.9384689331	-43.2557449341	128.457504272	-14.0747461319	28.7267475128	-7.57667684555
-80.4067993164	-34.1064758301	144.195327759	-13.8535928726	28.7244586945	-7.79061889648
-88.6598129272	-26.3950099945	147.399124146	-13.4346427917	28.9023780823	-7.48937892914
-92.9616775513	-20.9784889221	145.344451904	-13.4216537476	29.1745758057	-7.37475442886
-95.8104782104	-21.4729766846	137.276947021	-13.6202316284	29.4182338715	-7.34172201157
-90.3166046143	-25.5607395172	116.14024353	-13.5904579163	29.6922702789	-7.26704359055
-84.2383956909	-25.4178714752	102.001693726	-13.6740112305	29.9827842712	-7.3596200943
-78.1768112183	-26.9358158112	91.1250762939	-13.8723621368	30.35820961	-7.28325176239
-74.3466110229	-31.2759494781	80.209197998	-14.3784008026	30.4335861206	-7.10107088089
-69.4423980713	-35.9797134399	65.2332687378	-15.0358514786	30.3928318024	-6.86483335495
-53.6843528748	-37.6073875427	41.2676429749	-15.4620313644	30.281955719	-6.94574832916
-32.7283859253	-25.1255207062	34.7673072815	-15.7041578293	30.168888092	-6.89369010925
-13.9683990479	-8.7288312912	39.9234161377	-15.5532569885	29.8830566406	-7.07759523392
-5.08338975906	-9.09087467194	47.5003967285	-14.8468885422	29.146238327	-7.56770372391
3.08558678627	-7.13787555695	47.1812553406	-14.0986433029	28.1629638672	-7.79625511169
9.99750804901	-2.73639941216	44.6888313293	-12.0921401978	26.4931316376	-8.82437610626
11.6794681549	-1.44907128811	43.4261932373	-8.6879234314	24.2651634216	-11.5156011581
13.0915298462	-2.4065015316	42.8657684326	-4.16748571396	23.9212837219	-13.9155845642
14.5414819717	-1.83668708801	41.5658950806	-0.283905893564	25.1705150604	-15.234249115
15.6660175323	-2.29907774925	40.8594589233	2.62795090675	25.6431770325	-16.2224655151
16.638299942	-3.60345888138	39.9419364929	4.10963153839	25.3074817657	-17.6211338043
16.262468338	-4.95459985733	39.5613708496	4.52325630188	24.9947147369	-18.5320510864
16.4571342468	-6.15535211563	39.5710372925	3.74352288246	24.7561721802	-19.1977996826
17.0833530426	-6.44842243195	39.1719360352	3.00454807281	24.2979564667	-19.8776988983
17.2201938629	-6.08372449875	38.7782287598	3.80868577957	24.0233001709	-19.9911365509
16.2798538208	-6.14317989349	38.9737854004	3.56555223465	24.2057323456	-19.1796588898
14.6802473068	-6.1304693222	39.2698173523	0.867569565773	23.9850654602	-18.0411071777
11.8646316528	-6.21364212036	39.3561515808	-2.83608746529	23.6291484833	-16.6914482117
8.34707546234	-6.17231988907	39.6059837341	-7.16862106323	23.6200656891	-15.0732755661
4.92188119888	-6.50728750229	39.8036155701	-12.4494333267	23.2550640106	-13.0873727798
1.54356765747	-6.6145362854	40.4849624634	-18.7497291565	22.5328159332	-10.6792812347
-1.2402408123	-6.4327712059	41.488319397	-24.9221343994	22.2992687225	-8.42796611786
-3.37881660461	-5.61241912842	42.3086051941	-28.6009483337	22.5257472992	-6.53167486191
-5.48089408875	-5.12981033325	43.1816825867	-29.6121120453	22.1636924744	-4.44094276428
-7.75209617615	-5.77747821808	43.9018745422	-29.5227508545	19.9647865295	-2.81251478195
-10.5916128159	-7.19528722763	43.4855079651	-27.8182754517	18.2323265076	-2.41498398781
-12.9657278061	-11.8079090118	44.623462677	-25.3105564117	19.6516113281	-2.81335330009
-14.8910322189	-15.9610815048	45.9536705017	-24.0788784027	21.0000209808	-3.0846786499
-16.495634079	-18.1347694397	45.6372375488	-24.4633312225	20.5593318939	-3.61294007301
-16.7576217651	-21.1090698242	46.2114486694	-24.3267688751	19.8470306396	-4.33904266357
-19.6037654877	-27.7341327667	50.5790672302	-22.8186454773	19.9320983887	-4.83162736893
-23.8086986542	-34.9231681824	60.159828186	-21.9451065063	19.8194637299	-4.67862415314
