-49.33228302	-47.1425933838	133.125427246	-1.08020269871	4.61937856674	-8.43634033203
-49.6022186279	-47.0687484741	132.947555542	-1.29279112816	4.83471107483	-8.12300491333
-50.2518386841	-47.3178405762	132.333679199	-1.7686868906	4.48321437836	-7.71963214874
-50.63098526	-47.3459205627	131.292709351	-3.4641354084	3.63611412048	-7.12891340256
-51.2478713989	-46.5961112976	129.525543213	-5.43091583252	3.40519022942	-6.69679927826
-51.6140556335	-45.8464927673	122.99206543	-5.60930919647	6.56017160416	-7.09598112106
-50.9185676575	-47.9990005493	114.796531677	-5.08874082565	11.3525590897	-6.79529380798
-48.9811553955	-50.0169219971	107.031639099	-5.54962587357	15.0484342575	-6.69569349289
-47.9173469543	-49.4627113342	105.503265381	-5.63799142838	17.8586101532	-6.9159154892
-47.012676239	-49.6410598755	103.837974548	-5.01959276199	20.8922481537	-6.93519306183
-46.9984779358	-50.0321617126	103.537155151	-4.39906597137	24.0848121643	-6.92043352127
-46.7742652893	-50.4390869141	102.809280396	-3.95883107185	26.8205032349	-6.84923934937
-45.5178451538	-51.2855911255	100.108520508	-3.01788640022	28.4742183685	-6.6762714386
-43.3190956116	-51.5342407227	97.0909881592	-1.7987511158	29.0849533081	-6.39580869675
-41.5042762756	-51.1050682068	95.337677002	-1.14132285118	28.9905567169	-6.436211586
-40.4452705383	-50.7722969055	94.4252853394	-0.611935198307	29.2034435272	-6.77255582809
-39.5477027893	-50.8823242188	93.6074676514	0.21489842236	29.5074043274	-6.70043706894
-38.6353988647	-50.6443405151	92.7710723877	1.28598630428	29.3439559937	-6.39087867737
-37.1752243042	-50.5737533569	91.2157592773	2.59249091148	29.6832675934	-6.10314702988
-35.3581123352	-49.7208747864	89.2407073975	3.04913163185	31.3051433563	-6.11152648926
-34.599822998	-49.3064689636	88.691368103	3.3092148304	31.8247661591	-6.45162534714
-34.0834655762	-50.0922012329	88.3173370361	3.60540318489	31.6464424133	-7.10264396667
-33.4530944824	-50.7976112366	87.5059738159	3.71744608879	31.6276550293	-7.34427499771
-33.0916099548	-51.2924995422	86.7406234741	3.89915108681	30.2204627991	-7.42753648758
-32.3830680847	-51.5243835449	85.8010482788	3.77636790276	29.1189689636	-8.04085826874
-31.5300502777	-51.818157196	84.6872940063	3.10605549812	29.1145496368	-8.56272602081
-30.7926311493	-51.4039764404	84.3629226685	1.82124495506	27.6378440857	-8.98437023163
