0.0	-0.0	137.507110596	-131.083175659	79.1986465454	166.968811035
0.0	-0.0	138.165908813	-131.579711914	78.687713623	167.834411621
0.0	-0.0	136.921829224	-132.719329834	77.9542617798	168.378311157
0.0	-0.0	118.145935059	-135.362213135	78.3646011353	169.555633545
0.0	-0.0	70.0506515503	-137.917480469	79.7768554688	170.40838623
0.0	-0.0	56.382183075	-139.961639404	81.0284957886	171.265701294
0.0	-0.0	50.3987197876	-142.421340942	82.7273483276	172.351089478
0.0	-0.0	51.8449134827	-143.677490234	83.8708496094	173.861282349
0.0	-0.0	58.5279655457	-144.814193726	83.1123504639	175.89201355
0.0	-0.0	75.3888320923	-146.5440979	81.9283828735	177.148193359
0.0	-0.0	78.3323974609	-146.593811035	82.5160903931	177.10357666
0.0	-0.0	79.2163009644	-145.393234253	82.9954605103	177.882644653
0.0	-0.0	80.4022750854	-143.976959229	82.6191329956	178.447265625
0.0	-0.0	77.5719985962	-143.709686279	83.0701751709	177.874511719
0.0	-0.0	61.7376899719	-142.374893188	83.3645324707	176.814437866
0.0	-0.0	62.882686615	-141.776107788	85.1657104492	176.968215942
0.0	-0.0	62.086605072	-142.014953613	85.998916626	177.683395386
0.0	-0.0	50.7226333618	-142.372390747	84.8316497803	178.951858521
0.0	-0.0	26.1123409271	-142.524276733	84.8946533203	-179.859710693
0.0	-0.0	7.29584360123	-142.821182251	84.5907592773	-178.151290894
0.0	-0.0	1.0357363224	-143.356689453	82.7894821167	-176.594100952
0.0	-0.0	48.4451408386	-144.971359253	81.7356796265	-176.550369263
0.0	-0.0	88.3054656982	-145.662384033	81.4068603516	-176.99168396
0.0	-0.0	93.0896606445	-144.639190674	82.9370422363	-177.592697144
