-0.0528917312622	1.2004711628	-0.0504670143127	-0.176509380341	1.49532938004	-0.107526779175
-0.0555126667023	1.20010435581	-0.0449320077896	-0.179254293442	1.49494147301	-0.0985069274902
-0.0565280914307	1.19635510445	-0.0383651256561	-0.181714057922	1.49284303188	-0.0916185379028
-0.058087348938	1.19598257542	-0.03586602211	-0.182511568069	1.49371063709	-0.0900632143021
-0.0587165355682	1.19884085655	-0.0351459980011	-0.182710409164	1.50127243996	-0.0956000089645
-0.0589010715485	1.20464980602	-0.0350263118744	-0.182604074478	1.51422083378	-0.108342528343
-0.0586550235748	1.20885717869	-0.035630941391	-0.181258440018	1.5300579071	-0.126047611237
-0.0578606128693	1.21087896824	-0.0372006893158	-0.177888393402	1.54800200462	-0.147280812263
-0.0586838722229	1.21475529671	-0.042165517807	-0.174042224884	1.56562829018	-0.171582460403
-0.0620958805084	1.21864521503	-0.047931432724	-0.170426845551	1.57902610302	-0.196001052856
-0.0618109703064	1.21756470203	-0.0464968681335	-0.167101144791	1.58957910538	-0.218958258629
-0.0610902309418	1.21465909481	-0.0427615642548	-0.164328575134	1.60213530064	-0.242823839188
-0.0634579658508	1.21668541431	-0.0412175655365	-0.159494161606	1.61197531223	-0.261815786362
-0.0658144950867	1.21376097202	-0.0383679866791	-0.153151988983	1.6205419302	-0.278001666069
-0.0641717910767	1.20870661736	-0.0354578495026	-0.143604278564	1.62898015976	-0.292021512985
-0.063086271286	1.21439099312	-0.0420897006989	-0.134386301041	1.63671934605	-0.304440259933
-0.0634446144104	1.20888698101	-0.0519454479218	-0.129834890366	1.63947558403	-0.312666535378
-0.0613834857941	1.18202698231	-0.0518193244934	-0.128598690033	1.6417593956	-0.318494796753
-0.0563459396362	1.15265285969	-0.0443683862686	-0.125386714935	1.64473497868	-0.325269818306
-0.0511467456818	1.13469278812	-0.0331610441208	-0.120112419128	1.64855229855	-0.333518981934
-0.0476756095886	1.12391018867	-0.0199092626572	-0.116294145584	1.64977431297	-0.341247797012
-0.0513796806335	1.12185835838	-0.0119386911392	-0.1147813797	1.64466369152	-0.344776630402
-0.0616202354431	1.13211250305	-0.0159692764282	-0.115959644318	1.63610196114	-0.345096111298
-0.0729641914368	1.15033245087	-0.0276055335999	-0.119886398315	1.6324660778	-0.344201803207
-0.0821921825409	1.15989518166	-0.0356976985931	-0.123899459839	1.6326584816	-0.342073917389
-0.0879385471344	1.16288816929	-0.0377212762833	-0.12640619278	1.63409292698	-0.338773608208
-0.0902676582336	1.16426241398	-0.0349452495575	-0.126597881317	1.63664615154	-0.335164308548
-0.0921516418457	1.16492474079	-0.0299949645996	-0.12487745285	1.63886082172	-0.331657409668
-0.0995330810547	1.16965425014	-0.0311210155487	-0.123919487	1.63954782486	-0.32839679718
-0.108478546143	1.17645287514	-0.0375419855118	-0.126738548279	1.63985311985	-0.324332952499
-0.117490768433	1.17997097969	-0.0443781614304	-0.1332924366	1.6404992342	-0.319366693497
-0.124632120132	1.18326807022	-0.0503041744232	-0.137407302856	1.64271402359	-0.315780758858
-0.128268241882	1.19190263748	-0.0568010807037	-0.13861823082	1.64558172226	-0.315837860107
-0.126944065094	1.20738112926	-0.0638229846954	-0.1391518116	1.6474019289	-0.31881570816
-0.12273979187	1.24110770226	-0.080589056015	-0.140639543533	1.64713990688	-0.322196960449
-0.116174221039	1.27952229977	-0.103432655334	-0.142291069031	1.64545106888	-0.326116204262
-0.111418485641	1.2927287817	-0.111999750137	-0.141734361649	1.64385819435	-0.331165075302
-0.108734130859	1.28965604305	-0.112941741943	-0.139522314072	1.64298462868	-0.337138175964
-0.109161615372	1.28697264194	-0.121290683746	-0.137020587921	1.64357841015	-0.342553019524
-0.108644247055	1.28350424767	-0.127384901047	-0.133050203323	1.64292132854	-0.345989227295
-0.104586839676	1.27998054028	-0.127735614777	-0.125168323517	1.63948619366	-0.347987890244
-0.097136259079	1.27769100666	-0.126073002815	-0.115461349487	1.63353919983	-0.348316788673
-0.0919604301453	1.27669107914	-0.129496335983	-0.109932184219	1.62791538239	-0.347233891487
-0.0913424491882	1.26872360706	-0.130302190781	-0.106697797775	1.62457072735	-0.346973657608
-0.0907649993896	1.2522124052	-0.119517564774	-0.104198694229	1.62354099751	-0.34926867485
-0.0863692760468	1.24121570587	-0.105860829353	-0.10128569603	1.62262046337	-0.351207256317
-0.0832870006561	1.2375882864	-0.0948624610901	-0.0977554321289	1.62034058571	-0.351944208145
-0.081383228302	1.2312155962	-0.0818183422089	-0.0968780517578	1.61981749535	-0.354492902756
-0.0803935527802	1.21870982647	-0.0624499320984	-0.0973980426788	1.6227555275	-0.359368443489
-0.0813157558441	1.21547198296	-0.0493947267532	-0.0938889980316	1.62757122517	-0.367568969727
-0.0830307006836	1.22735869884	-0.049827337265	-0.0873377323151	1.63229358196	-0.380044460297
-0.0849478244781	1.23770678043	-0.0530333518982	-0.0810196399689	1.63524389267	-0.39745926857
-0.0874018669128	1.24300515652	-0.0543739795685	-0.0753996372223	1.63523161411	-0.416291475296
-0.0914072990417	1.24436712265	-0.0535686016083	-0.0709462165833	1.63136696815	-0.43364405632
-0.0968081951141	1.24975919724	-0.0544652938843	-0.0671236515045	1.62415742874	-0.449354410172
-0.104065656662	1.26357889175	-0.0617666244507	-0.0645949840546	1.61585009098	-0.463484525681
-0.107926607132	1.27720606327	-0.0708451271057	-0.0647675991058	1.60883152485	-0.473810434341
-0.104211807251	1.27985179424	-0.0739009380341	-0.0648808479309	1.60358250141	-0.479235172272
-0.0974628925323	1.2743601799	-0.0708091259003	-0.0633428096771	1.60162961483	-0.479956388474
-0.089750289917	1.27263784409	-0.0688043832779	-0.0608153343201	1.60291302204	-0.475672245026
-0.0785372257233	1.26643896103	-0.0618512630463	-0.0568225383759	1.60633671284	-0.467181682587
-0.0674352645874	1.2455496788	-0.0407110452652	-0.0519626140594	1.61018335819	-0.459600925446
-0.0586295127869	1.21578168869	-0.0140571594238	-0.0488669872284	1.61229276657	-0.450412511826
-0.0552225112915	1.20634257793	-0.00361514091492	-0.0490300655365	1.61274695396	-0.438107848167
-0.0570924282074	1.20400369167	0.00157284736633	-0.0517103672028	1.61268007755	-0.425158500671
-0.0555970668793	1.19781386852	0.0137288570404	-0.0537755489349	1.61472439766	-0.413488149643
-0.0553829669952	1.20222854614	0.0217827558517	-0.0554854869843	1.61727130413	-0.40114569664
-0.0622553825378	1.21845734119	0.013620018959	-0.0587706565857	1.61976277828	-0.389189839363
-0.0728802680969	1.22921848297	-0.00113534927368	-0.0626084804535	1.62167048454	-0.377923488617
-0.0778584480286	1.22128725052	0.00018584728241	-0.0649404525757	1.62378144264	-0.368447780609
-0.0806202888489	1.21084225178	0.0124833583832	-0.0629603862762	1.62472474575	-0.362748265266
-0.0871798992157	1.22154450417	0.0117830038071	-0.059312582016	1.6268029213	-0.358234643936
-0.0956029891968	1.22550058365	0.0124561786652	-0.0580496788025	1.62880480289	-0.355031967163
-0.0997529029846	1.21818089485	0.0191618204117	-0.0591852664948	1.62927734852	-0.354938268661
-0.100175380707	1.22185015678	0.0170590877533	-0.0608353614807	1.62903213501	-0.354955077171
-0.103951215744	1.23658466339	0.00241017341614	-0.062516450882	1.62884867191	-0.353838682175
-0.10644197464	1.24664497375	-0.010055065155	-0.0638799667358	1.62865245342	-0.352881669998
-0.106947660446	1.23540663719	-0.00294089317322	-0.0638980865479	1.63005042076	-0.3556381464
-0.108236789703	1.23954820633	-0.00249481201172	-0.0628819465637	1.63239598274	-0.360122561455
-0.109636306763	1.25418460369	-0.00898599624634	-0.0632557868958	1.63369596004	-0.361892461777
-0.112738132477	1.25469911098	-0.0108065605164	-0.064553976059	1.63440465927	-0.361730337143
-0.115044593811	1.24272620678	-0.00828003883362	-0.0649352073669	1.63273739815	-0.361425876617
-0.115102052689	1.23549151421	-0.00964105129242	-0.0630514621735	1.63025891781	-0.363346934319
-0.113040447235	1.2397840023	-0.0141100883484	-0.0589346885681	1.62818074226	-0.368029475212
-0.109822511673	1.25186920166	-0.0206944942474	-0.0553421974182	1.62725365162	-0.372990846634
-0.10443353653	1.26210200787	-0.0297862291336	-0.0542240142822	1.62773227692	-0.376109361649
-0.105840682983	1.2650398016	-0.0406532287598	-0.0556643009186	1.62821400166	-0.378106713295
-0.109930992126	1.25473737717	-0.0419907569885	-0.0569860935211	1.62773120403	-0.380326867104
-0.113454580307	1.23236715794	-0.0353379249573	-0.0576877593994	1.62677431107	-0.38378739357
-0.116666316986	1.19880819321	-0.0235494375229	-0.0591776371002	1.62585794926	-0.387277841568
-0.117309093475	1.17828512192	-0.0167019367218	-0.06125831604	1.62548136711	-0.389810681343
-0.116630315781	1.21546089649	-0.0312288999557	-0.0641937255859	1.6252822876	-0.390025019646
-0.123203277588	1.25594186783	-0.0603266954422	-0.0673854351044	1.62430632114	-0.389179468155
-0.13458108902	1.26869511604	-0.0793464183807	-0.0690653324127	1.62374377251	-0.387304663658
-0.131572961807	1.26043760777	-0.0677709579468	-0.0698564052582	1.62370169163	-0.38414812088
-0.130654335022	1.25012743473	-0.0563151836395	-0.0709753036499	1.62384819984	-0.379657030106
-0.12597322464	1.23778343201	-0.0437072515488	-0.0724649429321	1.62445580959	-0.374097108841
-0.114554166794	1.2122606039	-0.0229910612106	-0.0718278884888	1.62580347061	-0.36796438694
-0.108073234558	1.16141462326	0.00412368774414	-0.0687358379364	1.62548315525	-0.361876487732
-0.109537363052	1.09200322628	0.0142204761505	-0.0660376548767	1.6231007576	-0.357500076294
-0.111681699753	1.11492812634	-0.00656533241272	-0.0653214454651	1.62335133553	-0.354103803635
-0.112307071686	1.15826117992	-0.0307197570801	-0.066917181015	1.62279880047	-0.354601025581
-0.113052129745	1.19911551476	-0.0564298629761	-0.0688459873199	1.62337172031	-0.357802867889
-0.111050605774	1.24488246441	-0.0894000530243	-0.070702791214	1.62431919575	-0.362180709839
-0.112740755081	1.27583754063	-0.121298074722	-0.0726094245911	1.6255556345	-0.365465283394
-0.112414836884	1.27720832825	-0.123203277588	-0.0746347904205	1.6255865097	-0.366940617561
-0.110233306885	1.27254617214	-0.119040489197	-0.0754451751709	1.62489330769	-0.366764545441
-0.107827425003	1.27224218845	-0.119684934616	-0.0757446289062	1.62403202057	-0.365807533264
-0.101754903793	1.26858603954	-0.115657329559	-0.0747799873352	1.62284100056	-0.364905357361
-0.0939743518829	1.26808536053	-0.111667871475	-0.0718100070953	1.62214851379	-0.363428354263
-0.0929372310638	1.2685778141	-0.112241029739	-0.0686445236206	1.62165522575	-0.361440062523
-0.0945782661438	1.26398122311	-0.110421776772	-0.0672571659088	1.62082314491	-0.358859777451
-0.0968599319458	1.25894725323	-0.108904719353	-0.0672726631165	1.61929500103	-0.356346130371
-0.0981824398041	1.25845181942	-0.108404040337	-0.0693175792694	1.61503887177	-0.352770328522
-0.097996711731	1.26039433479	-0.10958647728	-0.0756187438965	1.60625064373	-0.348093271255
-0.0959820747375	1.26001250744	-0.110446691513	-0.0809364318848	1.60200083256	-0.346610307693
-0.0932540893555	1.25827383995	-0.109267473221	-0.0816450119019	1.60082256794	-0.348331093788
-0.0926003456116	1.26041638851	-0.111845612526	-0.0793046951294	1.59757244587	-0.349772691727
-0.0932166576385	1.26217830181	-0.116581916809	-0.0745134353638	1.59517335892	-0.352610468864
-0.0928077697754	1.25866794586	-0.119186401367	-0.0644094944	1.59473991394	-0.356297492981
-0.09041929245	1.25365328789	-0.122041225433	-0.0513355731964	1.59144032001	-0.357649564743
-0.0867986679077	1.24874722958	-0.126841068268	-0.0433251857758	1.58855307102	-0.357443571091
-0.0821015834808	1.24701702595	-0.129817485809	-0.0412905216217	1.58993554115	-0.3592274189
-0.0774209499359	1.24755704403	-0.126980066299	-0.0395164489746	1.59377968311	-0.362865924835
-0.0758497714996	1.24947571754	-0.123836636543	-0.03990650177	1.60188221931	-0.370070457458
-0.0783271789551	1.25583684444	-0.12465763092	-0.0434746742249	1.60735225677	-0.377271771431
-0.0886130332947	1.25632798672	-0.130300045013	-0.0508971214294	1.60790741444	-0.381660103798
-0.0971961021423	1.24940240383	-0.135137081146	-0.0626847743988	1.60697031021	-0.384792566299
-0.0976462364197	1.24951374531	-0.134486198425	-0.0680770874023	1.60528349876	-0.384922266006
-0.099630355835	1.25101006031	-0.133841753006	-0.0651345252991	1.6065018177	-0.383585691452
-0.100395441055	1.24479341507	-0.130017280579	-0.0585553646088	1.61122882366	-0.384644985199
-0.0995028018951	1.23583734035	-0.124987959862	-0.0506644248962	1.61438441277	-0.386451244354
-0.0954053401947	1.23200488091	-0.120759248734	-0.0440728664398	1.61394762993	-0.389185905457
-0.0913681983948	1.22932064533	-0.115863323212	-0.0399341583252	1.61255013943	-0.393325090408
-0.089920759201	1.22705316544	-0.115565299988	-0.0392942428589	1.61501729488	-0.401046037674
-0.0886352062225	1.22425913811	-0.118141531944	-0.0406847000122	1.61930537224	-0.413807868958
-0.0846922397614	1.22656369209	-0.12158203125	-0.0399513244629	1.62240195274	-0.430887103081
-0.0834774971008	1.23810434341	-0.125172376633	-0.0350739955902	1.62493991852	-0.448554039001
-0.0821964740753	1.25428140163	-0.12958574295	-0.0319719314575	1.62655615807	-0.461238384247
-0.077862739563	1.26274311543	-0.133082032204	-0.026401758194	1.63091266155	-0.46849489212
-0.0757942199707	1.26195895672	-0.134765505791	-0.0160934925079	1.63152003288	-0.471828222275
-0.0734665393829	1.2616776228	-0.139313936234	-0.00942420959473	1.62395000458	-0.467884540558
-0.0672023296356	1.25893068314	-0.141990423203	-0.0102458000183	1.61383032799	-0.460326433182
-0.0629439353943	1.24873876572	-0.136496663094	-0.012122631073	1.60979008675	-0.456516504288
-0.061954498291	1.24632883072	-0.13267493248	-0.00969123840332	1.61026978493	-0.45640873909
-0.0646705627441	1.25034511089	-0.132365226746	-0.00669741630554	1.61093211174	-0.456411480904
-0.0653948783875	1.25162112713	-0.131087303162	-0.00781965255737	1.61078500748	-0.454363107681
-0.0625307559967	1.2485653162	-0.125643372536	-0.00891423225403	1.61013317108	-0.449120759964
-0.0604884624481	1.25114583969	-0.122843503952	-0.00905871391296	1.61057555676	-0.440024614334
-0.0648658275604	1.26055312157	-0.129946470261	-0.0109741687775	1.61149215698	-0.428953886032
-0.0636556148529	1.26644635201	-0.135993480682	-0.0132968425751	1.61333310604	-0.42006611824
-0.0616655349731	1.26802837849	-0.135488510132	-0.0170907974243	1.61716866493	-0.411995887756
-0.0615875720978	1.27275848389	-0.137839913368	-0.0221083164215	1.61751627922	-0.403617143631
-0.062038898468	1.27456915379	-0.137447118759	-0.0263338088989	1.61472809315	-0.394570350647
-0.0618968009949	1.27569925785	-0.134099841118	-0.0288650989532	1.61334049702	-0.387040376663
-0.0644974708557	1.27612960339	-0.131494641304	-0.0301303863525	1.61245763302	-0.380753517151
-0.0684645175934	1.27169537544	-0.1344653368	-0.034065246582	1.61026656628	-0.373539805412
-0.0712265968323	1.25458097458	-0.138976097107	-0.0420331954956	1.60913467407	-0.363565683365
-0.0745522975922	1.24194359779	-0.142755150795	-0.0501418113708	1.60886287689	-0.35459280014
-0.0787341594696	1.24980819225	-0.145571231842	-0.0587544441223	1.61025071144	-0.346106648445
-0.0795891284943	1.25796675682	-0.140154123306	-0.0712785720825	1.6120326519	-0.338396310806
-0.0792441368103	1.25003695488	-0.122287034988	-0.0825839042664	1.61408007145	-0.332897305489
-0.0807428359985	1.25030350685	-0.109263896942	-0.0888397693634	1.61610734463	-0.329027891159
-0.0870728492737	1.25820910931	-0.101709127426	-0.0961272716522	1.61724579334	-0.326316714287
-0.0861787796021	1.26383149624	-0.0931611061096	-0.106350183487	1.61814892292	-0.323805570602
-0.0733463764191	1.26242721081	-0.0808403491974	-0.116654872894	1.6212182045	-0.322643995285
-0.057975769043	1.26239395142	-0.0745567083359	-0.129402637482	1.62358784676	-0.323028087616
-0.0548498630524	1.26965534687	-0.0802475214005	-0.149044513702	1.62604808807	-0.321454167366
-0.0663089752197	1.27457141876	-0.0936164855957	-0.173142433167	1.62852418423	-0.319362401962
-0.0714619159698	1.26939117908	-0.102174520493	-0.195994853973	1.62983262539	-0.318262577057
-0.0723843574524	1.26470983028	-0.109779596329	-0.211131572723	1.63031101227	-0.320128321648
-0.0767524242401	1.26462447643	-0.116183996201	-0.217016220093	1.62971615791	-0.32541680336
-0.0815501213074	1.26391208172	-0.119550466537	-0.216385602951	1.62765872478	-0.334815263748
-0.0855534076691	1.2607228756	-0.117262125015	-0.212069988251	1.62615323067	-0.344756603241
-0.0897245407104	1.26516103745	-0.117012262344	-0.203203201294	1.62699878216	-0.354140996933
-0.0954918861389	1.27379119396	-0.115704774857	-0.184655427933	1.62810194492	-0.363291501999
-0.0975275039673	1.2741805315	-0.106587648392	-0.158910512924	1.62387430668	-0.371445298195
-0.0929527282715	1.2677693367	-0.0958073139191	-0.13901758194	1.61778533459	-0.378120064735
-0.0826461315155	1.26102364063	-0.0890382528305	-0.126731157303	1.61509716511	-0.385194063187
-0.0742683410645	1.26799857616	-0.0899163484573	-0.118099451065	1.6139934063	-0.392280340195
-0.0746653079987	1.27718031406	-0.0887639522552	-0.109242916107	1.61104810238	-0.39785528183
-0.0791049003601	1.27870059013	-0.0883957147598	-0.102998256683	1.60530281067	-0.399749040604
-0.0840702056885	1.2730474472	-0.0936982631683	-0.0986773967743	1.59620416164	-0.3984811306
-0.0840411186218	1.26100289822	-0.0961127281189	-0.0941061973572	1.58402788639	-0.394423723221
-0.0817596912384	1.24821960926	-0.0967769622803	-0.0894937515259	1.57069599628	-0.388709068298
-0.0807852745056	1.23473489285	-0.0977780818939	-0.085606098175	1.56192409992	-0.380019187927
-0.0805611610413	1.22493577003	-0.0967240333557	-0.0840780735016	1.56688845158	-0.364751696587
-0.0763425827026	1.23047602177	-0.0928404331207	-0.086101770401	1.58363759518	-0.338867306709
-0.0717210769653	1.22481107712	-0.0862309932709	-0.0870592594147	1.57068824768	-0.307718992233
-0.0738327503204	1.20304834843	-0.0749887228012	-0.0806381702423	1.55164361	-0.282655715942
-0.0745811462402	1.20296168327	-0.0697703361511	-0.0741159915924	1.5606969595	-0.266551733017
-0.0672831535339	1.20786488056	-0.0646712779999	-0.0724215507507	1.55629825592	-0.263923168182
-0.0613231658936	1.19982290268	-0.051574587822	-0.0721759796143	1.53517746925	-0.269310712814
-0.0631999969482	1.1874973774	-0.0446832180023	-0.0746438503265	1.5239418745	-0.270974397659
-0.0675206184387	1.17779278755	-0.0411734580994	-0.0816297531128	1.54038667679	-0.260842442513
-0.0689339637756	1.17467427254	-0.0389537811279	-0.0946702957153	1.55140626431	-0.240784406662
-0.0525126457214	1.19008111954	-0.0396437644958	-0.107820987701	1.56421720982	-0.228185772896
-0.0393617153168	1.1864515543	-0.0299379825592	-0.105171918869	1.57325160503	-0.227067112923
-0.0369145870209	1.18592596054	-0.0328638553619	-0.0952639579773	1.58752346039	-0.232541322708
-0.0441677570343	1.1685475111	-0.0350586175919	-0.0720369815826	1.61011040211	-0.24925661087
-0.0562658309937	1.16010773182	-0.0367659330368	-0.0484118461609	1.62024259567	-0.264970898628
-0.0713331699371	1.16952383518	-0.0442247390747	-0.0494155883789	1.61373436451	-0.271361231804
-0.079286813736	1.17698061466	-0.0525209903717	-0.0609838962555	1.60875809193	-0.281078338623
-0.0871086120605	1.17938399315	-0.0574760437012	-0.0617651939392	1.61071074009	-0.291169166565
-0.10080909729	1.18029296398	-0.0615929365158	-0.0555913448334	1.61406099796	-0.299717664719
-0.108293533325	1.18175077438	-0.0611984729767	-0.0434854030609	1.61412549019	-0.307919025421
-0.107099533081	1.18285489082	-0.0569902658463	-0.0356426239014	1.6099998951	-0.31635928154
-0.102861404419	1.17024004459	-0.0489486455917	-0.0355129241943	1.60743772984	-0.325244188309
-0.0886354446411	1.17061018944	-0.0488617420197	-0.0390856266022	1.60784566402	-0.335298657417
-0.0785138607025	1.20610427856	-0.0718984603882	-0.0440516471863	1.60994100571	-0.344134092331
-0.0735535621643	1.23308169842	-0.0914225578308	-0.0484681129456	1.611079216	-0.348962545395
-0.0722875595093	1.23862743378	-0.0946315526962	-0.0492477416992	1.61057031155	-0.350636005402
-0.0696032047272	1.23622298241	-0.093442440033	-0.0474214553833	1.61018133163	-0.350261807442
-0.0653586387634	1.23260462284	-0.0928634405136	-0.0462327003479	1.60849833488	-0.34690618515
-0.0556683540344	1.22748875618	-0.0944993495941	-0.0465893745422	1.6029831171	-0.339991569519
-0.0419883728027	1.22632002831	-0.109123706818	-0.0481853485107	1.59753322601	-0.330089092255
-0.0377736091614	1.22240126133	-0.120597600937	-0.049733877182	1.5976139307	-0.325689077377
-0.0356659889221	1.21529793739	-0.1253272295	-0.050853729248	1.59854590893	-0.322694063187
-0.0303835868835	1.19767355919	-0.133544683456	-0.0519182682037	1.5962690115	-0.31699514389
-0.0253667831421	1.18500483036	-0.147274971008	-0.0550622940063	1.59482264519	-0.310578584671
-0.0254504680634	1.1805576086	-0.150224685669	-0.0557141304016	1.59616065025	-0.304807662964
-0.0259571075439	1.17632210255	-0.143045186996	-0.0554764270782	1.59689438343	-0.301198720932
-0.0241391658783	1.16858398914	-0.134639263153	-0.0554101467133	1.59693300724	-0.298274040222
-0.0207989215851	1.16547966003	-0.126387953758	-0.0565228462219	1.59875357151	-0.297845363617
-0.0158581733704	1.17310893536	-0.116154313087	-0.0560259819031	1.60069406033	-0.299808740616
-0.00903105735779	1.18751299381	-0.108118414879	-0.0540881156921	1.60289120674	-0.302273154259
5.50746917725e-05	1.19734239578	-0.101546883583	-0.0515146255493	1.60524046421	-0.306026935577
0.0123987197876	1.18786919117	-0.0879151821136	-0.0473093986511	1.60862720013	-0.31221985817
0.0308299064636	1.14565050602	-0.0587921142578	-0.0419244766235	1.61169755459	-0.319259643555
0.0399341583252	1.15040206909	-0.0537605285645	-0.036039352417	1.61332249641	-0.324516534805
0.0246138572693	1.18777418137	-0.0706655979156	-0.0330638885498	1.61317145824	-0.330619812012
0.00759196281433	1.20816206932	-0.0869567394257	-0.0340569019318	1.61432111263	-0.339910745621
0.00229978561401	1.19250035286	-0.0830413103104	-0.0338878631592	1.61714625359	-0.351153612137
-0.0026752948761	1.17880320549	-0.0748543739319	-0.0303661823273	1.62009441853	-0.361610651016
-0.00855565071106	1.18984627724	-0.0729126930237	-0.0269026756287	1.62154448032	-0.369271039963
-0.00910878181458	1.19985115528	-0.0643517971039	-0.0241894721985	1.62228965759	-0.3744764328
-0.000823974609375	1.2058416605	-0.0474627017975	-0.0219459533691	1.6238874197	-0.377215385437
0.00755190849304	1.21318542957	-0.0318584442139	-0.0223844051361	1.62437272072	-0.376558423042
0.00910329818726	1.23081076145	-0.0305757522583	-0.0258305072784	1.62312018871	-0.372578263283
0.00562930107117	1.2414727211	-0.0348572731018	-0.0319831371307	1.62107050419	-0.369033575058
-0.00142121315002	1.23475217819	-0.0311903953552	-0.0383887290955	1.62182617188	-0.368042111397
-0.0101046562195	1.22952830791	-0.0259401798248	-0.0425171852112	1.62388169765	-0.366705656052
-0.0179054737091	1.23094952106	-0.0232869386673	-0.0460591316223	1.62622225285	-0.364064455032
-0.0197801589966	1.23247253895	-0.0207760334015	-0.0491626262665	1.62747180462	-0.360563516617
-0.016753911972	1.22912013531	-0.014851808548	-0.0511074066162	1.62927234173	-0.355669260025
-0.0146763324738	1.22835373878	-0.0124944448471	-0.0533788204193	1.62991857529	-0.352244853973
-0.0146563053131	1.23167836666	-0.0156871080399	-0.0556645393372	1.6303602457	-0.351322174072
-0.0161421298981	1.2400842905	-0.0234580039978	-0.0562653541565	1.63053822517	-0.351685285568
-0.015013217926	1.24894702435	-0.0309325456619	-0.0572741031647	1.63188374043	-0.353638529778
-0.0140180587769	1.24379634857	-0.02854180336	-0.0592105388641	1.63350450993	-0.357346534729
-0.0146737098694	1.2384544611	-0.0227217674255	-0.0586109161377	1.63492178917	-0.363087058067
-0.0171012878418	1.24736785889	-0.0185191631317	-0.055677652359	1.63724815845	-0.369898319244
-0.0176458358765	1.26988363266	-0.0185470581055	-0.0534098148346	1.63974738121	-0.37629032135
-0.0119242668152	1.28980016708	-0.0242862701416	-0.0538713932037	1.64012479782	-0.378160715103
-0.0073778629303	1.29981374741	-0.0359990596771	-0.0550770759583	1.63895261288	-0.375113248825
-0.00587177276611	1.29931461811	-0.0422661304474	-0.0559089183807	1.63687002659	-0.370759248734
-0.00741672515869	1.29312109947	-0.0411186218262	-0.0568108558655	1.6358243227	-0.367812991142
-0.00947594642639	1.28897583485	-0.0391225814819	-0.0579109191895	1.63578009605	-0.366430640221
-0.0106191635132	1.28920936584	-0.038759469986	-0.0583419799805	1.63675284386	-0.367594957352
-0.0121736526489	1.29300105572	-0.0401059389114	-0.0587110519409	1.63804161549	-0.371009349823
-0.0162074565887	1.3019220829	-0.0460357666016	-0.0599172115326	1.63900125027	-0.374375104904
-0.0190415382385	1.31247615814	-0.0545811653137	-0.0616409778595	1.63881647587	-0.375802755356
-0.0197057723999	1.31851124763	-0.0606561899185	-0.0620179176331	1.63825690746	-0.376094460487
-0.0199534893036	1.31724774837	-0.0601974725723	-0.060054063797	1.63877367973	-0.377275705338
-0.0193061828613	1.31300461292	-0.0569056272507	-0.0552935600281	1.63991189003	-0.379753947258
-0.0156757831573	1.31312048435	-0.0563975572586	-0.0485067367554	1.63761365414	-0.383248090744
-0.00890350341797	1.3189278841	-0.062695980072	-0.0423202514648	1.63370609283	-0.385711193085
-0.00399994850159	1.31952118874	-0.0671925544739	-0.038890838623	1.62938427925	-0.385515213013
-0.00312733650208	1.31256055832	-0.0692867040634	-0.0382795333862	1.62513184547	-0.382120370865
-0.00278639793396	1.30596959591	-0.0720318555832	-0.0398859977722	1.62112534046	-0.376465797424
-4.83989715576e-05	1.30294156075	-0.073294878006	-0.041877746582	1.61997687817	-0.370056509972
0.000963926315308	1.30034983158	-0.0702577829361	-0.0440194606781	1.61959314346	-0.364223718643
0.000824689865112	1.30014240742	-0.0678958892822	-0.0462827682495	1.61906480789	-0.359127283096
-0.00156307220459	1.29987204075	-0.0655450820923	-0.0478763580322	1.61873614788	-0.356640458107
-0.00479960441589	1.30162239075	-0.0640037059784	-0.0486898422241	1.61966478825	-0.356427192688
-0.00671863555908	1.3031078577	-0.0625796318054	-0.0494236946106	1.62093698978	-0.357380628586
-0.00554871559143	1.30413973331	-0.0617538690567	-0.0503630638123	1.62170064449	-0.357796430588
-0.00505876541138	1.30273747444	-0.06125831604	-0.0506091117859	1.62177419662	-0.358622550964
-0.00550961494446	1.30118954182	-0.0618739128113	-0.0499901771545	1.62158441544	-0.359994411469
-0.00497674942017	1.3014165163	-0.064474105835	-0.049339056015	1.62127375603	-0.361650943756
-0.00368976593018	1.30135893822	-0.0670975446701	-0.0485074520111	1.62161457539	-0.364401102066
-0.00223731994629	1.30197536945	-0.0706897974014	-0.0476322174072	1.6220061779	-0.368323802948
0.000163555145264	1.30459308624	-0.0762560367584	-0.0449831485748	1.62311244011	-0.372872114182
0.0078661441803	1.30787312984	-0.0827214717865	-0.0392873287201	1.62452018261	-0.377690196037
0.0189056396484	1.31014311314	-0.0871019363403	-0.0331735610962	1.62504816055	-0.381733894348
0.02991771698	1.31088030338	-0.0934419631958	-0.0274143218994	1.62477600574	-0.384404063225
0.0385317802429	1.30804228783	-0.100442767143	-0.0220539569855	1.62299847603	-0.386774897575
0.0424275398254	1.30553877354	-0.107957720757	-0.0166518688202	1.62211334705	-0.392049789429
0.0443127155304	1.3104698658	-0.118362903595	-0.0137131214142	1.62309193611	-0.397730946541
0.0473484992981	1.31311845779	-0.127019286156	-0.0139017105103	1.6225771904	-0.401967763901
0.0492849349976	1.31082761288	-0.131060242653	-0.0143260955811	1.62221086025	-0.405597805977
0.0513045787811	1.30934965611	-0.133895993233	-0.0145573616028	1.62332522869	-0.407842993736
0.0518612861633	1.30942308903	-0.136813521385	-0.016223192215	1.62424278259	-0.407898068428
0.0517234802246	1.31069171429	-0.139996051788	-0.0182363986969	1.62415719032	-0.405921220779
0.0488920211792	1.3102722168	-0.141514062881	-0.0192608833313	1.62262153625	-0.402735471725
0.0475397109985	1.3082921505	-0.140014648438	-0.018125295639	1.62285017967	-0.39911031723
0.0476233959198	1.3061273098	-0.136362552643	-0.00959134101868	1.62035524845	-0.394558191299
0.0465495586395	1.30207431316	-0.132962107658	-0.000607252120972	1.60324025154	-0.387089252472
0.0461554527283	1.3008313179	-0.135545611382	-0.0043933391571	1.59642589092	-0.379792809486
0.0449304580688	1.2928943634	-0.133820295334	-0.0113689899445	1.60147297382	-0.378293633461
0.0442554950714	1.28615355492	-0.12776517868	-0.0159530639648	1.60404133797	-0.380656242371
0.042927980423	1.28753948212	-0.125905156136	-0.0283257961273	1.60083186626	-0.384935617447
0.0413947105408	1.29631054401	-0.131399989128	-0.0438957214355	1.5969299078	-0.385328292847
0.0406918525696	1.30584740639	-0.136722803116	-0.0531539916992	1.59255981445	-0.383088111877
0.0399389266968	1.30959010124	-0.134627342224	-0.0551977157593	1.59578084946	-0.381971597672
0.0348620414734	1.30975449085	-0.133246421814	-0.0571522712708	1.6034630537	-0.379972457886
0.0291290283203	1.30599653721	-0.134366035461	-0.0606586933136	1.6095854044	-0.375986099243
0.0246353149414	1.30095183849	-0.144801259041	-0.0636191368103	1.6145349741	-0.369180202484
0.0116460323334	1.28825747967	-0.159507989883	-0.0668160915375	1.61588692665	-0.361401319504
-0.00235772132874	1.27866995335	-0.175129771233	-0.0701415538788	1.61542284489	-0.35353064537
-0.0129256248474	1.27309191227	-0.189879417419	-0.0725300312042	1.61556982994	-0.346554517746
-0.0160229206085	1.26791727543	-0.197009801865	-0.0731058120728	1.61684143543	-0.341165065765
-0.0148515701294	1.26198983192	-0.199820399284	-0.073399066925	1.61750125885	-0.337157726288
-0.00937271118164	1.26308274269	-0.20302438736	-0.0735144615173	1.61829423904	-0.33413541317
-0.00252509117126	1.26405417919	-0.19290459156	-0.0732502937317	1.6175173521	-0.333634018898
0.00352549552917	1.26937365532	-0.181995868683	-0.0719656944275	1.61705803871	-0.33467400074
0.00171494483948	1.27962088585	-0.177317976952	-0.0706918239594	1.61651778221	-0.337007164955
0.0012412071228	1.27793252468	-0.172244787216	-0.0702867507935	1.61650907993	-0.338724136353
-0.00271248817444	1.26345658302	-0.171068191528	-0.071225643158	1.61618709564	-0.340223789215
-0.0101013183594	1.24816596508	-0.170449018478	-0.0722999572754	1.61598145962	-0.341883659363
-0.0136141777039	1.2390525341	-0.168656349182	-0.073588848114	1.61631894112	-0.343338727951
-0.018146276474	1.23265087605	-0.164553880692	-0.0758504867554	1.61627292633	-0.344355463982
-0.0206663608551	1.24938237667	-0.164324045181	-0.0791394710541	1.61626672745	-0.343633413315
-0.0300648212433	1.27177798748	-0.174076676369	-0.0817441940308	1.61566531658	-0.342301607132
-0.0249729156494	1.27505683899	-0.168728351593	-0.0820579528809	1.61478471756	-0.340938568115
-0.0267417430878	1.27470183372	-0.165374517441	-0.0808854103088	1.61450827122	-0.339574694633
-0.0258996486664	1.26554882526	-0.158147335052	-0.0801260471344	1.61458146572	-0.3382563591
-0.0254833698273	1.26412153244	-0.157804727554	-0.0790998935699	1.61451375484	-0.336329221725
-0.0266418457031	1.2762992382	-0.165905952454	-0.0773644447327	1.6142770052	-0.334409236908
-0.0292680263519	1.29061722755	-0.175327181816	-0.0754318237305	1.61401855946	-0.333066225052
-0.0298748016357	1.28813481331	-0.170313715935	-0.0735235214233	1.61349058151	-0.332943797112
-0.0300555229187	1.26850688457	-0.154116630554	-0.0722997188568	1.61314189434	-0.334603071213
-0.0311028957367	1.25198769569	-0.144464254379	-0.0708239078522	1.61363351345	-0.336880683899
-0.0330424308777	1.2350487709	-0.137424945831	-0.0695912837982	1.61371803284	-0.338958740234
-0.0365536212921	1.22607064247	-0.133132219315	-0.0689377784729	1.61362338066	-0.338849067688
-0.0387511253357	1.24070620537	-0.144587516785	-0.0682778358459	1.61264431477	-0.337408781052
-0.0390300750732	1.25920569897	-0.155306100845	-0.067403793335	1.61182069778	-0.335882425308
-0.0391600131989	1.27549505234	-0.166663885117	-0.0671117305756	1.61128592491	-0.334599018097
-0.0372979640961	1.28597581387	-0.174764871597	-0.0670866966248	1.61114871502	-0.333725214005
-0.0403845310211	1.29295623302	-0.168628811836	-0.0667805671692	1.61074912548	-0.332681894302
-0.0449728965759	1.27503192425	-0.129660129547	-0.0661985874176	1.61029708385	-0.331910610199
-0.052099943161	1.25553834438	-0.116380691528	-0.0656685829163	1.61039483547	-0.330548763275
-0.0569622516632	1.25115776062	-0.119134426117	-0.0666422843933	1.60997092724	-0.328285813332
-0.0614614486694	1.23741793633	-0.119139671326	-0.0688366889954	1.60896706581	-0.325687408447
-0.0599527359009	1.20977556705	-0.110889911652	-0.0698058605194	1.60796272755	-0.323729038239
-0.0548477172852	1.17360436916	-0.103167057037	-0.070271730423	1.60680627823	-0.321733355522
-0.0558817386627	1.16743266582	-0.107212662697	-0.0702764987946	1.60484969616	-0.319413661957
-0.0572090148926	1.18486630917	-0.105467557907	-0.0695793628693	1.6023298502	-0.319049358368
-0.0491533279419	1.2038820982	-0.0959681272507	-0.0690202713013	1.60100388527	-0.319771289825
-0.0438051223755	1.21419548988	-0.0939252376556	-0.0710740089417	1.60337150097	-0.320318698883
-0.0446436405182	1.2095259428	-0.0947003364563	-0.0742301940918	1.60785663128	-0.320378303528
-0.0473077297211	1.20343518257	-0.0940985679626	-0.0775489807129	1.62458860874	-0.322757720947
-0.0496282577515	1.20143926144	-0.0911931991577	-0.0814166069031	1.62768828869	-0.329925298691
-0.04962849617	1.20436930656	-0.0877335071564	-0.0860452651978	1.61724889278	-0.330959558487
-0.0484774112701	1.21272003651	-0.0880215167999	-0.0931007862091	1.62698566914	-0.332741737366
-0.0506830215454	1.20581364632	-0.0867500305176	-0.0919678211212	1.64216220379	-0.344415903091
-0.0535080432892	1.20155549049	-0.0859122276306	-0.0866198539734	1.64456045628	-0.350769042969
-0.0574412345886	1.20130765438	-0.0853862762451	-0.0845532417297	1.64494025707	-0.353595256805
-0.0595624446869	1.19881057739	-0.0807089805603	-0.0837118625641	1.6447147131	-0.355996727943
-0.0652258396149	1.1840069294	-0.0728576183319	-0.0833268165588	1.64102876186	-0.351919293404
-0.066458940506	1.17447721958	-0.0653111934662	-0.0809154510498	1.63979887962	-0.344021558762
-0.0662126541138	1.1795617342	-0.065281867981	-0.0787706375122	1.63930881023	-0.336175918579
-0.065922498703	1.18276321888	-0.0652791261673	-0.0755522251129	1.64109170437	-0.332266569138
-0.064338684082	1.17899370193	-0.0637512207031	-0.0760695934296	1.64204919338	-0.334389805794
-0.0629296302795	1.18372964859	-0.0644011497498	-0.0776376724243	1.6405851841	-0.338709115982
-0.0615420341492	1.1964687109	-0.0668305158615	-0.0770962238312	1.6387141943	-0.34257876873
-0.0591928958893	1.20504200459	-0.070901632309	-0.0798921585083	1.63891851902	-0.346920490265
-0.0570135116577	1.20491683483	-0.0741822719574	-0.0831739902496	1.64113426208	-0.350481033325
-0.0572366714478	1.19748222828	-0.0747735500336	-0.0803689956665	1.64104866982	-0.35192656517
-0.0589716434479	1.19743251801	-0.0778527259827	-0.0762894153595	1.63752901554	-0.3489818573
-0.059317111969	1.20406329632	-0.0809155702591	-0.0776314735413	1.6336067915	-0.343419194221
-0.0580904483795	1.19655489922	-0.0732721090317	-0.0797076225281	1.63259243965	-0.340560793877
-0.0539300441742	1.18375718594	-0.0573561191559	-0.0790719985962	1.63295984268	-0.338913202286
-0.0481128692627	1.19746077061	-0.0532970428467	-0.0771088600159	1.63276815414	-0.336006164551
-0.0437912940979	1.22369921207	-0.058464050293	-0.0767667293549	1.63216018677	-0.333446264267
-0.034679889679	1.23634326458	-0.0561066865921	-0.0770673751831	1.63193535805	-0.332987546921
-0.0215826034546	1.24096977711	-0.0455117225647	-0.0760183334351	1.63262212276	-0.334243178368
0.00378465652466	1.25906026363	-0.035916686058	-0.0722453594208	1.6337569952	-0.335655093193
0.0393085479736	1.28591859341	-0.0360589027405	-0.0680892467499	1.63424694538	-0.335460186005
0.0553064346313	1.29678595066	-0.0402325391769	-0.0665774345398	1.63392817974	-0.33487701416
0.0564680099487	1.27099192142	-0.0287852287292	-0.0673077106476	1.63354301453	-0.335408806801
0.0573844909668	1.25266671181	-0.0292794704437	-0.0680403709412	1.63456475735	-0.337375640869
0.0520188808441	1.2729216814	-0.0471775531769	-0.0689926147461	1.63658797741	-0.339862585068
0.0517456531525	1.29450488091	-0.0602198839188	-0.0698547363281	1.638479352	-0.342906475067
0.0572667121887	1.29569041729	-0.0546431541443	-0.0689713954926	1.64104890823	-0.346877455711
0.0558576583862	1.28277945518	-0.046177148819	-0.0701279640198	1.64360165596	-0.352313399315
0.0429100990295	1.26757621765	-0.0460538864136	-0.0745623111725	1.6448122263	-0.35852098465
0.028929233551	1.26153409481	-0.0499249696732	-0.0760171413422	1.64282429218	-0.363613009453
0.0261447429657	1.26290428638	-0.0503188371658	-0.0807225704193	1.64262378216	-0.369704604149
0.0450103282928	1.25772154331	-0.0409960746765	-0.0853395462036	1.64493131638	-0.376895189285
0.0454602241516	1.25069129467	-0.0364048480988	-0.0883479118347	1.6475713253	-0.38238966465
0.0338389873505	1.25237512589	-0.0458145141602	-0.0904140472412	1.64766085148	-0.384060144424
0.0326762199402	1.24319636822	-0.0490469932556	-0.0936069488525	1.64656615257	-0.383702993393
0.0343952178955	1.22614586353	-0.0454918146133	-0.0945415496826	1.64279735088	-0.382460832596
0.0207560062408	1.22645819187	-0.051265001297	-0.0967383384705	1.638235569	-0.380233287811
-0.00959706306458	1.23253083229	-0.0645153522491	-0.102673053741	1.63376879692	-0.378346204758
-0.0201210975647	1.23010921478	-0.0680565834045	-0.107069015503	1.63014030457	-0.375912189484
-0.0250790119171	1.22247457504	-0.0626419782639	-0.106401443481	1.63052332401	-0.373354554176
-0.0328266620636	1.21303129196	-0.0581936836243	-0.105529069901	1.63232707977	-0.372976541519
-0.0406112670898	1.19874560833	-0.0554307699203	-0.103998184204	1.63453888893	-0.374626636505
-0.0413019657135	1.17782402039	-0.0481297969818	-0.0975866317749	1.63662922382	-0.378269672394
-0.0276384353638	1.15457546711	-0.0376281738281	-0.090794801712	1.63633918762	-0.382961034775
-0.0227870941162	1.16021728516	-0.044050693512	-0.0858116149902	1.63521802425	-0.387445688248
-0.0201642513275	1.18053984642	-0.0614926815033	-0.082811832428	1.63382863998	-0.391322612762
-0.0339436531067	1.1933991909	-0.0879969596863	-0.0841324329376	1.63260293007	-0.394405603409
-0.0455400943756	1.19996333122	-0.108857512474	-0.0869164466858	1.62992227077	-0.395074605942
-0.0576431751251	1.20707380772	-0.128080368042	-0.0910673141479	1.62957000732	-0.392426133156
-0.0671784877777	1.2004724741	-0.136723399162	-0.0959091186523	1.62878465652	-0.390217781067
-0.0708229541779	1.18185901642	-0.133849382401	-0.0972974300385	1.62833404541	-0.387994885445
-0.0716366767883	1.18011319637	-0.13259601593	-0.0973391532898	1.62817871571	-0.38442492485
-0.0667140483856	1.19011378288	-0.129729390144	-0.0978243350983	1.6281734705	-0.380159378052
-0.0589473247528	1.20557355881	-0.126059055328	-0.0984997749329	1.62728333473	-0.375996947289
-0.0548532009125	1.21907126904	-0.120990633965	-0.097836971283	1.62726068497	-0.372642278671
-0.0578374862671	1.21621227264	-0.112087011337	-0.0980768203735	1.6280412674	-0.370639562607
-0.0620334148407	1.20157670975	-0.0996621847153	-0.098023891449	1.62880623341	-0.369687438011
-0.0653944015503	1.20955717564	-0.0937628746033	-0.0955719947815	1.62988960743	-0.370091676712
-0.0660326480865	1.23664450645	-0.0961422920227	-0.0921437740326	1.63068246841	-0.372293233871
-0.062331199646	1.25973796844	-0.10170173645	-0.0885968208313	1.63262820244	-0.379244565964
-0.0583205223083	1.27217113972	-0.107761502266	-0.0821087360382	1.63413894176	-0.393419981003
-0.0564761161804	1.28235948086	-0.117347836494	-0.075642824173	1.62919652462	-0.410967588425
-0.0551836490631	1.29556703568	-0.133264303207	-0.0723557472229	1.62074387074	-0.427612304688
-0.0526056289673	1.3053920269	-0.147231459618	-0.0718350410461	1.6113948822	-0.442018508911
-0.0503878593445	1.31185030937	-0.159039497375	-0.0720829963684	1.60497772694	-0.452370882034
-0.049633026123	1.31095552444	-0.165726184845	-0.071793794632	1.60359549522	-0.456902742386
-0.0442316532135	1.30210769176	-0.165641188622	-0.07160115242	1.60557222366	-0.452380895615
-0.0387496948242	1.2829092741	-0.161165714264	-0.0718061923981	1.60704505444	-0.439599752426
-0.0381453037262	1.26558566093	-0.159216046333	-0.0754547119141	1.60690796375	-0.417754650116
-0.0375533103943	1.25350368023	-0.156940937042	-0.0837931632996	1.60358178616	-0.39126086235
-0.037918806076	1.23940098286	-0.148005247116	-0.090389251709	1.60492539406	-0.369700551033
-0.0417284965515	1.22993075848	-0.137173652649	-0.0960590839386	1.60678207874	-0.355127811432
-0.0495667457581	1.2294754982	-0.126822590828	-0.101380348206	1.60757672787	-0.344925880432
-0.0560932159424	1.2316120863	-0.114688158035	-0.104762792587	1.60750555992	-0.336966395378
-0.0599434375763	1.23794400692	-0.10081410408	-0.106514692307	1.60723400116	-0.330745220184
-0.0650768280029	1.24856638908	-0.0885313749313	-0.105633020401	1.6087744236	-0.324889183044
-0.0687539577484	1.25668478012	-0.078670501709	-0.102609157562	1.60922324657	-0.323472976685
-0.069197177887	1.26291847229	-0.0714536905289	-0.0991125106812	1.60937774181	-0.326922416687
-0.0680329799652	1.28110957146	-0.0687053203583	-0.0939753055573	1.60683381557	-0.336506009102
-0.0626864433289	1.30404472351	-0.0725185871124	-0.0887632369995	1.60484600067	-0.34568810463
-0.0554397106171	1.30560791492	-0.0716731548309	-0.0844175815582	1.60312724113	-0.350790262222
-0.0482323169708	1.29505312443	-0.0711834430695	-0.0802488327026	1.60339045525	-0.35327911377
-0.0419545173645	1.28778028488	-0.0751688480377	-0.0760931968689	1.60562562943	-0.353754281998
-0.0365402698517	1.28395140171	-0.080371260643	-0.0724761486053	1.60684859753	-0.35256254673
-0.030266046524	1.2772012949	-0.0824971199036	-0.069109916687	1.60946786404	-0.349857568741
-0.0271799564362	1.26837301254	-0.0839293003082	-0.0669729709625	1.61038649082	-0.348487615585
-0.0270161628723	1.26587748528	-0.0882103443146	-0.0667729377747	1.60994315147	-0.349779129028
-0.0293958187103	1.26668703556	-0.0916457176208	-0.068187713623	1.60952353477	-0.353494644165
-0.0307409763336	1.26920568943	-0.0936217308044	-0.0696592330933	1.61018872261	-0.357828617096
-0.0305347442627	1.27216053009	-0.0944278240204	-0.0697546005249	1.61134707928	-0.360955715179
-0.0290718078613	1.27608263493	-0.0950039625168	-0.0689868927002	1.61256837845	-0.36255133152
-0.0268549919128	1.28060662746	-0.0952179431915	-0.0684938430786	1.61462950706	-0.363073587418
-0.0248866081238	1.28481054306	-0.0964775085449	-0.0679104328156	1.6159580946	-0.364347457886
-0.0257821083069	1.28543996811	-0.0971760749817	-0.0677287578583	1.61652088165	-0.367206573486
-0.026704788208	1.28588294983	-0.0981414318085	-0.0673303604126	1.61678767204	-0.370973110199
-0.026754617691	1.28715753555	-0.10303401947	-0.0671184062958	1.61708557606	-0.373508453369
-0.0268683433533	1.28499078751	-0.113026380539	-0.0686056613922	1.61658811569	-0.374901533127
-0.0254147052765	1.28373885155	-0.132715940475	-0.0711669921875	1.61648964882	-0.375736713409
-0.0213572978973	1.28769099712	-0.154376268387	-0.0721838474274	1.61727583408	-0.376569509506
-0.0153939723969	1.28818798065	-0.165465712547	-0.071905374527	1.61824607849	-0.377415418625
-0.0103754997253	1.2855681181	-0.173003673553	-0.0720751285553	1.61919760704	-0.37776184082
-0.00766491889954	1.28407275677	-0.184724211693	-0.0736923217773	1.61775362492	-0.376263141632
-0.00765538215637	1.28502082825	-0.194067239761	-0.0758566856384	1.61602628231	-0.375658750534
-0.00993657112122	1.28520739079	-0.195756196976	-0.0785202980042	1.61568188667	-0.377188444138
-0.0115432739258	1.28718578815	-0.194140434265	-0.0842907428741	1.61639738083	-0.377023100853
-0.0113170146942	1.28616416454	-0.19081223011	-0.0900454521179	1.61200642586	-0.373228311539
-0.010397195816	1.28792095184	-0.189936637878	-0.0958063602448	1.60409986973	-0.366508841515
-0.00777626037598	1.2912517786	-0.189427614212	-0.103766679764	1.60925829411	-0.359161496162
-0.00482559204102	1.28844559193	-0.183022975922	-0.104920387268	1.6235768795	-0.353297114372
-0.00491213798523	1.27496612072	-0.170569896698	-0.097886800766	1.64213073254	-0.350850820541
-0.00603985786438	1.2506557703	-0.152035474777	-0.0837090015411	1.65567243099	-0.355394244194
-0.0077645778656	1.22811067104	-0.134327411652	-0.0671229362488	1.65676426888	-0.360756635666
-0.0088996887207	1.22950613499	-0.127989292145	-0.0639657974243	1.64628350735	-0.362168312073
-0.00660014152527	1.2433501482	-0.127316236496	-0.0746173858643	1.63546001911	-0.363297700882
-0.00450086593628	1.25382173061	-0.128655910492	-0.0768687725067	1.63080251217	-0.365183830261
-0.00319862365723	1.25607168674	-0.128677845001	-0.0719454288483	1.62797510624	-0.368791103363
-0.00113916397095	1.25650238991	-0.128860354424	-0.0659399032593	1.6297929287	-0.376570343971
0.000978469848633	1.26140546799	-0.131420135498	-0.0595223903656	1.63105595112	-0.386243104935
0.00453782081604	1.27030301094	-0.136421442032	-0.0532598495483	1.63282632828	-0.392810344696
0.0112862586975	1.27154576778	-0.139958024025	-0.0460026264191	1.63536632061	-0.397789955139
0.0191774368286	1.26623737812	-0.141988754272	-0.0394771099091	1.63669133186	-0.403007030487
0.0250318050385	1.26469862461	-0.145723223686	-0.0366699695587	1.63621413708	-0.409383296967
0.0254051685333	1.27000749111	-0.152488231659	-0.0362601280212	1.6367559433	-0.41651570797
0.0220408439636	1.27657747269	-0.160227298737	-0.0378789901733	1.63808202744	-0.420863389969
0.0158805847168	1.27866256237	-0.169326424599	-0.0400974750519	1.63619959354	-0.41913330555
0.00819444656372	1.27863883972	-0.179749131203	-0.041659116745	1.63342738152	-0.413944005966
0.00553441047668	1.28720331192	-0.192680597305	-0.0419812202454	1.63189852238	-0.40623664856
0.0154194831848	1.29705822468	-0.198137521744	-0.0410749912262	1.62842130661	-0.397232174873
0.0244724750519	1.29002606869	-0.189015388489	-0.0406737327576	1.62454473972	-0.387227773666
0.0259757041931	1.28345620632	-0.183932304382	-0.0426347255707	1.62490153313	-0.37859416008
0.0209732055664	1.27917635441	-0.182977318764	-0.0470831394196	1.62571930885	-0.372599363327
0.019996881485	1.27822077274	-0.181564450264	-0.0561702251434	1.62738585472	-0.36698281765
0.0266287326813	1.27781665325	-0.177531719208	-0.0732562541962	1.62648928165	-0.362041711807
0.0297873020172	1.2801887989	-0.177911043167	-0.0911481380463	1.62203717232	-0.355015516281
0.0284230709076	1.28199398518	-0.183552742004	-0.108860492706	1.61754012108	-0.347139596939
0.0282711982727	1.27741360664	-0.185528635979	-0.123401641846	1.61840343475	-0.34287071228
0.0284006595612	1.27206635475	-0.182233095169	-0.131658554077	1.62488126755	-0.34223139286
0.0212707519531	1.26919829845	-0.178415298462	-0.137485265732	1.63243699074	-0.344190835953
0.00727558135986	1.26784777641	-0.177572846413	-0.14381146431	1.6356356144	-0.346586942673
-0.00600862503052	1.26851165295	-0.178905725479	-0.149490118027	1.6359398365	-0.348733067513
-0.0123679637909	1.2653824091	-0.178148984909	-0.153228282928	1.63381719589	-0.350523233414
-0.0194268226624	1.25932240486	-0.175713181496	-0.156228065491	1.62876558304	-0.350483894348
-0.0316829681396	1.27384388447	-0.177863359451	-0.159067630768	1.62607860565	-0.351480484009
-0.037563085556	1.29130148888	-0.180186510086	-0.160115718842	1.6286919117	-0.355024814606
-0.0383887290955	1.29583752155	-0.176525473595	-0.161484718323	1.63129389286	-0.359597802162
-0.0409457683563	1.29362940788	-0.172938346863	-0.163442134857	1.63349425793	-0.364044189453
-0.0422377586365	1.28200399876	-0.165794730186	-0.163459777832	1.63485729694	-0.369997262955
-0.0339517593384	1.26859235764	-0.155100226402	-0.162498235703	1.636277318	-0.376255750656
-0.0195291042328	1.26624679565	-0.149786114693	-0.161634922028	1.63811409473	-0.381383895874
-0.0019154548645	1.28001594543	-0.152837276459	-0.16008234024	1.63983309269	-0.384600639343
0.0100297927856	1.29850065708	-0.162832975388	-0.158970355988	1.64177405834	-0.386215925217
0.00693225860596	1.31304585934	-0.176340103149	-0.160004138947	1.64302396774	-0.387181520462
-0.0111935138702	1.31530106068	-0.185173749924	-0.16418337822	1.6422188282	-0.388391017914
-0.0224583148956	1.31041693687	-0.182746887207	-0.1674284935	1.64284360409	-0.391442418098
-0.0248425006866	1.30658054352	-0.1767796278	-0.167647600174	1.64624214172	-0.395904660225
-0.0226018428802	1.29512274265	-0.170071959496	-0.166806221008	1.65032219887	-0.401086688042
-0.021247625351	1.27323102951	-0.165622711182	-0.16469335556	1.65333783627	-0.407678842545
-0.0275413990021	1.26361382008	-0.172744750977	-0.161398887634	1.65330755711	-0.414118051529
-0.0295779705048	1.29450273514	-0.191683530807	-0.15789937973	1.65034019947	-0.41800236702
-0.0285782814026	1.33331215382	-0.21564078331	-0.153923034668	1.64966547489	-0.420696735382
-0.0264978408813	1.34936475754	-0.228960037231	-0.147212982178	1.65549445152	-0.4269926548
-0.0278334617615	1.34296452999	-0.224431276321	-0.13098859787	1.66290521622	-0.437941789627
-0.0299212932587	1.33586275578	-0.219903469086	-0.112241506577	1.66620397568	-0.449504494667
-0.02916431427	1.33547830582	-0.223387360573	-0.100390672684	1.66111040115	-0.454560875893
-0.0232520103455	1.33545458317	-0.226681351662	-0.0896139144897	1.65116965771	-0.450888872147
-0.0114057064056	1.32884299755	-0.223376274109	-0.0853996276855	1.64167106152	-0.441455841064
-0.00154495239258	1.32101774216	-0.220486402512	-0.087554693222	1.63174009323	-0.427240133286
0.0042290687561	1.31656265259	-0.216552019119	-0.090567111969	1.62472844124	-0.411486625671
0.00248527526855	1.31273984909	-0.208518981934	-0.0894939899445	1.62534427643	-0.39978313446
-0.00268173217773	1.31461012363	-0.200638175011	-0.0877912044525	1.62665224075	-0.388134241104
-0.0126588344574	1.31901741028	-0.194933652878	-0.0867681503296	1.62628316879	-0.377068996429
-0.0226013660431	1.32524168491	-0.194998979568	-0.0868918895721	1.62609386444	-0.367575526237
-0.029659986496	1.32879972458	-0.194247841835	-0.0840954780579	1.62573778629	-0.35880947113
-0.0298838615417	1.32753634453	-0.189210414886	-0.0891833305359	1.62625348568	-0.34828209877
-0.0226330757141	1.32429289818	-0.184613227844	-0.0997972488403	1.62988722324	-0.338407516479
-0.0154321193695	1.31486308575	-0.17545747757	-0.10897564888	1.63322162628	-0.332051992416
-0.0133986473083	1.30783426762	-0.165795564651	-0.113970518112	1.63746094704	-0.328962802887
-0.0196173191071	1.30722594261	-0.160753488541	-0.11777639389	1.64208030701	-0.330104351044
-0.0256354808807	1.3127925396	-0.159333944321	-0.125352621078	1.64341509342	-0.332215070724
-0.0275092124939	1.32183456421	-0.156098246574	-0.135948896408	1.64219641685	-0.332980513573
-0.0292773246765	1.33203864098	-0.15140581131	-0.146707057953	1.64012932777	-0.334734678268
-0.0361518859863	1.34868383408	-0.147437572479	-0.156353712082	1.63875186443	-0.337782382965
-0.0426249504089	1.36525297165	-0.140843391418	-0.16477894783	1.63808000088	-0.343654990196
-0.033435344696	1.37530052662	-0.11231315136	-0.171839237213	1.63848638535	-0.352651596069
-0.0103673934937	1.4168432951	-0.0722126960754	-0.176856517792	1.6374078989	-0.363065719604
-0.0102677345276	1.46651899815	-0.055718421936	-0.180609703064	1.63786065578	-0.371849060059
-0.0113303661346	1.49861884117	-0.0413936376572	-0.18415594101	1.63805139065	-0.379985570908
-0.00326681137085	1.52127337456	-0.0233418941498	-0.187059640884	1.63743245602	-0.387684464455
0.00172519683838	1.56211400032	-0.00794744491577	-0.188119888306	1.63685572147	-0.393404960632
-0.00471496582031	1.61313891411	-0.00468826293945	-0.188090801239	1.63617563248	-0.396399259567
-0.0197248458862	1.64527642727	-0.00800609588623	-0.188351154327	1.63499200344	-0.397065401077
-0.0320789813995	1.66040289402	-0.0182843208313	-0.189550638199	1.63372409344	-0.396800756454
-0.0456526279449	1.66961681843	-0.0300624370575	-0.18988609314	1.63177752495	-0.396131277084
-0.0473158359528	1.68923175335	-0.0365629196167	-0.189078092575	1.63089847565	-0.39449942112
-0.0447535514832	1.71038067341	-0.0387854576111	-0.187811374664	1.63044071198	-0.391998291016
-0.0448091030121	1.72355425358	-0.0398480892181	-0.186410665512	1.6284558773	-0.387477397919
-0.0489673614502	1.72206366062	-0.0387241840363	-0.18438577652	1.62508606911	-0.383659124374
-0.0570526123047	1.71239626408	-0.0373299121857	-0.181720256805	1.62226176262	-0.380170106888
-0.0600891113281	1.71402728558	-0.0388028621674	-0.17907500267	1.62075233459	-0.376009464264
-0.0599942207336	1.72816753387	-0.0425236225128	-0.17616558075	1.62057888508	-0.370886206627
-0.0605292320251	1.73496615887	-0.0431034564972	-0.173301458359	1.61924004555	-0.365245819092
-0.0643649101257	1.71786463261	-0.0299277305603	-0.170034170151	1.61319613457	-0.358011722565
-0.066666841507	1.6705737114	0.00565695762634	-0.166183233261	1.60407614708	-0.348221302032
-0.071799993515	1.57926607132	0.044506072998	-0.162800073624	1.59809267521	-0.33794426918
-0.064590215683	1.49207484722	0.0599410533905	-0.160206794739	1.59844076633	-0.327488183975
-0.0532968044281	1.45328330994	0.0672010183334	-0.157230615616	1.60287487507	-0.318955421448
-0.0387773513794	1.41587471962	0.078390955925	-0.151548147202	1.6072050333	-0.314233779907
-0.0220587253571	1.34515666962	0.0700449943542	-0.146254301071	1.60972380638	-0.312627792358
-0.0265464782715	1.28056418896	0.0301630496979	-0.143518209457	1.61082983017	-0.311902523041
-0.0648584365845	1.25039291382	-0.0466130971909	-0.139295101166	1.61144685745	-0.311429977417
-0.0926332473755	1.24944925308	-0.103016138077	-0.13263297081	1.61139178276	-0.30988740921
-0.104374408722	1.2553716898	-0.114542007446	-0.126265048981	1.61029267311	-0.308337330818
-0.102583646774	1.24353682995	-0.109772920609	-0.121862411499	1.61145067215	-0.306171298027
-0.103209733963	1.22218561172	-0.113216400146	-0.118988990784	1.6151843071	-0.302151679993
-0.0956289768219	1.19276332855	-0.102744698524	-0.112607955933	1.61739063263	-0.299064993858
-0.0808794498444	1.18663573265	-0.0878553390503	-0.103640794754	1.61919629574	-0.29927945137
-0.060320854187	1.19826757908	-0.0722856521606	-0.0949878692627	1.62154746056	-0.302371501923
-0.039858341217	1.21396672726	-0.0641590356827	-0.0882964134216	1.62463891506	-0.304912447929
-0.0278029441833	1.22785997391	-0.0676913261414	-0.0833058357239	1.62832939625	-0.305848836899
-0.0277237892151	1.22275269032	-0.0700572729111	-0.0792274475098	1.63286745548	-0.306120634079
-0.0276985168457	1.21027767658	-0.0682706832886	-0.0755231380463	1.63686943054	-0.30800640583
-0.0209021568298	1.21500432491	-0.0710661411285	-0.0698249340057	1.63947141171	-0.310720205307
-0.00819444656372	1.20647132397	-0.0638613700867	-0.0635900497437	1.6406750679	-0.314914822578
0.00665616989136	1.19678604603	-0.0467865467072	-0.0571510791779	1.64183759689	-0.322692155838
0.00267505645752	1.21822977066	-0.0393183231354	-0.051114320755	1.64077234268	-0.329403400421
-0.00543475151062	1.26486635208	-0.0518748760223	-0.0469741821289	1.63640785217	-0.333327770233
-0.0245928764343	1.28849864006	-0.0719518661499	-0.046019077301	1.63110554218	-0.334630012512
-0.0482387542725	1.26141917706	-0.0877805948257	-0.0468907356262	1.62791228294	-0.334279894829
-0.0644438266754	1.2181866169	-0.0930697917938	-0.0483484268188	1.62830555439	-0.334398627281
-0.0715720653534	1.20511698723	-0.0895857810974	-0.0474376678467	1.62992405891	-0.334988594055
-0.0547318458557	1.17341434956	-0.0550291538239	-0.0460779666901	1.6298725605	-0.336430549622
-0.0406172275543	1.2020804882	-0.0510236024857	-0.045154094696	1.63045883179	-0.337230205536
-0.0241811275482	1.23291862011	-0.050115942955	-0.0443699359894	1.63047003746	-0.339427947998
0.0169696807861	1.20815467834	-0.0213474035263	-0.0441191196442	1.63049948215	-0.343366622925
0.000362396240234	1.23553335667	-0.0417963266373	-0.0431616306305	1.63315498829	-0.346972465515
-0.0248885154724	1.25432217121	-0.0629041194916	-0.0414707660675	1.63496732712	-0.350273966789
-0.0205137729645	1.2233594656	-0.044764995575	-0.040501832962	1.63585305214	-0.353556871414
-0.0330636501312	1.23193252087	-0.059743642807	-0.0403718948364	1.6372948885	-0.354763507843
-0.0410692691803	1.23383796215	-0.0661096572876	-0.0419969558716	1.63713133335	-0.355869889259
-0.0332078933716	1.22872900963	-0.0593186616898	-0.043751001358	1.63832032681	-0.357273101807
-0.0431387424469	1.26287126541	-0.0783514976501	-0.0446839332581	1.6411575079	-0.356427192688
-0.051655292511	1.25871825218	-0.0765380859375	-0.0442690849304	1.63883888721	-0.354659199715
-0.0505180358887	1.22421014309	-0.0613117218018	-0.0431823730469	1.63687038422	-0.351498126984
-0.0539689064026	1.23657977581	-0.075003862381	-0.0430288314819	1.63418006897	-0.345372915268
-0.0569636821747	1.25826048851	-0.0843570232391	-0.0465295314789	1.62438428402	-0.340000867844
-0.0633640289307	1.27105045319	-0.0887935161591	-0.0639312267303	1.61407053471	-0.336525797844
-0.0610380172729	1.26303637028	-0.0879557132721	-0.0824437141418	1.61579799652	-0.334434509277
-0.0542004108429	1.25791347027	-0.0851452350616	-0.0877373218536	1.61983513832	-0.333367109299
-0.0490808486938	1.25876235962	-0.0833325386047	-0.0878307819366	1.62285077572	-0.331156730652
-0.0498325824738	1.24590754509	-0.0791437625885	-0.0877711772919	1.62750089169	-0.329896211624
-0.0449831485748	1.22476840019	-0.0732492208481	-0.0864481925964	1.63817226887	-0.332455277443
-0.0358679294586	1.21890079975	-0.0701394081116	-0.0818490982056	1.65198409557	-0.341137647629
-0.0408771038055	1.22342431545	-0.0709617137909	-0.079261302948	1.66242587566	-0.355667591095
-0.0515913963318	1.21606874466	-0.0668849945068	-0.0861773490906	1.66417741776	-0.374531030655
-0.0634953975677	1.22729337215	-0.0682673454285	-0.0901761054993	1.66133379936	-0.392074465752
-0.0742282867432	1.26099252701	-0.0815670490265	-0.0874893665314	1.66120111942	-0.407651662827
-0.0686795711517	1.28663706779	-0.0984210968018	-0.0875091552734	1.66123270988	-0.413948178291
-0.056834936142	1.29122936726	-0.106294870377	-0.0821070671082	1.66224956512	-0.413226366043
-0.0586402416229	1.27390360832	-0.105501532555	-0.0753972530365	1.66097378731	-0.408434152603
-0.0637943744659	1.2580384016	-0.108485460281	-0.0762193202972	1.65380096436	-0.402815818787
-0.0694892406464	1.24353682995	-0.105921149254	-0.087131023407	1.64630055428	-0.401474475861
-0.0700783729553	1.24285900593	-0.106786251068	-0.10022187233	1.65025424957	-0.40908741951
-0.0757372379303	1.24921953678	-0.110864639282	-0.10054063797	1.65712702274	-0.420196056366
-0.0877950191498	1.24636781216	-0.112542867661	-0.0793838500977	1.65058457851	-0.416798591614
-0.0929932594299	1.24811589718	-0.117842912674	-0.0626459121704	1.63709390163	-0.414845705032
-0.0883958339691	1.2488052845	-0.118430733681	-0.064864397049	1.63523209095	-0.414930820465
-0.07914686203	1.24388897419	-0.116284012794	-0.102254390717	1.63479924202	-0.413548231125
-0.0752310752869	1.23599767685	-0.114752411842	-0.116554021835	1.6325750351	-0.410054326057
-0.0768594741821	1.2326066494	-0.111520051956	-0.0823893547058	1.64184975624	-0.405555963516
-0.0704770088196	1.23070335388	-0.107657194138	-0.0849456787109	1.64407479763	-0.403696060181
-0.0608580112457	1.22124087811	-0.102095603943	-0.109607219696	1.64066076279	-0.393668651581
-0.0572748184204	1.21426808834	-0.0981488227844	-0.122525215149	1.63443219662	-0.375949621201
-0.0554709434509	1.2122836113	-0.09392786026	-0.121707201004	1.63427984715	-0.357534527779
-0.058628320694	1.20006978512	-0.0802791118622	-0.120614051819	1.64117217064	-0.348715901375
-0.0656633377075	1.19056212902	-0.0659536123276	-0.120718002319	1.64107334614	-0.343521595001
-0.0639522075653	1.19855642319	-0.0574691295624	-0.121242761612	1.64339625835	-0.343456625938
-0.0623757839203	1.22327613831	-0.0542073249817	-0.116579771042	1.64779114723	-0.350843191147
-0.0605521202087	1.248067379	-0.0550146102905	-0.107709407806	1.65311789513	-0.362453937531
-0.058944940567	1.26078867912	-0.056906580925	-0.100006580353	1.65470898151	-0.375294446945
-0.0565505027771	1.26373374462	-0.0570552349091	-0.0954539775848	1.65163397789	-0.384735584259
-0.0526392459869	1.26459395885	-0.0571162700653	-0.089958190918	1.6485401392	-0.393007397652
-0.0476412773132	1.2660548687	-0.0564920902252	-0.081925868988	1.64772593975	-0.405163526535
-0.0438680648804	1.27070093155	-0.0589382648468	-0.069828748703	1.64660763741	-0.419511318207
-0.0388021469116	1.27469313145	-0.0660715103149	-0.0604004859924	1.64362835884	-0.430189609528
-0.029666185379	1.27365744114	-0.0747337341309	-0.0524842739105	1.64128649235	-0.435854077339
-0.0246338844299	1.2696107626	-0.0818470716476	-0.0468657016754	1.64025402069	-0.440215826035
-0.0225689411163	1.26496827602	-0.0886387825012	-0.0447099208832	1.64039003849	-0.445132017136
-0.0226516723633	1.2633408308	-0.0951833724976	-0.0445709228516	1.64058887959	-0.450878500938
-0.0244858264923	1.26588094234	-0.103370189667	-0.0462229251862	1.6394572258	-0.455468893051
-0.0248537063599	1.27043318748	-0.115173578262	-0.0474321842194	1.63747227192	-0.458544015884
-0.023289680481	1.27583813667	-0.130387544632	-0.0469648838043	1.6358268261	-0.460064649582
-0.0212795734406	1.28365826607	-0.143131971359	-0.0461025238037	1.63539242744	-0.45916557312
-0.0214715003967	1.31526529789	-0.177840471268	-0.0456526279449	1.63569653034	-0.455851435661
-0.0191366672516	1.33375167847	-0.200377821922	-0.0455429553986	1.63485372066	-0.450377225876
-0.0140624046326	1.31679856777	-0.179276704788	-0.0453116893768	1.63353013992	-0.443280220032
-0.00585722923279	1.29743766785	-0.159824132919	-0.0428528785706	1.632858634	-0.432560682297
0.000415086746216	1.29295110703	-0.153368353844	-0.0371975898743	1.63381278515	-0.416563391685
0.0105373859406	1.28471124172	-0.139397144318	-0.0282397270203	1.63344573975	-0.395674228668
0.0220422744751	1.27235651016	-0.121155261993	-0.0129346847534	1.63144993782	-0.369410514832
0.0328946113586	1.26129305363	-0.104754447937	0.00876379013062	1.62797629833	-0.340955257416
0.0420305728912	1.24901545048	-0.0900115966797	0.0306136608124	1.62700772285	-0.313663482666
0.0486702919006	1.23883199692	-0.0764126777649	0.0442872047424	1.62737154961	-0.289623975754
0.0468971729279	1.23126161098	-0.0682530403137	0.0472497940063	1.62327504158	-0.272005319595
0.0408570766449	1.22760248184	-0.0647349357605	0.0410923957825	1.62162554264	-0.266281843185
0.0356531143188	1.23391401768	-0.0647261142731	0.0305805206299	1.62327134609	-0.270137071609
0.0304338932037	1.24462795258	-0.0658669471741	0.0182359218597	1.62591421604	-0.278501272202
0.0270173549652	1.25502562523	-0.0712902545929	0.00264549255371	1.62729740143	-0.288418531418
0.0256252288818	1.26332652569	-0.0769519805908	-0.0129864215851	1.62518727779	-0.300301790237
0.0217792987823	1.28431808949	-0.0878430604935	-0.0265915393829	1.62564361095	-0.318379759789
0.00696587562561	1.3216946125	-0.122679114342	-0.0399026870728	1.6272380352	-0.336922764778
-0.00362801551819	1.33138930798	-0.145619630814	-0.0512800216675	1.62472784519	-0.353582382202
-0.0109386444092	1.31238818169	-0.123873949051	-0.0587193965912	1.62154912949	-0.364666223526
-0.0115945339203	1.32904088497	-0.143251180649	-0.064501285553	1.62190663815	-0.370054721832
-0.0132806301117	1.34136199951	-0.157913684845	-0.0692689418793	1.62478876114	-0.372092723846
-0.0165634155273	1.32723939419	-0.14955496788	-0.0734658241272	1.62665772438	-0.371124863625
-0.0252590179443	1.31659579277	-0.144665241241	-0.07643699646	1.62795364857	-0.36912560463
-0.034346818924	1.31449055672	-0.149454951286	-0.0793974399567	1.62699508667	-0.367689847946
-0.0379939079285	1.30886399746	-0.150114297867	-0.0820846557617	1.62482094765	-0.366734981537
-0.0403366088867	1.30648159981	-0.150926470757	-0.0819499492645	1.62400531769	-0.367821216583
-0.0413517951965	1.30463528633	-0.151606082916	-0.0813450813293	1.62230360508	-0.369628787041
-0.0432393550873	1.30218923092	-0.151516318321	-0.0772776603699	1.61791491508	-0.368124842644
-0.0419940948486	1.30343902111	-0.154527664185	-0.0727763175964	1.6132569313	-0.364834666252
-0.0356402397156	1.30057883263	-0.152423620224	-0.0707519054413	1.60833609104	-0.360105395317
-0.0320591926575	1.29726374149	-0.150778055191	-0.065767288208	1.60283482075	-0.35431933403
-0.0294153690338	1.29215335846	-0.153436183929	-0.065495967865	1.59809648991	-0.343768358231
-0.0279562473297	1.27848362923	-0.152458429337	-0.0737557411194	1.59386479855	-0.337886810303
-0.0292701721191	1.2739546299	-0.154684782028	-0.0823149681091	1.58739411831	-0.341157436371
-0.0284330844879	1.2847315073	-0.161057472229	-0.0914692878723	1.58914005756	-0.350910902023
-0.0278458595276	1.29674041271	-0.166472911835	-0.0996377468109	1.59672534466	-0.364131689072
-0.0337800979614	1.30221831799	-0.169459104538	-0.0990478992462	1.60565376282	-0.377530455589
-0.0437800884247	1.30014419556	-0.169863581657	-0.0839641094208	1.62305700779	-0.394881248474
-0.0471267700195	1.2989487648	-0.165211319923	-0.0587437152863	1.63284516335	-0.41624724865
-0.0412254333496	1.30574154854	-0.164942502975	-0.0408284664154	1.63002884388	-0.430065393448
-0.0336799621582	1.30792307854	-0.162911176682	-0.0391149520874	1.62194180489	-0.429690122604
-0.025666475296	1.30773854256	-0.165461778641	-0.0615048408508	1.6138843298	-0.41958796978
-0.0226445198059	1.30534100533	-0.162843108177	-0.0844292640686	1.60449492931	-0.406747817993
-0.0304532051086	1.30290305614	-0.156772375107	-0.0896732807159	1.60669267178	-0.394408941269
-0.0421621799469	1.29746329784	-0.149477481842	-0.0892119407654	1.61498820782	-0.384426116943
-0.04829454422	1.29076957703	-0.141930580139	-0.0795331001282	1.62715959549	-0.377525568008
-0.0421166419983	1.28610372543	-0.131704568863	-0.06285572052	1.63259196281	-0.375813364983
-0.0274968147278	1.28765559196	-0.124904990196	-0.045378446579	1.62921690941	-0.372892618179
-0.0142033100128	1.28702282906	-0.121948957443	-0.0327138900757	1.61756908894	-0.365821123123
-0.0032594203949	1.28364098072	-0.119167804718	-0.0346231460571	1.60720849037	-0.356956362724
-0.00207185745239	1.27934753895	-0.111659884453	-0.0442070960999	1.60319769382	-0.352695941925
-0.00546932220459	1.28142762184	-0.104906439781	-0.0494384765625	1.60063779354	-0.347739458084
-0.00740480422974	1.2880358696	-0.103554964066	-0.0529944896698	1.59338462353	-0.338705658913
-0.00459504127502	1.28925096989	-0.104055404663	-0.0598142147064	1.59528124332	-0.330772995949
-0.0075831413269	1.27935492992	-0.0986444950104	-0.0576002597809	1.61038815975	-0.331498384476
-0.0120947360992	1.27443802357	-0.096052646637	-0.0455689430237	1.62366163731	-0.33759021759
-0.0118300914764	1.2750723362	-0.100037693977	-0.0310955047607	1.62295925617	-0.342226028442
-0.00443959236145	1.27522063255	-0.107941865921	-0.0251445770264	1.61359453201	-0.341163635254
0.0058228969574	1.27375912666	-0.119329690933	-0.0334351062775	1.59757781029	-0.336183786392
0.0107500553131	1.26488125324	-0.123863458633	-0.0499269962311	1.59223735332	-0.339256286621
0.00323081016541	1.25700736046	-0.119075059891	-0.0707619190216	1.60181093216	-0.350102782249
-0.00762224197388	1.26861000061	-0.122590303421	-0.088164806366	1.60795891285	-0.356239199638
-0.0124309062958	1.27900362015	-0.129381418228	-0.101578474045	1.61219525337	-0.361366033554
-0.0157842636108	1.27567458153	-0.12742626667	-0.103219509125	1.61827075481	-0.367132544518
-0.019026517868	1.27708661556	-0.126421451569	-0.0981900691986	1.62538707256	-0.37232708931
-0.0238842964172	1.27767837048	-0.126792907715	-0.0918803215027	1.62729012966	-0.373509168625
-0.0239856243134	1.27405738831	-0.128967046738	-0.0862975120544	1.63028013706	-0.369385957718
-0.0240118503571	1.26156878471	-0.120095491409	-0.077075958252	1.64059376717	-0.37056684494
-0.034218788147	1.25654065609	-0.111726641655	-0.0743126869202	1.64295935631	-0.368087530136
-0.0546836853027	1.26093447208	-0.113343238831	-0.0881071090698	1.63504624367	-0.356113791466
-0.0775430202484	1.25486981869	-0.112545967102	-0.111585140228	1.61990141869	-0.340531110764
-0.0708825588226	1.27084052563	-0.1098279953	-0.116873264313	1.62180113792	-0.33433008194
-0.0665395259857	1.28095459938	-0.0901737213135	-0.115375041962	1.629555583	-0.335145950317
-0.0878968238831	1.26485621929	-0.0751812458038	-0.120534181595	1.6291629076	-0.334878444672
-0.0966124534607	1.25057482719	-0.0860633850098	-0.125481128693	1.63299775124	-0.332630515099
-0.089855670929	1.2365912199	-0.0850102901459	-0.117001771927	1.63886070251	-0.33153116703
-0.0828149318695	1.234197855	-0.0812478065491	-0.107109308243	1.6375181675	-0.332108020782
-0.0882213115692	1.23112165928	-0.0843932628632	-0.0996670722961	1.63445711136	-0.337445378304
-0.0916848182678	1.23119831085	-0.0900982618332	-0.103964090347	1.63576209545	-0.347020864487
-0.0925297737122	1.241746068	-0.0930379629135	-0.105837345123	1.63579523563	-0.357686758041
-0.0979645252228	1.25462758541	-0.0981116294861	-0.10290312767	1.63295078278	-0.364415168762
-0.10324549675	1.26004254818	-0.107201695442	-0.103647947311	1.63279747963	-0.367861270905
-0.098804473877	1.25360584259	-0.112695455551	-0.101099491119	1.63461232185	-0.371762752533
-0.101055145264	1.24054670334	-0.109436273575	-0.0956163406372	1.63462126255	-0.372155666351
-0.0966622829437	1.24812781811	-0.116112470627	-0.097142457962	1.63496136665	-0.366501927376
-0.0858476161957	1.24111115932	-0.114243388176	-0.103228807449	1.63482272625	-0.357681632042
-0.0851302146912	1.22192072868	-0.106562137604	-0.110243797302	1.63434255123	-0.349341630936
-0.0895569324493	1.22101664543	-0.109577298164	-0.117187023163	1.63360452652	-0.34210729599
-0.0909917354584	1.22226905823	-0.113240361214	-0.122480392456	1.63195502758	-0.338445901871
-0.0881781578064	1.22037506104	-0.113455533981	-0.123198747635	1.63194572926	-0.338382482529
-0.0826323032379	1.22029662132	-0.11292886734	-0.120022535324	1.63055765629	-0.33991086483
-0.0799081325531	1.21721529961	-0.11335849762	-0.118883371353	1.62033617496	-0.343722820282
-0.0841488838196	1.20732069016	-0.112238287926	-0.122225046158	1.60842931271	-0.354890346527
-0.0915856361389	1.21877491474	-0.116734743118	-0.126081228256	1.61063361168	-0.373387336731
-0.0960831642151	1.25050961971	-0.125932335854	-0.12507724762	1.61206841469	-0.395332217216
-0.0940852165222	1.27508342266	-0.134031653404	-0.122408866882	1.60573887825	-0.415134191513
-0.0870079994202	1.28080928326	-0.138048291206	-0.118101358414	1.59768533707	-0.428286790848
-0.0780773162842	1.27521657944	-0.138555407524	-0.111159086227	1.58872354031	-0.436864614487
-0.06467628479	1.27050185204	-0.133445262909	-0.102789640427	1.57466959953	-0.441710472107
-0.0260422229767	1.27283298969	-0.11364364624	-0.0970048904419	1.56768798828	-0.437604188919
0.0128319263458	1.27547311783	-0.0870784521103	-0.0935156345367	1.5909113884	-0.420971155167
0.011048078537	1.27514016628	-0.0788003206253	-0.0924060344696	1.61921298504	-0.401472091675
-0.002596616745	1.27219879627	-0.082061290741	-0.0933058261871	1.62833988667	-0.383694410324
-0.0142724514008	1.24909508228	-0.0714210271835	-0.0931935310364	1.62905347347	-0.370755195618
-0.0250997543335	1.24159002304	-0.0678693056107	-0.0908665657043	1.63345932961	-0.35985481739
-0.0238656997681	1.25023794174	-0.0715551376343	-0.0871138572693	1.63048660755	-0.348194360733
-0.0400590896606	1.23399269581	-0.0682001113892	-0.087687253952	1.62537610531	-0.340273141861
-0.0650715827942	1.21612918377	-0.0685664415359	-0.0921058654785	1.62539362907	-0.338353872299
-0.0770013332367	1.22063791752	-0.0708267688751	-0.0979924201965	1.6268787384	-0.336374759674
-0.0798869132996	1.24001514912	-0.0729378461838	-0.104577302933	1.62815952301	-0.330279111862
-0.0827960968018	1.24898588657	-0.0701369047165	-0.109084129333	1.62879991531	-0.323272228241
-0.085526227951	1.26266098022	-0.0766263008118	-0.111526489258	1.62799417973	-0.317677259445
-0.0858469009399	1.26545059681	-0.076140165329	-0.111513614655	1.62731015682	-0.314831972122
-0.0881748199463	1.25614714622	-0.0704444646835	-0.109033584595	1.62785339355	-0.318304896355
-0.0887355804443	1.25292599201	-0.0703002214432	-0.106393098831	1.62643277645	-0.326405405998
-0.0877554416656	1.25787222385	-0.0763373374939	-0.10430765152	1.62318146229	-0.33558344841
-0.0832138061523	1.26030874252	-0.0819547176361	-0.103176116943	1.62092578411	-0.343466520309
-0.0816972255707	1.25540757179	-0.0863442420959	-0.101958990097	1.62041187286	-0.349107980728
-0.0814790725708	1.24940907955	-0.0896227359772	-0.100355625153	1.62264096737	-0.351954221725
-0.0815567970276	1.24492251873	-0.0927630662918	-0.099499464035	1.62465775013	-0.352506160736
-0.083042383194	1.24072873592	-0.0969188213348	-0.100116014481	1.62505817413	-0.352972984314
-0.0844926834106	1.23794543743	-0.10091650486	-0.102058887482	1.62420010567	-0.355710744858
-0.08846616745	1.23494923115	-0.103881120682	-0.102396726608	1.62293457985	-0.364062309265
-0.0920429229736	1.2423363924	-0.109253525734	-0.0992748737335	1.62191939354	-0.380491614342
-0.0914466381073	1.26220822334	-0.12013053894	-0.0939798355103	1.61856508255	-0.402563333511
-0.0892775058746	1.27693724632	-0.131070613861	-0.0851716995239	1.61022174358	-0.425205111504
-0.0855174064636	1.28645908833	-0.143173694611	-0.0779671669006	1.59842574596	-0.446247816086
-0.0795562267303	1.29395520687	-0.158555984497	-0.0755634307861	1.58613014221	-0.462166786194
-0.0723416805267	1.29402041435	-0.170692682266	-0.0767393112183	1.57298874855	-0.4728910923
-0.0708270072937	1.28876578808	-0.178040981293	-0.0787854194641	1.56206572056	-0.479915857315
-0.0717465877533	1.28884625435	-0.180871725082	-0.0815260410309	1.55971288681	-0.481187343597
-0.072758436203	1.29005551338	-0.177621603012	-0.0851514339447	1.5663818121	-0.474873065948
-0.0779058933258	1.28351283073	-0.168571949005	-0.0896544456482	1.57533872128	-0.459054708481
-0.0808546543121	1.27759301662	-0.159595131874	-0.0952606201172	1.58260929585	-0.434341430664
-0.0816612243652	1.27441954613	-0.151903152466	-0.0956892967224	1.58810257912	-0.412087678909
-0.0805668830872	1.27195358276	-0.143118143082	-0.090892791748	1.59416556358	-0.39732503891
-0.0794086456299	1.26632797718	-0.136271715164	-0.0862717628479	1.59583473206	-0.388694047928
-0.0781297683716	1.26048266888	-0.131017923355	-0.0826563835144	1.59562087059	-0.387449502945
-0.0783154964447	1.25975835323	-0.125215053558	-0.0794916152954	1.59478032589	-0.390097856522
-0.0792152881622	1.26613724232	-0.12197804451	-0.0768582820892	1.59500849247	-0.392444491386
-0.0792438983917	1.26931273937	-0.120325803757	-0.0732088088989	1.59693181515	-0.392051935196
-0.0762424468994	1.26639354229	-0.116775393486	-0.0679068565369	1.59913289547	-0.3889285326
-0.0688323974609	1.26126933098	-0.110764861107	-0.0609760284424	1.60144293308	-0.382686495781
-0.0595631599426	1.25641775131	-0.105911254883	-0.0549819469452	1.60312151909	-0.3744161129
-0.0551228523254	1.24701738358	-0.0996738672256	-0.050309419632	1.6048002243	-0.368310213089
-0.0628397464752	1.23426651955	-0.0948724746704	-0.0471007823944	1.60709249973	-0.369190454483
-0.0714890956879	1.23888230324	-0.102374076843	-0.0467758178711	1.60804331303	-0.373652338982
-0.0733454227448	1.24833631516	-0.113405704498	-0.0461776256561	1.60815489292	-0.379068732262
-0.0675940513611	1.24800670147	-0.117105364799	-0.0451240539551	1.60944545269	-0.385154604912
-0.0603382587433	1.2430126667	-0.118350982666	-0.0432167053223	1.61149215698	-0.388325452805
-0.0539999008179	1.24077832699	-0.122575879097	-0.0418300628662	1.61142110825	-0.388785600662
-0.0488908290863	1.23401081562	-0.123362660408	-0.0398352146149	1.61283254623	-0.388560533524
-0.0428359508514	1.23298418522	-0.124417543411	-0.0368061065674	1.61601734161	-0.385994076729
-0.0363640785217	1.22972643375	-0.122974872589	-0.0355954170227	1.61555755138	-0.380966901779
-0.0309340953827	1.22334289551	-0.120838403702	-0.0333049297333	1.61562466621	-0.379453063011
-0.0258650779724	1.22594594955	-0.119937300682	-0.0271005630493	1.6169615984	-0.384945392609
-0.0221180915833	1.23726332188	-0.123043060303	-0.0212440490723	1.61931836605	-0.394720315933
-0.0175759792328	1.24807810783	-0.126433134079	-0.0186030864716	1.62199318409	-0.408240437508
-0.0135281085968	1.25861990452	-0.128335475922	-0.0161643028259	1.61482894421	-0.422208666801
0.00112414360046	1.28147566319	-0.133101463318	-0.0124077796936	1.60363268852	-0.432552576065
0.0133790969849	1.30299150944	-0.142591238022	-0.0107283592224	1.59328484535	-0.440395355225
0.0188422203064	1.31197369099	-0.152860760689	-0.0108313560486	1.58716285229	-0.449781656265
0.0163221359253	1.30618011951	-0.158873200417	-0.00998759269714	1.5834069252	-0.460412740707
0.0139534473419	1.30456864834	-0.167357444763	-0.00745034217834	1.5822994709	-0.467913627625
0.0164697170258	1.30891478062	-0.173869609833	-0.00510501861572	1.57958459854	-0.472821712494
0.0202388763428	1.31346046925	-0.175679564476	-0.00461411476135	1.57718646526	-0.476231575012
0.0285255908966	1.31962120533	-0.171808481216	-0.00627946853638	1.578738451	-0.477159261703
0.0266704559326	1.31340110302	-0.161517858505	-0.0085015296936	1.57913899422	-0.475513696671
0.0122313499451	1.30275452137	-0.161556720734	-0.0105550289154	1.57975494862	-0.471660375595
-0.00373029708862	1.29818499088	-0.172181844711	-0.0153596401215	1.58085143566	-0.467266321182
-0.00171160697937	1.28988385201	-0.176715254784	-0.0199513435364	1.58407711983	-0.46351313591
0.0164880752563	1.27619719505	-0.167114257812	-0.022739648819	1.58886301517	-0.460429906845
0.0515706539154	1.27931523323	-0.144387483597	-0.026127576828	1.59227561951	-0.455878615379
0.0847730636597	1.29952609539	-0.13206911087	-0.0290603637695	1.59472668171	-0.448090791702
0.0973227024078	1.32114434242	-0.138184666634	-0.0314502716064	1.59973669052	-0.436584711075
0.0916454792023	1.33861768246	-0.151345252991	-0.0337510108948	1.60579133034	-0.422709941864
0.0734558105469	1.34420621395	-0.161059141159	-0.0365359783173	1.61032140255	-0.407577037811
0.0668692588806	1.3447728157	-0.139911174774	-0.0410046577454	1.61243402958	-0.39236998558
0.0610308647156	1.32755994797	-0.114951610565	-0.0482180118561	1.6128487587	-0.37888777256
0.0531125068665	1.30943620205	-0.0974850654602	-0.0570118427277	1.61444687843	-0.366696119308
0.0451762676239	1.30843889713	-0.0915830135345	-0.064085483551	1.61442506313	-0.357438564301
0.032252073288	1.31759858131	-0.0821861028671	-0.0651407241821	1.60662853718	-0.347906351089
0.0155875682831	1.31874895096	-0.0730516910553	-0.0628912448883	1.59943568707	-0.339422225952
0.00573515892029	1.29950332642	-0.0650312900543	-0.0621314048767	1.5997415781	-0.33610534668
0.000804901123047	1.28533673286	-0.0703644752502	-0.0633616447449	1.60398030281	-0.335538983345
-0.021693944931	1.26881980896	-0.0882790088654	-0.0661787986755	1.60769152641	-0.33580827713
-0.0014865398407	1.21749854088	-0.065477848053	-0.0707457065582	1.61039316654	-0.336147069931
0.00761032104492	1.24580013752	-0.0801171064377	-0.0778789520264	1.614174366	-0.335215568542
-0.00758695602417	1.30006027222	-0.125003099442	-0.0851933956146	1.6177161932	-0.332908034325
0.0229802131653	1.29454898834	-0.093058347702	-0.0923018455505	1.61883711815	-0.33381986618
0.0412380695343	1.28113913536	-0.0913031101227	-0.0993919372559	1.62255382538	-0.335182189941
0.0527794361115	1.30602538586	-0.103502869606	-0.105172634125	1.62495577335	-0.335682868958
0.0524501800537	1.3290104866	-0.110346436501	-0.109752178192	1.6242929697	-0.336284041405
0.050187587738	1.3276232481	-0.11384677887	-0.116385936737	1.62279093266	-0.338413715363
0.0437037944794	1.31531131268	-0.116186618805	-0.124660015106	1.62214839458	-0.341142177582
0.0374751091003	1.30139291286	-0.113513827324	-0.133490085602	1.621509552	-0.344091892242
0.0287756919861	1.30504786968	-0.109845161438	-0.141241312027	1.62067043781	-0.346556425095
0.0221924781799	1.29283332825	-0.105917453766	-0.147068023682	1.61924445629	-0.346716880798
0.0170364379883	1.26246857643	-0.100784659386	-0.151975631714	1.61712276936	-0.344327449799
0.00504970550537	1.2410171032	-0.0949460268021	-0.154811143875	1.61488735676	-0.339944839478
-0.0197494029999	1.24019050598	-0.0954282283783	-0.15518951416	1.61206007004	-0.335344910622
-0.0250968933105	1.23884546757	-0.0888823270798	-0.15528345108	1.6108622551	-0.331374764442
-0.00864624977112	1.23702609539	-0.0639717578888	-0.154651403427	1.60966610909	-0.331296682358
-0.00826549530029	1.24994194508	-0.0480167865753	-0.151531219482	1.60843670368	-0.334237575531
-0.0170969963074	1.27420246601	-0.045266866684	-0.147252321243	1.6084176302	-0.339311718941
-0.020528793335	1.29584288597	-0.0457499027252	-0.144413232803	1.61159515381	-0.344927191734
-0.0219473838806	1.30129182339	-0.042708158493	-0.144646883011	1.6166369915	-0.351469397545
-0.0138845443726	1.29466032982	-0.0250613689423	-0.145353794098	1.62224090099	-0.358559370041
-0.00491571426392	1.30253660679	-0.00641846656799	-0.146399974823	1.62680125237	-0.364907264709
-0.010746717453	1.33279752731	-0.00465941429138	-0.14997959137	1.63206279278	-0.370991945267
-0.0206246376038	1.36723208427	-0.0120944976807	-0.156892299652	1.63777458668	-0.379605412483
-0.0260519981384	1.39615809917	-0.0202848911285	-0.163363933563	1.64243793488	-0.389830350876
-0.0286521911621	1.41074061394	-0.0203940868378	-0.166280031204	1.64540040493	-0.400382995605
-0.0312488079071	1.42277169228	-0.0111926794052	-0.165337085724	1.64647495747	-0.411073684692
-0.0298104286194	1.44221889973	0.00118672847748	-0.165528297424	1.64407920837	-0.418867945671
-0.0310130119324	1.46802556515	0.000297784805298	-0.173736333847	1.64020228386	-0.422395944595
-0.0330166816711	1.48939442635	-0.00810885429382	-0.185580253601	1.63520300388	-0.422746419907
-0.0358865261078	1.50144970417	-0.0208792686462	-0.196964740753	1.63144183159	-0.421063899994
-0.0390224456787	1.5030118227	-0.0306513309479	-0.208211183548	1.62944459915	-0.418930530548
-0.0426170825958	1.49897754192	-0.0312476158142	-0.219105243683	1.62886762619	-0.416840553284
-0.044561624527	1.49722361565	-0.0302495956421	-0.229043483734	1.62903439999	-0.411980390549
-0.0460638999939	1.48487365246	-0.0337660312653	-0.237287044525	1.6287996769	-0.405527710915
-0.0510790348053	1.44191396236	-0.0322594642639	-0.243240833282	1.62795484066	-0.400994539261
-0.0640823841095	1.39228236675	-0.0285267829895	-0.245047092438	1.62830328941	-0.398109078407
-0.0782840251923	1.35745728016	-0.018940448761	-0.24267244339	1.6273150444	-0.395063877106
-0.0779976844788	1.3484582901	-0.0132207870483	-0.238981246948	1.627161026	-0.392647743225
-0.0728454589844	1.35002458096	-0.0117760896683	-0.23157787323	1.62696671486	-0.391193389893
-0.0754086971283	1.34980392456	-0.00921809673309	-0.218433380127	1.62706053257	-0.390283107758
-0.0812427997589	1.34485733509	-0.0104892253876	-0.207074165344	1.62822568417	-0.387692332268
-0.0737676620483	1.3298484087	-0.00670838356018	-0.197343587875	1.62903130054	-0.383726119995
-0.059463262558	1.31467056274	0.000102043151855	-0.18773651123	1.6302626133	-0.377798080444
-0.0516183376312	1.30753970146	0.00356411933899	-0.176205158234	1.63034713268	-0.369750857353
-0.0475869178772	1.30404758453	0.00525951385498	-0.160580396652	1.62637007236	-0.361342668533
-0.0406241416931	1.29979848862	0.00564694404602	-0.141923427582	1.62024986744	-0.355573177338
-0.0260655879974	1.30041396618	0.00477492809296	-0.12368106842	1.61512005329	-0.351010680199
-0.0107100009918	1.29985976219	0.00592756271362	-0.106298208237	1.6110380888	-0.348872661591
0.00188136100769	1.29776597023	0.0111927986145	-0.0894651412964	1.6109893322	-0.346836805344
0.0118141174316	1.295612216	0.0180003643036	-0.0739078521729	1.61154234409	-0.340650677681
0.0137574672699	1.28347599506	0.0271599292755	-0.0614047050476	1.60925912857	-0.328823804855
0.00832962989807	1.2563149929	0.0346180200577	-0.0524318218231	1.60390651226	-0.314021348953
0.00924158096313	1.23362290859	0.0344705581665	-0.042489528656	1.60028469563	-0.299907803535
0.0188465118408	1.22573173046	0.0370633602142	-0.0331394672394	1.59631538391	-0.290210962296
0.0233850479126	1.21740591526	0.0421512126923	-0.0251779556274	1.59366321564	-0.284945964813
0.0189607143402	1.22618257999	0.0363245010376	-0.0203216075897	1.59402430058	-0.281235933304
0.0176930427551	1.24727070332	0.0242339372635	-0.0183796882629	1.59546840191	-0.277110815048
-0.00752139091492	1.24130630493	-0.00453162193298	-0.0182156562805	1.60020709038	-0.276259422302
-0.0379922389984	1.19764518738	-0.0352855920792	-0.0218017101288	1.60642325878	-0.281650304794
-0.0477886199951	1.16965723038	-0.0477304458618	-0.0274443626404	1.61295366287	-0.289226770401
-0.0543746948242	1.17033922672	-0.0497629642487	-0.0324387550354	1.62002134323	-0.296380519867
-0.0592753887177	1.16639518738	-0.0455067157745	-0.0396342277527	1.62456703186	-0.302137136459
-0.0471634864807	1.15463125706	-0.0301506519318	-0.0527844429016	1.6243853569	-0.304256677628
-0.0427732467651	1.15533828735	-0.0244386196136	-0.0700817108154	1.62609183788	-0.302637577057
-0.0472617149353	1.174518466	-0.0225448608398	-0.0883152484894	1.62984955311	-0.299982309341
-0.0573556423187	1.18871986866	-0.0200297832489	-0.104033231735	1.63264417648	-0.297434806824
-0.06378698349	1.19004750252	-0.0150896310806	-0.114802360535	1.63623178005	-0.296375513077
-0.0558686256409	1.1860678196	-0.00479054450989	-0.120843172073	1.63993012905	-0.299023985863
-0.0404043197632	1.20026779175	-0.000918626785278	-0.124204158783	1.64525401592	-0.30506837368
-0.0268790721893	1.23045325279	-0.00729036331177	-0.125645160675	1.65206074715	-0.315810203552
-0.020482301712	1.23593115807	-0.0077793598175	-0.125745296478	1.65369069576	-0.329117774963
-0.0204701423645	1.22805202007	-0.00509095191956	-0.125939369202	1.64969480038	-0.338329553604
-0.019889831543	1.24035668373	-0.0129117965698	-0.12887597084	1.64982712269	-0.346318483353
-0.019597530365	1.25516712666	-0.0233995914459	-0.130945205688	1.65234291553	-0.356200456619
-0.0211110115051	1.26861619949	-0.0335373878479	-0.129894733429	1.65451514721	-0.364719390869
-0.0332460403442	1.27764844894	-0.0473349094391	-0.128842830658	1.65493154526	-0.370323300362
-0.0506377220154	1.28218305111	-0.0642988681793	-0.129397392273	1.65381729603	-0.374153971672
-0.0584976673126	1.27458298206	-0.0701932907104	-0.133862733841	1.65274035931	-0.376399040222
-0.0609230995178	1.26160812378	-0.0692329406738	-0.139060735703	1.65420198441	-0.380135774612
-0.0631170272827	1.25375938416	-0.0672447681427	-0.144048690796	1.65547597408	-0.385495185852
-0.0675926208496	1.2526589632	-0.0657875537872	-0.144740104675	1.65953493118	-0.389730095863
-0.0724778175354	1.25061511993	-0.0627193450928	-0.140594959259	1.66572523117	-0.394901752472
-0.0765805244446	1.24339067936	-0.0570071935654	-0.1377825737	1.66708362103	-0.399286627769
-0.0799107551575	1.24128639698	-0.0558183193207	-0.135324001312	1.66557562351	-0.40082025528
-0.0770885944366	1.24548089504	-0.0564098358154	-0.133437395096	1.663154006	-0.399149179459
-0.0642466545105	1.25458145142	-0.0563187599182	-0.132438659668	1.65899598598	-0.394794464111
-0.05357670784	1.2598221302	-0.0598268508911	-0.133320331573	1.65594053268	-0.391120910645
-0.0490829944611	1.25418591499	-0.0643939971924	-0.133195877075	1.65497970581	-0.390685081482
-0.0475602149963	1.24592220783	-0.0680694580078	-0.133234500885	1.65579319	-0.392794966698
-0.0490348339081	1.24095773697	-0.0717647075653	-0.132845401764	1.65786552429	-0.396900177002
-0.0510914325714	1.23958873749	-0.0749304294586	-0.131539583206	1.659678936	-0.402267932892
-0.0515115261078	1.23904013634	-0.0772300958633	-0.130535125732	1.66034936905	-0.407634496689
-0.049941778183	1.24003815651	-0.0794466733932	-0.130960464478	1.66099584103	-0.410615921021
-0.0457451343536	1.2405333519	-0.0789802074432	-0.13156414032	1.66195034981	-0.411880254745
-0.0413944721222	1.24181890488	-0.0762609243393	-0.132322788239	1.66436934471	-0.412784576416
-0.0411019325256	1.24056184292	-0.0736575126648	-0.132946491241	1.66443884373	-0.411856770515
-0.0445880889893	1.23891496658	-0.0747110843658	-0.134189605713	1.66198432446	-0.407955765724
-0.0477430820465	1.23808026314	-0.0787289142609	-0.136249542236	1.65965986252	-0.402593612671
-0.0490624904633	1.23473453522	-0.0810481309891	-0.137777328491	1.65778887272	-0.399238586426
-0.049464225769	1.23375105858	-0.0837404727936	-0.138290882111	1.65620601177	-0.399257302284
-0.0502076148987	1.238088727	-0.0874593257904	-0.138099193573	1.65608739853	-0.401241540909
-0.051153421402	1.24140155315	-0.0894603729248	-0.138179779053	1.65490591526	-0.404052734375
-0.0546901226044	1.24224197865	-0.0912216901779	-0.139728307724	1.65177214146	-0.405734777451
-0.0644316673279	1.24629974365	-0.0946588516235	-0.145103693008	1.64606809616	-0.406203746796
-0.0749425888062	1.25605988503	-0.100350141525	-0.152849435806	1.64103901386	-0.407082796097
-0.0837004184723	1.25992584229	-0.103773474693	-0.159670352936	1.64092481136	-0.408778190613
-0.0834395885468	1.25847995281	-0.107192873955	-0.158350229263	1.6431773901	-0.406220436096
-0.0780019760132	1.24983847141	-0.107409596443	-0.147354364395	1.64279699326	-0.40206360817
-0.0694687366486	1.24650204182	-0.108062982559	-0.134675741196	1.64142870903	-0.401343464851
-0.0624256134033	1.24793326855	-0.106371879578	-0.128375530243	1.64043188095	-0.401695847511
-0.0597755908966	1.24743962288	-0.101575613022	-0.12317442894	1.64137578011	-0.401802062988
-0.063859462738	1.2453879118	-0.0984429121017	-0.118916034698	1.6407263279	-0.401982069016
-0.0703246593475	1.24685001373	-0.100276231766	-0.125957012177	1.63867723942	-0.404198884964
-0.073912858963	1.24565160275	-0.0997190475464	-0.122094154358	1.64348614216	-0.402121305466
-0.0756313800812	1.243668437	-0.0959528684616	-0.120365858078	1.64214551449	-0.401453018188
-0.0791690349579	1.24494159222	-0.095049738884	-0.127715826035	1.64567887783	-0.395488977432
-0.0817091464996	1.24528598785	-0.0947189331055	-0.135938405991	1.64064216614	-0.410195112228
-0.0824909210205	1.2410043478	-0.0928946733475	-0.128293037415	1.63560450077	-0.417517781258
-0.0803101062775	1.23928666115	-0.0915304422379	-0.123732805252	1.63858962059	-0.420284152031
-0.0749180316925	1.23619890213	-0.0880771875381	-0.121173381805	1.64416503906	-0.41936147213
-0.0722079277039	1.23355650902	-0.0852198600769	-0.125524044037	1.64578342438	-0.422070264816
-0.0717933177948	1.23572206497	-0.0839499235153	-0.118573188782	1.6452614069	-0.413222312927
-0.0695888996124	1.24110734463	-0.0877294540405	-0.114006757736	1.64760744572	-0.4104565382
-0.0636608600616	1.23640120029	-0.0858948230743	-0.10468506813	1.65338993073	-0.412748456001
-0.0498471260071	1.22986316681	-0.076447725296	-0.0925049781799	1.65724825859	-0.417176961899
-0.0326132774353	1.22700881958	-0.0613614320755	-0.0843315124512	1.65782082081	-0.423188328743
-0.0177600383759	1.24132835865	-0.0507555007935	-0.0842509269714	1.65993964672	-0.428101062775
-0.0067732334137	1.25448298454	-0.0452969074249	-0.0921301841736	1.66356909275	-0.432330965996
-0.00224137306213	1.2560890913	-0.0416861772537	-0.0976099967957	1.66519832611	-0.434972405434
0.00108075141907	1.24945759773	-0.035341501236	-0.100890874863	1.66664516926	-0.436277389526
0.00551867485046	1.2491350174	-0.026527762413	-0.101789951324	1.66690254211	-0.437834262848
0.00943946838379	1.26071548462	-0.0217453241348	-0.103029727936	1.66354227066	-0.436833620071
0.00865530967712	1.2739893198	-0.0237429141998	-0.103753328323	1.65951943398	-0.431799888611
0.00532221794128	1.27983546257	-0.0260229110718	-0.107941865921	1.6559330225	-0.425542593002
0.00438904762268	1.26669073105	-0.021892786026	-0.116827249527	1.64995574951	-0.41865670681
0.000486850738525	1.2556899786	-0.0251108407974	-0.124866485596	1.64518976212	-0.40962433815
-0.00680470466614	1.2456151247	-0.0291477441788	-0.130826950073	1.64312839508	-0.403096318245
-0.0170869827271	1.23166418076	-0.0323122739792	-0.137226819992	1.64189696312	-0.401033639908
-0.0285909175873	1.22437798977	-0.0384414196014	-0.143426895142	1.64051914215	-0.401649236679
-0.0399570465088	1.22133123875	-0.0451369285583	-0.148778915405	1.6394944191	-0.403824567795
-0.0524628162384	1.21672940254	-0.0518891811371	-0.153790473938	1.63958752155	-0.406948328018
-0.0638644695282	1.21258354187	-0.0598585605621	-0.157894611359	1.6403195858	-0.409531116486
-0.0732970237732	1.21417546272	-0.0711530447006	-0.16027545929	1.64169967175	-0.411279916763
-0.0767192840576	1.22357535362	-0.0857365131378	-0.16159081459	1.64228892326	-0.413504600525
-0.0699253082275	1.24018287659	-0.0997211933136	-0.162732839584	1.64271783829	-0.414675712585
-0.0660839080811	1.24765264988	-0.111964583397	-0.163200378418	1.64259386063	-0.415071249008
-0.064567565918	1.25621390343	-0.121109008789	-0.165014028549	1.6413422823	-0.413969159126
-0.0648095607758	1.26806008816	-0.133746504784	-0.166634321213	1.63876485825	-0.411840200424
-0.0667629241943	1.2636436224	-0.136695742607	-0.167008638382	1.63750195503	-0.410041332245
-0.0634546279907	1.25337517262	-0.130936026573	-0.168124437332	1.63777410984	-0.408176422119
-0.0629062652588	1.25013446808	-0.127363324165	-0.170027732849	1.63757836819	-0.403534650803
-0.0649285316467	1.25046920776	-0.124594330788	-0.172065258026	1.63639008999	-0.397580385208
-0.0673370361328	1.24948632717	-0.120975017548	-0.173936128616	1.63526916504	-0.392481565475
-0.0701086521149	1.24626398087	-0.117970228195	-0.175184011459	1.63487792015	-0.389523029327
-0.0722053050995	1.24462199211	-0.11641740799	-0.176094293594	1.63457119465	-0.389253616333
-0.0720069408417	1.24493646622	-0.116179585457	-0.176651716232	1.63453102112	-0.390104532242
-0.0704045295715	1.24496757984	-0.116185903549	-0.176457643509	1.63420200348	-0.391683697701
-0.0693869590759	1.2449760437	-0.117198824883	-0.175635099411	1.63336312771	-0.393188476562
-0.0686740875244	1.24582433701	-0.119594335556	-0.174275398254	1.63251924515	-0.394404649734
-0.0666530132294	1.24655425549	-0.121934175491	-0.172595262527	1.63203537464	-0.394767045975
-0.0639343261719	1.24487316608	-0.122763872147	-0.168988466263	1.63129937649	-0.395115852356
-0.0601017475128	1.24416613579	-0.124102115631	-0.161353349686	1.62820565701	-0.397382974625
-0.0569615364075	1.24637639523	-0.127984404564	-0.153921127319	1.61879718304	-0.404950380325
-0.0548624992371	1.25250828266	-0.134821653366	-0.149566173553	1.61173093319	-0.415634393692
-0.0533459186554	1.26080965996	-0.142513751984	-0.147803544998	1.61068713665	-0.427681684494
-0.0537097454071	1.2687381506	-0.146551847458	-0.145868301392	1.6097663641	-0.436946630478
-0.0309128761292	1.31435108185	-0.159648299217	-0.146310329437	1.60745036602	-0.438776254654
-0.0167000293732	1.32792425156	-0.164479255676	-0.146956920624	1.60521054268	-0.438683509827
-0.0216114521027	1.25113320351	-0.128599882126	-0.145995855331	1.60444617271	-0.437675237656
-0.0055775642395	1.23551082611	-0.128538370132	-0.144503116608	1.60364055634	-0.432975769043
-0.00886487960815	1.25221955776	-0.136405944824	-0.141521453857	1.60204291344	-0.427768707275
-0.0173850059509	1.24877870083	-0.132302999496	-0.139898061752	1.60469794273	-0.425375938416
-0.0215013027191	1.23738801479	-0.124812364578	-0.138723134995	1.60818314552	-0.422352075577
-0.0250749588013	1.24179625511	-0.122961401939	-0.137670516968	1.60963261127	-0.416771531105
-0.0300142765045	1.25296151638	-0.123853206635	-0.139642953873	1.61105597019	-0.40959239006
-0.038694858551	1.25158596039	-0.121068239212	-0.143693447113	1.61240398884	-0.401691675186
-0.0493369102478	1.23746168613	-0.112107157707	-0.146460294724	1.61234712601	-0.390217542648
-0.0611803531647	1.24074161053	-0.106416940689	-0.148139476776	1.61202859879	-0.374304533005
-0.0679492950439	1.2547762394	-0.10634803772	-0.149296522141	1.61081910133	-0.356969475746
-0.0765454769135	1.23823535442	-0.0976719856262	-0.148686647415	1.61046051979	-0.339210748672
-0.0778629779816	1.22561001778	-0.0934600830078	-0.147613286972	1.6122367382	-0.323960542679
-0.0715012550354	1.23398804665	-0.0890780687332	-0.147344827652	1.61275517941	-0.314275145531
-0.0627562999725	1.24010193348	-0.0793626308441	-0.14653635025	1.61137545109	-0.307773113251
-0.0620956420898	1.23339653015	-0.0729386806488	-0.145829677582	1.61076700687	-0.302185773849
-0.062392950058	1.2342133522	-0.0744252204895	-0.145170450211	1.61194765568	-0.293770909309
-0.0660214424133	1.2292175293	-0.0707221031189	-0.14199090004	1.61418747902	-0.287318468094
-0.0714449882507	1.22437047958	-0.0634999275208	-0.137655258179	1.61706376076	-0.280373334885
-0.0738425254822	1.22739982605	-0.0569639205933	-0.133251667023	1.61528682709	-0.270428180695
-0.0756137371063	1.22272491455	-0.0493838787079	-0.125336170197	1.60744094849	-0.264641046524
-0.0804374217987	1.21594750881	-0.0450339317322	-0.116372108459	1.58868551254	-0.267596721649
-0.0725035667419	1.22314238548	-0.0445212125778	-0.11430811882	1.6089246273	-0.267719984055
-0.0659227371216	1.20941889286	-0.0377469062805	-0.113706588745	1.61693453789	-0.274012804031
-0.0599870681763	1.211140275	-0.041606426239	-0.115886926651	1.61727941036	-0.280164241791
-0.0536613464355	1.21721351147	-0.0449011325836	-0.121796131134	1.61739253998	-0.291421532631
-0.0495829582214	1.22652602196	-0.0471357107162	-0.125088453293	1.6192305088	-0.30681014061
