0.0	-0.0	139.205718994	-148.031814575	81.6787948608	148.140930176
0.0	-0.0	139.167602539	-147.475921631	81.5297241211	147.915435791
0.0	-0.0	139.113327026	-147.146209717	81.6938552856	148.111633301
0.0	-0.0	138.641738892	-147.194366455	81.5662231445	148.545806885
0.0	-0.0	132.261535645	-146.553695679	83.6278991699	149.87902832
0.0	-0.0	98.4492645264	38.998298645	83.6515655518	-28.3878517151
0.0	-0.0	97.2381057739	48.1089439392	65.491607666	-25.8127193451
0.0	-0.0	87.1142044067	55.0483283997	54.8534126282	-22.9951705933
0.0	-0.0	89.6461105347	56.755771637	47.094543457	-20.789937973
0.0	-0.0	84.9529037476	59.2739105225	39.8038368225	-19.9291305542
0.0	-0.0	85.7068023682	66.5168228149	30.1076545715	-20.3023738861
0.0	-0.0	81.1196289062	71.5837783813	26.3319015503	-20.8306446075
