0.118259191513	1.37402117252	-0.153699159622	0.0284714698792	1.61687219143	-0.367123603821
0.118220329285	1.37392902374	-0.151013731956	0.0280613899231	1.61640131474	-0.364188075066
0.117909908295	1.37344002724	-0.147702693939	0.0273721218109	1.61552500725	-0.361313343048
0.116839170456	1.37445032597	-0.145148277283	0.0266871452332	1.61508584023	-0.359155416489
0.115782499313	1.37597596645	-0.1437677145	0.0260717868805	1.61450982094	-0.357018470764
0.114281177521	1.37680613995	-0.144719004631	0.0245387554169	1.6141513586	-0.355406761169
0.111133813858	1.37295901775	-0.151633620262	0.0184893608093	1.615883708	-0.353710651398
0.0900599956512	1.35357928276	-0.159170627594	0.00629711151123	1.62051355839	-0.352820515633
0.0580897331238	1.32406294346	-0.158508300781	-0.00438594818115	1.62466573715	-0.352721452713
0.0352911949158	1.30616140366	-0.16480755806	-0.0128881931305	1.62803113461	-0.352601289749
0.023731470108	1.2993272543	-0.16973555088	-0.0238416194916	1.62946379185	-0.352833032608
0.0201563835144	1.29962491989	-0.168377757072	-0.0348591804504	1.62933278084	-0.35385966301
0.017320394516	1.30258464813	-0.165531396866	-0.0411524772644	1.62950086594	-0.355539679527
0.0151567459106	1.30333375931	-0.156144976616	-0.0436491966248	1.63012075424	-0.35819709301
0.0277042388916	1.30910468102	-0.145302295685	-0.0463399887085	1.63104999065	-0.361634254456
0.0426535606384	1.31697452068	-0.143421649933	-0.0504648685455	1.63265025616	-0.364212274551
0.0555057525635	1.32341229916	-0.143458247185	-0.054562330246	1.63354110718	-0.365646600723
0.0621314048767	1.3252466917	-0.137986779213	-0.0579330921173	1.63472247124	-0.365707039833
0.0596568584442	1.32212817669	-0.129215240479	-0.0603377819061	1.63583362103	-0.364757061005
0.0502557754517	1.31841540337	-0.12206196785	-0.0625	1.63583743572	-0.36296749115
0.0412614345551	1.31306791306	-0.114964485168	-0.0654821395874	1.63591170311	-0.360732793808
0.0335431098938	1.30575084686	-0.109871149063	-0.0682501792908	1.63555002213	-0.359089970589
0.0304567813873	1.3021376133	-0.109490990639	-0.0702159404755	1.63522255421	-0.359529137611
0.0313100814819	1.30058085918	-0.110089063644	-0.0706877708435	1.63596951962	-0.362332582474
0.0340750217438	1.30174517632	-0.112189054489	-0.0699663162231	1.6371794939	-0.366399645805
0.0353281497955	1.30352675915	-0.116900920868	-0.0686604976654	1.63791167736	-0.369975805283
0.0345921516418	1.30408406258	-0.122645020485	-0.067723274231	1.63648355007	-0.372699022293
0.0393147468567	1.30506968498	-0.126038551331	-0.066796541214	1.63657331467	-0.377573251724
0.041919708252	1.3081278801	-0.127391219139	-0.0637788772583	1.6390260458	-0.3844165802
0.0434854030609	1.31672084332	-0.136147499084	-0.0594878196716	1.64169120789	-0.390679240227
0.0420734882355	1.3235450983	-0.147326946259	-0.0544857978821	1.64339923859	-0.395706892014
0.044575214386	1.32398307323	-0.14882183075	-0.0500416755676	1.64386177063	-0.400154590607
0.0480048656464	1.32323873043	-0.148298621178	-0.0465614795685	1.64428496361	-0.404045462608
