-1.74856722355	-47.0203170776	141.832717896	-1.07021653652	4.0989689827	-6.84014892578
-1.58758163452	-47.2459640503	141.94670105	-1.02212047577	3.92082381248	-6.58527755737
-1.23469567299	-46.1559295654	137.933868408	-1.01037597656	3.79176998138	-6.40783500671
5.41749858856	-37.7965736389	96.021232605	-0.740907132626	2.40974330902	-6.00023698807
2.54086256027	-36.3672904968	84.0991973877	0.911500692368	-3.30073833466	-5.35813093185
-6.55921316147	-43.3401031494	98.1696777344	2.19624137878	-9.68072795868	-4.43313121796
-2.38010072708	-35.9546165466	82.4733886719	3.33516478539	-13.4147920609	-4.0475897789
3.5832927227	-13.4563732147	56.7173652649	5.12899112701	-14.1160020828	-4.58455371857
1.90760707855	-1.54120314121	48.7320976257	6.35294103622	-14.4053230286	-3.8042910099
6.04673290253	-2.85812520981	64.1960830688	5.32291936874	-16.9650287628	-2.09355831146
10.9319496155	0.936574161053	65.4315109253	5.1384768486	-19.1137542725	-1.63793182373
14.7699489594	5.8251824379	62.9607849121	6.0161242485	-20.2050037384	-2.02703022957
17.3979892731	6.20783901215	63.6733627319	6.85763645172	-20.4586734772	-2.23964762688
21.4688129425	6.98042869568	63.0479774475	7.74320220947	-20.420167923	-2.6796438694
25.8240432739	10.76445961	62.5786056519	9.17894172668	-20.2482738495	-3.7212896347
