5.90360403061	-8.4231672287	-3.05788469315	22.6528015137	28.7055282593	34.8695755005
5.97384738922	-8.28827381134	-3.1213581562	22.3376960754	28.6790428162	34.6412582397
5.95268821716	-7.83737659454	-2.75419402122	21.3940601349	28.4459514618	33.9423942566
5.92272901535	-6.97032403946	-2.59936785698	19.3485965729	28.0425510406	32.1990509033
4.50046157837	-4.3061003685	-1.03221929073	17.6905288696	28.0051460266	30.3967876434
2.80916190147	0.83335930109	1.30453944206	16.9436645508	28.2557010651	28.7537689209
4.33992004395	4.62956809998	4.5684838295	16.2939758301	28.5562973022	26.8255195618
5.68356227875	4.06920814514	-1.21489810944	16.2452831268	29.7693843842	24.4582595825
6.43974876404	2.96492743492	-7.06542730331	17.1685657501	32.5372924805	21.8375377655
5.71711397171	1.41945469379	-4.82558965683	18.7776908875	37.6329040527	20.010181427
5.11399173737	2.58197808266	-4.51850175858	20.3640232086	40.8838806152	19.5951576233
4.05248975754	2.95769405365	-7.43934774399	22.2931346893	42.4149513245	19.303483963
1.56162440777	8.43983268738	-35.2660865784	23.1533374786	43.2856025696	17.9524421692
2.84119868279	22.5046482086	-57.4198722839	23.0845890045	43.299987793	16.1840877533
2.03679251671	27.1079120636	-52.7671318054	22.7497215271	43.2361679077	14.997262001
2.03216862679	27.3563499451	-49.8697929382	21.9826107025	42.7313041687	13.4031066895
2.03323769569	25.8104286194	-50.1659622192	21.1373462677	42.2393684387	11.7796926498
1.52311813831	23.5550174713	-53.6306991577	19.8698596954	42.0553436279	10.8794851303
-0.789546251297	21.6943798065	-51.9933357239	18.8850879669	42.0244064331	10.1537885666
-4.23544120789	18.0732650757	-47.9085235596	18.8933315277	41.9037361145	9.70557594299
-5.34287834167	16.6724071503	-48.9572029114	19.0196228027	41.7506980896	9.70743560791
-5.97845315933	20.0943317413	-52.1845664978	18.7791976929	41.9557380676	9.79520511627
-2.10280418396	22.749174118	-42.8478813171	18.5348873138	42.0902442932	9.83783626556
4.77669382095	27.3929729462	-40.8454780579	18.1632633209	42.2324867249	9.85741519928
5.76660776138	32.7662849426	-44.4059638977	18.5043811798	42.7033729553	10.1777191162
4.97755289078	37.0266075134	-46.0932579041	19.420791626	43.4040908813	11.1851234436
4.47781991959	33.9296760559	-46.4856758118	19.7770557404	44.3608207703	11.8487129211
0.00862748734653	27.516462326	-49.3714179993	18.8072910309	45.5907325745	11.7071180344
-7.01955270767	18.1107215881	-52.3463554382	16.0370674133	47.2209625244	10.9165697098
-11.8124265671	9.6317653656	-51.964717865	13.327917099	48.627532959	10.4676380157
-11.4537715912	9.73603439331	-51.9853668213	14.8771009445	48.161605835	9.93080997467
-8.89783191681	12.8458127975	-52.0681800842	17.7717189789	47.4080467224	9.72872829437
-6.83004760742	15.6728897095	-50.9658889771	18.1398239136	46.1903495789	7.87837600708
-6.04322099686	16.8132019043	-49.5777206421	16.3892536163	44.436214447	3.83132481575
-6.77576112747	15.4520549774	-50.4187545776	13.5032777786	42.6481513977	-1.0706884861
-7.05864572525	14.5782203674	-51.4663162231	10.4729719162	41.7632064819	-5.48349952698
-6.77616357803	14.4102010727	-52.6642456055	7.488301754	40.644077301	-9.63035583496
-6.5363240242	14.8916320801	-54.660369873	7.31000375748	39.1899147034	-12.5548667908
-6.24800729752	16.2023773193	-57.1376800537	10.4281578064	37.5901107788	-13.8972969055
-5.96201515198	15.923869133	-56.9136314392	13.0202989578	35.1868476868	-14.6454286575
-5.96000862122	15.2211694717	-56.6613807678	12.8602705002	32.8084754944	-15.0099992752
-5.91921806335	15.9127264023	-57.8273200989	12.0525064468	30.6592235565	-14.7748708725
-1.17136871815	23.6992416382	-56.5621185303	12.2337341309	29.4335269928	-14.0854873657
-0.236446321011	30.3054828644	-48.9944725037	12.6907777786	29.7838535309	-12.9051818848
-0.330085277557	33.9403533936	-41.8938713074	13.4468698502	30.8954277039	-11.2981033325
0.921072006226	35.6304779053	-38.5199050903	14.2227973938	32.3699569702	-10.0449485779
-0.904869914055	37.9375267029	-41.0362281799	14.9157571793	34.0894355774	-8.43132591248
-2.39395046234	39.7138328552	-50.5972480774	15.3804779053	35.4184951782	-6.86097192764
-5.84091663361	37.7722129822	-52.3748550415	15.2631292343	35.88697052	-6.07675886154
-8.30986881256	36.6259002686	-48.9840507507	14.8813581467	36.4608154297	-5.54556655884
-6.67011499405	36.8939933777	-50.5216064453	14.9466943741	36.6051559448	-4.3788189888
-2.20548510551	36.9647102356	-49.3249778748	15.4421920776	36.540348053	-3.14985918999
-0.0868577733636	36.465763092	-50.6413269043	15.7992620468	35.7802772522	-2.06176519394
1.72252380848	33.9302101135	-47.1693115234	15.4632520676	35.5471496582	-1.24849569798
5.45035743713	23.570892334	-35.3667564392	14.817404747	36.1222419739	-0.391988903284
0.924162566662	4.47196006775	-13.08959198	14.7744855881	36.3879852295	0.717752873898
-14.2954053879	-4.42462873459	-6.69000911713	15.2137813568	36.3993110657	1.36514639854
-25.2354316711	0.840477347374	0.0110829444602	15.7606592178	36.9772529602	1.75683987141
-19.9024848938	11.2004451752	-16.9832439423	16.4691925049	37.8016738892	2.14907336235
-18.6300315857	21.7631378174	-33.9272880554	16.7469177246	38.1171760559	2.52028155327
-15.7421684265	33.8996658325	-46.5014381409	16.9436359406	38.6179656982	2.70694708824
-13.1238613129	39.2881584167	-48.2474937439	16.7535705566	39.0164680481	3.16987133026
-10.822057724	35.4170875549	-44.999370575	16.0973339081	39.6013755798	3.09304904938
-11.218337059	31.0613498688	-43.4436607361	15.8104057312	40.1931648254	3.07171916962
-8.72359371185	34.008392334	-41.2128982544	15.9375743866	40.5813865662	3.35793757439
-10.2662172318	44.0225372314	-47.2157897949	15.8528385162	40.4321784973	3.32779884338
-12.3488759995	47.4585037231	-51.1123390198	15.3757343292	40.1062507629	3.1783144474
-10.225982666	46.8114318848	-50.016242981	15.2473344803	39.5911064148	3.23893332481
-5.18161964417	35.9543838501	-39.8381004333	15.5164327621	37.6316108704	3.41362547874
-3.08035850525	17.9698257446	-27.4000148773	15.9707775116	35.1921615601	3.55625486374
1.46327972412	6.12988615036	-21.3056030273	16.3214664459	33.3264045715	3.68926262856
1.76881337166	-6.61082172394	-12.781498909	16.2357273102	32.3110923767	3.64376521111
2.41890287399	-7.20072078705	-18.0719051361	15.8859987259	31.4740200043	3.68468141556
1.91837894917	-7.21229124069	-21.7585258484	15.7450609207	29.8893852234	3.71789288521
0.692021965981	-5.13201856613	-23.1543979645	16.0468387604	28.4428443909	4.01115703583
-1.18121016026	5.09385347366	-20.6610984802	16.589094162	27.8453845978	4.29144096375
-3.32673621178	11.2923955917	-18.3735218048	16.8999824524	28.4819221497	4.53113222122
-6.3927822113	17.5589847565	-21.2317085266	16.8730945587	30.6613407135	4.94367694855
-8.93749332428	25.1915340424	-29.0163898468	16.5978794098	34.0497398376	5.62202692032
-11.0340242386	32.3809242249	-40.4688072205	16.188867569	37.644115448	6.83938360214
-9.5758190155	34.9742546082	-40.827747345	15.5503778458	39.5965270996	8.02496051788
-7.74488019943	33.8559379578	-38.3494567871	14.5459709167	40.6653137207	8.45487785339
-6.42129421234	30.8079128265	-34.7179031372	14.3299913406	41.2510871887	8.47410392761
-6.55966329575	26.3736534119	-31.3762359619	14.3734550476	41.4793319702	8.71153640747
-5.42871189117	23.8505172729	-27.8619308472	13.5230093002	41.8136940002	9.59411048889
-4.67526006699	23.3257446289	-27.176858902	12.6154232025	42.3868865967	18.3637657166
-3.8566095829	24.0305519104	-26.932975769	14.2051773071	43.0945053101	24.5961418152
-3.92386841774	24.7704753876	-25.9086017609	17.6201725006	44.0717163086	26.6413536072
-4.10079956055	24.7632198334	-25.3389835358	20.4836463928	44.9762878418	28.4856739044
-4.59459495544	24.6313476562	-25.0236682892	22.0646400452	45.6681480408	30.3457870483
-2.91024947166	24.419090271	-24.9649677277	22.969247818	46.5356063843	31.953584671
-3.49375534058	23.4764022827	-33.0595436096	24.9551277161	47.1473693848	33.8924369812
-8.78894519806	20.6625823975	-44.6281166077	26.6012973785	47.6137886047	35.9134559631
-9.62145423889	20.0449619293	-39.1851119995	26.619436264	48.3725891113	36.8908920288
-8.34787368774	24.3648109436	-34.3650932312	26.4556884766	48.8457756042	36.686870575
-6.13279914856	27.3754806519	-34.3290977478	27.8177337646	49.3068962097	37.1674728394
-5.03741788864	28.3485469818	-36.9231491089	29.3422470093	49.2729873657	37.3644485474
-4.63335895538	30.0508079529	-42.9274978638	29.5538196564	48.3612213135	36.1372566223
-3.73829436302	30.2989082336	-42.5479011536	28.0176868439	47.099029541	33.6421852112
-5.0949883461	29.0817871094	-43.3910713196	26.1778564453	46.6205749512	31.5688838959
-6.10634422302	28.613609314	-41.3561210632	25.5306873322	47.1815834045	31.3484134674
-7.04018878937	29.3020591736	-37.3370285034	26.1144943237	47.6579017639	32.6067314148
-6.78896522522	29.5587997437	-38.0862312317	26.8510093689	48.1183433533	33.588722229
-1.38481676579	33.8847198486	-42.6145744324	27.8767280579	48.3794364929	34.0624046326
0.174009606242	36.0806808472	-43.4241104126	28.4410495758	48.2497596741	34.208896637
0.302001297474	40.2006950378	-42.6983947754	27.868221283	47.9648780823	33.4130134583
-1.42193555832	34.1947822571	-42.0645370483	26.5323982239	47.3917579651	31.5105018616
-7.10153770447	24.1110839844	-43.0974235535	25.4005146027	46.6920509338	29.0005340576
-10.9285316467	19.5849628448	-44.4178161621	24.3135128021	46.1069526672	25.8137245178
-14.6486797333	20.3577747345	-45.0728149414	23.9675331116	46.7931671143	24.0658912659
-14.8833522797	26.1535148621	-45.4918823242	23.7264957428	47.3023262024	22.9745025635
-13.4093513489	31.582233429	-46.8622932434	24.0719032288	47.45677948	23.2452526093
-13.2260894775	34.0205345154	-47.700214386	24.2582893372	47.6150131226	23.6858959198
-12.8995752335	31.3846321106	-46.3047294617	23.6780586243	48.1061210632	23.8348846436
-16.665304184	27.2406806946	-50.7473106384	23.3352413177	48.4994239807	23.9395656586
-18.4446296692	26.1233863831	-48.3206214905	23.5884037018	48.8843345642	24.4476737976
-18.5037956238	27.7459964752	-48.0970726013	23.6891994476	48.9507331848	24.8503742218
-18.7614574432	28.7119312286	-48.9230880737	23.3000125885	49.3215446472	24.8655090332
-19.1857280731	29.3259754181	-48.8721427917	22.9692440033	49.421245575	24.7863426208
-18.8323726654	30.448474884	-50.9204521179	22.8689575195	49.3038902283	24.6498527527
-15.6056900024	33.1813774109	-49.0956764221	22.9140701294	49.0297355652	24.5295810699
-11.3890323639	35.6725463867	-47.3434867859	22.7741699219	48.5116233826	24.0356655121
-9.09143066406	37.5712852478	-46.2627182007	23.0653457642	48.106967926	23.7666187286
-7.99765396118	37.9758262634	-45.071472168	23.1191539764	47.7422828674	23.5158557892
-7.93194246292	37.4733695984	-45.2041816711	22.5819530487	47.5476837158	23.1173248291
-8.05123519897	37.635181427	-45.3755226135	22.2115440369	47.6225090027	23.1644248962
-8.57521343231	39.0372238159	-46.0288009644	21.7545280457	47.6131820679	23.0106506348
-7.69895029068	39.9150123596	-43.6989746094	21.1046085358	47.618938446	22.6271915436
-6.39338922501	41.0037765503	-41.0435943604	21.2184772491	47.778049469	22.6027469635
-4.72738552094	41.7609329224	-40.7615509033	21.6958122253	47.4984207153	22.7720050812
-4.11024904251	41.5804367065	-41.3130722046	21.5453491211	47.1526947021	22.5534610748
-4.86792898178	40.3035392761	-42.5291175842	21.0081882477	46.6520347595	21.9373245239
-6.33287811279	37.8928909302	-43.7015609741	20.9574756622	46.11743927	21.8836727142
-5.38500118256	35.1528320312	-40.2568054199	20.7868099213	45.8835525513	21.666425705
-4.89169120789	35.3358955383	-38.5493469238	20.848400116	46.0648040771	21.4491424561
-4.5691151619	37.9120559692	-35.4076118469	21.2873039246	46.3564453125	21.4617862701
-6.43928670883	40.0007400513	-36.5473976135	21.3847160339	46.280708313	21.4301280975
-8.06883525848	36.8703117371	-39.4873847961	20.6396331787	45.9020233154	20.8930435181
-12.5053119659	31.3673210144	-44.7189559937	20.0354156494	45.5913772583	20.4538383484
-15.1495800018	28.2229270935	-46.5701408386	19.4542388916	44.890663147	19.9808082581
-14.5303134918	30.1268920898	-47.0529403687	19.0302639008	44.6214523315	19.4924068451
-14.8484764099	31.0037403107	-47.3981132507	18.8345184326	44.1067466736	19.2152023315
-15.1280784607	31.2008857727	-47.9855537415	18.612247467	43.8514022827	19.0888748169
-14.3451118469	31.0364494324	-47.7548866272	17.9582691193	44.4715652466	18.7582397461
-14.5820055008	30.7922801971	-48.1121406555	16.5627651215	49.3131217957	19.9116764069
-14.5686511993	29.4940662384	-48.9247970581	18.5922679901	51.3804740906	25.9019889832
-13.963757515	29.6922035217	-49.2522888184	22.2817726135	50.3792648315	29.6061306
-14.0974340439	30.3247413635	-49.8566093445	23.7594146729	50.5205116272	30.5549259186
-13.9936656952	31.134979248	-50.735458374	24.1655731201	51.5697784424	31.0752239227
-14.1862535477	32.0383491516	-51.8147735596	24.6817264557	51.4644241333	32.0260620117
-13.3838968277	35.8446884155	-51.7068634033	25.9409179688	51.5007095337	33.6722145081
-6.60752391815	44.2341995239	-44.7593688965	26.0645923615	51.2198944092	33.5656242371
2.78957438469	51.3499031067	-43.2735862732	25.3595600128	50.8239898682	32.501159668
7.6656498909	52.4904823303	-43.4019088745	24.7908496857	50.3280105591	31.5188598633
8.98945713043	49.5163154602	-41.1620063782	23.6736240387	49.0936851501	29.676240921
7.7236738205	46.2244644165	-39.6675872803	22.0854167938	47.7672233582	27.3531475067
9.09227466583	44.4190139771	-36.0161323547	20.9443340302	47.1113891602	25.6256885529
10.3942937851	48.2439460754	-36.6490325928	19.9688911438	46.4086990356	23.9484214783
8.92367744446	48.6978263855	-37.6026725769	17.9078979492	44.7534790039	21.2690944672
6.2093462944	46.7859725952	-40.7317085266	15.8658304214	43.6316413879	18.1777000427
4.36521434784	46.0500717163	-44.3093032837	14.9810733795	42.7713279724	16.0773830414
4.07146120071	45.5702476501	-49.1357727051	15.5788192749	42.4432868958	15.7710113525
2.66952443123	43.9110641479	-50.5997009277	16.2189273834	42.9593276978	15.6669788361
0.0252791196108	37.8039054871	-46.3402175903	16.7312660217	44.2415122986	15.1360254288
-2.96145796776	31.1855564117	-42.5793151855	17.6351509094	46.2565574646	12.8613033295
-4.45338582993	31.1684627533	-44.3652458191	16.6599254608	47.0940933228	5.28928279877
-4.75165939331	32.3830223083	-45.9293708801	12.6687831879	47.3805618286	-3.47758388519
-4.55697774887	32.4928817749	-48.0592155457	7.20168399811	47.0761375427	-9.22672843933
-5.33245754242	32.1433906555	-50.8474845886	4.25453948975	46.0562705994	-13.1513547897
-4.95614433289	32.5542869568	-52.7829742432	5.43110799789	45.8714294434	-13.6445646286
-3.99375033379	33.4636001587	-53.3526802063	7.95561361313	45.0887260437	-12.4690008163
-3.70702314377	35.2628822327	-54.1299095154	10.3477478027	41.0940170288	-10.8647079468
-3.83837580681	34.5680999756	-54.8915748596	12.5444574356	34.4260292053	-8.73991775513
-4.39016723633	33.0191612244	-54.885559082	13.1779117584	29.8189563751	-7.44479894638
-4.63143539429	32.1446037292	-54.5689239502	13.1158943176	26.8714637756	-7.03118991852
-4.15938520432	32.6773338318	-54.4871063232	13.7320890427	24.0475597382	-6.09070253372
-3.89294528961	34.1334648132	-55.1094360352	15.0549659729	21.6975536346	-4.61367845535
-4.40449619293	35.8398208618	-58.2738990784	16.0944747925	22.3000068665	-3.61120939255
-4.15988397598	36.8856468201	-58.6285247803	16.1615257263	28.6438541412	-2.44657921791
-5.19841861725	35.71667099	-58.545841217	15.4098138809	35.3042869568	-1.56242728233
-6.42257022858	31.0721626282	-54.9545936584	14.367483139	36.482170105	-1.61837506294
-8.18122673035	29.9658241272	-55.3356323242	13.9870834351	37.3325920105	-1.34521830082
-8.86966705322	31.3990478516	-56.7701797485	14.3025531769	38.5354995728	-0.779522776604
-8.64793491364	34.3480033875	-57.6610527039	14.6139259338	38.9829788208	-0.361609607935
-8.36089324951	37.385635376	-57.6683502197	14.4294681549	38.8479804993	-0.241202116013
-9.2726354599	36.2630081177	-57.9919776917	13.8366699219	38.4096946716	0.0341090634465
-10.0985574722	33.9275169373	-58.108669281	13.3474264145	38.767829895	0.525433897972
-10.2801179886	33.6530380249	-58.1871986389	12.6927671432	39.6876068115	1.39674055576
-10.1271820068	33.5867004395	-58.0578613281	13.5208692551	43.2343711853	4.12170886993
-9.7721157074	32.5990562439	-58.7546234131	19.098772049	48.7198677063	15.0954780579
-9.11952590942	31.2012367249	-61.1672096252	23.5076808929	48.3829574585	27.8575286865
-8.40936851501	35.8028182983	-59.5607833862	22.8078269958	46.6941337585	25.9137172699
-7.99846506119	37.803981781	-58.1378936768	19.5407104492	46.5721893311	22.182762146
-7.7778096199	37.7086715698	-57.7271232605	19.5208911896	47.5829696655	22.6013946533
-8.93530750275	36.9333381653	-57.8931846619	20.4149341583	46.5654563904	23.5077762604
-10.3136491776	36.5851707458	-58.1031723022	21.7550868988	46.1093330383	24.7243213654
-10.9249563217	36.0864601135	-59.1812705994	22.2148609161	46.0798721313	25.2596740723
-13.0847787857	33.0517501831	-61.3837471008	22.8642711639	46.2532615662	25.3399448395
-12.4468126297	30.9398136139	-57.7450141907	23.0870704651	46.2490463257	24.7985172272
-6.87857437134	37.7700271606	-49.6069030762	23.008108139	46.4772148132	24.0401287079
-6.05201530457	42.313659668	-47.5433082581	22.7288570404	46.3256454468	23.2412033081
-7.93049001694	41.5104255676	-49.2026596069	22.1826477051	45.9902648926	22.6896038055
-8.46451759338	39.5037269592	-47.3909416199	21.9818725586	45.9370040894	22.345746994
-8.86505031586	35.8543319702	-51.9156188965	21.4132671356	46.0590744019	22.1284542084
-8.74883842468	35.119228363	-56.0686073303	21.2579994202	46.0797271729	22.3486232758
-8.91900539398	36.2937240601	-59.9179611206	20.5605754852	46.325553894	22.1246871948
-8.70979881287	38.9322242737	-59.9780731201	20.1627197266	46.667098999	21.8220100403
-6.40107870102	42.0648345947	-54.6977462769	19.8254508972	47.1646881104	21.3777256012
-8.01985931396	38.8966751099	-56.632270813	18.9665908813	48.3006973267	20.055437088
-9.61166286469	36.6321144104	-58.0704193115	18.4545173645	49.2823448181	19.5179042816
-8.22496891022	37.1937294006	-57.0468482971	18.4064483643	49.55286026	19.7241077423
-7.77815914154	37.1544075012	-57.1389122009	17.7717609406	47.6673545837	18.7931060791
-7.31028223038	37.9343795776	-56.9393806458	13.7661466599	44.128944397	13.5753850937
-7.37227344513	38.4399757385	-56.3702964783	-0.530702352524	39.068862915	-3.3197555542
-7.66585254669	38.0455474854	-56.9018287659	-9.55192470551	36.136932373	-15.6808366776
-7.71986532211	37.4648170471	-57.5611724854	-8.3276348114	38.4176597595	-20.6522045135
-7.67043066025	36.6250915527	-59.04088974	-0.879345297813	41.0468254089	-20.6078529358
-6.88908958435	36.0229949951	-61.3324508667	4.02796030045	41.3571586609	-20.8901557922
-4.99680757523	36.2304420471	-63.1043586731	3.71752333641	40.4081878662	-24.2718029022
-2.19735980034	37.1066246033	-64.0673599243	4.79859256744	38.0678405762	-26.1612243652
0.126376092434	38.6201438904	-63.7606086731	7.23913764954	33.5894432068	-26.0650672913
0.857505083084	38.3483200073	-63.3051567078	8.47339248657	28.5841712952	-24.8000907898
0.549285471439	36.8761100769	-62.9645881653	8.74864959717	24.3978328705	-22.7852916718
0.226489141583	35.680683136	-62.6060676575	8.9221906662	21.8422374725	-20.3807296753
-0.420027524233	34.9257545471	-62.2814483643	9.32929039001	20.1537685394	-18.4871807098
-0.956215918064	35.1969490051	-62.2569084167	9.65929317474	20.6096363068	-17.1905040741
-2.14526605606	36.6573295593	-62.8292579651	10.2608423233	24.939245224	-15.7809400558
-3.55679225922	37.2031440735	-61.6302642822	11.4696435928	27.3553962708	-12.6058673859
-4.15497493744	32.3285217285	-49.7640571594	11.9405517578	28.7669467926	-9.72036457062
-4.32175207138	28.9449577332	-39.3590393066	12.3872642517	30.6808185577	-7.46984100342
-3.68700742722	27.1650257111	-30.9228858948	12.5865764618	31.944316864	-5.29193258286
-6.10357189178	29.7937736511	-37.7228355408	12.570098877	32.9426689148	-3.52482485771
-9.58227157593	30.0255336761	-45.7513198853	12.4586324692	33.8048820496	-2.07747340202
-9.07970523834	32.3874855042	-40.5335464478	12.4120597839	34.6583518982	-1.5393409729
-7.89663648605	38.4638328552	-40.7178077698	12.8810167313	35.4764823914	-1.10753107071
-7.49401283264	44.3710098267	-42.4672203064	13.2919826508	36.6442337036	-0.480540335178
-7.40804624557	43.4135322571	-42.2785720825	13.4929046631	37.0807876587	0.499651104212
-4.28608322144	35.5355834961	-34.007358551	13.4786815643	37.3735046387	1.55735552311
0.707545220852	25.4758415222	-22.8257598877	13.5333557129	38.5454330444	2.36466002464
4.99460601807	15.4332132339	-10.5858221054	13.6558198929	38.9963302612	3.14111113548
6.21813488007	14.9608211517	-14.3860492706	13.8489542007	39.1234970093	3.52800226212
8.07113552094	16.0118751526	-2.4831404686	14.260134697	39.5233573914	3.97852444649
4.44058799744	14.1619138718	6.31120109558	14.2070484161	40.3460617065	4.36833047867
3.60186839104	21.3477134705	-11.3221721649	14.1252746582	41.0446357727	4.50761795044
0.511878848076	24.6094875336	-8.38826274872	14.6448116302	41.5176887512	4.79318714142
0.411346673965	24.9906921387	-10.9173936844	14.6086063385	41.7490577698	5.06829357147
-0.330985277891	24.4133605957	-10.4616861343	14.0334177017	41.8726806641	5.29029893875
-1.0318363905	24.3535137177	-10.5871458054	12.5863208771	42.5541725159	6.64801549911
-0.302050888538	25.0097789764	-10.6086397171	10.4962120056	43.0022087097	9.93494701385
0.419727027416	25.9413146973	-9.55226612091	10.1470909119	43.26404953	11.8725423813
0.374811977148	26.5637550354	-9.10931873322	10.7630300522	42.9697494507	13.4099655151
0.311757981777	26.6905059814	-8.40446949005	11.3673639297	42.119052887	14.101568222
-0.0290893316269	26.2745780945	-8.11120223999	11.9999666214	41.0401725769	13.7230100632
-0.443368732929	25.6968212128	-8.28493499756	12.9535160065	39.8058853149	13.4616422653
-0.830862462521	25.6825656891	-8.16886520386	14.090880394	38.8606529236	13.2811546326
-0.377907454967	25.9388980865	-7.17923879623	15.5330467224	38.0010108948	12.8295316696
1.12640631199	25.7988071442	-5.67059183121	17.0595912933	37.4282646179	12.7093400955
2.39828395844	23.9207229614	-5.85360145569	17.5808677673	37.038143158	12.8442602158
3.55727219582	22.8517246246	-5.90108346939	18.0118484497	37.3197822571	13.0181179047
3.99354743958	23.0849475861	-5.63968896866	18.878818512	38.3890571594	13.7678585052
4.08233451843	23.392747879	-4.67279911041	18.7106437683	38.9668769836	14.6948413849
4.76191091537	23.0978717804	-3.37670016289	18.348493576	39.0976638794	14.8410081863
5.29135131836	22.5200996399	-3.69487571716	18.844165802	38.9005699158	15.1706485748
5.91908836365	22.310005188	-4.64176702499	19.2325592041	38.8973884583	15.4848957062
5.39417171478	24.4353866577	-5.91088056564	19.3314437866	39.2175827026	15.5005941391
4.63173151016	26.4657020569	-6.04218578339	19.5868091583	39.6817550659	15.6450948715
4.8909368515	27.329990387	-5.22031641006	20.0315341949	40.0261764526	15.7678508759
6.26758670807	26.6674194336	-5.16467809677	20.7950191498	40.2150039673	15.6706886292
8.09387397766	25.0906352997	-5.87482309341	21.543636322	40.0231018066	15.1623163223
8.94359016418	23.8309707642	-6.93416309357	21.9859924316	39.6593093872	14.8018684387
9.8553609848	23.5667629242	-6.8631939888	22.298418045	39.4755554199	14.6480398178
10.5240364075	23.7534008026	-6.50767946243	22.6269645691	39.5209693909	14.4906635284
10.6691303253	23.5779800415	-6.67170763016	22.7115249634	39.4546089172	14.6371335983
11.1044368744	23.5336532593	-6.45499134064	22.8018035889	39.2238502502	14.5663204193
11.5055150986	23.511428833	-6.10027217865	23.0063247681	39.0969581604	14.5696525574
11.4022159576	23.543598175	-5.68508863449	23.14884758	39.2553901672	14.8315734863
10.9559545517	23.5598583221	-5.54496860504	23.1342582703	39.3865470886	15.0635623932
10.3898868561	23.5084209442	-5.66964435577	23.0250072479	39.2819442749	15.1122875214
9.70616340637	23.9644374847	-5.93207836151	23.1667957306	39.5915641785	15.2843027115
8.3453836441	25.390007019	-6.49195432663	23.2468967438	39.6411361694	15.4178314209
7.49967670441	26.3244819641	-6.1002035141	23.2736492157	39.3887672424	15.3866176605
7.68294000626	25.8176498413	-5.46534347534	23.4697341919	39.2985725403	15.5620985031
8.09688472748	25.4961032867	-5.39105081558	23.6976470947	39.522644043	15.5717964172
8.3616361618	25.7297954559	-5.03781509399	24.1648159027	39.6506500244	15.7384881973
8.40224647522	25.8161754608	-4.9742975235	24.0259742737	39.7634468079	15.7145462036
8.71771907806	25.4816932678	-5.31879806519	23.7466526031	39.5340957642	15.6519269943
9.63289642334	26.4896469116	-6.1900343895	23.6656494141	39.2596511841	15.5187015533
8.79159545898	30.6117420197	-8.41297149658	23.8350811005	39.4603424072	15.7148990631
8.39740848541	31.5400333405	-6.60956716537	23.3857212067	39.7723617554	15.9118041992
7.77337789536	31.5821304321	-6.74577665329	23.119146347	39.972366333	15.8130168915
8.11602020264	30.7997741699	-5.77218484879	23.6789779663	39.8920860291	15.6780281067
8.78483200073	29.370885849	-5.1884894371	24.7654876709	39.4260635376	15.8056364059
8.47080612183	28.1165065765	-6.22082090378	25.0461540222	39.0614738464	15.4900760651
8.51324939728	27.7952575684	-6.52026844025	24.9159450531	39.1024627686	14.9425554276
8.54227256775	28.0555419922	-6.46080112457	25.3937454224	39.1764221191	14.8276176453
8.16878414154	28.0299835205	-6.98145198822	25.8592090607	39.1124000549	14.5661239624
7.76159334183	27.34416008	-7.26078557968	25.7694168091	38.7709693909	13.8190393448
7.61251783371	26.0526351929	-7.56450080872	25.4870891571	38.6979942322	13.6736450195
7.43156719208	25.2779865265	-7.65160894394	24.8896808624	38.6045875549	13.6767940521
7.38904428482	24.9977054596	-7.47308444977	24.1340274811	38.41847229	13.3905057907
7.18110322952	24.1200313568	-6.59662151337	23.6072654724	38.1692695618	13.0560693741
6.90783119202	22.8001155853	-5.89566087723	23.8378429413	37.9920806885	13.1515779495
7.34647989273	21.7949848175	-5.91845226288	24.2355327606	38.0849952698	13.4362268448
8.60286521912	22.8143405914	-6.25010681152	24.6627292633	38.4985275269	13.5876178741
7.69650936127	25.0998191833	-7.91223096848	24.982465744	38.8726806641	13.7719697952
7.30850315094	26.6606636047	-8.05504322052	24.9503726959	39.4327354431	13.6683988571
7.1350274086	27.2225532532	-8.06193256378	25.0912818909	39.4655189514	13.4344978333
