0.0	-0.0	144.745361328	-129.812835693	84.1117248535	159.110641479
0.0	-0.0	143.958679199	-129.725234985	84.3554382324	159.663024902
0.0	-0.0	139.89781189	-130.442047119	84.0186233521	160.425460815
0.0	-0.0	120.803825378	47.6764450073	87.1189346313	-16.526227951
0.0	-0.0	104.476211548	42.26927948	65.6215209961	-12.0247077942
0.0	-0.0	112.801185608	41.3657989502	53.9314117432	-11.2376699448
0.0	-0.0	109.729553223	45.6699180603	41.7355613708	-13.0739660263
0.0	-0.0	87.2836837769	49.8239250183	30.819360733	-15.2364587784
0.0	-0.0	68.0985870361	48.6439361572	21.0594558716	-14.4377155304
0.0	-0.0	66.9903793335	47.3298301697	17.3605060577	-14.364197731
0.0	-0.0	67.6876449585	46.109992981	23.0961284637	-13.7025823593
0.0	-0.0	70.3819274902	45.9035224915	28.2057857513	-13.5522918701
0.0	-0.0	75.2100906372	42.089630127	32.6781578064	-10.5945549011
0.0	-0.0	84.6000213623	38.0409660339	36.1873474121	-6.8648352623
0.0	-0.0	76.3882598877	38.498714447	37.2971572876	-5.20042657852
0.0	-0.0	48.8461151123	40.0579109192	36.3170585632	-4.33972072601
0.0	-0.0	46.7873878479	40.6762962341	35.8048706055	-3.3294942379
0.0	-0.0	45.6699714661	40.7434844971	36.6404533386	-1.65270149708
0.0	-0.0	10.9914398193	40.9282646179	37.4448623657	-0.108919642866
0.0	0.0	-0.15429353714	40.2971115112	38.3622741699	1.89492845535
0.0	-0.0	34.405216217	38.6692619324	42.5760650635	4.39132452011
0.0	-0.0	79.7974395752	37.8384742737	45.0270271301	5.26297807693
0.0	-0.0	67.2205581665	36.9624786377	44.0249061584	4.98629236221
0.0	-0.0	55.109703064	37.5568885803	43.0913200378	5.23735952377
0.0	-0.0	61.7084922791	37.8563919067	40.3317565918	5.8710975647
0.0	-0.0	70.4088058472	36.0481452942	38.4526405334	8.35220050812
0.0	-0.0	38.2613487244	33.3995475769	40.5056686401	11.5530118942
0.0	-0.0	13.1471853256	33.1980476379	44.9085159302	13.9691028595
0.0	-0.0	40.6260948181	31.2879562378	46.4690475464	19.0184001923
0.0	-0.0	58.8983345032	28.7376594543	49.0777168274	23.307849884
0.0	-0.0	24.6912231445	29.5304889679	52.2166519165	23.1656455994
0.0	0.0	-1.00915169716	31.9361915588	56.1835021973	22.0377407074
0.0	-0.0	58.0991172791	31.5097389221	58.874584198	23.0345401764
0.0	-0.0	75.4845581055	32.6819458008	59.7339172363	22.3224544525
0.0	-0.0	28.3283214569	36.2000007629	61.0976257324	19.3166866302
0.0	-0.0	1.24247908592	39.0030632019	60.1797866821	17.2341461182
0.0	-0.0	12.5262041092	39.2928543091	57.1037864685	16.5533161163
0.0	-0.0	46.8948707581	39.5949554443	54.0516738892	14.9180469513
0.0	-0.0	70.4001998901	42.2743682861	52.0968284607	12.8127498627
0.0	-0.0	69.0551681519	44.8742637634	47.0926551819	11.842502594
0.0	-0.0	47.7353744507	45.5114021301	39.9645652771	11.1740121841
0.0	-0.0	46.4254074097	45.2333374023	34.369594574	11.3958311081
0.0	-0.0	73.3176269531	45.0549545288	30.932056427	10.9251708984
0.0	-0.0	44.137802124	43.9613304138	31.2933139801	10.694981575
0.0	-0.0	1.19501852989	42.1907615662	35.1053543091	11.636631012
0.0	-0.0	0.472947180271	41.3656806946	40.2915992737	11.6416168213
0.0	-0.0	13.9982814789	42.1824531555	45.7900276184	10.9956254959
0.0	-0.0	10.2015190125	43.5570983887	52.8448410034	9.55692386627
0.0	-0.0	20.8887786865	43.7534828186	65.4962387085	7.91361284256
0.0	-0.0	28.7997989655	41.9670906067	88.3627243042	8.71947097778
0.0	-0.0	20.8344650269	-143.575027466	71.3932647705	-170.252914429
0.0	-0.0	19.1852092743	-149.816604614	64.8533325195	-172.321151733
0.0	-0.0	15.9232320786	-152.114318848	76.5989456177	-175.663772583
0.0	-0.0	15.1446847916	28.5136547089	85.0333480835	1.08624374866
0.0	-0.0	15.9212388992	30.6270561218	60.2022628784	0.729387879372
0.0	-0.0	16.6321907043	32.6568489075	36.3585472107	1.70178365707
0.0	-0.0	17.4226551056	35.176399231	26.7561473846	1.49083399773
0.0	-0.0	20.4522075653	38.3823471069	29.7155418396	0.0924189314246
0.0	-0.0	24.834815979	36.7745895386	31.9264297485	3.10112285614
0.0	-0.0	31.1465187073	24.5457401276	30.3975868225	13.2335987091
0.0	-0.0	35.3847999573	16.1478481293	31.215587616	18.0974655151
0.0	-0.0	39.9912376404	24.5658187866	37.4019584656	13.8815479279
0.0	-0.0	42.1336784363	28.3932800293	37.2951583862	12.4789113998
0.0	-0.0	40.1291503906	30.6667327881	34.8032798767	8.90304374695
0.0	-0.0	35.1740036011	40.8934059143	38.3644142151	4.24385070801
0.0	-0.0	35.9560279846	46.0896911621	43.4454879761	4.77316045761
0.0	-0.0	38.3877487183	43.2931632996	47.8341636658	7.21537160873
0.0	-0.0	38.2787895203	43.1138114929	49.3666992188	6.10684013367
0.0	-0.0	37.5491447449	45.2058677673	55.4207801819	4.65586948395
0.0	-0.0	34.6695785522	46.3671875	66.9496765137	5.21632862091
0.0	-0.0	23.0285129547	45.4376831055	74.8062515259	6.69642353058
0.0	-0.0	10.490149498	44.4267654419	74.9342193604	6.11259746552
0.0	-0.0	141.517074585	44.0924072266	74.1220321655	5.35620594025
0.0	-0.0	162.295028687	43.426700592	74.9890136719	4.63859558105
0.0	-0.0	165.266525269	43.4735641479	76.469833374	4.25151729584
0.0	-0.0	165.563613892	43.5850753784	80.7333526611	3.77296638489
0.0	-0.0	167.774627686	44.1512298584	84.2111968994	2.37033009529
0.0	-0.0	165.332992554	46.0175743103	80.6650848389	1.09731805325
0.0	-0.0	163.949737549	47.7993774414	71.2432403564	-1.25686585903
0.0	-0.0	166.832931519	49.6024627686	59.0452537537	-2.97313022614
0.0	-0.0	168.634521484	48.4433822632	48.8249015808	-1.78951704502
0.0	-0.0	168.654632568	45.9013824463	43.0490570068	-1.30650997162
0.0	-0.0	166.801513672	43.8055534363	39.2213363647	-0.504089176655
0.0	-0.0	170.449157715	42.2866897583	37.927936554	0.945024430752
0.0	-0.0	175.082504272	42.2440109253	38.120464325	1.17694628239
0.0	-0.0	171.297012329	42.8921127319	37.504776001	1.36954188347
0.0	-0.0	169.583984375	43.7686004639	37.7553100586	1.75320589542
0.0	-0.0	174.244842529	43.952255249	39.9022140503	2.21000266075
0.0	-0.0	179.28666687	43.3851890564	42.0816497803	2.36518359184
0.0	-0.0	-179.475875854	42.5007972717	43.7049217224	3.44013118744
0.0	-0.0	174.636474609	34.2340164185	47.2312889099	5.01611804962
0.0	-0.0	172.116241455	8.03101921082	51.5297889709	-0.0290334392339
0.0	-0.0	172.34664917	-15.4328212738	50.6332168579	-7.04731941223
0.0	-0.0	172.958023071	-11.7115631104	41.421546936	-13.730471611
0.0	-0.0	169.133041382	7.53630065918	31.610868454	-18.0644874573
0.0	-0.0	165.005187988	21.2093791962	20.0674743652	-19.3213653564
0.0	-0.0	162.216384888	35.8187904358	13.2300291061	-22.5993080139
0.0	-0.0	163.051879883	52.720375061	15.8471889496	-24.4223365784
0.0	-0.0	164.908279419	63.3927650452	19.1923084259	-25.4695663452
0.0	-0.0	166.003189087	67.2395477295	27.0457248688	-25.2366580963
0.0	-0.0	162.724533081	68.0229721069	35.3923988342	-24.8174247742
0.0	-0.0	159.474487305	65.5284729004	47.371295929	-27.7377853394
0.0	-0.0	158.755096436	57.4414138794	62.7090682983	-36.5992088318
0.0	-0.0	157.244812012	41.8296394348	73.3330917358	-48.0217819214
0.0	-0.0	155.070281982	26.6622333527	75.4690322876	-58.329246521
0.0	-0.0	140.515213013	19.1731052399	74.545425415	-66.9174041748
0.0	-0.0	99.9624710083	20.162405014	75.4967575073	-74.4989013672
0.0	-0.0	36.1796035767	25.7557926178	75.8082809448	-76.4865264893
0.0	-0.0	42.995098114	27.0715637207	70.4506454468	-73.7927627563
0.0	-0.0	44.0946083069	24.8456268311	61.635723114	-69.2315979004
0.0	-0.0	54.213558197	18.2847976685	50.5150680542	-57.0636444092
0.0	-0.0	64.5178833008	11.3354463577	40.0676994324	-42.3896598816
0.0	-0.0	66.0234680176	14.444770813	36.7452392578	-34.7595748901
0.0	-0.0	68.8526535034	18.5292301178	36.7543182373	-30.7588882446
0.0	-0.0	72.0399246216	14.8911619186	37.3790054321	-23.520942688
0.0	-0.0	72.4765167236	6.63870859146	38.4913749695	-14.2935752869
0.0	-0.0	71.6567001343	7.55669784546	38.662776947	-12.7576570511
0.0	-0.0	71.6076965332	15.8090705872	35.5015068054	-19.5104255676
0.0	-0.0	70.075881958	19.9652748108	31.0345630646	-22.7550754547
0.0	-0.0	69.0663909912	21.0008277893	28.2834663391	-23.1174354553
0.0	-0.0	68.5973434448	22.6790981293	27.6412754059	-25.8070964813
0.0	-0.0	69.9086456299	25.3052272797	28.0639343262	-28.0386657715
0.0	-0.0	72.2573776245	25.4922599792	32.4946594238	-25.9439220428
0.0	-0.0	72.4925308228	21.9746627808	41.7196350098	-20.1189155579
0.0	-0.0	74.0737457275	20.580488205	47.7969398499	-16.4006538391
0.0	-0.0	76.7444152832	22.4492149353	47.6090354919	-16.1005725861
0.0	-0.0	78.5479278564	25.163974762	44.3301506042	-14.5750217438
0.0	-0.0	83.3132324219	27.5284824371	29.3760890961	-13.770324707
0.0	-0.0	82.2317657471	28.8629817963	18.6023902893	-12.5125703812
0.0	-0.0	77.0181503296	36.4541397095	15.8048620224	-14.994134903
0.0	-0.0	70.9341201782	47.5372390747	19.0964927673	-19.4763584137
0.0	-0.0	72.8030319214	47.7475318909	25.8792877197	-19.1340370178
0.0	-0.0	72.9127349854	41.0733947754	32.3583030701	-17.4489269257
0.0	-0.0	68.8358535767	38.8753738403	33.4668617249	-17.8383960724
0.0	-0.0	71.2413711548	40.341293335	30.289182663	-20.3320159912
0.0	-0.0	74.1652069092	42.113658905	29.0948162079	-21.8178939819
0.0	-0.0	85.5567092896	36.7132797241	35.299659729	-18.5431842804
0.0	-0.0	93.0229949951	31.5077400208	44.0290679932	-15.6265497208
0.0	-0.0	98.8112640381	32.694480896	47.2287216187	-16.2055931091
0.0	-0.0	102.534866333	33.3279190063	47.2861595154	-15.8701257706
0.0	-0.0	116.746810913	32.1468658447	46.7966346741	-14.5527544022
0.0	-0.0	96.6471405029	33.1322593689	45.1811637878	-14.9745550156
0.0	-0.0	37.1008605957	36.6753196716	42.4959487915	-17.1375751495
0.0	0.0	-7.38751745224	38.3130607605	40.3057250977	-18.0288028717
0.0	-0.0	12.3083944321	37.1857528687	40.4900131226	-16.4549045563
0.0	-0.0	144.335693359	36.7592849731	41.8614845276	-16.7582988739
0.0	-0.0	136.815063477	34.8476638794	43.8309745789	-16.2408695221
0.0	-0.0	119.976982117	34.0708656311	44.7800292969	-14.9721632004
0.0	-0.0	154.609771729	33.2277603149	44.5256843567	-13.2037668228
0.0	-0.0	150.572784424	32.0995140076	44.4209480286	-10.5624856949
0.0	-0.0	24.7459373474	32.2531814575	44.8747711182	-7.96964550018
0.0	-0.0	-133.643478394	32.9976005554	43.7918548584	-5.48948097229
0.0	-0.0	-154.500961304	33.6858901978	42.0075912476	-3.48935890198
0.0	-0.0	116.223678589	34.0000267029	43.5260276794	-1.25544726849
0.0	-0.0	133.925262451	34.7125778198	44.2605361938	0.00618396745995
0.0	-0.0	170.588409424	34.9361724854	46.0766792297	0.217554852366
0.0	-0.0	87.1437988281	35.6636886597	46.4542770386	1.56020927429
0.0	-0.0	69.5861587524	36.1629676819	47.6578063965	1.84004807472
0.0	-0.0	86.1598434448	36.6979560852	47.703212738	2.62920403481
0.0	-0.0	123.632888794	35.2107162476	48.9393844604	2.70916056633
0.0	-0.0	115.48916626	35.2592353821	49.7769012451	3.2597784996
0.0	-0.0	89.5647659302	36.1655273438	51.4319267273	2.60034108162
0.0	-0.0	77.1702194214	39.1652412415	52.5563926697	1.74217629433
0.0	-0.0	81.4690322876	41.570980072	54.3608627319	2.03312373161
0.0	-0.0	80.9540863037	41.3366699219	58.0709190369	2.83946228027
0.0	-0.0	85.0822677612	40.9139633179	60.3021202087	4.41041994095
0.0	-0.0	106.713661194	40.5141487122	62.0222816467	3.86913728714
0.0	-0.0	93.3517532349	40.4294166565	63.400188446	3.01296448708
0.0	-0.0	24.4431476593	41.0049514771	62.8882026672	2.83738684654
0.0	-0.0	53.7469596863	40.346244812	61.6350402832	2.6557097435
0.0	-0.0	80.7757034302	38.8076400757	60.7863998413	2.60993027687
0.0	-0.0	84.7703857422	39.2669219971	57.4358825684	1.36755740643
0.0	-0.0	90.9963226318	40.2010993958	49.2318344116	0.254844278097
0.0	-0.0	120.140075684	41.4730110168	39.061870575	-0.632426083088
0.0	-0.0	132.066604614	42.0653266907	30.2647018433	0.006136554759
0.0	-0.0	122.248474121	43.2686386108	20.6820335388	-1.09322178364
0.0	-0.0	108.859359741	45.9700164795	12.6556282043	-4.27169036865
0.0	-0.0	100.316474915	53.4846458435	11.9403133392	-11.3570680618
