0.0	-0.0	145.382293701	-140.403274536	80.4997177124	149.179855347
0.0	-0.0	145.516555786	-140.699127197	80.5160064697	149.455322266
0.0	-0.0	144.653991699	-140.867782593	80.0111541748	149.281677246
0.0	-0.0	133.261886597	-142.003875732	78.1074066162	150.144256592
0.0	-0.0	115.331245422	-149.793746948	77.2063751221	152.548492432
0.0	-0.0	122.890075684	-164.519470215	78.5312042236	155.765579224
0.0	-0.0	122.956504822	176.675445557	80.3075866699	159.508926392
0.0	-0.0	117.527992249	160.063018799	82.63331604	163.195465088
0.0	-0.0	118.237281799	149.006378174	84.0047073364	166.243637085
0.0	-0.0	119.538871765	141.780014038	83.0354537964	169.127182007
0.0	-0.0	127.520805359	138.575668335	81.3232650757	171.489715576
0.0	-0.0	132.832626343	138.408416748	79.9669494629	172.02923584
0.0	-0.0	134.110961914	138.764678955	77.7181396484	173.221420288
0.0	-0.0	132.36932373	138.058334351	76.2447662354	174.677825928
0.0	-0.0	127.121826172	137.596572876	77.0407714844	175.864105225
0.0	-0.0	128.491592407	137.715164185	77.2914428711	176.963119507
0.0	-0.0	131.282989502	139.351379395	77.9725265503	177.639938354
0.0	-0.0	135.110351562	140.570953369	79.7506256104	178.458374023
0.0	-0.0	133.141021729	142.735061646	81.6690216064	179.867660522
0.0	-0.0	112.867004395	146.516799927	82.8797149658	-178.325424194
0.0	-0.0	95.8746185303	149.974639893	82.3839111328	-178.326217651
0.0	-0.0	91.1876220703	151.902374268	82.0948104858	-179.438995361
0.0	-0.0	86.845123291	152.247650146	82.7091751099	-178.989440918
0.0	-0.0	81.0625839233	151.584335327	84.0775680542	-177.290786743
