Participant: 9933

Trial	Condition	Time
0		3			4.3946
1		3			41.7042
2		0			1.5653
3		5			6.4296
4		5			5.1274
5		5			3.8749
6		6			5.5746
7		2			2.9756
8		2			2.8636
9		5			0.9656
10		6			1.4544
11		2			1.5292
12		1			2.454
13		1			3.0868
14		3			6.1632
15		6			1.6195
16		6			1.1985
17		3			1.7402
18		3			1.7318
19		4			1.7208
20		6			2.6541
21		2			1.787
22		0			2.8958
23		5			1.1431
24		2			4.0524
25		2			4.6833
26		2			2.1313
27		5			1.1544
28		6			3.6976
29		2			1.565
30		4			2.7534
31		5			0.9096
32		2			2.0177
33		3			1.5425
34		0			5.0085
35		3			7.418
36		5			3.9949
37		2			9.1507
38		6			5.3078
39		4			1.3319
40		0			1.3873
41		3			1.3094
42		1			1.2431
43		5			2.1983
44		4			1.6873
45		1			0.9543
46		5			1.196
47		1			1.2207
48		6			1.8983
49		2			2.898
