-94.4171600342	-43.1861953735	139.117507935	5.41152620316	0.0538534112275	0.273004412651
-93.7053756714	-43.5969009399	138.958786011	5.81811714172	0.143842309713	0.381868153811
-93.2648391724	-44.0372695923	138.638671875	6.35397195816	0.407192349434	0.279523909092
-93.2650909424	-44.1389923096	137.850784302	6.519510746	1.1311365366	0.304794281721
-92.9639205933	-42.6144256592	128.824951172	6.02537441254	3.22753620148	0.910303652287
-93.1083068848	-36.1787528992	116.346702576	5.07502126694	6.40617227554	1.64082074165
-94.4916229248	-34.2089538574	103.832855225	4.38574743271	8.97887992859	2.15702462196
-95.5029067993	-39.7012405396	87.7091293335	3.88610601425	11.2053880692	2.5612988472
-100.008590698	-45.494720459	76.6748580933	3.2080283165	13.4021444321	3.11907029152
-102.487564087	-49.6769943237	66.7767562866	2.16428995132	14.8299455643	3.28631544113
-103.364074707	-52.9652442932	59.0433387756	1.1037607193	15.6644802094	3.23356127739
-102.380409241	-56.7863197327	53.9981498718	0.148881018162	16.1439647675	3.30792999268
-94.2051239014	-53.4956359863	56.2647514343	-0.767366528511	16.4536628723	3.4484462738
-90.7141647339	-38.5447807312	69.0020751953	-1.63244354725	16.7942810059	3.53452086449
-94.9900970459	-25.6403388977	83.8056411743	-2.47704291344	17.1760101318	3.50384426117
-96.1314544678	-18.5237388611	90.1696395874	-3.03126454353	17.7149963379	3.44938921928
-94.5224609375	-12.8535356522	94.0414962769	-3.03718161583	18.3999671936	3.65077543259
-93.8838348389	-8.91867828369	93.2575531006	-2.9686331749	19.0142154694	3.82407903671
-93.1006164551	-4.43865919113	95.4634170532	-2.83280396461	19.6161327362	4.00936126709
-92.9813690186	-3.26813077927	106.261619568	-2.8668782711	20.0853004456	4.18281698227
-89.3714141846	-17.8632030487	101.213645935	-3.10196471214	20.4641971588	4.26432657242
-78.5758895874	-42.1855201721	67.9259719849	-3.17092442513	20.8040618896	4.26552772522
-77.5199890137	-45.7230529785	56.3499717712	-3.34821581841	21.1846466064	4.09578323364
-71.4866333008	-50.7201805115	42.5093040466	-3.03502416611	21.2473831177	4.30575227737
-73.1199493408	-55.6076698303	41.2071228027	-3.16528487206	21.053735733	4.4712677002
-88.9993743896	-40.8613128662	73.8384552002	-3.51129508018	21.126367569	4.50793457031
-96.4621047974	-24.945980072	88.8906555176	-3.54518461227	21.1474876404	4.73712825775
-97.8145751953	-13.5773000717	95.4213104248	-3.74448037148	20.9967460632	4.55300140381
-98.7835922241	-5.74977493286	98.3535766602	-3.64931035042	21.1787147522	4.30740690231
-100.708259583	-8.6606464386	89.3427352905	-3.34253025055	21.3637485504	4.28169775009
-99.3836593628	-18.4620170593	71.088508606	-3.42586421967	21.6843032837	4.26167297363
-97.6477127075	-25.795419693	59.7085533142	-3.58784770966	22.3113956451	4.27944421768
-95.8194885254	-29.7449703217	49.5892105103	-3.30243635178	22.5298881531	4.09427118301
-91.5656204224	-28.0513343811	41.2253761292	-2.96748924255	22.641544342	3.90321421623
-86.5337982178	-28.8108959198	31.8536872864	-2.77662587166	22.6780700684	3.84891724586
-82.4781112671	-31.6715221405	23.3444347382	-2.86173510551	22.5515804291	3.75784659386
-88.3486404419	-25.3820838928	49.2080802917	-3.28656840324	22.6317005157	3.77303195
-93.322052002	-13.650847435	69.2571182251	-3.37567663193	22.8114967346	3.70189523697
-98.6200637817	-11.9826774597	82.4800643921	-5.87203788757	23.1589279175	2.5163064003
-98.6652679443	-10.6530199051	88.0129241943	-13.9310331345	24.2600517273	-0.213618189096
-97.4330749512	-11.7462892532	88.5256958008	-18.327205658	26.1307086945	-0.709075570107
-95.775604248	-11.7708673477	87.8768081665	-17.5677051544	26.7694969177	-0.0847051143646
-88.9455184937	-12.5559673309	83.4511871338	-14.2786216736	26.0310173035	1.07479357719
-84.6995849609	-12.5252904892	76.692024231	-10.8298883438	26.7546634674	2.29256105423
-81.3283462524	-10.6899366379	71.945602417	-8.14055252075	29.4818267822	3.32092928886
-77.959197998	-9.29075813293	68.1707000732	-5.97860860825	31.2149353027	4.05036115646
-73.4713821411	-7.48650455475	65.1826095581	-3.80093383789	31.586769104	4.46287584305
-69.5804824829	-5.7812204361	62.688583374	-1.62767672539	32.3450088501	4.78410577774
-65.1649703979	-3.76309585571	60.7696075439	0.534147381783	33.3742980957	5.240711689
-63.2599182129	-0.489427238703	58.6846885681	2.6102206707	34.5085334778	5.62660932541
-63.2417297363	1.4703233242	56.4565658569	3.39605784416	35.5680236816	5.33367967606
-64.2179336548	2.27771854401	52.4654922485	3.28972887993	36.3205757141	4.79741477966
-63.1077194214	2.26858854294	54.2567558289	3.32737612724	35.1171340942	4.36641263962
