0.0	-0.0	132.862594604	-130.065933228	82.584312439	171.814926147
0.0	-0.0	132.77305603	-130.271530151	82.5568237305	172.347183228
0.0	-0.0	132.565917969	-130.409851074	82.611038208	172.53314209
0.0	-0.0	129.393066406	-127.995956421	80.5437698364	172.123657227
0.0	-0.0	113.450469971	-117.666130066	74.93334198	172.477844238
0.0	-0.0	104.912490845	-105.507301331	69.3200531006	173.129623413
0.0	-0.0	101.094024658	-94.6979446411	65.426940918	173.656234741
0.0	-0.0	97.9605865479	-84.6371688843	61.4902496338	173.843399048
