0.0	-0.0	137.933441162	69.0244369507	89.7424087524	-0.412274926901
0.0	-0.0	137.943252563	68.9925003052	89.6759262085	-0.414960831404
0.0	-0.0	138.018508911	-111.237640381	89.8496398926	179.695831299
0.0	-0.0	136.598480225	-109.799507141	88.7941741943	179.242050171
0.0	-0.0	122.273010254	-104.072341919	87.9643707275	177.89175415
0.0	-0.0	106.847991943	-92.912071228	87.7378005981	176.560058594
0.0	-0.0	93.6336898804	-79.9825439453	88.2274551392	175.569259644
0.0	-0.0	84.4655227661	-70.3363800049	88.9269638062	173.898193359
0.0	-0.0	76.6584854126	-65.4378204346	88.3873901367	173.180511475
0.0	-0.0	74.0710372925	-65.4608688354	87.6958999634	173.418670654
0.0	-0.0	70.900138855	-66.4976425171	87.2381973267	173.610275269
0.0	-0.0	63.8702545166	-67.0633468628	88.6528320312	173.972091675
0.0	-0.0	72.9203414917	110.9973526	89.4683609009	-5.29241943359
