0.0	-0.0	133.149871826	-124.273918152	89.9754104614	172.6822052
0.0	-0.0	133.112335205	-124.473205566	89.7992858887	172.690322876
0.0	-0.0	133.69342041	-124.740882874	89.3887176514	172.940216064
0.0	-0.0	134.386260986	-129.444793701	87.7027359009	173.300506592
0.0	-0.0	135.166900635	-137.341094971	81.5073165894	173.757919312
0.0	-0.0	130.453933716	-142.881347656	70.1940383911	172.723373413
0.0	-0.0	115.043495178	-142.749679565	57.6510391235	171.841201782
0.0	-0.0	105.791847229	-138.921539307	46.487903595	172.019927979
0.0	-0.0	102.045150757	-133.726547241	36.8471603394	172.504623413
0.0	-0.0	99.5354385376	-129.948135376	28.0924396515	172.614959717
0.0	-0.0	95.2865524292	-128.137969971	21.2588653564	172.469329834
0.0	-0.0	89.7689743042	-126.871665955	15.8674268723	171.896514893
0.0	-0.0	87.1376800537	-125.328163147	12.3143892288	171.923873901
0.0	-0.0	85.0550231934	-123.583564758	10.6217184067	172.714981079
0.0	-0.0	80.8452377319	-122.475296021	9.41724205017	172.880432129
0.0	-0.0	75.3661880493	-122.128959656	8.71538352966	172.473388672
0.0	-0.0	72.9814834595	-122.329696655	8.66556549072	172.321060181
0.0	-0.0	73.9779968262	-123.392311096	9.29256248474	170.982681274
0.0	-0.0	77.1672363281	-121.770011902	9.73102092743	170.977783203
0.0	-0.0	82.4694137573	-120.874069214	10.1736726761	170.577362061
0.0	-0.0	85.6019439697	-119.184844971	10.1942424774	170.589431763
0.0	-0.0	86.5444946289	-116.414993286	9.97197532654	170.504837036
