-13.1152219772	-63.0893325806	139.569839478	0.312401622534	-0.370736867189	-6.39510822296
-13.032500267	-63.3522377014	139.428283691	0.338118553162	-0.483241707087	-6.34687042236
-13.3193216324	-63.437538147	139.543945312	0.274909585714	-0.507139861584	-6.26841831207
-14.6509218216	-62.7732086182	139.450531006	-0.613699018955	0.0428474768996	-5.81152486801
-17.6515102386	-59.5492515564	137.901565552	-2.7341811657	1.67624604702	-5.1670050621
-21.7447109222	-54.5912971497	136.128067017	-5.95547676086	3.9617202282	-4.63099718094
-26.7815151215	-49.7128486633	133.44960022	-9.18817329407	6.10403251648	-4.08218431473
-32.5026435852	-42.3458709717	127.570480347	-11.9718294144	7.91107702255	-3.45425486565
-34.8711433411	-35.4903907776	117.166282654	-14.3118915558	9.79527759552	-2.9114677906
-33.9162559509	-29.8953971863	108.820365906	-15.8008184433	11.0235881805	-2.53631043434
-33.3582458496	-26.8304100037	102.558662415	-16.707660675	11.8394880295	-2.29103016853
