0.25248169899	1.53342092037	-0.0915069580078	-0.0362706184387	1.66857159138	-0.101615667343
0.254806518555	1.53362500668	-0.0918064117432	-0.0353653430939	1.66879475117	-0.0998957157135
0.255932569504	1.53317523003	-0.0889797210693	-0.0349261760712	1.67017829418	-0.0981525182724
0.255485296249	1.53112649918	-0.081468462944	-0.0348455905914	1.67131972313	-0.0953043699265
0.253690004349	1.52449834347	-0.0645594596863	-0.0361609458923	1.67131233215	-0.0898032188416
0.253119468689	1.51772809029	-0.0486261844635	-0.0384964942932	1.67102527618	-0.0817749500275
0.248176574707	1.51230812073	-0.0327105522156	-0.0410680770874	1.67152440548	-0.0726791620255
0.240354776382	1.50477302074	-0.0124349594116	-0.0425426959991	1.67193961143	-0.0647029876709
