-0.0517172813416	1.24940848351	0.118084311485	-0.201783180237	1.63789498806	-0.000238418579102
-0.0509600639343	1.24966156483	0.117527604103	-0.201164960861	1.63822460175	-0.00111699104309
-0.0498909950256	1.24981892109	0.117454171181	-0.200458049774	1.63850951195	-0.00195217132568
-0.0509130954742	1.24975216389	0.116916775703	-0.202629089355	1.63837146759	-0.00251007080078
-0.0550098419189	1.24961876869	0.115993142128	-0.208778619766	1.63724207878	-0.00321817398071
-0.0592024326324	1.25049412251	0.113944530487	-0.216272592545	1.63676607609	-0.0048702955246
-0.0649697780609	1.2509803772	0.11113524437	-0.222657442093	1.6372616291	-0.00757968425751
-0.0711622238159	1.25203108788	0.108446836472	-0.227427959442	1.63825881481	-0.0104126930237
-0.076301574707	1.25347268581	0.105910420418	-0.230130434036	1.6394327879	-0.0140476226807
-0.0799555778503	1.25430941582	0.100581645966	-0.232347011566	1.64080822468	-0.0178860425949
-0.0830447673798	1.2521147728	0.0960087776184	-0.234237670898	1.64320802689	-0.022442817688
