0.200484514236	1.40133440495	0.242713332176	-0.0477862358093	1.67477953434	0.168003320694
0.199255466461	1.40166676044	0.242374777794	-0.0488834381104	1.67484331131	0.16816163063
0.198440313339	1.40169501305	0.242069840431	-0.0500915050507	1.67474293709	0.167712569237
0.197081804276	1.40101253986	0.24328494072	-0.0515849590302	1.67602026463	0.166573286057
0.192038059235	1.39701795578	0.252387285233	-0.0534791946411	1.67777502537	0.165472507477
0.181082487106	1.38306295872	0.269573688507	-0.0559499263763	1.67820739746	0.164976835251
0.172209024429	1.36806070805	0.286928534508	-0.0586404800415	1.67806041241	0.164780020714
0.168403625488	1.35927760601	0.299107074738	-0.0613594055176	1.67849969864	0.164776921272
