-62.3542251587	-79.454208374	100.052558899	12.8623828888	8.63256168365	33.2798881531
-63.1506195068	-79.4257125854	100.764228821	12.5414772034	8.58863639832	33.0985603333
-63.4015274048	-79.3410873413	100.976455688	12.2619905472	8.36550998688	32.5388259888
-64.402671814	-78.732208252	99.3625946045	11.3775091171	7.18864774704	30.6921081543
-66.1237487793	-77.0815963745	99.7282180786	9.82201576233	5.15169095993	27.9298629761
-69.5518493652	-76.2598876953	103.844055176	7.50517272949	3.4810230732	23.7503147125
-65.6500167847	-75.3660049438	102.56036377	6.47905015945	2.52681732178	19.5291805267
-65.9928588867	-74.2813568115	107.419441223	6.74065637589	1.88536095619	17.245136261
-67.1599960327	-75.0661849976	113.730514526	7.29860067368	0.973454236984	16.0259685516
