0.0184094905853	1.38304114342	0.117178082466	-0.132251024246	1.67425632477	0.0400894880295
0.0188796520233	1.38286232948	0.117439031601	-0.131745815277	1.67400181293	0.0402241945267
0.0190579891205	1.38277244568	0.116505861282	-0.131318092346	1.67417323589	0.039200425148
0.0192017555237	1.38376820087	0.114990711212	-0.130757331848	1.67365908623	0.0380847454071
0.0196695327759	1.38396799564	0.114326834679	-0.129071235657	1.66964411736	0.0381848812103
0.0178728103638	1.38035869598	0.116622686386	-0.125178813934	1.65864610672	0.0398494005203
0.0135064125061	1.37222230434	0.122178316116	-0.120367288589	1.64489471912	0.0425624847412
0.00483155250549	1.36352050304	0.127399563789	-0.115567445755	1.63073301315	0.0460579395294
-0.00175666809082	1.3579185009	0.127126932144	-0.112829446793	1.62190234661	0.0503056049347
-0.00127005577087	1.36149692535	0.130796432495	-0.109852313995	1.6182615757	0.053966999054
0.011394739151	1.36863720417	0.141302227974	-0.102254867554	1.61680364609	0.0542798042297
