0.210571289062	1.41531276703	0.227866172791	-0.0488321781158	1.67739069462	0.155759334564
0.210776329041	1.41521656513	0.227344155312	-0.0489728450775	1.67748188972	0.155586242676
0.209814786911	1.41566681862	0.226858139038	-0.0489962100983	1.67684805393	0.156031012535
0.20862364769	1.41514766216	0.226768374443	-0.0491399765015	1.6750844717	0.157460331917
0.207350730896	1.41341543198	0.227855443954	-0.0505323410034	1.67691850662	0.157106637955
0.202997207642	1.41089046001	0.231981396675	-0.0529780387878	1.6832344532	0.15340423584
0.19794511795	1.41000032425	0.245249986649	-0.0544776916504	1.68916618824	0.148310661316
0.197444915771	1.41443395615	0.257295250893	-0.0552611351013	1.69566047192	0.141761422157
0.19068479538	1.41927075386	0.259812355042	-0.0564937591553	1.70126903057	0.135142564774
0.179742574692	1.4291703701	0.253622770309	-0.0578508377075	1.70561730862	0.129046916962
0.173544883728	1.44325435162	0.241660118103	-0.0584812164307	1.70839881897	0.122722625732
0.179636955261	1.45795750618	0.231120228767	-0.0579178333282	1.71014928818	0.116144537926
0.192438840866	1.47024726868	0.223373413086	-0.0579528808594	1.71196734905	0.10899579525
0.204910755157	1.47912287712	0.212839603424	-0.0584466457367	1.71363794804	0.101987838745
0.217362880707	1.48438107967	0.2028632164	-0.0591135025024	1.71373963356	0.0969460010529
0.231130599976	1.48913419247	0.199310898781	-0.059289932251	1.71350204945	0.0931731462479
0.243547916412	1.494587183	0.196751356125	-0.0594947338104	1.71314442158	0.0899435281754
0.24569940567	1.49830496311	0.192040205002	-0.0609254837036	1.7127610445	0.0878944396973
0.2485268116	1.49742364883	0.188593149185	-0.0624170303345	1.71289277077	0.0867909193039
0.257519721985	1.49550580978	0.197271347046	-0.0628147125244	1.71241974831	0.0860502719879
0.254153251648	1.48511636257	0.218598842621	-0.0619194507599	1.71167552471	0.0855885744095
0.240003824234	1.47428166866	0.225836515427	-0.0608127117157	1.71021234989	0.0859365463257
0.229583978653	1.46869909763	0.226032018661	-0.0592727661133	1.70876824856	0.0872039794922
0.220182657242	1.46252954006	0.229101538658	-0.0562374591827	1.70733106136	0.0886962413788
0.216946601868	1.45973646641	0.234727263451	-0.0528647899628	1.7058172226	0.0915030241013
0.22123003006	1.45510816574	0.248569488525	-0.0512228012085	1.70428717136	0.0951445102692
0.227458238602	1.44466197491	0.262555003166	-0.0514860153198	1.70283532143	0.099619269371
0.224714994431	1.43244314194	0.271168589592	-0.0522303581238	1.70062863827	0.105103135109
0.218241691589	1.4242079258	0.277018785477	-0.0529508590698	1.6986593008	0.109958410263
0.214081287384	1.41730678082	0.28462934494	-0.0529136657715	1.69816553593	0.113396167755
0.209536075592	1.41561675072	0.28940308094	-0.0523178577423	1.69794416428	0.116440176964
0.19873714447	1.42297780514	0.285635948181	-0.051521062851	1.69789016247	0.1194845438
0.185396909714	1.42780280113	0.281062841415	-0.0506892204285	1.69746351242	0.122360467911
0.172618865967	1.43319857121	0.276101589203	-0.0506813526154	1.69754302502	0.123901844025
0.161045789719	1.4392080307	0.270698547363	-0.0508596897125	1.69815802574	0.123664855957
0.151128530502	1.44403004646	0.267012476921	-0.0513815879822	1.6985398531	0.122693419456
0.143636703491	1.44888854027	0.261467814445	-0.0524671077728	1.69938135147	0.120235443115
0.140277147293	1.45115506649	0.259737491608	-0.0534839630127	1.70218360424	0.114867687225
0.140792608261	1.45051836967	0.263283729553	-0.054039478302	1.70482230186	0.108446121216
0.140407323837	1.4522857666	0.261204481125	-0.0548322200775	1.7069362402	0.101823329926
0.140432596207	1.45525550842	0.256058216095	-0.0556609630585	1.70809984207	0.0957247018814
0.141629219055	1.45739459991	0.24986243248	-0.0558886528015	1.70894122124	0.0875078439713
0.144132852554	1.45953297615	0.243027210236	-0.0564904212952	1.70915746689	0.0779584646225
0.146013975143	1.46166586876	0.235519647598	-0.0571796894073	1.708984375	0.0666488409042
0.146282672882	1.46424531937	0.227354168892	-0.0572671890259	1.70838844776	0.0547007322311
0.146129608154	1.46701395512	0.218041419983	-0.0570063591003	1.70736944675	0.042823433876
0.146666288376	1.46842432022	0.210839986801	-0.0565707683563	1.70684182644	0.0325000286102
0.147989273071	1.47175478935	0.201697826385	-0.0557913780212	1.70577991009	0.0231428146362
0.149760723114	1.47611999512	0.189581751823	-0.0548527240753	1.70451772213	0.015172123909
0.146231889725	1.47978210449	0.172724962234	-0.055210351944	1.70274472237	0.0114450454712
0.142554521561	1.48022949696	0.162486195564	-0.0566756725311	1.70234382153	0.0116711854935
0.14478302002	1.48339283466	0.165022134781	-0.05899477005	1.70355045795	0.0147911310196
0.14336514473	1.48612678051	0.167020082474	-0.0617244243622	1.70391070843	0.0215406417847
0.139465808868	1.48773527145	0.166217207909	-0.0645530223846	1.70368623734	0.0298633575439
0.141630887985	1.48519265652	0.177723407745	-0.066691160202	1.70230007172	0.0385684967041
0.13950419426	1.47464549541	0.199892520905	-0.0690207481384	1.70080626011	0.046862244606
0.132105588913	1.46773517132	0.207361102104	-0.0717854499817	1.6999797821	0.053183555603
0.126981496811	1.47009003162	0.204171776772	-0.0741338729858	1.70133793354	0.0568521022797
0.126364469528	1.47132349014	0.204501628876	-0.0755207538605	1.70520138741	0.0562739372253
0.127814531326	1.46992242336	0.208844900131	-0.0759973526001	1.7079449892	0.0550310611725
0.128951072693	1.47076332569	0.206103801727	-0.0786793231964	1.70735549927	0.0566294193268
0.132931232452	1.47242975235	0.202173233032	-0.0809895992279	1.70435214043	0.0591913461685
0.138040781021	1.47396230698	0.200662493706	-0.0732717514038	1.70229113102	0.0597946643829
0.13999080658	1.47542989254	0.202014803886	-0.0579929351807	1.70234417915	0.0578093528748
0.141073942184	1.47568750381	0.201233386993	-0.0458519458771	1.70280838013	0.0551456212997
0.144508123398	1.47503769398	0.197117090225	-0.0414669513702	1.70582735538	0.0522787570953
0.148118495941	1.47458899021	0.191819667816	-0.0425641536713	1.7108900547	0.0477050542831
0.150988340378	1.47390937805	0.191462039948	-0.0430417060852	1.71445214748	0.0414152145386
0.151242733002	1.47301268578	0.191401124001	-0.0428042411804	1.71635401249	0.0351699590683
0.150899648666	1.47408914566	0.189325690269	-0.0421171188354	1.71694660187	0.0284399986267
0.149596214294	1.4768627882	0.186346292496	-0.0413069725037	1.71552884579	0.0240657329559
0.146581172943	1.47665989399	0.184902667999	-0.0412073135376	1.71381926537	0.0233197212219
0.153126478195	1.47372841835	0.19165956974	-0.0423390865326	1.71346390247	0.02403819561
0.149788141251	1.46831679344	0.197576284409	-0.0448272228241	1.71324598789	0.0260289907455
0.147251605988	1.46765351295	0.197460532188	-0.0477204322815	1.71288859844	0.0284368991852
0.144635915756	1.47047245502	0.19290471077	-0.050356388092	1.71251356602	0.0296845436096
0.143279314041	1.47373783588	0.188208460808	-0.0524864196777	1.71259045601	0.0283899307251
0.141636610031	1.47491145134	0.186387777328	-0.054660320282	1.71268033981	0.0263211727142
0.138395547867	1.47527933121	0.185108661652	-0.0579006671906	1.71227705479	0.0257127285004
0.131507873535	1.48097157478	0.175983905792	-0.0618615150452	1.71125555038	0.0277500152588
0.121003866196	1.49313306808	0.155707478523	-0.0655560493469	1.71039259434	0.0310118198395
0.107933759689	1.50281703472	0.135805487633	-0.06795835495	1.70978224277	0.0338606834412
0.103615045547	1.50875806808	0.124468326569	-0.0687303543091	1.70917260647	0.0355732440948
0.103861093521	1.51412320137	0.117572307587	-0.0687708854675	1.70866084099	0.03717648983
0.102514266968	1.51718938351	0.114006400108	-0.0687873363495	1.70743298531	0.0389198064804
0.10228729248	1.51701593399	0.113839268684	-0.0681076049805	1.70485424995	0.0416972637177
0.108294010162	1.51008677483	0.131099224091	-0.0674932003021	1.70177233219	0.0443902015686
0.111196994781	1.49314713478	0.155536413193	-0.0675191879272	1.70015561581	0.0459606647491
0.113320589066	1.47697508335	0.174560546875	-0.0670948028564	1.69953656197	0.0480720996857
0.114466667175	1.4648154974	0.186873674393	-0.0659151077271	1.69730257988	0.0515273809433
0.115382671356	1.45175921917	0.199211120605	-0.0651648044586	1.69311416149	0.0555803775787
0.120360136032	1.43383729458	0.217710018158	-0.0638718605042	1.6888743639	0.0591557025909
0.132975101471	1.4161387682	0.236208796501	-0.0627744197845	1.68577539921	0.062539100647
0.142266750336	1.39699006081	0.250473022461	-0.061497926712	1.68370509148	0.0654343366623
0.147373914719	1.38397395611	0.258015394211	-0.0593283176422	1.68353676796	0.0672376155853
0.150668859482	1.37806820869	0.25955927372	-0.0573606491089	1.68462002277	0.068794965744
0.154474973679	1.37904691696	0.257319092751	-0.0557882785797	1.6864515543	0.0696291923523
0.153216362	1.38460600376	0.253202199936	-0.0554921627045	1.68842208385	0.0697259902954
0.146647453308	1.39388883114	0.250107645988	-0.0565390586853	1.69034266472	0.06942486763
0.137418746948	1.40506207943	0.247029781342	-0.0584650039673	1.69221270084	0.0689959526062
0.125246047974	1.41740274429	0.24222445488	-0.0613141059875	1.69342529774	0.0692870616913
0.11741399765	1.42422330379	0.241896986961	-0.0642552375793	1.69391644001	0.0696310997009
0.108738422394	1.42828714848	0.242602109909	-0.0660014152527	1.69461250305	0.0694433450699
0.0987780094147	1.42963576317	0.243820905685	-0.0672793388367	1.69522833824	0.069032907486
0.0864772796631	1.4287725687	0.245598912239	-0.0682694911957	1.69563293457	0.068740606308
0.0808210372925	1.42762029171	0.246619582176	-0.0690929889679	1.69592416286	0.0691726207733
0.083167552948	1.42783093452	0.247233390808	-0.068267583847	1.69598853588	0.0699005126953
0.0837924480438	1.42878973484	0.24615752697	-0.0674397945404	1.69631493092	0.0705235004425
0.0850944519043	1.43076515198	0.243295431137	-0.0669150352478	1.69633615017	0.0710625648499
0.0834946632385	1.43127667904	0.241344928741	-0.0663049221039	1.69620740414	0.0720992088318
0.0828921794891	1.43177425861	0.240077257156	-0.0663712024689	1.69590079784	0.073514342308
0.0816872119904	1.43242800236	0.240156769753	-0.066605091095	1.69533920288	0.0753880739212
0.0765595436096	1.43202805519	0.24131834507	-0.0668983459473	1.6954267025	0.0773540735245
0.0648672580719	1.42741453648	0.245614051819	-0.0672085285187	1.6957000494	0.0787971019745
0.0681245326996	1.42616152763	0.247529268265	-0.0671126842499	1.69587767124	0.0796391963959
0.0730609893799	1.42850363255	0.246456027031	-0.0676929950714	1.69630980492	0.079892873764
0.0821840763092	1.43160676956	0.244031071663	-0.0683081150055	1.69705414772	0.079167842865
0.0793194770813	1.43248128891	0.241228342056	-0.0686123371124	1.69750714302	0.0781215429306
0.0781660079956	1.43286979198	0.240006923676	-0.0690920352936	1.69839847088	0.0767208337784
0.0772054195404	1.43255901337	0.239193677902	-0.0695796012878	1.69930553436	0.0755027532578
0.0719180107117	1.43266046047	0.237126111984	-0.0701751708984	1.69902920723	0.0747954845428
0.063686132431	1.43416881561	0.230807185173	-0.0708198547363	1.69887053967	0.0737421512604
0.0642201900482	1.43714761734	0.223574876785	-0.0705697536469	1.6998180151	0.0712047815323
0.0714230537415	1.44028937817	0.221252679825	-0.0692090988159	1.70217180252	0.0664631128311
0.079939365387	1.44116699696	0.222043395042	-0.067613363266	1.70664942265	0.058403968811
0.084566116333	1.44145345688	0.221040487289	-0.0664820671082	1.71087062359	0.0474749803543
0.0846681594849	1.44336175919	0.216367602348	-0.0650942325592	1.71192216873	0.0382070541382
0.0854227542877	1.44597995281	0.209168672562	-0.0621559619904	1.71135079861	0.0300905704498
0.0901215076447	1.44638764858	0.204789280891	-0.0581486225128	1.70937013626	0.0251438617706
0.0961859226227	1.44829249382	0.196707487106	-0.054993391037	1.7074457407	0.021430015564
0.100962162018	1.45180809498	0.191151380539	-0.052827835083	1.70678925514	0.0168061256409
0.101402997971	1.45465064049	0.186653614044	-0.0523784160614	1.7054502964	0.0118339061737
0.0992188453674	1.46195018291	0.177891492844	-0.0534222126007	1.70345437527	0.00722885131836
0.0944843292236	1.4733440876	0.165674448013	-0.0553135871887	1.70157206059	0.00315821170807
0.089736700058	1.48567187786	0.149520397186	-0.0578670501709	1.70058083534	-0.000148296356201
0.0902504920959	1.49427342415	0.139267683029	-0.0594580173492	1.70147645473	-0.00212383270264
0.0934255123138	1.49929654598	0.134978652	-0.0596797466278	1.70186698437	-0.00141072273254
0.095760345459	1.50474619865	0.127469062805	-0.059727191925	1.70180904865	0.000108599662781
0.0983719825745	1.5093575716	0.12037050724	-0.0599856376648	1.70189976692	0.00137138366699
0.10443353653	1.51062774658	0.124807596207	-0.0614449977875	1.70201945305	0.00236678123474
0.102152109146	1.50043296814	0.146654486656	-0.0644638538361	1.70227968693	0.00364375114441
0.0951669216156	1.48676931858	0.158632040024	-0.0681729316711	1.70206177235	0.00477397441864
0.0895164012909	1.48930191994	0.15419626236	-0.0709898471832	1.70239925385	0.00488758087158
0.0869224071503	1.49696624279	0.14504981041	-0.0732593536377	1.70278894901	0.00357842445374
0.0890591144562	1.49999308586	0.14010643959	-0.0749869346619	1.70383942127	-0.000671625137329
0.0925052165985	1.50019133091	0.138428330421	-0.0742387771606	1.70435416698	-0.00739324092865
0.0936679840088	1.5004761219	0.136207938194	-0.0700280666351	1.7044095993	-0.0131394863129
0.0974621772766	1.50062632561	0.133860945702	-0.0637135505676	1.70411264896	-0.0174797773361
0.100881814957	1.49976122379	0.13286793232	-0.05712890625	1.70454800129	-0.0225882530212
0.102189540863	1.49986290932	0.132945418358	-0.0529327392578	1.70513021946	-0.0278099775314
0.0996589660645	1.4999383688	0.133543729782	-0.0514268875122	1.70448637009	-0.0297435522079
0.0917813777924	1.50142717361	0.131618738174	-0.0513556003571	1.70446205139	-0.0284527540207
0.0798056125641	1.50117790699	0.130009651184	-0.0515956878662	1.70428395271	-0.0232021808624
0.0778033733368	1.49856126308	0.137172698975	-0.0516519546509	1.70269298553	-0.0129814147949
0.0844173431396	1.49136936665	0.149597883224	-0.0523679256439	1.70161354542	-0.00115764141083
0.0798387527466	1.48454546928	0.158085584641	-0.053382396698	1.7001029253	0.0108456611633
0.070271730423	1.48260390759	0.159116387367	-0.05495429039	1.69704806805	0.0224592685699
0.0628898143768	1.47888469696	0.161022543907	-0.0576031208038	1.69362795353	0.0316588878632
0.0629055500031	1.47622001171	0.164739131927	-0.0607538223267	1.69314146042	0.0376148223877
0.0616631507874	1.4750674963	0.167618513107	-0.0631341934204	1.69433677197	0.0421257019043
0.0601634979248	1.47469007969	0.169103860855	-0.0637049674988	1.69490277767	0.0465180873871
0.0599508285522	1.47587490082	0.168381214142	-0.0620336532593	1.69483113289	0.0494823455811
0.0618476867676	1.47700834274	0.167029500008	-0.0590870380402	1.69449710846	0.05006980896
0.0639758110046	1.47857403755	0.162582039833	-0.0563633441925	1.69387865067	0.0477204322815
0.0651009082794	1.47937643528	0.155885219574	-0.0538551807404	1.69234776497	0.0439417362213
0.0636582374573	1.48481094837	0.138951301575	-0.0522265434265	1.68847417831	0.0402370691299
0.0606648921967	1.49088728428	0.117630600929	-0.052613735199	1.68289804459	0.036311507225
0.056610584259	1.49440979958	0.101908326149	-0.0545585155487	1.67765581608	0.0308976173401
0.0554583072662	1.49513339996	0.0965746641159	-0.0575695037842	1.67556273937	0.0231093168259
0.0557250976562	1.49461257458	0.0965955257416	-0.0613739490509	1.6766576767	0.0141130685806
0.0546143054962	1.49356555939	0.0935236215591	-0.0694046020508	1.67826592922	0.00810861587524
0.0566039085388	1.49298334122	0.0895667076111	-0.0813145637512	1.67711567879	0.00586879253387
0.0577096939087	1.49310982227	0.0891090631485	-0.0909721851349	1.67409980297	0.00605916976929
0.0553069114685	1.49336361885	0.0922739505768	-0.0970227718353	1.6741912365	0.00732266902924
0.0534453392029	1.49378728867	0.0959534645081	-0.100363731384	1.67478966713	0.00852847099304
0.0555605888367	1.49460661411	0.0979152917862	-0.101325273514	1.67549264431	0.00954151153564
0.0677144527435	1.49652087688	0.0994166135788	-0.101141929626	1.67714464664	0.0102696418762
0.086035490036	1.49966812134	0.101342082024	-0.101338624954	1.67952930927	0.0106650590897
0.104654550552	1.50273394585	0.101200342178	-0.101951122284	1.68132841587	0.0113935470581
0.124312162399	1.5027307272	0.108180403709	-0.10144162178	1.68237197399	0.0120649337769
0.134205818176	1.49996805191	0.117095589638	-0.100635051727	1.68357622623	0.0126888751984
0.127702474594	1.50078332424	0.117503881454	-0.0986249446869	1.68482756615	0.0138893127441
0.118623495102	1.50211036205	0.116579055786	-0.0959494113922	1.68592345715	0.0146703720093
0.112223625183	1.49983155727	0.124408006668	-0.0938875675201	1.68688261509	0.0156445503235
0.112983465195	1.49772942066	0.133046388626	-0.0923683643341	1.68765032291	0.017294883728
0.104607343674	1.49484229088	0.143411278725	-0.0910077095032	1.68742406368	0.0201926231384
0.100517272949	1.4921579361	0.14707326889	-0.0889663696289	1.68707048893	0.0232968330383
0.10551571846	1.49365115166	0.144197940826	-0.0854513645172	1.68778944016	0.0265192985535
0.116579055786	1.49540352821	0.141715884209	-0.0815567970276	1.68815648556	0.0296293497086
0.126443624496	1.49613046646	0.139149546623	-0.0775029659271	1.6883534193	0.0322225093842
0.132350921631	1.49691617489	0.136023640633	-0.071971654892	1.68876266479	0.0343291759491
0.133401870728	1.4961565733	0.13628411293	-0.0644683837891	1.68911468983	0.0355851650238
0.13294506073	1.49517834187	0.13713145256	-0.0564239025116	1.68840205669	0.0357058048248
0.132966041565	1.4953327179	0.137244701385	-0.049423456192	1.68691968918	0.0367314815521
0.134094953537	1.49464249611	0.137167572975	-0.0480144023895	1.68705499172	0.0388132333755
0.131026983261	1.49264597893	0.13976931572	-0.0494518280029	1.68785953522	0.0416382551193
0.121164798737	1.48882949352	0.150120973587	-0.0501923561096	1.68853521347	0.0439161062241
0.115561008453	1.48845481873	0.153187274933	-0.0514528751373	1.68880867958	0.0464220046997
0.116379499435	1.49007701874	0.155974626541	-0.0536046028137	1.68887662888	0.0486083030701
0.117953062057	1.48919665813	0.15988111496	-0.0552277565002	1.68905711174	0.0502537488937
0.116348743439	1.48773157597	0.162206411362	-0.0561821460724	1.68949460983	0.0516350269318
0.11384510994	1.4869158268	0.164637327194	-0.0571773052216	1.68981516361	0.0527111291885
0.112131357193	1.48700022697	0.166950464249	-0.0583493709564	1.68973755836	0.0533277988434
0.110820531845	1.4881875515	0.168473362923	-0.0595910549164	1.69041132927	0.0532295703888
0.10574221611	1.48824799061	0.169314265251	-0.0604748725891	1.69074988365	0.0525087118149
0.102254629135	1.48684334755	0.170039057732	-0.0606572628021	1.69055080414	0.0522155761719
0.102509498596	1.48753428459	0.169025659561	-0.0606091022491	1.69012153149	0.0519689321518
0.103941679001	1.48852789402	0.168876171112	-0.0605416297913	1.69072747231	0.0518126487732
0.101825714111	1.48758149147	0.171103954315	-0.0603270530701	1.69082987309	0.0521525144577
0.095326423645	1.48485457897	0.172569274902	-0.0606372356415	1.69026124477	0.0520741939545
0.0874435901642	1.48183345795	0.172674298286	-0.061446428299	1.69042301178	0.0509984493256
0.0898139476776	1.48188686371	0.172472834587	-0.0622282028198	1.69079554081	0.0491757392883
0.093677520752	1.48558092117	0.168289899826	-0.0625436306	1.69151425362	0.0472712516785
0.096999168396	1.48859155178	0.163507461548	-0.062224149704	1.69180965424	0.045783996582
0.0980207920074	1.4904088974	0.157622337341	-0.0616781711578	1.69183540344	0.044664144516
0.0965135097504	1.49013400078	0.153149008751	-0.0615475177765	1.69172370434	0.0436844825745
0.0961518287659	1.48805272579	0.154826164246	-0.0617523193359	1.69193696976	0.0429313182831
0.101315021515	1.48717403412	0.158715248108	-0.0624053478241	1.69205784798	0.0426337718964
0.0992064476013	1.48654878139	0.158900856972	-0.0632538795471	1.69206357002	0.0427749156952
0.0987536907196	1.48675060272	0.158258914948	-0.0638613700867	1.69179284573	0.0425589084625
0.0998146533966	1.48670506477	0.157928109169	-0.0640866756439	1.69192302227	0.0420409440994
0.100633859634	1.48667812347	0.157611131668	-0.0637180805206	1.69237577915	0.0412981510162
0.100068092346	1.48625957966	0.158024668694	-0.0628757476807	1.69278538227	0.0402652025223
0.100864171982	1.48586630821	0.157496213913	-0.0625066757202	1.69384658337	0.0390101671219
0.102134227753	1.48522472382	0.156949520111	-0.061919927597	1.69524312019	0.0379369258881
0.103014230728	1.48424899578	0.157248258591	-0.0608003139496	1.69663465023	0.0370740890503
0.104122638702	1.48344635963	0.157181859016	-0.0581495761871	1.69701862335	0.0362359285355
0.104995727539	1.48242783546	0.157908558846	-0.0546259880066	1.69749510288	0.0353597402573
0.108002185822	1.48179006577	0.159948825836	-0.0537428855896	1.69783627987	0.0356508493423
0.111359357834	1.48065459728	0.160986542702	-0.0556955337524	1.69811153412	0.0372426509857
0.115398168564	1.48019516468	0.161229848862	-0.0594353675842	1.69823145866	0.0390965938568
0.116969823837	1.48109459877	0.164409637451	-0.0600848197937	1.69926846027	0.0387800931931
0.116478919983	1.48255395889	0.166695594788	-0.0568943023682	1.70016288757	0.0362570285797
0.116098403931	1.48077178001	0.169596195221	-0.051607131958	1.70086812973	0.0327270030975
0.118145942688	1.47579228878	0.175891637802	-0.0432214736938	1.70053482056	0.0308108329773
