-74.2213973999	-43.2347984314	134.024749756	8.02189826965	1.42848348618	0.913349270821
-74.6663131714	-43.6132507324	134.309692383	7.98177719116	1.5463360548	0.939626991749
-75.1114273071	-43.9661216736	134.666625977	8.02998256683	1.6500877142	0.873877346516
-74.571762085	-43.9240989685	133.610549927	8.44040775299	2.39318704605	0.798049628735
-66.9878463745	-43.5661010742	112.899635315	9.66989612579	4.45979309082	0.883236944675
-53.075138092	-37.9140701294	79.8880615234	11.7305841446	7.13106441498	1.0006582737
-50.5737609863	-32.5229759216	63.0929069519	13.9180774689	9.45049476624	1.43104362488
-49.0461616516	-29.1323261261	50.0476493835	15.6458511353	11.496638298	1.65492188931
-47.1065673828	-26.1251888275	38.9256706238	16.6621627808	12.9865055084	1.73330307007
-46.2657737732	-24.5802974701	30.4198265076	17.0792827606	14.0759592056	1.83866143227
-47.6573905945	-25.5712413788	25.3442211151	17.3635845184	14.61277771	1.92626070976
-50.1263465881	-32.3664131165	17.8912448883	17.4227924347	14.8178100586	1.87323665619
-52.9321250916	-37.1278800964	12.7445516586	16.796792984	15.1141691208	1.85549676418
-54.6136131287	-35.1752166748	17.7352085114	16.0010070801	15.6118249893	2.0623190403
-56.276473999	-28.0478801727	29.6979579926	15.4166164398	16.093044281	2.1685552597
-56.3252067566	-34.117061615	25.9347362518	14.9770307541	16.6453418732	2.18135285378
-56.8336143494	-37.8742103577	21.919921875	14.5565271378	17.0989494324	2.27520918846
-58.786403656	-43.3862838745	22.5684356689	14.4763622284	17.199306488	2.28600335121
-55.6792640686	-48.2206764221	16.5271091461	14.4866228104	17.0846767426	2.28178668022
-51.3969306946	-51.7290458679	7.08756399155	14.3197402954	16.9173603058	2.07092547417
-56.8583106995	-33.3823547363	39.6715049744	13.8036661148	16.8441982269	1.84503865242
-56.6392936707	-18.9297027588	51.2688102722	13.834274292	16.6130695343	1.84994626045
-57.6084251404	-19.801776886	49.8375701904	13.8380918503	16.5164661407	1.92750787735
-57.8895835876	-20.0850982666	46.8985481262	14.3629379272	16.8196201324	2.05770969391
-59.1762580872	-17.7406616211	46.4445228577	15.0475511551	17.2212734222	2.08244109154
-60.7083282471	-17.7136421204	47.3281974792	15.4115505219	17.562997818	2.14307451248
-63.713848114	-15.8960103989	52.7735710144	15.3144254684	17.9673423767	2.21496105194
-67.9983215332	-14.4904003143	63.357383728	14.6563663483	18.6769485474	2.11178207397
-76.3927459717	-14.7298545837	73.9148025513	14.0364751816	19.6930789948	1.97779583931
-81.0394821167	-17.6864700317	80.4965133667	14.1990852356	20.1756343842	1.97867548466
-79.5252227783	-19.0884571075	75.2153778076	14.5837163925	20.6179180145	1.86628568172
-74.915725708	-16.0659656525	67.0297088623	15.3586559296	21.3348312378	2.08931994438
-68.0977478027	-12.89037323	62.1039390564	15.788807869	21.9751472473	2.11857700348
-60.0673828125	-10.6249685287	57.5094833374	16.5408859253	22.1112804413	2.17639327049
-50.4054260254	-4.69387102127	53.8525352478	17.4690933228	22.1953983307	2.05688071251
-45.7259063721	0.253837615252	48.7760810852	17.9880752563	22.3140773773	2.06599164009
-41.1481018066	2.30185985565	44.2768554688	17.8715801239	22.4462451935	2.02238178253
-38.0895805359	2.18587684631	44.1567001343	17.7387809753	22.2891998291	1.96590769291
-38.6575088501	-5.19363832474	49.219745636	17.5128364563	21.9781475067	1.81983935833
