0.0	-0.0	131.459869385	-106.353744507	84.7840194702	-174.601043701
0.0	-0.0	131.168609619	-107.19304657	84.4858474731	-174.078582764
0.0	-0.0	131.772796631	-107.168037415	84.6828765869	-173.951141357
0.0	-0.0	131.550125122	-107.299156189	85.1415634155	-173.75793457
0.0	-0.0	130.247741699	-112.194160461	83.8926773071	-172.354354858
0.0	-0.0	127.089263916	-122.975265503	76.4850006104	-170.195785522
0.0	-0.0	114.638442993	-136.170166016	60.0690040588	-169.767456055
0.0	-0.0	80.2509155273	-146.629470825	44.8429756165	-170.025817871
0.0	-0.0	53.8457183838	-153.34979248	30.1683540344	-171.161743164
0.0	-0.0	47.2590370178	-155.233795166	18.3973693848	-170.472427368
0.0	-0.0	45.1137390137	-156.378265381	11.9205465317	-169.691329956
0.0	-0.0	46.6528511047	-156.954711914	11.1392831802	-169.618896484
