0.0	-0.0	136.401687622	-110.600578308	86.5765609741	-174.863967896
0.0	-0.0	136.399765015	-110.395004272	86.8127975464	-174.916061401
0.0	-0.0	136.742034912	-110.695396423	87.3917617798	-174.613128662
0.0	-0.0	138.011367798	-111.522277832	88.2871551514	-174.266235352
0.0	-0.0	137.089080811	65.4423828125	89.6721954346	6.27535200119
0.0	-0.0	124.468910217	55.3021659851	84.8110656738	7.14282369614
0.0	-0.0	101.385566711	41.1243782043	78.6764221191	8.70370006561
0.0	-0.0	86.7320098877	26.1968021393	73.390953064	10.7760486603
0.0	-0.0	77.1123428345	13.0000572205	69.6943206787	13.1779098511
0.0	-0.0	74.9594955444	2.46780252457	66.2903137207	15.5279073715
0.0	-0.0	72.6045913696	-3.4267168045	63.5748596191	16.5574054718
0.0	-0.0	71.7035980225	-2.93043088913	61.4050636292	16.6043014526
0.0	-0.0	71.6069641113	1.13217747211	59.3613777161	15.7434568405
0.0	-0.0	72.7981262207	5.32266712189	56.7061691284	14.7348489761
0.0	-0.0	76.5770492554	7.97793865204	54.4500923157	14.3918085098
0.0	-0.0	88.3343048096	8.7770652771	53.2235298157	14.6473007202
0.0	-0.0	115.253990173	8.63093471527	53.4771614075	14.9242601395
0.0	-0.0	122.354263306	8.3975315094	53.4118347168	15.1940422058
0.0	-0.0	97.4582290649	8.01103591919	53.0035667419	15.281999588
0.0	-0.0	87.3008880615	7.57286930084	53.5138587952	15.3323392868
0.0	-0.0	83.4478225708	6.95007944107	53.8784294128	15.4361448288
0.0	-0.0	70.3821105957	7.32996177673	53.8526000977	14.7062540054
0.0	-0.0	78.9041213989	9.11750602722	52.4358482361	13.6640672684
0.0	-0.0	84.7148513794	10.5963506699	51.401676178	13.1274557114
0.0	-0.0	81.8265075684	10.8606710434	49.7625236511	13.1087646484
0.0	-0.0	27.4885959625	10.3567466736	48.8842315674	13.9089708328
0.0	0.0	-11.3173685074	8.42772769928	49.3921203613	14.5011587143
0.0	-0.0	12.5688514709	6.46657085419	50.983581543	14.5596389771
0.0	-0.0	99.0731811523	5.05728149414	52.4251441956	14.5898084641
0.0	-0.0	118.783668518	4.36020231247	53.9006500244	14.0817308426
0.0	-0.0	120.533576965	4.9445104599	55.1041793823	13.5533704758
0.0	-0.0	126.74886322	5.47829151154	55.5044822693	13.0334663391
0.0	-0.0	134.122436523	7.16317272186	53.6027641296	12.574016571
0.0	-0.0	138.32673645	8.45111179352	50.218421936	12.3331384659
0.0	-0.0	129.243209839	8.42098617554	47.4646377563	12.8926992416
0.0	-0.0	120.975204468	4.21428966522	47.5697784424	15.7376823425
0.0	-0.0	121.615386963	-1.66865921021	49.5780677795	19.3920536041
0.0	-0.0	127.626480103	-6.36721944809	48.8332481384	22.9524307251
0.0	-0.0	119.135040283	-10.3788690567	48.2822952271	25.7604751587
0.0	-0.0	100.861534119	-11.1930294037	51.7331809998	27.2202224731
0.0	-0.0	91.3308181763	-9.49493598938	57.7857437134	27.8174629211
0.0	-0.0	88.1661758423	-4.17526960373	61.5004463196	27.0924930573
0.0	-0.0	84.5571517944	3.11137247086	61.3036193848	25.486831665
0.0	-0.0	79.6389160156	8.03097343445	58.9191322327	23.4952087402
0.0	-0.0	75.4914093018	10.2889194489	57.3305473328	22.2773742676
0.0	-0.0	72.3247909546	11.9447946548	54.3099708557	21.3421325684
0.0	-0.0	70.5198440552	13.1867046356	52.2355918884	20.5060005188
0.0	-0.0	67.0830841064	13.0682277679	51.4098358154	20.482591629
0.0	-0.0	64.0119247437	12.1403551102	50.2643508911	20.7612686157
0.0	-0.0	63.5924491882	10.0070400238	49.3549880981	20.8003005981
0.0	-0.0	56.6622619629	6.89930105209	49.8993873596	21.1589412689
0.0	-0.0	51.2044944763	5.11653709412	50.3937759399	21.3689861298
0.0	-0.0	47.2493934631	4.66349124908	49.6919822693	20.72149086
0.0	-0.0	41.2984848022	5.19674539566	48.6692886353	19.6862945557
0.0	-0.0	52.8908653259	4.50806474686	49.3418617249	20.6030712128
0.0	-0.0	91.8976516724	-0.771403431892	55.4104385376	25.8081817627
0.0	-0.0	122.949882507	-7.55075073242	62.6218261719	31.8064517975
0.0	-0.0	127.848464966	-10.0873537064	64.7780914307	33.966381073
0.0	-0.0	112.673347473	-8.00220394135	63.2497215271	31.7162380219
0.0	-0.0	99.3029785156	-3.94438409805	58.3625030518	27.9822063446
0.0	-0.0	74.3644866943	0.16650018096	53.8607559204	23.8481960297
0.0	-0.0	38.3530578613	3.89348769188	50.6055030823	20.6843147278
0.0	-0.0	26.6963748932	5.72779607773	49.1137313843	19.0232276917
0.0	-0.0	44.8679046631	5.66769790649	51.455783844	18.4383010864
0.0	-0.0	79.983795166	3.51168823242	54.1354103088	19.5111141205
0.0	-0.0	90.2535476685	1.56547343731	55.1836700439	21.2072963715
0.0	-0.0	89.8508300781	1.57285821438	56.1678771973	21.4857177734
0.0	-0.0	85.2992935181	3.19001030922	56.4841270447	20.5812187195
0.0	-0.0	81.0685195923	5.47800588608	56.3656692505	20.0249271393
0.0	-0.0	83.3920135498	7.09282159805	56.5525436401	19.6211624146
0.0	-0.0	85.7610397339	8.39421272278	56.4861106873	19.3705272675
0.0	-0.0	84.2049331665	9.43373298645	55.6100120544	19.3696594238
0.0	-0.0	84.3235397339	10.3701686859	52.4695968628	19.3558197021
0.0	-0.0	79.953918457	11.2910795212	50.3542480469	18.7660293579
0.0	-0.0	79.5917282104	11.6344394684	46.2320251465	18.2584152222
0.0	-0.0	78.48412323	11.5889205933	45.15467453	18.0956439972
0.0	-0.0	72.9765701294	10.3494729996	46.3269538879	18.1968574524
0.0	-0.0	72.0732574463	9.27953529358	45.884349823	18.2619609833
0.0	-0.0	68.2264556885	9.9983997345	45.0145645142	17.2261123657
0.0	-0.0	47.9250869751	11.3887319565	44.7474975586	14.4827604294
0.0	-0.0	25.3847351074	12.4323892593	45.9422035217	11.4490365982
0.0	-0.0	35.25963974	10.0370540619	48.6575965881	11.7580270767
0.0	-0.0	56.4364471436	2.35409235954	53.7034912109	15.9695196152
0.0	-0.0	79.3582382202	-7.77127075195	58.8909225464	20.6946334839
0.0	-0.0	83.2295379639	-16.2362804413	64.2994995117	23.7636871338
0.0	-0.0	81.5865783691	-18.8364543915	69.6632614136	24.3080921173
0.0	-0.0	73.838684082	-15.6486787796	72.98828125	23.1058826447
0.0	-0.0	61.4385528564	-9.44851303101	75.1986312866	21.3823680878
0.0	-0.0	44.8269538879	-2.99816823006	77.9879379272	19.9619083405
0.0	-0.0	25.5305976868	2.35933303833	81.3323059082	18.2372169495
0.0	-0.0	20.098897934	1.66287529469	81.3729019165	19.366109848
0.0	-0.0	33.9076499939	-2.11142969131	81.8257598877	19.6198596954
0.0	-0.0	36.9365348816	-5.59357690811	81.3842926025	21.0177936554
0.0	-0.0	39.2274589539	-7.30892896652	79.6976776123	20.9693584442
0.0	-0.0	41.1257019043	-5.60397338867	77.3002243042	20.644744873
0.0	-0.0	41.3976325989	-3.52979564667	74.9121017456	20.2369480133
0.0	-0.0	41.2713432312	-1.28588855267	73.5113372803	18.4772033691
0.0	-0.0	43.0799636841	0.357223153114	74.3724517822	17.006937027
0.0	-0.0	52.8099517822	1.05045425892	75.4271240234	16.0123310089
0.0	-0.0	68.9359817505	1.0581381321	76.3155288696	16.0465373993
0.0	-0.0	73.0648574829	0.173748716712	76.6828460693	16.5283222198
0.0	-0.0	75.5208206177	-0.804580450058	75.575340271	17.3278560638
0.0	-0.0	75.1569900513	-0.797947943211	73.2508544922	17.7192935944
0.0	-0.0	75.9158248901	0.627412140369	71.0888214111	17.3829021454
0.0	-0.0	74.8809661865	2.18016600609	69.8215332031	16.4903888702
0.0	-0.0	74.3510818481	3.14598584175	68.4426345825	16.2875347137
0.0	-0.0	74.766242981	3.67844605446	66.6154403687	16.3949127197
0.0	-0.0	75.5346908569	3.55407476425	64.3009490967	17.0314083099
0.0	-0.0	78.1987228394	3.56041812897	62.1274642944	17.2963466644
0.0	-0.0	78.7987365723	3.78649282455	59.7141876221	17.3323669434
0.0	-0.0	78.8549880981	4.77734136581	55.948802948	17.4395008087
0.0	-0.0	76.5423278809	5.84024572372	52.3256454468	17.115852356
0.0	-0.0	73.3206481934	6.76813030243	50.7262229919	16.0468463898
0.0	-0.0	72.7016067505	6.97476053238	51.1797485352	14.8417892456
0.0	-0.0	71.380355835	6.45452070236	49.7933731079	14.8194446564
0.0	-0.0	68.9101333618	0.58134496212	49.5539398193	17.6422843933
0.0	-0.0	68.0735015869	-7.82326745987	50.8187065125	19.8267536163
0.0	-0.0	68.2425003052	-11.5054607391	50.2340698242	18.9918117523
0.0	-0.0	65.5061721802	-9.2922410965	48.7591362	15.5516672134
0.0	-0.0	60.4839515686	-4.56804084778	48.5571899414	10.2273759842
0.0	-0.0	56.6082191467	0.316586226225	50.0081520081	5.35809755325
0.0	-0.0	55.4602279663	2.03959441185	52.5769424438	2.58757710457
0.0	-0.0	56.8662528992	-1.21456980705	55.4356918335	4.08381795883
0.0	-0.0	58.268611908	-6.48104095459	57.5626602173	6.81891059875
0.0	-0.0	58.3951072693	-9.41736602783	59.1683425903	7.37899446487
0.0	-0.0	56.3912162781	-8.7064371109	60.6512336731	4.85971164703
0.0	-0.0	55.6774673462	-6.31201171875	63.0594291687	1.57130539417
0.0	-0.0	55.1193313599	-5.94393062592	66.8954162598	0.351783454418
0.0	-0.0	56.6710472107	-9.08818340302	69.3420257568	3.49021458626
0.0	-0.0	58.7791175842	-12.7281703949	70.3274688721	7.86178255081
0.0	-0.0	60.0409049988	-13.3094291687	69.6109466553	10.1352024078
0.0	-0.0	60.5480003357	-11.6783227921	66.2992477417	10.9002790451
0.0	-0.0	59.1306991577	-9.40842247009	62.8842926025	10.4836454391
0.0	-0.0	56.8133811951	-7.0326628685	61.2197952271	9.3048620224
0.0	-0.0	56.8928871155	-5.82281732559	60.6548156738	8.56572723389
0.0	-0.0	74.30103302	-5.85321092606	61.1133422852	8.72867107391
0.0	-0.0	83.5408248901	-6.3269238472	61.9414138794	9.04371261597
0.0	-0.0	84.2179870605	-5.91952514648	62.7474708557	8.84497261047
0.0	-0.0	81.3265914917	-4.84365510941	63.2693061829	8.53007698059
0.0	-0.0	78.4368972778	-3.84317755699	62.9940452576	8.90183830261
0.0	-0.0	79.131729126	-3.27320384979	62.4000167847	9.20639610291
0.0	-0.0	83.9478912354	-3.11782264709	62.2559089661	9.37258052826
0.0	-0.0	98.6805114746	-2.9409096241	62.4015960693	9.36743831635
0.0	-0.0	100.181472778	-2.45509839058	62.3173484802	9.18341636658
0.0	-0.0	93.2091674805	-2.32723903656	62.4145088196	9.35803318024
0.0	-0.0	92.0672302246	-2.70232510567	61.8097686768	9.79097557068
0.0	-0.0	95.7383956909	-2.15451359749	59.5989875793	9.86477661133
0.0	-0.0	93.2191619873	-0.325819343328	57.0340843201	8.56507110596
0.0	-0.0	87.4679794312	2.44087409973	53.7308959961	6.40882635117
0.0	-0.0	79.1461105347	4.08808994293	51.3191146851	4.94327974319
0.0	-0.0	75.1745605469	4.08684015274	51.655834198	4.52747249603
0.0	-0.0	75.1263046265	3.30228447914	52.085319519	4.45394515991
0.0	-0.0	74.8431167603	2.37278437614	52.0110282898	5.03901481628
0.0	-0.0	73.9989929199	0.603661417961	52.0944862366	5.88935661316
0.0	-0.0	73.7981948853	-1.08385002613	52.4973449707	6.38654756546
0.0	-0.0	74.9997558594	-1.72839558125	52.9017829895	6.3058795929
0.0	-0.0	75.0801544189	-2.77535295486	52.6134262085	6.63674640656
0.0	-0.0	76.7993011475	-4.82773637772	51.5826683044	6.99184846878
