0.0	-0.0	134.811248779	70.3243255615	88.5799255371	6.69561815262
0.0	-0.0	134.318450928	69.6719741821	88.9199829102	6.2860159874
0.0	-0.0	134.440124512	70.1025009155	89.8752593994	6.0616941452
0.0	-0.0	131.581619263	-107.619178772	86.426612854	-174.100540161
0.0	-0.0	111.805793762	-101.755691528	78.0340652466	-174.25012207
0.0	-0.0	93.4086837769	-93.6019439697	70.0160369873	-174.622238159
0.0	-0.0	86.2018508911	-85.2093963623	62.7363090515	-175.19229126
0.0	-0.0	82.7853393555	-77.6973876953	55.8276252747	-175.425842285
0.0	-0.0	80.7901763916	-72.3094940186	51.1208190918	-175.701278687
