-0.080605506897	1.42721366882	0.133332848549	-0.164983034134	1.66389083862	0.0194203853607
-0.0823545455933	1.42831099033	0.132858037949	-0.166225194931	1.66397476196	0.0187387466431
-0.0835564136505	1.42792141438	0.131924510002	-0.16791510582	1.663834095	0.0175709724426
-0.0847284793854	1.42885172367	0.13090133667	-0.169492721558	1.66396152973	0.0163296461105
-0.0866315364838	1.42871880531	0.130433559418	-0.169889688492	1.66275763512	0.0156729221344
-0.088374376297	1.42837548256	0.132674217224	-0.169657230377	1.66216218472	0.0157973766327
-0.089998960495	1.43554866314	0.145327806473	-0.169302225113	1.66126573086	0.0163727998734
-0.0842468738556	1.44186961651	0.166892886162	-0.168545246124	1.65993666649	0.0182439088821
-0.0699393749237	1.44327807426	0.185612440109	-0.166671037674	1.65796637535	0.0202174186707
-0.0523900985718	1.43611967564	0.20638358593	-0.163342475891	1.65483772755	0.0224225521088
-0.037750005722	1.41637730598	0.224843978882	-0.159386396408	1.65039992332	0.0246913433075
-0.0297179222107	1.39742016792	0.235076189041	-0.156143665314	1.6456861496	0.0271905660629
-0.0321276187897	1.392131567	0.237372994423	-0.156314849854	1.642816782	0.0300233364105
-0.0383241176605	1.39554834366	0.237901329994	-0.159165382385	1.64215481281	0.0326449871063
-0.0541648864746	1.40044665337	0.23338830471	-0.162314653397	1.64150691032	0.0341686010361
-0.0759744644165	1.40395641327	0.221620559692	-0.163714408875	1.64036071301	0.0348386764526
-0.0919945240021	1.41056442261	0.204214334488	-0.164012432098	1.63956010342	0.0349807739258
-0.100800991058	1.41531586647	0.189954280853	-0.162895441055	1.63986027241	0.0349793434143
-0.104714393616	1.41750407219	0.180464029312	-0.161307096481	1.63989973068	0.0351188182831
-0.105493783951	1.42074358463	0.173095464706	-0.159026384354	1.63944780827	0.0345342159271
-0.10803937912	1.4263292551	0.162984132767	-0.156868457794	1.6393750906	0.0327836275101
-0.112219333649	1.43075835705	0.15138220787	-0.15539264679	1.63960039616	0.0297118425369
-0.116984367371	1.42928493023	0.14564371109	-0.154336452484	1.64021420479	0.0261936187744
-0.119080305099	1.42955732346	0.140090465546	-0.154400348663	1.64152884483	0.0223823785782
-0.12159705162	1.43193674088	0.133693695068	-0.154271125793	1.64158821106	0.0184413194656
-0.123630046844	1.4359152317	0.129879832268	-0.154827356339	1.63985669613	0.0146293640137
-0.125344753265	1.44144582748	0.126593112946	-0.156022787094	1.63826406002	0.012374162674
-0.124177932739	1.44658482075	0.127184391022	-0.15763092041	1.63732349873	0.010468006134
-0.126647949219	1.44903182983	0.124482154846	-0.159765005112	1.63811194897	0.00952315330505
-0.130514860153	1.45340263844	0.120669364929	-0.161767721176	1.63824880123	0.00992035865784
-0.137162208557	1.45871090889	0.113357782364	-0.163552999496	1.63695108891	0.0105085372925
-0.143815279007	1.46116650105	0.107758283615	-0.164929389954	1.63671278954	0.0107274055481
-0.148052692413	1.46003961563	0.104665994644	-0.166465520859	1.63722980022	0.0113863945007
-0.149443626404	1.45705366135	0.104207277298	-0.167788505554	1.63704919815	0.0130264759064
-0.150773286819	1.4531185627	0.104029417038	-0.168744802475	1.63626909256	0.0147104263306
-0.146277427673	1.45084071159	0.111429095268	-0.169001579285	1.63637506962	0.0166276693344
-0.142770051956	1.44699573517	0.117695808411	-0.169451236725	1.63900029659	0.0180118083954
-0.13845205307	1.44497072697	0.125240206718	-0.170696258545	1.64458072186	0.0194847583771
-0.137390613556	1.44865131378	0.124965667725	-0.171348810196	1.64669489861	0.0202132463455
-0.14549446106	1.45178866386	0.110621571541	-0.171187877655	1.6455514431	0.0218163728714
-0.154044628143	1.44890427589	0.0959167480469	-0.171092033386	1.64422488213	0.0248854160309
-0.153472185135	1.44893193245	0.096480846405	-0.170427560806	1.64301931858	0.0290033817291
-0.152366399765	1.45090329647	0.0955402851105	-0.16915678978	1.64020049572	0.0324487686157
-0.154197216034	1.45357763767	0.0911558866501	-0.168533802032	1.63579440117	0.0346646308899
-0.155705213547	1.45495319366	0.0885136127472	-0.168536901474	1.63080239296	0.0350241661072
-0.156011819839	1.4563164711	0.0870208740234	-0.167859315872	1.62782025337	0.0333802700043
-0.156027078629	1.45816028118	0.0843830108643	-0.165593147278	1.62735676765	0.0301597118378
-0.153777360916	1.46017205715	0.0818688869476	-0.162000179291	1.62891578674	0.0260798931122
-0.151050329208	1.46217942238	0.07932472229	-0.15721654892	1.62970459461	0.0223217010498
-0.148782253265	1.46236336231	0.0770092010498	-0.152522087097	1.62895143032	0.0188899040222
-0.145921468735	1.4628739357	0.0767332315445	-0.148118019104	1.62937390804	0.0158697366714
