-62.9452476501	-61.3679542542	144.999084473	2.22399163246	1.82072401047	-6.35188531876
-62.9860305786	-61.429599762	144.993972778	2.12123918533	1.80823481083	-6.40894937515
-62.7644119263	-61.4016990662	144.758605957	1.7865434885	1.74508905411	-6.73897647858
-61.3291511536	-62.6888465881	144.629852295	2.14817404747	0.733948290348	-8.05327606201
-58.5495758057	-66.5961837769	145.426574707	3.72568798065	-1.12762606144	-10.850361824
-51.3601799011	-71.2367553711	141.982833862	5.64660596848	-3.35337805748	-14.4252586365
-37.7930107117	-73.7002639771	131.487442017	7.15675115585	-5.83855724335	-17.8893566132
-29.79961586	-74.7782592773	124.550720215	8.2803440094	-7.82063055038	-20.8567447662
-26.6167507172	-75.1770935059	121.269554138	9.18179321289	-8.1985616684	-21.6127967834
-19.2143211365	-75.6024780273	114.408874512	10.1923522949	-8.21436500549	-21.5409545898
-11.5365619659	-75.1689758301	105.977615356	11.4477682114	-8.60033416748	-20.384431839
4.48524570465	-73.1501312256	84.5869216919	12.5182600021	-8.55320453644	-18.7257671356
8.05694961548	-68.2557983398	76.1706848145	11.7125692368	-8.38980484009	-17.8439807892
8.51593399048	-62.4051208496	66.2943954468	9.28725814819	-7.92273807526	-16.4953784943
0.820315003395	-57.9782714844	68.9567337036	5.87373495102	-7.23755168915	-14.8243999481
-2.99383640289	-56.5192565918	69.6660614014	1.98328077793	-6.32019805908	-13.0216369629
-3.65891981125	-57.2015419006	70.8908081055	-0.924908876419	-5.69850921631	-12.1423215866
-3.13793635368	-59.3984870911	72.7563476562	-1.77052390575	-5.34162855148	-12.1849117279
-4.4767665863	-62.0583457947	77.0467300415	-0.635084629059	-5.18373918533	-12.1886005402
-8.28555870056	-65.3079071045	82.8564300537	1.0006146431	-5.75592470169	-12.4701280594
-12.0217094421	-67.2104415894	88.7007827759	2.34926915169	-7.50608205795	-13.6196508408
