-20.2581176758	-68.9205245972	132.689315796	3.65592193604	-1.92882716656	-1.49765825272
-20.625333786	-69.0100250244	132.872329712	3.40581583977	-1.90164279938	-1.44014334679
-20.9269237518	-69.4309692383	132.717453003	3.09035897255	-2.00806665421	-1.34606599808
-18.1524391174	-69.0766677856	126.439353943	2.30680179596	-5.10775375366	-1.26007342339
-10.6121177673	-65.1215667725	111.754463196	1.78392338753	-10.1092786789	-1.51652920246
-9.23997974396	-63.9219207764	109.047485352	1.70839428902	-14.6974582672	-3.11502861977
-9.55630874634	-64.3493728638	108.641700745	1.60990512371	-18.8493804932	-5.83661651611
-10.3653688431	-65.0931625366	108.986122131	1.90686690807	-21.3209590912	-8.20404148102
-4.9604973793	-66.876625061	102.830505371	1.54019355774	-22.249376297	-9.92686367035
