-39.1953773499	-71.7858505249	135.742675781	8.10684394836	4.1596660614	1.94466674328
-38.769733429	-71.7339477539	135.200119019	8.27366733551	4.04412555695	1.95524430275
-39.5314903259	-71.8258056641	136.009353638	8.33026790619	3.76967406273	1.92921459675
-40.1321029663	-71.8799972534	135.604248047	8.16445636749	2.00422310829	1.92009520531
-39.755115509	-72.5015029907	132.160339355	7.84706163406	-1.97528338432	1.76662492752
-34.3329467773	-74.4723358154	122.605697632	7.56291627884	-6.87648677826	1.4432567358
-33.7629928589	-75.1986083984	120.471099854	7.00551939011	-11.9113826752	1.31042277813
-37.0940093994	-75.7529525757	123.291259766	6.3039484024	-17.1536598206	1.21247541904
-40.0522651672	-75.8247375488	126.215484619	5.97831106186	-21.5797481537	1.14710330963
-40.0160636902	-75.9429702759	126.079597473	6.4777598381	-22.9762382507	1.1054058075
-44.4406661987	-78.5181808472	132.959121704	6.83804559708	-22.944108963	1.04560446739
-74.796043396	-82.5264892578	166.72769165	6.98783159256	-23.0140228271	1.12914693356
-115.609970093	-81.9013671875	-150.089294434	6.68146276474	-23.4611244202	1.40408730507
-119.772361755	-81.6173095703	-144.040756226	6.46917772293	-23.5427494049	1.6992200613
-113.437889099	-83.8340606689	-151.534011841	6.35854196548	-23.1938972473	1.74835646152
36.99634552	-87.955329895	49.3382720947	6.02150821686	-22.8963127136	1.80644452572
26.6698970795	-80.8536224365	57.0113105774	5.75530719757	-22.8327255249	1.93902873993
14.1730966568	-81.0735702515	73.3015365601	5.66268110275	-22.6041946411	1.94536089897
22.569683075	-82.5266799927	64.8738098145	5.5696349144	-22.1809501648	1.83698642254
27.420381546	-84.0541992188	61.1079330444	5.69497919083	-22.1144390106	1.81239438057
33.9982910156	-85.8772277832	55.5557136536	5.74148988724	-22.4855766296	1.82241308689
41.7006912231	-87.7363204956	48.8778686523	6.23090553284	-22.907283783	1.69601154327
113.09538269	-89.7412490845	-20.6341018677	6.51695775986	-23.3039741516	1.58611106873
-153.666503906	-88.4065628052	-113.189231873	6.5261797905	-23.3034286499	1.74762749672
-136.507156372	-88.177192688	-130.434997559	6.7260260582	-23.2726650238	1.80697500706
-46.0715293884	-88.3148651123	138.313995361	6.83593320847	-22.9132156372	1.91538667679
-36.6305236816	-86.5473251343	127.977027893	6.31505775452	-22.2531929016	2.13254499435
-38.9096488953	-86.0891952515	129.975021362	5.34278583527	-20.9703941345	2.4701654911
-36.0154647827	-85.3778381348	125.902084351	4.24249839783	-18.9930915833	2.97342157364
-5.53871917725	-81.6145858765	90.499710083	3.39061665535	-16.7956619263	3.12850522995
18.3583564758	-80.9786224365	66.3352203369	4.04149770737	-15.7610769272	2.06570458412
23.879655838	-81.4081268311	63.383605957	5.69043636322	-15.5952482224	0.591751694679
26.19789505	-81.4471359253	62.1100959778	7.51795291901	-15.8726978302	-0.999809861183
24.6422157288	-81.4503173828	63.0037117004	9.34239006042	-15.7666530609	-2.94364833832
4.82490539551	-79.7907028198	79.84815979	10.2022848129	-15.0364370346	-4.74255132675
-17.3402919769	-77.5242080688	99.2847518921	10.2155590057	-14.4275197983	-6.19164562225
-24.193649292	-78.4742507935	106.128158569	9.86314296722	-14.2904338837	-7.14996385574
-26.2670135498	-79.9351654053	109.13331604	9.60786533356	-14.6042089462	-7.69240474701
-38.9055519104	-81.5032653809	121.442527771	9.45077323914	-14.9396390915	-8.35724639893
-49.2630386353	-83.9861679077	128.23991394	9.17328548431	-15.1002645493	-8.7157793045
-13.5942983627	-87.5752944946	87.5899810791	8.64894008636	-15.40995121	-8.75413894653
77.5331573486	-85.8639678955	-8.87469387054	7.51527690887	-15.9208593369	-8.63091564178
74.0845184326	-83.7928771973	-7.73960494995	6.32911777496	-16.1199855804	-8.48051452637
24.5550937653	-83.7580108643	45.2202262878	5.81465101242	-15.9337663651	-8.24442958832
-0.564531385899	-81.7367935181	72.9471969604	5.94040393829	-15.8297767639	-8.15100860596
-1.25310790539	-81.9834671021	74.2906036377	6.08881378174	-15.6506614685	-8.11023712158
0.522374868393	-81.7421340942	72.8646392822	5.82267284393	-15.5922250748	-7.93138694763
-1.88673877716	-80.9500198364	74.9879226685	5.18490934372	-15.4151792526	-7.65624189377
-8.88852977753	-80.6850128174	81.1322021484	2.68297767639	-15.5976924896	-6.73113107681
-7.90789604187	-80.6064147949	79.8363952637	-0.808715343475	-15.9432554245	-5.76798772812
-6.97717237473	-80.8938140869	78.9825973511	-3.03596496582	-16.3720397949	-5.46085071564
-5.68836784363	-80.9751739502	77.7541885376	-4.02901411057	-17.1676425934	-6.05589723587
-3.44801855087	-80.9092025757	75.5020294189	-4.42612266541	-18.0144309998	-6.88197803497
-2.18953871727	-81.0723495483	74.4573669434	-4.10528850555	-18.6028785706	-7.89307498932
-4.07016611099	-80.5956039429	75.9091491699	-3.64368414879	-18.8001747131	-8.86738967896
-18.9490756989	-77.1071548462	89.4743347168	-4.11265134811	-18.4773006439	-9.00329589844
-29.3807697296	-75.2650680542	101.499176025	-5.02477788925	-18.3749332428	-8.86759090424
-30.613445282	-77.1931381226	103.751403809	-5.6853556633	-18.4723052979	-8.85786247253
-26.8292827606	-79.1826934814	101.290786743	-5.78204727173	-18.4812660217	-9.51451396942
-22.2208957672	-80.5091781616	95.6158294678	-5.69320297241	-18.4339256287	-10.608707428
-18.6012496948	-81.5327758789	90.6449508667	-5.96901464462	-18.9129657745	-11.8725709915
-20.1509666443	-81.7965393066	91.6223831177	-7.5746254921	-19.9288063049	-13.2467050552
