0.04416680336	1.42647767067	0.0839738845825	-0.13606262207	1.67298340797	0.01877784729
0.0443081855774	1.42632162571	0.0843877792358	-0.135783910751	1.67290735245	0.0192975997925
0.0443325042725	1.42695128918	0.0845619440079	-0.135076522827	1.6726937294	0.0202832221985
0.0443091392517	1.4265216589	0.086662530899	-0.133353233337	1.67209458351	0.0212507247925
0.0537235736847	1.42590761185	0.105345726013	-0.128760576248	1.67149317265	0.0216870307922
0.0832808017731	1.4227360487	0.130685925484	-0.122228860855	1.67130315304	0.021942615509
0.118989229202	1.41834914684	0.14870429039	-0.115606546402	1.67190027237	0.0222463607788
0.148676633835	1.41465497017	0.15830039978	-0.110100507736	1.67236113548	0.0238316059113
0.166435718536	1.41096925735	0.162757515907	-0.106634616852	1.67208945751	0.0260908603668
0.16685461998	1.40929055214	0.165249347687	-0.105444431305	1.67183864117	0.0282829999924
0.163416624069	1.40482199192	0.173717260361	-0.10481762886	1.67181396484	0.0294597148895
0.167118787766	1.39391601086	0.190093040466	-0.104459047318	1.67276608944	0.0310070514679
0.155974626541	1.37581086159	0.206097364426	-0.104122161865	1.67404043674	0.0343976020813
