0.0	-0.0	133.006286621	71.7621383667	87.3570251465	1.19383442402
0.0	-0.0	132.977920532	71.1675262451	86.9434204102	1.59029579163
0.0	-0.0	133.243743896	70.4896087646	86.7950592041	1.8047696352
0.0	-0.0	133.186920166	70.1895904541	86.5886611938	1.58602297306
0.0	-0.0	129.395446777	70.2041168213	86.5127639771	1.48720347881
0.0	-0.0	112.997161865	70.5342788696	86.9512405396	2.35457873344
0.0	-0.0	101.004806519	70.8950881958	87.6017227173	3.58025741577
0.0	-0.0	92.5174636841	70.4593048096	87.4489440918	4.11593389511
0.0	-0.0	85.7522201538	66.8806381226	87.0608825684	4.38731384277
0.0	-0.0	82.2773208618	60.8693466187	87.0466461182	4.0387711525
0.0	-0.0	79.6119537354	54.9538040161	85.9963912964	3.74112606049
0.0	-0.0	78.3673934937	50.2207183838	85.2523040771	4.78497648239
0.0	-0.0	76.5733642578	46.8403434753	84.4655990601	4.3738656044
0.0	-0.0	71.263168335	45.5350341797	84.4519119263	4.83397436142
0.0	-0.0	58.3804588318	44.7947807312	85.1697540283	5.29861021042
0.0	-0.0	44.7963981628	43.9611701965	86.278678894	5.85245275497
