0.0	-0.0	131.39151001	-108.434692383	81.3291854858	-176.411727905
0.0	-0.0	131.933959961	-109.071815491	80.5831069946	-176.135055542
0.0	-0.0	132.113616943	-109.191627502	79.8979873657	-175.784255981
0.0	-0.0	132.571563721	-108.290969849	79.190574646	-175.765029907
0.0	-0.0	122.01071167	-101.684936523	80.2636642456	-175.884719849
0.0	-0.0	100.807502747	-84.5205230713	82.9298782349	-174.946472168
0.0	-0.0	83.8766174316	-67.8480453491	85.2729949951	-175.383087158
0.0	-0.0	77.7747955322	-56.294216156	87.6190948486	-176.101806641
0.0	-0.0	68.0437698364	-51.2500686646	88.3505096436	-176.533416748
0.0	-0.0	72.2741851807	-53.3903961182	88.4502868652	-177.11630249
0.0	-0.0	80.8750534058	-58.3215065002	88.6937103271	-176.818283081
0.0	-0.0	82.4739608765	115.498931885	89.8356704712	2.79303836823
0.0	-0.0	83.3587036133	110.970619202	88.3134994507	2.63389515877
