0.0	-0.0	137.725845337	-109.853607178	82.2213821411	-173.621887207
0.0	-0.0	137.618103027	-110.242897034	82.2305297852	-173.748153687
0.0	-0.0	137.464767456	-109.775482178	81.6021957397	-173.982681274
0.0	-0.0	137.253952026	-109.797454834	80.3353271484	-174.048965454
0.0	-0.0	136.959686279	-110.19392395	79.1635742188	-173.725921631
0.0	-0.0	136.67010498	-110.730155945	78.170791626	-173.512176514
0.0	-0.0	135.565368652	-110.393333435	75.1882400513	-174.10118103
0.0	-0.0	128.684249878	-106.795257568	63.1145935059	-175.71043396
0.0	-0.0	120.591514587	-100.29183197	42.4917221069	-176.448852539
0.0	-0.0	111.999832153	-92.8171691895	23.8032302856	-176.216537476
0.0	-0.0	102.952812195	-84.377532959	9.47629547119	-174.646987915
0.0	-0.0	93.8135299683	-78.2914352417	4.3085603714	-173.15612793
0.0	-0.0	86.7943878174	-77.5040435791	2.89237523079	-173.999649048
0.0	-0.0	80.4502258301	-74.861328125	-0.264893591404	-173.146102905
0.0	-0.0	76.1735076904	-65.9641113281	-3.49886536598	-168.629516602
0.0	-0.0	75.4738006592	-51.6357078552	-2.66403722763	-163.232650757
0.0	-0.0	70.7716674805	-38.8002929688	-6.10526514053	-159.578475952
0.0	-0.0	65.6203384399	-31.0196800232	-18.5072650909	-157.475692749
0.0	-0.0	59.5870132446	-37.2015800476	-32.7003707886	-161.864868164
0.0	-0.0	55.2363967896	-50.3891372681	-41.9821815491	-170.151473999
0.0	-0.0	58.3007888794	-74.3697662354	-38.922504425	172.984161377
0.0	-0.0	58.4859657288	-102.757026672	-31.7464771271	156.280593872
0.0	-0.0	61.6589012146	-105.161071777	-28.7505397797	156.910110474
0.0	-0.0	63.6929244995	-96.5123977661	-27.2104530334	159.292327881
0.0	-0.0	69.7029876709	-107.859107971	-23.3450717926	148.187759399
0.0	-0.0	69.6365509033	-132.372177124	-14.9157705307	133.747543335
0.0	-0.0	59.9898643494	-144.537109375	-8.79124927521	129.805038452
0.0	-0.0	42.5013313293	-142.531417847	-8.26807022095	132.850143433
0.0	-0.0	32.7338104248	-134.35760498	-5.96749973297	138.360855103
0.0	-0.0	27.8062267303	-134.585281372	-1.64094400406	137.563369751
0.0	-0.0	16.1035900116	-133.311294556	-0.257490009069	138.716491699
0.0	-0.0	12.1561641693	-123.842079163	-1.06808423996	145.37399292
0.0	-0.0	6.71010017395	-110.005805969	-0.828383386135	154.66734314
0.0	-0.0	7.1226773262	-95.29637146	1.52727997303	164.011947632
0.0	-0.0	21.4991836548	-84.3647994995	5.9770655632	170.604797363
0.0	-0.0	49.1187438965	-80.1994857788	10.2882003784	172.59362793
0.0	-0.0	69.6018981934	-77.7528686523	15.0824890137	174.559860229
