0.0	-0.0	141.22203064	-107.854881287	84.8105697632	-171.977859497
0.0	-0.0	141.459350586	-108.547851562	85.1175613403	-172.006454468
0.0	-0.0	141.265518188	-108.931762695	84.6434707642	-172.208816528
0.0	-0.0	140.838043213	-108.668167114	83.2454833984	-172.224090576
0.0	-0.0	129.594390869	-105.974456787	79.5234832764	-172.813064575
0.0	-0.0	101.658409119	-97.3146362305	71.5818099976	-173.300765991
0.0	-0.0	87.2318725586	-87.2347640991	63.6214256287	-173.961303711
0.0	-0.0	80.6509552002	-77.6850814819	55.9574241638	-174.627243042
0.0	-0.0	76.4493637085	-69.8328018188	49.1487541199	-174.838897705
0.0	-0.0	75.5754776001	-65.7198562622	44.9003334045	-174.650375366
0.0	-0.0	77.4832000732	-65.5464096069	44.9059066772	-174.867706299
