0.0	-0.0	134.631530762	-116.226364136	88.4310073853	174.927017212
0.0	-0.0	134.090957642	-115.29598999	86.897315979	174.783843994
0.0	-0.0	133.543838501	-114.137916565	85.4573669434	174.745727539
0.0	-0.0	133.741958618	-114.05091095	85.4490509033	174.83454895
0.0	-0.0	133.57963562	-114.770896912	85.9495925903	175.186477661
0.0	-0.0	132.507553101	-116.052139282	87.529586792	175.985122681
0.0	-0.0	125.386726379	62.2595405579	87.8519058228	-3.46610975266
0.0	-0.0	109.50504303	61.1772422791	80.6502761841	-4.04718780518
0.0	-0.0	86.0360412598	58.3057479858	72.1358795166	-4.25189876556
0.0	-0.0	63.8646583557	52.746963501	62.5156059265	-4.50230455399
0.0	-0.0	47.461856842	44.2016296387	53.6865577698	-3.60878419876
0.0	-0.0	42.7335624695	35.840965271	49.1811714172	-2.89964461327
0.0	-0.0	37.5044021606	31.0758247375	48.2280426025	-1.92416954041
0.0	-0.0	35.3562889099	28.2486114502	46.7371406555	-0.14708866179
0.0	-0.0	36.8756103516	26.4196605682	45.4849700928	-0.171491593122
0.0	-0.0	45.3342819214	25.2560977936	44.3311920166	0.609755158424
0.0	-0.0	54.2355918884	24.0787467957	44.1688575745	0.97770011425
0.0	-0.0	62.9214363098	22.9160060883	44.617351532	1.6160633564
0.0	-0.0	71.2778015137	22.9399490356	43.9248352051	1.55912852287
0.0	-0.0	83.4740600586	23.8855571747	41.6728553772	0.320014506578
0.0	-0.0	73.3626327515	24.3684082031	36.0122871399	-0.602969825268
0.0	-0.0	52.7480735779	19.9520301819	31.623216629	5.30674362183
0.0	-0.0	52.566368103	3.54382586479	33.3473625183	19.9645595551
0.0	-0.0	51.4546890259	-6.801882267	33.2595977783	24.6483440399
0.0	-0.0	46.2378578186	-1.41426169872	30.4058113098	20.6356887817
0.0	-0.0	32.8785018921	8.72132778168	29.7063903809	16.0803394318
0.0	-0.0	31.6550998688	14.2655801773	28.8050327301	13.4659776688
0.0	-0.0	32.6876945496	14.6947278976	29.0304698944	12.9639587402
0.0	-0.0	37.3444747925	14.5436582565	29.5133476257	12.9943180084
0.0	-0.0	38.6356315613	16.846540451	27.6690502167	11.9287576675
0.0	-0.0	38.329082489	20.5464687347	23.0647830963	10.2867307663
0.0	-0.0	41.4182319641	23.8302574158	18.8361473083	8.81145477295
0.0	-0.0	48.1593170166	25.0373783112	17.8212490082	8.76349925995
0.0	-0.0	53.4692420959	24.9728546143	20.4997653961	8.52588748932
0.0	-0.0	52.2986373901	25.8953304291	21.8040866852	7.18940591812
0.0	-0.0	53.1894226074	27.6433563232	19.7395038605	6.37398958206
0.0	-0.0	60.8917732239	28.882516861	17.5742340088	6.01629543304
0.0	-0.0	74.9215621948	29.5036144257	17.5132217407	5.90665960312
0.0	-0.0	82.6385040283	29.6012153625	17.8692398071	5.88773298264
0.0	-0.0	90.9532546997	28.9837265015	16.5455684662	6.42139625549
0.0	-0.0	90.3603286743	28.5835609436	15.9532804489	6.71957683563
0.0	-0.0	80.5891647339	29.25365448	16.6356182098	6.32771444321
0.0	-0.0	68.0189590454	29.1457386017	17.640209198	6.1519370079
0.0	-0.0	60.9301681519	28.7828044891	18.3725967407	5.95926237106
0.0	-0.0	59.1712226868	29.1647396088	19.787902832	5.87231969833
0.0	-0.0	60.5041465759	30.0952472687	19.2286014557	5.26848077774
