-34.5606384277	-29.7098407745	141.202072144	9.71524620056	0.860823452473	2.30669593811
-34.6043510437	-29.6007003784	141.061798096	9.61728572845	1.11957252026	2.40125203133
-34.605304718	-29.55534935	141.041091919	9.5772485733	1.16654729843	2.45523262024
-34.648651123	-29.7076778412	141.016723633	9.49698829651	1.13751935959	2.47571229935
-34.1385917664	-29.8375778198	140.004867554	9.60120773315	1.30566680431	2.30275821686
-30.9132270813	-29.321723938	131.141769409	10.3040676117	2.80005049706	2.00896525383
-18.9580383301	-21.3397350311	105.45249176	11.5710783005	6.95253801346	1.84198009968
-12.2004880905	-13.7556505203	81.4132385254	13.7486457825	12.2805051804	1.89431846142
-8.71332073212	-1.39711654186	61.0738754272	16.5625419617	17.9979629517	2.41053986549
-8.44777202606	9.15089130402	52.0285720825	19.2895355225	21.7803153992	3.21782135963
-3.92194533348	11.6382331848	48.7277450562	20.2890834808	23.18034935	3.37630820274
4.87336111069	13.9835147858	46.4798431396	20.1596698761	23.8800258636	3.06753230095
16.0746822357	15.8047122955	55.0079154968	20.4793720245	24.021276474	2.96209549904
25.5949420929	15.3493356705	65.2762298584	20.8568115234	23.4663391113	2.86197710037
26.4029521942	17.9305286407	67.9645996094	21.3030128479	21.6731967926	2.72944712639
25.5778236389	22.0210838318	66.806892395	20.3406715393	19.7845592499	2.18590593338
24.9861125946	21.1803474426	60.2835464478	15.4852571487	20.0139274597	0.696932971478
24.0450248718	21.6829986572	51.8273048401	10.2505750656	22.2514343262	-0.857263326645
26.0364952087	19.6554336548	52.0783042908	10.1021432877	24.5454235077	-0.987237215042
31.8220233917	13.3683986664	55.3995170593	16.1923789978	25.6460800171	0.711475968361
35.5476837158	10.3811502457	56.6967315674	24.7917041779	26.7941589355	2.91733431816
