0.0	-0.0	130.902862549	-110.17791748	79.1576461792	-173.878692627
0.0	-0.0	130.800338745	-110.038208008	78.9168930054	-173.866104126
0.0	-0.0	130.41784668	-109.859916687	78.5198287964	-173.845840454
0.0	-0.0	130.007247925	-109.848976135	77.9716949463	-173.686508179
0.0	-0.0	127.018661499	-109.874931335	79.2715988159	-173.714263916
0.0	-0.0	114.44859314	-110.915367126	85.5462188721	-173.075698853
0.0	-0.0	104.098449707	-113.772613525	88.8549423218	-172.105743408
0.0	-0.0	96.299156189	-117.469902039	86.806350708	-170.382614136
0.0	-0.0	90.0270385742	-120.936019897	85.7968597412	-169.501495361
0.0	-0.0	83.4446029663	-123.715278625	87.3349761963	-168.943756104
