-0.0164983272552	1.10938239098	0.158275604248	-0.222412824631	1.64278256893	-0.031180024147
-0.0166447162628	1.1089040041	0.158849000931	-0.22177362442	1.64271342754	-0.0304005146027
-0.0164411067963	1.10946893692	0.159621953964	-0.220602750778	1.64343941212	-0.0299322605133
-0.0111408233643	1.11280524731	0.16331911087	-0.217973470688	1.64859807491	-0.0306143760681
-0.000448226928711	1.12044000626	0.170559167862	-0.213112354279	1.65611290932	-0.0337543487549
0.0142500400543	1.13153457642	0.180247187614	-0.20588684082	1.66315245628	-0.037936091423
0.028915643692	1.14298903942	0.189719557762	-0.198429107666	1.66812896729	-0.04239320755
0.0410752296448	1.15314817429	0.19642329216	-0.192289829254	1.67180907726	-0.0457990169525
0.0522375106812	1.16348576546	0.201433897018	-0.186770915985	1.67434895039	-0.048864364624
0.0620942115784	1.17523682117	0.203741073608	-0.180962562561	1.67701554298	-0.0518178939819
0.0664563179016	1.18227922916	0.204985976219	-0.173867702484	1.68073165417	-0.0563087463379
0.0684657096863	1.1842238903	0.20492708683	-0.166874885559	1.68507683277	-0.0618133544922
0.0703716278076	1.18308234215	0.205213546753	-0.159965515137	1.68877708912	-0.0673483610153
0.0711441040039	1.18093645573	0.20351600647	-0.153700113297	1.69328820705	-0.073765039444
0.0768201351166	1.17899024487	0.200783133507	-0.1480884552	1.69623339176	-0.0806103944778
0.094019651413	1.17762362957	0.201984763145	-0.143782138824	1.69557034969	-0.0834590196609
0.102642297745	1.18098092079	0.202914953232	-0.14161157608	1.69175076485	-0.0819101333618
0.103972434998	1.18348383904	0.198657035828	-0.141077756882	1.68975877762	-0.0798206329346
0.113713264465	1.17902362347	0.195330619812	-0.140404462814	1.68883049488	-0.0781668424606
0.12517118454	1.17566561699	0.190049290657	-0.139665842056	1.68819189072	-0.0765953063965
0.135537862778	1.17108941078	0.183735847473	-0.139048099518	1.68718469143	-0.075404882431
0.144186019897	1.16210603714	0.178190469742	-0.138435125351	1.68604648113	-0.0747838020325
0.149286031723	1.15159201622	0.173781514168	-0.137461423874	1.68517649174	-0.0742423534393
0.14675784111	1.13477301598	0.175431609154	-0.136415481567	1.6833884716	-0.0736980438232
0.136240720749	1.12547504902	0.179263591766	-0.135985136032	1.6822258234	-0.0729713439941
0.128115415573	1.12796938419	0.18025135994	-0.135876893997	1.68058538437	-0.0713249444962
0.124954223633	1.13835847378	0.17949962616	-0.135923147202	1.67870950699	-0.0692598819733
0.125461816788	1.14789807796	0.174865722656	-0.136347293854	1.67713952065	-0.0676565170288
0.12350320816	1.15695869923	0.167956113815	-0.136051177979	1.67538392544	-0.0666882991791
0.11923789978	1.16056418419	0.162016749382	-0.134842157364	1.67362701893	-0.0657489299774
0.11820268631	1.1583584547	0.157084941864	-0.132192611694	1.67183637619	-0.0645177364349
0.119004011154	1.15116322041	0.150675177574	-0.128436803818	1.67071080208	-0.0636699199677
0.12030005455	1.14045536518	0.145247220993	-0.124232053757	1.66976809502	-0.0631593465805
0.118754148483	1.1254491806	0.143767237663	-0.120671987534	1.6686270237	-0.0628025531769
0.110924243927	1.11194300652	0.144619703293	-0.118784189224	1.66798639297	-0.0619735717773
0.10490322113	1.1040802002	0.145647168159	-0.118564367294	1.66720926762	-0.0605934858322
0.0989780426025	1.10030329227	0.149526834488	-0.119474411011	1.66610467434	-0.0584319829941
0.0929737091064	1.09636306763	0.15616941452	-0.120527505875	1.66474628448	-0.0563620328903
0.0869956016541	1.0951436758	0.160307884216	-0.121650695801	1.66368699074	-0.0545725822449
0.0822172164917	1.09822964668	0.162920117378	-0.122127771378	1.66213011742	-0.0526647567749
0.0801589488983	1.10160732269	0.164166688919	-0.121534585953	1.66021132469	-0.0523331165314
0.0783026218414	1.10399770737	0.165105104446	-0.11882519722	1.66163790226	-0.0535891056061
0.0784389972687	1.10592234135	0.166272997856	-0.116556882858	1.6630910635	-0.055920958519
0.0792486667633	1.10826539993	0.16756105423	-0.113294839859	1.66452610493	-0.0585560798645
0.0805041790009	1.10997164249	0.168453335762	-0.110039234161	1.66440272331	-0.0606935024261
0.0807275772095	1.11034238338	0.169001579285	-0.107475042343	1.66359186172	-0.0609600543976
0.0802743434906	1.10893011093	0.167723417282	-0.105851173401	1.66292965412	-0.0609078407288
0.0807852745056	1.10803353786	0.166420817375	-0.105933904648	1.66364610195	-0.0611773729324
0.0830159187317	1.10908651352	0.165633678436	-0.110311746597	1.66408133507	-0.0606237649918
0.087110042572	1.11256253719	0.165437817574	-0.116344690323	1.664031744	-0.0596699714661
0.0911960601807	1.11629056931	0.166278839111	-0.120906352997	1.66376781464	-0.0589644908905
0.0941028594971	1.11878180504	0.166207551956	-0.123793840408	1.66395163536	-0.0585672855377
0.0942289829254	1.11817121506	0.165487527847	-0.12678527832	1.66440248489	-0.0585064888
0.09223985672	1.11606454849	0.165766477585	-0.132822751999	1.66422724724	-0.0579013824463
0.0887327194214	1.11677122116	0.167688727379	-0.142751932144	1.66270625591	-0.0556194782257
0.0849914550781	1.12094247341	0.169832229614	-0.151777982712	1.66192853451	-0.0543618202209
0.0834627151489	1.12415230274	0.173293113708	-0.154865980148	1.66297328472	-0.0552291870117
0.0829966068268	1.12721085548	0.176422119141	-0.153636455536	1.6647285223	-0.0560010671616
0.082456111908	1.12949848175	0.178757309914	-0.151619672775	1.66780424118	-0.0566141605377
0.083202123642	1.12809622288	0.180842161179	-0.151647806168	1.67171418667	-0.0575504302979
0.0840725898743	1.12798368931	0.18220615387	-0.151288509369	1.67515325546	-0.0593438148499
0.085711479187	1.12874889374	0.184195041656	-0.149525880814	1.67743051052	-0.0614603757858
0.0860216617584	1.1305719614	0.186481833458	-0.147174596786	1.67883396149	-0.0630602836609
0.0851080417633	1.13092589378	0.187710642815	-0.146449804306	1.68022620678	-0.0641180276871
0.0849707126617	1.12982201576	0.18744790554	-0.147029399872	1.68245649338	-0.0658321380615
0.0851860046387	1.12869131565	0.186172366142	-0.148067474365	1.68541717529	-0.0687110424042
0.0830790996552	1.1325660944	0.185653448105	-0.149761676788	1.68715119362	-0.0722796916962
0.0826897621155	1.14009845257	0.184345006943	-0.151492118835	1.6868262291	-0.0741975307465
0.0836989879608	1.14528906345	0.182827234268	-0.152920484543	1.68665146828	-0.0757677555084
0.0833694934845	1.14782118797	0.180630922318	-0.153886795044	1.68634569645	-0.0767416954041
0.0818076133728	1.14758419991	0.178038358688	-0.155032396317	1.68595671654	-0.0779552459717
0.0806629657745	1.14764726162	0.175213336945	-0.156557559967	1.68645787239	-0.0795390605927
0.0807523727417	1.14983344078	0.173166632652	-0.158205986023	1.68787741661	-0.0821973085403
0.0821418762207	1.15294146538	0.172468185425	-0.158861637115	1.68985593319	-0.0853332281113
0.0836405754089	1.15568053722	0.172280311584	-0.158679962158	1.691157341	-0.088502407074
0.0840287208557	1.15827906132	0.172758698463	-0.158970355988	1.69203209877	-0.0901546478271
0.0835354328156	1.15895175934	0.173925876617	-0.159604310989	1.69156765938	-0.090181350708
0.0830631256104	1.15699934959	0.175742268562	-0.16029047966	1.69038033485	-0.0886433124542
0.0819177627563	1.15291750431	0.177555084229	-0.161615848541	1.68915200233	-0.0857802629471
0.0798244476318	1.15082287788	0.17787528038	-0.163510799408	1.68691003323	-0.0820374488831
0.0792055130005	1.15047442913	0.178012490273	-0.164108514786	1.68485355377	-0.0784862041473
0.0807812213898	1.14960348606	0.178492546082	-0.164212942123	1.6838029623	-0.0763382911682
0.0816609859467	1.1491549015	0.179026007652	-0.163628578186	1.68398427963	-0.075989484787
0.0812258720398	1.14770805836	0.180263996124	-0.162830591202	1.6864644289	-0.077716588974
0.0793886184692	1.14509391785	0.182040691376	-0.161685466766	1.68846809864	-0.0796877145767
0.0769112110138	1.1447789669	0.183140039444	-0.160271644592	1.68876361847	-0.0800201892853
0.0748865604401	1.14775443077	0.183286547661	-0.158674478531	1.68847870827	-0.0799884796143
0.0784296989441	1.15370082855	0.181015610695	-0.15719127655	1.68843436241	-0.0796619653702
0.0870063304901	1.15960216522	0.179035902023	-0.156176805496	1.68877387047	-0.0790802240372
0.0994853973389	1.16537690163	0.177163481712	-0.155315876007	1.68870604038	-0.0786602497101
0.112847566605	1.17040216923	0.173802614212	-0.154532194138	1.6891092062	-0.0779848098755
0.126050233841	1.17292380333	0.170341491699	-0.153892278671	1.68902373314	-0.0772255659103
0.139679431915	1.17588543892	0.16462123394	-0.152820110321	1.68895709515	-0.0762543678284
