0.0	-0.0	131.96685791	-113.090415955	79.0338668823	177.84715271
0.0	-0.0	131.952209473	-113.427711487	78.7660293579	177.743377686
0.0	-0.0	132.026733398	-113.423461914	78.7293777466	177.578887939
0.0	-0.0	132.100158691	-113.506103516	79.9823379517	177.600341797
0.0	-0.0	129.93107605	-113.6848526	83.0285568237	177.847885132
0.0	-0.0	121.42288208	-114.346000671	87.0221405029	178.587173462
0.0	-0.0	108.336608887	63.8135414124	88.3752059937	-0.886509597301
0.0	-0.0	88.3714523315	61.7609367371	82.9372558594	-0.288621038198
0.0	-0.0	68.2694015503	59.1108894348	78.7069168091	0.407991021872
0.0	-0.0	51.9137611389	58.4391098022	76.4558639526	0.248753622174
0.0	-0.0	40.0672836304	59.0349578857	75.1635513306	-0.553837716579
0.0	-0.0	36.8239364624	58.8889503479	74.1141967773	-0.00645714625716
0.0	-0.0	44.960773468	57.9454612732	73.6659011841	1.02987003326
0.0	-0.0	53.4255332947	57.1709709167	72.9926757812	1.40920543671
0.0	-0.0	62.436630249	55.2701416016	71.5713348389	1.93639969826
0.0	-0.0	68.6982879639	52.1105575562	69.1335830688	2.84088921547
0.0	-0.0	71.2622756958	43.5575294495	62.9557762146	2.88825058937
0.0	-0.0	71.6313171387	28.8191223145	56.8344688416	2.95527505875
0.0	-0.0	73.395652771	17.0897102356	50.8309860229	4.86623001099
0.0	-0.0	73.9761123657	13.9687185287	44.3511161804	5.28828239441
0.0	-0.0	75.1886062622	18.1145057678	39.4403991699	3.54835891724
0.0	-0.0	78.4050521851	22.7721824646	33.9131126404	1.39315998554
0.0	-0.0	78.9212875366	24.454000473	29.1632156372	1.01063799858
0.0	-0.0	79.7977600098	22.6373519897	24.5966148376	2.73578214645
0.0	-0.0	81.8179931641	20.8921089172	18.7719268799	3.86945009232
0.0	-0.0	83.5489959717	23.1672763824	14.3025407791	2.20236635208
0.0	-0.0	83.7101974487	27.0011501312	12.8249025345	0.0781034827232
0.0	-0.0	85.4005279541	28.9668731689	9.6753911972	-0.907598257065
0.0	-0.0	84.2733230591	29.3788757324	6.5954413414	-0.93327999115
