-72.0657653809	-82.0027770996	108.369392395	8.1009759903	6.88858270645	35.2475166321
-71.2341079712	-81.5629653931	107.130279541	8.0330915451	6.61345863342	34.8946647644
-75.4166412354	-80.5267486572	112.161193848	7.79161787033	6.2401509285	34.2020454407
-85.3880767822	-80.5266952515	123.196899414	7.22811031342	6.05602741241	33.2789764404
-88.5212554932	-80.5702362061	126.598892212	5.9702911377	6.23959779739	32.002117157
-84.929725647	-80.3442306519	118.352096558	2.63879108429	6.82976198196	29.3975391388
-93.2191772461	-73.9094238281	113.313972473	-1.73572814465	7.68939828873	26.6949558258
-100.933937073	-68.9190292358	115.40713501	-6.28504514694	8.76014995575	24.3096141815
-100.30997467	-69.4562606812	113.765663147	-9.96980953217	9.23054599762	22.7702178955
-96.6508636475	-69.4600143433	107.780410767	-12.6085004807	9.48404979706	21.739233017
-93.3717498779	-69.6677932739	102.797599792	-14.3010549545	9.53633594513	20.9010982513
-94.893447876	-67.7164916992	105.247161865	-15.0248985291	8.84693145752	20.6829566956
-97.6967849731	-67.854309082	109.031158447	-14.9285449982	7.85490036011	20.4782886505
-104.497703552	-68.0173721313	116.425018311	-15.162694931	6.8236041069	20.2574577332
-109.854530334	-68.154335022	122.153640747	-15.5898799896	6.16483783722	20.1965236664
-107.986198425	-68.3735351562	119.860946655	-15.6378746033	6.02825641632	20.2612247467
-99.9588317871	-67.7886657715	110.136146545	-15.5688619614	5.84193992615	20.4171619415
-94.8981552124	-67.0378570557	104.385101318	-15.5940752029	5.09032869339	20.6385097504
-94.23828125	-67.1207046509	104.065010071	-15.9290895462	4.81092882156	21.0175228119
-96.7526931763	-66.4550476074	107.438468933	-16.1835708618	5.17116165161	21.097076416
-100.742874146	-66.4663009644	112.550430298	-16.3131408691	4.95356035233	21.0266666412
-103.08543396	-67.2571411133	115.95022583	-16.3448753357	4.44037389755	20.8530635834
-104.874855042	-67.7818984985	117.443489075	-16.4114494324	4.35215568542	20.729057312
-102.671096802	-67.5708389282	114.630638123	-16.4870204926	4.26277351379	20.5849533081
-100.772857666	-67.1912994385	112.359886169	-16.6361465454	3.97140812874	20.589099884
-100.346946716	-66.7544326782	111.817298889	-17.0816059113	3.82246637344	20.6813716888
-99.9074630737	-66.8384628296	111.717597961	-17.9441661835	3.8932454586	20.2421321869
-99.6768569946	-67.1219482422	111.959381104	-16.4956054688	4.0382399559	20.3913402557
-98.7798690796	-67.6683197021	111.963111877	-11.3109025955	4.2990064621	25.3881874084
-96.3542175293	-68.0270767212	111.250762939	-7.76428413391	4.18463373184	30.2450180054
-94.1156311035	-67.5129928589	110.453186035	-8.00477600098	4.77781581879	32.0325012207
-93.1013259888	-66.8946685791	109.62461853	-11.8061656952	6.62140703201	32.2269134521
-93.6178665161	-66.3403015137	108.828025818	-17.9627475739	9.10674667358	31.2369766235
-95.4507446289	-65.3854827881	108.576751709	-23.6098442078	10.66543293	29.4484825134
-97.9920196533	-64.8467330933	110.0676651	-27.1581687927	10.9745464325	27.8900756836
-101.170928955	-64.426109314	112.226875305	-28.6166820526	10.1854486465	26.699005127
-103.713394165	-63.9719772339	113.99433136	-30.3222751617	8.7506608963	25.0660057068
-105.004241943	-63.6418952942	114.389427185	-32.8535232544	7.66991567612	22.7882499695
-105.399215698	-63.38438797	114.285522461	-34.8811187744	7.30845117569	20.4087810516
-105.425598145	-63.4985313416	114.428909302	-35.558795929	6.89291000366	19.2670783997
-104.075714111	-64.0582122803	114.28994751	-33.9470100403	6.9494767189	19.4942359924
-101.795455933	-64.4843673706	112.846458435	-31.4546070099	7.54966640472	19.3384552002
-101.364860535	-64.5126571655	112.250434875	-30.0684528351	7.72517299652	19.5777320862
-97.9457168579	-65.013053894	108.710479736	-30.054473877	7.83109855652	19.826210022
-96.7761154175	-65.2551727295	107.181762695	-30.082239151	7.93116617203	19.6850891113
-96.8380279541	-64.6561737061	107.357650757	-29.8023395538	7.96096324921	19.5956916809
-99.9779205322	-63.489276886	110.980583191	-29.7826099396	7.79066371918	19.5794582367
-103.062278748	-62.6809692383	114.871681213	-29.9121646881	7.5640411377	19.4380264282
-106.366882324	-62.2238006592	118.908889771	-29.6218910217	7.39836120605	19.4895000458
-105.176216125	-61.8820915222	117.747894287	-29.28282547	7.35848855972	19.5914478302
-100.257751465	-61.0698051453	111.985488892	-29.0443916321	7.22419023514	19.5023326874
-96.3278198242	-59.9179496765	107.89087677	-28.7847499847	6.99600505829	19.5818214417
-95.3685913086	-59.4164276123	106.800384521	-28.6302165985	7.10837697983	19.5226860046
-96.1154327393	-58.9027290344	107.776046753	-28.1169300079	7.26610326767	19.1142711639
-97.8456192017	-58.4412994385	109.714416504	-27.1818237305	6.98935556412	18.557964325
-99.6853179932	-59.4148406982	112.132255554	-25.8117790222	6.6190829277	17.8269500732
-101.632003784	-60.2892379761	115.308273315	-24.4101257324	6.16961812973	16.9628982544
