-0.056770324707	1.16463339329	0.138963460922	-0.205058813095	1.64394962788	-0.0141048431396
-0.057110786438	1.16494953632	0.138252615929	-0.206226825714	1.64416575432	-0.0148528814316
-0.0580518245697	1.16558206081	0.138386368752	-0.207359790802	1.64485180378	-0.0154187679291
-0.0580563545227	1.16647827625	0.13870716095	-0.20756816864	1.64523983002	-0.0159554481506
-0.0530984401703	1.16896438599	0.141512870789	-0.204164266586	1.64570450783	-0.0159621238708
-0.0393779277802	1.17246127129	0.147709131241	-0.196922779083	1.64762961864	-0.0158973932266
-0.0188329219818	1.17871701717	0.154072761536	-0.187720298767	1.65000939369	-0.0164633989334
0.00359296798706	1.18673396111	0.157808661461	-0.177423715591	1.65201830864	-0.0175030231476
0.0243022441864	1.19264996052	0.1594145298	-0.167648553848	1.65348267555	-0.0193922519684
0.0437979698181	1.19939398766	0.157653450966	-0.158689975739	1.65486812592	-0.0220540761948
0.056099653244	1.20395421982	0.15312898159	-0.149547338486	1.65489459038	-0.0252387523651
0.0624825954437	1.20658433437	0.149666190147	-0.140373706818	1.65448725224	-0.0290050506592
0.0692591667175	1.21084010601	0.146920442581	-0.132937669754	1.65387177467	-0.0317784547806
0.0808136463165	1.21376478672	0.144179582596	-0.127087593079	1.65247023106	-0.0334831476212
