-56.1787757874	-76.9850463867	88.0850753784	10.810792923	7.81448078156	34.9140663147
-57.7604103088	-77.1515960693	90.0333480835	10.9309482574	7.90435886383	34.8714561462
-61.2974052429	-76.9932937622	93.5031585693	10.9481811523	8.04918384552	34.797908783
-61.598487854	-76.9022064209	93.7196273804	10.8896913528	7.81931114197	34.5785713196
-62.2801780701	-76.7656555176	93.8942260742	9.7897901535	6.04944038391	32.8698387146
-64.2367782593	-76.2077865601	94.2177734375	8.07857322693	4.38118982315	29.4061527252
-71.7090988159	-74.8635864258	100.693618774	7.12816953659	3.52979493141	26.0296077728
-78.4535827637	-74.2370071411	108.909683228	7.1917424202	3.04744577408	23.1107025146
-58.9548683167	-77.2288665771	95.38331604	7.87096071243	3.05571818352	20.8258266449
-48.8038864136	-78.7739028931	91.6711349487	8.35106945038	2.89260363579	19.2360897064
-62.493144989	-78.7205200195	109.005706787	8.55256462097	2.40731525421	17.8680591583
