0.16351890564	1.02895212173	0.209445476532	-0.160686969757	1.67908191681	-0.0334272384644
0.163156509399	1.02952337265	0.210900068283	-0.161477088928	1.67869830132	-0.0328617095947
0.163042545319	1.03056788445	0.212191343307	-0.161907434464	1.6781014204	-0.0328946113586
0.163187742233	1.0317697525	0.213021636009	-0.162341594696	1.67778193951	-0.0338788032532
0.162848472595	1.03258132935	0.212916731834	-0.162498474121	1.677344203	-0.0355744361877
0.162631988525	1.03284525871	0.211859703064	-0.16260433197	1.67594385147	-0.0372956991196
0.161767721176	1.03204154968	0.210625767708	-0.162977695465	1.67382872105	-0.0384303331375
0.160953521729	1.03220939636	0.209533929825	-0.162623405457	1.66705572605	-0.0383937358856
0.160938978195	1.03494334221	0.208688497543	-0.162031412125	1.65916013718	-0.0371828079224
0.16169667244	1.03627586365	0.207423686981	-0.162113189697	1.65351223946	-0.0359982252121
0.162417650223	1.03580617905	0.205288529396	-0.163409471512	1.64839279652	-0.0346083641052
0.161519289017	1.03421640396	0.203379511833	-0.16663146019	1.63928222656	-0.0321768522263
0.153494119644	1.02836537361	0.204912900925	-0.172010421753	1.62606871128	-0.0289698839188
0.140730619431	1.01913714409	0.206230640411	-0.177282810211	1.61318600178	-0.0259273052216
0.13340473175	1.01247000694	0.204986691475	-0.180117607117	1.60408461094	-0.0226988792419
0.129687786102	1.00299334526	0.202529072762	-0.179857254028	1.59870052338	-0.0194110870361
0.129073381424	0.992583036423	0.197647094727	-0.178080320358	1.59572696686	-0.0163390636444
0.131027698517	0.980492830276	0.189178943634	-0.175585985184	1.59285593033	-0.0142476558685
0.135854244232	0.967636346817	0.177371621132	-0.172959566116	1.59081804752	-0.0133955478668
0.142592191696	0.968479156494	0.175818681717	-0.170775175095	1.59251594543	-0.0120422840118
0.142498493195	0.980542182922	0.178398132324	-0.167236804962	1.59909713268	-0.0104831457138
0.139645338058	0.994344711304	0.182662010193	-0.164234161377	1.60362565517	-0.0108647346497
0.135996580124	1.00588965416	0.186097979546	-0.162710905075	1.60823369026	-0.011075258255
0.133850574493	1.01240825653	0.188553094864	-0.161666154861	1.61254227161	-0.0116457939148
0.131394147873	1.0127632618	0.190695285797	-0.160695075989	1.61190247536	-0.0125176906586
0.129092693329	1.01304483414	0.19168138504	-0.159717082977	1.60762953758	-0.0136756896973
0.126785039902	1.00951719284	0.190728068352	-0.158710002899	1.60610496998	-0.0146276950836
0.126620054245	0.990875482559	0.184987068176	-0.157278776169	1.60634899139	-0.0164334774017
0.123356342316	0.97084736824	0.173003911972	-0.155484437943	1.60668873787	-0.0193917751312
0.123365163803	0.956674337387	0.158321976662	-0.154055356979	1.60714662075	-0.0228033065796
0.121520519257	0.944636821747	0.146741390228	-0.152828454971	1.60791993141	-0.026291847229
0.124814271927	0.949703931808	0.148674845695	-0.152294158936	1.60903167725	-0.0293304920197
0.125774383545	0.968716859818	0.157593607903	-0.151992082596	1.60960900784	-0.0322463512421
0.130221366882	0.987165927887	0.16238462925	-0.151849985123	1.61032283306	-0.034441947937
0.128593206406	1.00462460518	0.163987755775	-0.151944875717	1.61103487015	-0.0361199378967
0.12610578537	1.0195555687	0.163479804993	-0.152326345444	1.61136853695	-0.0375435352325
0.124228477478	1.03092503548	0.16278231144	-0.152932405472	1.6116232872	-0.038635134697
0.124772310257	1.03981089592	0.162181735039	-0.152969360352	1.61177706718	-0.039687037468
0.125823020935	1.04834318161	0.161683678627	-0.152602910995	1.61161744595	-0.040099978447
0.125680685043	1.05561280251	0.16194999218	-0.152099132538	1.61138963699	-0.039990901947
0.124808311462	1.06456506252	0.16338634491	-0.15177154541	1.61072790623	-0.0391827821732
0.124088048935	1.07249891758	0.167040348053	-0.151777982712	1.61054062843	-0.0384014844894
0.125152349472	1.07501804829	0.171731710434	-0.152184486389	1.6110547781	-0.0378158092499
0.126677513123	1.07421886921	0.177609443665	-0.153162002563	1.61178100109	-0.0374708175659
0.123758554459	1.06930160522	0.179851055145	-0.153698682785	1.61253225803	-0.0372823476791
0.125344514847	1.06406700611	0.18238401413	-0.153562307358	1.61189079285	-0.0370514392853
0.130985736847	1.05882000923	0.183675050735	-0.15296125412	1.61144280434	-0.0367832183838
0.139593601227	1.05250787735	0.185212850571	-0.152466058731	1.61216723919	-0.0366080999374
0.14945602417	1.04751753807	0.184836983681	-0.152360677719	1.61241579056	-0.0363835096359
0.148114919662	1.04447960854	0.183232069016	-0.153232574463	1.61250972748	-0.0362992286682
0.136458158493	1.04253077507	0.181417346001	-0.15457868576	1.61261570454	-0.0363252162933
0.129537820816	1.04359769821	0.180861949921	-0.156278371811	1.6124818325	-0.0364418029785
0.126868486404	1.04567742348	0.182381391525	-0.15758728981	1.61224639416	-0.036390542984
0.131832361221	1.04769039154	0.183895111084	-0.158998012543	1.61232352257	-0.0365960597992
0.142809152603	1.04542374611	0.184354543686	-0.16005563736	1.61249566078	-0.0369265079498
0.148848295212	1.04035305977	0.18296456337	-0.161113739014	1.6125729084	-0.037504196167
0.147904872894	1.03651547432	0.181681871414	-0.161383152008	1.61278939247	-0.0376771688461
0.140726566315	1.03380322456	0.181925773621	-0.161116838455	1.61270189285	-0.0377593040466
0.137757301331	1.02829527855	0.181300997734	-0.161379575729	1.61264610291	-0.0384950637817
0.138557434082	1.01766204834	0.179533481598	-0.161544561386	1.61267876625	-0.0392717123032
0.137990474701	1.00584697723	0.176186680794	-0.161748409271	1.61260294914	-0.0397814512253
0.138125896454	1.00066018105	0.171934843063	-0.162148237228	1.61244428158	-0.040069937706
0.137172937393	0.993049860001	0.167894721031	-0.162848472595	1.61243784428	-0.0403559207916
0.135610580444	0.981052398682	0.16025686264	-0.163904905319	1.61246168613	-0.0408005714417
0.138217687607	0.982181072235	0.159683227539	-0.165019989014	1.61275422573	-0.0407228469849
0.137421131134	1.00465965271	0.16471850872	-0.16602396965	1.61235797405	-0.0402483940125
0.134348392487	1.02189946175	0.166369915009	-0.165946483612	1.6118106842	-0.0398772954941
0.131484746933	1.03272151947	0.167087078094	-0.165824890137	1.61177933216	-0.0393028259277
0.130341291428	1.03955793381	0.167820453644	-0.166009426117	1.61171114445	-0.0385195016861
0.133076906204	1.04414010048	0.169478535652	-0.165751457214	1.61167025566	-0.0374910831451
0.134770870209	1.04643249512	0.172538280487	-0.165356874466	1.61155796051	-0.035879611969
0.132084608078	1.04657006264	0.176362037659	-0.164896249771	1.61188232899	-0.0337853431702
0.132222175598	1.04470896721	0.180003523827	-0.16456246376	1.61230671406	-0.031702041626
0.131017684937	1.0387365818	0.182595849037	-0.164326667786	1.6124162674	-0.0292363166809
0.128492116928	1.03190302849	0.18378162384	-0.164328336716	1.61200141907	-0.0272033214569
0.12789940834	1.03059768677	0.184584617615	-0.164347171783	1.61185014248	-0.0256806612015
0.128030061722	1.03299403191	0.185810804367	-0.164434671402	1.61194849014	-0.024742603302
0.126444578171	1.04026246071	0.187587976456	-0.165041923523	1.61205542088	-0.0243716239929
0.125649690628	1.04899692535	0.18893456459	-0.166182994843	1.61201500893	-0.0240306854248
0.123425960541	1.05676627159	0.189104795456	-0.167446136475	1.61194646358	-0.0234961509705
0.122848510742	1.06405436993	0.188757061958	-0.169032335281	1.61178040504	-0.0224620103836
0.120363950729	1.07147669792	0.187874078751	-0.170651674271	1.61131584644	-0.0211818218231
0.116009712219	1.08190143108	0.185353517532	-0.172211170197	1.61069631577	-0.0201345682144
0.110851764679	1.09125113487	0.182399511337	-0.173803567886	1.61032700539	-0.0198132991791
0.107094287872	1.10021603107	0.177702903748	-0.175801992416	1.61024165154	-0.019782781601
0.103827476501	1.1087269783	0.17301928997	-0.177999258041	1.60999929905	-0.0197682380676
0.101839780807	1.11556208134	0.170939564705	-0.179848670959	1.60986316204	-0.019722700119
0.101167917252	1.12335991859	0.170408248901	-0.181444644928	1.60937702656	-0.0201795101166
0.0989661216736	1.12916731834	0.170514345169	-0.182932376862	1.60868394375	-0.020624756813
0.0998170375824	1.13148915768	0.172438025475	-0.183916091919	1.60841333866	-0.0208729505539
0.0995042324066	1.13390147686	0.173043966293	-0.184657096863	1.60712599754	-0.0215759277344
0.100077152252	1.13799595833	0.172988772392	-0.184263706207	1.60463726521	-0.0224022865295
0.100468635559	1.14109110832	0.173196792603	-0.182896375656	1.60108482838	-0.0240173339844
0.100516080856	1.14079868793	0.173305749893	-0.180956363678	1.59857463837	-0.0253834724426
0.101118087769	1.13851130009	0.172111868858	-0.178539514542	1.59754908085	-0.0260272026062
0.103044033051	1.13608050346	0.17131960392	-0.17570734024	1.59545338154	-0.0266371965408
0.105154275894	1.13453054428	0.170766353607	-0.172496795654	1.59028172493	-0.027530670166
0.106520652771	1.1340739727	0.170950651169	-0.169326066971	1.58537209034	-0.0275024175644
0.107592105865	1.13321423531	0.172246932983	-0.167434692383	1.58458209038	-0.0256259441376
0.107065916061	1.13110041618	0.172734618187	-0.167793512344	1.58611273766	-0.0238873958588
0.10653758049	1.13014173508	0.172635197639	-0.17148900032	1.58621990681	-0.0233879089355
0.107773065567	1.12879300117	0.171634435654	-0.176798343658	1.58607625961	-0.0239709615707
0.109986543655	1.12692534924	0.171245932579	-0.179402112961	1.58668708801	-0.0245234966278
0.110760688782	1.12657785416	0.172301054001	-0.178925275803	1.58874833584	-0.0240869522095
0.110984802246	1.12900972366	0.173448324203	-0.176282167435	1.59184360504	-0.0229651927948
0.110424041748	1.13073301315	0.174535512924	-0.172788619995	1.59566962719	-0.021672129631
0.11002612114	1.13143181801	0.175328016281	-0.171656131744	1.59858441353	-0.0205919742584
0.109581708908	1.13087248802	0.174940109253	-0.172788143158	1.59957563877	-0.020216345787
0.109619140625	1.13092947006	0.174769878387	-0.175190210342	1.59900999069	-0.0200915336609
0.107142925262	1.13083815575	0.174473047256	-0.178857564926	1.59828877449	-0.0203913450241
0.103624820709	1.12827348709	0.174915075302	-0.18273973465	1.59667646885	-0.0210764408112
0.102164030075	1.12601172924	0.174775958061	-0.18563079834	1.59475743771	-0.0215497016907
0.0997819900513	1.12484645844	0.175060987473	-0.188717603683	1.59176790714	-0.0224885940552
0.0963885784149	1.12342774868	0.175978899002	-0.192901134491	1.58855044842	-0.0235607624054
0.0931379795074	1.12180042267	0.176736950874	-0.196011543274	1.58663344383	-0.0242762565613
0.091406583786	1.12130367756	0.176773428917	-0.1972219944	1.58517181873	-0.0254130363464
0.0915579795837	1.12157285213	0.176735043526	-0.200277805328	1.58441007137	-0.0268185138702
0.0929574966431	1.12178862095	0.175445318222	-0.205397367477	1.5837430954	-0.0293456315994
0.0953707695007	1.12146532536	0.174448132515	-0.208770036697	1.58347094059	-0.0316047668457
0.0976297855377	1.12120699883	0.174075126648	-0.207514286041	1.58355379105	-0.0322177410126
0.0986516475677	1.12162280083	0.174407482147	-0.205457448959	1.58426630497	-0.0318191051483
0.0994212627411	1.12202680111	0.17531812191	-0.203790903091	1.58517789841	-0.0315017700195
0.100428819656	1.12136805058	0.17761862278	-0.202997922897	1.58570206165	-0.0313601493835
0.1013276577	1.1169219017	0.182560920715	-0.202852487564	1.58565187454	-0.0316035747528
0.0994808673859	1.11036074162	0.185178041458	-0.202676773071	1.58549749851	-0.0315003395081
0.0986189842224	1.1050106287	0.185797214508	-0.202519178391	1.58544516563	-0.0308054685593
0.0988237857819	1.10209536552	0.187052726746	-0.201769828796	1.58513331413	-0.0299847126007
0.0976939201355	1.10044586658	0.189209103584	-0.200619697571	1.58509278297	-0.0291204452515
0.0948581695557	1.09647059441	0.190695524216	-0.199460268021	1.58514738083	-0.0285918712616
0.0908071994781	1.09118711948	0.190336704254	-0.199038505554	1.58500623703	-0.0283119678497
0.0867493152618	1.08476340771	0.188629627228	-0.19894361496	1.58463418484	-0.0281878709793
0.0818853378296	1.07695746422	0.187251210213	-0.198644161224	1.58458602428	-0.0280029773712
0.0826606750488	1.0729072094	0.187772750854	-0.198318004608	1.58425617218	-0.0279970169067
0.0853245258331	1.07162976265	0.189404010773	-0.19802236557	1.58386194706	-0.0283192396164
0.0867328643799	1.07141840458	0.18940448761	-0.197720527649	1.58368384838	-0.0286982059479
0.0870904922485	1.07073438168	0.187857627869	-0.197402954102	1.5836943388	-0.0298385620117
0.0921189785004	1.0704344511	0.186637639999	-0.197150468826	1.58382415771	-0.0308661460876
0.0949289798737	1.07274985313	0.18193769455	-0.196789264679	1.58383691311	-0.0318232774734
0.0915026664734	1.07320904732	0.18016576767	-0.196341991425	1.58374559879	-0.0322035551071
0.0899004936218	1.07209229469	0.180468320847	-0.195662498474	1.58353102207	-0.0323367118835
0.0854256153107	1.06656372547	0.180892825127	-0.195796251297	1.58318662643	-0.0318441390991
0.0833904743195	1.05847144127	0.179312229156	-0.196588993073	1.58242797852	-0.0307874679565
0.0841958522797	1.04747009277	0.178681969643	-0.197195291519	1.58182477951	-0.0294976234436
0.0866525173187	1.03910112381	0.181455612183	-0.197535037994	1.58146011829	-0.0276052951813
0.0902190208435	1.03443098068	0.185481667519	-0.197319507599	1.58136558533	-0.0259826183319
0.0883660316467	1.03724169731	0.185141086578	-0.19814157486	1.58136212826	-0.0245311260223
0.084721326828	1.0431637764	0.182992100716	-0.199722290039	1.5812574625	-0.0233910083771
0.0809173583984	1.05204796791	0.180597424507	-0.200931072235	1.58120703697	-0.0220798254013
0.0773887634277	1.06111347675	0.179469108582	-0.202131032944	1.58097028732	-0.0209851264954
0.0729811191559	1.06780517101	0.178238868713	-0.203636169434	1.58076763153	-0.0197830200195
0.0681653022766	1.07205450535	0.176013231277	-0.205362796783	1.5804233551	-0.0187059640884
0.0633273124695	1.07297480106	0.174914002419	-0.206591129303	1.57981550694	-0.0175144672394
0.0555417537689	1.06960010529	0.172035574913	-0.207334280014	1.57960224152	-0.0165493488312
0.0439591407776	1.05683803558	0.166821122169	-0.208091020584	1.57943475246	-0.0158247947693
0.0338623523712	1.03775906563	0.159833788872	-0.208973169327	1.57895863056	-0.0152621269226
0.0309858322144	1.01514291763	0.155501723289	-0.209588527679	1.57874143124	-0.0144917964935
0.0361063480377	0.986351013184	0.152568459511	-0.210062503815	1.57863783836	-0.0142614841461
0.0436446666718	0.956614494324	0.142633795738	-0.210883140564	1.57885754108	-0.0150158405304
0.0507402420044	0.935836315155	0.128925323486	-0.212488174438	1.5794172287	-0.0157737731934
0.0527622699738	0.941550970078	0.125268220901	-0.213417053223	1.57926702499	-0.0158562660217
0.051771402359	0.969800710678	0.137507677078	-0.211557626724	1.57861948013	-0.0152535438538
0.0514512062073	1.01028633118	0.155918121338	-0.209458827972	1.57873153687	-0.0148010253906
0.0489940643311	1.05214452744	0.1707508564	-0.208522796631	1.57863163948	-0.0145020484924
0.0450804233551	1.08873128891	0.180483579636	-0.2088098526	1.57828962803	-0.0146299600601
0.0402021408081	1.11615133286	0.185652017593	-0.209555149078	1.57844233513	-0.0148348808289
0.0348999500275	1.13133215904	0.187209367752	-0.210672140121	1.57856965065	-0.0149595737457
0.0294742584229	1.12327730656	0.19446015358	-0.211426496506	1.57846593857	-0.0150961875916
0.0304310321808	1.10472941399	0.20674932003	-0.212049007416	1.57854127884	-0.0145927667618
0.0271534919739	1.08544993401	0.21097946167	-0.211717605591	1.5782045126	-0.0138564109802
0.0277380943298	1.06852900982	0.211655139923	-0.210654020309	1.57825171947	-0.0133059024811
0.0281445980072	1.05660843849	0.211042404175	-0.209663152695	1.57872664928	-0.0127980709076
0.0280160903931	1.06134343147	0.208105802536	-0.209257125854	1.57883787155	-0.0122574567795
0.0269739627838	1.07239818573	0.203136324883	-0.208924055099	1.57834339142	-0.0117132663727
0.0260570049286	1.08212828636	0.197226285934	-0.208667993546	1.57820212841	-0.011487364769
0.0264279842377	1.0881742239	0.193449020386	-0.209115505219	1.57808291912	-0.011509180069
0.0240817070007	1.09058845043	0.190195798874	-0.209361076355	1.57786750793	-0.0114768743515
0.0220303535461	1.08968138695	0.186001062393	-0.208929300308	1.57773077488	-0.0114665031433
0.0185399055481	1.08237922192	0.180584192276	-0.208606243134	1.57716822624	-0.0114777088165
0.0159840583801	1.06880915165	0.174178242683	-0.208157062531	1.57642316818	-0.0113414525986
0.0152540206909	1.0519361496	0.16769015789	-0.207388877869	1.57547986507	-0.0110740661621
0.0180768966675	1.03627991676	0.161128163338	-0.206510782242	1.57534372807	-0.0104911327362
0.0220160484314	1.01473259926	0.161261916161	-0.20562338829	1.57548117638	-0.0101212263107
0.0269439220428	0.995420694351	0.16065621376	-0.204383850098	1.57561862469	-0.00999975204468
0.0297539234161	0.979358196259	0.157720685005	-0.203759670258	1.57596695423	-0.0100848674774
0.0362420082092	0.958063840866	0.155307650566	-0.203166246414	1.57637119293	-0.0104159116745
0.0415968894958	0.941769599915	0.148641467094	-0.202408790588	1.57705020905	-0.0113658905029
0.043196439743	0.950856208801	0.148427128792	-0.20176410675	1.57771730423	-0.0113935470581
0.0441975593567	0.977610349655	0.160114169121	-0.20020866394	1.57732093334	-0.0115358829498
0.0452473163605	1.011251688	0.178764343262	-0.198339223862	1.57711493969	-0.0116715431213
0.0438330173492	1.04532933235	0.195411801338	-0.197743415833	1.57715606689	-0.0123018026352
0.0430505275726	1.07430577278	0.208318710327	-0.197829008102	1.57705891132	-0.0132558345795
0.0408773422241	1.0975830555	0.217742323875	-0.19852399826	1.57718718052	-0.0138580799103
0.0365509986877	1.11578011513	0.224273443222	-0.199523925781	1.57713520527	-0.0137219429016
0.0315024852753	1.13107562065	0.229019761086	-0.200215816498	1.57679212093	-0.0132559537888
0.0269734859467	1.14369106293	0.234738230705	-0.200749397278	1.57676792145	-0.0130475759506
0.0229895114899	1.15213119984	0.243174672127	-0.200804710388	1.57757544518	-0.0129237174988
0.0179870128632	1.15308129787	0.252236247063	-0.200883865356	1.57852566242	-0.0129935741425
0.0297091007233	1.14647996426	0.262439846992	-0.201725244522	1.57905519009	-0.0130534172058
0.0552361011505	1.13561868668	0.269542455673	-0.203633308411	1.57958507538	-0.0129380226135
0.0854861736298	1.12512922287	0.271344900131	-0.20593047142	1.57980930805	-0.0120854377747
0.110795259476	1.11846554279	0.269159913063	-0.207597732544	1.57948172092	-0.0107336044312
0.129519701004	1.11547362804	0.26481115818	-0.207954883575	1.57925033569	-0.00934934616089
0.13996219635	1.1133954525	0.260715961456	-0.207520961761	1.5794864893	-0.00833594799042
0.139691114426	1.11028695107	0.258755683899	-0.206942081451	1.5796238184	-0.00750946998596
0.125021457672	1.10459327698	0.257316708565	-0.206665992737	1.5792273283	-0.00685858726501
0.103961706161	1.09574103355	0.253486037254	-0.207087755203	1.57913517952	-0.00620317459106
0.0844147205353	1.08604800701	0.247430205345	-0.20792388916	1.57895946503	-0.00531244277954
0.0657222270966	1.07637763023	0.239234805107	-0.208209991455	1.57862138748	-0.00478911399841
0.0455441474915	1.06755971909	0.231016874313	-0.207360506058	1.57837891579	-0.0044629573822
0.0143148899078	1.05778813362	0.224302172661	-0.205810070038	1.57829034328	-0.00408530235291
-0.022064447403	1.05155301094	0.219918608665	-0.204581975937	1.57842624187	-0.00403666496277
-0.0559673309326	1.05009961128	0.218245029449	-0.203822374344	1.57838666439	-0.00455093383789
-0.0858232975006	1.05148243904	0.216256380081	-0.20362329483	1.57829809189	-0.00508713722229
-0.106547117233	1.05161762238	0.214287638664	-0.204016447067	1.5786434412	-0.0055365562439
-0.107187271118	1.04708957672	0.215926647186	-0.205669403076	1.57900512218	-0.00552082061768
-0.0888295173645	1.03777647018	0.2201359272	-0.20783162117	1.57896101475	-0.00538897514343
-0.0550038814545	1.02999806404	0.225763082504	-0.210207462311	1.57888269424	-0.00479853153229
-0.0151972770691	1.0244641304	0.228914618492	-0.211853742599	1.57864022255	-0.00348353385925
0.0224177837372	1.02202606201	0.229397416115	-0.212214946747	1.57859528065	-0.00169825553894
0.0484819412231	1.02358794212	0.228319883347	-0.21250128746	1.57965624332	0.000376343727112
0.0566468238831	1.03169894218	0.225399136543	-0.212986469269	1.5799113512	0.00277638435364
0.0572946071625	1.04404497147	0.220668911934	-0.213573932648	1.57898938656	0.00453948974609
0.0572843551636	1.05785655975	0.216325640678	-0.214440345764	1.57806658745	0.00682008266449
0.054009437561	1.07415723801	0.212207078934	-0.214216709137	1.57643842697	0.00967657566071
0.0487985610962	1.09096860886	0.206994056702	-0.212859630585	1.57424294949	0.0122720003128
0.0464668273926	1.0977203846	0.207583189011	-0.211159467697	1.57475829124	0.0130112171173
0.0477685928345	1.09884929657	0.21427488327	-0.209396839142	1.57694876194	0.0101962089539
0.0488986968994	1.11054778099	0.216340065002	-0.209123134613	1.57943582535	0.0077497959137
0.0443921089172	1.12674367428	0.21328163147	-0.208973646164	1.57927525043	0.00571894645691
0.0408372879028	1.13635444641	0.209078550339	-0.208593845367	1.57940781116	0.00447976589203
0.0414483547211	1.13542866707	0.20662176609	-0.207177400589	1.57933282852	0.00336146354675
0.0406765937805	1.12638640404	0.209127426147	-0.205938816071	1.57958436012	0.00281226634979
0.0415067672729	1.10557770729	0.217748641968	-0.204697132111	1.57950460911	0.00273716449738
0.0404353141785	1.08058691025	0.217314362526	-0.204048633575	1.5784624815	0.00244235992432
0.0389885902405	1.05516552925	0.210458874702	-0.203880548477	1.57666110992	0.00100493431091
0.041277885437	1.02901029587	0.201558947563	-0.203682661057	1.57582080364	-0.000475168228149
0.0458953380585	1.00149679184	0.191328883171	-0.202946662903	1.57717216015	-0.00177025794983
0.0515768527985	0.975856304169	0.181834697723	-0.202095746994	1.57927143574	-0.00297677516937
0.0554649829865	0.959015846252	0.176312088966	-0.200506925583	1.5809892416	-0.00382733345032
0.0552623271942	0.950506925583	0.17613863945	-0.198893785477	1.58212804794	-0.00526571273804
0.0562245845795	0.952822685242	0.178965806961	-0.198283910751	1.58329927921	-0.0063910484314
0.0552997589111	0.966332912445	0.183698773384	-0.198220729828	1.58390665054	-0.00688350200653
0.0523900985718	0.985420227051	0.189303398132	-0.197971343994	1.58412194252	-0.00830984115601
0.048348903656	1.0029695034	0.194910764694	-0.197834968567	1.5849905014	-0.00949382781982
0.0436680316925	1.01985120773	0.196407556534	-0.198425769806	1.58646440506	-0.0107741355896
0.0390274524689	1.03457975388	0.196212291718	-0.19931936264	1.58888483047	-0.0116713047028
0.0350296497345	1.0492208004	0.195973992348	-0.199940443039	1.59092748165	-0.0122492313385
0.03044962883	1.06600189209	0.194475412369	-0.200304508209	1.59226763248	-0.0125114917755
0.0241546630859	1.08058357239	0.192270874977	-0.199875593185	1.59181046486	-0.0130146741867
0.0167484283447	1.08827257156	0.191461205482	-0.198869228363	1.59048128128	-0.0133383274078
0.00817966461182	1.09153532982	0.189720869064	-0.198328971863	1.59088051319	-0.0134119987488
-0.00201725959778	1.09285962582	0.187428951263	-0.198173522949	1.59003281593	-0.012874007225
-0.0138356685638	1.09267866611	0.183987617493	-0.198663949966	1.58899891376	-0.0122507810593
-0.019909620285	1.09115827084	0.184286117554	-0.200535058975	1.58838629723	-0.0116181373596
-0.0208556652069	1.08901083469	0.185930252075	-0.203474760056	1.58653414249	-0.0112104415894
-0.0204792022705	1.08681309223	0.185469865799	-0.206115245819	1.58549642563	-0.0103213787079
-0.0182542800903	1.08522605896	0.184722661972	-0.208514451981	1.58492565155	-0.00957798957825
-0.0163776874542	1.08648717403	0.184618830681	-0.210790634155	1.58350813389	-0.00943374633789
-0.0174140930176	1.08947777748	0.183343410492	-0.213652133942	1.58138644695	-0.00951528549194
-0.0186700820923	1.09121346474	0.183167695999	-0.216347932816	1.57850110531	-0.00997030735016
-0.0208125114441	1.09061574936	0.182587742805	-0.218768119812	1.57503855228	-0.010463476181
-0.0220777988434	1.08921575546	0.181049704552	-0.220296621323	1.57291865349	-0.0108991861343
-0.0209686756134	1.08798515797	0.180310964584	-0.22030711174	1.57240259647	-0.0105941295624
-0.0195255279541	1.08798730373	0.179989218712	-0.220347166061	1.57390069962	-0.00945615768433
-0.0181407928467	1.08823645115	0.179066777229	-0.220217466354	1.57464289665	-0.00959086418152
-0.0172839164734	1.086779356	0.178643941879	-0.219623088837	1.57543742657	-0.0101094245911
-0.0173752307892	1.08537352085	0.179145097733	-0.218111991882	1.57602488995	-0.0107427835464
-0.0175862312317	1.0741891861	0.186061620712	-0.216295719147	1.57596719265	-0.0113929510117
-0.0129547119141	1.0543961525	0.193021774292	-0.215015649796	1.57655239105	-0.0119932889938
-0.00884079933167	1.03512096405	0.192803144455	-0.214890480042	1.57713651657	-0.0127708911896
-0.00668478012085	1.03678417206	0.185920476913	-0.215369224548	1.57685518265	-0.0127851963043
-0.00683665275574	1.04881358147	0.178725361824	-0.214359760284	1.5764939785	-0.0126789808273
-0.00613737106323	1.06214141846	0.170860886574	-0.212559700012	1.57644927502	-0.012654542923
-0.00744080543518	1.07455062866	0.16038107872	-0.211049079895	1.57643759251	-0.0125118494034
-0.00868487358093	1.08459436893	0.148329496384	-0.210125923157	1.57598662376	-0.0116548538208
-0.0105936527252	1.08959186077	0.134372711182	-0.209729671478	1.5745164156	-0.00949430465698
-0.0111951828003	1.09160852432	0.118785619736	-0.209403991699	1.57099640369	-0.00688052177429
-0.00887036323547	1.09158706665	0.104007005692	-0.208423614502	1.56722104549	-0.00473594665527
-0.00591778755188	1.09093761444	0.0913314819336	-0.206966400146	1.56599617004	-0.00303471088409
-0.00255537033081	1.09412372112	0.0800937414169	-0.205031394958	1.5659507513	-0.00173878669739
-0.00150895118713	1.09378504753	0.0723080635071	-0.202840566635	1.56491100788	-0.00148677825928
-0.000504493713379	1.09118676186	0.066047668457	-0.201018095016	1.56195163727	-0.00151371955872
-0.000747919082642	1.08952856064	0.0613236427307	-0.199694395065	1.5539304018	-0.00107550621033
0.000418186187744	1.0903532505	0.0591630935669	-0.197445869446	1.54224979877	0.00035285949707
0.00232982635498	1.09186351299	0.0594792366028	-0.194744110107	1.53516042233	0.00277841091156
0.00299429893494	1.09085011482	0.0598115921021	-0.192119121552	1.53173661232	0.00557613372803
0.00234603881836	1.08859419823	0.0588760375977	-0.190186738968	1.52709472179	0.00646686553955
0.000643968582153	1.08639633656	0.0574889183044	-0.188352584839	1.52013266087	0.00614905357361
-0.0006103515625	1.08389365673	0.0563316345215	-0.185874462128	1.51574349403	0.00713455677032
-0.00113725662231	1.08161830902	0.0563007593155	-0.183523416519	1.51498913765	0.00829839706421
0.000369548797607	1.07903587818	0.0583348274231	-0.181107759476	1.51391899586	0.00828015804291
0.00301003456116	1.07432603836	0.0617570877075	-0.1789457798	1.51442432404	0.00791871547699
0.00650358200073	1.06583106518	0.0659561157227	-0.177911281586	1.51560139656	0.00725555419922
0.00754857063293	1.0582652092	0.0687317848206	-0.177501678467	1.5158457756	0.00733602046967
0.00676155090332	1.05819964409	0.0679221153259	-0.177038669586	1.51654827595	0.00850796699524
0.00423383712769	1.05894446373	0.0669598579407	-0.176536560059	1.51727700233	0.00975942611694
0.00411868095398	1.0590596199	0.0679856538773	-0.175858259201	1.5183403492	0.0109007358551
0.00479173660278	1.05859446526	0.0689344406128	-0.175472974777	1.52173638344	0.012543797493
0.00492811203003	1.05943703651	0.0690168142319	-0.176200628281	1.52525377274	0.0145094394684
0.00148701667786	1.0610435009	0.0659348964691	-0.178726196289	1.52674996853	0.0160682201385
-0.00369429588318	1.06148552895	0.0635969638824	-0.183039188385	1.52680802345	0.0175260305405
