-44.1751365662	-83.9454803467	130.130279541	7.80090284348	1.00966775417	1.61300301552
-43.5018615723	-83.9555206299	129.330337524	7.82133865356	1.14761471748	1.6766076088
-45.8869552612	-84.0576477051	131.604156494	7.76216554642	1.33533453941	1.69941270351
-46.8840332031	-84.1307830811	132.427017212	7.65161037445	1.36531102657	1.88215363026
-46.8018531799	-84.1160736084	132.284317017	7.66267633438	2.07371640205	1.93755972385
-40.8655700684	-83.9785614014	125.238265991	8.79514694214	6.00011444092	1.43769240379
-14.1677627563	-82.6464385986	94.8942871094	10.8469572067	12.229393959	0.900299489498
3.49589323997	-78.6363525391	75.0218582153	13.9595794678	17.6161632538	0.992636919022
11.3448801041	-76.8022460938	67.3310623169	17.3334388733	20.8958644867	1.36220264435
16.2862892151	-75.9696578979	62.7929000854	19.6941814423	22.6558132172	1.44118404388
