-41.7227516174	-76.7130203247	132.850479126	3.56583952904	0.0261947587132	-2.43882870674
-41.9344482422	-76.7666549683	133.058166504	3.49882268906	0.0725889801979	-2.43846821785
-42.717956543	-76.7697296143	133.864501953	3.37507963181	0.234067752957	-2.33079648018
-43.7063713074	-76.7356567383	134.623413086	1.56809854507	0.909213483334	-2.21719503403
-44.8586654663	-76.5784988403	135.321762085	-1.06167197227	3.18531823158	-2.09202933311
-41.9106445312	-73.5199050903	129.169326782	-2.71778678894	7.04920387268	-2.46418571472
-32.3862075806	-67.2161941528	113.397857666	-2.47263240814	11.2376213074	-2.72296309471
-28.09416008	-59.5735626221	104.629119873	-1.12610125542	14.8891792297	-2.63658380508
-25.3075885773	-49.9802932739	101.254241943	0.600962102413	18.0513706207	-2.48821544647
-22.7550563812	-42.8702278137	99.0171127319	1.79376578331	20.9361476898	-2.47251343727
-19.680109024	-38.2171096802	94.8734817505	2.32615971565	23.1316795349	-2.53462266922
-14.0254497528	-31.9645843506	89.6771316528	2.7698764801	24.8700084686	-2.71808695793
-7.04669427872	-25.4585323334	87.0538864136	3.29287600517	25.9857883453	-2.67113852501
0.817601978779	-17.9022388458	84.6248855591	3.85290288925	26.5181503296	-2.40863776207
7.40300941467	-9.1594877243	79.9432144165	4.20985078812	26.8894786835	-2.38154625893
9.53962802887	-2.54329252243	74.8465423584	4.2916893959	27.114358902	-2.51229739189
10.0505886078	-1.25744187832	72.9814834595	4.18195056915	27.0691223145	-2.58231711388
10.5276813507	-5.17786836624	74.2068862915	3.89627480507	26.9052028656	-3.03265094757
11.6065330505	-17.5065937042	77.4463348389	4.45660877228	26.7361907959	-3.01715826988
12.0455961227	-27.1427192688	82.7534332275	4.74233055115	26.5960483551	-3.15812802315
12.0512657166	-29.2596721649	85.6000595093	5.35991430283	26.6021671295	-3.12591552734
12.2825784683	-27.7767066956	86.3902664185	6.24109983444	26.6761512756	-3.25134277344
