-60.7199287415	-34.675365448	137.491119385	9.34873485565	3.00117182732	1.83830296993
-60.6645927429	-34.7065620422	137.696853638	9.4416437149	2.99583935738	1.85570335388
-60.8137969971	-34.9987030029	138.096374512	9.56396579742	3.21015453339	1.8567327261
-60.9771118164	-35.170173645	137.969924927	9.46178817749	3.62834191322	1.91749179363
-61.0347595215	-35.2848930359	137.254470825	7.97981071472	3.29416179657	1.86758506298
-62.6862220764	-36.3407592773	136.403137207	3.05244207382	2.8794901371	2.18386006355
-68.0149154663	-38.0168647766	134.618591309	-4.68368053436	2.55963635445	3.04414439201
-75.1633987427	-37.3470840454	132.482681274	-12.435046196	2.07724881172	3.8888027668
-78.7116241455	-36.6049690247	127.797592163	-18.6079158783	1.86083865166	4.49564361572
-74.054359436	-36.2944068909	107.21988678	-22.4379138947	1.66880106926	4.97915363312
-57.4697151184	-31.138589859	67.3834152222	-24.5337123871	1.50532186031	5.54092073441
-52.0169372559	-26.223115921	53.6966056824	-25.5271167755	1.35726487637	5.99705600739
-43.1448898315	-25.9948558807	45.5467567444	-25.8646869659	1.5588709116	6.29351234436
-30.3539886475	-23.508939743	38.3142051697	-24.9917869568	2.44501137733	6.3259935379
-24.1791305542	-24.0994300842	40.8092460632	-22.3201217651	2.50853657722	6.40499401093
-24.89594841	-29.3903579712	46.5460166931	-20.044424057	1.36052489281	6.63561725616
-29.9689922333	-39.4628067017	53.3311424255	-19.8098812103	0.646738171577	6.15861558914
