0.0	-0.0	136.33013916	-136.572891235	85.7876434326	162.366821289
0.0	-0.0	136.810623169	-136.572311401	86.0372009277	162.159606934
0.0	-0.0	136.909896851	-135.947677612	86.3515853882	161.803039551
0.0	-0.0	135.666305542	-136.773269653	85.4757537842	161.599258423
0.0	-0.0	133.305877686	-142.942642212	82.979637146	162.578903198
0.0	-0.0	132.41305542	-155.808990479	78.8034896851	163.613342285
0.0	-0.0	129.975219727	-169.10017395	73.8487243652	164.318893433
0.0	-0.0	125.425689697	-179.458984375	67.5754623413	165.252502441
0.0	-0.0	118.429397583	172.700378418	60.9598007202	165.876037598
0.0	-0.0	114.083930969	167.499984741	56.6203193665	166.579650879
0.0	-0.0	108.406547546	164.906539917	54.071472168	166.892929077
