0.221452236176	1.46976029873	0.183175086975	-0.0527267456055	1.67691755295	0.16902756691
0.221367120743	1.47019064426	0.183365225792	-0.0532329082489	1.6770772934	0.169953107834
0.220591068268	1.47075855732	0.18455183506	-0.0538082122803	1.67697811127	0.170828580856
0.220573663712	1.47101509571	0.185389399529	-0.0543766021729	1.67665970325	0.172060728073
0.219638347626	1.47127747536	0.185760498047	-0.0566136837006	1.67465281487	0.17427945137
0.21727848053	1.47132778168	0.186335086823	-0.0616960525513	1.66915047169	0.178389549255
0.211757183075	1.46981966496	0.188671350479	-0.0689260959625	1.65781903267	0.184844493866
0.2096824646	1.46829485893	0.191713690758	-0.0768764019012	1.6454064846	0.19222843647
0.21123957634	1.46331489086	0.198052048683	-0.0830030441284	1.63643682003	0.198746800423
0.219267368317	1.45592010021	0.206852674484	-0.0868189334869	1.63115727901	0.203372597694
0.22695016861	1.44777441025	0.213646650314	-0.0888404846191	1.62631356716	0.207107186317
0.235503911972	1.43774485588	0.218591213226	-0.0896618366241	1.62244749069	0.209959745407
