-75.9337310791	-22.167350769	138.264389038	8.43074417114	1.96051263809	1.37345683575
-75.7605209351	-21.7924880981	137.831314087	8.24397087097	2.00560736656	1.26562929153
-75.2644348145	-21.2950553894	137.139419556	8.14514636993	2.06192612648	1.18305599689
-75.6340332031	-21.4021053314	136.799194336	7.86394119263	2.32847166061	1.269972682
-75.5466995239	-21.5176753998	136.285812378	7.7895359993	2.02982330322	1.37315475941
-75.4659957886	-22.5237598419	133.930740356	7.50516223907	1.85220897198	1.3692035675
-68.4213256836	-29.5186462402	117.08682251	6.74279642105	1.78981745243	1.38562917709
-63.1304702759	-30.1087970734	103.510787964	5.71930408478	1.7863137722	1.43329894543
