-0.00545883178711	1.13705003262	0.163949131966	-0.226865530014	1.65309262276	-0.0114203691483
-0.00618410110474	1.13768780231	0.164496183395	-0.227155208588	1.65295112133	-0.0112345218658
-0.00751113891602	1.13826239109	0.165171384811	-0.227614879608	1.65289402008	-0.011626958847
-0.0103604793549	1.13896095753	0.165561437607	-0.228804826736	1.65295255184	-0.0122406482697
-0.0135469436646	1.13999915123	0.165349721909	-0.230820417404	1.65276944637	-0.0136396884918
-0.0191886425018	1.14145517349	0.1642100811	-0.233364582062	1.65244519711	-0.0155084133148
-0.0295009613037	1.14233410358	0.160168170929	-0.237045764923	1.65318799019	-0.0182862281799
-0.0416815280914	1.13988351822	0.154087781906	-0.241715669632	1.65257740021	-0.0231354236603
-0.0519633293152	1.13537466526	0.146939992905	-0.24573469162	1.65165436268	-0.0282824039459
-0.0585579872131	1.13572311401	0.144058942795	-0.24677157402	1.65390336514	-0.03293800354
-0.0625581741333	1.14045369625	0.144439697266	-0.243122339249	1.65729224682	-0.0347506999969
-0.0685522556305	1.14866769314	0.144270539284	-0.237466335297	1.66014778614	-0.0355269908905
-0.0753955841064	1.1558303833	0.14143371582	-0.233483791351	1.66209244728	-0.0374954938889
-0.0799534320831	1.16037940979	0.137940168381	-0.23081111908	1.66312253475	-0.0394871234894
-0.0808110237122	1.16047430038	0.134316682816	-0.229152679443	1.66261684895	-0.0409361124039
-0.0797879695892	1.15872168541	0.129814624786	-0.227952241898	1.66185700893	-0.0413094758987
-0.0783631801605	1.15599918365	0.124971389771	-0.227716684341	1.66087400913	-0.0419012308121
-0.0780832767487	1.15332829952	0.119343042374	-0.228523731232	1.65999698639	-0.0431671142578
