-28.7516002655	-77.6551971436	133.938568115	3.19930386543	2.09644603729	-4.40509128571
-29.9205245972	-77.5754928589	135.279678345	3.1779551506	2.20824861526	-4.3997130394
-30.2901439667	-77.8037796021	135.392272949	3.14054846764	2.42313957214	-4.41418123245
-27.4734649658	-77.2365493774	130.747039795	3.04998707771	2.17421221733	-4.4031085968
-13.0244979858	-71.1617507935	109.487876892	2.89946293831	1.12851417065	-4.37173032761
-8.96094608307	-65.8509368896	99.4984970093	2.82252693176	0.463167965412	-4.24347305298
-5.04514169693	-61.1715660095	89.1649246216	2.38491272926	0.365027874708	-4.10849666595
-9.83193206787	-55.2270584106	84.6456298828	1.80634570122	0.182868748903	-3.98566198349
-18.0132522583	-53.4361190796	83.4654464722	1.3644438982	-0.135931074619	-3.95453238487
-26.0743789673	-52.90209198	83.7869567871	1.06870853901	-0.214707583189	-3.87882900238
-33.7466087341	-51.5018005371	84.4307632446	0.742923796177	-0.232942804694	-3.5284717083
-42.8526306152	-48.685131073	85.2193145752	0.031933080405	-0.140790790319	-3.11027812958
-49.375629425	-48.7626113892	85.6666488647	-0.875565469265	-0.0130348615348	-3.00617837906
-52.2691345215	-49.4887924194	86.2447280884	-1.23616588116	0.0886644199491	-3.09692835808
-54.3660736084	-50.7316322327	86.6549987793	-1.35104525089	0.0803927183151	-3.15348267555
