0.0653538703918	1.36643159389	0.202801704407	-0.124410629272	1.67036962509	0.0389484167099
0.0641868114471	1.36840653419	0.201512336731	-0.126088142395	1.67054760456	0.0371520519257
0.0627543926239	1.36900377274	0.201007723808	-0.127149343491	1.67073726654	0.0358736515045
0.0613720417023	1.36926686764	0.200683832169	-0.127954244614	1.67189705372	0.0342313051224
0.0616035461426	1.37035274506	0.206176757812	-0.12815117836	1.67736458778	0.0312461853027
0.0663256645203	1.36318492889	0.223435640335	-0.128928184509	1.68618035316	0.0260498523712
0.0731821060181	1.35573482513	0.239833712578	-0.129281997681	1.69503676891	0.019454240799
0.0746655464172	1.34748125076	0.250870108604	-0.129295110703	1.70108520985	0.0133559703827
0.076938867569	1.36261940002	0.256801486015	-0.129161119461	1.70376086235	0.00893795490265
0.0878949165344	1.38160562515	0.264362573624	-0.127724647522	1.7044479847	0.00596833229065
0.104591369629	1.39891946316	0.269726872444	-0.12543129921	1.7045006752	0.00419735908508
0.121864080429	1.41535115242	0.26907658577	-0.122703552246	1.70501363277	0.00271546840668
0.134207725525	1.43059980869	0.26037311554	-0.120313882828	1.70602583885	0.00210762023926
0.146484613419	1.44120025635	0.244298934937	-0.11780500412	1.70632910728	0.00208270549774
0.170263767242	1.43357419968	0.242605090141	-0.114997386932	1.70545244217	0.00321435928345
0.163345813751	1.42178881168	0.244926333427	-0.112708806992	1.70446062088	0.00514662265778
0.148529529572	1.41368365288	0.247719883919	-0.11153793335	1.70365607738	0.00794959068298
0.132386207581	1.40120327473	0.254305362701	-0.111323356628	1.70257687569	0.0107865333557
0.121684074402	1.39113044739	0.256991028786	-0.112119197845	1.70164072514	0.0136113166809
0.109923601151	1.37994515896	0.259208440781	-0.113231420517	1.70066189766	0.0159169435501
0.0969846248627	1.37164902687	0.257249474525	-0.114191770554	1.70001161098	0.0179020166397
0.0824661254883	1.36294043064	0.253719210625	-0.116474866867	1.69915258884	0.0190370082855
0.0681569576263	1.35725712776	0.24819624424	-0.120850563049	1.69842123985	0.0197778940201
0.0558025836945	1.35621678829	0.241648077965	-0.126386880875	1.69752418995	0.0199525356293
0.0491673946381	1.35861063004	0.237243533134	-0.128990650177	1.69683849812	0.0188611745834
0.0550363063812	1.37040555477	0.238748073578	-0.128757238388	1.69682502747	0.0166347026825
0.0641665458679	1.38940894604	0.235790133476	-0.127293109894	1.69801771641	0.0141487121582
0.0663797855377	1.40046072006	0.226555228233	-0.12718963623	1.69875323772	0.01220703125
0.068615436554	1.41050314903	0.216123223305	-0.12854385376	1.69969105721	0.010236620903
0.0774579048157	1.42082643509	0.215196371078	-0.12933754921	1.69995009899	0.00873684883118
0.09605717659	1.42916023731	0.222149372101	-0.129546880722	1.69964933395	0.00692009925842
0.095760345459	1.43455004692	0.213434576988	-0.130531072617	1.70015311241	0.00479531288147
0.0906262397766	1.43321490288	0.205061435699	-0.132096529007	1.70045864582	0.00359332561493
0.087513923645	1.43287038803	0.199218511581	-0.13282752037	1.70045864582	0.00265264511108
0.103964090347	1.42308712006	0.222553730011	-0.131939172745	1.69982326031	0.00168311595917
0.0920994281769	1.41086983681	0.221346139908	-0.13149356842	1.69977617264	0.000396132469177
0.077344417572	1.40694260597	0.214803338051	-0.132301330566	1.69950950146	0.000180959701538
0.0634169578552	1.40588891506	0.213848948479	-0.13369011879	1.69966447353	0.0001460313797
0.06143450737	1.40647566319	0.212990880013	-0.137761354446	1.70209407806	-0.00161004066467
0.0604064464569	1.40633642673	0.214952349663	-0.142212867737	1.70341300964	-0.00260734558105
0.0604076385498	1.41118395329	0.213583230972	-0.143053770065	1.70385742188	-0.00303387641907
0.0622978210449	1.42096936703	0.209469556808	-0.141917705536	1.70452129841	-0.00430142879486
0.066657781601	1.43374705315	0.202507019043	-0.140749454498	1.70539903641	-0.00640153884888
0.0677661895752	1.44531214237	0.194626927376	-0.140467882156	1.70573318005	-0.00768160820007
0.0722336769104	1.45228350163	0.191328644753	-0.139357805252	1.70517623425	-0.00715255737305
0.0821323394775	1.45654070377	0.190330982208	-0.137114524841	1.70437097549	-0.00557160377502
0.0878877639771	1.45967376232	0.185190558434	-0.134647369385	1.70409607887	-0.00395178794861
0.0874347686768	1.46103131771	0.179268956184	-0.132328271866	1.70412898064	-0.0023295879364
0.0924029350281	1.45431160927	0.196860194206	-0.130047559738	1.7036895752	-0.000748634338379
0.0895698070526	1.43650090694	0.214473366737	-0.129400730133	1.70314264297	0.000498056411743
0.0752689838409	1.42412352562	0.216531634331	-0.130163908005	1.70288610458	0.001784324646
0.0726847648621	1.4237883091	0.216776847839	-0.131136655807	1.7027078867	0.00338554382324
0.0654275417328	1.42495298386	0.214281082153	-0.131410837173	1.70255243778	0.00437307357788
0.066210269928	1.42700815201	0.212870240211	-0.131362915039	1.70241260529	0.00474095344543
0.0678548812866	1.42981517315	0.209310412407	-0.131064891815	1.70226609707	0.00429344177246
0.0645775794983	1.43292760849	0.204388141632	-0.131341934204	1.70236420631	0.00308132171631
0.0608406066895	1.43654561043	0.200689554214	-0.132178544998	1.70275306702	0.00169384479523
0.0532548427582	1.43587994576	0.200683355331	-0.133239984512	1.70274353027	0.000300884246826
0.05238032341	1.44011759758	0.198078870773	-0.134440898895	1.70299446583	-0.0005784034729
0.0545859336853	1.44709384441	0.192921161652	-0.135180950165	1.70311820507	-0.000914335250854
0.0590734481812	1.4518185854	0.188990354538	-0.13591337204	1.70296478271	-0.00118684768677
0.0519626140594	1.45600688457	0.182395458221	-0.138169288635	1.70397055149	-0.00208902359009
0.0499157905579	1.45763778687	0.180769681931	-0.142926216125	1.70570027828	-0.00402545928955
0.0464944839478	1.45865058899	0.178859233856	-0.14568734169	1.70793700218	-0.00696086883545
0.0484340190887	1.46211290359	0.176890611649	-0.14529132843	1.70866513252	-0.0105800628662
0.0548079013824	1.46633827686	0.176258325577	-0.143072366714	1.7079846859	-0.0131098031998
0.0618672370911	1.46807730198	0.175582885742	-0.140571117401	1.70649385452	-0.0140655040741
0.0616674423218	1.46865785122	0.170084834099	-0.138488054276	1.70415747166	-0.0143418312073
0.0596632957458	1.47093987465	0.163049936295	-0.137430429459	1.70238804817	-0.0162223577499
0.0555112361908	1.47183406353	0.157648563385	-0.137641429901	1.70327246189	-0.0212100744247
0.051185131073	1.47374999523	0.150891304016	-0.139120340347	1.70404243469	-0.0278553962708
0.0463743209839	1.47635626793	0.141658306122	-0.141445159912	1.70365655422	-0.034380197525
0.0427050590515	1.47641289234	0.13400220871	-0.142874717712	1.70241498947	-0.0391261577606
0.0402190685272	1.4748903513	0.127086162567	-0.141699552536	1.70106863976	-0.0425395965576
