24.6235656738	-24.5995864868	17.0302143097	17.1724834442	5.85910606384	33.080329895
24.5461139679	-24.5351352692	16.8077659607	16.9898014069	5.83226966858	33.0017089844
24.446105957	-24.2589855194	16.5839672089	16.7695579529	5.83710193634	32.8423080444
24.2030277252	-24.1203861237	16.1992359161	16.1589279175	6.32958555222	32.7599487305
23.4328327179	-23.754108429	16.1288967133	14.396279335	7.70574855804	32.2921180725
22.699131012	-23.2850723267	16.1201171875	12.1042022705	10.0537557602	31.0860214233
21.540271759	-22.6493873596	16.2949638367	9.39993953705	13.2126426697	28.6835727692
20.0715484619	-21.2942409515	16.3035850525	6.69178724289	16.151140213	26.0020542145
13.9502668381	-17.9463691711	17.1048851013	4.70544910431	18.1538848877	23.9073524475
6.33094835281	-12.8240861893	17.2588977814	3.60623240471	19.7084598541	22.4050788879
0.241098091006	-8.71192455292	19.6020259857	3.11880207062	20.72514534	21.6911563873
-3.16430902481	-5.52400970459	22.4435329437	2.87238669395	21.509393692	21.1465358734
-5.42219877243	-3.30226969719	27.8594074249	2.3364648819	22.7006263733	20.0414466858
-4.5748872757	-1.18118906021	32.1093444824	1.55871963501	24.4557723999	18.5504455566
-4.58253288269	1.54895663261	36.6669921875	0.790775775909	25.9072113037	17.1898918152
-3.5704293251	3.18140912056	40.7556343079	0.0868812426925	26.8639431	16.536781311
-0.623510122299	1.77106893063	40.2477073669	0.159586325288	27.1120185852	16.712228775
2.74751067162	-6.53332281113	30.8300533295	0.735471129417	27.0849094391	16.890209198
6.11353635788	-11.5244989395	21.7526512146	1.49923324585	27.2382125854	17.2723960876
6.84231138229	-15.4782276154	17.840631485	1.68413722515	27.4873924255	17.7820110321
4.18154811859	-15.3418483734	18.2768039703	1.23802089691	27.8975429535	17.7879981995
1.7646163702	-13.6332426071	20.6896286011	0.846568644047	28.1097698212	17.9496192932
-1.7211124897	-9.07292461395	23.497543335	0.803961694241	27.9734363556	18.7317237854
-3.47891283035	-6.89233970642	24.6032524109	0.830316603184	28.0635929108	19.8132381439
-3.35410022736	-5.87813425064	24.3957214355	0.571152031422	27.9962997437	20.4203510284
-3.47546005249	-5.60508584976	24.6600151062	0.37692835927	27.8510570526	20.8823242188
-3.5677292347	-5.57751989365	24.6495571136	0.129344969988	28.2338676453	21.5055122375
-3.6663684845	-6.10725641251	24.2033119202	-0.308089852333	29.6046009064	23.5596790314
-4.54846668243	-7.019094944	23.6312198639	-1.22223305702	30.8241119385	26.2199840546
-5.19146347046	-7.66703224182	23.2173786163	-2.28774237633	32.2195892334	30.001871109
-5.97490596771	-8.28526592255	23.6050319672	-4.14992427826	33.4298782349	33.93201828
-6.61849880219	-8.25605106354	24.6148529053	-4.92406845093	33.4979667664	36.0266914368
-6.94998502731	-8.68535232544	25.3205375671	-3.84366989136	32.8710708618	36.470916748
-6.466837883	-10.3347177505	25.4935321808	-2.15045166016	31.8360385895	36.9421272278
-5.20821619034	-12.5510463715	25.0713310242	-0.186457827687	30.122543335	37.1538505554
-4.43059015274	-15.8685255051	25.1222381592	2.41010403633	27.4965610504	38.1025810242
-3.91105294228	-19.4297103882	24.4136352539	5.07476520538	24.3266143799	40.1017494202
-4.66772890091	-24.4159832001	25.1544303894	7.10175848007	21.0564804077	42.2924613953
-4.83982038498	-28.3103618622	26.0773601532	8.66987991333	18.4014492035	43.5560379028
-4.21746444702	-31.0638828278	26.5559844971	10.1664943695	16.6613082886	43.4982185364
-2.56521391869	-31.3777141571	25.5876750946	10.939116478	16.6655464172	42.0758094788
-0.972052395344	-31.2153205872	24.0524635315	8.97388458252	18.8146572113	38.7510375977
-0.26721522212	-31.3859367371	23.8750915527	5.57498025894	21.4264030457	34.7822685242
0.553680121899	-31.1154060364	23.36277771	3.41247177124	23.2492580414	32.0797080994
0.389641821384	-31.4093341827	23.4576969147	2.80262589455	23.9059181213	31.234128952
0.37264919281	-31.6623725891	23.4884300232	2.62432956696	24.1719512939	30.9600524902
-0.0301883947104	-32.1080780029	23.7050170898	2.55481648445	24.3229179382	30.9351596832
-0.504164934158	-32.6039772034	23.8143730164	2.44118356705	24.7639579773	31.0637931824
-1.56494128704	-32.6601905823	24.5057735443	2.47279500961	25.5394897461	31.7599239349
-2.29891967773	-32.5935096741	24.8455142975	2.03202199936	26.48554039	32.7348251343
-4.01688957214	-32.5457839966	26.0934314728	1.64395427704	27.1243247986	33.2314224243
-6.01996803284	-32.3660011292	27.9747409821	1.82391822338	27.4644699097	33.5136795044
-10.1865921021	-30.2307853699	30.2885856628	2.11927270889	27.6083374023	33.569984436
-15.614569664	-27.2051639557	33.2228088379	2.11991524696	27.6461181641	33.5620079041
-17.6247901917	-24.4297904968	34.0557136536	2.00427699089	27.6950302124	33.451259613
-19.4501037598	-21.1529388428	34.5057449341	2.09418106079	27.7341938019	33.6040840149
-15.6566762924	-21.7832202911	33.225189209	1.51143634319	27.8742160797	33.4401016235
-12.080321312	-24.718006134	33.1792831421	1.54562366009	27.9065856934	33.4090576172
-7.96261978149	-29.6440467834	32.9846725464	1.93144142628	27.7843475342	33.4324302673
-1.77317368984	-35.9918785095	32.0357666016	1.85275995731	27.6597995758	33.4533081055
3.39877009392	-43.1305580139	31.5943336487	1.73180866241	27.6458206177	33.3451843262
6.37040805817	-47.7241325378	30.2734642029	2.01604366302	27.7125282288	33.3656005859
9.31010055542	-52.3261260986	26.8103027344	2.05478715897	27.8312568665	33.2690811157
10.8582925797	-52.5568466187	23.3983402252	1.92492163181	28.206653595	32.829864502
10.7561721802	-48.9102210999	21.3471946716	2.25183916092	28.5424385071	32.5021057129
9.62578392029	-44.6625289917	20.9347419739	2.57884573936	28.8153476715	32.2479858398
10.1105222702	-41.8036727905	19.3583908081	2.68935346603	29.1517124176	31.873003006
9.3636674881	-40.1904525757	19.0402927399	2.63656377792	29.4042034149	31.4181022644
8.73882484436	-38.1975860596	19.1211204529	2.55619764328	29.2436084747	30.4997310638
10.2178230286	-36.5976371765	18.2465286255	2.40221452713	29.0468082428	29.3916797638
9.93737316132	-33.9124183655	19.3138198853	2.2437183857	28.9388790131	28.8323669434
8.350481987	-23.2161178589	19.1568088531	2.33388209343	28.7278957367	28.2251701355
4.96655607224	-15.373711586	19.9401321411	2.56066775322	28.7983341217	27.8670501709
3.37615060806	-10.8895988464	21.3578281403	2.14719057083	29.0375156403	27.7006340027
2.3652150631	-5.97990179062	22.7007312775	1.24176931381	29.6439762115	27.4570064545
-1.19136857986	-0.352347612381	24.9378414154	0.878304064274	29.8807964325	27.4032459259
-4.40606069565	3.43662023544	27.8303070068	0.758754491806	29.8263912201	27.5996761322
-7.2644329071	7.82542467117	30.6413631439	0.780554890633	29.9570007324	28.0033493042
-8.90668296814	13.2615394592	32.8043518066	0.805425047874	30.0828495026	28.3373031616
-5.95089864731	17.9626178741	33.0973510742	0.497501581907	30.0892219543	28.5166759491
-1.13579058647	15.4911289215	34.3166275024	0.0798249095678	30.2802181244	28.645450592
1.27627754211	3.33127808571	37.5802383423	-0.179404214025	30.4800949097	28.685590744
0.768208026886	-7.25924777985	40.9373703003	0.357084006071	30.6486091614	28.8396282196
-1.71875560284	-16.2942409515	45.428401947	0.538483440876	30.6848335266	28.7767353058
-4.25460577011	-24.5668029785	49.7704048157	0.44755217433	30.9482212067	28.9757957458
-7.8365073204	-31.6609363556	57.2022666931	0.281593769789	31.125585556	29.2767162323
-8.63137626648	-38.3659057617	59.9868392944	-0.0535767711699	31.2582530975	29.3259506226
-9.19114017487	-40.2495155334	58.0671463013	0.111357085407	31.6863574982	29.2821063995
-9.32285308838	-38.4991378784	56.4924049377	0.491882383823	31.7513256073	29.1552810669
-7.70720005035	-36.952167511	51.3626174927	0.330459237099	31.9135322571	28.8123989105
-4.09517097473	-35.7603759766	44.4078941345	0.0488163642585	32.2871208191	28.5010356903
-5.76313209534	-35.0535774231	44.5451469421	-0.255777716637	32.6449661255	28.1424846649
-8.45047092438	-34.8884735107	47.2477149963	-0.464656382799	32.924041748	27.936340332
-10.2596139908	-36.3569030762	51.8994903564	-0.624468624592	33.02576828	27.7768821716
-8.05167198181	-38.7053222656	51.4416275024	-0.957583725452	33.1799278259	27.6028060913
0.330440580845	-39.539680481	40.7366523743	-0.793529868126	33.2158927917	27.7384796143
12.9421825409	-35.4804954529	24.739982605	-0.670612156391	33.2034873962	27.7465343475
15.3841905594	-34.6615600586	21.7031707764	-0.601771175861	33.2444076538	27.8397006989
12.9086551666	-33.6638145447	22.5344924927	-0.375297635794	33.2427368164	27.7583618164
6.57889127731	-30.0727176666	27.4157791138	0.211933359504	33.2012481689	28.0261154175
6.2648859024	-28.4015636444	28.1735057831	0.273743331432	33.3530769348	28.1637420654
5.67092990875	-27.7885875702	29.1444149017	0.296375006437	33.6885147095	28.3479919434
4.84387111664	-27.4028606415	30.5275192261	0.905170857906	34.0527687073	29.227350235
5.22425031662	-26.7062168121	31.1370754242	1.70547819138	34.2780952454	31.5163536072
5.65079975128	-26.5762062073	31.5874404907	3.05237054825	34.4000053406	34.1867294312
5.77320671082	-27.7160396576	32.5604934692	4.85489368439	34.3460922241	37.1064529419
5.43834400177	-28.6027297974	33.5694541931	5.58374786377	34.1758384705	38.2619934082
5.84532642365	-29.7152099609	33.959438324	4.91212558746	34.2225112915	37.4953804016
6.94865274429	-31.8515529633	32.9601821899	3.9312748909	34.0147514343	34.4881515503
7.56553649902	-33.5271987915	32.1967391968	3.4692940712	33.9822998047	31.2823944092
8.3359375	-33.8018951416	31.4293651581	3.76933479309	33.9378356934	29.103471756
8.7572221756	-33.6639099121	31.2097415924	4.16098403931	33.8691253662	28.2431850433
8.92931652069	-33.5770492554	31.2502174377	4.40288114548	33.8077430725	28.1831817627
9.09730529785	-33.626335144	31.3620414734	4.22584819794	33.7684020996	28.1865978241
9.04779148102	-33.6291275024	31.5214519501	4.16532373428	33.557964325	28.1876087189
8.95259189606	-32.2116889954	31.0563640594	4.20630931854	33.3068466187	28.0209712982
8.21784210205	-29.7596321106	31.1173763275	4.21756029129	33.1467971802	27.9024353027
7.09455537796	-27.3269443512	31.167383194	4.29024648666	33.1160087585	27.813331604
7.21581792831	-25.9298191071	31.0556793213	4.10866498947	33.0015525818	27.8888244629
8.22668838501	-26.005947113	30.6621131897	3.63666534424	32.7729454041	27.7141113281
10.376496315	-28.2135181427	29.5664386749	3.77432632446	32.6357421875	27.8370475769
11.8493518829	-31.9451618195	29.0729866028	4.37092590332	32.5040054321	28.1585464478
13.3901586533	-36.0849685669	28.2586364746	4.85179948807	32.3465194702	28.4594230652
15.5179128647	-40.2237510681	26.6625804901	4.8949508667	32.2068595886	28.7861766815
17.4898529053	-43.4090614319	25.2363491058	4.73119497299	32.1273231506	29.1532402039
19.3363246918	-45.6629600525	23.800201416	4.53847837448	32.0470275879	29.2489566803
20.5782184601	-48.1270027161	22.4779911041	4.67342615128	31.894613266	29.4249668121
22.437538147	-51.0348434448	19.940372467	4.8163433075	31.8707008362	29.4321269989
24.252872467	-54.0014686584	16.9568805695	5.07669353485	31.7819347382	29.4698162079
26.5612182617	-56.4105072021	13.7900629044	5.26656723022	31.6048984528	29.4399604797
29.4050941467	-58.7529067993	10.200750351	5.33832645416	31.3607578278	29.5064735413
28.4824714661	-59.4492950439	10.5982913971	5.28691053391	31.0997257233	29.6256713867
26.1335811615	-57.1257667542	12.8702459335	4.75250339508	30.9355792999	29.6649532318
25.7173881531	-52.4409294128	13.4072494507	3.92491531372	31.0538864136	29.614358902
23.6153507233	-46.3905639648	15.375333786	3.50861787796	31.2318210602	29.4655647278
21.5742549896	-40.2104110718	17.2106189728	3.57819771767	31.2842502594	29.3031101227
18.5018501282	-34.5239295959	19.3862133026	3.5866086483	31.3079376221	28.889497757
18.262840271	-26.4307861328	18.6512527466	3.65008425713	31.4087963104	28.6242733002
14.9968585968	-18.2260532379	17.7964305878	3.20957779884	31.5213661194	28.2259750366
10.958984375	-10.8700180054	16.8111743927	3.05363798141	31.698513031	28.1376399994
5.42652797699	-4.64232826233	16.5041980743	3.02298045158	31.7000465393	28.0725727081
-1.41682755947	1.64265406132	16.1921138763	3.10792374611	31.6382274628	28.163848877
-12.2416772842	6.45012140274	17.8638687134	3.0530898571	31.524805069	28.2233562469
-17.1820278168	9.90074253082	19.4239902496	2.71824431419	31.5578117371	28.1696624756
-16.9396305084	11.7716312408	22.2350540161	2.76961421967	31.6356239319	28.246553421
-12.2430973053	12.5189142227	25.9556980133	2.94238185883	31.5248031616	28.1480579376
-8.85565280914	8.5767364502	34.8247756958	3.14420223236	31.3824138641	28.2248268127
-2.83103728294	-0.319458395243	42.3711395264	3.23956370354	31.4265556335	28.2415885925
-2.46880340576	-10.7911682129	49.4340171814	3.37120652199	31.4071369171	28.3390922546
-5.79162549973	-17.5588684082	55.2960929871	3.6492395401	31.3914318085	28.5283660889
-5.95594978333	-23.4823513031	57.2491645813	3.59659409523	31.29022789	28.6698303223
1.43291831017	-32.1661262512	52.5361480713	3.36857700348	31.2055130005	28.8781280518
13.7736225128	-38.6748542786	40.1858596802	3.1501762867	31.3892803192	28.9505977631
14.5086507797	-41.6285552979	36.0314292908	3.35083580017	31.5344486237	28.9424304962
13.2922992706	-42.6545448303	35.2262306213	3.35513401031	31.4843235016	28.9407520294
9.67123508453	-43.401424408	36.3761291504	3.00328493118	31.5880489349	28.8346576691
0.394705086946	-41.0169334412	40.5724182129	2.87406682968	31.5513496399	28.8154602051
-5.52857255936	-37.9727058411	43.9728736877	2.96024131775	31.5168266296	28.9789352417
-6.29089641571	-36.2950325012	44.6745376587	2.94352197647	31.6074104309	29.046333313
-6.22653007507	-35.8107452393	45.4997787476	2.98264336586	31.6348705292	29.172958374
-8.53011035919	-34.6900291443	49.6044464111	3.00734138489	31.7674293518	29.2206096649
-7.07786941528	-33.9765930176	49.2601203918	3.18313241005	31.7826309204	29.3668937683
0.960103332996	-33.641658783	43.3617286682	3.3121650219	31.8516387939	29.5242824554
8.91151046753	-32.9133377075	37.6745109558	3.29634642601	31.8044548035	29.5898532867
11.5692195892	-32.8213386536	35.4094276428	3.35709738731	31.7122402191	29.6910076141
14.839422226	-32.6510238647	32.7024154663	3.33366560936	31.6827888489	29.7672080994
27.1129665375	-30.0840759277	23.2545814514	3.40458035469	31.725353241	29.9483947754
38.050655365	-25.0416660309	13.8877887726	3.74924373627	31.6359710693	30.1751976013
40.4743881226	-21.5799865723	9.78064727783	4.05855464935	31.5120258331	30.1972179413
36.9574737549	-18.1192836761	9.74539756775	4.32368564606	31.4940052032	30.3423557281
35.6080780029	-10.8564376831	10.5148735046	4.57972669601	31.439781189	30.5785751343
31.4881401062	-4.75252389908	12.8770837784	4.77897500992	31.2945556641	30.86810112
28.392786026	-1.25924324989	14.4237747192	4.32110404968	31.3532905579	30.6027965546
25.4873428345	-0.871977627277	16.7345695496	4.46999120712	31.2831935883	30.5718955994
21.7890434265	-2.40902280807	20.283662796	4.67131900787	31.1764163971	30.5142879486
8.80905914307	-4.82320308685	30.1709575653	4.44475984573	31.087184906	30.3561153412
1.86825466156	-4.38605260849	36.0228309631	4.15751504898	31.1632003784	30.3178730011
-1.40384542942	-5.26491355896	40.6664276123	3.97132754326	31.4893169403	30.4939308167
-2.87416100502	-7.53019571304	45.7396659851	3.83662605286	31.7000236511	30.4563770294
-6.37252092361	-10.4373168945	51.9184570312	4.01021528244	31.888589859	30.4004898071
-4.7876086235	-16.6935100555	49.9747772217	4.29897356033	32.1493988037	30.6910171509
2.83346247673	-23.3807487488	40.5464553833	4.07840108871	32.350440979	30.6977996826
5.49240159988	-25.9149303436	36.499797821	4.06718873978	32.2477989197	30.6830024719
2.83796262741	-27.1865386963	36.8866653442	3.98236250877	32.1674194336	30.6347866058
-0.0659756734967	-28.6571807861	38.8254127502	3.8552737236	32.2173995972	30.6452484131
-0.034637350589	-31.3337154388	39.6040039062	3.82410430908	32.2589263916	30.6253395081
-0.591042995453	-34.2090148926	40.888458252	3.78216600418	32.3647155762	30.5597763062
1.79093241692	-37.6285591125	39.2993049622	3.74554371834	32.4729347229	30.4032268524
6.63980484009	-40.6786651611	35.5979614258	3.99996066093	32.5416069031	30.4676074982
9.22556018829	-40.878200531	33.1988372803	4.20292234421	32.547580719	30.752532959
11.5474653244	-39.5508956909	31.502374649	4.43588018417	32.4371032715	31.6890029907
12.4936952591	-38.2918548584	30.4764575958	5.06852912903	32.4136161804	33.1369667053
14.136256218	-36.4501647949	27.560962677	5.08863973618	32.4823532104	33.2908554077
17.3591327667	-31.0746364594	19.2329711914	5.11864519119	32.3393058777	32.7703857422
17.1889209747	-26.9317684174	17.0486412048	5.63208770752	32.1716117859	32.4541740417
18.8674659729	-27.7318439484	17.5994472504	5.87466144562	32.0068626404	32.136341095
19.8420505524	-30.5983982086	18.2521820068	5.9448299408	31.9787254333	32.0504646301
20.9678516388	-33.6503372192	17.8600559235	5.83932590485	32.0292129517	32.1129684448
22.0536136627	-35.6916999817	16.8447704315	5.65614318848	32.035484314	32.2263221741
22.8326530457	-38.0905723572	15.98279953	5.54835224152	31.9573478699	32.2949256897
24.0844516754	-40.1379470825	14.432723999	5.51587533951	31.7242145538	32.1501655579
24.9949398041	-41.9715538025	13.5444793701	5.58821296692	31.4499111176	31.976764679
26.7958965302	-40.567527771	12.7881193161	5.80062007904	31.1170711517	31.7593536377
24.5676593781	-27.5372219086	11.9956655502	6.00500679016	30.2778759003	31.3822650909
20.8213939667	-15.3642339706	9.42671585083	5.89103937149	29.4406833649	30.9155292511
19.4873523712	-9.54235363007	10.215502739	5.33863449097	29.0740127563	30.8076725006
18.9168987274	-4.61455488205	10.3886499405	5.01681518555	28.9036312103	30.9161434174
14.9637546539	0.216904312372	10.6616697311	4.97691011429	28.8772888184	31.0200176239
9.01113605499	4.5719332695	11.9449186325	5.15101766586	28.767162323	31.1647548676
3.9453625679	7.84266042709	15.118475914	4.98541736603	28.8250141144	31.3456478119
-0.243493422866	11.3236255646	17.6175861359	4.74102115631	29.0274085999	31.6075248718
-2.60108160973	14.7732782364	18.128288269	4.42889261246	29.1257019043	31.8000469208
-1.72711479664	16.2291088104	19.0081748962	4.21091222763	29.2661628723	31.9609889984
3.88791179657	2.94987130165	24.8333702087	4.07850599289	29.4376392365	31.7804603577
0.0416146591306	-7.54875898361	32.4600868225	4.58536291122	29.501991272	31.6709098816
-5.9062962532	-12.3644065857	38.8645591736	5.34953117371	29.4459667206	31.7350616455
-10.5116939545	-15.5504379272	45.2969741821	5.09948539734	29.5130729675	31.8447570801
-12.3840417862	-19.3353424072	50.6564178467	4.50691366196	29.7126216888	32.0748214722
-10.3718633652	-26.1058330536	51.3489685059	4.05474328995	29.8116836548	32.2051963806
-1.0814293623	-33.2239570618	43.1815223694	3.89058446884	29.9626960754	32.1840362549
1.96571147442	-35.5598335266	38.8921890259	4.40644311905	30.10704422	32.293548584
1.59722304344	-35.8716506958	38.3147201538	4.70319986343	30.0304851532	32.2612953186
3.62806105614	-37.3320960999	36.7712936401	4.50395917892	30.0554771423	32.5252151489
5.70407247543	-38.8375244141	35.0200614929	4.17170763016	30.1610221863	32.7389755249
6.97091770172	-39.7263221741	32.9773139954	4.15234613419	30.2397575378	32.8792686462
8.0923614502	-39.4211959839	31.3079433441	4.34220075607	30.2663211823	33.2094573975
7.96791934967	-39.5082702637	31.0285682678	4.62064504623	30.0581531525	33.9129714966
7.89673471451	-39.4262542725	30.8880233765	4.72338724136	29.9284534454	34.3818664551
7.61653232574	-39.1893768311	31.0020675659	4.40776252747	29.7658004761	33.942111969
8.48803806305	-39.2690696716	30.5535774231	3.64964175224	29.7247676849	31.559709549
9.17591667175	-39.4717597961	30.2279090881	2.86374855042	30.2523460388	28.6009902954
9.93558597565	-39.4806098938	29.7293376923	1.94370090961	31.037694931	25.3736209869
10.2245788574	-39.0973892212	29.4165859222	1.52673590183	31.2771759033	23.4210853577
10.0579366684	-38.6491508484	29.3358287811	1.13550674915	31.3211650848	22.4325695038
8.79813766479	-37.7241172791	30.0925369263	1.00038170815	31.4182262421	22.3387584686
7.99064874649	-36.966632843	30.8349170685	0.949591994286	31.6256141663	22.8261699677
6.32990550995	-36.9588470459	32.7746162415	0.949908912182	31.9157485962	23.4134502411
5.02704191208	-36.3329811096	34.4071121216	1.43870782852	32.9033355713	24.3816013336
4.67543315887	-36.7494125366	34.8754043579	1.75821423531	34.0422401428	25.3099098206
4.39134502411	-36.971321106	35.120967865	1.64247727394	34.5488815308	25.5566139221
4.16014957428	-36.9586868286	35.3079147339	1.45293986797	35.2886810303	25.1876907349
4.23237514496	-36.9534606934	35.1739578247	1.21876168251	35.5735206604	24.4996528625
4.27681732178	-36.89012146	35.0637435913	0.453847020864	34.7534484863	23.3533191681
4.46573162079	-36.9847259521	34.8077011108	-0.832152068615	33.355266571	22.0081958771
4.78001403809	-37.0934906006	34.3392219543	-1.55813395977	31.927154541	21.1256332397
4.93905830383	-37.048828125	33.9929122925	-1.77215564251	30.473651886	20.7200832367
5.02925205231	-36.9796447754	33.7569656372	-2.36151647568	28.960893631	20.2308158875
4.87279891968	-35.8574790955	33.8649864197	-3.03923654556	27.7284317017	20.0117034912
3.97092747688	-32.6340408325	34.4174385071	-3.78827238083	27.2483177185	19.8951091766
3.05365681648	-31.8305644989	35.6673431396	-4.15775108337	27.5388431549	20.0901088715
1.96408140659	-32.0072898865	37.0406341553	-4.05402469635	27.7987365723	20.3413658142
0.685845017433	-32.985294342	38.6616859436	-3.85171532631	27.8068618774	20.2545261383
-0.262318253517	-34.448551178	39.864818573	-3.54127025604	27.6679115295	19.8509788513
0.148045763373	-36.0561714172	40.0654373169	-3.2916302681	27.2889823914	19.3063983917
0.151365846395	-37.0835876465	40.2760620117	-3.48300457001	26.8899459839	18.5072631836
-0.482367783785	-38.0968017578	40.904876709	-3.98728871346	26.7875862122	17.5911808014
-0.632189154625	-38.8389396667	41.2902870178	-4.57820463181	26.970161438	16.6417255402
-0.905984282494	-39.6039657593	41.4628410339	-5.00289297104	27.2314167023	15.5377550125
-1.8482260704	-40.0461235046	42.2893257141	-5.02109909058	27.5847206116	14.0644359589
-2.60794734955	-39.963596344	43.1702346802	-4.81633615494	28.5541954041	12.4386415482
-2.98750710487	-39.3959236145	44.2294197083	-4.19234991074	29.604183197	11.9114141464
-3.35339069366	-38.4549636841	45.3984527588	-3.24351239204	30.3817443848	12.2654743195
-6.32711601257	-36.7437858582	48.7249717712	-2.17120790482	30.9894638062	12.8904323578
-7.94175291061	-35.5702362061	51.4224052429	-2.01541399956	31.1930351257	13.0582008362
-7.77686166763	-35.1894416809	53.5970344543	-1.95839762688	31.251783371	13.506726265
-5.34839344025	-35.8554153442	55.3570365906	-1.73268485069	31.1489982605	13.7378902435
-3.63071417809	-37.1531219482	57.5839118958	-1.51639389992	31.0509262085	13.8502426147
-2.08252549171	-39.8037834167	59.9370956421	-1.27134096622	31.0803489685	14.0181541443
-0.0641313716769	-43.3957443237	61.5110855103	-1.1896739006	30.6936588287	13.9971504211
2.74471688271	-46.738067627	59.794708252	-1.10701191425	30.3601093292	13.9244623184
1.89310240746	-48.655040741	56.5581436157	-1.00322723389	30.3822898865	14.1128005981
2.33093214035	-48.9089889526	52.9214019775	-1.08979725838	30.4529743195	14.1816968918
2.40770936012	-48.2493209839	51.7113380432	-1.1623197794	30.2886695862	14.2507686615
2.17930722237	-47.8521347046	51.4337730408	-1.21705925465	29.9078140259	13.9647245407
2.30607295036	-47.8434524536	50.9244918823	-0.932253360748	29.588186264	13.8748254776
2.57245254517	-48.0044631958	50.3845329285	-0.728277146816	29.4960002899	13.835521698
2.31650567055	-47.2936172485	49.6700973511	-0.177121251822	29.6295318604	13.9937133789
2.87195706367	-46.0333099365	48.4680137634	0.182832926512	29.675151825	14.2215461731
4.02477455139	-44.3270606995	48.7029953003	0.391777396202	29.8196525574	14.562874794
6.77633237839	-41.5599365234	48.2746734619	0.395599603653	30.0414962769	14.7932834625
7.6054019928	-38.0212860107	47.6552505493	0.466399103403	30.1807956696	14.8892583847
7.74947786331	-34.6595497131	47.5619926453	0.611911296844	30.5371208191	15.0511007309
7.53167295456	-31.4895935059	48.3135604858	0.815862178802	30.6984024048	15.2363862991
6.90213441849	-31.6520748138	48.5089263916	0.953860521317	30.741186142	15.4560337067
4.78178739548	-32.9923477173	48.3975219727	1.03372752666	31.0009670258	16.2968788147
3.13548588753	-33.7970848083	48.247177124	1.2830375433	31.5049381256	19.016626358
2.51575779915	-34.1622848511	48.2910575867	2.04001832008	31.8701248169	21.4238700867
1.84203612804	-35.4263916016	49.4136199951	3.46803379059	32.3622627258	23.8903121948
0.576645553112	-38.1446723938	51.4214134216	4.56197452545	32.1939926147	25.5174293518
-0.496283680201	-40.822807312	52.3587036133	4.35730314255	31.7881736755	25.5768928528
-0.0219903178513	-42.5344924927	50.3691101074	3.43717384338	31.9004878998	24.8817005157
0.274602502584	-43.2856864929	48.409942627	2.26540088654	32.1286582947	24.1672229767
0.66151124239	-43.0050468445	47.8550338745	1.6996935606	32.2509880066	24.0559005737
0.300234943628	-42.8592262268	47.7008552551	1.84262216091	32.3473777771	24.7353019714
0.263279616833	-42.837600708	47.1569709778	1.81490027905	32.4619674683	25.5447444916
-0.0815370976925	-42.7740249634	46.7111358643	1.7696659565	32.4790496826	26.5705738068
0.116608835757	-42.6743087769	45.594959259	1.45100915432	32.416595459	26.8361492157
1.02498233318	-42.8856925964	43.9732475281	1.30455672741	32.2854957581	26.0138492584
1.82775127888	-43.1108360291	43.5939865112	1.35188293457	32.2066688538	24.4356937408
2.85623168945	-43.3033256531	42.9020614624	2.04444503784	32.2858314514	23.3963871002
2.53555393219	-43.4080963135	43.108127594	2.84645032883	32.4536094666	22.5941181183
2.61790561676	-43.4185600281	43.1467399597	3.08516907692	32.687664032	21.9002933502
2.73455071449	-43.4424591064	43.0197792053	2.90900421143	32.9892807007	21.7374744415
2.58754920959	-42.7778663635	43.0406227112	2.72896194458	33.2442893982	21.6101398468
2.50384235382	-42.0282783508	42.8643264771	2.64054894447	33.8316040039	21.6607990265
2.07274985313	-41.8457870483	42.9985694885	2.5740146637	34.2468719482	21.8011455536
1.73375988007	-41.436164856	43.0279769897	2.5007879734	34.5473098755	21.8975353241
1.68727719784	-40.9144058228	42.9281578064	2.50857615471	34.4112854004	21.9990768433
2.06602787971	-41.3863487244	42.6822929382	2.39863824844	34.2726135254	21.9137649536
1.2792981863	-42.8378372192	43.0490341187	2.47177243233	34.2337341309	21.9622383118
0.906196296215	-44.4784927368	43.2276954651	2.41905021667	34.2165374756	21.998254776
0.424561977386	-46.1116027832	43.250919342	2.19679284096	34.224281311	22.0514507294
0.596362233162	-47.6053619385	42.781124115	2.09210824966	34.320854187	22.2164802551
0.755177497864	-48.899433136	42.1761665344	2.09539318085	34.3274497986	22.3323516846
-0.616772770882	-49.3233604431	42.6506538391	2.33952522278	34.1900596619	22.6374588013
-0.616168558598	-47.6968460083	42.2260093689	2.21592998505	34.2065734863	22.7397232056
-0.938193559647	-44.660610199	41.8789863586	2.15992283821	34.3360557556	22.9828529358
-1.26417148113	-41.4729232788	41.2991371155	2.02896237373	34.4224967957	22.8735542297
-1.61731815338	-38.990688324	41.2901878357	2.3146648407	34.5975036621	22.7924766541
-0.857888579369	-36.5559921265	41.3844528198	2.58778238297	34.7266654968	22.8239936829
-0.796533346176	-33.4129219055	42.3236503601	2.65237879753	34.711856842	22.6970367432
1.05685973167	-29.3819236755	42.4253578186	2.62127876282	34.7100257874	22.6142177582
1.67146623135	-25.1442604065	44.2555809021	2.67267370224	34.7489242554	22.5032520294
3.15358924866	-21.3548622131	46.1674079895	2.75979042053	34.7983589172	22.472322464
1.43908369541	-21.7146244049	49.4068450928	2.77986454964	34.8705596924	22.488527298
7.49765777588	-25.9264736176	39.4363937378	2.90718150139	34.8734703064	22.5949001312
11.6903934479	-26.700056076	29.5550003052	2.88135719299	34.9603042603	22.6860618591
9.38497829437	-26.754732132	27.6468105316	2.7684264183	34.891368866	22.7584114075
1.97414362431	-22.9201583862	34.9711608887	2.64207386971	34.9208564758	22.7374820709
-3.62215781212	-20.3565406799	42.4625358582	2.5523853302	35.0321731567	22.7900409698
-5.04770946503	-20.7965869904	47.5434036255	2.21869587898	35.0890159607	22.7495536804
-3.7311873436	-24.1911411285	50.5862350464	2.11702799797	35.1014328003	22.768289566
-3.41873812675	-29.4976425171	53.9131546021	2.3512070179	35.0784072876	22.8624782562
-4.54178714752	-33.7306175232	55.9194068909	2.50352144241	35.1418228149	22.8850326538
-4.7579460144	-39.1279220581	56.9576339722	2.49316048622	34.9981384277	23.0079841614
-2.70467329025	-44.2415275574	54.4504776001	2.75585770607	34.4628105164	23.9537296295
-1.38053226471	-48.2896766663	50.4168128967	2.96628808975	34.1813697815	24.3785152435
-2.15572810173	-48.6454620361	47.242641449	2.89103960991	34.4415550232	24.3983058929
-2.83641934395	-47.9368286133	45.7671852112	2.79663109779	34.4216766357	24.4466915131
-3.2804749012	-46.4193916321	45.7215270996	2.70043849945	34.2567749023	24.4208145142
-2.70637631416	-45.5966262817	44.381778717	2.50434207916	34.2952270508	24.2901248932
-2.84417128563	-45.2445335388	43.5481681824	2.41264986992	34.6671943665	24.2936859131
-3.60845994949	-44.5082092285	43.8058738708	2.65080404282	35.624004364	24.6676578522
-3.89831566811	-43.3310012817	44.2203102112	3.00448298454	36.2673835754	25.0765514374
-3.90054440498	-42.6883888245	44.3309516907	2.83803057671	36.2078895569	25.0344371796
-2.76714396477	-42.371006012	42.6966209412	2.51193261147	35.7834281921	24.8928604126
0.772879898548	-41.3723335266	38.0776672363	2.29824733734	35.4201049805	24.6845760345
1.73532474041	-40.9424209595	35.0754127502	2.29948043823	35.5223045349	24.6845321655
1.19010865688	-40.9183807373	34.5243835449	2.18622016907	35.7171134949	24.7112884521
-0.158492401242	-39.9514923096	35.4973144531	2.10676598549	35.8022117615	24.6558589935
-1.09361112118	-38.2993965149	36.6744499207	2.06606340408	35.8443145752	24.4519500732
-0.323683083057	-37.2556152344	36.7169647217	2.41079521179	36.5409088135	24.9062976837
0.237803250551	-36.705657959	36.800907135	3.63414788246	37.7155189514	27.4533901215
0.0677774250507	-36.6314468384	37.2674560547	4.49412298203	37.755065918	28.7695865631
0.387479543686	-37.0655174255	37.4412536621	4.65442180634	37.4631652832	28.5646686554
1.26517271996	-38.579208374	36.6976470947	3.76438856125	36.352104187	26.7368984222
1.9823949337	-40.9731559753	36.2097549438	2.81657600403	34.6555099487	24.4786586761
2.40608143806	-42.6518592834	35.808429718	2.62621712685	33.3345031738	22.8998889923
2.72961068153	-44.3354148865	35.2502555847	2.68632936478	32.1450195312	21.8621807098
3.33814001083	-45.5869255066	34.2735137939	2.29261350632	31.4515285492	20.9410533905
2.58397316933	-45.4613227844	34.7432441711	2.19468688965	31.9093170166	20.9826011658
2.3385617733	-44.0475997925	35.6277503967	2.41219615936	32.5142402649	21.6006507874
-0.0345491841435	-42.6749382019	37.9886741638	2.44409561157	32.902507782	22.0021724701
-0.966200649738	-41.4621276855	38.3842735291	2.6042869091	33.3010673523	22.5988483429
-1.07884478569	-40.4615783691	38.4841346741	2.3799507618	33.6831932068	22.9168071747
-0.992966413498	-39.6947784424	38.6880149841	2.29388427734	33.9782905579	22.7906856537
-1.13268697262	-37.3488464355	39.1235084534	2.61616683006	34.0887908936	22.4154243469
-0.583584845066	-32.6470909119	39.8392715454	2.98635482788	34.1264801025	22.0629272461
-0.40179207921	-26.1287708282	42.0747184753	2.95913743973	34.1633071899	21.6500473022
-0.0917025581002	-18.3191070557	44.4335479736	2.9157435894	34.0442771912	21.5534248352
1.07832169533	-10.8192720413	46.3538284302	2.50209307671	33.9166946411	21.3288383484
3.2459859848	-6.15131998062	46.7613296509	2.07720708847	33.6693115234	21.0856170654
7.70030450821	-6.74024152756	44.8517570496	1.77188313007	33.272769928	20.824508667
12.9465675354	-14.5111160278	39.466053009	1.95028913021	32.8352165222	20.4344749451
13.8938436508	-26.0899505615	34.9501838684	2.89313411713	32.7573699951	20.2057533264
14.6096286774	-36.3445777893	31.6505126953	3.57290649414	32.6651916504	20.0448074341
11.7062234879	-43.9444389343	32.2967987061	3.81783366203	32.7447166443	19.9743232727
8.3037405014	-47.9967727661	33.9081611633	4.04501390457	32.7841339111	20.2804870605
4.91060209274	-50.1160316467	36.1857719421	4.22044086456	32.8284912109	20.7223205566
4.84847831726	-50.7008094788	35.6532821655	4.21641635895	32.9834518433	21.1071071625
4.94578838348	-51.961101532	34.8710479736	4.11844587326	33.2574272156	21.2650222778
5.39607620239	-54.6180229187	33.1725578308	4.18645191193	33.508140564	21.209690094
3.24480867386	-57.2184486389	33.6189918518	4.33971595764	33.5123023987	21.1108341217
0.708139359951	-57.372341156	34.8671073914	4.39450359344	33.5323829651	21.0172233582
0.685879290104	-53.5285453796	35.1784515381	4.25837182999	33.6965141296	20.9592685699
3.03108811378	-48.90858078	33.2304840088	3.40811467171	34.6390304565	21.3023014069
3.3560962677	-46.5349311829	32.6176757812	3.04893302917	36.1566772461	23.8063201904
3.15083813667	-45.4199523926	32.5114898682	4.13345050812	36.2692527771	27.6786155701
2.68085551262	-44.8816604614	33.0504264832	5.70028495789	35.4425926208	30.4063777924
2.46891522408	-44.9627532959	33.1149978638	6.8811879158	35.6921348572	32.7211990356
2.38348793983	-45.3212013245	33.2516860962	6.11765956879	35.9530410767	32.6867904663
2.33004593849	-45.8113288879	33.2993202209	4.50091266632	35.6963005066	30.4282417297
3.43757295609	-46.6508865356	32.2317848206	2.31721115112	34.9562110901	25.1886863708
5.18803215027	-47.4683609009	30.6429767609	1.23950183392	34.0995445251	21.0835056305
6.30417537689	-47.5492019653	29.3736438751	1.36847102642	33.1658821106	18.6088142395
6.85659980774	-47.314491272	28.8159294128	1.34299147129	32.2278327942	17.0947971344
6.29803466797	-45.7200813293	28.5887622833	1.17455863953	31.4112701416	16.0584220886
3.91832971573	-41.7049369812	30.1139373779	0.843623459339	31.0316829681	15.7358961105
-0.475741267204	-37.5541381836	33.1721954346	0.796850919724	31.0107860565	16.1542758942
-4.08784484863	-33.2697944641	36.0709381104	0.668527066708	31.5253715515	16.6895217896
-5.29998970032	-30.0101985931	38.3190422058	0.55326205492	32.3004188538	16.9764289856
-3.8066945076	-27.3622226715	40.077129364	0.682499349117	32.7587051392	16.955121994
-2.76332759857	-25.098482132	43.0898208618	1.16977739334	33.1189880371	16.6340866089
-0.575094103813	-22.6029224396	44.0841445923	1.77489972115	33.5200386047	16.5877761841
0.150407373905	-20.3576831818	47.4524230957	2.0707449913	33.7755126953	16.4366188049
3.54230952263	-18.0473098755	47.7602615356	2.18119049072	33.8867073059	16.5313930511
5.67776489258	-17.6899967194	46.2201309204	1.94477069378	33.8207473755	16.7348136902
3.37879514694	-19.648355484	44.2711715698	1.62095987797	33.6176223755	17.2231330872
-1.57548415661	-21.9207172394	42.99659729	1.25712072849	33.6288070679	18.0361309052
-6.29560947418	-24.2231235504	41.9592094421	0.403055071831	33.699382782	18.7718753815
-10.236374855	-27.5418052673	41.3789596558	-0.578150749207	33.8654594421	19.5448646545
-14.5077447891	-32.0064430237	41.1524162292	-1.29160714149	34.1287345886	20.3406162262
-18.6109981537	-37.3626289368	40.9739608765	-1.61999928951	34.241481781	20.9644889832
-23.1941432953	-43.1984062195	41.6991691589	-1.50516200066	34.3579788208	21.5088500977
-28.2212753296	-48.8925743103	43.6902503967	-1.17277491093	34.4880256653	21.8962955475
-34.4903755188	-53.7129478455	47.9032745361	-1.08276104927	34.6314163208	22.1213378906
-42.211227417	-54.6275367737	53.8289375305	-0.973583340645	35.2029304504	22.2746353149
-49.1133308411	-53.5878982544	60.8183097839	-0.670164167881	35.5403785706	22.3962974548
-51.9684333801	-53.5215263367	64.8121566772	-0.282470166683	35.6258163452	22.7328605652
-52.2522125244	-54.8272514343	64.1867675781	-0.0142200309783	35.8836212158	23.0437717438
-45.2586174011	-59.4437408447	54.2995452881	0.324058413506	35.9802703857	23.3964958191
-35.2184944153	-63.3824958801	42.7557563782	0.612640023232	35.7257385254	23.6876773834
-45.6736335754	-60.6007118225	52.9881744385	1.04991471767	35.7827911377	24.0939788818
-51.0214424133	-55.6442604065	61.5786094666	1.3656629324	35.871837616	24.3347053528
-47.0374641418	-55.8226013184	59.4569854736	1.28999233246	35.8680419922	24.4052906036
-44.206905365	-57.0885467529	54.9292564392	1.1222743988	35.9417648315	24.3895645142
-41.6792144775	-58.5597686768	50.0309524536	0.947007358074	35.8799819946	24.1665363312
-37.8163299561	-58.2988319397	45.6383934021	0.757296025753	35.8695983887	23.6356639862
-38.4112281799	-56.0996932983	47.2017631531	0.702316045761	35.7872009277	23.0572299957
-47.918586731	-48.61485672	60.601398468	0.564214587212	35.6145019531	22.2163181305
-46.7717666626	-45.8199234009	61.2492599487	0.432508647442	35.4156799316	21.3855781555
-38.4613876343	-46.0274543762	53.7770729065	0.484634935856	35.2957191467	20.4129085541
-15.6166372299	-41.921005249	29.956741333	0.933197259903	35.0899124146	18.9344654083
3.6832177639	-35.200920105	13.284822464	1.15216135979	34.4736595154	17.3825702667
15.3200016022	-30.0620861053	8.13112354279	0.9247803092	34.3883094788	16.3085708618
14.1048192978	-27.4465007782	6.99835348129	1.10363519192	34.4578018188	15.5072612762
6.62333965302	-23.9525413513	18.2115459442	1.58544778824	33.6553344727	15.353053093
-11.4379615784	-15.3281850815	30.687587738	1.7465082407	32.393245697	16.8055973053
-17.8123531342	-13.6060781479	39.1546325684	1.20380651951	32.0158729553	17.7059745789
-15.6353702545	-15.1171684265	42.9534111023	0.714366316795	33.0050354004	18.5743732452
-17.8753433228	-19.706817627	54.1362876892	0.533178389072	33.2041931152	19.5380401611
-17.1610851288	-26.4187164307	58.0320243835	0.776323080063	32.593547821	20.3146781921
-11.9542827606	-35.2075195312	52.548740387	1.5119304657	32.1457061768	21.8474159241
-5.13920545578	-39.9146499634	44.6796531677	2.84029841423	31.6741695404	26.342124939
-6.7500629425	-41.1957321167	45.1010627747	4.26908111572	31.2564601898	29.5785236359
-6.36828136444	-42.0007247925	44.429233551	5.19183683395	31.5528240204	31.899684906
-5.61759519577	-44.4928207397	44.2837142944	4.27471494675	32.5681266785	33.053691864
-4.0550198555	-46.5618400574	40.9930267334	1.85729253292	34.5410308838	32.2794265747
0.910863399506	-47.9798545837	33.928894043	-1.60912239552	37.0195884705	30.538640976
3.77016377449	-48.2258872986	29.7629756927	-4.33241510391	38.4325637817	29.6028442383
2.76641750336	-47.5980529785	30.5627193451	-2.88504171371	38.1194419861	31.6018123627
2.32838988304	-47.6722450256	31.1275043488	-0.647106170654	37.3372383118	33.5771980286
2.56423187256	-48.3021087646	30.1154899597	0.798501193523	36.8086891174	34.8278312683
8.68074607849	-48.5081176758	22.9527053833	1.11977410316	36.6897010803	34.7147331238
16.4698829651	-46.0719566345	14.3640451431	0.792860090733	36.5338821411	33.4948577881
15.5309705734	-43.9068374634	14.9539117813	0.896214187145	36.1407699585	32.6655197144
11.5969018936	-37.8807029724	18.0346660614	1.40740466118	35.6969146729	32.685798645
6.73849058151	-33.1835823059	20.374710083	1.43715596199	35.593044281	32.7244567871
4.55937337875	-31.0160541534	20.8685836792	1.11821448803	35.7116088867	32.5533905029
3.06357359886	-29.7729511261	21.421546936	0.607029139996	36.007183075	31.9992465973
1.17761337757	-27.8774089813	21.4509849548	-0.102722801268	36.3636932373	30.9312458038
-2.04980778694	-25.0461750031	21.8660984039	-0.741744577885	36.3865432739	29.8555450439
-5.92706441879	-21.590675354	23.0520439148	-0.659467339516	35.9567337036	29.3044681549
-8.53314495087	-17.4671020508	24.4023075104	-0.710735559464	35.6206054688	28.8410167694
-5.87012004852	-14.7777557373	26.1412220001	-1.12173378468	35.5162811279	28.4167804718
-0.716250598431	-13.3684244156	24.1921253204	-0.912953853607	35.2256202698	29.0920372009
3.8677213192	-18.262845993	19.606546402	0.126094520092	34.1438827515	31.1434745789
2.31049704552	-23.1295833588	19.9714794159	1.8138024807	32.8927116394	33.6446342468
3.02284932137	-25.8119373322	18.9985618591	3.46598052979	31.933380127	35.9540061951
2.67468309402	-27.9453201294	19.2396011353	4.72592067719	31.1995220184	38.3099136353
2.55854701996	-29.4113445282	19.3931407928	5.41623926163	30.5932884216	40.1510543823
2.3786008358	-30.2708816528	19.2515621185	5.69494438171	30.1553287506	40.2001876831
4.6936545372	-31.4656658173	15.9722070694	5.56638336182	30.281496048	37.8711967468
7.98544406891	-31.4404430389	12.5899467468	5.28738069534	30.7005348206	34.0138435364
7.33235311508	-31.3629188538	13.9316768646	5.41343641281	30.6084156036	30.6206951141
7.03643894196	-30.9643421173	15.0630760193	5.09676265717	30.1699771881	27.6580657959
5.18678760529	-30.9315052032	16.6158809662	4.42329025269	29.7380027771	25.1027584076
2.29803776741	-30.7866668701	19.5585021973	3.73736286163	29.2059135437	22.9290046692
-1.20601212978	-30.009929657	22.8195457458	2.88739109039	28.6858081818	20.9399394989
-4.55218219757	-30.4083156586	28.2393913269	1.72449624538	28.5097293854	19.1690597534
-5.95423984528	-32.4107093811	31.9275951385	0.341182559729	28.8832359314	17.3761119843
-6.68118476868	-35.3851318359	34.2266960144	-1.16203677654	29.4952945709	15.5063238144
-7.80155515671	-39.3737411499	35.895690918	-2.59945464134	30.0125694275	13.458073616
-11.7039880753	-42.0258712769	39.2701644897	-4.06047439575	30.5205287933	11.4674386978
-10.9536790848	-44.2536811829	36.8941726685	-5.14086151123	30.8867683411	10.1570034027
-9.76577663422	-43.2264671326	34.9448394775	-5.18034791946	30.8555717468	9.9753484726
-9.1926574707	-42.8369026184	33.9249382019	-4.89241027832	31.1775379181	10.019826889
-9.40165424347	-42.7293930054	33.7525939941	-4.96119737625	31.5035552979	10.1153125763
-11.3367452621	-40.6870689392	35.9331703186	-4.50896883011	31.4630489349	10.7986717224
-14.2036428452	-37.3938293457	38.9856987	-3.65163636208	31.4658813477	12.1636285782
-15.085351944	-36.0777130127	41.0769042969	-2.83920168877	31.5645236969	13.4326696396
-18.3215618134	-35.0684585571	46.3206253052	-3.21985054016	31.7516326904	13.7788085938
-20.5283794403	-35.3608169556	51.9339141846	-3.55728125572	31.947177887	13.9959173203
-19.6687107086	-37.6733055115	54.3817367554	-3.52480578423	32.0242424011	14.0541381836
-19.5454216003	-41.052066803	56.5321273804	-3.38072180748	31.780424118	14.1153411865
-22.0023212433	-45.2143630981	61.2264213562	-3.33634734154	31.6121692657	14.2233877182
-24.8468723297	-49.5825538635	67.7248916626	-3.4869530201	31.3918209076	14.2482395172
-27.0120754242	-54.1964073181	71.6790542603	-3.61439490318	31.1546516418	14.147061348
-24.003162384	-56.8744926453	64.8801574707	-3.42908596992	31.2324790955	14.2057180405
