-31.9825172424	-58.9865570068	128.790344238	3.35975551605	1.97332346439	-2.71721744537
-32.1248664856	-59.0010108948	128.944839478	3.22898697853	1.9784693718	-2.73864722252
-32.1311035156	-59.103225708	129.042526245	3.09094715118	1.93098580837	-2.72863340378
-32.0193138123	-59.1148757935	128.846679688	2.89868617058	1.47216939926	-2.74065351486
-32.6486625671	-59.5154762268	129.535797119	2.71451544762	0.705661594868	-2.99206733704
-33.3468360901	-60.4694633484	129.837402344	2.58403515816	-1.36500954628	-3.63656425476
-31.0188331604	-62.5333213806	126.285865784	2.78029537201	-6.31593990326	-4.47026777267
-29.4243850708	-62.2050361633	122.728103638	2.72721481323	-12.5270929337	-5.87857580185
-31.651966095	-62.4223556519	123.562416077	1.66353619099	-16.3973751068	-7.55156803131
-33.568031311	-63.6139068604	125.888282776	0.244981750846	-17.8495426178	-9.5446472168
-33.1631011963	-69.6940231323	128.759719849	-0.713611423969	-19.618221283	-11.1756544113
-21.7149047852	-71.3917236328	113.401847839	-1.27212393284	-21.1178398132	-11.6071643829
1.80397558212	-67.9924316406	80.4987487793	-1.15512597561	-21.521314621	-11.6920776367
14.593506813	-67.0153045654	60.6819839478	-1.38655745983	-21.4323406219	-11.4888839722
2.38602232933	-65.2886428833	71.9018554688	-1.99303197861	-20.8392543793	-11.2116985321
-8.83818721771	-64.611114502	79.3898620605	-2.45467829704	-20.2814617157	-10.9862737656
-13.9739704132	-65.3902130127	83.7460327148	-2.6593375206	-20.6556015015	-10.5953502655
-16.1111774445	-66.4057617188	86.1727218628	-2.65460538864	-21.177318573	-10.3298225403
