-91.2640304565	-14.4662866592	142.520614624	8.65577602386	4.39129161835	0.537178874016
-90.4290084839	-14.7062473297	141.651550293	8.99383068085	4.49868965149	0.313985973597
-90.3159484863	-15.0490684509	141.108642578	9.15367507935	4.61998748779	0.246257647872
-90.5843734741	-15.4784984589	140.782699585	8.69922733307	5.02246046066	0.399728000164
-91.3567657471	-16.5268955231	135.504470825	7.80835771561	6.29317808151	0.926443934441
-86.2166671753	-12.0593490601	104.75	6.43142700195	8.44165992737	1.39566338062
-85.1268997192	-8.0926399231	82.5570678711	5.13171100616	11.5432462692	1.99180960655
-86.2065505981	-7.69785881042	72.6250610352	4.01551437378	15.0971250534	2.6063284874
-90.9787216187	-9.26480197906	65.1615753174	2.98613476753	17.9059410095	3.2615404129
-95.1287460327	-13.0031824112	55.4280357361	1.7674254179	20.0057373047	3.77825188637
-97.640625	-18.6193447113	42.5545158386	0.326111018658	21.8134212494	4.2851934433
-100.751411438	-23.5585803986	35.4213600159	-0.765447437763	22.4742393494	4.59816265106
-105.106956482	-29.6587791443	37.6784744263	-1.29517066479	22.1991519928	4.70738220215
-107.191322327	-32.7240638733	38.7226333618	-1.84728312492	21.8094730377	4.82606315613
-104.56072998	-17.6235256195	49.7833976746	-2.62791609764	21.3838443756	4.82959365845
-102.218505859	0.494696229696	66.4316482544	-3.6000752449	21.35912323	4.77230978012
-103.945518494	7.01739168167	73.6669921875	-5.23819637299	22.2140293121	4.68824481964
-103.372795105	9.03934288025	79.2483825684	-7.05084228516	24.3709392548	4.38687944412
-101.74520874	12.5326633453	82.9655838013	-7.3356423378	27.4539337158	4.19615364075
-99.1326065063	14.8261995316	80.5834274292	-6.1392364502	29.8374938965	4.25860309601
-95.8299713135	16.7626152039	74.1073150635	-4.72074604034	30.8348731995	4.16339111328
-94.3577575684	18.4633655548	70.3555984497	-3.77315211296	32.1065444946	3.90464138985
-92.0741195679	19.4517326355	65.9659957886	-3.32190847397	32.8877601624	3.96291947365
-88.3345336914	20.4001064301	58.8519668579	-2.89055919647	32.9011917114	4.15578985214
-84.88306427	21.8027420044	57.5025939941	-2.37587738037	32.6618003845	4.13609838486
-80.6498718262	19.7831745148	60.6274299622	-1.94476318359	31.9801540375	4.05425310135
