0.0	-0.0	135.446548462	-74.5918884277	-32.8852081299	-163.247665405
0.0	-0.0	135.586898804	-75.1359100342	-33.3140907288	-162.845169067
0.0	-0.0	135.235748291	-76.1410293579	-33.2782287598	-162.014694214
0.0	-0.0	135.165466309	-78.3621749878	-33.0172996521	-160.780990601
0.0	-0.0	134.693374634	-81.1632537842	-32.5047225952	-159.601791382
0.0	-0.0	131.618423462	-86.0225143433	-31.9397277832	-158.439376831
0.0	-0.0	124.756561279	-97.3274612427	-28.7158279419	-153.69569397
0.0	-0.0	112.552474976	-108.811439514	-23.3227272034	-152.197692871
0.0	-0.0	95.8209915161	-120.625480652	-15.7922153473	-147.074996948
0.0	-0.0	83.7761230469	-126.223709106	-12.9384393692	-142.606414795
0.0	-0.0	77.8602142334	-129.278457642	-13.6767492294	-137.987091064
0.0	-0.0	73.1215515137	-135.437591553	-14.0504617691	-131.589004517
0.0	-0.0	69.6084671021	-143.02041626	-13.2240066528	-125.406555176
0.0	-0.0	67.530090332	-148.127700806	-12.5213918686	-120.939582825
0.0	-0.0	65.7703094482	-148.684661865	-13.1490707397	-120.282676697
0.0	-0.0	64.8831787109	-148.45803833	-12.3452234268	-120.998321533
0.0	-0.0	64.4724578857	-148.054931641	-11.2675390244	-121.831497192
0.0	-0.0	64.783164978	-149.602264404	-8.71416568756	-121.074928284
