0.0	-0.0	128.336929321	-104.579864502	88.4566574097	-173.531814575
0.0	-0.0	127.362976074	-104.763160706	87.7286529541	-173.230316162
0.0	-0.0	126.856964111	-104.868370056	87.0312271118	-172.905502319
0.0	-0.0	125.993606567	75.0563278198	89.6853408813	7.69674301147
0.0	-0.0	124.804519653	75.0431976318	82.0846252441	8.01006603241
0.0	-0.0	127.023719788	76.420501709	71.7520294189	8.55515384674
0.0	-0.0	112.916305542	81.2159881592	58.4799613953	8.18026733398
0.0	-0.0	108.311897278	87.9031448364	43.9197502136	6.09170341492
0.0	-0.0	119.328155518	93.0458450317	29.5352802277	4.42312717438
0.0	-0.0	118.021705627	96.0879516602	17.6108856201	3.83424782753
0.0	-0.0	45.2548942566	97.5687637329	9.86355400085	2.53421473503
0.0	-0.0	17.265920639	99.4635696411	7.79925060272	1.51006782055
0.0	-0.0	25.8258457184	99.5171661377	10.2241868973	1.08167135715
0.0	-0.0	39.4914398193	98.1332015991	14.4467487335	1.45475018024
0.0	-0.0	40.0495529175	97.2708511353	18.507101059	1.84520065784
0.0	-0.0	44.0024337769	97.7543106079	22.5945224762	1.92631471157
0.0	-0.0	42.0406837463	99.4002914429	24.7617988586	1.50655424595
0.0	-0.0	42.1443786621	99.8271179199	27.9087696075	1.65852749348
0.0	-0.0	44.0503311157	97.4602813721	32.287563324	3.72030091286
0.0	-0.0	54.941318512	91.0953521729	36.5712852478	6.74896764755
0.0	-0.0	67.7055282593	86.3624343872	34.1510543823	8.19340515137
0.0	-0.0	69.7941894531	88.2689361572	30.0215568542	7.27282190323
0.0	-0.0	68.7140350342	92.1592254639	27.0144023895	5.58994150162
0.0	-0.0	60.0900230408	95.5031051636	24.2563934326	4.22187900543
