-86.0480499268	-23.5484199524	135.800598145	7.66881370544	4.19381713867	1.89826834202
-86.0023956299	-23.8701553345	135.32800293	7.80156183243	4.14875555038	1.85892760754
-86.1448898315	-23.7777194977	135.357696533	7.94166040421	4.219414711	1.88496112823
-86.0159072876	-23.5485649109	135.160232544	7.82292556763	4.52676582336	1.93742465973
-86.0101089478	-23.741941452	135.021438599	7.80086183548	4.53658866882	1.89975094795
-86.164390564	-23.8301582336	134.393478394	7.71429729462	4.14558506012	1.80569124222
-82.8288803101	-24.3974132538	125.002227783	7.66243505478	3.12440705299	1.7593818903
-80.4093170166	-23.8578987122	114.263832092	7.70914936066	2.23645114899	1.75254702568
-80.460144043	-21.8769931793	111.307357788	7.38758563995	1.63269102573	2.14767217636
-81.0971679688	-21.888551712	107.51309967	6.58879518509	1.2052615881	2.60170102119
-78.8098526001	-21.1583137512	101.791755676	5.72610759735	1.19222700596	2.71875119209
-74.5974121094	-21.7452316284	88.220199585	5.22177791595	0.801390945911	2.70335841179
-71.6652374268	-22.5318984985	81.4528427124	4.91380548477	0.288704067469	2.71818351746
-72.7172317505	-23.54986763	79.7691040039	4.68264102936	-0.098852083087	2.66251158714
-75.4176712036	-23.3780422211	79.9797363281	4.52825021744	-0.176446408033	2.58628535271
-78.3996276855	-23.1922492981	80.1401901245	4.090239048	-0.251013964415	2.42595171928
-81.0482406616	-22.7600955963	79.7010116577	2.66612195969	-0.364744842052	2.82422089577
