0.297475337982	1.44318521023	-0.0263459682465	-0.031111240387	1.66988492012	-0.0374153852463
0.296194553375	1.44454550743	-0.0263504981995	-0.032252073288	1.66994738579	-0.0380078554153
0.294756889343	1.44586133957	-0.0273785591125	-0.0332138538361	1.67086851597	-0.0392622947693
0.292175292969	1.44542598724	-0.0256308317184	-0.0337963104248	1.67383050919	-0.0408239364624
0.285554647446	1.44094824791	-0.0190296173096	-0.0351264476776	1.67554807663	-0.0410622358322
0.27660036087	1.43229401112	-0.0068222284317	-0.0376234054565	1.67524242401	-0.0397406816483
0.266330242157	1.41805696487	0.0103316307068	-0.0397262573242	1.67505502701	-0.0387580394745
0.260281324387	1.39953672886	0.0315265655518	-0.0403692722321	1.67519283295	-0.0388336181641
