0.0430860519409	1.4415153265	0.122344970703	-0.126172304153	1.66709411144	0.0348176956177
0.0421206951141	1.44287657738	0.122601509094	-0.126747608185	1.66735422611	0.0339401960373
0.0406401157379	1.44317901134	0.122364044189	-0.127272367477	1.66745901108	0.0332236289978
0.0413744449615	1.44326305389	0.121760487556	-0.127939939499	1.6665276289	0.033233165741
0.0413253307343	1.44270253181	0.122374773026	-0.128923177719	1.66719055176	0.0335247516632
0.0367395877838	1.44074380398	0.1250436306	-0.130803823471	1.67317283154	0.0322871208191
0.030834197998	1.43561160564	0.129522919655	-0.133842945099	1.67884576321	0.0302805900574
0.0271291732788	1.43109118938	0.136683940887	-0.136751413345	1.68031334877	0.0295920372009
0.0177392959595	1.42138373852	0.150361895561	-0.138226747513	1.67800557613	0.0309941768646
0.00597953796387	1.39985001087	0.169757843018	-0.13880944252	1.6759480238	0.0332686901093
-0.0054874420166	1.38348829746	0.176655054092	-0.139706134796	1.67568314075	0.0353662967682
-0.0150203704834	1.38669312	0.173137903214	-0.141116142273	1.67550837994	0.0369019508362
-0.0286121368408	1.39135074615	0.170133113861	-0.142350435257	1.67573547363	0.0368777513504
-0.0450854301453	1.3906930685	0.170158147812	-0.143831253052	1.67668068409	0.0364227294922
-0.0599732398987	1.38783729076	0.173600435257	-0.146160840988	1.6771709919	0.0362358093262
-0.0716004371643	1.38680279255	0.176326751709	-0.148593425751	1.67663562298	0.0374596118927
-0.080376625061	1.38518965244	0.170085072517	-0.149913549423	1.67549407482	0.0394234657288
-0.0773251056671	1.3911126852	0.163149118423	-0.149287462234	1.67505729198	0.0416120290756
-0.0600724220276	1.40087008476	0.161819458008	-0.147299051285	1.67413055897	0.0438380241394
-0.0350861549377	1.40937674046	0.162966966629	-0.143851041794	1.67394971848	0.045058131218
-0.0134649276733	1.41234791279	0.163976192474	-0.139409065247	1.67450082302	0.0463975667953
-0.00214886665344	1.41062939167	0.167592167854	-0.138175725937	1.67359602451	0.0495283603668
-0.0057201385498	1.40754497051	0.168760061264	-0.145044326782	1.67072629929	0.0538932085037
-0.0139331817627	1.40863573551	0.168595194817	-0.153524875641	1.67016410828	0.0571740865707
-0.0216236114502	1.41001069546	0.169142484665	-0.157871484756	1.67203199863	0.0594139099121
-0.0214283466339	1.41520535946	0.173020601273	-0.158282756805	1.67365241051	0.0626709461212
-0.0175461769104	1.41862463951	0.17856669426	-0.156719923019	1.67355775833	0.0671899318695
