0.0589463710785	1.50974917412	0.219658851624	-0.157295227051	1.66779577732	0.0321717262268
0.057954788208	1.51014256477	0.220027804375	-0.157830238342	1.66775715351	0.0320601463318
0.0579504966736	1.51110863686	0.219280004501	-0.157476186752	1.66754114628	0.0319764614105
0.0584759712219	1.51126122475	0.219815969467	-0.157119989395	1.66861438751	0.032178401947
0.0557599067688	1.51017737389	0.224642276764	-0.158581256866	1.67311024666	0.0312367677689
0.0473656654358	1.50820159912	0.235728740692	-0.160933494568	1.67907857895	0.0290052890778
0.0359883308411	1.50491940975	0.250688672066	-0.164426088333	1.68549120426	0.0250228643417
0.0213582515717	1.49901401997	0.274762034416	-0.167709350586	1.69052231312	0.0194959640503
-0.004145860672	1.49474191666	0.287798643112	-0.170418739319	1.69397425652	0.0131356716156
-0.0332334041595	1.51233458519	0.289829015732	-0.172164678574	1.6968255043	0.00662350654602
-0.0565590858459	1.54510569572	0.290020704269	-0.172197580338	1.69971013069	0.000410556793213
-0.0667159557343	1.59047079086	0.284247040749	-0.171325445175	1.70166862011	-0.00530910491943
-0.0652160644531	1.63535153866	0.268926620483	-0.170869112015	1.7033945322	-0.0119268894196
-0.0526440143585	1.66836357117	0.246797680855	-0.170695543289	1.70498144627	-0.0196937322617
-0.0406305789948	1.68115270138	0.22945523262	-0.171347379684	1.70629012585	-0.0274789333344
-0.0280466079712	1.68802118301	0.215806126595	-0.172736644745	1.70820343494	-0.0346393585205
-0.0102660655975	1.69621455669	0.206963539124	-0.173357248306	1.70986258984	-0.0408415794373
0.00461745262146	1.70147502422	0.201898574829	-0.171332836151	1.71148478985	-0.0454318523407
0.0222220420837	1.70719826221	0.203730225563	-0.166606664658	1.71311116219	-0.0482333898544
0.0410070419312	1.71355724335	0.207537055016	-0.162261724472	1.71424639225	-0.0487368106842
0.0429396629333	1.71022665501	0.208076953888	-0.161317825317	1.71414446831	-0.0459108352661
0.0279037952423	1.69079494476	0.213913679123	-0.162792682648	1.71298468113	-0.0401437282562
0.0112013816833	1.66261482239	0.225155472755	-0.164265155792	1.70730805397	-0.0297853946686
-0.000264167785645	1.63605463505	0.229172825813	-0.165773868561	1.69800305367	-0.0178600549698
-0.00541996955872	1.61992657185	0.231799483299	-0.166087150574	1.69736230373	-0.0110285282135
-0.00972676277161	1.61393511295	0.239053010941	-0.165001630783	1.700096488	-0.00857925415039
-0.0120189189911	1.62640428543	0.242152929306	-0.163598060608	1.70420658588	-0.00987982749939
-0.0121238231659	1.64889490604	0.234914064407	-0.163348674774	1.70732057095	-0.0137819051743
-0.00892615318298	1.66454160213	0.223830103874	-0.164044857025	1.70965838432	-0.0187729597092
-0.00248289108276	1.67735612392	0.217791795731	-0.164206981659	1.71002423763	-0.0229623317719
-0.00633382797241	1.6754693985	0.229642987251	-0.164009809494	1.70885241032	-0.0241117477417
-0.0240325927734	1.62811803818	0.247994184494	-0.165074825287	1.70678710938	-0.0215262174606
-0.0370855331421	1.57104110718	0.24452996254	-0.166919231415	1.70588815212	-0.0182064771652
-0.042311668396	1.54450774193	0.235302567482	-0.168011188507	1.70511782169	-0.0150678157806
-0.0440857410431	1.54761588573	0.224507927895	-0.168203115463	1.70436441898	-0.013153553009
-0.0466730594635	1.55265104771	0.215787887573	-0.167799472809	1.70388662815	-0.0137259960175
-0.0503568649292	1.5566483736	0.206712961197	-0.167970180511	1.70382511616	-0.0168948173523
-0.0539441108704	1.55768370628	0.198747158051	-0.168165683746	1.70391380787	-0.0217332839966
-0.0561859607697	1.55923116207	0.195227384567	-0.169092416763	1.70464539528	-0.0281324386597
-0.0559668540955	1.55877637863	0.193516731262	-0.169245481491	1.70689070225	-0.034961938858
