0.0	-0.0	146.857574463	-82.7968521118	-60.7749290466	-167.301437378
0.0	-0.0	146.379455566	-81.6862258911	-60.8737182617	-168.508010864
0.0	-0.0	146.049087524	-82.499420166	-60.9850959778	-168.203933716
0.0	-0.0	145.580581665	-81.9290924072	-61.1932792664	-168.966918945
0.0	-0.0	143.62739563	-74.7241592407	-62.0237350464	-175.535705566
0.0	-0.0	139.522842407	8.01122093201	-65.0113067627	104.076652527
0.0	-0.0	132.31312561	65.599319458	-58.0877990723	55.1391868591
0.0	-0.0	123.81035614	85.5300140381	-56.1879005432	45.3284950256
0.0	-0.0	114.509628296	104.657493591	-51.3070716858	35.807346344
0.0	-0.0	106.224899292	113.415847778	-46.3925666809	35.9382705688
0.0	-0.0	100.361450195	126.325531006	-36.0465011597	29.2846813202
0.0	-0.0	95.8171920776	138.480407715	-24.0866374969	25.9565315247
0.0	-0.0	92.2508850098	143.461471558	-18.3320617676	29.4462509155
0.0	-0.0	89.8397598267	144.970809937	-14.506280899	35.0331344604
0.0	-0.0	87.726776123	144.56729126	-6.83882856369	39.1847114563
0.0	-0.0	86.4071502686	138.927215576	2.13427734375	47.8066520691
0.0	-0.0	85.4774856567	136.150115967	10.3250522614	55.3539237976
0.0	-0.0	85.5749206543	137.369125366	20.0149230957	57.818901062
0.0	-0.0	85.1812362671	133.356140137	23.1552524567	65.658241272
0.0	-0.0	84.6105804443	141.042984009	32.0888023376	64.0818634033
0.0	-0.0	84.1565551758	144.500778198	35.2676124573	66.7265472412
0.0	-0.0	84.1717987061	142.368133545	30.3624782562	68.2558059692
0.0	-0.0	83.9828414917	124.503883362	16.6270999908	74.9079208374
0.0	-0.0	99.1219329834	108.738166809	8.50224590302	78.5960235596
0.0	-0.0	122.357162476	97.344871521	3.42586946487	81.1396636963
0.0	-0.0	138.244537354	85.8847808838	0.446058660746	86.7113037109
0.0	-0.0	151.85319519	72.9653396606	-1.99464154243	95.302406311
0.0	-0.0	158.34979248	60.840423584	-3.32086777687	100.831665039
0.0	-0.0	156.763565063	43.7022781372	-2.01904368401	107.762519836
0.0	-0.0	151.871917725	29.8580951691	-0.833360552788	114.21572113
0.0	-0.0	146.060455322	35.2128753662	-2.32540917397	104.769134521
0.0	-0.0	138.326385498	39.3335380554	-10.6677703857	92.0241546631
0.0	-0.0	134.410766602	24.3656044006	-20.1540298462	100.577728271
0.0	-0.0	135.339889526	6.32960224152	-19.0919494629	115.875923157
0.0	-0.0	136.189971924	0.942226588726	-15.3312368393	123.001091003
0.0	-0.0	136.941818237	1.6570442915	-15.3384618759	122.017204285
0.0	-0.0	134.515228271	9.55504703522	-17.3440628052	114.44683075
0.0	-0.0	128.722640991	12.8249664307	-19.8589115143	113.6798172
0.0	-0.0	121.917526245	-4.86089277267	-14.4086256027	136.074859619
0.0	-0.0	116.611846924	-9.40448856354	-2.35874176025	152.16998291
0.0	-0.0	113.055374146	0.616855561733	0.913238584995	151.528808594
0.0	-0.0	110.466598511	16.991268158	1.61238086224	137.764129639
0.0	-0.0	107.76650238	56.1642303467	-2.18627953529	103.319641113
0.0	-0.0	105.742294312	69.4885406494	-1.15812766552	95.4390029907
0.0	-0.0	104.609283447	49.4639511108	0.260757178068	118.000221252
0.0	-0.0	103.042327881	33.5369567871	2.95126199722	137.055419922
0.0	-0.0	102.364059448	18.5821819305	5.83689880371	154.03894043
0.0	-0.0	102.342971802	18.8903942108	4.90361070633	153.931640625
0.0	-0.0	102.076225281	12.6193780899	1.26128399372	159.458175659
0.0	-0.0	101.520294189	1.49191296101	-1.94278728962	169.604217529
0.0	-0.0	101.345787048	-15.4521865845	-1.65799725056	-173.335494995
0.0	-0.0	99.8058700562	-26.6529350281	0.9849781394	-162.39855957
0.0	-0.0	98.8555145264	-18.2373867035	-5.33724212646	-173.922515869
0.0	-0.0	98.4856567383	9.28308486938	-13.6942157745	151.164932251
0.0	-0.0	98.2743377686	8.59308815002	-11.8101816177	150.564163208
0.0	-0.0	98.2870407104	4.42111253738	-9.92212772369	151.669464111
0.0	-0.0	99.9433898926	9.56075668335	-10.5407104492	148.110855103
0.0	-0.0	99.9163360596	22.6899261475	-14.4070596695	134.449386597
0.0	-0.0	100.099639893	44.3718452454	-19.1098041534	112.959152222
0.0	-0.0	100.451881409	53.4950523376	-21.407037735	106.132118225
0.0	-0.0	99.8841400146	25.8122310638	-15.4418954849	132.14604187
0.0	-0.0	99.2089309692	3.41678595543	-4.78926801682	156.039932251
0.0	-0.0	98.1832580566	-3.93132424355	-1.10108184814	163.43927002
0.0	-0.0	97.0575256348	-2.51177215576	-1.69327557087	162.095672607
0.0	-0.0	95.0859222412	7.46260070801	-7.92524051666	150.200698853
0.0	-0.0	93.2004318237	46.178024292	-17.6770381927	113.121795654
0.0	-0.0	92.1509933472	82.0629196167	-18.2406654358	79.8277664185
0.0	-0.0	91.4033737183	101.706878662	-13.4953250885	58.6422576904
0.0	-0.0	91.4435806274	103.007301331	-10.328962326	57.5602493286
0.0	-0.0	91.7346115112	105.256347656	-5.43698215485	58.8318023682
0.0	-0.0	91.432762146	102.261238098	1.87735235691	67.920173645
0.0	-0.0	91.045463562	86.8132553101	7.20000743866	81.9357910156
0.0	-0.0	90.5985031128	57.4405288696	10.9907140732	101.826057434
0.0	-0.0	89.9958877563	25.1911773682	17.5674171448	123.67540741
0.0	-0.0	89.9980163574	3.06507754326	25.1194934845	140.665390015
0.0	-0.0	89.4481964111	-6.54737949371	30.0466842651	152.245101929
0.0	-0.0	89.5021133423	-4.13373565674	26.1292762756	154.605102539
0.0	-0.0	88.8676223755	-7.03805160522	16.446723938	157.913009644
0.0	-0.0	87.9688415527	-21.7398986816	6.97358751297	172.753311157
0.0	-0.0	86.7596817017	-39.0297393799	0.918953120708	-168.511978149
0.0	-0.0	86.1625823975	-43.0848236084	-1.10784161091	-168.060379028
0.0	-0.0	86.1251449585	-38.4826087952	-2.78578901291	-173.954956055
0.0	-0.0	86.767539978	-36.1108131409	-2.4046022892	-179.823303223
0.0	-0.0	86.7851028442	-31.4636116028	-3.03988695145	169.139846802
0.0	-0.0	86.777633667	-25.5021152496	-3.32857489586	158.125396729
0.0	-0.0	86.5842285156	-21.6376590729	-1.46852099895	154.00819397
0.0	-0.0	87.0018615723	-11.6168136597	-0.0914536342025	154.211044312
0.0	-0.0	87.7801361084	-11.2021074295	0.202476367354	163.528503418
0.0	-0.0	88.0279846191	-17.3769035339	-0.865585386753	176.750091553
0.0	-0.0	88.7742233276	-19.2870960236	-5.07909440994	179.917556763
0.0	-0.0	89.149772644	-19.4317321777	-8.31537723541	174.552963257
0.0	-0.0	89.3004760742	-1.92016243935	-13.2987070084	144.556304932
0.0	-0.0	88.6552200317	13.4495859146	-15.9407196045	129.071563721
0.0	-0.0	88.2096481323	29.5311031342	-16.3457107544	111.971580505
0.0	-0.0	88.9222793579	37.6867408752	-7.87313890457	107.353660583
0.0	-0.0	90.006149292	35.7208824158	1.20097351074	121.11907196
0.0	-0.0	90.4021148682	25.9410514832	13.5381860733	145.490814209
0.0	-0.0	90.2727661133	20.2056903839	18.4349746704	156.028778076
0.0	-0.0	90.5126342773	23.8216571808	14.9673547745	143.763015747
0.0	-0.0	90.2989730835	52.1030693054	1.72936081886	86.0771102905
0.0	-0.0	90.4500732422	91.8982772827	13.0777521133	27.8060493469
0.0	-0.0	90.5237884521	76.4047546387	12.9078426361	46.752696991
0.0	-0.0	90.5904922485	34.9237480164	18.1063842773	96.7218093872
0.0	-0.0	90.0614318848	23.355348587	23.8319702148	121.210281372
0.0	-0.0	89.5588150024	5.22551345825	32.8920326233	145.578170776
0.0	-0.0	89.1104507446	-3.43998408318	37.6526679993	158.446487427
0.0	-0.0	88.71824646	-3.52198410034	30.0493144989	161.487548828
0.0	-0.0	88.3817825317	-12.7007741928	15.3536691666	166.872879028
0.0	-0.0	92.7600021362	-20.5926456451	2.87607550621	168.78503418
0.0	-0.0	107.232505798	-24.2860717773	-5.29298496246	169.145568848
0.0	-0.0	126.210861206	-22.7184238434	-9.75628757477	165.042633057
0.0	-0.0	139.151260376	-20.9562225342	-11.6971282959	159.699447632
0.0	-0.0	133.858154297	-21.294960022	-10.9875717163	156.000640869
0.0	-0.0	113.034217834	-13.1995248795	-13.1002206802	149.038162231
0.0	-0.0	99.1706924438	-11.9762620926	-13.4618997574	149.573135376
0.0	-0.0	95.8799362183	-12.829533577	-12.6666946411	150.320266724
0.0	-0.0	93.0299224854	-12.4056243896	-12.2615213394	150.340103149
0.0	-0.0	84.4376831055	-13.4162836075	-11.9645080566	151.615966797
0.0	-0.0	77.1494979858	-14.0951156616	-12.0480871201	152.6484375
0.0	-0.0	76.5324401855	-15.4478979111	-9.84173679352	157.716445923
0.0	-0.0	81.9936523438	-16.440788269	-5.58740949631	167.189727783
0.0	-0.0	85.8634185791	-14.9187965393	-4.39703369141	170.666870117
0.0	-0.0	87.0824890137	-16.3166904449	-4.82492828369	171.223403931
0.0	-0.0	86.6987838745	-18.1172294617	-9.37919616699	167.324874878
0.0	-0.0	86.048286438	-22.4445648193	-10.3895339966	163.116592407
0.0	-0.0	85.9925994873	-20.2289047241	-8.33522701263	163.164581299
0.0	-0.0	85.8794174194	-15.2855806351	-5.68493652344	164.056396484
0.0	-0.0	85.285446167	-9.82108402252	-6.41611528397	161.346618652
0.0	-0.0	84.6234588623	2.09596276283	-10.8411483765	149.157485962
0.0	-0.0	85.1455841064	15.9435577393	-12.5925912857	123.878860474
0.0	-0.0	86.3765258789	-0.08010853827	-3.16567277908	132.392349243
0.0	-0.0	86.7361907959	-7.06070709229	3.57502746582	142.432327271
0.0	-0.0	87.2232971191	-10.1846055984	8.03797054291	153.362976074
0.0	-0.0	87.4625396729	-21.071023941	14.6564474106	167.173324585
0.0	-0.0	88.1307525635	-24.2441730499	17.9026451111	173.302322388
0.0	-0.0	88.3872299194	-28.7688961029	21.7617778778	177.839431763
0.0	-0.0	88.6316680908	-34.6158866882	24.0937213898	-179.15486145
0.0	-0.0	89.0922698975	-41.2297706604	25.6733760834	-179.787353516
0.0	-0.0	89.0925598145	-46.7405815125	27.9266166687	178.78565979
0.0	-0.0	89.2525177002	-46.3715744019	26.038225174	172.461364746
0.0	-0.0	88.7885818481	-46.8271560669	23.9740467072	161.860961914
0.0	-0.0	88.9608306885	-49.5355567932	24.5513095856	155.801925659
0.0	-0.0	89.4381942749	-43.0053749084	19.5335693359	154.157608032
0.0	-0.0	89.1326370239	-23.8982543945	8.59332084656	143.820709229
0.0	-0.0	89.1076583862	-5.14656114578	3.59532117844	128.534439087
0.0	-0.0	88.9650039673	6.2079706192	4.17029666901	115.812614441
0.0	-0.0	88.9404678345	22.0173931122	9.1743555069	102.200752258
0.0	-0.0	87.6741104126	33.7050895691	8.47151851654	92.0795669556
0.0	-0.0	86.0134506226	46.763217926	12.6444015503	79.0167236328
0.0	-0.0	84.7891082764	45.3433227539	10.0071725845	79.2386932373
0.0	-0.0	83.9203948975	31.3169746399	2.4684586525	86.6368408203
0.0	-0.0	83.6785583496	9.49286270142	-0.795525193214	102.320381165
0.0	-0.0	83.697052002	-5.17423295975	-9.79519748688	115.140235901
0.0	-0.0	83.7528839111	-17.0347995758	-17.3446502686	125.33706665
0.0	-0.0	84.3251266479	-33.9823226929	-24.5585784912	142.044021606
0.0	-0.0	84.1965408325	-55.6858253479	-26.2367973328	163.580505371
0.0	-0.0	84.3908309937	-76.9599609375	-19.4772262573	-175.833969116
0.0	-0.0	84.0795288086	-81.9179153442	-5.22515058517	-163.575805664
0.0	-0.0	83.6168212891	-71.8056869507	4.29421186447	-156.00189209
0.0	-0.0	83.6944122314	-59.8426780701	4.24555969238	-155.650650024
0.0	-0.0	84.3993682861	-52.2599487305	-1.1081302166	-161.565246582
0.0	-0.0	85.0121231079	-38.1075973511	-11.4152002335	-177.483535767
0.0	-0.0	85.5006256104	-34.5526199341	-10.202630043	177.403991699
0.0	-0.0	85.4218215942	-34.5108757019	-8.5546579361	176.581115723
0.0	-0.0	84.4519882202	-31.4476699829	-9.15208435059	174.074005127
0.0	-0.0	84.5592880249	-25.6261539459	-9.83332824707	170.355438232
0.0	-0.0	84.2615661621	-24.7795658112	-8.33205413818	168.767333984
0.0	-0.0	83.9563903809	-19.1059207916	-9.24900817871	162.469360352
0.0	-0.0	84.2498779297	-20.3220844269	-8.69570922852	167.932449341
0.0	-0.0	84.786239624	-42.289024353	3.00280761719	-174.507049561
0.0	-0.0	85.5452957153	-49.9846382141	6.70771026611	-169.586502075
0.0	-0.0	85.8032073975	-40.0775337219	-1.11344909668	-177.820678711
0.0	-0.0	86.0884094238	-18.2715091705	-7.73350572586	161.577194214
0.0	-0.0	85.7373886108	-6.53186798096	-10.1656045914	149.00743103
0.0	-0.0	85.049407959	-13.8952169418	-5.97956132889	154.505096436
0.0	-0.0	85.1475067139	-23.7423801422	-1.92064714432	164.51713562
0.0	-0.0	83.8979415894	-37.1798286438	-0.362655520439	176.074783325
0.0	-0.0	83.583404541	-47.9859924316	1.72339594364	-175.212387085
0.0	-0.0	84.0326843262	-53.2914428711	0.650672614574	-171.143295288
0.0	-0.0	83.708984375	-51.1794662476	-2.50413513184	-175.263275146
0.0	-0.0	83.1019134521	-30.2721481323	-11.5897464752	166.515319824
0.0	-0.0	79.700881958	-13.8969392776	-12.0055465698	154.925552368
0.0	-0.0	72.5608215332	-14.729590416	-11.3820505142	155.602279663
0.0	-0.0	63.9722251892	-16.8212223053	-10.5983362198	158.842041016
0.0	-0.0	56.2569465637	-27.931810379	-7.63066864014	165.913803101
0.0	-0.0	51.1441802979	-35.4239883423	-4.66739654541	170.505630493
0.0	-0.0	56.6766700745	-44.7637176514	-1.43885815144	176.755340576
0.0	-0.0	71.2710571289	-51.9746055603	-0.147484108806	-175.454269409
0.0	-0.0	85.2297668457	-56.7036361694	-0.87155932188	-166.273925781
0.0	-0.0	95.1631622314	-60.3997535706	0.226844772696	-160.85055542
0.0	-0.0	96.8465805054	-55.1701126099	-4.31752729416	-166.324829102
0.0	-0.0	85.4237060547	-51.1152839661	-4.53515672684	-169.48677063
0.0	-0.0	69.4532318115	-51.2609481812	-3.92981719971	-170.214355469
0.0	-0.0	61.4974365234	-49.704536438	-4.15380811691	-171.370864868
0.0	-0.0	59.5728569031	-50.5361976624	-2.88861107826	-171.196121216
0.0	-0.0	59.5567512512	-51.0152435303	-2.14166331291	-170.616699219
0.0	-0.0	54.4339637756	-52.6726722717	-1.71381366253	-168.793670654
0.0	-0.0	48.091884613	-53.6297264099	-2.23376441002	-167.144805908
0.0	-0.0	47.1019477844	-55.1854515076	-3.21791911125	-165.487243652
0.0	-0.0	59.4237289429	-56.3922348022	-2.7000887394	-166.316574097
0.0	-0.0	75.5849838257	-44.1293029785	-1.14379143715	-167.45753479
0.0	-0.0	86.6456298828	-31.866853714	-1.22834742069	-167.045318604
0.0	-0.0	92.018196106	-23.1522216797	-3.22758483887	-172.410079956
0.0	-0.0	86.873008728	-26.2514801025	-4.53590393066	-174.956604004
