-17.18542099	-52.6055450439	137.128433228	2.67653608322	0.216981500387	-2.21897816658
-17.1798686981	-52.7255897522	136.906066895	2.7322769165	0.180013537407	-2.27432441711
-17.3964099884	-53.1080551147	136.935256958	2.68276882172	0.132159143686	-2.20142388344
-19.7046966553	-53.6486549377	137.502532959	1.9120953083	0.295552402735	-2.07758140564
-25.8823394775	-51.6913871765	138.938323975	-0.676331400871	1.20862293243	-1.9148362875
-31.6243896484	-49.9221038818	135.621459961	-4.92837142944	4.03319978714	-2.28561115265
-37.1419754028	-45.9640464783	129.798873901	-9.87579917908	7.23279476166	-2.86889743805
-41.2474975586	-41.9305076599	124.003982544	-14.6578941345	8.96112823486	-3.28707098961
-42.5673828125	-38.4974136353	117.454948425	-18.5966510773	10.028553009	-3.40961742401
-42.75730896	-35.6053009033	110.333221436	-21.7809238434	11.2254343033	-3.5937333107
-38.9638442993	-30.5674610138	103.265029907	-24.0544319153	12.618885994	-3.62577652931
-33.9926338196	-28.0100212097	98.2180252075	-24.7614364624	13.5429420471	-3.13902807236
-25.8077049255	-28.8021259308	96.4491119385	-24.2285041809	13.8551549911	-2.79234290123
-17.8701496124	-30.3518180847	94.1249313354	-23.0604438782	13.6946992874	-2.53417992592
