0.0	-0.0	130.923095703	-107.724571228	71.9469451904	-177.491882324
0.0	-0.0	130.81918335	-108.512260437	73.1887741089	-177.259506226
0.0	-0.0	130.068405151	-108.754386902	73.8590774536	-177.19178772
0.0	-0.0	124.335067749	-107.591972351	69.2245330811	-177.381332397
0.0	-0.0	112.415565491	-103.986244202	55.5697517395	-177.534088135
0.0	-0.0	96.1701812744	-97.8885421753	42.2424736023	-176.62677002
0.0	-0.0	83.2098083496	-91.8253326416	32.2458152771	-174.803726196
0.0	-0.0	76.9919586182	-87.625869751	24.6236877441	-173.535949707
0.0	-0.0	73.3467178345	-85.1403579712	20.550491333	-172.653762817
0.0	-0.0	70.9989089966	-83.5333099365	18.8124523163	-172.69883728
0.0	-0.0	68.5388031006	-79.1224899292	15.7505064011	-172.957427979
0.0	-0.0	65.7223358154	-69.0152664185	13.7645483017	-169.712921143
0.0	-0.0	62.7123565674	-53.9107437134	14.8093881607	-165.036819458
0.0	-0.0	58.0267753601	-44.7593269348	12.3411083221	-164.273620605
