0.0	-0.0	141.228485107	-105.809753418	87.4972686768	-173.161361694
0.0	-0.0	141.163421631	-106.103843689	86.7113571167	-172.832458496
0.0	-0.0	141.053634644	-106.232711792	86.4669723511	-172.693099976
0.0	-0.0	140.956741333	-106.476280212	86.5685195923	-172.56918335
0.0	-0.0	140.300842285	-106.355667114	86.2604675293	-172.980911255
0.0	-0.0	133.217987061	-104.411354065	82.5603103638	-173.87449646
0.0	-0.0	108.803184509	-100.793960571	70.7632980347	-174.422515869
0.0	-0.0	83.6766433716	-94.5769271851	54.945766449	-174.469528198
0.0	-0.0	63.2354278564	-86.3320846558	37.9601898193	-172.995513916
0.0	-0.0	52.8170509338	-77.8520812988	25.4180641174	-170.591323853
0.0	-0.0	48.6376228333	-74.2149124146	20.6970939636	-169.808029175
0.0	-0.0	46.1110610962	-74.4503326416	18.5211582184	-170.607421875
0.0	-0.0	53.7059020996	-73.7585067749	17.8998317719	-171.063781738
0.0	-0.0	63.999961853	-72.5442504883	19.191652298	-171.39692688
0.0	-0.0	68.3527755737	-71.2460632324	24.1800384521	-171.790283203
0.0	-0.0	67.0616455078	-73.0363235474	30.20819664	-173.062301636
0.0	-0.0	61.4452133179	-86.6296615601	30.3926963806	-177.352539062
0.0	-0.0	52.3735618591	-103.118888855	24.1555747986	177.831481934
0.0	-0.0	51.4440155029	-105.69178772	16.8951511383	176.720306396
0.0	-0.0	55.0841293335	-89.1349334717	13.3216085434	-178.632797241
0.0	-0.0	56.5825843811	-63.2139511108	10.1268157959	-171.899719238
