-0.0289711952209	1.20887386799	0.169200539589	-0.209649801254	1.64188444614	-0.0222156047821
-0.028712272644	1.20922017097	0.169174671173	-0.209376811981	1.64197981358	-0.0222256183624
-0.0286893844604	1.20935356617	0.169582009315	-0.208821296692	1.64213359356	-0.0220923423767
-0.029844045639	1.20986866951	0.169309616089	-0.20950627327	1.6419223547	-0.021561384201
-0.0365900993347	1.21085524559	0.165550708771	-0.213194131851	1.64142668247	-0.0211234092712
-0.0444312095642	1.2132319212	0.160104870796	-0.218113183975	1.64088833332	-0.0217502117157
-0.0526068210602	1.21447002888	0.157795786858	-0.221575021744	1.64149141312	-0.022869348526
-0.0619745254517	1.21422493458	0.156039714813	-0.223545074463	1.64311313629	-0.0245666503906
-0.0723035335541	1.21723496914	0.153231143951	-0.224589824677	1.64543187618	-0.0264675617218
-0.083966255188	1.22209334373	0.149702072144	-0.224941492081	1.64851939678	-0.0284056663513
-0.0950858592987	1.22602951527	0.145688891411	-0.224525213242	1.65169036388	-0.030054807663
