-60.8765144348	-65.0515441895	98.9493637085	5.56964874268	8.42265701294	36.0352020264
-60.5665969849	-65.0943984985	98.8975982666	5.61678361893	8.31160068512	35.8979644775
-60.7780265808	-65.0756378174	99.1366119385	5.64430713654	8.10174560547	35.5903930664
-60.4169845581	-65.0704269409	98.3205718994	5.21304273605	7.23751878738	34.5069618225
-61.6975860596	-65.0352020264	97.1260604858	4.00329446793	6.36534500122	32.8723564148
-66.8910064697	-64.2449951172	102.169395447	2.13168787956	5.47449111938	29.9297790527
-69.6826095581	-63.8169593811	105.00868988	1.08245456219	4.48181390762	27.0300674438
-67.1427154541	-64.1403808594	103.09274292	1.40623748302	3.87148571014	25.0287685394
-65.8362960815	-63.7805709839	104.408401489	2.28504610062	3.28888678551	23.607509613
-66.3745346069	-63.4612770081	107.511001587	3.02860307693	2.35632872581	22.5265769958
-66.1116485596	-64.4623718262	109.543487549	3.26059222221	1.68541920185	21.7337398529
-68.8572387695	-64.7696762085	113.959915161	3.26139187813	1.24520003796	21.3530902863
-70.9354553223	-64.2727432251	116.800758362	3.1802175045	1.12353718281	21.2773075104
-70.8105697632	-64.5734558105	117.07975769	3.07254910469	1.35715806484	21.366109848
-66.4359817505	-64.6268157959	112.533447266	3.03029417992	1.57784628868	21.4827823639
-58.9248580933	-64.4685821533	104.383789062	2.97579669952	1.72481751442	21.4992141724
-58.0205841064	-64.1009368896	103.732498169	2.67495584488	1.75078868866	21.471124649
-60.0808753967	-62.915977478	105.13621521	2.42180848122	1.91979432106	21.4124584198
-62.223323822	-62.6151199341	107.605239868	2.26317572594	2.04394507408	21.3693828583
-64.3855667114	-62.5091438293	110.177841187	1.90838670731	1.94273114204	21.4490146637
-65.7284317017	-62.6131019592	111.622024536	1.33141922951	1.73281335831	21.6530227661
-65.9224624634	-62.7684707642	111.848144531	0.675486028194	1.67894077301	21.9116897583
-64.8628768921	-63.410610199	110.346672058	0.227574139833	1.7205067873	22.1655197144
-58.2846107483	-66.2508468628	103.063034058	-0.0852610841393	1.7775952816	22.4664077759
-46.0373687744	-68.9773712158	87.71459198	0.398793935776	1.72540235519	23.5224075317
-47.4300956726	-68.4224777222	89.2064590454	2.57551145554	1.60800898075	25.910987854
-59.5415039062	-64.8409194946	103.365852356	5.0172252655	1.12284660339	28.1502876282
-68.0180053711	-60.8706512451	112.996559143	3.56770396233	1.80399358273	27.0676136017
-69.9569473267	-60.5310058594	115.428863525	-1.77391040325	4.3372168541	22.9336128235
