0.0	-0.0	136.96786499	73.7668380737	68.5008926392	1.99274528027
0.0	-0.0	137.034912109	74.1148071289	68.511100769	1.87335956097
0.0	-0.0	137.275604248	73.8598098755	68.2488555908	1.88901805878
0.0	-0.0	136.305786133	73.3385620117	68.3742294312	1.76113677025
0.0	-0.0	132.700668335	72.5747146606	68.7622909546	0.981218934059
0.0	-0.0	125.966842651	69.9512786865	70.555480957	-0.662070035934
0.0	-0.0	117.155761719	66.9843215942	76.0159759521	-5.12991094589
0.0	-0.0	110.637306213	58.932674408	85.3283081055	-6.70216655731
0.0	-0.0	108.465820312	46.1165542603	88.1389694214	-2.89023208618
0.0	-0.0	107.142181396	39.6535110474	86.8344345093	-1.09654784203
0.0	-0.0	104.133384705	41.3766441345	81.29296875	2.98474955559
0.0	-0.0	103.211326599	43.9093093872	81.9531555176	6.46161079407
0.0	-0.0	101.332832336	47.339263916	84.3584442139	9.37944507599
0.0	-0.0	98.7213668823	51.1266899109	84.7431030273	10.8848352432
0.0	-0.0	98.247253418	53.2568817139	84.0380249023	12.1109695435
0.0	-0.0	98.5341262817	53.2257919312	85.3168716431	12.7017030716
0.0	-0.0	99.3378372192	55.0238990784	86.7423706055	13.3201036453
0.0	-0.0	99.5672988892	59.622631073	87.2069168091	14.6622009277
0.0	-0.0	98.6776809692	69.8750076294	87.6249237061	11.8836727142
0.0	-0.0	97.8715515137	77.9608078003	88.3416519165	7.25698375702
0.0	-0.0	97.0372161865	75.4893112183	86.7997131348	7.95524787903
0.0	-0.0	96.7521743774	72.0444717407	85.3191223145	7.49484968185
0.0	-0.0	96.2087936401	69.1455001831	83.2912597656	6.52948141098
0.0	-0.0	98.4858016968	66.7287597656	82.1900558472	6.00927639008
0.0	-0.0	108.350204468	65.981048584	82.5046157837	5.37390470505
0.0	-0.0	115.121429443	65.9836730957	83.114074707	5.72823524475
0.0	-0.0	116.917022705	65.8944091797	83.6789703369	6.5313615799
0.0	-0.0	111.148132324	66.0764465332	83.5940246582	7.10702180862
0.0	-0.0	101.51638031	65.9236602783	83.5679931641	7.14230203629
0.0	-0.0	92.98072052	66.1330490112	83.448890686	6.93734645844
0.0	-0.0	85.9972457886	66.3297653198	83.1247711182	6.61036491394
0.0	-0.0	80.5276412964	66.1839523315	83.2623825073	6.53201293945
0.0	-0.0	77.5210876465	64.8801803589	83.5266113281	6.43509197235
0.0	-0.0	75.8352890015	63.3006362915	83.5496444702	6.38110923767
0.0	-0.0	73.9253158569	62.1541671753	83.6596679688	6.55247497559
0.0	-0.0	71.2858428955	60.9670143127	84.1217803955	6.45793676376
0.0	-0.0	68.3749542236	58.9484825134	84.4862747192	5.82557058334
0.0	-0.0	68.627532959	52.8848495483	84.9284896851	3.63301110268
0.0	-0.0	70.7039108276	46.7534294128	85.150428772	2.35965228081
