0.267748594284	1.4770963192	-0.0551035404205	-0.0268766880035	1.67258918285	-0.0744153261185
0.268077373505	1.47713685036	-0.0546673536301	-0.026522397995	1.67259764671	-0.0739710330963
0.268552064896	1.47681736946	-0.0547475814819	-0.0265254974365	1.67216312885	-0.0729849338531
0.267966985703	1.47613716125	-0.0525246858597	-0.027250289917	1.6742875576	-0.0728144645691
0.265671730042	1.47263967991	-0.0436149835587	-0.0277442932129	1.6820088625	-0.0762321949005
0.26226568222	1.46811485291	-0.0334824323654	-0.0252802371979	1.68850660324	-0.0802179574966
0.260601997375	1.46582388878	-0.0288490056992	-0.0210845470428	1.69385743141	-0.084020614624
0.260592460632	1.46585285664	-0.0270892381668	-0.0153930187225	1.699229002	-0.0879566669464
0.260408163071	1.46578514576	-0.0261974334717	-0.00952291488647	1.70339012146	-0.0919997692108
0.258953094482	1.46440815926	-0.0236475467682	-0.00440645217896	1.70538413525	-0.0952422618866
0.25844502449	1.46260619164	-0.0217126607895	-0.00160956382751	1.70660483837	-0.0970394611359
0.261069059372	1.4610645771	-0.0203386545181	-0.00372314453125	1.70760333538	-0.0968987941742
0.265813589096	1.45982551575	-0.0176842212677	-0.00843930244446	1.70936083794	-0.0964787006378
0.267620563507	1.45882582664	-0.011962890625	-0.0105087757111	1.70996177197	-0.0959213972092
0.266390323639	1.45983111858	-0.00573313236237	-0.00883746147156	1.70876157284	-0.094153881073
