-0.104848384857	1.22181367874	0.125931978226	-0.19884967804	1.6377850771	-0.0131952762604
-0.103965520859	1.22214317322	0.126497983932	-0.198410511017	1.63802528381	-0.0129120349884
-0.103058815002	1.22234690189	0.127481937408	-0.198089599609	1.63810563087	-0.0122435092926
-0.103224515915	1.22183179855	0.127718687057	-0.197902202606	1.63856375217	-0.0117909908295
-0.104860305786	1.22131597996	0.126905918121	-0.198017835617	1.6411935091	-0.011930346489
-0.103528261185	1.2220416069	0.1286444664	-0.198191404343	1.64657914639	-0.0131804943085
-0.100591421127	1.22438871861	0.13140296936	-0.197906732559	1.65361535549	-0.0158641338348
-0.0957989692688	1.22815108299	0.13375043869	-0.196394681931	1.6617193222	-0.0199241638184
-0.0919075012207	1.23264634609	0.134246230125	-0.194491386414	1.66960692406	-0.0252816677094
-0.0898830890656	1.23764240742	0.133524775505	-0.192546367645	1.67529654503	-0.0306932926178
-0.0904064178467	1.24161779881	0.132148504257	-0.192067146301	1.67948389053	-0.0352804660797
-0.0926880836487	1.24431550503	0.130513906479	-0.192974090576	1.68304872513	-0.0398361682892
-0.0965490341187	1.24555945396	0.127486467361	-0.194267034531	1.68611454964	-0.0448398590088
-0.10137295723	1.24559652805	0.123563051224	-0.195506334305	1.68928790092	-0.050327539444
-0.104605197906	1.24576663971	0.119180440903	-0.19687795639	1.69241607189	-0.056006193161
-0.103447675705	1.24655270576	0.117590308189	-0.19760632515	1.6941498518	-0.0603957176208
-0.104465484619	1.24588978291	0.114789485931	-0.197737932205	1.69484615326	-0.0634437799454
-0.10874247551	1.24563932419	0.109186410904	-0.198174953461	1.69508254528	-0.0657196044922
-0.112655639648	1.24575579166	0.104470014572	-0.199083805084	1.69536817074	-0.0683255195618
-0.118610858917	1.24523150921	0.0988211631775	-0.201141834259	1.69524538517	-0.0703258514404
-0.122126579285	1.24513852596	0.0961694717407	-0.203737258911	1.69472944736	-0.0717315673828
