-92.7719268799	-15.3934192657	139.000259399	7.25933933258	2.20832586288	-0.0341419428587
-92.7379760742	-15.6131906509	138.808197021	7.37544536591	2.09686923027	-0.0476790070534
-93.0059204102	-15.819685936	138.555847168	7.1884636879	2.25833082199	0.0353252738714
-93.3853912354	-16.6531639099	136.121765137	6.6169295311	2.94094586372	0.246967673302
-92.2957763672	-17.0425338745	123.445671082	5.82372713089	4.31745386124	0.760186314583
-91.6408309937	-16.4048614502	110.690605164	4.54184055328	6.24016952515	1.26945602894
-89.5062332153	-18.9379348755	97.4762115479	2.43961024284	9.87110805511	1.96513807774
-88.034286499	-20.9742393494	91.9554901123	0.325940966606	13.2124929428	2.30138492584
-88.8400115967	-21.447095871	91.740020752	-1.61318254471	15.816868782	2.54700016975
-88.6847915649	-22.8153877258	85.3850708008	-3.63256597519	19.007270813	3.02306270599
-86.5372924805	-20.8003635406	79.2351455688	-4.9508600235	22.1677970886	3.39883041382
-85.4865493774	-18.4958457947	78.8849105835	-4.99789905548	24.1993141174	3.66813087463
-85.1100769043	-16.952665329	79.0968856812	-4.5452747345	25.3420085907	3.84775543213
-83.7093505859	-14.8878860474	76.8629837036	-3.7551753521	27.4231834412	3.98215293884
-82.1215515137	-11.7293596268	71.3034057617	-2.79558634758	29.052236557	4.02450895309
-80.0000915527	-8.13973617554	65.4788208008	-1.83495473862	29.8169002533	4.13944530487
