-95.2997970581	-47.0322952271	133.772918701	6.62559843063	-0.674097299576	-0.804631590843
-95.1245117188	-47.1895446777	133.73928833	6.93318796158	-0.595728397369	-0.885442912579
-94.6616592407	-47.1669540405	133.292114258	7.06468820572	-0.246893286705	-0.761517763138
-92.364944458	-48.3411865234	125.208137512	6.50673818588	1.62610936165	-0.0658061876893
-84.3410797119	-42.5532531738	99.0752868652	5.1888217926	5.03300952911	0.821838915348
-84.37109375	-38.5998573303	84.8918609619	3.70149302483	9.04522228241	1.79195404053
-86.2760391235	-41.2535667419	72.746925354	2.40572881699	13.0251293182	2.67234802246
-89.7702789307	-44.3659324646	63.5940208435	1.22656404972	16.8387260437	3.28457975388
-95.0015182495	-47.867931366	59.1362609863	0.313870370388	19.7486305237	4.12329769135
-100.952384949	-52.5048446655	55.7686386108	-0.785338044167	20.911775589	4.51873493195
-105.330924988	-56.2132110596	53.2431221008	-1.65621209145	21.6549797058	4.62856912613
-111.07409668	-59.458946228	51.3601913452	-1.74509859085	22.2193183899	4.95107984543
-115.997184753	-63.7552909851	48.615070343	-1.75646436214	22.6641254425	5.08902740479
-98.9265136719	-66.4243392944	23.5832328796	-1.83473074436	22.6778926849	4.99288892746
-83.8833694458	-51.7291374207	12.0572166443	-1.88229191303	22.9125709534	5.12761211395
-77.3936157227	-38.7224655151	11.9426136017	-2.13696670532	23.5479564667	5.15593194962
-78.4749145508	-37.6089935303	12.4788942337	-3.15371894836	23.7487697601	4.88542413712
-79.2335586548	-40.0614128113	12.9569339752	-10.9321565628	23.3327865601	2.12874937057
-78.8221969604	-40.7249031067	14.3821744919	-20.4562110901	23.3113231659	-0.56741309166
-77.4802246094	-41.398891449	16.7383728027	-22.3541278839	21.2572536469	-0.110806018114
-74.6906433105	-44.8950386047	21.1467094421	-20.2057170868	17.8778018951	1.28294217587
-74.4426498413	-44.87134552	25.4078636169	-18.6506690979	16.685874939	2.12913894653
-76.1537628174	-45.6686973572	26.5041885376	-18.8355998993	16.0448284149	2.52684903145
-79.5000610352	-44.9630279541	24.4114303589	-19.6673622131	16.6230220795	2.81942820549
-80.8275222778	-43.0966453552	24.3509712219	-19.3808116913	17.99659729	2.6416258812
-80.313331604	-43.5104904175	26.466047287	-17.9053382874	18.4447803497	2.46696519852
-79.3487625122	-46.7968711853	29.0099620819	-16.3332118988	17.7045536041	2.43906950951
-83.9651260376	-43.8616371155	43.5841293335	-15.0591115952	16.9418926239	2.34143972397
-89.6475601196	-36.5350112915	57.0833511353	-14.5749473572	16.5322570801	2.08346748352
-96.1943893433	-33.0493927002	65.684715271	-14.5819034576	16.6687717438	2.03374528885
-97.7958450317	-29.0307979584	73.6139144897	-14.5896158218	17.1859283447	1.86124300957
-95.6689910889	-22.8186454773	78.0054397583	-14.0098600388	17.6942462921	1.56020951271
-93.6120605469	-18.4565010071	78.9356536865	-12.8903884888	18.4867038727	1.43576645851
-92.1729202271	-16.3453426361	75.2847976685	-11.9962501526	19.2354030609	1.42419838905
-90.4003067017	-15.6146392822	71.4214172363	-10.8828077316	19.9617233276	1.45118904114
-89.1282119751	-16.0886535645	69.5604629517	-9.60150527954	21.053943634	1.62829530239
