-44.7039299011	-80.8928451538	128.029586792	10.1174573898	0.545583367348	2.16963028908
-44.0524291992	-80.532623291	127.18006897	10.0672512054	0.789640545845	2.2611553669
-44.0350875854	-80.5761566162	126.992034912	10.0358028412	0.968001902103	2.37398743629
-42.9640655518	-80.2116394043	125.614768982	10.0190296173	-0.336747318506	2.58286595345
-42.4446792603	-79.8908309937	124.780380249	10.0255765915	-2.97782421112	2.68810939789
-45.145160675	-78.830291748	126.629074097	10.5761814117	-6.53349304199	2.85832238197
-29.8611354828	-75.0115280151	109.754463196	12.3216667175	-11.0265197754	2.66823601723
-22.8955574036	-77.6794509888	109.041069031	14.5374221802	-15.9262237549	1.94371283054
-31.0675430298	-84.653678894	120.157249451	16.1701946259	-20.622833252	1.4260417223
-19.6068439484	-87.124961853	111.495162964	17.0898609161	-24.5045795441	1.24815547466
50.975692749	-83.9720230103	39.8839836121	17.6060276031	-26.8722229004	0.786477088928
71.8207550049	-77.5202941895	17.3965854645	18.2005786896	-27.3535118103	0.472549170256
62.6046218872	-78.088470459	25.2714195251	18.132478714	-26.4603118896	0.365893810987
44.9341239929	-76.2441329956	39.462638855	17.6614627838	-25.0382442474	0.49920335412
43.2380981445	-73.8187026978	39.8042144775	17.4046897888	-23.6352519989	0.616363942623
39.3846626282	-73.2974472046	43.2896766663	17.6435928345	-22.3788356781	0.637077927589
37.6216697693	-71.7330551147	42.8489570618	18.1760749817	-21.6531715393	0.494588255882
34.1030960083	-68.9370880127	42.4849700928	18.2360229492	-20.5746574402	0.627169072628
24.9407844543	-65.4925537109	45.1515159607	17.3210010529	-19.0263137817	1.33686125278
12.188832283	-66.0903167725	57.038028717	15.0958051682	-17.8203201294	2.34634184837
6.17069911957	-71.074180603	67.4925994873	13.7693834305	-18.8005924225	2.72480916977
7.48171615601	-75.3620300293	70.682800293	14.5753221512	-20.1351261139	2.35964369774
15.3763570786	-76.5762939453	66.9132080078	15.8558712006	-21.0815544128	1.80467641354
26.058921814	-79.0789794922	58.9557762146	16.9489002228	-21.9949417114	1.32964992523
