0.0	-0.0	133.571182251	-92.3879089355	-33.098400116	-156.570022583
0.0	-0.0	133.48046875	-92.5138702393	-33.5621757507	-155.754684448
0.0	-0.0	133.091720581	-92.3631286621	-33.6221351624	-155.756607056
0.0	-0.0	132.095581055	-92.1330337524	-33.8360900879	-155.825302124
0.0	-0.0	128.265411377	-85.3324356079	-36.7934074402	-158.038330078
0.0	-0.0	122.001808167	-76.0909957886	-39.7277984619	-156.455307007
0.0	-0.0	115.827316284	-65.9336624146	-43.0427284241	-153.498748779
0.0	-0.0	108.309898376	-56.9676208496	-47.4190254211	-146.21635437
0.0	-0.0	99.1877059937	-51.5183906555	-49.6547889709	-138.848602295
0.0	-0.0	89.8128051758	-41.384475708	-54.5310821533	-138.488174438
0.0	-0.0	80.8001022339	-35.7787094116	-58.9376869202	-134.503692627
0.0	-0.0	74.0001678467	-38.469909668	-60.0231132507	-126.672073364
0.0	-0.0	68.3409957886	-39.4680366516	-62.297870636	-120.077766418
0.0	-0.0	63.8418312073	-32.4113731384	-64.4020462036	-120.478294373
