0.325262784958	1.41850781441	-0.0436918735504	-0.0175070762634	1.671200037	-0.0531651973724
0.325261592865	1.41914749146	-0.0434648990631	-0.0176999568939	1.67128407955	-0.052326798439
0.32465338707	1.41996443272	-0.0425653457642	-0.0181515216827	1.6709856987	-0.0511310100555
0.323776721954	1.4190684557	-0.0399279594421	-0.0196146965027	1.66924285889	-0.0485874414444
0.325364589691	1.40802645683	-0.0268493890762	-0.0219550132751	1.6618231535	-0.043999671936
0.3251516819	1.39405071735	-0.0192446708679	-0.0242013931274	1.65098536015	-0.0373213291168
0.318007707596	1.37952148914	-0.0155655145645	-0.0256385803223	1.64150154591	-0.03125
0.311223745346	1.36767327785	-0.0143676996231	-0.0267326831818	1.63550162315	-0.0262889862061
0.308456659317	1.36102879047	-0.0164190530777	-0.0279364585876	1.63099336624	-0.0225641727448
0.311086893082	1.36608576775	-0.0244469642639	-0.0284729003906	1.62815463543	-0.0205636024475
0.316076040268	1.37140488625	-0.0340631008148	-0.0279855728149	1.62637913227	-0.0201845169067
0.321116924286	1.37262165546	-0.0431034564972	-0.0272307395935	1.62545681	-0.0206409692764
0.320481777191	1.35113358498	-0.0428102016449	-0.0272898674011	1.62524330616	-0.0209813117981
0.316371202469	1.32029676437	-0.0373605489731	-0.0281476974487	1.62513005733	-0.0208593606949
0.314240932465	1.29767620564	-0.0331249237061	-0.0292489528656	1.62441921234	-0.0200080871582
0.306245088577	1.28526651859	-0.031370639801	-0.0298388004303	1.62370085716	-0.0186512470245
0.300897121429	1.27604115009	-0.0323824882507	-0.0302646160126	1.62290751934	-0.0177202224731
0.296922206879	1.26904559135	-0.0341572761536	-0.0326750278473	1.62245512009	-0.0168035030365
0.293674230576	1.26848781109	-0.035712480545	-0.0380389690399	1.62212848663	-0.0163681507111
0.290705680847	1.27639710903	-0.0363999605179	-0.043919801712	1.62286031246	-0.0170273780823
0.291580200195	1.28948223591	-0.0320680141449	-0.0476050376892	1.62489426136	-0.0180574655533
0.291911125183	1.29920363426	-0.0285723209381	-0.0486834049225	1.62644386292	-0.0190221071243
0.286641597748	1.30791151524	-0.0265552997589	-0.0494494438171	1.62784731388	-0.0198934078217
0.278763771057	1.31742072105	-0.0269157886505	-0.050910949707	1.62923812866	-0.0211679935455
0.271862268448	1.32539272308	-0.0274457931519	-0.0515518188477	1.62994432449	-0.0221571922302
0.265924692154	1.33077096939	-0.0283985137939	-0.0495059490204	1.62762510777	-0.0230675935745
0.260071754456	1.33491253853	-0.0288002490997	-0.046281337738	1.62262809277	-0.0230708122253
0.254472494125	1.33980679512	-0.0295703411102	-0.0457193851471	1.62004089355	-0.0218462944031
0.250213623047	1.34195435047	-0.0299785137177	-0.0504035949707	1.62083625793	-0.0207461118698
0.24905538559	1.34232914448	-0.0290784835815	-0.0580332279205	1.62098026276	-0.0204744338989
0.247529029846	1.34378480911	-0.0288817882538	-0.0618877410889	1.61933767796	-0.0203030109406
0.244379758835	1.3509670496	-0.0299453735352	-0.0610196590424	1.61731934547	-0.020316362381
0.240551233292	1.36008143425	-0.0321867465973	-0.0589017868042	1.61683404446	-0.0207962989807
0.238629102707	1.36583399773	-0.0329592227936	-0.0569889545441	1.61786627769	-0.0214142799377
0.241381883621	1.3697373867	-0.0328298807144	-0.0554654598236	1.61867511272	-0.0214867591858
0.247092485428	1.37450635433	-0.0342962741852	-0.054957151413	1.61958539486	-0.0212817192078
0.253986120224	1.38272345066	-0.0377321243286	-0.0547680854797	1.62056159973	-0.0209815502167
0.258395195007	1.3900321722	-0.041835308075	-0.0546319484711	1.62128806114	-0.0209580659866
0.258912324905	1.39441311359	-0.0435218811035	-0.0541369915009	1.62179994583	-0.0210568904877
0.257997512817	1.390873909	-0.0358995199203	-0.0532610416412	1.62205135822	-0.0212446451187
