0.0	-0.0	134.593460083	-103.281654358	85.0333023071	-172.141571045
0.0	-0.0	134.6640625	-103.405387878	84.9542999268	-172.100067139
0.0	-0.0	134.574264526	-103.35723877	84.8503112793	-171.973709106
0.0	-0.0	134.593292236	-104.288162231	86.0235671997	-171.803497314
0.0	-0.0	131.58656311	68.8225097656	88.4334945679	8.36840724945
0.0	-0.0	125.778427124	58.1536216736	80.6756668091	8.91955280304
0.0	-0.0	117.724700928	48.1937522888	72.3429718018	9.74788379669
0.0	-0.0	100.757507324	39.4308319092	63.2711486816	11.4371643066
0.0	-0.0	78.6384277344	31.6041316986	53.7643165588	13.6136837006
0.0	-0.0	62.0597877502	25.6811294556	43.4952812195	15.9608449936
0.0	-0.0	56.8384017944	22.0929641724	34.3807868958	18.0543231964
0.0	-0.0	44.9231987	20.5074043274	26.3884143829	19.1892757416
0.0	-0.0	31.7078762054	22.78490448	21.5324420929	18.1399440765
0.0	-0.0	25.2289924622	26.4364013672	21.0152835846	16.6864700317
0.0	-0.0	38.6919136047	26.8476543427	22.2411270142	15.8562021255
0.0	-0.0	50.3074531555	27.7334403992	23.7779445648	14.7428455353
0.0	-0.0	54.73960495	28.5487785339	23.5214233398	14.261343956
0.0	-0.0	62.014541626	29.7309703827	21.2856044769	14.1942586899
0.0	-0.0	61.9083099365	30.9554386139	16.7858448029	13.7807579041
0.0	-0.0	57.6969642639	32.6104812622	11.5465621948	13.1753911972
