0.23655462265	1.46125042439	0.145504832268	-0.0666420459747	1.67895162106	0.17339682579
0.236179113388	1.46224200726	0.145524740219	-0.066906452179	1.67882633209	0.174110531807
0.235538005829	1.46315276623	0.144885063171	-0.0671629905701	1.67854750156	0.174408197403
0.23525428772	1.46368932724	0.143442511559	-0.0669102668762	1.67625963688	0.175484418869
0.237233638763	1.46205317974	0.144176721573	-0.0644805431366	1.66863679886	0.17896270752
0.249957561493	1.45489656925	0.147078275681	-0.0601890087128	1.65751945972	0.183533668518
0.26070690155	1.44391560555	0.148874402046	-0.0557057857513	1.64702498913	0.188875198364
0.261960983276	1.43590354919	0.151496171951	-0.0506684780121	1.63819348812	0.193781614304
0.256783723831	1.43741667271	0.152440786362	-0.0469250679016	1.6337569952	0.1977404356
0.250710010529	1.44223499298	0.154237747192	-0.0452704429626	1.63287687302	0.200063109398
0.245835065842	1.44683337212	0.155845999718	-0.044885635376	1.63278365135	0.201151013374
0.241487503052	1.45139837265	0.155853867531	-0.044899225235	1.63342797756	0.200291275978
