-57.3425102234	-76.1001052856	138.679962158	7.92951965332	0.577266097069	1.08892428875
-58.4561691284	-75.7865447998	139.63722229	7.99332618713	0.787813067436	1.06618845463
-59.181427002	-75.645614624	140.184829712	7.97173500061	1.00168395042	1.21447610855
-59.3538131714	-75.6792221069	140.507293701	8.43201732635	1.49617469311	1.03208470345
-47.6565284729	-76.6250610352	130.067993164	10.7425041199	1.78357696533	0.824313938618
-26.9943237305	-79.130607605	110.766433716	14.9474716187	1.80371809006	0.871857881546
-11.916762352	-78.7819824219	97.618850708	19.4796199799	1.61909890175	0.848098933697
-3.12454080582	-78.9285507202	89.9571762085	23.0426216125	1.15960645676	0.771792948246
8.34754943848	-78.2568359375	78.9795532227	25.2278499603	0.980825781822	0.65537828207
12.5685138702	-77.3371276855	74.3994598389	25.878288269	0.779846787453	0.678872466087
12.7601957321	-76.3663406372	72.0897216797	25.0783805847	0.387094259262	0.679448485374
6.73338937759	-73.6563339233	73.5143737793	23.8523578644	-0.146217942238	0.802237272263
2.16717576981	-71.8876037598	74.6618041992	22.9837722778	-0.587455391884	0.939980566502
1.84218382835	-71.0945510864	70.4822921753	22.2241954803	-0.936215162277	0.859901785851
-0.14363886416	-70.2097320557	67.5030441284	21.8138942719	-0.896162450314	0.814088523388
-3.08651256561	-68.2602310181	65.5998077393	21.3550453186	-0.328078538179	0.750175654888
