-66.7772598267	-54.6319656372	99.2304992676	6.37158727646	2.44334411621	35.681678772
-66.4535675049	-54.665599823	99.008392334	6.21261548996	2.39378714561	35.6149635315
-65.9638977051	-54.6939659119	98.4747848511	6.13480091095	2.32726716995	35.5269889832
-65.9496536255	-55.0547447205	97.5680618286	5.97082424164	1.94365167618	35.016002655
-66.8672180176	-55.2090911865	97.6970901489	5.28652381897	1.10033428669	33.8361930847
-68.4195327759	-55.245891571	100.308555603	3.74653768539	-0.312987476587	30.8273220062
-68.4939956665	-55.7693634033	101.73323822	2.43029856682	-1.78720617294	26.3640480042
-69.9220199585	-55.5959701538	104.698219299	2.3398103714	-2.83539223671	23.023475647
-71.683883667	-56.454372406	109.170753479	2.96624398232	-3.52983283997	20.7704906464
-70.8389053345	-57.7458457947	111.883850098	4.07283592224	-3.87497329712	19.3603839874
-66.5330352783	-59.671913147	111.582893372	5.1855764389	-3.74094891548	18.1234149933
-62.9717292786	-61.0647773743	110.715293884	6.00558185577	-3.5416302681	17.1995639801
-65.2394561768	-61.0892868042	113.870773315	6.16068649292	-3.63247275352	16.7729263306
