0.0	-0.0	135.678359985	-112.862106323	79.5367660522	-179.002502441
0.0	-0.0	135.822036743	-112.771331787	79.7387084961	-179.144546509
0.0	-0.0	136.136306763	-113.496315002	80.5046157837	-179.127166748
0.0	-0.0	134.751449585	-114.70941925	84.6418838501	-179.383621216
0.0	-0.0	116.179412842	-116.219451904	89.9785614014	-179.679489136
0.0	-0.0	87.5678710938	62.3656082153	84.4177627563	0.344541430473
0.0	-0.0	77.9616012573	61.1397857666	77.9352340698	0.751863598824
0.0	-0.0	82.6998672485	58.6743011475	71.0863189697	1.61607182026
0.0	-0.0	86.7794647217	54.9047241211	65.645866394	2.44404101372
0.0	-0.0	91.6988830566	49.066947937	57.9666366577	3.45200228691
0.0	-0.0	97.6081237793	43.4016723633	46.1621398926	4.40244722366
0.0	-0.0	104.263763428	39.6772155762	33.4543037415	5.14191484451
0.0	-0.0	112.760040283	36.7947845459	19.2749652863	5.50533151627
0.0	-0.0	111.820327759	35.4459495544	5.62862205505	5.69653224945
0.0	-0.0	90.645149231	35.6328773499	-2.65215706825	4.97016525269
0.0	-0.0	78.3520431519	36.8811721802	-4.67699432373	4.30646467209
0.0	-0.0	73.7351150513	37.0921363831	-3.52300643921	4.83141183853
