-74.2850036621	-75.2309417725	107.072723389	6.86667966843	2.59569716454	34.6808166504
-74.3961639404	-75.1752471924	107.284454346	6.91484260559	2.70603299141	34.7660522461
-74.3112030029	-75.3496322632	107.31036377	6.78152179718	2.7647767067	34.6658744812
-73.9571380615	-75.2501678467	106.885536194	6.13097715378	2.62592077255	33.99010849
-73.7366943359	-75.2012863159	106.439300537	4.94296836853	2.67072463036	32.8585014343
-73.4560775757	-75.4471359253	106.265182495	4.41768074036	2.4912352562	31.4554977417
-72.4656295776	-76.1308746338	105.255706787	4.71337509155	2.01876997948	29.5583209991
-69.5652542114	-76.314491272	103.91658783	5.23203277588	1.57859647274	26.7959213257
-71.6996459961	-75.2846908569	109.289665222	5.29443645477	1.12215340137	22.9281806946
-75.2277603149	-74.9653930664	115.891212463	5.30646467209	1.39084947109	18.723400116
-78.3377761841	-75.0043029785	123.008850098	5.77317285538	1.8604978323	15.8481578827
-76.6227111816	-75.3083877563	125.281013489	6.47823572159	1.93140888214	14.4225091934
