Participant: 9933

Trial	Condition	Time
0		1			3.22
1		2			14.5713
2		6			30.1869
3		2			3.1757
4		2			4.9975
5		5			37.7394
6		4			3.9583
7		6			49.9795
8		3			9.4064
9		1			1.6878
10		3			3.4311
11		3			4.2862
12		1			1.0766
13		2			2.1647
14		2			3.9531
15		0			3.1202
16		0			3.2978
17		4			1.5429
18		6			11.128
19		1			1.8424
20		0			1.4208
21		1			1.1319
22		3			2.0871
23		2			8.2731
24		4			4.4529
25		5			9.5172
26		5			9.6618
27		4			2.9869
28		4			3.7532
29		1			1.1771
30		1			1.2324
31		3			2.2535
32		5			5.6747
33		4			1.3204
34		2			1.4199
35		1			1.1912
36		4			1.6761
37		5			20.5019
38		3			5.1638
39		3			11.01
40		4			1.2876
41		5			3.6755
42		4			1.1543
43		4			1.1208
44		4			0.9541
45		4			1.0322
46		1			5.7634
47		1			2.8979
48		5			9.2617
49		2			1.7541
