0.0	-0.0	135.717834473	-106.902076721	77.3847045898	177.411529541
0.0	-0.0	135.758407593	-109.007064819	77.5876083374	178.380462646
0.0	-0.0	135.921157837	-111.609588623	77.3296508789	178.872116089
0.0	-0.0	136.009963989	-112.581008911	75.4307327271	179.013900757
0.0	-0.0	131.239181519	-110.071632385	71.9222106934	178.975326538
0.0	-0.0	104.054260254	-104.648590088	65.1464309692	179.297317505
0.0	-0.0	84.5849227905	-97.5666656494	57.3952217102	-179.48916626
0.0	-0.0	72.26953125	-90.9635314941	50.3365898132	-178.593841553
0.0	-0.0	63.4554138184	-86.9307785034	43.5958633423	-177.304473877
0.0	-0.0	57.4140930176	-84.9742431641	37.1911811829	-175.962081909
0.0	-0.0	53.2526092529	-83.4383544922	31.2997875214	-174.703384399
