0.0672178268433	1.41299307346	0.130653142929	-0.126313924789	1.67010402679	0.0378544330597
0.06569647789	1.41345500946	0.13179731369	-0.12780714035	1.67028009892	0.0377410650253
0.0639946460724	1.41455709934	0.133248090744	-0.129342794418	1.67039453983	0.0372033119202
0.0631864070892	1.41595196724	0.13442003727	-0.13033246994	1.67148077488	0.0359823703766
0.065310716629	1.42057585716	0.139461994171	-0.130561828613	1.67660844326	0.0333895683289
0.0635936260223	1.41614735126	0.15077984333	-0.130747795105	1.68434500694	0.0290906429291
0.061674118042	1.40787220001	0.163804531097	-0.130397319794	1.69177055359	0.0237348079681
0.0578842163086	1.40415740013	0.174327731133	-0.129689455032	1.69737136364	0.0181441307068
0.0510017871857	1.40890347958	0.178586483002	-0.129301071167	1.70120203495	0.0130622386932
0.0478475093842	1.42273378372	0.176958680153	-0.129112958908	1.70344412327	0.00946974754333
0.0517530441284	1.43552231789	0.175213575363	-0.128177165985	1.70511710644	0.00612306594849
0.062468290329	1.44540345669	0.180061936378	-0.126345157623	1.70595562458	0.00385010242462
0.0775694847107	1.45636427402	0.181033611298	-0.125365018845	1.70624649525	0.00312292575836
0.0839133262634	1.45742225647	0.183617591858	-0.125437498093	1.70672607422	0.00334072113037
0.0918154716492	1.44929993153	0.191915750504	-0.125952959061	1.70680952072	0.00375580787659
