-68.7413330078	-61.5776748657	101.837997437	5.42713880539	2.6049656868	33.3836784363
-68.7295837402	-61.7471885681	102.07169342	5.44603538513	2.56805372238	33.373878479
-68.6729660034	-61.8048553467	102.094642639	5.42935800552	2.36551499367	33.2457695007
-68.5123596191	-61.9543380737	102.084953308	5.7552986145	2.31990647316	32.9787635803
-64.4019165039	-63.7660942078	100.781929016	7.61380815506	2.50086951256	31.8957252502
-60.0748634338	-64.9845352173	102.1820755	11.1139192581	2.04204082489	30.3344116211
-54.9075164795	-66.6856536865	103.600074768	15.57168293	1.32653331757	28.7629051208
-50.5200233459	-68.8958358765	107.042541504	20.3475017548	0.880829811096	26.8310527802
-47.9046363831	-70.0622253418	110.695663452	24.6458015442	0.775093495846	24.5471172333
-42.5456237793	-72.5064163208	110.634651184	28.4970321655	0.738451182842	22.2084350586
-40.707660675	-74.4548797607	113.378471375	32.5346984863	1.26365661621	19.968038559
-41.8383636475	-75.1057052612	116.876678467	36.4384155273	1.96247208118	18.3252258301
-41.9237670898	-76.1779556274	119.66746521	39.3162956238	2.62655758858	16.9308109283
-37.6087722778	-77.4737930298	119.056060791	40.9333534241	3.69871997833	15.8805818558
