0.292386770248	1.37983715534	0.0276221036911	-0.0146999359131	1.67219340801	-0.0279549360275
0.292511463165	1.38017952442	0.026087641716	-0.0151059627533	1.6722881794	-0.0285711288452
0.292645454407	1.38022172451	0.0241079330444	-0.0156483650208	1.67180097103	-0.0287008285522
0.291441202164	1.37952566147	0.0239033699036	-0.0178601741791	1.67147731781	-0.028923034668
0.284346818924	1.37702023983	0.0286844968796	-0.0249252319336	1.67364645004	-0.0294570922852
0.275450706482	1.37257957458	0.0362465381622	-0.0349462032318	1.6770209074	-0.0310661792755
0.266309738159	1.36928844452	0.0439536571503	-0.0450887680054	1.68055987358	-0.0336699485779
0.257211208344	1.36818635464	0.0520678758621	-0.0534348487854	1.68358111382	-0.0366797447205
0.250457286835	1.37015163898	0.0598155260086	-0.0581488609314	1.68518936634	-0.0392445325851
0.244476079941	1.37560486794	0.0690383911133	-0.0600092411041	1.68686151505	-0.0410354137421
0.238528728485	1.38057184219	0.075159072876	-0.060626745224	1.68931925297	-0.0429810285568
0.237525701523	1.38398993015	0.0761907100677	-0.0616745948792	1.69188535213	-0.0443814992905
0.239379644394	1.38569700718	0.0748374462128	-0.062251329422	1.69397437572	-0.0453977584839
0.236810445786	1.38240981102	0.0794150829315	-0.0624256134033	1.69407689571	-0.0450991392136
0.234522342682	1.38090252876	0.0828983783722	-0.0630896091461	1.69304025173	-0.0432924032211
0.241238355637	1.37437176704	0.0925340652466	-0.0644540786743	1.6925381422	-0.0412926673889
