-35.1388130188	-34.6567955017	138.391525269	8.16150856018	2.16628241539	2.54753232002
-33.5384292603	-34.7945480347	137.789520264	8.51825332642	2.0852689743	2.514513731
-33.9191741943	-35.5191917419	137.931030273	8.54595184326	1.8885872364	2.48491573334
-35.5522422791	-34.9892807007	138.986450195	8.82323646545	2.03655266762	2.47900485992
-32.1793861389	-35.8284759521	134.099121094	10.5934362411	2.52948641777	2.31245136261
-12.3609046936	-35.114238739	112.056259155	14.618144989	3.10156440735	2.18171262741
7.99190330505	-34.1070289612	92.7224960327	19.6344337463	3.05098748207	2.22536563873
20.6274356842	-32.6436805725	80.0814437866	24.5259284973	2.45789599419	2.27939009666
30.3897418976	-34.1471252441	68.5093841553	28.062412262	1.94485127926	2.26949262619
28.7362575531	-34.5788383484	69.8110122681	29.2083511353	1.75717532635	2.13404870033
21.7713871002	-35.4057235718	73.391242981	27.8415489197	2.00734972954	1.96634221077
12.9195728302	-35.5964736938	80.9137649536	25.7591018677	1.436591506	1.85800671577
7.93115139008	-37.3571052551	83.1985244751	24.3156528473	0.221827462316	1.46609663963
3.06921076775	-38.0241508484	87.0445098877	23.7139892578	-0.950478613377	1.09855508804
1.11400222778	-37.8191299438	87.6277084351	23.4163265228	-1.23714184761	0.623902976513
6.12247562408	-36.283290863	77.7210998535	22.9996814728	-1.0635471344	-0.144407361746
14.2574777603	-32.1157188416	61.0391921997	21.2241077423	-0.156906381249	-2.28563976288
14.2980003357	-30.4763889313	60.3154754639	16.5979976654	1.25419139862	-5.89047765732
11.8937606812	-31.3185977936	61.9070243835	11.5677852631	1.02074289322	-8.44549369812
