0.0	-0.0	135.141937256	-112.703315735	84.4548568726	176.045883179
0.0	-0.0	135.271789551	-112.710021973	83.5763015747	176.022781372
0.0	-0.0	135.265884399	-112.296882629	82.6811599731	175.774612427
0.0	-0.0	135.097885132	-112.181663513	80.9320449829	175.644607544
0.0	-0.0	134.688262939	-113.257980347	80.0877304077	176.519683838
0.0	-0.0	131.462554932	-119.930847168	80.6023406982	178.063186646
0.0	-0.0	126.975837708	-131.716751099	80.9321136475	179.158630371
0.0	-0.0	123.623458862	-143.492233276	81.780128479	-179.133453369
0.0	-0.0	124.039840698	-154.962524414	82.5277404785	-177.324249268
0.0	-0.0	124.727096558	-165.340072632	83.7198867798	-175.94468689
0.0	-0.0	125.273902893	-173.184448242	85.0038528442	-174.593902588
0.0	-0.0	117.437713623	-178.164199829	85.6887817383	-173.984039307
0.0	-0.0	101.32635498	-179.849700928	85.679473877	-173.87411499
0.0	-0.0	99.1424407959	178.717254639	86.0258102417	-174.637756348
0.0	-0.0	95.556388855	176.563415527	85.9107131958	-174.120452881
0.0	-0.0	93.1108779907	174.894424438	86.1557846069	-173.365722656
0.0	-0.0	92.5848922729	174.752655029	87.6176071167	-173.187026978
0.0	-0.0	92.7327270508	172.724807739	89.4395828247	-172.88873291
0.0	-0.0	91.7496185303	-10.9118795395	89.1736297607	8.15517807007
0.0	-0.0	90.2347640991	-14.7776813507	88.6370925903	8.79399204254
0.0	-0.0	89.4000015259	-16.9690742493	89.0852203369	9.32768344879
0.0	-0.0	87.1527862549	-17.1959114075	89.987121582	9.04305458069
0.0	-0.0	84.5685043335	-16.2852230072	89.9934387207	8.55885219574
0.0	-0.0	84.3735809326	-15.7212953568	89.5329437256	8.11980724335
