0.0	-0.0	141.080963135	-99.7612838745	-74.048866272	-142.448181152
0.0	-0.0	139.827957153	-98.0730438232	-73.3959655762	-145.18119812
0.0	-0.0	137.158462524	-103.733428955	-71.3244094849	-138.028091431
0.0	-0.0	133.594177246	-123.235984802	-71.0335159302	-116.330726624
0.0	-0.0	128.873764038	-132.904006958	-71.0479736328	-105.67665863
0.0	-0.0	118.865921021	-123.022583008	-70.9949188232	-122.968345642
0.0	-0.0	107.925071716	-138.884460449	-59.9004592896	-134.29359436
0.0	-0.0	98.1218795776	-156.630569458	-48.1230125427	-129.262588501
0.0	-0.0	91.6554260254	-156.016372681	-48.6387214661	-131.875610352
0.0	-0.0	87.294342041	-148.208786011	-49.0195579529	-143.716049194
0.0	-0.0	83.8824996948	-142.207397461	-49.3081817627	-153.605834961
0.0	-0.0	82.7891693115	-144.589263916	-45.5014572144	-149.751846313
0.0	-0.0	82.0151596069	-149.419403076	-45.7362861633	-142.523330688
0.0	-0.0	81.1492767334	-162.552566528	-45.8545227051	-128.558227539
0.0	-0.0	80.774520874	-173.622344971	-46.2977294922	-116.916625977
0.0	-0.0	81.0125579834	-172.232299805	-46.716583252	-118.972984314
0.0	-0.0	81.65650177	-156.777191162	-45.7834777832	-137.419082642
0.0	-0.0	82.3814315796	-144.943405151	-44.0114364624	-151.215713501
0.0	-0.0	83.989112854	-143.149475098	-44.5909423828	-152.228439331
0.0	-0.0	84.465133667	-147.868392944	-42.7879981995	-146.010467529
0.0	-0.0	84.1132049561	-155.449142456	-42.7742042542	-136.106262207
0.0	-0.0	83.5605926514	-160.553497314	-44.4017524719	-129.190536499
0.0	-0.0	82.9692840576	-164.559005737	-45.4708862305	-125.332756042
0.0	-0.0	82.3692626953	-160.581542969	-45.1833686829	-130.500091553
0.0	-0.0	82.3275299072	-156.252212524	-44.4267616272	-135.601593018
0.0	-0.0	82.7512741089	-155.747467041	-43.6724662781	-136.405548096
0.0	-0.0	81.4256286621	-154.719696045	-43.4810905457	-136.822799683
0.0	-0.0	80.3873443604	-154.593399048	-44.0921134949	-136.067749023
0.0	-0.0	98.9068222046	-152.886291504	-45.2443580627	-136.051589966
0.0	-0.0	119.52696228	-148.300354004	-46.0498352051	-137.381866455
0.0	-0.0	127.723197937	-143.668838501	-45.2187347412	-138.977584839
0.0	-0.0	128.980682373	-141.079345703	-43.8848571777	-140.904937744
0.0	-0.0	125.630470276	-141.944320679	-42.7243614197	-142.207443237
0.0	-0.0	118.56955719	-145.42666626	-40.9430084229	-142.858322144
0.0	-0.0	112.093193054	-150.308105469	-39.733795166	-140.271408081
0.0	-0.0	107.434181213	-156.727584839	-39.0253295898	-135.885223389
0.0	-0.0	101.067405701	-162.317642212	-38.0206451416	-131.903762817
0.0	-0.0	92.197555542	-164.68977356	-37.4387245178	-131.344039917
0.0	-0.0	82.5597686768	-165.750061035	-36.7675819397	-131.375091553
0.0	-0.0	77.2712631226	-166.007644653	-37.0091171265	-131.071121216
0.0	-0.0	77.8847427368	-163.760803223	-37.9664344788	-130.89302063
0.0	-0.0	77.391242981	-158.70173645	-38.8395500183	-134.183654785
0.0	-0.0	78.1780929565	-157.881225586	-39.0082855225	-135.319122314
0.0	-0.0	79.2815322876	-152.147277832	-39.9487724304	-141.134536743
0.0	-0.0	78.7903137207	-149.137802124	-40.7083320618	-145.019226074
0.0	-0.0	78.3444137573	-148.122406006	-39.8900604248	-145.983108521
0.0	-0.0	78.3620758057	-154.414718628	-37.2785301208	-138.670593262
0.0	-0.0	77.8753967285	-160.96270752	-35.6138343811	-130.392105103
0.0	-0.0	77.8722000122	-167.274429321	-34.7125244141	-122.861595154
0.0	-0.0	78.3799972534	-166.536437988	-33.9760437012	-123.241027832
0.0	-0.0	78.0533828735	-157.393707275	-32.4034957886	-133.885498047
0.0	-0.0	78.3380355835	-148.443664551	-29.9509868622	-143.433120728
0.0	-0.0	78.1957931519	-145.703033447	-29.0462379456	-146.315567017
0.0	-0.0	76.6481323242	-147.512680054	-27.9039096832	-144.123931885
0.0	-0.0	74.5195159912	-150.681472778	-27.0930156708	-140.438430786
0.0	-0.0	71.6793212891	-154.207183838	-28.4052810669	-135.813339233
0.0	-0.0	68.1946029663	-158.365249634	-30.3191299438	-129.192245483
