0.0	-0.0	135.34552002	-126.840148926	82.4525909424	172.470794678
0.0	-0.0	135.286193848	-127.081336975	82.5718307495	172.451904297
0.0	-0.0	135.12449646	-127.207351685	82.3422927856	172.459197998
0.0	-0.0	134.357223511	-127.602615356	82.5294799805	172.508544922
0.0	-0.0	126.366638184	-123.999107361	84.1413650513	172.496749878
0.0	-0.0	106.631607056	-114.309135437	86.7788162231	173.949691772
0.0	-0.0	92.2370223999	-102.242843628	89.8899154663	176.747817993
0.0	-0.0	86.5808334351	89.0576095581	86.0401000977	-1.04213631153
0.0	-0.0	82.520614624	96.2068634033	81.2448425293	-0.823600172997
0.0	-0.0	93.641204834	98.4504470825	76.1673583984	-1.00746583939
0.0	-0.0	111.519233704	97.5024337769	73.0662384033	-1.18115198612
0.0	-0.0	126.584999084	96.4445800781	70.1883926392	-1.08342397213
0.0	-0.0	122.820724487	97.1940689087	67.8288650513	-1.98559975624
0.0	-0.0	110.833778381	98.9718093872	65.1086730957	-3.20448875427
0.0	-0.0	103.34185791	100.563011169	62.9877891541	-3.74793720245
0.0	-0.0	103.957511902	101.642181396	60.8812904358	-4.5589928627
0.0	-0.0	97.2510070801	102.989097595	58.8128204346	-5.22988414764
