0.0	-0.0	133.133956909	-79.0230865479	-69.0084075928	-160.537063599
0.0	-0.0	132.483932495	-80.9375839233	-68.892616272	-158.861907959
0.0	-0.0	130.618667603	-82.2759170532	-68.657661438	-157.465454102
0.0	-0.0	123.789955139	-83.1912918091	-67.9184265137	-161.079345703
0.0	-0.0	113.167350769	-86.0645523071	-64.3718948364	-161.605484009
0.0	-0.0	97.197227478	-94.5273284912	-62.2361183167	-152.593673706
0.0	-0.0	79.5565872192	-87.5660705566	-61.4606628418	-154.2862854
0.0	-0.0	69.6302719116	-87.5226821899	-58.725769043	-145.725799561
0.0	-0.0	64.4954376221	-89.02759552	-60.0263328552	-134.18800354
