-0.0773479938507	1.26617860794	0.109937429428	-0.190376996994	1.63778936863	-0.0283417701721
-0.0771901607513	1.26539301872	0.1115899086	-0.191299200058	1.63777422905	-0.0270252227783
-0.0772430896759	1.2645983696	0.113648414612	-0.191410541534	1.63764131069	-0.025285243988
-0.0694086551666	1.26339673996	0.117910861969	-0.189095497131	1.63629686832	-0.0233817100525
-0.0506708621979	1.25842416286	0.123752713203	-0.183546066284	1.633212924	-0.0211819410324
-0.0301764011383	1.24995017052	0.125730991364	-0.176738739014	1.63057029247	-0.0187013149261
-0.00913143157959	1.24043083191	0.129481434822	-0.168669700623	1.62835693359	-0.0160249471664
0.0102610588074	1.22846841812	0.132696509361	-0.160849094391	1.62675893307	-0.0134580135345
0.0242257118225	1.21763145924	0.133386611938	-0.153884649277	1.62571799755	-0.0113763809204
0.0322425365448	1.21562707424	0.130275249481	-0.148312807083	1.6258456707	-0.00973415374756
0.0417964458466	1.21549808979	0.128167152405	-0.14395737648	1.62573897839	-0.00896048545837
0.0522079467773	1.21305882931	0.128662347794	-0.140410661697	1.62561917305	-0.0083726644516
0.057384967804	1.21306371689	0.132654428482	-0.138467311859	1.62603235245	-0.00744986534119
0.0494694709778	1.21176469326	0.146724939346	-0.138352394104	1.62619268894	-0.00586664676666
0.0332975387573	1.20992469788	0.158568382263	-0.140425205231	1.62589490414	-0.00382435321808
0.0130453109741	1.203971982	0.166685581207	-0.143926143646	1.62493515015	-0.00139033794403
-0.00466799736023	1.19175744057	0.169624686241	-0.147414922714	1.62302529812	0.000555276870728
-0.0164918899536	1.16888618469	0.16974902153	-0.150025844574	1.62143421173	0.0015275478363
-0.0173990726471	1.13698446751	0.168451309204	-0.152115106583	1.62005496025	0.00249540805817
-0.00545930862427	1.10728681087	0.165339231491	-0.152922153473	1.6191586256	0.00343084335327
0.0104026794434	1.08314085007	0.161745905876	-0.152967691422	1.61801052094	0.00380611419678
0.0275666713715	1.05910253525	0.157178044319	-0.152452468872	1.61699092388	0.00290703773499
0.046487569809	1.03621435165	0.152570366859	-0.152454614639	1.61592721939	0.00195527076721
0.0677182674408	1.02011728287	0.148621678352	-0.152538776398	1.6145195961	0.000961780548096
0.0884206295013	1.01538157463	0.148927927017	-0.152310609818	1.61252260208	-0.000313282012939
0.109528303146	1.02251601219	0.1536257267	-0.15106678009	1.610689044	-0.00214242935181
0.112121582031	1.04140090942	0.158272743225	-0.149121284485	1.60977017879	-0.00470662117004
0.0976712703705	1.05554842949	0.160414457321	-0.14698767662	1.60906946659	-0.00796318054199
0.0812668800354	1.06172537804	0.160470485687	-0.144957304001	1.60971057415	-0.0112797021866
0.07195520401	1.06803572178	0.159723043442	-0.143956184387	1.60967421532	-0.01349401474
0.0637230873108	1.0729418993	0.158062934875	-0.143258333206	1.6088527441	-0.0142738819122
0.0562977790833	1.07531476021	0.155989050865	-0.142155170441	1.6085190773	-0.0144683122635
0.060512304306	1.07840871811	0.158683300018	-0.140007019043	1.60834717751	-0.014625787735
0.0672452449799	1.08017301559	0.16142809391	-0.137857675552	1.60803377628	-0.0152208805084
0.0726244449615	1.07842111588	0.162656188011	-0.136602163315	1.60833311081	-0.0162389278412
0.0831210613251	1.07279551029	0.166953921318	-0.135751724243	1.60924136639	-0.0171432495117
0.0961771011353	1.0710798502	0.172401547432	-0.135110616684	1.6100256443	-0.0175025463104
0.106932163239	1.07322847843	0.176126241684	-0.134513378143	1.61054778099	-0.0169985294342
0.109659194946	1.07814979553	0.177160143852	-0.134449481964	1.61088323593	-0.0162264108658
0.107396602631	1.08184409142	0.177184104919	-0.134785413742	1.61098372936	-0.0157816410065
0.103244781494	1.08168411255	0.178080558777	-0.134986877441	1.61113214493	-0.0154514312744
0.0995044708252	1.07801878452	0.17884016037	-0.134613513947	1.61101996899	-0.015350818634
0.0988707542419	1.07365810871	0.178757548332	-0.133684873581	1.61087465286	-0.0149719715118
0.0971622467041	1.06985449791	0.177844882011	-0.132433652878	1.61095261574	-0.0142631530762
0.101799964905	1.06668663025	0.179253458977	-0.130563497543	1.61092340946	-0.0140693187714
0.108808755875	1.06597220898	0.181236028671	-0.128789424896	1.61098885536	-0.0138080120087
0.116144657135	1.06516611576	0.183613777161	-0.127593278885	1.61096668243	-0.0135848522186
0.120327711105	1.06691765785	0.18505012989	-0.127261161804	1.61049687862	-0.0134266614914
0.119196653366	1.06716418266	0.186315774918	-0.127723932266	1.60991466045	-0.0127111673355
0.115391492844	1.06556594372	0.187541246414	-0.129760026932	1.60581469536	-0.0116770267487
0.111253261566	1.06421470642	0.18741941452	-0.13201212883	1.60053396225	-0.00987648963928
0.107502937317	1.06313633919	0.186299920082	-0.133939743042	1.59638226032	-0.00809764862061
0.109517335892	1.06401181221	0.186331391335	-0.134887218475	1.59437501431	-0.00684666633606
0.111752033234	1.06678497791	0.18433380127	-0.133134365082	1.59666538239	-0.00615406036377
0.114452123642	1.06974172592	0.181421160698	-0.129786968231	1.60016572475	-0.00658917427063
0.121802806854	1.07136154175	0.180528283119	-0.124632358551	1.60239160061	-0.00830841064453
