0.0	-0.0	133.360214233	-114.923225403	73.3570785522	175.853042603
0.0	-0.0	133.318984985	-114.248634338	73.9161605835	176.320587158
0.0	-0.0	133.464447021	-114.342552185	74.6776504517	176.948486328
0.0	-0.0	133.44468689	-115.327606201	76.5456314087	177.141265869
0.0	-0.0	133.471374512	-116.682746887	79.9406509399	177.575408936
0.0	-0.0	132.564285278	-118.192207336	87.6888427734	177.617324829
0.0	-0.0	121.038208008	59.8943214417	82.8016738892	-1.93904519081
0.0	-0.0	105.199638367	57.2948760986	73.4672698975	-1.50603985786
0.0	-0.0	89.6890182495	54.7670059204	64.3984909058	-0.702824056149
0.0	-0.0	83.2134170532	51.1629562378	56.5941925049	0.255744963884
0.0	-0.0	81.31300354	48.0113945007	50.2395057678	0.890363752842
0.0	-0.0	90.2193069458	44.877407074	44.7926063538	1.52727460861
0.0	-0.0	95.5901641846	42.980052948	39.2615737915	2.69544553757
0.0	-0.0	107.453826904	41.063117981	33.2495040894	3.3824698925
0.0	-0.0	124.985565186	39.2428092957	30.1968784332	3.57701706886
0.0	-0.0	124.941802979	39.0274620056	30.0595779419	2.92192816734
0.0	-0.0	94.7586898804	39.5623703003	32.4651107788	2.59042906761
0.0	-0.0	82.4173660278	39.8859481812	35.1994972229	2.38665795326
0.0	-0.0	70.9798278809	39.0187950134	36.6380462646	3.47740530968
0.0	-0.0	57.9884567261	37.869304657	37.5275840759	4.69233989716
0.0	-0.0	50.2233123779	37.5912628174	37.6404647827	5.08944129944
0.0	-0.0	48.6815071106	37.506362915	37.6024856567	5.06174230576
0.0	-0.0	50.4167404175	36.3471870422	37.7783317566	5.3362903595
0.0	-0.0	52.8226509094	31.3218421936	36.9896621704	7.25287389755
0.0	-0.0	54.9875831604	15.6247682571	33.2512969971	11.426451683
0.0	-0.0	55.9484672546	4.57195472717	26.8524684906	14.2408399582
0.0	-0.0	56.6361923218	5.26809310913	22.1225852966	13.2257518768
0.0	-0.0	57.7860450745	13.2486190796	20.7336730957	9.50074481964
