0.0449709892273	1.50460195541	0.201988458633	-0.155225515366	1.66197955608	0.0292466878891
0.0459463596344	1.50459051132	0.200006604195	-0.154620409012	1.66258871555	0.0285456180573
0.0465495586395	1.50369942188	0.199418187141	-0.153656005859	1.66235268116	0.0284199714661
0.0467531681061	1.50384223461	0.19965839386	-0.153073549271	1.66270899773	0.0280115604401
0.0467019081116	1.5063354969	0.200076341629	-0.151513814926	1.66629517078	0.0261669158936
0.0486881732941	1.51765072346	0.200953841209	-0.149709224701	1.67386436462	0.0219016075134
0.0474743843079	1.52464532852	0.199858427048	-0.148386478424	1.68336951733	0.0152666568756
0.0444357395172	1.53201961517	0.201906323433	-0.147394418716	1.690102458	0.00742602348328
0.0346624851227	1.53860676289	0.196925878525	-0.147242069244	1.69519102573	-0.000964403152466
0.024754524231	1.54539453983	0.193261623383	-0.148921728134	1.69899690151	-0.00995302200317
0.020480632782	1.55484306812	0.18980050087	-0.151819229126	1.70286166668	-0.0180687904358
0.0170140266418	1.56187868118	0.187493920326	-0.153201580048	1.70523715019	-0.0244886875153
0.0211567878723	1.57334518433	0.191651821136	-0.153479099274	1.70616960526	-0.0291761159897
0.0218288898468	1.5778465271	0.185895442963	-0.154448509216	1.70610976219	-0.032634139061
0.0176856517792	1.57371258736	0.180585741997	-0.15612077713	1.70650732517	-0.0353796482086
0.0236604213715	1.57548606396	0.183270692825	-0.156809091568	1.70685744286	-0.0376217365265
0.0442326068878	1.5828820467	0.196708917618	-0.156682014465	1.70554172993	-0.0395066738129
