-31.6632537842	-57.224357605	135.303421021	2.70853734016	2.51815843582	-2.49971199036
-31.6651306152	-57.4285316467	135.283432007	2.63627934456	2.4742743969	-2.52325773239
-32.1825294495	-58.0701217651	135.220443726	2.59072375298	2.56636929512	-2.49933934212
-31.9321212769	-60.0068511963	134.098403931	2.50446176529	2.45199179649	-2.49777698517
-17.7680892944	-61.9540634155	123.915328979	3.95943331718	1.86789393425	-2.46742343903
5.46985054016	-63.5658073425	104.69695282	7.31319093704	0.96816021204	-1.9278036356
20.5544967651	-62.3727684021	90.9586791992	11.3778762817	-0.100525312126	-0.987735927105
25.7889595032	-64.5229187012	86.1086807251	15.0235652924	-1.49747383595	-0.30516409874
27.8818454742	-65.5006866455	83.0174865723	17.2387714386	-3.11392021179	-0.274492233992
13.1144895554	-68.7641906738	95.4912033081	17.8154373169	-4.77581357956	-0.353709369898
-5.97273874283	-71.5505218506	113.645317078	17.4466514587	-5.74098968506	-0.388592809439
-20.2279071808	-74.0030975342	128.52911377	17.1579704285	-6.68658733368	-0.380798190832
-11.2095479965	-76.1973495483	121.909240723	17.445602417	-7.48099851608	-0.711602091789
5.27058076859	-77.1895904541	108.855979919	18.0726299286	-8.38575744629	-1.11300528049
10.8109331131	-78.3946762085	104.835510254	18.5500392914	-9.07031440735	-1.264549613
14.1181869507	-79.1025314331	103.314353943	18.9240894318	-9.7873249054	-1.54846537113
24.7911624908	-79.0737304688	95.9150848389	19.3817634583	-10.4641695023	-1.7412238121
