-59.5355491638	-62.1303443909	134.837905884	8.40227222443	-0.47750967741	2.22243237495
-59.3397636414	-62.3052825928	134.407028198	8.22949028015	-0.33549669385	2.07807350159
-59.3945274353	-62.5170211792	134.5025177	8.41065692902	0.0254470128566	1.999994874
-56.0694923401	-63.1805648804	130.071502686	9.28859996796	1.44978189468	1.94989657402
-38.1958274841	-63.5149803162	109.009635925	11.3561992645	4.30664014816	1.91866695881
-22.7696895599	-62.2174758911	91.9475097656	14.1174545288	6.92708015442	1.76827859879
-17.4267921448	-62.9418754578	85.7050170898	16.8900566101	9.36351394653	1.59244728088
-14.5417346954	-63.0980796814	82.3774414062	19.3438854218	11.6108961105	1.51859629154
-13.5252275467	-62.3151473999	80.6919326782	21.0354404449	13.0757675171	1.40437555313
