0.278223276138	1.50233101845	-0.0685496330261	-0.0414714813232	1.6748585701	-0.0867254734039
0.277502298355	1.50273013115	-0.0681110620499	-0.0419776439667	1.67476415634	-0.0859961509705
0.276765584946	1.5029733181	-0.0674028396606	-0.0424921512604	1.67438912392	-0.0850713253021
0.276510953903	1.50314557552	-0.0664726495743	-0.0427091121674	1.67274951935	-0.0830955505371
0.279073476791	1.50131928921	-0.0628955364227	-0.0398895740509	1.66897082329	-0.0807962417603
0.286869049072	1.49700641632	-0.0576736927032	-0.0347945690155	1.66486036777	-0.0788108110428
0.292478561401	1.49234294891	-0.0554394721985	-0.0290179252625	1.66073930264	-0.0772247314453
0.295998096466	1.48847687244	-0.0557910203934	-0.0237653255463	1.65622198582	-0.0759294033051
0.295801401138	1.48678827286	-0.0582847595215	-0.019581079483	1.65164411068	-0.0751376152039
0.292752742767	1.48839187622	-0.0619589090347	-0.0165514945984	1.6484991312	-0.0746865272522
