0.0	-0.0	137.541275024	-109.289955139	80.5737762451	-175.278991699
0.0	-0.0	137.838638306	-108.609191895	80.331993103	-175.50227356
0.0	-0.0	137.696533203	-108.553092957	79.0192184448	-175.794281006
0.0	-0.0	136.962219238	-110.402137756	76.9960327148	-175.050674438
0.0	-0.0	131.625946045	-115.259498596	83.5945739746	-174.518463135
0.0	-0.0	111.859596252	58.5134239197	85.3418731689	6.15212726593
0.0	-0.0	93.1988754272	51.2490959167	70.9990310669	6.92463636398
0.0	-0.0	87.4253158569	43.2550468445	58.753742218	9.49695587158
0.0	-0.0	84.408203125	33.486240387	47.6292877197	11.8748064041
0.0	-0.0	80.6918563843	24.310842514	34.7576751709	14.5975570679
0.0	-0.0	71.330368042	20.168056488	24.6372852325	15.6397409439
0.0	-0.0	56.7306900024	20.3137893677	19.5548934937	15.5125131607
0.0	-0.0	46.5393867493	20.9118690491	15.711730957	14.770236969
0.0	-0.0	47.747379303	21.0220565796	15.7687110901	14.0806331635
0.0	-0.0	46.3116493225	23.0800323486	18.4848041534	12.9403238297
0.0	-0.0	46.3820877075	27.8262691498	21.4428863525	11.6107378006
0.0	-0.0	47.8983078003	30.3611564636	21.3455028534	11.0235080719
0.0	-0.0	48.256690979	32.2931442261	19.6653270721	11.0669307709
0.0	-0.0	49.612953186	33.3205604553	16.1643867493	11.320356369
