0.167904376984	0.929355382919	0.128060698509	-0.143187999725	1.62750685215	0.0212774276733
0.170201778412	0.929411411285	0.126930952072	-0.142393827438	1.62782669067	0.0203816890717
0.17151427269	0.929085254669	0.126315951347	-0.141628980637	1.62793135643	0.0200576782227
0.172089099884	0.929107666016	0.126395940781	-0.140836000443	1.62797904015	0.0200431346893
0.172528266907	0.928803682327	0.12641108036	-0.140093564987	1.62800979614	0.0199601650238
0.172166347504	0.928328037262	0.126413226128	-0.139582395554	1.62801718712	0.0191435813904
0.171871423721	0.928151130676	0.126294732094	-0.139291524887	1.62838947773	0.0176095962524
0.169255256653	0.92812204361	0.126928329468	-0.139284610748	1.62926530838	0.0159115791321
0.161384105682	0.926835298538	0.129867315292	-0.140301704407	1.63008272648	0.0138767957687
0.145651578903	0.927621364594	0.13564157486	-0.141444444656	1.63033902645	0.0116724967957
0.127414226532	0.929104566574	0.140066027641	-0.141462564468	1.63025128841	0.00927448272705
0.114553928375	0.932328939438	0.14260327816	-0.141432523727	1.63094103336	0.00719118118286
0.107592821121	0.936335802078	0.143292069435	-0.142212867737	1.63155806065	0.00523495674133
0.0966694355011	0.939863920212	0.142196059227	-0.142820119858	1.63167059422	0.00331330299377
0.0854842662811	0.942332029343	0.139883041382	-0.14287686348	1.63112032413	0.00136816501617
0.0779364109039	0.944426774979	0.13840007782	-0.143300771713	1.63107764721	-0.000541090965271
0.0689764022827	0.951393127441	0.13607108593	-0.145119905472	1.63087725639	-0.00258958339691
0.0569312572479	0.958263397217	0.132213354111	-0.147783756256	1.63025653362	-0.00450396537781
0.048083782196	0.962554931641	0.129434347153	-0.150006532669	1.63017952442	-0.00644969940186
0.0400557518005	0.960099697113	0.128547310829	-0.152071714401	1.63032531738	-0.00848746299744
0.0314679145813	0.954256057739	0.12924349308	-0.154245853424	1.6304268837	-0.00993931293488
0.0333385467529	0.953517913818	0.138432502747	-0.156765937805	1.63047301769	-0.0115301609039
0.0406963825226	0.95615029335	0.148487448692	-0.158735990524	1.63070464134	-0.0126254558563
0.04629945755	0.958490133286	0.153089404106	-0.160175800323	1.63127982616	-0.0134742259979
0.0520668029785	0.958865880966	0.155433177948	-0.16130566597	1.63165485859	-0.0138498544693
0.0540177822113	0.958556413651	0.156118512154	-0.163235187531	1.63084638119	-0.0134160518646
0.0501110553741	0.956897497177	0.154032588005	-0.167376041412	1.62930822372	-0.0125643014908
0.0474538803101	0.954110383987	0.151905179024	-0.177020549774	1.62610375881	-0.0123631954193
0.0472409725189	0.952382087708	0.151169538498	-0.187543869019	1.62302005291	-0.0124342441559
0.0474245548248	0.951105833054	0.151433348656	-0.196751832962	1.62096619606	-0.0123995542526
0.0486791133881	0.951081514359	0.153571367264	-0.205535411835	1.62053883076	-0.0125389099121
0.0494246482849	0.950910806656	0.156061053276	-0.214379310608	1.62027585506	-0.0131344795227
