0.234124898911	1.44202971458	0.146001815796	-0.0686810016632	1.6772415638	0.164623022079
0.234478473663	1.44255018234	0.146142482758	-0.0693879127502	1.67707622051	0.16477894783
0.234417915344	1.44317245483	0.145269155502	-0.0698459148407	1.67716348171	0.164228320122
0.234288692474	1.44344162941	0.144546151161	-0.0705354213715	1.67737495899	0.163636684418
0.232946157455	1.4424983263	0.146530032158	-0.0742540359497	1.67645311356	0.164358139038
0.229398965836	1.44205451012	0.151259422302	-0.0813992023468	1.67122769356	0.167848944664
0.224877119064	1.44404864311	0.156785488129	-0.08966755867	1.66028380394	0.173049449921
0.227312326431	1.44481921196	0.16361117363	-0.0969114303589	1.64978086948	0.17912197113
0.233281373978	1.43789577484	0.169903039932	-0.102214574814	1.63915252686	0.185601592064
0.239597082138	1.43168640137	0.171126008034	-0.105570793152	1.63062357903	0.191486120224
0.238854408264	1.43562829494	0.168700814247	-0.108380317688	1.62592875957	0.195838570595
0.237815618515	1.44326758385	0.165861010551	-0.10995388031	1.62582659721	0.197962284088
