-41.7943153381	-72.4338607788	131.550933838	8.98319149017	1.92255938053	2.00233602524
-41.5541610718	-72.8311386108	131.728393555	9.12821960449	1.76520884037	2.01928305626
-40.7923698425	-72.8702087402	130.75038147	9.01185894012	1.14703655243	2.05466866493
-38.8951377869	-72.440246582	127.423248291	8.56162261963	0.73323905468	2.28746771812
-31.8435688019	-69.5265808105	115.560531616	7.14479160309	1.02017056942	2.71007037163
-27.2952671051	-67.2622833252	108.65284729	5.13478565216	1.51218426228	2.98740363121
-24.6465473175	-66.3113327026	102.707267761	3.16407155991	1.77458500862	3.26991271973
-21.4460372925	-64.2420425415	96.1411895752	1.86007463932	1.84442746639	3.48939633369
