-0.0522100925446	1.44255781174	0.0893423557281	-0.150613307953	1.66912889481	0.0173383951187
-0.0528767108917	1.44353055954	0.088814496994	-0.151474475861	1.66901445389	0.0173736810684
-0.0534408092499	1.44305372238	0.0886578559875	-0.151432514191	1.66868340969	0.0176907777786
-0.0545523166656	1.44465148449	0.0894105434418	-0.15208029747	1.66847705841	0.0182157754898
-0.0618569850922	1.44517338276	0.0920271873474	-0.155235767365	1.66943848133	0.0184812545776
-0.0740242004395	1.44612801075	0.100857138634	-0.160559415817	1.669962883	0.0181488990784
-0.0920042991638	1.45176541805	0.114617943764	-0.165505647659	1.67009317875	0.016508102417
-0.113156318665	1.45702624321	0.121954441071	-0.168944835663	1.67040705681	0.014257311821
-0.138733148575	1.45920240879	0.124709129333	-0.170917034149	1.67060220242	0.0120725631714
-0.164483070374	1.46447896957	0.121599435806	-0.172271966934	1.67068696022	0.010204911232
-0.183173179626	1.47372913361	0.109609127045	-0.173895359039	1.67079401016	0.00852239131927
-0.197693586349	1.48200321198	0.101809024811	-0.175722122192	1.67078197002	0.00616455078125
-0.209037780762	1.49555039406	0.110592603683	-0.177507162094	1.67037272453	0.00413680076599
-0.214019298553	1.49550676346	0.12476849556	-0.179258823395	1.66975212097	0.00283312797546
-0.216038942337	1.48547816277	0.128427743912	-0.180974245071	1.66974830627	0.00171983242035
-0.2149913311	1.48140704632	0.118022203445	-0.182606458664	1.66997373104	0.000973224639893
-0.213335752487	1.47634601593	0.110754489899	-0.183367490768	1.66996574402	-9.59634780884e-05
-0.20972776413	1.47136330605	0.107461094856	-0.183455228806	1.66992044449	-0.00215029716492
-0.207742452621	1.46451663971	0.106467962265	-0.183575153351	1.67063546181	-0.0054988861084
-0.210340738297	1.458542943	0.106287837029	-0.184734582901	1.67241644859	-0.0101113319397
-0.214362382889	1.45913493633	0.104465723038	-0.188794136047	1.67331242561	-0.0157477855682
-0.21649646759	1.45694792271	0.101040959358	-0.194358110428	1.67311608791	-0.0205399990082
-0.216614484787	1.45584750175	0.100534677505	-0.196106433868	1.67302525043	-0.0217839479446
-0.217834234238	1.45790970325	0.10835981369	-0.196421146393	1.67339730263	-0.0201864242554
-0.220470905304	1.45772635937	0.117915511131	-0.200753211975	1.67226397991	-0.0170452594757
-0.224834442139	1.45677685738	0.127561569214	-0.207951068878	1.66943025589	-0.0130336284637
-0.229364395142	1.45796382427	0.142060995102	-0.212881803513	1.66692590714	-0.00880575180054
-0.233517169952	1.45932018757	0.160742998123	-0.214365243912	1.66656136513	-0.00565123558044
-0.232527256012	1.46153140068	0.173114657402	-0.213423967361	1.66709089279	-0.00293755531311
-0.228596448898	1.46438717842	0.182244420052	-0.210758209229	1.66830646992	-9.77516174316e-05
