-70.7922134399	-77.8206558228	106.82434845	12.553185463	6.58250999451	35.3118934631
-71.3409042358	-77.6167449951	107.355438232	12.2577400208	6.57991981506	35.3404006958
-69.8148651123	-78.1591033936	105.722434998	12.0194149017	6.70337915421	35.1277389526
-41.7410697937	-81.7012405396	77.7227401733	12.71372509	7.62465190887	34.4008293152
22.1606903076	-79.3858566284	16.6670570374	14.8667068481	9.5175485611	33.175945282
41.015663147	-75.5887298584	2.92596459389	17.1499843597	11.2550439835	31.9355010986
51.2475242615	-69.828956604	-2.52359700203	19.6274585724	12.7855234146	30.722454071
56.3333473206	-63.8536491394	-4.06939744949	21.7747516632	13.9197368622	29.613451004
58.3547439575	-60.3794593811	-3.58275651932	23.4929542542	14.6251401901	28.6646747589
60.7924919128	-61.2827758789	-3.46193051338	24.423500061	14.810710907	27.8650188446
65.7076034546	-60.5989532471	-5.85288286209	24.9309768677	15.1105117798	27.2082500458
68.0111236572	-59.2665519714	-5.93538808823	25.4138374329	15.3185834885	26.6731300354
66.0503082275	-59.1224594116	-4.82271051407	25.3509998322	15.3522167206	26.1568622589
52.1016540527	-58.6696510315	0.41311788559	24.7733478546	15.4236822128	25.686258316
35.9381141663	-57.9635887146	6.60815763474	23.5590610504	15.6416597366	25.3771209717
20.051568985	-54.8834877014	12.2024431229	21.8426837921	16.1012878418	25.1023445129
9.87455463409	-50.3703727722	15.7406759262	20.0604972839	16.9478282928	24.7608013153
4.22088003159	-45.1569366455	18.0331764221	18.5535984039	17.7367172241	24.1838741302
2.27310395241	-39.9183006287	22.3029403687	17.3880443573	18.3962535858	23.6468009949
5.13930606842	-35.2011184692	24.4275569916	16.7617511749	18.7720985413	23.4172554016
6.4367313385	-32.2553863525	28.5786972046	16.7908725739	19.2237148285	23.2938575745
5.96640825272	-29.7308750153	33.8252716064	17.3052425385	19.5807991028	23.2370414734
4.55659484863	-27.7718715668	41.0301094055	17.5402698517	19.9045200348	23.0257415771
6.16707897186	-26.0450363159	44.7959098816	17.6450271606	20.3965740204	22.8521366119
5.73154783249	-27.2944145203	51.6477050781	17.6684055328	21.2376651764	22.7766838074
6.05532932281	-31.3724594116	58.639919281	17.7428073883	22.0643749237	22.5086784363
-4.91617059708	-38.6062927246	72.8745956421	17.9323787689	22.627948761	22.1115455627
-20.1299552917	-41.4166145325	86.0140686035	18.6610736847	23.0614204407	21.8552761078
-29.9971904755	-42.0869064331	92.2062835693	19.6342029572	22.8347530365	21.799118042
-27.6016120911	-46.5723381042	84.40965271	20.1740245819	22.8499355316	21.6886711121
-27.5346927643	-49.328704834	79.5483398438	20.0734138489	23.2423992157	21.6284751892
-35.6718025208	-49.4418907166	85.5360412598	19.9997634888	23.3847522736	21.5986614227
-34.0330314636	-50.7291297913	85.7605743408	20.2594451904	23.5300312042	21.5292015076
-30.4138793945	-51.5934753418	83.057144165	20.5655231476	23.7461624146	21.37865448
-30.8447589874	-51.2198295593	83.6534729004	20.6505718231	23.6627216339	21.2088832855
-28.404466629	-50.8970222473	81.5511398315	20.6695213318	23.3163967133	21.1502819061
-26.1210842133	-50.7403793335	81.2126235962	20.4870014191	23.0685157776	21.0386257172
-26.891828537	-50.9988441467	84.2893829346	20.3237171173	22.814125061	21.0306739807
-31.527299881	-51.3752441406	89.8745040894	20.1211185455	22.6408081055	21.0595169067
-35.131942749	-52.638217926	92.2652816772	20.0716247559	22.4415664673	21.3188209534
-36.2176513672	-52.8274536133	91.3091506958	19.9302444458	22.3454494476	21.4784374237
-33.0760269165	-53.0859146118	85.3843612671	19.7987976074	22.3802280426	21.5414886475
-28.2588043213	-53.4286689758	79.9311828613	19.7150497437	22.5312023163	21.4718322754
-29.0441226959	-52.8867759705	80.508605957	19.6249637604	22.5828037262	21.2808036804
-27.4946708679	-52.2770767212	80.2301635742	19.9237995148	22.6366519928	21.1670417786
-27.2220344543	-52.2091636658	82.0909500122	20.3626480103	22.5873603821	21.1414642334
-26.9659004211	-52.0059547424	85.2251434326	20.561706543	22.5969429016	21.0754356384
-26.9182052612	-52.7405052185	87.1846466064	20.3998184204	22.7209300995	21.4187850952
-28.9271221161	-53.7262268066	87.8597564697	20.4470729828	22.5431232452	23.7538471222
-26.955373764	-55.5014877319	80.8553619385	20.9256153107	23.2821235657	28.8017692566
-24.3885059357	-56.4277229309	75.0116577148	20.4885425568	25.1442394257	30.0818710327
-25.6352825165	-56.5623855591	74.8143920898	18.7100772858	27.261264801	27.6485462189
-21.4327697754	-57.530960083	70.9550094604	15.3993110657	28.9948234558	22.5286846161
-21.1420669556	-58.8745155334	72.1035690308	12.7722682953	28.6774959564	17.7588691711
-21.9566440582	-59.9376983643	74.6122741699	12.3258619308	27.4359607697	14.9692811966
-22.3634624481	-59.2509727478	81.0402679443	14.5929517746	26.4051837921	15.0409574509
