0.0	-0.0	148.747573853	-70.5202255249	-76.4736785889	-176.697296143
0.0	-0.0	148.827682495	-69.7109451294	-76.5375289917	-177.642623901
0.0	-0.0	148.959030151	-72.4401168823	-76.8249969482	-174.937133789
0.0	-0.0	149.262420654	-74.5456085205	-76.6434631348	-173.606414795
0.0	-0.0	149.656051636	-78.2062988281	-76.3307647705	-171.777481079
0.0	-0.0	149.863510132	-73.7093276978	-76.3466033936	-176.895233154
0.0	-0.0	150.017974854	-65.774887085	-76.5198440552	173.43548584
0.0	-0.0	149.0962677	-34.6990890503	-77.1635131836	141.624465942
0.0	-0.0	148.929016113	-41.1002464294	-77.5347518921	149.330352783
0.0	-0.0	153.393280029	-54.0756454468	-78.260559082	163.619934082
0.0	-0.0	162.843948364	-53.1594543457	-78.438117981	163.275238037
0.0	-0.0	167.130584717	-60.4531173706	-78.2068481445	170.270690918
0.0	-0.0	163.901870728	-69.7195663452	-77.7555084229	178.214630127
0.0	-0.0	155.029022217	-69.4039154053	-77.6306152344	177.12059021
0.0	-0.0	147.96875	-67.1831054688	-77.1720199585	174.717575073
0.0	-0.0	144.937652588	-69.7314071655	-77.4805145264	177.145690918
0.0	-0.0	144.526580811	-70.2311553955	-77.9576187134	177.899291992
0.0	-0.0	144.784469604	-73.1923904419	-78.0230636597	-179.015396118
0.0	-0.0	144.838638306	-74.9886779785	-77.9157104492	-177.108261108
0.0	-0.0	145.255279541	-75.7347640991	-77.832824707	-176.430648804
0.0	-0.0	144.740875244	-76.7679443359	-77.7861480713	-175.114974976
0.0	-0.0	140.895263672	-76.8034896851	-77.7934112549	-172.817047119
0.0	-0.0	133.603347778	-77.0433120728	-77.4936981201	-166.308563232
0.0	-0.0	125.305519104	-80.1572799683	-76.7323455811	-156.049972534
0.0	-0.0	115.30670929	-75.7750167847	-77.2271575928	-149.660980225
0.0	-0.0	105.620956421	-48.2028083801	-79.4070739746	-162.115264893
0.0	-0.0	97.5505599976	-24.5046005249	-81.0324325562	-171.475234985
0.0	-0.0	91.1121826172	-30.4946575165	-82.3271560669	-156.068145752
0.0	-0.0	86.6337585449	-55.2746009827	-83.795135498	-124.139839172
0.0	-0.0	82.9166183472	-89.1778259277	-86.0029449463	-81.7812042236
0.0	-0.0	79.7089920044	-175.815368652	-86.671333313	13.5210924149
0.0	-0.0	77.1106948853	125.247970581	-87.0231552124	76.8922271729
