0.0	-0.0	138.524658203	-104.225257874	88.8367462158	-175.358886719
0.0	-0.0	138.663543701	-104.575744629	89.0210113525	-175.315841675
0.0	-0.0	138.740463257	-104.472328186	88.5619049072	-175.426086426
0.0	-0.0	138.605560303	-104.405471802	87.7948379517	-175.533157349
0.0	-0.0	138.799514771	-104.898834229	88.1471710205	-175.452972412
0.0	-0.0	137.700973511	-107.656997681	88.7439575195	-174.848007202
0.0	-0.0	133.32749939	-118.848167419	88.8115768433	-173.532943726
0.0	-0.0	130.118515015	-140.079055786	88.4374923706	-171.01574707
0.0	-0.0	126.415466309	-164.87097168	88.4099960327	-168.552276611
0.0	-0.0	123.594413757	172.871322632	87.6503448486	-165.980453491
0.0	-0.0	120.748306274	154.832717896	87.2705383301	-164.105224609
0.0	-0.0	95.1799697876	146.889968872	86.9966506958	-162.738204956
0.0	-0.0	66.5119781494	147.611923218	85.5824050903	-162.476211548
0.0	-0.0	61.914352417	149.906829834	84.9597244263	-162.149520874
0.0	-0.0	54.5109863281	151.629684448	84.8172454834	-162.201919556
0.0	-0.0	51.0528907776	154.270446777	85.8612213135	-162.801315308
