0.0	-0.0	129.925231934	-111.215377808	83.3216094971	-179.496383667
0.0	-0.0	129.32270813	-111.84539032	83.8433532715	-178.983459473
0.0	-0.0	128.647109985	-113.004356384	84.2326431274	-179.541900635
0.0	-0.0	129.143310547	-112.970504761	85.9328994751	-179.782974243
0.0	-0.0	129.097290039	-113.247131348	89.7959442139	179.571502686
0.0	-0.0	122.40222168	65.0201644897	82.2241744995	-1.78329443932
0.0	-0.0	109.093490601	60.2496452332	69.0253753662	-2.64440107346
0.0	-0.0	100.959335327	52.1917457581	46.8256492615	-3.80975937843
0.0	-0.0	98.4839782715	44.4670639038	29.8959388733	-3.83012676239
0.0	-0.0	99.0238189697	38.1457824707	17.1023521423	-2.81875300407
0.0	-0.0	102.147575378	37.5579872131	1.9206622839	-5.03505277634
0.0	-0.0	107.075584412	43.4761886597	-7.00693178177	-8.79588699341
0.0	-0.0	94.9041671753	48.6469726562	-11.2502737045	-12.1249361038
0.0	-0.0	69.400062561	48.7133789062	-12.0531110764	-12.1034460068
0.0	-0.0	74.0848083496	45.9275550842	-10.03104496	-9.86386871338
0.0	-0.0	72.6703796387	42.6243591309	-6.46946001053	-7.98955106735
0.0	-0.0	66.4028167725	41.5079612732	-2.71549963951	-7.98604774475
0.0	-0.0	61.7736663818	40.9491233826	3.88421058655	-7.85089731216
0.0	-0.0	58.9681930542	38.6454429626	10.9615240097	-6.23266983032
0.0	-0.0	60.0189208984	33.9262237549	15.3076276779	-3.3449010849
0.0	-0.0	62.4220199585	29.4644870758	17.7855167389	-0.569412648678
