14.3874950409	-10.7564411163	1.00199437141	4.630859375	0.928685307503	34.2399520874
14.5129308701	-10.7241487503	0.92507058382	4.58397483826	1.0995619297	34.2675552368
14.4502773285	-10.8601856232	0.944382488728	4.5401558876	1.22858905792	34.3039360046
14.1516132355	-10.7924757004	0.810710430145	4.08598661423	1.12189602852	34.0146865845
13.7555608749	-10.5726366043	0.452125042677	3.14872121811	1.42275726795	33.0015335083
12.2015008926	-9.55455207825	-0.490134239197	1.89597189426	2.30855965614	31.2584152222
10.8907785416	-6.62537431717	-2.80812835693	0.924728691578	3.47864246368	29.0588722229
6.22861242294	-1.98349130154	-3.25122094154	0.891477704048	4.23867559433	27.5332546234
-0.0519619733095	-0.823122382164	-1.22480416298	1.03624975681	4.65882349014	27.107416153
-2.5390253067	-1.89671003819	-0.709764301777	0.474375247955	5.13696908951	26.6991996765
-1.64189755917	-4.4534907341	1.90845191479	0.232301414013	5.59439086914	25.9647979736
-0.452887147665	-3.99425530434	3.25034666061	0.499823302031	5.90795183182	25.7815971375
1.38293170929	-2.81473565102	4.72529411316	0.630926609039	6.5938410759	25.2695007324
3.19307851791	-2.68490147591	5.47259473801	1.50626981258	8.7759771347	24.6473579407
4.19138336182	-2.90025687218	6.0324678421	2.52397036552	10.2725458145	24.5539608002
4.21511507034	-2.1894903183	6.44159126282	3.39228177071	12.2134799957	24.6401824951
5.1115398407	-1.55763947964	6.77349948883	4.24900960922	15.0098562241	24.8541526794
7.71685028076	-1.36635160446	7.30707168579	4.47121763229	16.1125984192	24.8754062653
13.0703115463	-1.0851418972	5.49465513229	4.45899343491	16.1803684235	24.6448001862
16.5621109009	-0.884565412998	3.49056649208	4.37455558777	15.9814624786	24.4471969604
15.1127996445	-1.7168918848	3.91366648674	4.13952112198	15.6627693176	24.2457485199
13.3284320831	-2.4536421299	3.77808237076	3.91443347931	15.3490600586	24.1774425507
11.8896417618	-3.43088650703	3.24651956558	3.48344683647	15.4304018021	24.0379562378
10.7757635117	-3.90122318268	2.88854622841	3.19961690903	15.0688323975	24.8299884796
10.4708147049	-3.69074678421	2.67659235001	3.76690292358	14.4051151276	27.3430252075
10.4891347885	-3.40439867973	2.92301678658	3.81468081474	14.1430339813	28.9417133331
10.4744682312	-3.13193893433	3.28610062599	3.24116969109	14.0958881378	29.1668758392
10.5652036667	-3.23009467125	3.58481526375	1.87222313881	12.7162027359	27.5545101166
10.4346647263	-3.21648812294	3.61524033546	0.994977414608	10.3564386368	25.1133117676
10.6137866974	-3.29876852036	3.43999028206	0.631825447083	7.91098976135	23.0312900543
10.6646156311	-3.4446849823	3.31952762604	0.483321964741	6.89614725113	21.3291816711
10.5423851013	-3.35536789894	3.25864100456	-0.102291546762	6.54551410675	20.0097751617
9.85744667053	-3.21130871773	3.22730135918	-1.84764540195	6.82327651978	19.3170204163
9.05379581451	-3.2158844471	3.21051979065	-4.96586036682	8.19792938232	18.9091796875
8.48505496979	-3.17174720764	3.27351570129	-7.9652223587	9.59506416321	18.4484901428
7.91036605835	-2.94147396088	3.22535920143	-11.1199150085	11.0554857254	17.7473335266
6.78613758087	-2.74555492401	2.84156632423	-14.0091333389	12.8218126297	17.0398082733
3.50469398499	-2.49721002579	1.70887875557	-13.1640195847	13.4069538116	17.2214603424
0.608838677406	-2.46904444695	1.37937319279	-10.4061822891	13.2577390671	17.7082023621
