28.4101676941	-22.6671619415	15.8032999039	8.89733314514	-11.2603082657	34.7898445129
28.2136363983	-22.7554893494	15.928276062	8.71480369568	-11.0781316757	34.7971992493
28.1773452759	-22.8420505524	15.883310318	8.60405445099	-10.7512388229	34.811542511
28.1307811737	-23.0362930298	15.8058919907	8.27319812775	-10.664144516	34.9821052551
27.9336585999	-23.12748909	15.7511148453	7.84713935852	-10.4430599213	34.8452301025
27.9994697571	-23.1795444489	15.5851736069	7.43805360794	-9.58861446381	34.7396850586
27.7785453796	-23.078754425	15.6267929077	7.09621095657	-8.45166110992	34.9345817566
27.6060752869	-22.9989547729	15.6088962555	7.34262752533	-4.72655963898	34.7728805542
27.5778236389	-23.5023517609	15.5627117157	7.74189567566	-0.637441754341	34.9352912903
27.5769786835	-23.6982364655	15.6270465851	8.08267021179	2.20319199562	35.1363143921
27.5078620911	-23.6179275513	15.7899637222	7.92870187759	4.71674776077	35.4772720337
26.6028385162	-23.1490383148	16.314874649	6.92976045609	8.93508052826	35.7345237732
20.5022449493	-19.4574222565	17.587896347	4.67745637894	15.019742012	35.4294891357
12.5231513977	-13.1433019638	18.9371337891	2.06501817703	21.1292190552	33.8828735352
8.87715911865	-8.53439903259	21.9265842438	0.692180931568	25.4121780396	32.368812561
5.7408156395	-3.26673364639	26.2652339935	1.08257997036	27.8668174744	31.1443881989
2.45977663994	2.53995752335	30.0094203949	1.95099318027	29.2325229645	29.877904892
-0.101355060935	9.6437292099	32.8693161011	2.64416670799	30.6899452209	28.3168182373
-0.91470181942	16.8416309357	34.1698112488	2.89587593079	32.0420570374	26.1665649414
3.21761012077	11.7095909119	28.1478557587	2.09814286232	31.8810749054	23.0724124908
4.28576564789	0.926389634609	27.1818733215	0.922423899174	29.5589427948	19.8126773834
5.31143951416	-6.86468648911	23.8638954163	-0.964405834675	28.0779628754	16.722984314
4.36468410492	-13.5173883438	25.7550601959	-3.13761949539	26.2333774567	14.030248642
3.71691989899	-16.4730262756	26.3407821655	-4.36225652695	24.4102668762	12.3791275024
2.36448311806	-15.5946712494	27.3911170959	-4.51183986664	24.6753540039	11.859790802
1.16605806351	-14.703499794	29.1752758026	-3.81013393402	26.526184082	12.0671329498
0.0403824001551	-11.2141199112	31.3782520294	-3.15442967415	27.256521225	11.9802064896
0.419887423515	0.542960643768	31.1318321228	-2.56550645828	27.3389701843	11.7380151749
-1.91516757011	11.9758768082	31.1740207672	-1.76312744617	27.290140152	11.732003212
-1.92394948006	19.675907135	30.9547729492	-1.16365551949	27.1589260101	11.7957897186
-3.26134443283	26.0227241516	30.2392196655	-0.801845550537	26.9546394348	11.6709213257
0.479720771313	20.1803417206	26.7915725708	-0.481845021248	26.5218677521	11.8152017593
1.21864271164	3.94303321838	27.6863746643	-0.171808153391	26.3591136932	11.829955101
4.30770397186	-7.52191543579	27.2202949524	0.250114202499	26.191947937	11.9176826477
2.97162675858	-17.883890152	30.3461437225	0.540706455708	25.9276924133	11.9169778824
1.13305258751	-26.9240875244	34.0241088867	0.608987569809	25.8214378357	11.9857387543
-1.07519638538	-32.5736351013	38.6506843567	0.416531741619	25.7734336853	12.0355262756
-2.10168933868	-36.2800636292	41.6951408386	0.258492678404	25.6466407776	11.925740242
-3.92446541786	-39.8068656921	45.0278549194	0.285283774137	25.6742668152	11.8788537979
-9.09896373749	-41.6631393433	51.6485443115	0.33268263936	25.7278079987	11.9361724854
-15.0369386673	-43.0032844543	58.5906524658	0.319543212652	25.970746994	11.8394756317
-19.4786453247	-43.1248779297	65.5219650269	0.435502171516	26.0137805939	11.8752412796
-17.698102951	-42.5479888916	64.1632843018	0.535709381104	25.81508255	11.9671545029
-8.40260124207	-40.3336181641	52.3469924927	0.188957229257	25.5626659393	11.9830913544
-8.37005138397	-38.5903282166	53.998462677	-0.156581714749	25.2147521973	12.0122966766
-6.86890172958	-35.785610199	54.7744903564	-0.343255758286	25.4699497223	12.0074090958
-6.06712007523	-33.062587738	57.5613288879	-0.272607296705	25.6189060211	11.9062223434
-3.15183448792	-29.9497489929	56.8727416992	0.00649251695722	25.4214324951	11.7831745148
5.05913305283	-26.9007587433	48.215763092	0.282416731119	25.3814754486	11.6607618332
6.80080699921	-25.3184261322	43.2840080261	0.497724622488	25.3710479736	11.6966590881
0.505997359753	-26.1867465973	47.3495826721	0.71531188488	25.3312473297	11.8678569794
-2.99899315834	-26.7685871124	50.3395690918	0.751950919628	25.4144706726	12.0627660751
-5.69758462906	-27.2343616486	54.10704422	0.775637567043	25.4820327759	12.185095787
-1.92673361301	-27.5730686188	49.6241264343	0.695877373219	25.4720306396	12.2389535904
9.41894721985	-24.4134273529	32.4067687988	0.592808663845	25.4085483551	12.2924289703
16.4518585205	-20.004283905	21.5422534943	0.597838044167	25.3366794586	12.4464130402
17.4937725067	-18.282875061	19.1896362305	0.595154523849	25.2832431793	12.3546695709
13.1407022476	-17.9445400238	22.7854270935	0.891048014164	25.2951030731	12.3818302155
10.8561544418	-15.3405504227	26.1457595825	0.7985689044	25.34466362	12.327249527
9.63871479034	-9.98008728027	28.3767032623	0.710544645786	25.3419876099	12.1667671204
8.434258461	-3.84348511696	28.4544429779	0.88894712925	25.4148521423	12.0572385788
8.07076358795	-1.00134015083	28.7376270294	1.21277368069	25.3878116608	12.2409315109
6.52873802185	3.31924247742	29.0213451385	1.413443923	25.3282394409	12.3653268814
3.04629778862	10.2096071243	31.363451004	1.54503118992	25.3038921356	12.4653263092
3.622392416	6.97806930542	30.7511386871	1.60719692707	25.1761760712	12.5800437927
2.37058138847	-9.72235870361	35.1239738464	1.41866910458	25.3329620361	12.6536979675
-0.0781618505716	-21.0745944977	36.7752723694	1.70309555531	25.5504722595	12.7105169296
-4.88019609451	-26.1266212463	44.070930481	1.7860699892	25.6183681488	12.7202215195
-10.3798513412	-27.3036785126	52.9402389526	1.55435049534	25.6377258301	12.6448202133
-13.4892311096	-26.7604942322	60.349407196	1.62780690193	25.6627902985	12.7578678131
-16.8221187592	-25.4079666138	67.720413208	1.67831218243	25.6550331116	12.7606344223
-18.2095680237	-25.2390575409	69.5457229614	1.76088738441	25.5440998077	12.7937726974
-13.5969324112	-25.0915279388	62.7826690674	1.59011316299	25.4781341553	12.7272167206
-7.50465583801	-22.0684814453	52.4745903015	1.53405332565	25.4514427185	12.6015968323
-5.84624671936	-18.6931400299	48.4707336426	1.45072889328	25.6132297516	12.6086797714
-4.97663354874	-18.2734375	47.0542297363	1.34242904186	25.6856193542	12.575466156
-5.08175897598	-19.2453613281	47.0076179504	1.45759689808	25.6488666534	12.6025505066
-6.4347486496	-22.9598693848	47.5921783447	1.545784235	25.5746231079	12.7267618179
-6.04553556442	-28.0800895691	46.970249176	1.49388802052	25.5915908813	12.8326864243
-6.19619894028	-33.0418167114	47.1826400757	1.51373147964	25.5759334564	12.9534091949
-4.21680164337	-37.5700531006	45.0624809265	1.34366762638	25.6354351044	13.0040922165
-4.29655408859	-41.4448928833	44.8071517944	1.26049053669	25.8462276459	13.0430850983
-6.63710784912	-46.3896141052	46.1663703918	1.25882387161	26.0619106293	13.1131238937
-9.73547649384	-50.520778656	48.3863563538	1.38904237747	26.2065639496	13.1616458893
-12.4363203049	-55.0611228943	51.0275878906	1.50508916378	26.218580246	13.2279424667
-14.9453907013	-58.8673286438	53.152431488	1.44534158707	26.3587493896	13.3027772903
-16.0177688599	-61.1435546875	53.979801178	1.50112390518	26.4384498596	13.383436203
-15.3608798981	-63.0790061951	52.987613678	1.54436254501	26.609205246	13.5965185165
-18.304359436	-63.6328964233	55.4676856995	1.87672436237	26.7893028259	14.1968231201
-18.4140625	-63.7148513794	55.6879768372	2.07925081253	26.8123188019	14.7150478363
-19.1164970398	-64.2600784302	56.2239074707	1.90111494064	27.2804412842	14.9843320847
-18.9380950928	-65.783996582	55.5557518005	1.75213098526	28.3058643341	15.2823638916
-18.4551086426	-66.764755249	54.7615661621	1.71971940994	29.8819561005	15.3603105545
-19.090265274	-66.156211853	55.0835876465	1.90679192543	31.069355011	15.5632257462
-19.0125141144	-64.9099578857	55.3772468567	2.24225282669	31.5526428223	15.5289764404
-17.2665424347	-63.8738212585	53.9679489136	2.79029488564	32.5453643799	15.607708931
-14.8972139359	-63.1033782959	51.6447563171	3.49692058563	34.9093704224	15.9156370163
-13.9211807251	-62.6208381653	50.4965019226	4.21078491211	36.9660072327	16.308681488
-10.7874145508	-61.9278564453	47.0372848511	4.05176734924	37.3239860535	15.9769306183
-10.5870800018	-61.5483818054	46.5831108093	2.11235976219	36.8003425598	13.7484807968
-9.30784320831	-61.3954620361	45.3060150146	-1.78099668026	36.9509239197	11.2046575546
-8.36561012268	-61.3622894287	44.509059906	-5.72678232193	37.0582046509	10.5470638275
-7.61516332626	-60.9288444519	43.6541519165	-6.49496650696	36.6672592163	12.4415502548
-8.65322780609	-60.5849685669	44.6641273499	-4.16309738159	35.4425964355	16.0706920624
-9.47660827637	-61.7428970337	45.273891449	-0.307001829147	33.3524589539	20.4299278259
-9.60233783722	-62.4900894165	44.9153518677	4.3418469429	30.7143383026	25.26720047
-9.30812168121	-62.7392692566	44.3827857971	7.66910648346	28.2191123962	29.7795963287
-9.58789157867	-62.5507278442	44.4825973511	9.20707416534	26.9170284271	32.2660522461
-10.1757726669	-62.2087059021	44.849697113	9.51343536377	26.7606220245	33.1363449097
-11.343085289	-61.52891922	44.9036827087	8.4693403244	27.3003482819	32.3798332214
-11.6643753052	-59.798625946	44.0815391541	6.65390586853	28.2471828461	31.1214904785
-10.4852361679	-59.0611419678	42.7360496521	5.65752267838	29.095495224	31.1569252014
-9.89436244965	-58.3249664307	41.3940467834	4.45225048065	30.39585495	31.0207939148
-9.06604480743	-57.1712150574	38.9433631897	2.46652388573	31.8620128632	30.4014587402
-9.67878723145	-56.6624069214	38.6662902832	1.22298324108	32.6615066528	30.2767906189
-9.58881664276	-56.430847168	37.8484687805	1.38042545319	32.9706878662	31.1488399506
-9.06836223602	-56.3488922119	37.3763885498	-0.578025579453	33.5783691406	30.294342041
-8.93844032288	-56.405292511	37.2990913391	-4.8004617691	34.5810089111	27.1731128693
-8.35526371002	-56.468170166	37.0957183838	-8.11166381836	35.2149620056	24.8538093567
-7.87014770508	-56.4924163818	36.8979606628	-7.5090918541	35.1564369202	25.5321006775
-8.08975410461	-56.4555511475	37.1079788208	-6.22172546387	34.7317352295	26.0804023743
-7.77451705933	-56.3285713196	36.952331543	-5.52720117569	34.3887405396	26.1605224609
-6.43257188797	-55.3572120667	35.5572242737	-5.32155370712	34.195980072	26.1812038422
-3.4308218956	-50.9939002991	29.9666423798	-5.48386859894	34.2033843994	26.2521190643
-3.91802883148	-47.1851348877	28.5110454559	-5.44204616547	34.2478179932	26.4384899139
-4.2811794281	-45.0318946838	28.6494503021	-5.50068569183	34.2511863708	26.4573364258
-4.80588960648	-43.7830429077	29.0457038879	-5.41403865814	34.3169746399	26.5200500488
-6.33953952789	-42.4131469727	30.2194042206	-5.30057287216	34.3967399597	26.369802475
-8.88508224487	-40.4279556274	31.7517089844	-4.98727464676	34.3918609619	26.3498401642
-11.6264305115	-38.3873100281	33.5754737854	-5.01668167114	34.5065498352	26.2249202728
-13.8324184418	-36.6147651672	35.4629249573	-5.02089452744	34.6115036011	26.187456131
-18.1873817444	-34.178691864	41.5601806641	-4.90648031235	34.6264877319	26.1119861603
-19.4884719849	-33.5564002991	46.7927970886	-4.80285692215	34.7490196228	26.02277565
-19.3188800812	-33.5195007324	50.6152763367	-4.64490938187	34.8876075745	26.0027427673
-19.689491272	-35.0607833862	51.8944511414	-4.53483104706	34.9864120483	25.9205951691
-21.3831748962	-39.1588058472	53.1919937134	-4.5611448288	34.9573326111	25.9038448334
-16.9296855927	-45.7063713074	48.9375572205	-4.76614284515	34.8528289795	25.8716545105
-13.0626926422	-53.918296814	41.8153419495	-5.02285528183	34.7699546814	25.8342094421
-15.1290950775	-54.502243042	41.8291473389	-5.08292865753	34.7981567383	25.7929401398
-15.5860052109	-53.404384613	41.3447380066	-4.79268980026	34.9023895264	25.8355903625
-18.281244278	-49.4020385742	40.9464569092	-4.73457527161	35.002746582	25.7891082764
-18.3391132355	-46.8771095276	40.3466835022	-4.79705381393	35.2391242981	25.8493213654
-16.5365409851	-43.2585296631	39.4297637939	-4.81257009506	35.476146698	25.9686527252
-12.3258895874	-36.0101890564	35.2227287292	-4.78793334961	35.6032485962	25.8916187286
-7.26042747498	-29.7321624756	28.9096698761	-4.49881410599	35.6601333618	25.8960266113
-9.268658638	-33.0709571838	31.0576019287	-4.31806135178	35.6368789673	25.9608650208
-13.0837593079	-40.922580719	36.0662155151	-4.4937620163	35.6986045837	25.8902225494
-17.6654491425	-47.8490219116	42.2870826721	-4.36715841293	35.710647583	25.9369392395
-19.9445781708	-52.2598724365	43.8615493774	-4.21343803406	35.7998771667	25.8649711609
-22.3717880249	-55.4719810486	45.5738601685	-4.01545763016	35.8855133057	25.8968143463
-25.0155334473	-58.0436019897	47.7953681946	-3.9787094593	35.9939117432	25.9967155457
-25.6844024658	-58.9099617004	47.3229942322	-3.91514611244	36.2153739929	25.9255867004
-25.1478633881	-58.9290885925	45.2693595886	-3.68717002869	36.2681617737	25.9664649963
-25.8228664398	-57.1801795959	43.9914245605	-3.69318413734	36.3353157043	25.8591899872
-25.8420276642	-54.2658157349	42.8299293518	-3.81124663353	36.5209693909	25.7613811493
-23.9099006653	-48.9090499878	42.0313491821	-3.90530228615	36.6328582764	25.5225753784
-19.8709812164	-40.5934867859	40.7294883728	-3.60012602806	36.7233963013	25.4730072021
-17.2339706421	-32.7276191711	38.9117469788	-3.46976089478	36.6440124512	25.4756984711
-15.8913640976	-27.0034542084	38.2993011475	-3.80474591255	36.4205551147	25.4913806915
-15.3138942719	-29.4617824554	37.7073783875	-4.53237199783	36.4876785278	25.3155269623
-16.2235336304	-36.3982543945	38.3565406799	-3.76708173752	36.64087677	25.5163593292
-16.3321914673	-44.4140625	39.4861030579	-2.90142440796	36.5617408752	25.5556335449
-17.7226467133	-51.708114624	41.3507843018	-2.67578577995	36.5568847656	25.576757431
-20.1907558441	-57.873260498	43.3974571228	-2.74748396873	36.6906776428	25.5982933044
-23.596698761	-62.3367919922	46.0191841125	-2.77067327499	36.5629119873	25.7901821136
-27.9093589783	-66.0251541138	49.3549804688	-2.93677711487	36.5386695862	25.9164333344
-25.4673938751	-59.6817436218	44.7493896484	-2.89958667755	36.5167770386	26.1554355621
-9.39698028564	-42.9774551392	24.4101963043	-3.26540088654	36.5060577393	26.0915050507
-9.11452007294	-30.4920368195	21.1891212463	-3.329631567	36.5996017456	26.1390151978
-7.47801685333	-21.7146682739	19.5726261139	-3.35182857513	36.6430702209	26.0001163483
-8.20849704742	-17.1206912994	20.771730423	-3.28770756721	36.4857635498	25.8896484375
-12.2754974365	-25.2000217438	26.916305542	-3.41728997231	36.4753494263	25.7156162262
-20.1950263977	-38.2949180603	38.1431388855	-3.20298290253	36.6628913879	25.7234802246
-27.342628479	-47.2247543335	47.1667137146	-2.85809540749	36.6861038208	25.7540569305
-29.1193389893	-52.3174591064	48.8467140198	-2.83220911026	36.7356338501	25.8384475708
-30.5926837921	-54.5834503174	49.0455513	-2.99747920036	36.8456840515	25.7766094208
-30.9353866577	-57.0456733704	48.6702728271	-2.98755908012	36.9056129456	25.6120090485
-32.3273124695	-57.5802841187	49.2588233948	-3.00315403938	37.0865097046	25.5210380554
-32.0995407104	-56.35912323	48.0334625244	-2.97292900085	37.3847084045	25.4382038116
-32.0258712769	-54.1745071411	47.376121521	-2.82937026024	37.7373352051	25.4455471039
-28.8573284149	-52.9446907043	44.3469314575	-2.77889251709	37.7336730957	25.4492969513
-23.6816253662	-44.8915939331	40.5832710266	-2.90256786346	37.7378044128	25.2458343506
-18.7236804962	-38.0431137085	36.2183456421	-2.62404441833	37.7284431458	25.1275482178
-17.4546146393	-32.7084541321	35.7547225952	-2.44142532349	37.5637817383	25.1301765442
-12.8473682404	-24.4499816895	32.4650039673	-2.42076277733	37.5261611938	25.0567626953
-11.4389019012	-20.3528308868	32.2765197754	-2.32674503326	37.2561836243	25.1522750854
-11.7377910614	-24.0834293365	32.2091674805	-2.84204244614	36.961933136	24.9524803162
-11.9381170273	-30.9507369995	32.707408905	-2.76005411148	37.1907196045	24.7223434448
-11.4442195892	-37.4974021912	33.425113678	-2.08209323883	37.2568244934	24.6133518219
-12.4513473511	-43.7012557983	34.963760376	-1.74803972244	37.2534713745	24.6245994568
-12.5785646439	-49.0594825745	35.5667648315	-1.69206404686	37.2805747986	24.6428928375
-12.759516716	-52.9553947449	35.8728065491	-1.74757921696	37.2242774963	24.6615791321
-12.7830047607	-55.5901756287	35.3848419189	-1.81292188168	37.1918792725	24.7495517731
-13.3620977402	-57.4800567627	35.2618293762	-1.74132311344	37.2620849609	24.8925914764
-13.3577289581	-58.6566123962	34.6911697388	-1.64136493206	37.2133522034	25.0368270874
-12.8853435516	-58.909866333	33.6927986145	-1.60097312927	36.9612388611	25.0004234314
-14.3573465347	-57.5171051025	34.4400253296	-1.47917246819	36.6335449219	24.9270648956
-10.8290576935	-54.872013092	33.1932411194	-1.56263506413	36.4467735291	24.729883194
-6.59998416901	-52.6752853394	32.2416648865	-1.85550332069	36.3136138916	24.7243766785
-2.83118152618	-50.5731201172	32.8206100464	-2.16655635834	36.2088699341	24.8305988312
0.924446761608	-49.2180175781	32.3138465881	-2.2651116848	36.3184356689	24.93542099
3.31238627434	-48.802822113	32.5466117859	-1.99151194096	36.3371772766	25.0195674896
4.42115306854	-48.543094635	33.150554657	-1.58234190941	36.2348937988	25.0530376434
4.16426897049	-48.2152900696	33.2748374939	-1.30311441422	36.1677093506	25.0342178345
1.81238400936	-47.6425170898	33.4239387512	-1.33438968658	36.3253555298	24.8673381805
-0.884104013443	-46.7472991943	33.4473152161	-1.48365306854	36.4065818787	24.6375312805
-2.46527171135	-45.8302497864	32.8247451782	-1.80101966858	36.4410858154	24.5076446533
-4.39189147949	-44.8342819214	32.2088928223	-1.86838376522	36.5178947449	24.5081691742
-7.3050866127	-43.9633102417	32.0875053406	-1.59443569183	36.6477355957	24.4257698059
-11.9447011948	-42.2432098389	31.9116306305	-1.12136077881	36.6183204651	24.1953105927
-16.6369075775	-41.0313453674	31.1637821198	-0.760170757771	36.5269203186	24.0897827148
-17.9755058289	-40.4396247864	28.1164245605	-0.900670826435	36.5581054688	23.8899536133
-20.9833564758	-40.2192611694	27.610868454	-1.11550617218	36.5543861389	23.8085670471
-23.6964206696	-39.8381881714	27.2427558899	-1.25949144363	36.4356689453	23.7541770935
-22.2318191528	-39.0585784912	26.120470047	-1.50084388256	36.3313407898	23.7218551636
-20.0326251984	-37.7305412292	26.6925945282	-1.52524626255	36.3239593506	23.8896484375
-14.4393186569	-36.6202087402	26.1456375122	-1.525370121	36.2998657227	24.1052398682
-9.07089328766	-35.903755188	26.19181633	-1.43255639076	36.3197441101	24.1645126343
-4.26507902145	-35.5434494019	26.5613307953	-0.87257951498	36.2011070251	24.3574829102
0.339479476213	-36.2080078125	25.6723003387	-0.578992009163	35.7380104065	24.2857666016
0.347614109516	-41.2329978943	26.4433879852	-0.377586960793	35.4036560059	24.0087394714
0.149834766984	-48.9376449585	27.2417945862	-0.216469585896	35.6232910156	24.0392608643
1.33171582222	-55.6662902832	26.7680397034	-0.570521056652	35.8644142151	23.5641403198
0.33470800519	-61.1267051697	26.9420661926	-0.520260691643	36.1603813171	23.2257347107
-4.304292202	-65.3022384644	30.1553459167	0.0870997458696	36.8360977173	23.0187187195
-6.81922388077	-64.9422607422	31.8298416138	0.866693198681	36.609500885	23.05119133
-6.40101242065	-62.5070304871	32.8820152283	1.73294353485	35.9405593872	23.290681839
-3.11390066147	-66.0676651001	29.1625709534	1.74071204662	34.9566459656	23.1403942108
-6.69962263107	-71.6753768921	31.5533370972	1.44062435627	35.1605682373	22.9644031525
-11.1657390594	-74.9062042236	35.4383544922	1.25383687019	35.1076011658	23.0831279755
-7.71257591248	-75.1714096069	32.135093689	1.53759908676	35.1043510437	23.2017707825
-5.62232208252	-70.9021530151	29.5827083588	1.45387637615	34.9051971436	23.2651367188
-1.58434081078	-62.0460777283	26.5297908783	1.03951644897	34.9488792419	22.8267097473
-0.677961468697	-55.6437950134	26.4757003784	0.746706426144	35.2254867554	22.5042228699
-1.6123431921	-50.4697151184	27.2646121979	0.00172549765557	35.8100318909	21.9577713013
-0.906363010406	-44.9547615051	27.6580524445	-0.336678177118	36.0890655518	21.6358566284
0.706808328629	-38.9142456055	26.9366950989	-0.187084630132	35.5851821899	21.5807037354
2.42079854012	-32.5045471191	26.3995742798	-0.214432343841	34.9383010864	21.4276828766
3.59638643265	-26.4186038971	26.5544948578	-0.128470554948	34.3848304749	21.3052215576
3.45307826996	-20.4989719391	26.1241493225	0.279087513685	33.9232826233	21.363609314
3.67498207092	-20.0266475677	26.1749591827	0.296620965004	33.5692176819	21.2667312622
2.95569372177	-25.0771102905	26.5537414551	0.255028516054	33.2463569641	21.2143650055
-0.121722385287	-31.8302555084	28.7938480377	0.299827605486	33.3280525208	21.2108230591
-3.614153862	-36.1078605652	31.4085159302	0.303051292896	33.0583000183	21.091966629
-7.66645336151	-40.7195739746	34.5821762085	0.0997699424624	32.4575538635	20.8681793213
-11.2915563583	-44.8308372498	37.1712112427	-0.274062275887	31.504360199	20.655714035
-13.9895067215	-48.3666801453	39.0664024353	-0.618136525154	30.6499462128	20.4355716705
-17.0523777008	-52.2012290955	41.2068557739	-0.780855953693	30.0196113586	20.4152164459
-21.5149917603	-55.3682327271	44.2806663513	-0.693329393864	30.226644516	20.5045852661
-25.5803356171	-56.4933013916	46.3734359741	-0.297331541777	30.6722393036	20.7091960907
-30.2050170898	-56.8275909424	49.2160949707	-0.291941314936	30.5276660919	20.732175827
-36.5046844482	-56.770072937	53.4879417419	-0.645487487316	30.8198242188	20.6722717285
-44.6122283936	-56.0570259094	59.4882774353	-1.03951656818	31.1645965576	20.8547458649
-46.1831703186	-55.7817840576	60.2685966492	-1.4670188427	31.2159862518	22.0244350433
-45.3354148865	-55.5073318481	60.0376434326	-0.940224945545	31.3263034821	25.7014064789
-46.6059036255	-55.0968055725	61.1608924866	0.268252938986	31.0767669678	28.8737449646
-47.1802825928	-55.1054153442	61.4518470764	1.34230899811	30.5749282837	31.300945282
-46.1846923828	-55.9444389343	59.5751876831	1.55890631676	30.8225231171	32.454624176
-44.2375450134	-57.8719215393	53.7215232849	-0.0224637184292	31.9927349091	31.1035079956
-39.6922492981	-59.7467956543	47.1815414429	-2.62041497231	33.8550415039	28.4600086212
-39.6341247559	-60.081867218	47.2290267944	-5.1321721077	35.9013748169	26.2023944855
-40.5312347412	-59.8783950806	47.8841094971	-6.05872297287	37.0070991516	25.6476535797
-40.7809410095	-59.5070075989	48.4348564148	-5.12971019745	37.0628471375	26.4183139801
-40.7563743591	-59.3425750732	48.6867027283	-4.48201990128	36.2864189148	26.3866539001
-40.3934898376	-59.4797401428	48.3696212769	-4.22679948807	35.9726638794	26.271440506
-39.1473731995	-59.1273574829	47.1321907043	-4.23180389404	35.6910057068	25.9849281311
-38.1395759583	-58.3880653381	46.0668411255	-4.04751062393	35.5005683899	25.94490242
-32.4973640442	-52.8298721313	41.2567481995	-3.78738236427	35.5721588135	25.8905448914
-25.0795059204	-45.8389205933	34.6191482544	-3.46835541725	35.4028320312	25.9457130432
-22.1506328583	-40.2275390625	32.983341217	-3.50089406967	35.1711006165	25.9998054504
-22.060464859	-43.2308883667	33.7041893005	-3.94853997231	35.2999267578	25.8961486816
-25.6177787781	-50.0274848938	37.2137832642	-3.69175982475	35.4491043091	25.9070568085
-28.2620124817	-56.5429649353	40.315322876	-2.94451117516	35.3426208496	25.8258171082
-33.6286125183	-61.6856842041	46.3585128784	-2.69747900963	35.2552070618	25.405500412
-36.6331634521	-64.7455291748	49.8206100464	-2.65685296059	35.1442985535	24.7363128662
-38.8235969543	-66.1229705811	51.3683319092	-2.66175937653	34.8656158447	23.9719944
-41.3928642273	-66.8127212524	54.1006240845	-2.46165275574	35.2033729553	23.2169246674
-42.1828041077	-66.9352035522	56.151309967	-1.80000519753	36.0145950317	22.850025177
-44.4136161804	-66.6461639404	59.5847854614	-1.05045986176	36.3483123779	22.4691619873
-45.0530738831	-67.3413467407	61.5024528503	-0.317300349474	36.362613678	22.2692432404
-44.7718544006	-67.1580886841	61.545715332	0.496468156576	36.7470016479	22.1395378113
-42.8335456848	-67.1231307983	60.1749839783	1.23389112949	37.4766921997	21.774274826
-43.0107040405	-66.7279510498	60.5572090149	1.81110906601	39.6920280457	21.3639717102
-43.9097480774	-66.5808563232	61.7138748169	2.80717372894	42.9609947205	21.4447593689
-43.963634491	-66.6376113892	62.0903129578	4.42118692398	44.9011116028	22.0484142303
-43.710357666	-66.1032180786	61.7296333313	5.70426130295	45.7211990356	22.3955345154
-42.3381004333	-65.8912658691	60.1186790466	6.15673112869	47.1092033386	22.4300365448
-41.7111587524	-65.8245544434	59.1817359924	6.14703798294	49.5697021484	22.282201767
-41.0607032776	-65.4653015137	58.3627891541	6.585978508	50.8645401001	22.3406200409
-40.6730117798	-64.6644515991	57.7969093323	6.84795856476	51.0009536743	22.366312027
-41.036781311	-63.2063369751	59.0449142456	7.33353710175	51.2846870422	22.586648941
-39.3906745911	-61.0979919434	57.8735198975	7.52556848526	51.1947669983	22.4661998749
-33.3933601379	-58.5723571777	50.6279335022	7.37804794312	50.9677238464	22.3618679047
-30.8231563568	-55.9272689819	46.7967147827	7.01130199432	51.1573562622	22.0754356384
-31.8630046844	-56.3235435486	48.8978271484	7.01094865799	51.0386009216	22.0371627808
-38.3026580811	-56.5801315308	58.088054657	7.19775485992	50.8219985962	22.1989173889
-41.7045669556	-56.2064399719	63.4676589966	7.24714136124	50.5791893005	22.0324039459
-44.3436470032	-56.3362236023	67.1941604614	7.15186929703	49.4082260132	21.8287849426
-45.2348899841	-57.715385437	67.6176223755	6.56967735291	47.8178901672	21.3220272064
-51.0208816528	-59.4412841797	71.0287628174	4.94373559952	46.7648162842	20.2608318329
-56.9150505066	-60.4681015015	75.630027771	2.8346760273	46.2612075806	19.0993556976
