-83.8299331665	-12.2673435211	129.638320923	7.27775859833	1.25649559498	0.617733299732
-83.826789856	-12.1276073456	129.713745117	7.42560625076	1.41156923771	0.514541268349
-83.7373809814	-12.1829023361	129.70803833	7.4553232193	1.35954713821	0.497575491667
-83.9292678833	-12.1307115555	129.758590698	7.29218959808	1.21765804291	0.628639996052
-83.9852523804	-12.0791482925	129.725967407	7.45048713684	1.06374335289	0.67834597826
-84.1263885498	-12.1256427765	129.901367188	7.54087781906	0.997086048126	0.795095145702
-84.353553772	-11.9356193542	129.599746704	7.67624187469	-0.845764040947	0.782091379166
-84.3818511963	-10.7547454834	127.998497009	9.14455318451	-8.7912273407	-0.159468188882
-81.9955673218	-7.76409387589	131.859390259	11.856595993	-14.7006959915	-1.51645326614
-75.4496841431	-7.27438688278	141.930282593	14.0220680237	-15.5203294754	-2.47562050819
-69.4934692383	-10.3573694229	152.683914185	14.8869762421	-16.1690177917	-3.0172290802
-63.7014389038	-17.5265045166	163.653060913	14.6961154938	-15.3548679352	-3.38531017303
-58.8078117371	-30.1127948761	167.189666748	14.6230354309	-13.9154310226	-3.29171872139
-55.2343978882	-39.9441795349	163.90788269	14.4045505524	-12.3216056824	-3.23370742798
-49.4888153076	-36.1222953796	149.669265747	14.569726944	-8.48671150208	-3.40490341187
-47.7446556091	-26.2990760803	137.249038696	14.3065490723	-2.15940785408	-3.10186123848
-49.922039032	-23.9670944214	126.365333557	13.5890607834	1.38289701939	-3.65159440041
-51.4043540955	-21.3121910095	113.488761902	12.9517726898	3.03774213791	-4.26314306259
-53.5490913391	-18.50207901	100.233131409	12.2629528046	3.90644097328	-4.73597717285
-58.4186553955	-14.4214525223	92.042137146	12.3592176437	2.43062949181	-5.21432304382
-61.9144973755	-13.1658411026	87.2333068848	13.4989566803	1.24430334568	-5.61960268021
-60.7824440002	-11.2683134079	82.5942459106	14.5608291626	0.0471923239529	-5.38223695755
-58.5852584839	-5.18230962753	78.7752151489	14.9035463333	-1.03890192509	-4.61885881424
-55.0902099609	2.52315187454	75.9004821777	14.6844100952	-2.76356577873	-3.96118831635
-47.1566047668	12.2481594086	70.5188140869	14.6593179703	-3.46161222458	-3.09149599075
-36.672706604	19.9755744934	63.5880775452	15.1417016983	-4.28968858719	-2.24402427673
-20.4890613556	26.833864212	49.9567375183	15.556139946	-5.10426473618	-2.14214038849
-11.5664663315	31.6676368713	56.7942771912	16.6691493988	-5.25136089325	-1.88105690479
1.20547568798	34.1558761597	62.5655899048	16.8675994873	-5.62070608139	-1.68820989132
12.2632246017	33.2712402344	66.5068511963	16.5717506409	-6.1046423912	-1.22616875172
15.0334825516	29.0984325409	69.1271591187	16.5321750641	-6.95157814026	-0.235223054886
13.7886009216	27.9144287109	70.5351715088	15.8584280014	-8.45250988007	1.83550441265
12.1977720261	26.9515399933	70.2442779541	14.6232233047	-9.38368701935	3.16256785393
10.6610813141	25.3154983521	69.6189804077	14.7680301666	-11.9233407974	3.42603683472
9.59590816498	23.0445957184	68.8994827271	14.6539974213	-13.4535055161	2.97963142395
7.77137851715	21.5396499634	68.4638442993	14.5094451904	-14.1176967621	3.68495464325
6.56276607513	20.748872757	67.9880218506	13.620511055	-15.8580646515	3.99859571457
5.5522518158	19.7955379486	68.6564254761	13.6233186722	-17.0624694824	4.2060713768
5.05734300613	17.9462509155	68.9124221802	14.3017511368	-17.8227214813	3.53288698196
4.81297540665	14.9209012985	67.9477539062	15.6626253128	-19.1691246033	2.77292871475
3.2140481472	13.7778949738	67.0007476807	15.8877878189	-20.9491596222	2.39201140404
2.21168088913	12.5613384247	66.7216949463	15.4672813416	-23.0729045868	2.51828432083
1.64143788815	10.8215837479	66.6153030396	16.3402786255	-24.3026790619	1.27294123173
