0.0611617565155	1.02446460724	-0.196991682053	-0.159541130066	1.59363901615	-0.33101606369
0.062112569809	1.02758598328	-0.196122288704	-0.159952163696	1.5934497118	-0.32999753952
0.0609114170074	1.02721595764	-0.195439815521	-0.160448789597	1.59326267242	-0.329345941544
0.0595874786377	1.02690720558	-0.195408582687	-0.1615691185	1.59355711937	-0.328692674637
0.0573525428772	1.02687263489	-0.194513559341	-0.166803836823	1.59612822533	-0.327799797058
0.0543215274811	1.02700328827	-0.193657159805	-0.176438093185	1.59937775135	-0.328118562698
0.0549621582031	1.02632069588	-0.191257953644	-0.185664892197	1.601385355	-0.329440116882
0.0537729263306	1.02537631989	-0.188688755035	-0.192028999329	1.60265171528	-0.330487847328
0.0518436431885	1.02365970612	-0.185489654541	-0.195073127747	1.60473120213	-0.331369876862
0.0511538982391	1.01885485649	-0.179429292679	-0.198441982269	1.60800802708	-0.333699464798
0.0576610565186	1.01189351082	-0.175266265869	-0.20321726799	1.61307871342	-0.339702367783
0.081803560257	0.990831851959	-0.15890789032	-0.205133914948	1.61649394035	-0.34644985199
0.0869858264923	0.988905668259	-0.155791044235	-0.203683376312	1.61764323711	-0.351094603539
