0.0	-0.0	139.915664673	-100.678657532	47.5427932739	-167.881652832
0.0	-0.0	138.67489624	-99.3887329102	47.9301376343	-167.83682251
0.0	-0.0	116.246818542	-99.7587356567	45.7054634094	-167.633529663
0.0	-0.0	93.3360137939	-102.505752563	35.9563751221	-165.826644897
0.0	-0.0	91.5165557861	-106.860786438	19.4492206573	-163.918991089
0.0	-0.0	91.0893325806	-109.055686951	16.3692550659	-163.646484375
0.0	-0.0	93.1687088013	-108.20942688	22.9520530701	-164.024688721
0.0	-0.0	87.6113967896	-108.580429077	36.2551879883	-164.692062378
0.0	-0.0	76.4635543823	-110.868499756	47.2574691772	-163.565719604
0.0	-0.0	67.6885223389	-112.613426208	52.2714729309	-163.514511108
0.0	-0.0	70.0099868774	-114.180671692	54.1914405823	-164.704055786
0.0	-0.0	72.2379379272	-115.110084534	55.498134613	-164.573684692
0.0	-0.0	70.1458511353	-114.590522766	57.8443374634	-163.717926025
0.0	-0.0	68.4157714844	-114.980712891	61.2280540466	-161.933288574
0.0	-0.0	67.6772918701	-117.3384552	64.2353210449	-160.118408203
0.0	-0.0	68.5554275513	-119.299194336	66.5970230103	-158.877304077
0.0	-0.0	68.7523803711	-119.413551331	69.4319229126	-158.915344238
0.0	-0.0	68.6711120605	-119.355354309	72.0315628052	-159.453445435
0.0	-0.0	69.0677108765	-121.190864563	72.6986160278	-159.465805054
0.0	-0.0	73.8211898804	-123.04158783	71.7269058228	-159.447891235
0.0	-0.0	82.1899414062	-123.152412415	71.4264373779	-159.540023804
0.0	-0.0	87.0208740234	-122.207962036	72.6824569702	-160.306564331
0.0	-0.0	86.9194259644	-121.584106445	72.8093109131	-160.790557861
0.0	-0.0	85.2705612183	-121.786766052	74.6474990845	-161.260772705
0.0	-0.0	80.7930831909	-122.526863098	76.4376525879	-161.498260498
0.0	-0.0	84.2167434692	-123.614654541	79.5604095459	-162.413635254
0.0	-0.0	87.3592910767	-124.264076233	84.7064285278	-163.630722046
0.0	-0.0	89.1018600464	-123.392425537	88.8362426758	-164.878601074
0.0	-0.0	90.2243652344	-122.461143494	88.7353363037	-165.553222656
0.0	-0.0	90.3902893066	-124.425666809	88.0806655884	-165.542907715
0.0	-0.0	89.9721603394	-124.936279297	88.5405578613	-165.243438721
0.0	-0.0	89.0419235229	-124.042648315	88.9468917847	-165.972366333
