-21.3238773346	-54.8865661621	139.682235718	8.56270694733	0.155670061707	0.54619383812
-21.7584609985	-54.7240104675	139.929473877	8.62056541443	0.12591727078	0.58377301693
-21.7108802795	-54.8563919067	139.820602417	8.57436466217	0.105364501476	0.738111793995
-21.8741874695	-54.6012916565	139.486785889	7.86462926865	0.0500511787832	0.949366033077
-21.1571311951	-54.1811637878	137.267486572	6.18731880188	-0.0435975044966	1.55149805546
-22.3138942719	-53.6700668335	137.453414917	4.56706237793	0.281524240971	2.1931347847
-22.9075641632	-53.3213424683	137.435165405	3.3401529789	1.05259430408	2.70507025719
-23.2332859039	-52.6766242981	136.949920654	2.26796317101	1.51256167889	3.15920901299
-23.9413814545	-52.2002296448	137.265625	1.98032796383	1.90967202187	3.42232871056
-22.9711952209	-51.8336105347	135.177978516	2.37515616417	2.08923482895	3.59760832787
-16.9071769714	-49.5825271606	117.289009094	2.46825051308	1.51292073727	3.58685851097
