0.0	-0.0	130.707626343	-111.120880127	89.1070785522	-178.593826294
0.0	-0.0	132.437988281	-110.678092957	88.9893569946	-178.452804565
0.0	-0.0	129.869049072	-109.451393127	87.809463501	-177.682434082
0.0	-0.0	127.55178833	-108.901123047	86.9406051636	-177.591537476
0.0	-0.0	120.441307068	-109.408882141	86.6611404419	-177.317337036
0.0	-0.0	120.253387451	-116.449188232	88.4297637939	-175.49546814
0.0	-0.0	120.608314514	-125.26096344	89.200553894	-172.831237793
0.0	-0.0	117.372566223	-129.999847412	88.8296127319	-170.599502563
0.0	-0.0	117.91394043	-130.43081665	88.0987091064	-170.51008606
0.0	-0.0	118.132698059	-129.370635986	87.1887054443	-170.088623047
0.0	-0.0	116.753807068	-128.85244751	87.0630874634	-169.71824646
0.0	-0.0	97.0125045776	-129.008239746	87.7718658447	-169.652557373
