-12.6448631287	1.55943143368	44.2540817261	0.742270052433	6.05506372452	-33.7944450378
-12.7626571655	1.24202525616	44.1987915039	0.688999533653	6.0934138298	-33.8247909546
-12.8797740936	0.943226754665	44.245639801	0.515225112438	6.1212477684	-33.8017959595
-12.7161016464	0.58147585392	43.5794868469	0.0693745315075	6.86559104919	-33.6393089294
-13.4564094543	0.952056407928	42.4748840332	-0.594381093979	7.76700973511	-33.0163764954
-15.1560850143	0.830881953239	40.2635040283	-1.5985840559	8.80361366272	-31.8276462555
-19.9262714386	0.556454718113	35.6722412109	-2.30541133881	9.46364307404	-30.829788208
-25.2765731812	0.213725998998	29.2478084564	-2.58719801903	9.88718605042	-29.924325943
-29.9634799957	-1.41096746922	25.0372657776	-3.15672826767	10.4323797226	-29.282289505
-32.0137290955	-4.07166147232	23.4480056763	-3.09789299965	10.7950315475	-28.3564529419
-33.3891525269	-4.77307415009	22.0143260956	-3.00800037384	11.0736036301	-27.5100841522
-35.4786682129	-5.77790307999	19.0439567566	-3.26181435585	11.0530805588	-27.1177158356
-37.8059768677	-6.10139608383	16.8564910889	-3.24073457718	11.1239557266	-27.120300293
-37.2048149109	-6.1941986084	18.9267787933	-3.10558152199	11.500670433	-27.0725059509
-35.563293457	-5.98594427109	21.4638805389	-3.14654898643	11.5150508881	-27.0817050934
-37.9266281128	-6.09198522568	18.189081192	-3.02537155151	11.679400444	-27.2445392609
-40.448261261	-7.71657943726	12.0186824799	-3.22032809258	11.8489809036	-27.2602500916
-43.4196853638	-6.50430345535	9.90314006805	-4.14135789871	11.887295723	-27.1955051422
-42.0815086365	-3.88218545914	13.8070850372	-4.72481536865	12.1585655212	-26.7428741455
-41.2584075928	-4.67043972015	13.5080385208	-5.46452999115	12.5021543503	-24.1922454834
-42.2051773071	-5.3762254715	11.848274231	-6.6730890274	13.7151908875	-19.1173915863
-41.6830596924	-5.91789913177	10.91447258	-7.36155462265	15.3236484528	-14.0961236954
-40.4979629517	-5.92392396927	10.2847204208	-6.98242139816	16.2749385834	-11.706612587
-38.9843063354	-5.29602098465	9.73501586914	-5.36191511154	17.0565891266	-12.4419574738
-33.3409729004	-4.41592311859	6.62617635727	-4.09836006165	17.6144504547	-13.276096344
-30.7756996155	-5.34460449219	3.60770797729	-3.98229503632	17.8974628448	-13.7825365067
-31.023191452	-6.46749019623	1.60110902786	-4.10581111908	18.4630489349	-14.4020786285
-31.7632369995	-6.23976421356	1.20823431015	-4.32030487061	18.5250892639	-14.8354997635
-31.8252029419	-6.08719110489	1.32468628883	-4.56566476822	18.6290283203	-14.8828239441
-31.6980857849	-6.11263275146	1.85150814056	-4.47095775604	18.7623653412	-14.9411306381
-30.6129360199	-6.75487089157	3.71370959282	-4.53720712662	18.750164032	-15.0134325027
-29.0812397003	-8.87358570099	11.0047578812	-4.43175697327	18.7515525818	-14.9607620239
-28.1455135345	-9.40479278564	16.7291908264	-4.17084217072	19.1439609528	-14.7803525925
-26.2368907928	-8.90124511719	12.6930084229	-3.89528870583	19.2724189758	-15.0012626648
-26.2428226471	-7.2400636673	8.72081756592	-3.45669531822	18.9358177185	-15.2260398865
-28.1493301392	-5.39590787888	8.84965801239	-3.34914469719	18.8921279907	-15.1591644287
-29.6021099091	-4.2155547142	14.7659482956	-3.39392614365	18.4794178009	-14.7283287048
-28.2843608856	1.41109061241	14.8866729736	-2.92276906967	18.6019134521	-14.2901268005
-27.4433784485	4.71989393234	14.9304285049	-2.40624046326	18.7752685547	-14.3890790939
-26.6883335114	3.00442314148	16.2625274658	-2.42698335648	18.3278751373	-14.6932229996
-26.1472816467	1.93254077435	19.2441082001	-2.12539887428	18.139585495	-14.9859209061
-26.7451343536	0.689349114895	20.293466568	-1.7968993187	18.0653305054	-15.2000865936
-27.1644001007	0.55015796423	20.193780899	-1.61962604523	17.9385261536	-15.4159326553
-27.5753364563	0.235017538071	20.2795829773	-1.51601982117	17.7704563141	-15.4630441666
-27.9026088715	-1.23146128654	22.3797492981	-1.48632025719	17.8370456696	-15.5232124329
-25.7582263947	-0.295231133699	18.8625583649	-1.42429816723	17.9008750916	-15.5715112686
-25.2175827026	2.00027775764	18.6478805542	-1.26513826847	17.9612541199	-15.6230382919
-25.167930603	1.96524643898	18.8849182129	-1.19853436947	17.8775615692	-15.6928138733
-26.3693714142	1.50825607777	19.1929225922	-1.027099967	17.7632827759	-15.7193956375
-26.3619861603	1.35738480091	18.5963420868	-0.906535148621	17.680185318	-15.804274559
-26.2535266876	0.53518974781	19.0881748199	-0.74411803484	17.6792011261	-15.9423122406
-26.7926750183	0.253158003092	22.6784992218	-0.594740748405	17.5326347351	-16.0751647949
-27.1878452301	0.525746166706	27.4799060822	-0.398850262165	17.4913730621	-16.2616500854
-26.0555076599	2.4356815815	28.8395652771	-0.25510212779	17.5306453705	-16.3168888092
-25.891330719	1.97751498222	27.4333972931	-0.321523547173	17.4051361084	-16.5546112061
-22.7643890381	1.74001801014	20.050567627	-0.235042512417	17.4622020721	-16.6096076965
