0.0	-0.0	133.031936646	65.2274703979	88.3913803101	-7.72862911224
0.0	-0.0	135.753509521	63.8645477295	88.9764938354	-7.4071855545
0.0	-0.0	137.425216675	62.9005661011	88.9553070068	-6.67447328568
0.0	-0.0	135.884017944	62.5288734436	89.0893630981	-6.18353843689
0.0	-0.0	135.345932007	62.0722312927	87.8617324829	-6.10531616211
0.0	-0.0	137.119567871	60.9140853882	79.4780273438	-6.0514793396
0.0	-0.0	136.174575806	59.0204162598	66.0768127441	-5.05352497101
0.0	-0.0	134.830337524	57.5836906433	52.9573402405	-4.72649097443
0.0	-0.0	134.127853394	58.7813949585	40.8627243042	-7.57277536392
0.0	-0.0	134.133850098	61.4695510864	33.4694366455	-10.9601745605
0.0	-0.0	132.834625244	62.4833831787	27.5013427734	-12.4510211945
0.0	-0.0	121.906517029	63.088760376	19.2254161835	-12.722325325
0.0	-0.0	77.9121856689	65.175201416	13.598900795	-13.950047493
0.0	-0.0	61.7553634644	66.0478439331	10.8612861633	-14.901763916
0.0	-0.0	77.573059082	65.600769043	11.5310058594	-14.3839006424
