-0.00736236572266	1.0381500721	-0.0219979286194	-0.208792924881	1.58554124832	-0.139436483383
-0.00819802284241	1.03773880005	-0.0215544700623	-0.209269285202	1.58519089222	-0.138218283653
-0.0100972652435	1.03291797638	-0.0181465148926	-0.20999288559	1.5851931572	-0.136846184731
-0.025794506073	1.01256537437	-0.00635600090027	-0.211917877197	1.58554470539	-0.135761737823
-0.0343482494354	1.01297783852	-0.0139424800873	-0.212035655975	1.59106564522	-0.136937856674
-0.0368976593018	1.01086974144	-0.01118683815	-0.210250854492	1.59882187843	-0.14164185524
-0.0357894897461	1.00630521774	-0.00278210639954	-0.209240674973	1.6045717001	-0.147441744804
-0.0306997299194	1.00962495804	0.000120282173157	-0.208431243896	1.60704350471	-0.151355028152
-0.0294365882874	1.01124095917	0.00350439548492	-0.207845687866	1.60803985596	-0.153229951859
-0.00818395614624	0.999495506287	0.0211493968964	-0.207943677902	1.61153149605	-0.155439376831
0.0168037414551	0.961353778839	0.03191447258	-0.209263563156	1.61686420441	-0.161381483078
0.00528454780579	0.951377630234	0.0292814970016	-0.210374116898	1.61887311935	-0.166772484779
-0.00301313400269	0.950136184692	0.0255446434021	-0.210098981857	1.61871302128	-0.1688798666
-0.000741004943848	0.976806640625	0.0217549800873	-0.208988666534	1.61843860149	-0.170141935349
-0.00510311126709	0.995103597641	0.0202624797821	-0.207633495331	1.61901962757	-0.170916557312
0.00774931907654	0.99923157692	0.0226051807404	-0.20679807663	1.61874377728	-0.17098236084
0.0326678752899	0.982601881027	0.0280445814133	-0.206457614899	1.61900365353	-0.171279788017
