0.0	-0.0	141.7084198	-85.5973510742	73.8696517944	-169.462234497
0.0	-0.0	140.652267456	-86.1728668213	74.0930023193	-169.28503418
0.0	-0.0	140.873703003	-86.26978302	73.9700775146	-169.408935547
0.0	-0.0	141.072799683	-85.9777755737	74.5653381348	-169.498977661
0.0	-0.0	136.052566528	-79.9387741089	75.9197463989	-170.336776733
0.0	-0.0	128.540313721	-67.9388504028	76.1968383789	-171.232681274
0.0	-0.0	129.944137573	-60.8866157532	76.5041046143	-172.181991577
0.0	-0.0	125.661109924	-59.1669311523	76.784072876	-173.255386353
0.0	-0.0	123.151069641	-59.627986908	76.6327514648	-173.255187988
0.0	-0.0	101.60459137	-60.1847648621	76.5867385864	-172.862426758
0.0	-0.0	78.5067825317	-60.6812744141	77.0686416626	-172.829238892
0.0	-0.0	84.3057403564	-61.5379676819	77.8381195068	-172.94052124
0.0	-0.0	91.093421936	-61.6325340271	78.2286987305	-172.780258179
0.0	-0.0	99.1335296631	-62.018196106	78.382598877	-172.301559448
0.0	-0.0	112.713806152	-63.1750411987	78.871131897	-172.082778931
0.0	-0.0	126.598007202	-63.7443771362	80.2150650024	-171.762878418
0.0	-0.0	105.146911621	-64.4838027954	80.8041152954	-171.238861084
0.0	-0.0	72.98487854	-65.6376037598	81.4228973389	-171.498184204
0.0	-0.0	95.5985107422	-66.0299682617	82.0751190186	-171.75668335
0.0	-0.0	95.6092376709	-65.3351364136	82.0043945312	-172.287582397
0.0	-0.0	117.417198181	-65.4485855103	83.0540924072	-171.501754761
0.0	-0.0	136.282821655	-66.5105819702	83.7022476196	-171.818908691
0.0	-0.0	120.692985535	-66.359336853	83.8105621338	-171.565109253
