0.0	-0.0	143.061721802	77.3505935669	86.3236999512	6.84319543839
0.0	-0.0	142.794281006	77.1014633179	86.2847900391	7.12030744553
0.0	-0.0	142.81262207	76.9555664062	86.4213638306	7.01435232162
0.0	-0.0	142.733337402	77.2549972534	86.2880249023	7.0350022316
0.0	-0.0	143.147598267	79.2148971558	81.2124557495	6.49055051804
0.0	-0.0	142.879333496	82.3337631226	70.7301177979	6.73150014877
0.0	-0.0	142.935638428	85.3234634399	58.2912559509	5.9767870903
0.0	-0.0	141.948623657	87.0276489258	46.1010513306	4.78668546677
0.0	-0.0	141.695114136	89.5613861084	35.4259033203	2.44061803818
0.0	-0.0	141.241912842	92.7108612061	29.6372928619	0.462415277958
0.0	-0.0	139.107330322	95.119682312	26.5706539154	-0.723625719547
0.0	-0.0	125.998245239	96.281036377	24.6965789795	-1.47916567326
