-44.6807823181	-52.5342597961	138.739746094	8.58690738678	-1.78681063652	0.162602305412
-44.2868652344	-52.5547485352	138.406448364	8.30466556549	-1.1268389225	0.380823671818
-44.0855712891	-52.8565139771	138.351745605	8.11553668976	-1.05955266953	0.424622327089
-44.9145965576	-53.5811920166	140.044433594	8.23015880585	-1.06083071232	0.530574977398
-43.0709037781	-54.5510826111	138.330230713	8.09451389313	-2.58645582199	0.503854930401
-47.3280906677	-53.4084434509	140.978546143	7.43031549454	-8.23579120636	0.496512621641
-47.6299171448	-53.1393356323	141.048690796	7.16858100891	-13.1234474182	0.863243401051
-47.0612182617	-52.7209587097	140.362014771	7.59663105011	-17.1386146545	0.274047285318
-46.5767745972	-52.6771240234	140.020080566	8.61594963074	-20.0247020721	-0.92151337862
-46.4659080505	-52.9809188843	140.074798584	9.09574127197	-22.2380561829	-1.74048006535
-46.3176116943	-53.4192886353	140.095489502	9.58793258667	-24.8737506866	-2.907091856
-46.9348754883	-53.6395263672	140.800643921	9.93190479279	-26.635099411	-3.85373091698
-47.6018676758	-54.6226882935	141.717346191	9.95536422729	-27.8796215057	-4.09273576736
-48.9089927673	-55.5706329346	143.089096069	10.135515213	-28.9138145447	-4.33729362488
-47.7921676636	-56.1867294312	140.458450317	10.4138946533	-29.8846435547	-4.60174369812
9.96328449249	-45.592880249	64.9038085938	10.4522218704	-30.6458950043	-4.3077287674
41.2094268799	-33.2240028381	41.8499145508	10.1077785492	-30.8689899445	-3.99123382568
15.7189922333	-51.3738975525	70.8623428345	10.0963954926	-30.5531387329	-3.6885175705
2.8540725708	-49.2771492004	85.1504440308	10.1783733368	-29.8540401459	-3.61592292786
-10.7906036377	-49.6958084106	99.4199523926	9.93398189545	-28.6231498718	-2.97554135323
-20.9273891449	-48.8191413879	108.690330505	10.3518228531	-27.3992843628	-3.23642635345
-22.5605239868	-50.9080429077	114.634208679	10.7655916214	-27.1699943542	-3.28937530518
34.7117538452	-56.3665924072	67.3409881592	10.7324590683	-27.8965682983	-3.37127828598
34.067150116	-63.4418907166	77.1685409546	10.9899377823	-28.4870071411	-3.48668622971
14.3366641998	-65.1086273193	93.0807113647	11.523853302	-28.7810935974	-4.00092697144
-5.83528804779	-65.7883834839	112.083030701	11.8358097076	-28.5427799225	-4.0566649437
-28.2020950317	-66.8591842651	133.647354126	12.392285347	-28.648973465	-4.37466621399
-6.81233501434	-67.1992950439	108.120986938	13.4783763885	-29.8473148346	-4.80969142914
