-0.00740361213684	0.975157737732	0.173758864403	-0.203276157379	1.5926861763	0.0207285881042
-0.00905227661133	0.969507932663	0.174239993095	-0.20227265358	1.5923178196	0.022093296051
-0.0139074325562	0.944154500961	0.182918071747	-0.200814962387	1.59018802643	0.0240380764008
-0.0331161022186	0.942396402359	0.161510705948	-0.198643684387	1.582431674	0.0273454189301
-0.0409891605377	0.932883739471	0.144233226776	-0.198627710342	1.5735270977	0.0325992107391
-0.0353791713715	0.930207252502	0.139678955078	-0.203372001648	1.5737426281	0.0363291501999
-0.0277652740479	0.927127838135	0.144135832787	-0.212381362915	1.5773011446	0.0374408960342
-0.0307774543762	0.928361177444	0.149775147438	-0.221894025803	1.58011162281	0.0366053581238
-0.0359797477722	0.92848944664	0.1585688591	-0.235519886017	1.58360123634	0.0325183868408
-0.0401046276093	0.929540634155	0.170114278793	-0.247227907181	1.58777296543	0.024570941925
-0.0481600761414	0.931370019913	0.182853102684	-0.249344348907	1.59007251263	0.0183877944946
-0.0577728748322	0.94059586525	0.195690870285	-0.248278856277	1.59059715271	0.0159909725189
-0.0700688362122	0.943939208984	0.196510434151	-0.248295307159	1.59137177467	0.0151739120483
-0.0763349533081	0.942896366119	0.196542024612	-0.248874187469	1.59190690517	0.0157510042191
-0.0784239768982	0.941604852676	0.198216557503	-0.250036001205	1.59280014038	0.0162111520767
-0.0798013210297	0.940836191177	0.201652526855	-0.251395702362	1.59426915646	0.0161335468292
-0.0822186470032	0.941899299622	0.206133842468	-0.252606630325	1.595749259	0.0151052474976
-0.0839583873749	0.945262432098	0.211251735687	-0.253072023392	1.59801054001	0.0131191015244
-0.0898079872131	0.948176383972	0.213485836983	-0.252743005753	1.6003177166	0.0105175971985
-0.0939548015594	0.950631856918	0.218623876572	-0.252983808517	1.60154914856	0.00873923301697
-0.0974218845367	0.953133106232	0.220837116241	-0.254415512085	1.60217785835	0.00774359703064
-0.0980460643768	0.939518928528	0.235231041908	-0.256098508835	1.60229682922	0.00764524936676
-0.098073720932	0.948038578033	0.242926120758	-0.257655858994	1.60283899307	0.00848281383514
-0.101776599884	0.960631370544	0.231853604317	-0.257789850235	1.6025441885	0.0100400447845
-0.099410533905	0.957324266434	0.228791952133	-0.256898880005	1.60157310963	0.0123295783997
-0.0980432033539	0.952677249908	0.224948406219	-0.25651717186	1.60091590881	0.0145761966705
-0.0911855697632	0.932327032089	0.242183208466	-0.256761550903	1.60056722164	0.0162596702576
