-0.0537033081055	0.99884057045	-0.206070184708	-0.130651950836	1.57695233822	-0.343895077705
-0.054948091507	0.998581886292	-0.206493973732	-0.13077044487	1.57761240005	-0.344072937965
-0.0544323921204	0.99915266037	-0.205749034882	-0.131761550903	1.57771718502	-0.343438267708
-0.0524115562439	0.998289585114	-0.206954360008	-0.135327100754	1.58172392845	-0.341944217682
-0.0533270835876	0.992883443832	-0.212090373039	-0.1404774189	1.59180819988	-0.342483043671
-0.0549049377441	0.988077878952	-0.216657280922	-0.144703388214	1.60171234608	-0.344348192215
-0.0542554855347	0.984122037888	-0.220819473267	-0.147806882858	1.61018037796	-0.346774578094
-0.0539793968201	0.977672815323	-0.22670006752	-0.147678375244	1.61563873291	-0.350314378738
-0.0492768287659	0.96808218956	-0.228412151337	-0.145324468613	1.61779952049	-0.35437977314
-0.0374615192413	0.952929258347	-0.225698709488	-0.143382072449	1.61755347252	-0.357815504074
-0.0231697559357	0.94540143013	-0.221474170685	-0.141702413559	1.61684942245	-0.360843420029
-0.00992131233215	0.94530415535	-0.216577291489	-0.139464855194	1.61661779881	-0.363631010056
-0.00426340103149	0.946353912354	-0.216880321503	-0.136904716492	1.61685752869	-0.366103410721
0.00156712532043	0.944945812225	-0.214664578438	-0.134296417236	1.61797630787	-0.367660164833
0.00486421585083	0.940791845322	-0.211683511734	-0.131229162216	1.61836504936	-0.367790222168
0.0119001865387	0.956722736359	-0.199983000755	-0.128931522369	1.61858665943	-0.366535902023
0.0202770233154	0.970998287201	-0.191245079041	-0.12738275528	1.61912381649	-0.36524438858
0.0190205574036	0.976142406464	-0.190616369247	-0.126149177551	1.6194627285	-0.363796710968
0.00824284553528	0.972430944443	-0.196536540985	-0.125234365463	1.61993563175	-0.36263859272
-0.00990271568298	0.965100288391	-0.20744740963	-0.124427556992	1.62026870251	-0.361877918243
-0.00581932067871	0.982716560364	-0.193324565887	-0.123052358627	1.62062585354	-0.361000537872
0.000180959701538	1.00127100945	-0.18304681778	-0.121384859085	1.62062609196	-0.360357761383
0.000411510467529	1.01163387299	-0.182070970535	-0.120004892349	1.62094449997	-0.359922170639
-0.00105142593384	1.00841140747	-0.184177875519	-0.119665622711	1.6211411953	-0.3600461483
0.00109720230103	1.00120997429	-0.184329152107	-0.119629383087	1.621540308	-0.359702348709
0.00756764411926	0.99553155899	-0.180795311928	-0.119324445724	1.62153160572	-0.359657526016
0.0256328582764	0.996146202087	-0.171646118164	-0.11883687973	1.62161743641	-0.359557390213
0.0198149681091	1.00006055832	-0.173742294312	-0.118591547012	1.62212359905	-0.359629869461
0.0169332027435	1.00289416313	-0.175015449524	-0.118270874023	1.62242352962	-0.359394073486
0.0169377326965	1.00602149963	-0.173909187317	-0.118359327316	1.62265026569	-0.358683228493
0.0151977539062	1.00589752197	-0.17320394516	-0.118525028229	1.62289941311	-0.357923746109
0.012629032135	1.00562310219	-0.173768997192	-0.118521213531	1.62336838245	-0.356490850449
0.0167894363403	1.00977945328	-0.171782255173	-0.118837833405	1.62354397774	-0.355103731155
0.0260982513428	1.01787161827	-0.167688965797	-0.11912560463	1.62356507778	-0.354018211365
0.0175347328186	1.02413439751	-0.171266317368	-0.118633747101	1.62349081039	-0.352859973907
0.0112042427063	1.02395677567	-0.172844648361	-0.118052959442	1.62355005741	-0.352077364922
0.0118675231934	1.0250749588	-0.17157959938	-0.11776971817	1.62377560139	-0.351346731186
0.0133039951324	1.02444553375	-0.169998526573	-0.117394924164	1.62392866611	-0.350399255753
0.0184588432312	1.02552127838	-0.167168140411	-0.117149829865	1.62389993668	-0.349427223206
0.0293281078339	1.02573752403	-0.16085767746	-0.117235183716	1.62378263474	-0.348450422287
0.0250539779663	1.02856826782	-0.162224769592	-0.117372989655	1.62372779846	-0.34744155407
0.0238137245178	1.03223466873	-0.164037704468	-0.117613792419	1.62360620499	-0.346871614456
0.0226037502289	1.03514313698	-0.164826393127	-0.117782831192	1.62360644341	-0.34677362442
0.0210778713226	1.03529119492	-0.165683746338	-0.117457389832	1.62371075153	-0.346698760986
0.019024848938	1.03545379639	-0.167869329453	-0.116941452026	1.62371909618	-0.346613287926
0.0239849090576	1.03691792488	-0.165398240089	-0.11664223671	1.6237462759	-0.346437811852
0.0345363616943	1.03979206085	-0.160406351089	-0.11607170105	1.62355160713	-0.346380472183
0.0334904193878	1.04383611679	-0.159185171127	-0.11513876915	1.62336456776	-0.346050858498
0.0321543216705	1.04517459869	-0.159222841263	-0.114537239075	1.62314677238	-0.346320152283
0.0247485637665	1.04709482193	-0.163171172142	-0.114147901535	1.62323009968	-0.346627235413
0.0234754085541	1.04783678055	-0.165241479874	-0.113351106644	1.62318611145	-0.346811294556
0.0255129337311	1.04939985275	-0.166377782822	-0.112546920776	1.62321829796	-0.347420334816
0.0304253101349	1.05272078514	-0.165701150894	-0.111721515656	1.62321352959	-0.348186850548
0.0360927581787	1.05533099174	-0.164498329163	-0.110622167587	1.62332081795	-0.349019289017
0.0404715538025	1.05558609962	-0.162320137024	-0.110051631927	1.62344908714	-0.34970164299
0.0406565666199	1.05536174774	-0.161714553833	-0.109736919403	1.62374198437	-0.350291013718
0.0375699996948	1.05457472801	-0.163084745407	-0.109575510025	1.62373352051	-0.350080370903
0.0384361743927	1.0536634922	-0.164309501648	-0.109993219376	1.62365317345	-0.349642038345
0.0397236347198	1.05275964737	-0.164507985115	-0.110560894012	1.62340891361	-0.349299192429
0.0387587547302	1.05337047577	-0.164507627487	-0.11084318161	1.62351334095	-0.348732709885
0.0374794006348	1.05390787125	-0.164797186852	-0.111073970795	1.62342083454	-0.348033905029
0.0380568504333	1.05522918701	-0.165266990662	-0.110948562622	1.62344193459	-0.347460746765
0.0389409065247	1.05719065666	-0.166083574295	-0.110437393188	1.62337124348	-0.347112894058
0.0415453910828	1.06004977226	-0.167252421379	-0.109826803207	1.62362968922	-0.34715294838
0.0452766418457	1.06021285057	-0.167555212975	-0.109086751938	1.6239066124	-0.347679853439
0.0487108230591	1.05919551849	-0.166320085526	-0.10811662674	1.62415480614	-0.347959280014
0.0483510494232	1.0597140789	-0.166671514511	-0.107273101807	1.62396407127	-0.348172903061
0.0467386245728	1.06179475784	-0.167518734932	-0.106665372849	1.62394142151	-0.348214864731
0.0475182533264	1.06267380714	-0.167757987976	-0.105920314789	1.62390351295	-0.348237156868
0.0489919185638	1.06307816505	-0.168151140213	-0.104971408844	1.62399041653	-0.348241329193
0.0535712242126	1.06003403664	-0.165448069572	-0.104126214981	1.62379574776	-0.348265647888
0.0536053180695	1.06170094013	-0.164804339409	-0.103012800217	1.62377071381	-0.348339915276
0.0528893470764	1.06165587902	-0.165394067764	-0.101795911789	1.62356042862	-0.348557472229
0.0515542030334	1.063996315	-0.167632579803	-0.100698471069	1.62357056141	-0.348837018013
0.0527055263519	1.06495261192	-0.168317198753	-0.0998859405518	1.62353825569	-0.349316120148
0.0524575710297	1.06455814838	-0.168970942497	-0.098822593689	1.62368369102	-0.349999666214
0.052520275116	1.0652371645	-0.169731855392	-0.0978817939758	1.62372171879	-0.350464105606
0.0548489093781	1.06508493423	-0.168143033981	-0.0972399711609	1.62361848354	-0.351133823395
0.0543961524963	1.06603634357	-0.1681381464	-0.0967886447906	1.6235768795	-0.351888775826
0.0548644065857	1.06733930111	-0.168850660324	-0.0964453220367	1.62360823154	-0.352766156197
0.0561594963074	1.06902134418	-0.169115543365	-0.0956864356995	1.6237667799	-0.353374004364
0.0560340881348	1.07181870937	-0.170536994934	-0.0946402549744	1.62370216846	-0.353830099106
0.0554013252258	1.07402396202	-0.172125339508	-0.0942146778107	1.62368702888	-0.354442358017
0.053379535675	1.07696640491	-0.17445063591	-0.0939102172852	1.62369251251	-0.354611992836
0.0545206069946	1.07813775539	-0.17573595047	-0.0937297344208	1.62369787693	-0.355021357536
0.0566971302032	1.07600259781	-0.176664710045	-0.0935482978821	1.62378036976	-0.355564117432
0.0572628974915	1.07493889332	-0.177731156349	-0.0936515331268	1.62416195869	-0.356133460999
0.060257434845	1.0738503933	-0.177352190018	-0.0938367843628	1.62423062325	-0.356468677521
0.0613558292389	1.0734411478	-0.176596164703	-0.0939614772797	1.62416267395	-0.356372594833
0.0616533756256	1.07192492485	-0.17737865448	-0.0941298007965	1.62407505512	-0.356115698814
0.0635721683502	1.07186031342	-0.17726457119	-0.0941684246063	1.62408697605	-0.355852365494
0.0634336471558	1.07260966301	-0.177291870117	-0.0935118198395	1.62460291386	-0.355628728867
