0.017053604126	0.978747844696	0.0139508247375	-0.173830747604	1.59323346615	-0.126625657082
0.0166268348694	0.976519346237	0.0140631198883	-0.173463344574	1.59304976463	-0.127131462097
0.0162653923035	0.975976467133	0.0140464305878	-0.173484563828	1.59277951717	-0.126958250999
0.0135941505432	0.976038217545	0.0143899917603	-0.174396514893	1.59281945229	-0.126588106155
0.00951242446899	0.974385499954	0.0174812078476	-0.180762290955	1.59554970264	-0.126533389091
0.000885248184204	0.973092556	0.0172489881516	-0.19046497345	1.60241222382	-0.129909753799
-0.0047345161438	0.973498106003	0.0203592777252	-0.197456598282	1.60956156254	-0.136630892754
-0.00962209701538	0.975101232529	0.0275709629059	-0.202246427536	1.61589813232	-0.143847703934
-0.0172080993652	0.974878311157	0.0391826629639	-0.204490661621	1.62051177025	-0.150315523148
-0.0218665599823	0.976500749588	0.0498154163361	-0.20575928688	1.62285804749	-0.155292987823
-0.0252802371979	0.980547189713	0.0563920736313	-0.207127809525	1.62402868271	-0.157970190048
-0.0267465114594	0.984600305557	0.0597515106201	-0.207570075989	1.62447082996	-0.159126281738
-0.0282137393951	0.984959840775	0.0616662502289	-0.207724571228	1.62503027916	-0.159790992737
-0.0299305915833	0.983129024506	0.0625035762787	-0.208277702332	1.62561190128	-0.160510778427
-0.0312116146088	0.981454610825	0.0645340681076	-0.209054231644	1.62610208988	-0.161630153656
-0.0145835876465	0.980977296829	0.0784685611725	-0.210383415222	1.62700104713	-0.163482904434
0.0222520828247	0.954068422318	0.0955604314804	-0.212514400482	1.62797224522	-0.16673541069
0.0300054550171	0.947871446609	0.0971403121948	-0.213581800461	1.62838590145	-0.169811964035
0.024421453476	0.948743343353	0.0921742916107	-0.213938713074	1.62861347198	-0.171524047852
0.0225501060486	0.962308168411	0.0813300609589	-0.213526248932	1.62895536423	-0.172416448593
0.0242352485657	0.978573322296	0.0729835033417	-0.211630821228	1.63044452667	-0.174108982086
0.0326614379883	0.990011930466	0.0714364051819	-0.208248853683	1.63303518295	-0.179602146149
0.0405869483948	0.987479448318	0.0815137624741	-0.203803062439	1.63549971581	-0.189613938332
0.0416009426117	0.988840103149	0.08897960186	-0.199425697327	1.63536465168	-0.200481176376
0.0428035259247	0.99346446991	0.0977816581726	-0.195274829865	1.63370788097	-0.209453344345
