0.0	-0.0	141.248184204	-94.4962844849	87.6890563965	-170.567550659
0.0	-0.0	142.154846191	-95.4824981689	88.2048339844	-170.602767944
0.0	-0.0	141.262924194	-95.4052505493	87.5369796753	-171.054626465
0.0	-0.0	140.60760498	-95.5250549316	86.8449554443	-170.885467529
0.0	-0.0	136.614486694	-95.5990905762	86.3847122192	-170.723083496
0.0	-0.0	127.829315186	-95.793006897	85.2704086304	-170.339904785
0.0	-0.0	121.121795654	-95.233833313	84.254524231	-170.315246582
0.0	-0.0	120.11265564	-94.8206176758	84.5920791626	-170.578475952
0.0	-0.0	115.85357666	-95.2711868286	84.4872131348	-170.577316284
0.0	-0.0	116.617996216	-95.2477111816	84.4584503174	-170.265411377
0.0	-0.0	117.282653809	-95.7462921143	84.4714889526	-170.260223389
0.0	-0.0	115.935195923	-95.7740325928	84.4750137329	-169.99772644
0.0	-0.0	117.225090027	-96.0977554321	84.4925765991	-169.883453369
0.0	-0.0	127.666099548	-96.5391082764	84.5802307129	-169.976882935
0.0	-0.0	132.203765869	-96.9003448486	84.5326004028	-169.578277588
0.0	-0.0	137.938232422	-96.6945724487	84.5110931396	-169.756240845
0.0	-0.0	141.435150146	-96.9309616089	84.4962310791	-169.634048462
0.0	-0.0	141.674331665	-97.4530334473	84.4338378906	-169.616119385
0.0	-0.0	141.147247314	-97.4367370605	84.5012054443	-169.485733032
0.0	-0.0	142.524200439	-97.472869873	84.0948486328	-169.501556396
0.0	-0.0	143.046936035	-97.7704315186	84.3062667847	-169.542175293
0.0	-0.0	142.764343262	-97.8409042358	84.477645874	-169.810134888
0.0	-0.0	142.855529785	-98.1108703613	84.5314559937	-169.876617432
0.0	-0.0	135.03086853	-98.2057189941	83.8335189819	-169.939971924
0.0	-0.0	131.773468018	-98.4447860718	84.0666351318	-169.696548462
0.0	-0.0	130.820205688	-98.844909668	84.0061645508	-170.097244263
0.0	-0.0	129.912612915	-98.679107666	83.7224121094	-169.498474121
0.0	-0.0	129.93548584	-98.5965881348	83.6281738281	-169.737442017
0.0	-0.0	132.547286987	-98.7442321777	83.6983947754	-170.117095947
0.0	-0.0	133.835586548	-99.2790679932	83.5602111816	-170.240478516
0.0	-0.0	133.487228394	-99.1809921265	83.7974853516	-170.106323242
0.0	-0.0	133.404464722	-99.541885376	83.7049102783	-170.296310425
0.0	-0.0	133.605529785	-99.5855484009	83.6523513794	-170.050949097
0.0	-0.0	133.362976074	-100.371086121	84.0665893555	-170.139175415
0.0	-0.0	133.497909546	-100.82359314	84.425453186	-170.252716064
0.0	-0.0	133.17350769	-101.366195679	84.6031265259	-170.411376953
0.0	-0.0	133.341491699	-102.143257141	84.8273239136	-170.3384552
0.0	-0.0	133.242050171	-103.04875946	84.8871841431	-170.329772949
0.0	-0.0	133.091461182	-103.982406616	84.9369888306	-170.274887085
0.0	-0.0	133.142837524	-105.360198975	85.1221542358	-170.0259552
0.0	-0.0	133.132843018	-107.23324585	85.1039428711	-169.677383423
0.0	-0.0	132.927230835	-108.48449707	85.7863845825	-170.001296997
0.0	-0.0	129.192932129	-107.856300354	85.8159561157	-169.685256958
0.0	-0.0	126.813934326	-108.187217712	85.3488464355	-169.716217041
0.0	-0.0	127.059753418	-109.50643158	86.2026367188	-169.982192993
0.0	-0.0	126.433563232	-110.138595581	87.1743621826	-170.434783936
0.0	-0.0	132.391265869	-111.026947021	89.2582550049	-171.090072632
0.0	-0.0	138.818389893	67.5373840332	89.2407455444	8.89022922516
0.0	-0.0	136.135635376	66.3563766479	88.1248779297	8.87774753571
0.0	-0.0	118.476516724	66.2734985352	87.1237869263	8.61872196198
0.0	-0.0	111.570579529	66.1365432739	86.4814224243	8.70211982727
0.0	-0.0	115.166252136	65.5482406616	86.0519256592	8.70774269104
0.0	-0.0	118.636672974	65.4320144653	85.4465637207	8.54641056061
0.0	-0.0	132.75189209	64.8033294678	84.9702529907	8.18306446075
0.0	-0.0	145.38494873	63.8985328674	84.600227356	8.4974603653
0.0	-0.0	140.985214233	63.9836006165	84.6949615479	8.17499637604
0.0	-0.0	131.781280518	64.2657165527	85.3062362671	8.18672943115
0.0	-0.0	120.146759033	64.2391204834	85.5704421997	8.21457195282
0.0	-0.0	115.910987854	64.1432418823	84.6791381836	7.62170267105
0.0	-0.0	116.919784546	63.7298049927	84.6730499268	7.40733718872
0.0	-0.0	134.012435913	61.997051239	84.5600128174	7.95118761063
0.0	-0.0	151.731292725	60.5944900513	83.4650039673	8.19771003723
0.0	-0.0	144.988296509	60.6552619934	80.0998840332	7.8726067543
0.0	-0.0	138.555740356	59.3025817871	76.3745346069	7.47734546661
0.0	-0.0	131.065444946	56.9786453247	74.5575866699	8.28293514252
0.0	-0.0	123.882408142	55.6753501892	74.4447097778	8.46658706665
0.0	-0.0	120.783454895	56.1261482239	73.6443634033	8.96420860291
0.0	-0.0	120.767219543	55.8355178833	73.8429870605	9.19933128357
0.0	-0.0	124.770782471	54.6863327026	74.8572235107	9.53981876373
0.0	-0.0	146.45980835	54.5710792542	75.3567047119	9.21326732635
0.0	-0.0	162.453811646	54.0336608887	75.4978866577	9.75971221924
0.0	-0.0	162.290527344	53.4324607849	75.7198104858	9.61246871948
0.0	-0.0	139.336074829	52.9757766724	74.975227356	9.57536315918
0.0	-0.0	134.801086426	52.4878616333	75.1242294312	9.30484867096
0.0	-0.0	126.396530151	52.4045143127	76.0120925903	9.5528755188
0.0	-0.0	120.931411743	52.9401664734	77.1334457397	9.72864055634
0.0	-0.0	115.540817261	53.3688468933	78.4306411743	9.69752979279
0.0	-0.0	111.633369446	52.8799972534	79.7779388428	9.61548900604
0.0	-0.0	103.667533875	53.5115127563	81.9698410034	9.72416782379
0.0	-0.0	107.524345398	54.2582359314	82.8622817993	9.78086090088
0.0	-0.0	111.341468811	55.0436019897	82.9796295166	9.65556526184
0.0	-0.0	109.985549927	55.3635253906	83.1782073975	9.1795873642
0.0	-0.0	109.897621155	54.9462089539	83.3281936646	8.54377365112
0.0	-0.0	108.952735901	54.2299880981	83.0372390747	6.47559833527
0.0	-0.0	99.9342880249	54.4049453735	82.3846359253	4.60004425049
0.0	-0.0	89.9760284424	53.334236145	83.2277908325	4.12233400345
0.0	-0.0	90.6649703979	52.9060287476	84.5477828979	4.25031614304
0.0	-0.0	99.9077148438	53.6985549927	84.983795166	5.12025499344
0.0	-0.0	108.109054565	54.530834198	84.8062820435	5.09398126602
0.0	-0.0	108.314727783	54.6742477417	84.9996566772	5.67315530777
0.0	-0.0	102.305709839	54.7660980225	86.1627426147	6.37035179138
0.0	-0.0	104.023353577	56.294254303	87.1914596558	6.22903871536
0.0	-0.0	136.253631592	58.6365852356	88.9397659302	6.76599597931
0.0	-0.0	156.439956665	-117.941879272	88.4026031494	-173.237640381
0.0	-0.0	154.214019775	-113.920631409	84.476890564	-172.719512939
0.0	-0.0	153.709396362	-110.856117249	81.6631011963	-173.111038208
0.0	-0.0	148.767242432	-109.522163391	80.7165603638	-173.13470459
0.0	-0.0	146.907211304	-109.637039185	80.4702148438	-173.996536255
0.0	-0.0	150.598480225	-109.734138489	80.974029541	-173.290161133
0.0	-0.0	148.093078613	-109.379005432	80.5559387207	-172.761474609
0.0	-0.0	148.677062988	-109.256454468	80.4748687744	-173.189758301
0.0	-0.0	147.609222412	-110.102706909	80.9650497437	-173.66368103
0.0	-0.0	145.851257324	-110.378303528	80.668548584	-173.648284912
0.0	-0.0	130.578979492	-110.104934692	80.5516586304	-173.818405151
0.0	-0.0	85.6576309204	-109.623947144	80.4375457764	-173.776977539
0.0	-0.0	69.0862808228	-109.910308838	80.1739044189	-173.604721069
0.0	-0.0	61.1045799255	-109.823898315	80.0764312744	-173.576034546
0.0	-0.0	63.9776916504	-109.139465332	80.1189956665	-173.746154785
0.0	-0.0	99.6649169922	-108.529525757	79.9881134033	-173.801757812
0.0	-0.0	119.332046509	-108.983695984	79.7506790161	-173.593200684
0.0	-0.0	136.36541748	-108.750648499	79.7905044556	-173.39276123
0.0	-0.0	140.447372437	-108.257629395	79.7012023926	-173.793518066
0.0	-0.0	140.709091187	-108.513023376	79.7872085571	-173.885147095
0.0	-0.0	139.03666687	-108.861030579	79.8945617676	-173.556213379
0.0	-0.0	131.028823853	-108.908348083	80.13722229	-173.320999146
0.0	-0.0	118.206916809	-109.230323792	79.8291015625	-173.213470459
0.0	-0.0	118.146430969	-109.50982666	79.9912643433	-173.141738892
0.0	-0.0	117.122634888	-109.229660034	79.8222045898	-173.624954224
0.0	-0.0	121.027389526	-108.763923645	79.6180877686	-173.625427246
0.0	-0.0	121.261566162	-108.709983826	79.5351715088	-173.362014771
0.0	-0.0	120.148529053	-108.70765686	79.6322937012	-173.377838135
0.0	-0.0	116.269981384	-108.78918457	79.5611495972	-173.092559814
0.0	-0.0	114.541282654	-108.809646606	79.8041229248	-172.954620361
0.0	-0.0	112.948059082	-108.189987183	80.5003585815	-173.086746216
0.0	-0.0	111.760787964	-108.599952698	80.6668319702	-173.465240479
0.0	-0.0	119.05556488	-107.882095337	80.5419998169	-173.952194214
0.0	-0.0	128.329193115	-106.464897156	80.0894470215	-173.718429565
0.0	-0.0	134.616333008	-106.093925476	79.2785263062	-173.591003418
0.0	-0.0	137.314285278	-106.322341919	78.8013534546	-173.15776062
0.0	-0.0	139.169692993	-106.800567627	78.4585876465	-173.097686768
0.0	-0.0	139.068344116	-106.665153503	78.561920166	-173.18145752
0.0	-0.0	138.637115479	-106.312942505	78.8807830811	-172.803497314
0.0	-0.0	134.835601807	-106.005004883	78.6768188477	-172.668899536
0.0	-0.0	135.328460693	-105.693466187	78.4344711304	-172.631637573
0.0	-0.0	130.244369507	-105.823738098	78.5140762329	-173.311035156
0.0	-0.0	124.946914673	-105.910728455	79.8958511353	-173.181549072
0.0	-0.0	123.800758362	-109.93535614	85.9733276367	-176.556243896
0.0	-0.0	122.234375	51.7068138123	78.7492523193	-1.83068716526
0.0	-0.0	120.878761292	38.7790107727	64.1182785034	-1.84970152378
0.0	-0.0	118.924285889	39.8286209106	52.2097816467	-0.719531714916
0.0	-0.0	118.931663513	41.3255577087	44.4229927063	-1.72565531731
0.0	-0.0	118.530471802	42.2736549377	38.0253982544	-5.09865236282
0.0	-0.0	117.678596497	39.7356796265	33.0790939331	-11.2372770309
0.0	-0.0	116.750991821	35.3052444458	31.4164600372	-14.4915361404
0.0	-0.0	115.906646729	23.4263496399	26.0361557007	-17.1868991852
0.0	-0.0	114.6222229	17.7765293121	18.379070282	-20.8112888336
0.0	-0.0	113.457885742	23.285861969	12.9453859329	-25.6646614075
0.0	-0.0	113.026443481	26.7945995331	9.08895397186	-27.8769245148
0.0	-0.0	111.984802246	19.0458183289	7.67512893677	-25.9808559418
0.0	-0.0	111.191894531	11.896944046	6.38056182861	-27.0413532257
0.0	-0.0	111.43724823	9.74685573578	2.11703109741	-30.7530078888
0.0	-0.0	111.745834351	13.7900762558	-1.13996887207	-35.789680481
0.0	-0.0	111.951751709	15.4603710175	-3.96545791626	-38.1389846802
0.0	-0.0	111.532051086	19.3616809845	-4.60133743286	-38.603061676
0.0	-0.0	110.767478943	26.9428806305	-1.63745439053	-42.2937431335
0.0	-0.0	110.204544067	35.6766395569	-4.36026144028	-47.2212867737
0.0	-0.0	109.204292297	33.942615509	-3.84309220314	-47.2681770325
0.0	-0.0	109.769943237	34.2101402283	-2.0199739933	-49.4366798401
0.0	-0.0	109.425338745	31.7695884705	3.786059618	-50.6969413757
0.0	-0.0	109.084709167	14.0872039795	2.43610405922	-41.2663993835
0.0	-0.0	108.782936096	-3.04159975052	-0.612745285034	-30.0568637848
0.0	-0.0	108.256668091	1.01584911346	3.29974365234	-30.9711399078
0.0	-0.0	108.017501831	6.20145320892	7.75234270096	-33.7233886719
0.0	-0.0	108.340408325	9.73910331726	10.7188739777	-37.3524703979
0.0	-0.0	107.260231018	13.3692512512	14.3241691589	-40.9169845581
0.0	-0.0	107.453735352	16.4302330017	15.9345817566	-41.6563415527
0.0	-0.0	106.309120178	17.2339248657	15.7170305252	-40.7792015076
0.0	-0.0	106.226783752	20.6900997162	17.1632423401	-41.8108024597
0.0	-0.0	105.480522156	22.2319927216	19.5009555817	-41.3703918457
0.0	-0.0	105.891090393	22.8239345551	19.0853805542	-41.6365737915
0.0	-0.0	106.012763977	14.0559844971	15.9604845047	-39.0637130737
0.0	-0.0	106.342857361	2.98736023903	8.36835575104	-40.510269165
0.0	-0.0	106.625450134	6.31473016739	5.79685592651	-45.9038963318
0.0	-0.0	106.837287903	8.21078968048	9.37145900726	-45.3168144226
0.0	-0.0	107.257865906	12.3646593094	18.2368278503	-45.452583313
0.0	-0.0	106.300727844	13.6776428223	24.3897476196	-47.296257019
0.0	-0.0	104.538513184	12.958946228	33.5040359497	-43.5670623779
0.0	-0.0	104.619400024	14.6012191772	35.7312889099	-46.0014343262
0.0	-0.0	103.82233429	14.902340889	34.8132095337	-47.9257469177
0.0	-0.0	103.894645691	10.8885631561	33.3415489197	-45.1530227661
0.0	-0.0	103.863357544	-1.07495379448	30.9353809357	-35.4548072815
0.0	-0.0	103.288444519	-7.78906536102	26.8090991974	-28.7054748535
0.0	-0.0	102.998466492	-5.51294517517	25.2026748657	-27.5095500946
0.0	-0.0	102.979667664	-4.13670682907	24.7437877655	-26.2448749542
0.0	-0.0	102.619277954	-2.76969075203	25.9484901428	-27.0870094299
0.0	-0.0	102.613830566	0.816152691841	27.6722164154	-28.3981304169
0.0	-0.0	105.580703735	2.07461190224	27.9580993652	-29.1464233398
0.0	-0.0	106.769378662	1.32797217369	28.4301071167	-29.3284492493
0.0	-0.0	120.600463867	1.36479127407	26.9909973145	-28.9116611481
0.0	-0.0	127.834671021	2.05689549446	24.4796581268	-28.383605957
0.0	-0.0	127.196479797	2.63643527031	26.1433296204	-28.8594226837
0.0	-0.0	95.1642990112	4.00129175186	28.7895565033	-28.5723762512
0.0	-0.0	86.2795333862	6.0896897316	29.6768188477	-29.0109481812
0.0	-0.0	93.9531555176	5.08277320862	29.7008056641	-29.274974823
0.0	-0.0	98.9259414673	3.33992695808	29.400308609	-28.9697437286
0.0	-0.0	105.752815247	2.21628546715	28.6661872864	-27.5875854492
0.0	-0.0	106.297966003	0.0756025016308	26.1375198364	-25.2475986481
0.0	-0.0	105.744171143	-2.20258712769	26.7771148682	-21.7382602692
0.0	-0.0	118.018257141	-0.209650233388	28.5460796356	-20.3472957611
0.0	-0.0	115.617919922	0.923970282078	27.7275562286	-19.3569831848
0.0	-0.0	99.5949554443	0.478857457638	28.3935451508	-19.2952671051
0.0	-0.0	89.1309127808	3.8090968132	31.8194236755	-19.4109802246
0.0	-0.0	92.413772583	7.32038736343	35.1822662354	-20.9897918701
0.0	-0.0	104.275085449	6.98785114288	33.9509887695	-20.9767875671
0.0	-0.0	113.228561401	7.34799623489	34.7211380005	-21.763381958
0.0	-0.0	127.977378845	7.64181995392	31.6214981079	-20.999458313
0.0	-0.0	135.363388062	6.10707139969	21.6260719299	-20.1903400421
0.0	-0.0	132.576553345	-0.275633871555	15.2128076553	-19.409992218
0.0	-0.0	132.916473389	-8.952044487	7.07571029663	-20.0379676819
0.0	-0.0	130.774017334	-9.68423080444	0.573904335499	-19.9393386841
0.0	-0.0	128.42098999	-4.24488306046	4.17483377457	-21.9067420959
0.0	-0.0	124.08644104	7.71285152435	16.8871879578	-25.8176403046
0.0	-0.0	124.069664001	31.1714935303	29.4760513306	-30.0776348114
0.0	-0.0	123.40259552	51.3718032837	27.6899433136	-27.3568439484
0.0	-0.0	122.367454529	60.9060935974	19.891242981	-30.5741100311
0.0	-0.0	122.877044678	70.0403594971	24.835943222	-37.9557342529
0.0	-0.0	122.399108887	98.1869125366	22.4106464386	-51.3567199707
0.0	-0.0	121.386421204	85.3971252441	13.9346847534	-57.6948814392
0.0	-0.0	121.715286255	69.6511077881	10.8721837997	-60.7771644592
0.0	-0.0	121.058174133	61.575088501	3.33684492111	-64.3225631714
0.0	-0.0	119.109977722	37.5346298218	-0.0208398997784	-53.6011276245
0.0	-0.0	117.875076294	26.1546382904	2.68881297112	-44.2813568115
0.0	-0.0	118.058547974	33.5429267883	5.47923660278	-43.6656951904
0.0	-0.0	116.711212158	43.1420211792	9.54094028473	-45.0717506409
0.0	-0.0	114.984024048	45.2044181824	10.7752532959	-44.1518821716
0.0	-0.0	113.094100952	43.2942428589	12.2913150787	-42.7661323547
0.0	-0.0	116.897315979	42.9727172852	12.7432460785	-42.1723861694
0.0	-0.0	120.646286011	29.1816749573	5.02475261688	-40.4285621643
0.0	-0.0	120.280670166	5.7957572937	-0.260725080967	-32.8586540222
0.0	-0.0	120.313972473	15.1676836014	2.6570725441	-34.5018005371
0.0	-0.0	120.266777039	23.3394813538	3.8615899086	-36.9303894043
0.0	-0.0	119.399002075	26.0043678284	7.22843790054	-38.1013832092
0.0	-0.0	119.811737061	32.5621871948	12.8677186966	-39.5829124451
0.0	-0.0	120.171440125	32.6047973633	9.81474590302	-38.6656150818
0.0	-0.0	119.598464966	26.5254631042	7.88780641556	-37.9414901733
0.0	-0.0	119.573104858	21.5591316223	6.10096645355	-37.2237663269
0.0	-0.0	119.597846985	20.7401943207	-0.772040784359	-38.8347244263
0.0	-0.0	119.660942078	17.8444709778	-1.53186500072	-38.5151443481
0.0	-0.0	119.521469116	12.1372776031	-1.34155094624	-37.1330909729
0.0	-0.0	119.865104675	12.8953943253	0.457546234131	-38.421749115
0.0	-0.0	123.314300537	18.1981639862	4.60332918167	-40.3311576843
0.0	-0.0	121.832603455	20.1153659821	6.16741037369	-39.9734573364
0.0	-0.0	111.751113892	21.2257614136	6.03117370605	-40.002948761
0.0	-0.0	105.708969116	22.1106204987	5.78315734863	-39.9831581116
0.0	-0.0	99.914024353	23.1444320679	6.83250045776	-40.0299873352
0.0	-0.0	99.9096069336	24.1267967224	9.17409420013	-39.7276611328
0.0	-0.0	101.065162659	24.9877433777	10.0052785873	-39.8345565796
0.0	-0.0	102.90171051	23.7501754761	8.84600734711	-39.4761352539
0.0	-0.0	106.142669678	21.2595462799	7.24667978287	-38.5547828674
0.0	-0.0	109.57346344	18.8856277466	7.08313655853	-37.4362030029
0.0	-0.0	111.471862793	17.241071701	6.89982557297	-35.7572746277
0.0	-0.0	110.101150513	16.0569705963	7.4753484726	-34.2692489624
0.0	-0.0	101.99559021	17.1332263947	7.8094701767	-34.3329696655
0.0	-0.0	103.230369568	18.0819454193	8.11885547638	-34.3019180298
0.0	-0.0	102.570503235	18.4431800842	9.22191143036	-34.5045661926
0.0	-0.0	103.489685059	15.9075117111	10.1087436676	-35.6456336975
0.0	-0.0	104.945121765	7.84333753586	9.86790752411	-33.7689666748
0.0	-0.0	105.562164307	-6.70322751999	9.29519462585	-29.1471805573
0.0	-0.0	106.124176025	-6.29518985748	11.0529851913	-28.5457267761
0.0	-0.0	109.806694031	2.68139958382	11.4840259552	-31.4321880341
0.0	-0.0	108.502563477	14.5104665756	11.5592985153	-33.6120300293
0.0	-0.0	106.68082428	17.9340324402	11.8560056686	-36.1336135864
0.0	-0.0	103.735931396	13.0473747253	11.6045665741	-35.2851486206
0.0	-0.0	102.820213318	12.535908699	11.4895591736	-36.3282470703
0.0	-0.0	100.091575623	8.71882152557	10.4298534393	-36.2748718262
0.0	-0.0	96.6463851929	-1.09112858772	8.67472457886	-34.4729270935
0.0	-0.0	94.7994537354	-6.19826316833	8.42360877991	-33.1330108643
0.0	-0.0	96.1591491699	-4.94983291626	9.4159526825	-33.4863586426
0.0	-0.0	99.6684265137	-4.26883459091	9.83568286896	-33.8037033081
0.0	-0.0	101.154182434	-5.01140165329	10.4227113724	-33.4989738464
0.0	-0.0	101.28528595	-4.85334825516	10.1363191605	-33.7136116028
0.0	-0.0	101.589317322	-2.83458447456	11.578789711	-34.1785049438
0.0	-0.0	101.646263123	4.83326625824	15.8315706253	-37.023223877
0.0	-0.0	101.706809998	11.0209617615	18.816318512	-39.2878341675
0.0	-0.0	101.475273132	9.38215255737	19.0891437531	-38.9927864075
0.0	-0.0	101.3072052	9.22723770142	18.9047431946	-39.7398300171
0.0	-0.0	100.663131714	4.97790241241	12.9985027313	-38.7988510132
0.0	-0.0	100.1823349	-10.0587730408	8.47071743011	-33.9613342285
0.0	-0.0	98.9633102417	-16.8182106018	9.40662002563	-29.9497356415
0.0	-0.0	98.5004348755	-15.2230358124	11.3309898376	-29.5522823334
0.0	-0.0	98.7322616577	-12.9433250427	11.5556249619	-29.9455852509
0.0	-0.0	98.6015548706	-14.2020845413	12.0757427216	-29.2710514069
0.0	-0.0	98.7228546143	-16.6009597778	12.1162776947	-28.297170639
0.0	-0.0	98.3557739258	-17.7467556	11.702041626	-27.9689922333
0.0	-0.0	99.0636444092	-15.1478414536	14.0006752014	-28.7838153839
0.0	-0.0	99.340385437	-15.850815773	14.0771770477	-28.9597053528
0.0	-0.0	99.6348953247	-12.8320484161	17.3765907288	-29.1786384583
0.0	-0.0	98.9312744141	-6.32798242569	21.672296524	-29.2568893433
0.0	-0.0	99.3642883301	7.89730262756	24.6519126892	-31.6755542755
0.0	-0.0	99.1880874634	10.9511604309	26.5543575287	-30.3692932129
0.0	-0.0	99.0969467163	5.30399036407	28.5057182312	-28.6322650909
0.0	-0.0	98.9131240845	6.16875886917	29.7260513306	-28.7371253967
0.0	-0.0	98.510635376	4.99231100082	29.1215629578	-28.3507633209
0.0	-0.0	97.7021026611	6.88111639023	26.6010532379	-31.3587589264
0.0	-0.0	98.1653060913	5.17638969421	23.8695430756	-29.6521396637
0.0	-0.0	99.8523635864	8.32765483856	26.2826309204	-32.0524139404
0.0	-0.0	104.862747192	4.84399700165	25.2616271973	-30.6653785706
0.0	-0.0	106.676445007	8.07821369171	25.1872730255	-33.0559844971
0.0	-0.0	109.302993774	15.4506616592	28.3325595856	-33.6656074524
0.0	-0.0	109.346298218	10.9655351639	26.801240921	-33.5414390564
0.0	-0.0	109.659393311	10.1039123535	26.8833084106	-33.9981155396
0.0	-0.0	109.39793396	8.8474855423	25.0838127136	-36.5106468201
0.0	-0.0	109.362693787	2.63884162903	23.3218898773	-37.147857666
0.0	-0.0	109.717010498	-0.094785861671	23.9808692932	-33.811542511
0.0	-0.0	109.161804199	1.94330978394	22.6987285614	-35.6844444275
0.0	-0.0	109.697219849	1.14867293835	21.4150276184	-33.1714782715
0.0	-0.0	110.220031738	-4.98556756973	24.1419734955	-31.0956325531
0.0	-0.0	111.830955505	-6.55107975006	22.4320602417	-27.3960533142
0.0	-0.0	111.058425903	-3.88503503799	19.70170784	-26.8802947998
0.0	-0.0	116.680778503	3.0162127018	20.2299747467	-29.6643028259
0.0	-0.0	122.861755371	8.31518554688	19.7408123016	-30.8029785156
0.0	-0.0	106.285652161	6.46660232544	18.8397769928	-32.2476921082
0.0	-0.0	108.422561646	4.11146211624	19.4779815674	-30.3589000702
0.0	-0.0	103.253082275	4.40404224396	21.0226478577	-30.8172397614
0.0	-0.0	98.9732666016	3.11731958389	20.2354736328	-30.2355003357
0.0	-0.0	97.6093521118	0.16051761806	19.4928436279	-29.0620613098
0.0	-0.0	97.2625579834	-1.48804116249	20.3435020447	-28.1766624451
0.0	-0.0	96.5129165649	-1.35921692848	19.6845302582	-28.3487224579
0.0	-0.0	97.4413452148	-2.58395004272	19.3525447845	-27.7370567322
0.0	-0.0	99.2673110962	-2.48093318939	19.4692325592	-28.4038391113
0.0	-0.0	99.4477157593	-2.18161892891	19.430896759	-28.7724685669
0.0	-0.0	98.9149093628	-3.57098579407	17.7190818787	-29.1349830627
0.0	-0.0	98.6309967041	-5.27227020264	18.1962566376	-28.7474899292
0.0	-0.0	99.5712661743	-6.43995714188	19.0073318481	-28.0471057892
0.0	-0.0	99.3889846802	-7.57606887817	17.254327774	-26.9858055115
0.0	-0.0	99.6072540283	-9.00912666321	17.8820476532	-26.4101982117
0.0	-0.0	99.6638412476	-9.00664997101	18.8953437805	-26.9522686005
0.0	-0.0	99.6115036011	-9.43959140778	17.9609088898	-26.9655075073
0.0	-0.0	99.7409286499	-10.7257642746	17.0920295715	-27.4797744751
0.0	-0.0	99.7567443848	-11.8602218628	16.4647750854	-27.1202430725
0.0	-0.0	99.778503418	-13.6367406845	16.1684265137	-26.4344387054
0.0	-0.0	99.7518005371	-14.8625621796	14.9271869659	-26.219619751
0.0	-0.0	99.8584136963	-14.6778039932	15.443148613	-26.4059143066
0.0	-0.0	99.9703369141	-13.9683904648	15.3135585785	-26.9091262817
0.0	-0.0	99.8670272827	-15.9224233627	15.3105401993	-26.1343402863
0.0	-0.0	99.881942749	-17.2906761169	15.3617696762	-26.0114440918
0.0	-0.0	100.369232178	-16.8590316772	16.0366230011	-26.0962047577
0.0	-0.0	100.322280884	-15.3939876556	15.6172647476	-26.6835231781
0.0	-0.0	100.688941956	-15.4986076355	15.8764343262	-26.9844455719
0.0	-0.0	100.593208313	-15.0238904953	16.528175354	-27.4864807129
0.0	-0.0	100.596351624	-15.3238344193	17.237033844	-27.3288326263
0.0	-0.0	100.593780518	-15.0446052551	16.3507480621	-27.5712528229
0.0	-0.0	100.356513977	-15.5389127731	17.1809692383	-27.3017978668
0.0	-0.0	100.22693634	-17.3041038513	18.5257930756	-25.9956150055
0.0	-0.0	100.052940369	-19.5409927368	19.2404003143	-25.7649059296
0.0	-0.0	98.3829727173	-19.3150024414	19.4683437347	-25.9692897797
0.0	-0.0	96.1328964233	-18.1837978363	19.8125896454	-26.4479446411
0.0	-0.0	94.7667694092	-16.9489345551	20.933927536	-26.5459842682
0.0	-0.0	94.98777771	-17.9623222351	21.7641201019	-26.0718250275
0.0	-0.0	95.5291976929	-16.5465373993	21.839723587	-26.5417957306
0.0	-0.0	95.4886245728	-16.1510276794	22.3589839935	-26.6527004242
0.0	-0.0	95.3349685669	-16.6511764526	22.0151576996	-26.0566120148
0.0	-0.0	95.2963027954	-16.9115810394	22.3435649872	-26.0044670105
0.0	-0.0	94.9413452148	-15.169675827	23.3474159241	-26.8003463745
0.0	-0.0	94.6561508179	-10.7399148941	23.267414093	-27.2834377289
0.0	-0.0	94.6369628906	-12.0318136215	24.0593070984	-27.0202236176
0.0	-0.0	94.185874939	-12.7349176407	23.8978843689	-27.0333518982
0.0	-0.0	94.2230911255	-12.345457077	23.5724143982	-27.3349628448
0.0	-0.0	94.0149002075	-16.2398643494	22.7695407867	-26.0972957611
0.0	-0.0	94.0479660034	-31.4499797821	20.6974868774	-20.5430240631
0.0	-0.0	93.9352340698	-29.4649505615	20.8941459656	-20.7472724915
0.0	-0.0	93.6675567627	-22.8130455017	22.2034950256	-22.4849510193
0.0	-0.0	93.3647155762	-22.5902633667	20.8690929413	-22.1396522522
0.0	-0.0	93.2572097778	-22.7384166718	21.8810119629	-21.8747329712
0.0	-0.0	93.473815918	-20.4072437286	22.5173625946	-22.3195343018
0.0	-0.0	93.5442428589	-18.7260951996	22.6093196869	-23.0098800659
0.0	-0.0	93.5018615723	-17.9747905731	22.9617538452	-23.3307704926
0.0	-0.0	93.5755691528	-18.2765274048	23.2150039673	-23.0601043701
0.0	-0.0	93.8011245728	-18.9198589325	23.0928440094	-22.8620586395
0.0	-0.0	94.6500396729	-18.5859050751	23.5700855255	-22.6745281219
0.0	-0.0	96.6277999878	-17.0208148956	24.2966022491	-22.9209384918
0.0	-0.0	99.4997558594	-16.6216983795	23.6807479858	-23.5272979736
0.0	-0.0	100.879203796	-16.8015289307	23.3672389984	-23.3079013824
0.0	-0.0	104.882240295	-15.5704774857	22.8323078156	-23.6668109894
0.0	-0.0	95.7391967773	-16.2794551849	22.6375484467	-23.6163463593
0.0	-0.0	94.5221557617	-15.6683797836	22.3535270691	-23.4082508087
0.0	-0.0	91.4486999512	-14.219666481	22.9957046509	-23.7907886505
0.0	-0.0	87.8564147949	-14.3877134323	22.5932693481	-24.1426486969
0.0	-0.0	85.8455963135	-14.5702362061	22.2239742279	-24.3169651031
0.0	-0.0	84.0635452271	-13.8379096985	22.3197479248	-24.6068058014
0.0	-0.0	81.7481460571	-14.5508460999	22.590713501	-24.2824230194
0.0	-0.0	81.5933990479	-15.7249879837	22.4945068359	-23.8843421936
0.0	-0.0	84.1820831299	-15.8422756195	22.7849330902	-23.6746788025
0.0	-0.0	86.1947097778	-15.6778612137	23.085975647	-24.0293979645
0.0	-0.0	84.1115264893	-16.8547039032	23.1747226715	-23.3723049164
0.0	-0.0	84.3128433228	-17.2074050903	23.4553184509	-23.006319046
0.0	-0.0	84.400177002	-16.9395961761	23.0821800232	-23.3058567047
0.0	-0.0	84.5710372925	-17.0646820068	23.2594203949	-23.1293125153
0.0	-0.0	85.0557098389	-16.7276973724	23.5729980469	-23.1869068146
0.0	-0.0	85.2167892456	-16.9827747345	23.3678569794	-23.2594184875
0.0	-0.0	85.2359161377	-17.1087760925	22.928855896	-23.5642032623
0.0	-0.0	85.200012207	-17.0476303101	22.5245361328	-23.4173755646
0.0	-0.0	84.9915237427	-16.8185882568	22.8840560913	-23.4161376953
0.0	-0.0	85.3660736084	-16.9960155487	22.8871879578	-23.38920784
0.0	-0.0	85.0244445801	-16.6973438263	22.8480987549	-23.6749515533
0.0	-0.0	83.0848312378	-16.2085876465	22.7344341278	-23.7029685974
0.0	-0.0	83.5231246948	-15.7433614731	22.6579589844	-23.6278953552
0.0	-0.0	89.8229370117	-15.653755188	22.7586269379	-23.6059246063
0.0	-0.0	94.6614151001	-15.9250555038	22.3443222046	-23.9034938812
0.0	-0.0	91.807800293	-15.6579732895	22.4179706573	-23.8782043457
0.0	-0.0	92.0125656128	-15.4312696457	22.5613937378	-23.9046039581
0.0	-0.0	93.0076828003	-15.1799516678	23.105764389	-23.8602466583
0.0	-0.0	95.5461502075	-15.3446159363	22.9257221222	-24.344581604
0.0	-0.0	93.5835800171	-16.0063533783	22.2948417664	-24.836227417
0.0	-0.0	92.9317703247	-15.6269712448	22.5675258636	-24.1638736725
0.0	-0.0	92.2584381104	-15.5046215057	23.2318725586	-24.096698761
0.0	-0.0	90.5393295288	-17.3808288574	23.2851314545	-23.562795639
0.0	-0.0	90.8603820801	-19.9245433807	23.1126651764	-22.7829990387
0.0	-0.0	91.2230758667	-19.4931812286	24.2384757996	-22.7222805023
0.0	-0.0	92.0496444702	-18.4893283844	24.7377796173	-23.2096748352
0.0	-0.0	92.2775115967	-18.6488113403	23.9376068115	-23.584526062
0.0	-0.0	92.6211547852	-18.7629928589	24.0212593079	-24.0734577179
0.0	-0.0	95.61668396	-18.4259757996	23.2799568176	-24.8607730865
0.0	-0.0	97.0815734863	-18.6163978577	23.589630127	-24.2052650452
0.0	-0.0	94.225769043	-18.5628223419	24.0304546356	-24.0123157501
0.0	-0.0	92.4702758789	-18.2328834534	23.8117580414	-23.872549057
0.0	-0.0	88.2954025269	-17.2240142822	24.5394363403	-23.8373889923
0.0	-0.0	87.652053833	-17.4606628418	24.2646102905	-23.7027454376
0.0	-0.0	85.9790267944	-18.7417831421	23.3373088837	-24.1479110718
0.0	-0.0	83.2760620117	-19.0655975342	22.752161026	-22.8273258209
0.0	-0.0	80.5083312988	-17.5367565155	25.1212291718	-22.8874092102
0.0	-0.0	80.2880096436	-18.0875587463	25.8185367584	-21.7649059296
0.0	-0.0	79.4553527832	-17.8600940704	26.9340934753	-21.5899410248
0.0	-0.0	78.7108612061	-16.5668468475	27.3083171844	-21.6223144531
