-27.4197921753	0.818593740463	31.9648723602	-7.02914524078	7.01625442505	-35.0989379883
-27.411611557	0.910449743271	31.8659763336	-6.82889413834	7.02528333664	-35.1318130493
-27.3991336823	1.21518552303	31.8860092163	-7.08736753464	7.39844179153	-35.1441497803
-28.2774066925	2.27664923668	32.0620117188	-7.84738492966	8.6683549881	-34.0131721497
-29.1283473969	2.25279355049	30.8619842529	-9.7796049118	9.65755558014	-30.4620246887
-30.9428710938	-0.366758584976	29.0373840332	-11.1472148895	10.3953142166	-26.5065097809
-32.0716667175	-5.18926239014	26.6642112732	-10.8797264099	10.657456398	-23.7792186737
-33.0317153931	-5.9815196991	25.1102752686	-9.38833045959	10.5653619766	-23.1442909241
-32.3363800049	-6.16825485229	20.9902858734	-7.91822195053	11.1522016525	-23.4093170166
-34.4642753601	-9.19038295746	14.6250629425	-7.56407928467	11.9077186584	-23.6139373779
-35.4900512695	-11.0737161636	12.6092300415	-7.96313142776	12.648519516	-23.3575897217
-36.4959640503	-10.37458992	13.1736221313	-8.08088779449	12.9452877045	-22.8646411896
-35.6773757935	-8.21617984772	15.3844251633	-7.74942684174	13.0356426239	-22.5648059845
-32.9745292664	-1.73927175999	17.350227356	-7.51104021072	12.9615402222	-22.3742103577
-31.4820632935	0.0122620807961	14.9268770218	-7.38493728638	12.7631626129	-22.3106403351
-31.6711711884	-0.894375085831	11.3071680069	-7.34419202805	12.7360372543	-21.9764156342
-30.7437992096	-0.707870483398	9.65991020203	-7.84004116058	12.8038816452	-21.7240161896
-30.3567028046	-0.835044741631	11.4873771667	-8.23509979248	12.7203025818	-21.6489372253
-30.2143096924	-0.527305364609	10.4963712692	-8.56521511078	12.6308345795	-21.3108215332
-30.8001861572	-2.01728343964	10.1877946854	-8.41413593292	12.7203435898	-20.9776802063
-33.1218795776	-5.2550535202	9.94571399689	-8.21322345734	12.6352500916	-20.9409122467
-35.2910308838	-7.32587051392	9.15071678162	-7.97174072266	12.7011098862	-21.0291423798
-34.5317497253	-6.99305200577	8.8190984726	-7.74248170853	12.8457756042	-21.1578636169
-31.9011688232	-1.77096033096	10.2762966156	-7.68940877914	12.9327411652	-21.2152442932
-30.7462234497	0.963615357876	10.6193275452	-8.01319313049	13.0805139542	-21.1969394684
-30.9437408447	0.748151242733	9.70599842072	-8.39937496185	12.9980115891	-21.2294235229
-31.7586364746	0.597321629524	9.18684673309	-8.5183172226	12.9286642075	-21.2183914185
-31.5783500671	0.091659501195	9.86144924164	-8.35790538788	13.0326032639	-21.1868648529
-31.8234767914	-1.25334203243	10.4480686188	-8.38713550568	13.0056095123	-21.1080818176
-32.0198097229	-1.26939594746	8.76710319519	-8.58152103424	12.9185848236	-21.0351848602
-33.5041923523	-2.3209233284	7.76905202866	-8.64054203033	12.8790121078	-20.9602127075
-35.5859909058	-3.87654924393	5.10908269882	-8.69488811493	12.8045721054	-20.908821106
-36.0515632629	-2.49900221825	5.22669839859	-8.94999885559	12.9252414703	-20.8401756287
-33.9586524963	2.97135901451	24.0625724792	-9.16373538971	12.9539289474	-20.6522350311
-32.8735198975	7.69054269791	35.5301513672	-9.01900959015	12.9013166428	-20.764257431
-33.7064590454	6.56991100311	34.2125244141	-8.7885799408	12.6372337341	-20.6773109436
-32.9256782532	4.93371629715	34.407661438	-8.60315704346	12.592417717	-20.728805542
-30.4496002197	2.28937983513	34.5988807678	-8.43744087219	12.3392524719	-20.6704673767
-29.2149276733	-1.43980395794	35.1468963623	-8.39614009857	12.3939914703	-20.6799201965
-24.6862182617	-2.35949802399	27.4468612671	-8.30069923401	12.4492740631	-20.7884902954
-20.2433662415	-2.23861145973	10.9254655838	-8.14512729645	12.5027647018	-20.8631763458
-21.5384025574	-2.70090150833	7.14014482498	-8.16666126251	12.5809059143	-20.8238620758
-23.1678314209	-2.39023971558	6.95935297012	-8.2858839035	12.5248575211	-20.846704483
-23.3296642303	-1.43764150143	7.17206382751	-8.30184173584	12.5795469284	-20.8417072296
-23.8455657959	-2.18369960785	9.89011573792	-8.4012670517	12.5331859589	-20.8088703156
-24.8403949738	-2.82270479202	11.3738927841	-8.42043876648	12.4220085144	-20.8494968414
-26.1914596558	-3.03243470192	10.394739151	-8.35506248474	12.4136219025	-20.7947978973
-27.477142334	-4.02610635757	8.26388931274	-8.49489212036	12.5416193008	-20.8205566406
-29.9795742035	-4.39896535873	9.70784378052	-8.39874839783	12.5725059509	-20.6803798676
-33.2833251953	-1.85937345028	21.494808197	-8.43272686005	12.5582036972	-20.6951618195
-33.412651062	-0.619357228279	21.0212421417	-8.33610248566	12.5211553574	-20.6631908417
-33.311126709	-1.04353570938	22.2470874786	-8.34066009521	12.4764795303	-20.6332435608
-31.9234714508	-0.943914413452	21.2685546875	-8.2726650238	12.5109291077	-20.644367218
-28.9189739227	-0.383478194475	18.0019226074	-8.09616184235	12.5573616028	-20.6841526031
