0.0146105289459	1.01007723808	-0.0225834846497	-0.203950405121	1.59856021404	-0.177780389786
0.0165686607361	1.01042747498	-0.0210318565369	-0.204078674316	1.59832429886	-0.176082611084
0.018584728241	1.00999903679	-0.0192102193832	-0.204187393188	1.5984364748	-0.174403190613
0.0191314220428	1.00979590416	-0.0185188055038	-0.204174041748	1.59744799137	-0.172790408134
0.0165581703186	1.00369119644	-0.0147544145584	-0.202143907547	1.59171795845	-0.169638991356
0.00920081138611	0.995590925217	-0.015052318573	-0.197588920593	1.58019816875	-0.165071368217
0.00462079048157	0.993269205093	-0.0187532901764	-0.192687749863	1.56477928162	-0.159091711044
0.00620603561401	0.99445104599	-0.0214381217957	-0.188654899597	1.55368840694	-0.152741312981
0.0056688785553	0.994416713715	-0.0260877609253	-0.183829784393	1.54845893383	-0.14702296257
0.00497221946716	0.98819565773	-0.0303516387939	-0.180320978165	1.54522609711	-0.141875982285
0.00501251220703	0.983309030533	-0.0352982282639	-0.177930355072	1.54288625717	-0.138115048409
0.00480031967163	0.979617834091	-0.0367023944855	-0.17550945282	1.54114115238	-0.135513067245
0.00321388244629	0.973481655121	-0.0326269865036	-0.170902013779	1.54073572159	-0.134369969368
-0.000425815582275	0.962579011917	-0.0264586210251	-0.164871931076	1.54099774361	-0.133989810944
-0.0100202560425	0.953075885773	-0.0250616073608	-0.161635637283	1.54238319397	-0.132271289825
