0.0	-0.0	137.073120117	-121.188407898	87.2332992554	172.823364258
0.0	-0.0	138.226577759	-121.195556641	87.0039520264	172.521820068
0.0	-0.0	136.05947876	-121.321289062	86.9345321655	172.771896362
0.0	-0.0	133.890884399	-121.530395508	83.1171951294	173.066741943
0.0	-0.0	135.004516602	-120.916023254	75.6766738892	173.659317017
0.0	-0.0	133.186233521	-120.5962677	68.7194900513	174.638275146
0.0	-0.0	132.791412354	-120.417976379	63.2512893677	174.187957764
0.0	-0.0	133.245376587	-119.393661499	54.8948326111	174.193649292
0.0	-0.0	133.399353027	-119.163505554	43.3901824951	174.058639526
0.0	-0.0	132.588973999	-119.480667114	31.2207603455	174.181121826
0.0	-0.0	132.855880737	-119.969543457	22.9037094116	174.454910278
0.0	-0.0	132.087478638	-120.267173767	16.1605491638	174.225112915
0.0	-0.0	131.606109619	-120.474594116	11.2193470001	174.480484009
0.0	-0.0	130.758026123	-121.687385559	12.4785871506	175.20690918
0.0	-0.0	129.65977478	-122.623901367	14.0186452866	176.815368652
0.0	-0.0	129.031967163	-123.45652771	14.7226448059	179.127120972
0.0	-0.0	127.215118408	-124.380302429	13.6117963791	-179.886978149
0.0	-0.0	99.6072463989	-124.583946228	13.8409757614	179.090103149
0.0	-0.0	83.670539856	-123.420082092	15.9237203598	177.749328613
0.0	-0.0	72.6697921753	-122.892730713	18.2965145111	176.846252441
0.0	-0.0	73.9669723511	-122.244255066	17.4952373505	177.120605469
0.0	-0.0	75.6571807861	-122.022865295	17.8489322662	176.983108521
0.0	-0.0	74.5408401489	-123.517242432	19.6155738831	177.018722534
0.0	-0.0	71.902053833	-129.491531372	18.1734905243	178.270858765
0.0	-0.0	72.7573699951	-137.396102905	7.25731706619	179.696151733
0.0	-0.0	74.8045578003	-139.450927734	-4.87803077698	179.86819458
0.0	-0.0	76.4439239502	-135.435287476	-8.90603733063	-179.984909058
0.0	-0.0	76.9218292236	-130.01802063	-15.2216291428	-179.279891968
0.0	-0.0	76.2131652832	-125.439216614	-19.9245414734	-178.500411987
0.0	-0.0	76.1072616577	-121.50668335	-19.7325172424	-177.961685181
0.0	-0.0	74.8966751099	-121.751960754	-17.0545520782	-179.211959839
0.0	-0.0	75.1500167847	-121.844322205	-14.5196905136	179.191680908
0.0	-0.0	85.1260070801	-117.060752869	-11.6714725494	178.019195557
0.0	-0.0	112.740020752	-105.42376709	-10.2068891525	177.212905884
0.0	-0.0	119.921592712	-93.1817245483	-12.7615041733	176.659210205
0.0	-0.0	84.448348999	-91.4782562256	-12.478187561	176.501312256
0.0	-0.0	69.7609786987	-95.5214004517	-11.5178747177	174.985366821
0.0	-0.0	74.8212509155	-92.6197814941	-10.2855472565	175.112350464
0.0	-0.0	84.2236938477	-87.7658615112	-10.0463113785	176.700958252
0.0	-0.0	81.2256164551	-87.5052261353	-10.008813858	176.105285645
0.0	-0.0	77.8717422485	-88.5910415649	-10.4876918793	176.064468384
0.0	-0.0	74.7506256104	-89.6621780396	-9.01466655731	176.388336182
0.0	-0.0	70.3173675537	-94.7999572754	-8.41386890411	175.945098877
0.0	-0.0	78.2124786377	-105.238204956	-8.14096164703	175.030532837
0.0	-0.0	86.0315551758	-114.531669617	-10.2448244095	174.793991089
0.0	-0.0	84.3465499878	-121.577232361	-12.3482494354	175.546157837
0.0	-0.0	81.5587768555	-129.837783813	-16.3930034637	175.731643677
0.0	-0.0	83.6988525391	-132.503890991	-19.528131485	174.749221802
0.0	-0.0	84.6944198608	-115.74647522	-21.2953338623	177.671340942
0.0	-0.0	83.8383560181	-93.1101913452	-22.9275970459	-178.640960693
0.0	-0.0	84.3209381104	-76.0199584961	-22.1115131378	-177.661209106
0.0	-0.0	83.3400192261	-77.640296936	-19.8261890411	179.196304321
0.0	-0.0	82.9100646973	-92.8468475342	-18.5222225189	174.753082275
0.0	-0.0	82.4975738525	-112.124961853	-20.4859428406	172.179031372
0.0	-0.0	82.6052398682	-127.756629944	-24.5278701782	171.976623535
0.0	-0.0	82.6084594727	-133.388549805	-28.2916603088	174.554290771
0.0	-0.0	82.8927612305	-132.197357178	-33.4195861816	176.85017395
0.0	-0.0	81.983039856	-126.090789795	-38.0245170593	178.448257446
0.0	-0.0	82.9678878784	-122.585853577	-37.7021865845	178.424667358
0.0	-0.0	87.0737533569	-120.601074219	-35.4463233948	177.383346558
0.0	-0.0	83.2954025269	-118.831916809	-34.2155227661	176.813308716
0.0	-0.0	81.7040863037	-116.343322754	-33.0403785706	176.835739136
0.0	-0.0	78.083190918	-112.742301941	-31.7471199036	176.689239502
0.0	-0.0	72.6086349487	-107.832855225	-29.9544010162	177.512084961
0.0	-0.0	54.5992240906	-103.767410278	-28.2824935913	177.176574707
0.0	-0.0	44.496673584	-96.9861679077	-26.2963428497	178.000320435
0.0	-0.0	49.1975975037	-82.6040878296	-24.3616085052	-179.470443726
0.0	-0.0	51.7364997864	-67.5514450073	-21.6754455566	-176.624786377
0.0	-0.0	54.1350364685	-60.8308067322	-20.8092002869	-176.529510498
0.0	-0.0	55.1409568787	-65.3192977905	-19.9507007599	179.500076294
0.0	-0.0	58.3289146423	-72.7680892944	-17.8980922699	175.364181519
0.0	-0.0	59.3906288147	-70.9837112427	-16.9027137756	175.701446533
0.0	-0.0	59.6100234985	-69.8726959229	-15.1964521408	175.444061279
0.0	-0.0	60.9140434265	-70.1923141479	-12.3988199234	174.780899048
0.0	-0.0	60.9158973694	-71.6938095093	-10.5234413147	173.124969482
0.0	-0.0	60.7968673706	-72.317024231	-8.69561481476	173.050064087
0.0	-0.0	61.368270874	-74.8117523193	-4.99846029282	172.621994019
0.0	-0.0	62.0219459534	-81.3932418823	-1.11911761761	171.398361206
0.0	-0.0	61.6094970703	-86.62059021	1.09058475494	171.151550293
0.0	-0.0	61.9036140442	-89.3348236084	4.77062177658	170.600143433
0.0	-0.0	62.0958023071	-94.8074569702	7.42879676819	170.291397095
0.0	-0.0	62.3344612122	-108.725494385	11.6558084488	169.215179443
0.0	-0.0	61.9550666809	-117.539108276	12.3054828644	168.197494507
0.0	-0.0	62.7968292236	-115.464691162	11.5929164886	169.429916382
0.0	-0.0	62.2306442261	-123.986381531	15.4295291901	168.389083862
0.0	-0.0	62.4373168945	-142.166168213	16.8389110565	165.271148682
0.0	-0.0	62.3102531433	-146.103515625	15.7656164169	163.801345825
0.0	-0.0	62.7307319641	-147.535888672	17.3713111877	163.361068726
0.0	-0.0	62.5825881958	-166.628738403	20.6875591278	158.515228271
0.0	-0.0	62.4565124512	-173.400970459	20.4313983917	158.035385132
0.0	-0.0	62.5727615356	-168.461273193	19.4189586639	159.274002075
0.0	-0.0	62.5221939087	-168.425552368	20.3465270996	157.914871216
0.0	-0.0	62.2622184753	-170.333007812	21.9400653839	156.979949951
0.0	-0.0	63.4715156555	-168.555282593	22.4631614685	156.355377197
0.0	-0.0	78.7512817383	-167.731155396	23.1921482086	156.327316284
0.0	-0.0	76.8884658813	-168.663253784	24.1227054596	156.384765625
0.0	-0.0	75.248336792	-167.45161438	23.3150520325	156.873641968
0.0	-0.0	76.4455718994	-165.006591797	23.2631702423	157.436920166
0.0	-0.0	80.3616409302	-164.633392334	24.3410263062	157.898086548
0.0	-0.0	72.6699981689	-167.283081055	25.6371917725	155.091369629
0.0	-0.0	72.861328125	-179.350601196	29.6536712646	144.473052979
0.0	-0.0	71.8875350952	168.099914551	29.0177097321	136.228546143
0.0	-0.0	73.0379333496	174.856460571	19.8214912415	135.333084106
0.0	-0.0	70.7930450439	-165.32572937	13.0686883926	143.331481934
0.0	-0.0	70.3112411499	-156.309326172	9.99009037018	145.973464966
0.0	-0.0	69.8155212402	-159.318344116	7.27977371216	144.07989502
0.0	-0.0	69.585899353	-169.110321045	7.89100837708	143.085281372
0.0	-0.0	69.5189208984	174.237472534	10.5987539291	141.632324219
0.0	-0.0	69.4103546143	152.695465088	13.4138860703	140.17175293
0.0	-0.0	69.414100647	142.780380249	13.6486387253	140.379302979
0.0	-0.0	68.8539505005	150.727340698	12.9345979691	146.059356689
0.0	-0.0	68.9074478149	164.809890747	12.007153511	153.099060059
0.0	-0.0	68.6997909546	-173.315307617	10.7608203888	159.795318604
0.0	-0.0	68.7461090088	-155.871276855	10.6783132553	163.66217041
0.0	-0.0	69.3860855103	-149.688171387	11.8530101776	163.199310303
0.0	-0.0	69.2556991577	-150.496704102	12.6182918549	162.841720581
0.0	-0.0	69.303527832	-152.451507568	13.1205968857	162.47354126
0.0	-0.0	69.2604293823	-152.941955566	12.7400054932	162.632843018
0.0	-0.0	68.9543991089	-153.249725342	13.2540864944	162.24005127
0.0	-0.0	69.3237991333	-153.884429932	12.621336937	160.961639404
0.0	-0.0	94.5167312622	-153.587188721	13.3763742447	161.388183594
0.0	-0.0	81.6880645752	-155.224487305	14.2962341309	160.618789673
0.0	-0.0	89.5726928711	-153.961166382	12.8306818008	160.042922974
0.0	-0.0	91.4096679688	-149.490249634	12.6917028427	161.683410645
0.0	-0.0	99.8635482788	-148.815887451	13.2206735611	161.302688599
0.0	-0.0	69.1204223633	-148.798782349	12.4244775772	161.055557251
0.0	-0.0	53.0084190369	-147.987762451	12.8571968079	161.142410278
0.0	-0.0	63.7538490295	-147.532592773	13.020822525	161.021118164
0.0	-0.0	80.7704696655	-147.995849609	13.3953895569	161.259567261
0.0	-0.0	79.9840774536	-146.662231445	13.1168670654	161.266693115
0.0	-0.0	75.2432403564	-141.421401978	12.6989555359	162.013076782
0.0	-0.0	73.5929336548	-131.975616455	14.8435287476	164.257873535
0.0	-0.0	70.4114608765	-131.091171265	17.4554309845	163.93107605
0.0	-0.0	67.1423568726	-135.380630493	18.7544384003	163.177124023
0.0	-0.0	73.0152130127	-138.03616333	20.086025238	162.268447876
0.0	-0.0	74.5826339722	-137.534133911	25.9194278717	161.782714844
0.0	-0.0	65.9993515015	-137.333740234	30.7038936615	161.149658203
0.0	-0.0	64.1121902466	-140.489364624	30.3821792603	160.482376099
0.0	-0.0	64.9807739258	-144.299667358	31.6603393555	159.901168823
0.0	-0.0	61.3774032593	-146.626586914	34.1311454773	160.64024353
0.0	-0.0	59.5723724365	-150.429641724	31.3706970215	160.607376099
0.0	-0.0	63.6398124695	-155.650039673	28.516866684	159.913162231
0.0	-0.0	74.2024459839	-156.089736938	29.4809799194	159.937225342
0.0	-0.0	91.9673080444	-154.337585449	30.9980449677	160.990982056
0.0	-0.0	94.6753540039	-155.722702026	30.5672054291	160.858291626
0.0	-0.0	98.3256607056	-156.457290649	29.6363887787	161.237823486
0.0	-0.0	87.7163085938	-158.741333008	25.6483650208	161.905090332
0.0	-0.0	85.0313568115	-162.99180603	17.1293716431	161.924942017
0.0	-0.0	86.2104568481	-167.606796265	9.8287191391	162.025177002
0.0	-0.0	84.9678039551	-172.158737183	7.23626565933	161.36378479
0.0	-0.0	86.2249984741	-172.586135864	0.762367010117	160.843719482
0.0	-0.0	88.6773757935	-168.299072266	0.251031666994	162.163040161
0.0	-0.0	95.2496795654	-162.859680176	3.90327072144	162.960906982
0.0	-0.0	102.05947876	-149.939041138	3.18118238449	163.848358154
0.0	-0.0	98.3213119507	-125.6590271	0.163017764688	168.654373169
0.0	-0.0	85.6291351318	-117.639709473	-0.426331579685	169.493728638
0.0	-0.0	73.5597991943	-121.955703735	0.492998421192	167.426361084
0.0	-0.0	122.341461182	-121.002914429	0.722423791885	168.733520508
0.0	-0.0	110.849731445	-121.472320557	1.19408965111	168.373504639
0.0	-0.0	96.7888259888	-121.355567932	0.547516524792	168.090011597
0.0	-0.0	78.185546875	-122.195335388	-0.113290764391	168.617599487
0.0	-0.0	63.8383598328	-125.203994751	0.319852143526	168.363677979
0.0	-0.0	96.0327987671	-126.048706055	0.313432335854	168.372116089
0.0	-0.0	108.827171326	-124.778465271	0.221922203898	168.536895752
0.0	-0.0	101.584358215	-119.683761597	-0.672000110149	169.207778931
0.0	-0.0	74.9917373657	-119.099220276	0.195966675878	169.795471191
0.0	-0.0	69.3805084229	-141.411254883	1.42266881466	167.259277344
0.0	-0.0	75.8384628296	-155.715713501	-0.568959712982	165.994033813
0.0	-0.0	76.0857620239	-165.347930908	-0.625254094601	167.543151855
0.0	-0.0	76.3822631836	-177.345901489	-0.431877851486	166.311157227
0.0	-0.0	76.9946365356	-170.998260498	-0.0837569311261	168.33706665
0.0	-0.0	82.5788955688	-145.51574707	2.1364235878	172.185882568
0.0	-0.0	82.0500259399	-100.025779724	3.69340586662	176.291397095
0.0	-0.0	82.6802062988	-64.6300506592	1.595718503	-179.309585571
0.0	-0.0	82.9685668945	-71.5731582642	2.46957278252	177.469604492
0.0	-0.0	82.4271774292	-100.323440552	4.21413898468	171.046615601
0.0	-0.0	81.8677825928	-123.653038025	2.66576361656	166.853790283
0.0	-0.0	81.7603530884	-134.627929688	1.68807601929	166.5519104
0.0	-0.0	81.6616592407	-140.271194458	2.36548066139	166.626907349
0.0	-0.0	81.9783477783	-135.398239136	-0.0850819274783	166.708755493
0.0	-0.0	82.1021728516	-110.449577332	-5.09292173386	171.615158081
0.0	-0.0	82.0284042358	-86.8836288452	-5.16197538376	178.872512817
0.0	-0.0	81.9275131226	-84.4505615234	-7.05378723145	178.7368927
0.0	-0.0	81.5787506104	-101.669052124	-7.11098241806	172.975158691
0.0	-0.0	81.6041488647	-121.290168762	-7.48617839813	168.801422119
0.0	-0.0	81.5196838379	-127.602096558	-12.0458498001	168.462249756
0.0	-0.0	81.595993042	-112.241653442	-14.1840810776	173.272720337
0.0	-0.0	81.9363250732	-80.4507751465	-17.2172050476	-176.158340454
0.0	-0.0	82.2425003052	-75.1405944824	-19.412317276	-175.519058228
0.0	-0.0	81.9410324097	-98.5457229614	-16.0154190063	174.918716431
0.0	-0.0	81.4156417847	-129.440719604	-13.2048501968	166.151290894
0.0	-0.0	81.1921768188	-151.215713501	-16.7530231476	162.834197998
0.0	-0.0	81.4790267944	-143.975418091	-18.8455238342	167.537338257
0.0	-0.0	82.0068054199	-119.407432556	-21.3776931763	176.296096802
0.0	-0.0	79.8051834106	-99.9025802612	-24.0181732178	-177.81803894
0.0	-0.0	67.8339080811	-100.084152222	-22.0201530457	179.576873779
0.0	-0.0	91.0628585815	-105.375183105	-21.3139648438	176.743850708
0.0	-0.0	96.3457336426	-106.366287231	-22.4541568756	175.734329224
0.0	-0.0	85.6668701172	-104.895523071	-25.4012451172	176.587753296
0.0	-0.0	79.8528060913	-103.282852173	-24.5596160889	176.859939575
0.0	-0.0	77.607635498	-95.9559020996	-23.9279747009	178.801132202
0.0	-0.0	78.0397720337	-82.7980499268	-26.20744133	-176.903442383
0.0	-0.0	79.4537277222	-80.1544036865	-30.9596004486	-176.186233521
0.0	-0.0	77.3515625	-90.0710678101	-31.417016983	-179.820587158
0.0	-0.0	70.8115081787	-100.789283752	-28.0682430267	177.351150513
0.0	-0.0	66.290725708	-107.330581665	-26.924200058	175.875350952
0.0	-0.0	67.2422943115	-106.365440369	-26.6018714905	176.929428101
0.0	-0.0	65.8189697266	-103.153816223	-26.1675662994	177.580841064
0.0	-0.0	65.1993026733	-101.49773407	-27.4846191406	177.402374268
0.0	-0.0	65.2235488892	-102.385665894	-27.8076038361	177.396865845
0.0	-0.0	65.3696289062	-104.314613342	-27.3317184448	177.07359314
0.0	-0.0	66.2309494019	-105.422668457	-26.7353744507	176.87171936
0.0	-0.0	66.4816818237	-105.581825256	-26.114030838	176.897003174
0.0	-0.0	66.6810684204	-104.81652832	-27.1724491119	177.174560547
0.0	-0.0	66.8870391846	-92.8175735474	-25.2289619446	179.844161987
0.0	-0.0	67.2638015747	-53.5497932434	-24.4891967773	-168.006835938
0.0	-0.0	67.8676834106	-45.67918396	-25.9882488251	-168.701858521
0.0	-0.0	67.7593231201	-72.0834503174	-24.9172172546	-179.672348022
0.0	-0.0	66.9138565063	-98.3131408691	-22.7175292969	173.370849609
0.0	-0.0	67.1474838257	-108.078453064	-26.0150623322	172.620025635
0.0	-0.0	67.6708526611	-105.29524231	-32.9617080688	175.982727051
0.0	-0.0	68.5863342285	-95.8975067139	-37.7521133423	179.693389893
0.0	-0.0	69.0129013062	-93.9095916748	-37.3681716919	179.695571899
0.0	-0.0	69.2625198364	-96.4434356689	-34.2034797668	178.422485352
0.0	-0.0	67.9584503174	-98.2650146484	-36.0410842896	178.598129272
0.0	-0.0	69.3100509644	-89.3339004517	-41.7144012451	-176.483322144
0.0	-0.0	70.9364700317	-79.1889266968	-42.7700233459	-173.074996948
0.0	-0.0	71.770614624	-81.7014312744	-35.7801856995	-177.962341309
0.0	-0.0	71.6210784912	-91.4097442627	-24.1175537109	175.763275146
0.0	-0.0	71.8169021606	-99.0492477417	-12.3111753464	170.600082397
0.0	-0.0	72.185218811	-101.411354065	-3.91356682777	169.163986206
0.0	-0.0	72.1726608276	-100.335159302	-0.709156930447	169.265991211
0.0	-0.0	72.3168792725	-98.10987854	-0.16532202065	169.203186035
0.0	-0.0	72.077041626	-97.2178344727	-0.534221291542	170.263366699
0.0	-0.0	72.3393249512	-100.993881226	-0.332006752491	169.622192383
0.0	-0.0	72.1630096436	-108.661849976	0.180093556643	168.078842163
0.0	-0.0	72.2378540039	-113.36530304	0.365902155638	166.623092651
0.0	-0.0	71.9243011475	-115.995811462	1.6366314888	166.77532959
0.0	-0.0	72.1652832031	-128.705856323	2.64654278755	164.334152222
0.0	-0.0	71.7843856812	-128.015258789	0.635325789452	164.957901001
0.0	-0.0	71.8963165283	-126.16897583	-0.800681233406	165.707672119
0.0	-0.0	72.0366592407	-120.840042114	-1.09954166412	165.639648438
0.0	-0.0	72.1600494385	-100.17061615	-1.82246387005	171.179031372
0.0	-0.0	72.1891479492	-89.1418304443	0.486304461956	173.570220947
0.0	-0.0	72.3980255127	-90.741355896	1.93795204163	171.18270874
0.0	-0.0	72.3475418091	-100.683181763	2.36371850967	168.260559082
0.0	-0.0	71.9773025513	-110.311782837	4.61216115952	166.586334229
0.0	-0.0	72.2183456421	-113.935050964	8.82830047607	165.586624146
0.0	-0.0	72.266998291	-115.723388672	13.4715719223	164.759811401
0.0	-0.0	72.6405792236	-126.433822632	16.3899765015	163.118148804
0.0	-0.0	72.821144104	-134.920593262	17.6610908508	162.303237915
0.0	-0.0	72.9260635376	-135.899475098	19.3381595612	163.145126343
0.0	-0.0	72.8483963013	-139.041885376	20.5769920349	163.360351562
0.0	-0.0	73.3875198364	-144.008407593	21.4922885895	163.352600098
0.0	-0.0	73.1528778076	-143.011764526	20.6949901581	162.912597656
0.0	-0.0	73.3108444214	-131.631607056	18.8975982666	164.716583252
0.0	-0.0	73.681060791	-122.937736511	19.0328102112	167.398162842
0.0	-0.0	73.5178833008	-147.940994263	22.4819297791	162.694198608
0.0	-0.0	73.4774017334	-173.546447754	22.4442138672	160.764755249
0.0	-0.0	73.2108688354	-166.037200928	18.0850124359	163.452896118
0.0	-0.0	73.6898651123	-139.71647644	14.2569351196	166.970275879
0.0	-0.0	73.7426071167	-115.29775238	15.0071630478	168.846908569
0.0	-0.0	74.0459671021	-103.639480591	15.8838186264	166.516555786
0.0	-0.0	73.7659759521	-105.95350647	15.4607982635	165.070007324
0.0	-0.0	73.6764450073	-120.657974243	16.6191711426	163.824142456
0.0	-0.0	73.8755187988	-133.627487183	17.6933250427	163.210205078
0.0	-0.0	74.0138015747	-134.73097229	18.3719062805	164.414642334
0.0	-0.0	73.9318161011	-140.734191895	22.1261329651	164.772079468
0.0	-0.0	73.6108779907	-169.350067139	27.1515655518	162.453536987
0.0	-0.0	73.3558731079	177.435836792	26.688287735	163.566070557
0.0	-0.0	73.871131897	-177.209976196	19.9958534241	165.112640381
0.0	-0.0	74.1791610718	-162.797271729	15.2145414352	165.172637939
0.0	-0.0	74.3219985962	-146.754974365	14.3549070358	166.105789185
0.0	-0.0	74.5528106689	-141.021087646	14.0648298264	164.73727417
0.0	-0.0	74.5430145264	-138.957092285	14.5763835907	162.27432251
0.0	-0.0	74.4214096069	-130.992202759	15.9080657959	160.502593994
0.0	-0.0	74.3962554932	-124.439979553	16.2600669861	160.111785889
0.0	-0.0	74.4688720703	-126.161735535	17.305891037	159.060668945
0.0	-0.0	74.5570297241	-133.137710571	18.8633499146	158.055953979
0.0	-0.0	74.4972229004	-145.152633667	21.089679718	157.415588379
0.0	-0.0	74.3279571533	-158.251998901	24.5050487518	156.859710693
0.0	-0.0	74.0898666382	-174.357315063	29.0381622314	154.880218506
0.0	-0.0	74.0835800171	174.998062134	30.7877693176	152.412918091
0.0	-0.0	73.9682617188	179.778076172	25.5615940094	153.521530151
0.0	-0.0	74.5158996582	-168.674560547	20.7911071777	155.045883179
0.0	-0.0	74.7320632935	-159.163589478	22.2950439453	157.430221558
0.0	-0.0	74.8379440308	-157.834854126	25.2983322144	158.41998291
0.0	-0.0	75.3516311646	-159.021057129	26.572807312	159.450927734
0.0	-0.0	75.732170105	-165.1381073	27.5344314575	161.689682007
0.0	-0.0	75.9686813354	-177.536010742	26.8532810211	165.029953003
0.0	-0.0	76.1266174316	177.557556152	25.2141571045	165.985961914
0.0	-0.0	76.4292144775	-179.158737183	21.9881916046	166.842849731
0.0	-0.0	76.5781097412	-170.055953979	19.8893146515	166.789352417
0.0	-0.0	76.6715774536	-157.86088562	19.0146160126	167.392379761
0.0	-0.0	76.6767272949	-149.483612061	17.9414272308	166.75920105
0.0	-0.0	76.6319732666	-142.842971802	17.9235477448	165.328308105
0.0	-0.0	76.7366027832	-136.69972229	17.6808986664	164.784912109
0.0	-0.0	76.6160354614	-133.656585693	17.8615016937	163.485107422
0.0	-0.0	76.456199646	-130.012191772	18.7119407654	162.073944092
0.0	-0.0	76.4655303955	-124.765388489	18.9101638794	161.144638062
0.0	-0.0	76.3387145996	-122.116790771	20.0993289948	159.793075562
0.0	-0.0	76.7355957031	-129.311355591	24.4598026276	151.493026733
0.0	-0.0	76.8084182739	-149.638641357	31.7597732544	137.438461304
0.0	-0.0	76.6300201416	-166.369598389	36.9059371948	132.979248047
0.0	-0.0	75.9931182861	176.471664429	37.2429962158	133.390228271
0.0	-0.0	76.0527572632	168.627761841	31.6701202393	135.860153198
0.0	-0.0	76.1328735352	-176.743713379	24.7720508575	141.016891479
0.0	-0.0	76.3102874756	-154.441223145	19.5516586304	147.339096069
0.0	-0.0	75.9418716431	-148.871383667	18.4465732574	147.471252441
0.0	-0.0	75.6293869019	-165.863754272	19.856174469	143.259841919
0.0	-0.0	75.3439865112	179.903594971	21.7357769012	139.317352295
0.0	-0.0	75.3176269531	166.60093689	25.8703746796	134.32925415
0.0	-0.0	74.9981307983	154.103057861	29.9342975616	131.555023193
0.0	-0.0	74.6944351196	156.010696411	27.8147106171	132.626373291
0.0	-0.0	74.8373794556	-179.537948608	22.6518802643	142.312103271
0.0	-0.0	75.0205307007	-152.397003174	19.2149162292	150.749923706
0.0	-0.0	75.1493911743	-140.393341064	18.2937011719	151.628189087
0.0	-0.0	75.2227935791	-138.131225586	19.3897686005	150.215988159
0.0	-0.0	75.018661499	-133.574630737	22.285987854	151.481521606
0.0	-0.0	74.7389144897	-128.534957886	27.8771400452	153.942626953
0.0	-0.0	74.874130249	-128.454116821	31.0692710876	155.968521118
0.0	-0.0	74.7854690552	-132.05897522	31.3520126343	156.815109253
0.0	-0.0	55.7073669434	-134.95223999	30.019493103	157.094894409
0.0	-0.0	56.6887397766	-136.608917236	29.0618095398	157.328842163
0.0	-0.0	64.3480606079	-139.109573364	29.5868434906	158.112731934
0.0	-0.0	103.334907532	-145.716659546	29.7153759003	158.807983398
0.0	-0.0	97.2743606567	-151.716888428	28.5840511322	158.830993652
0.0	-0.0	81.9198760986	-154.70211792	27.3462295532	159.079330444
0.0	-0.0	72.7953186035	-157.961624146	24.6367893219	159.755325317
0.0	-0.0	78.0097198486	-162.141326904	22.4098453522	160.5806427
0.0	-0.0	77.2216491699	-166.461883545	22.1196575165	161.775802612
0.0	-0.0	76.8400192261	-174.983428955	23.6697673798	161.993484497
0.0	-0.0	76.6931762695	174.594543457	22.3838653564	160.445266724
0.0	-0.0	74.6722106934	-179.238952637	19.4742832184	161.140609741
0.0	-0.0	75.9969711304	-165.932403564	17.6981639862	162.805038452
0.0	-0.0	83.7006988525	-155.235748291	17.0829963684	163.756286621
0.0	-0.0	94.1960372925	-148.451568604	15.2322053909	163.001800537
0.0	-0.0	90.5210189819	-143.880447388	13.8697319031	162.544891357
0.0	-0.0	80.8130722046	-138.697021484	14.2593946457	163.326477051
