-55.1332168579	-66.259223938	140.657211304	4.02459001541	-2.63850855827	-3.26046204567
-54.7627410889	-66.4296417236	140.266311646	4.48857450485	-2.48043680191	-3.23368120193
-54.8714065552	-66.1007537842	140.039093018	4.98748064041	-2.4332075119	-3.39674925804
-54.987033844	-66.0013656616	139.790542603	5.07434511185	-2.81860852242	-3.43178939819
-54.9793739319	-65.967414856	139.725753784	4.81913089752	-4.12308883667	-3.31243109703
-56.2462768555	-65.4455184937	140.381378174	3.90610671043	-5.6415014267	-3.00148248672
-57.9331359863	-64.8628540039	139.289886475	0.707406938076	-6.64746665955	-2.09503984451
-62.2778053284	-63.1758003235	141.137115479	-4.8955488205	-7.43047714233	0.143490567803
-61.2559432983	-64.0498046875	137.319290161	-9.59419250488	-8.0238237381	1.92408454418
-20.0990905762	-63.8459472656	83.547668457	-11.3029909134	-8.82472705841	2.48085451126
9.00331115723	-48.6866340637	37.3465156555	-12.3545713425	-9.84251689911	2.85952186584
10.716178894	-56.1938705444	57.5441970825	-13.0019598007	-10.5691585541	2.83786702156
-70.4836654663	-65.1741104126	138.245895386	-13.3915691376	-11.1613397598	2.79047894478
-87.4420700073	-65.1659698486	162.951568604	-13.9807481766	-11.3446407318	2.46693515778
-92.4690856934	-66.993812561	172.525543213	-15.2036647797	-12.5581245422	2.37480783463
-45.6776924133	-75.3732376099	112.106681824	-17.4110069275	-13.8484983444	2.4361987114
