-0.0256154537201	0.993334293365	-0.007479429245	-0.215152740479	1.59068036079	-0.139338135719
-0.0257377624512	0.994886159897	-0.00847625732422	-0.214897871017	1.59045135975	-0.139514803886
-0.0239593982697	0.995394945145	-0.0080578327179	-0.21436715126	1.59034502506	-0.139513731003
-0.0223777294159	0.995928764343	-0.00752711296082	-0.214657783508	1.5903519392	-0.139895915985
-0.0235471725464	0.996385812759	-0.00753533840179	-0.215880393982	1.59058523178	-0.140733957291
-0.0254015922546	0.9974796772	-0.00779104232788	-0.219499349594	1.59112608433	-0.141522288322
-0.0305981636047	0.991755962372	-0.00574016571045	-0.226459980011	1.59212720394	-0.142077445984
-0.0345883369446	0.989435911179	-0.0078489780426	-0.229597091675	1.59227323532	-0.14431142807
-0.0365927219391	0.990398168564	-0.00654458999634	-0.22357416153	1.5833363533	-0.143573999405
-0.0390005111694	0.994223117828	-0.00492167472839	-0.217175483704	1.57267403603	-0.138183832169
-0.0371913909912	0.996889591217	-0.00550627708435	-0.209158420563	1.56108641624	-0.132169008255
-0.0378601551056	0.992124080658	-0.0100355148315	-0.201112985611	1.55357813835	-0.126467347145
-0.038510799408	0.983614444733	-0.0161980390549	-0.196877002716	1.55039310455	-0.121528983116
-0.0396099090576	0.977581501007	-0.0219937562943	-0.194962978363	1.54751622677	-0.117059588432
-0.0418915748596	0.973934412003	-0.0254657268524	-0.193806409836	1.54671061039	-0.114199995995
-0.0425968170166	0.973415374756	-0.0245144367218	-0.191826343536	1.54690396786	-0.112544298172
-0.0323085784912	0.970283746719	-0.0121958255768	-0.190109014511	1.54703140259	-0.111370205879
