0.0	-0.0	137.17137146	61.24817276	76.4212799072	-10.0449638367
0.0	-0.0	137.534988403	59.9190673828	79.6591262817	-8.56131649017
0.0	-0.0	137.764221191	58.2770004272	82.784866333	-7.64942121506
0.0	-0.0	138.632492065	57.0898361206	83.3902435303	-7.15471172333
0.0	-0.0	140.687301636	50.2669639587	84.4757385254	-4.21138715744
0.0	-0.0	140.970397949	-145.221557617	89.6916046143	-179.714538574
0.0	-0.0	139.085159302	-164.118255615	78.8325271606	-175.048324585
0.0	-0.0	139.404174805	-176.932983398	68.4980316162	-171.709030151
0.0	-0.0	141.540267944	179.309295654	60.2234230042	-169.791381836
0.0	-0.0	141.38319397	179.635604858	53.9811668396	-169.955886841
0.0	-0.0	137.12713623	179.757171631	47.815536499	-171.495880127
0.0	-0.0	130.991027832	178.5809021	40.8865432739	-172.729370117
0.0	-0.0	102.187065125	178.221359253	33.8791236877	-175.023605347
