-28.1726322174	-54.9934005737	145.509963989	8.04774951935	3.80159449577	-0.491646677256
-21.4903373718	-53.9148330688	132.94039917	8.13283729553	3.76319980621	-0.585229516029
-23.7837200165	-53.8013076782	135.347976685	8.09212112427	4.00860786438	-0.435421973467
-23.5642204285	-53.8032646179	135.454818726	7.84161806107	3.99417710304	-0.312006533146
-24.3309993744	-53.6079139709	135.708343506	7.78262615204	4.02256822586	-0.285558283329
-24.9629631042	-53.8105621338	135.812103271	7.60622549057	4.7566742897	-0.196668103337
-27.2564868927	-53.3549919128	137.586578369	6.9680223465	5.9095621109	0.307500720024
-26.2960834503	-53.07762146	135.896087646	4.81788110733	9.28337001801	1.44715261459
-26.1181049347	-53.314414978	135.070129395	0.225083947182	14.1575727463	3.29927682877
-22.948348999	-52.5922889709	127.54813385	-3.79242086411	18.2432975769	3.83653616905
-17.1975841522	-44.09192276	106.569671631	-5.13430690765	20.5407142639	3.99249958992
-23.1330986023	-40.297996521	105.929092407	-4.8194770813	20.7928771973	3.92182278633
-25.1953620911	-35.9383926392	103.480392456	-4.52492570877	21.391368866	3.7711520195
-27.4603385925	-31.7651538849	103.1795578	-4.57783842087	22.1312980652	3.50849151611
-24.0042591095	-25.4287128448	92.6868972778	-4.67718076706	22.3011074066	3.30097222328
-22.8895072937	-25.6595745087	94.4540023804	-4.5769443512	22.4082946777	3.29716563225
-26.9496135712	-28.6396160126	113.977470398	-4.48401641846	22.4063072205	3.30059289932
-35.290725708	-31.9423656464	131.9324646	-4.47205877304	22.4914608002	3.10923051834
-11.7196617126	-24.7706241608	80.1900024414	-4.30929136276	22.7327919006	3.05295705795
-14.0460653305	-14.1437482834	52.5337753296	-4.18357563019	22.6889896393	3.05552959442
-22.3796920776	-15.1888628006	73.2728118896	-4.26881217957	22.8240737915	2.84986329079
-28.6012096405	-13.4334306717	82.4244842529	-4.27364587784	22.8325252533	2.83479142189
-37.8023948669	-11.013669014	98.6025619507	-4.76728582382	22.9865112305	2.43453931808
-40.9161720276	-12.9318675995	112.556800842	-4.98061656952	23.5134181976	1.90082621574
-35.5723495483	-15.6147146225	105.668128967	-4.8493885994	23.7828655243	2.16303730011
-22.0700550079	-7.24990463257	62.7231063843	-5.00051355362	23.7503089905	2.25918745995
-29.1767749786	-3.99408841133	45.3140449524	-4.75575304031	23.7826156616	2.15886735916
-32.5324363708	-2.61777424812	71.3009338379	-4.49093914032	23.7077217102	2.2187371254
-45.2287445068	3.14922618866	113.09475708	-4.72170686722	23.852645874	2.54012107849
-41.7338447571	-3.33429098129	114.642860413	-5.07546854019	24.2647342682	2.7059044838
-39.6545677185	-4.58012676239	108.054962158	-4.84360599518	25.7627792358	2.55347418785
-38.1767997742	-4.61626386642	97.1319046021	-5.07095241547	28.855298996	2.98127675056
-40.5201873779	-4.55169916153	97.3237609863	-6.25577783585	31.4246006012	3.20159626007
-39.3251571655	-5.56828355789	94.21900177	-5.85670185089	31.867521286	2.24994921684
-32.7053756714	-4.93609905243	79.2041244507	-4.57818126678	31.6365375519	2.48100757599
-17.930437088	5.48316335678	43.0729598999	-4.98936414719	31.0424308777	2.19970417023
