-0.0550932884216	1.09874033928	0.229417681694	-0.197461366653	1.60309898853	-0.0202696323395
-0.0570163726807	1.10072958469	0.231688976288	-0.197566986084	1.60109996796	-0.0148477554321
-0.0599567890167	1.10455095768	0.232038736343	-0.198330879211	1.59595775604	-0.00554800033569
-0.0644996166229	1.10455608368	0.231225371361	-0.197448253632	1.59604692459	-0.00126206874847
-0.0685019493103	1.10384070873	0.227990269661	-0.1931848526	1.59579575062	-0.000582575798035
-0.0762856006622	1.10055065155	0.221121072769	-0.186952114105	1.59012281895	0.00474894046783
-0.0805232524872	1.09957921505	0.211140036583	-0.178797721863	1.58460366726	0.00796318054199
-0.0771336555481	1.09712862968	0.206527709961	-0.170068264008	1.58571624756	0.00501596927643
-0.0701313018799	1.09632468224	0.207188129425	-0.168492794037	1.58718979359	0.00442326068878
-0.0631110668182	1.09846127033	0.209040045738	-0.169993638992	1.58568334579	0.00949025154114
-0.0562579631805	1.10239326954	0.212028503418	-0.169250249863	1.58419167995	0.0144944190979
-0.0551581382751	1.10356914997	0.211044073105	-0.167293548584	1.58684396744	0.0166772603989
-0.0575008392334	1.09852719307	0.212805390358	-0.165372371674	1.5870859623	0.02086353302
-0.0628352165222	1.09814238548	0.212563991547	-0.163170099258	1.58698880672	0.0246171951294
-0.0727660655975	1.09844303131	0.210723996162	-0.161755084991	1.58939731121	0.0261092185974
-0.0792968273163	1.09886586666	0.211285114288	-0.162009716034	1.59290361404	0.0272334814072
-0.082103729248	1.10217440128	0.213430166245	-0.161870479584	1.59595143795	0.0291578769684
-0.0848016738892	1.11207342148	0.211250543594	-0.162041902542	1.59737312794	0.0337979793549
-0.08722448349	1.1244494915	0.204963803291	-0.163645267487	1.59731638432	0.0422868728638
-0.08713555336	1.1314946413	0.200773239136	-0.165911197662	1.59723067284	0.052636384964
-0.0840308666229	1.13190722466	0.202780246735	-0.164450407028	1.59689116478	0.0612666606903
-0.0850791931152	1.13699305058	0.194018363953	-0.159823417664	1.59741103649	0.0678737163544
-0.0760114192963	1.1493241787	0.190685153008	-0.156850099564	1.59715640545	0.0742044448853
-0.0782811641693	1.14954507351	0.194722175598	-0.154957771301	1.59634375572	0.0787925720215
-0.0872886180878	1.12231576443	0.222663879395	-0.152422428131	1.59564518929	0.0808109045029
-0.0874683856964	1.13086760044	0.220998764038	-0.149983406067	1.59561443329	0.0804800987244
-0.0920915603638	1.12989842892	0.216969490051	-0.14835691452	1.59527492523	0.0800869464874
-0.0950200557709	1.12097704411	0.21515917778	-0.146779060364	1.59578192234	0.0790377855301
-0.0915961265564	1.12069523335	0.218007206917	-0.145057439804	1.59688079357	0.0783314704895
-0.0837488174438	1.12442374229	0.226812958717	-0.142815351486	1.59768009186	0.0800029039383
-0.0789227485657	1.12262403965	0.235743880272	-0.13897061348	1.59835910797	0.0852866172791
-0.0773985385895	1.12289822102	0.241599559784	-0.133693218231	1.59910678864	0.0949275493622
-0.0791213512421	1.12148058414	0.246714472771	-0.127778291702	1.59866714478	0.106805562973
-0.0824930667877	1.11607170105	0.257010579109	-0.12352514267	1.59516906738	0.121055364609
-0.0804674625397	1.11296105385	0.273848056793	-0.122060775757	1.59154689312	0.131667733192
-0.0793113708496	1.10676419735	0.279013991356	-0.121283769608	1.59139800072	0.134861707687
-0.0812079906464	1.0986468792	0.275573253632	-0.119628667831	1.59169018269	0.135312318802
-0.0830898284912	1.09473001957	0.27174949646	-0.117267847061	1.59206426144	0.135262012482
-0.0751008987427	1.09602403641	0.278869867325	-0.114969015121	1.59229743481	0.137359499931
-0.0598361492157	1.09787797928	0.294715881348	-0.113072633743	1.59162342548	0.141114592552
-0.0536751747131	1.09401273727	0.298062801361	-0.112560033798	1.59077370167	0.14498090744
-0.0541620254517	1.09536337852	0.289182782173	-0.112472772598	1.5897257328	0.149053692818
