-0.210435628891	0.935051441193	-0.14156627655	-0.163300037384	1.50481581688	-0.258542060852
-0.207632780075	0.932944774628	-0.140636920929	-0.164170265198	1.50303590298	-0.253442645073
-0.205471754074	0.930471420288	-0.13830268383	-0.165062665939	1.50075745583	-0.247693657875
-0.205147504807	0.92940735817	-0.136368751526	-0.164242982864	1.49992525578	-0.243978857994
-0.203752756119	0.93452334404	-0.13169336319	-0.16267991066	1.50682413578	-0.246673107147
-0.198663234711	0.947334527969	-0.125261545181	-0.159785747528	1.52345526218	-0.257191896439
-0.188523292542	0.965974807739	-0.120299816132	-0.156685352325	1.54157853127	-0.267895936966
-0.170214414597	0.987156629562	-0.115208029747	-0.154706001282	1.55881428719	-0.275431156158
-0.146724224091	1.00348424911	-0.111528158188	-0.153096675873	1.57385599613	-0.28151512146
-0.120980024338	1.01241779327	-0.108721375465	-0.148766279221	1.57857775688	-0.286241292953
-0.101297855377	1.01552319527	-0.111152291298	-0.140756607056	1.58411288261	-0.289837598801
-0.0838525295258	1.01902580261	-0.116769790649	-0.132530927658	1.59073150158	-0.2957239151
-0.0696432590485	1.02457118034	-0.122025370598	-0.122938871384	1.59434080124	-0.301080107689
-0.0504906177521	1.03005027771	-0.124807715416	-0.111191749573	1.59658551216	-0.303780794144
-0.0290982723236	1.02886748314	-0.126517772675	-0.0969469547272	1.59809207916	-0.304953455925
-0.0141513347626	1.02532553673	-0.12954890728	-0.0825085639954	1.59739840031	-0.303698062897
-0.00842952728271	1.02209305763	-0.132584095001	-0.0655055046082	1.59524476528	-0.30221414566
-0.00984406471252	1.01556038857	-0.133366107941	-0.049259185791	1.59308624268	-0.300823926926
-0.0122015476227	1.01577186584	-0.129989504814	-0.0398609638214	1.59267294407	-0.292273521423
-0.00979232788086	1.01259660721	-0.125547766685	-0.0298097133636	1.59317314625	-0.280405759811
-0.00248193740845	1.00791454315	-0.120350837708	-0.0175127983093	1.59178459644	-0.269470453262
0.017481803894	1.00775671005	-0.113346099854	-0.00581216812134	1.58990955353	-0.262758731842
0.0703275203705	1.01086139679	-0.104543685913	0.000421047210693	1.58857429028	-0.258831381798
0.116048574448	1.00928711891	-0.103969335556	0.00322532653809	1.58732521534	-0.256927013397
0.131362915039	1.00774717331	-0.10561811924	0.00285863876343	1.58707296848	-0.256600618362
0.120289325714	1.0070707798	-0.106892824173	-0.00171256065369	1.58776056767	-0.255496740341
0.101516246796	1.00485634804	-0.107916593552	-0.00341534614563	1.58743476868	-0.256822824478
