-0.220257759094	0.924619674683	-0.143613934517	-0.172313690186	1.53400444984	-0.284334182739
-0.220705032349	0.924785137177	-0.142924070358	-0.172504425049	1.5340089798	-0.282716631889
-0.220641613007	0.924467802048	-0.141892313957	-0.172939062119	1.53380823135	-0.281364202499
-0.220378875732	0.92521739006	-0.140625	-0.173399448395	1.53608965874	-0.281886816025
-0.217194795609	0.933103561401	-0.137187719345	-0.174297571182	1.54464507103	-0.284734368324
-0.208595752716	0.943775177002	-0.131633281708	-0.174855709076	1.55611526966	-0.289449095726
-0.194528579712	0.957896947861	-0.127773165703	-0.171617269516	1.56948077679	-0.2968313694
-0.173824310303	0.972951412201	-0.126065611839	-0.162042140961	1.57098078728	-0.300877332687
-0.143276691437	0.984991312027	-0.123531579971	-0.155384540558	1.56709253788	-0.298871397972
-0.10443353653	0.984619379044	-0.122648715973	-0.153315544128	1.56907582283	-0.293591022491
-0.0696444511414	0.982852220535	-0.128617763519	-0.152504920959	1.57271194458	-0.288962244987
-0.0491025447845	0.980909347534	-0.136700153351	-0.152137756348	1.5741161108	-0.283702373505
-0.0365545749664	0.978703737259	-0.140105485916	-0.150958061218	1.56825339794	-0.275997281075
-0.0115728378296	0.969609737396	-0.138673782349	-0.147219657898	1.56648743153	-0.266731023788
0.00943493843079	0.958156108856	-0.138860940933	-0.14283657074	1.56960368156	-0.26079750061
0.0123901367188	0.949129581451	-0.140347599983	-0.138665437698	1.57134246826	-0.260010957718
0.0105111598969	0.94816327095	-0.139210700989	-0.13437962532	1.57165825367	-0.263611316681
0.00314545631409	0.954647302628	-0.136403083801	-0.129158496857	1.57097935677	-0.266573667526
-0.000412940979004	0.960801839828	-0.135148048401	-0.122074127197	1.57062232494	-0.268665075302
0.00520062446594	0.958875179291	-0.135147333145	-0.115840673447	1.56978404522	-0.268928289413
0.0127708911896	0.954544305801	-0.135874271393	-0.110685586929	1.56940424442	-0.267509222031
0.0174238681793	0.950773954391	-0.135606408119	-0.105238199234	1.56897389889	-0.266066670418
0.0253262519836	0.945694923401	-0.136170625687	-0.100155830383	1.56777989864	-0.26606118679
0.0301384925842	0.942542791367	-0.135727882385	-0.0962920188904	1.56623339653	-0.267164707184
0.0343384742737	0.937866926193	-0.136890649796	-0.0946593284607	1.56546700001	-0.268559098244
0.0372350215912	0.936856269836	-0.138204216957	-0.0951769351959	1.5651819706	-0.270464658737
0.0178363323212	0.951531887054	-0.132309556007	-0.0967416763306	1.56524538994	-0.271803379059
0.00214195251465	0.965454101562	-0.132538080215	-0.0983302593231	1.56573474407	-0.273114442825
-0.00888347625732	0.963963031769	-0.138081431389	-0.0991115570068	1.56487774849	-0.273934602737
-0.00412631034851	0.954683542252	-0.141917228699	-0.0987193584442	1.5640130043	-0.274932742119
-0.00234460830688	0.946884870529	-0.146973490715	-0.0987277030945	1.56397902966	-0.276403427124
-0.010124206543	0.943290948868	-0.152033805847	-0.099347114563	1.56401908398	-0.27757024765
-0.00942087173462	0.944855451584	-0.150022506714	-0.100561380386	1.56418478489	-0.278876900673
-0.0144395828247	0.959697961807	-0.14710688591	-0.10178899765	1.56476867199	-0.27961230278
-0.0214760303497	0.966327667236	-0.147428035736	-0.102900505066	1.56523954868	-0.280729174614
-0.0270571708679	0.964465856552	-0.149663925171	-0.103038072586	1.56461071968	-0.281527996063
-0.0275776386261	0.959424495697	-0.151377916336	-0.103384256363	1.56424164772	-0.282097816467
-0.0327682495117	0.962293386459	-0.152925014496	-0.104048967361	1.5648175478	-0.282576322556
-0.0315179824829	0.963787078857	-0.150789499283	-0.103739976883	1.5645365715	-0.282966971397
-0.025013923645	0.957143545151	-0.150734782219	-0.102661848068	1.56419324875	-0.283788323402
-0.0188798904419	0.94880604744	-0.153313755989	-0.102105617523	1.56420469284	-0.284138441086
-0.0138311386108	0.943950891495	-0.15468788147	-0.10214304924	1.56391143799	-0.284286856651
-0.012086391449	0.9456615448	-0.15272808075	-0.101797819138	1.56378293037	-0.284683704376
-0.0160760879517	0.960307121277	-0.147046327591	-0.10173869133	1.56401789188	-0.28518652916
-0.025276184082	0.966832637787	-0.146199226379	-0.101223468781	1.56391704082	-0.285548329353
-0.0266423225403	0.962107896805	-0.146881341934	-0.100429058075	1.56390726566	-0.286143183708
-0.0274043083191	0.959337949753	-0.148903727531	-0.0997354984283	1.56425356865	-0.286917924881
-0.0300796031952	0.956555843353	-0.151773691177	-0.0994255542755	1.56415510178	-0.287652254105
-0.0237700939178	0.949421882629	-0.151276826859	-0.0990765094757	1.56409835815	-0.288130760193
-0.019767999649	0.94701385498	-0.15084195137	-0.099146604538	1.56421637535	-0.288447141647
-0.0212500095367	0.947028636932	-0.151564598083	-0.0994498729706	1.56454205513	-0.288488388062
-0.0241420269012	0.945298433304	-0.153037905693	-0.0994529724121	1.56435072422	-0.287841320038
-0.0272166728973	0.943284511566	-0.155323505402	-0.099493265152	1.56444406509	-0.287528038025
-0.0289585590363	0.941858768463	-0.156220793724	-0.0998663902283	1.56477129459	-0.286873102188
-0.0344398021698	0.944838047028	-0.156356096268	-0.100917577744	1.5649009943	-0.286069869995
-0.0403299331665	0.949255228043	-0.156327486038	-0.101386070251	1.56514382362	-0.285411834717
-0.0430951118469	0.950987100601	-0.155447483063	-0.10168671608	1.56506752968	-0.28520655632
-0.0413725376129	0.951793670654	-0.153241157532	-0.101971626282	1.5653553009	-0.285135149956
-0.038033246994	0.95157790184	-0.152010440826	-0.102281808853	1.56539309025	-0.285233736038
-0.0366044044495	0.951575040817	-0.151953935623	-0.101936817169	1.56549024582	-0.285312891006
-0.0371015071869	0.952656984329	-0.152808427811	-0.101448535919	1.5655400753	-0.285756111145
-0.0381939411163	0.953326463699	-0.153937935829	-0.100924015045	1.56570827961	-0.286011099815
-0.0413827896118	0.95314002037	-0.156094074249	-0.100382566452	1.56591999531	-0.285829544067
-0.0451538562775	0.955494403839	-0.157546520233	-0.0997729301453	1.56584179401	-0.285938739777
-0.0469908714294	0.957459926605	-0.158809900284	-0.0994069576263	1.5662163496	-0.286141633987
-0.0455074310303	0.957358360291	-0.158487319946	-0.0986938476562	1.56660461426	-0.286305427551
-0.0440492630005	0.956882953644	-0.158384084702	-0.0976595878601	1.56697142124	-0.286766767502
-0.0419890880585	0.956640005112	-0.158100366592	-0.0963778495789	1.56767654419	-0.287691116333
-0.0402753353119	0.955949783325	-0.157177209854	-0.0955123901367	1.56797981262	-0.288017749786
-0.0412101745605	0.956961393356	-0.156223058701	-0.0951936244965	1.56802105904	-0.287992715836
-0.0419142246246	0.957514286041	-0.155482411385	-0.0935087203979	1.56858336926	-0.289084434509
-0.0423405170441	0.954972743988	-0.156311035156	-0.0876545906067	1.56800889969	-0.292680859566
