-0.0456929206848	1.02705144882	-0.146878004074	-0.0554141998291	1.58257269859	-0.322486877441
-0.0446128845215	1.02852630615	-0.148226618767	-0.0555539131165	1.58209609985	-0.32505941391
-0.0460681915283	1.02658104897	-0.152571558952	-0.0565567016602	1.57991814613	-0.32675242424
-0.0564746856689	1.02677464485	-0.167238116264	-0.0577614307404	1.57810676098	-0.327279090881
-0.0538108348846	1.02765893936	-0.174235463142	-0.0575170516968	1.57762682438	-0.326342821121
-0.0417075157166	1.02100419998	-0.171854972839	-0.0553777217865	1.57777678967	-0.325262546539
-0.0248200893402	1.01545453072	-0.168142795563	-0.049152135849	1.57869505882	-0.325383663177
-0.016699552536	1.03120493889	-0.176594495773	-0.0405333042145	1.57988250256	-0.326220989227
-0.00807785987854	1.03418040276	-0.186364173889	-0.0320534706116	1.5803552866	-0.327008485794
0.0123851299286	1.03596997261	-0.185685038567	-0.023512840271	1.58098518848	-0.327631592751
0.0349116325378	1.0349843502	-0.180976390839	-0.015368938446	1.5811457634	-0.327473402023
0.0558068752289	1.04535388947	-0.177790164948	-0.00878715515137	1.58075034618	-0.327328443527
