0.0209517478943	0.984942436218	0.184590935707	-0.191588401794	1.59153139591	0.02405834198
0.021954536438	0.984955310822	0.185223698616	-0.191057920456	1.59120559692	0.0241171121597
0.0190510749817	0.978068828583	0.18600153923	-0.190901279449	1.5898655653	0.0248899459839
0.00709652900696	0.961970567703	0.184401869774	-0.192560911179	1.58980071545	0.0264513492584
-0.0043318271637	0.957240819931	0.178195357323	-0.197963237762	1.59609925747	0.0270881652832
-0.0119922161102	0.952661991119	0.178381085396	-0.20378446579	1.60409963131	0.023633480072
-0.017879486084	0.953713417053	0.184842824936	-0.209222078323	1.61215877533	0.0170142650604
-0.0255150794983	0.955679655075	0.191418528557	-0.215630054474	1.62349295616	0.00462067127228
-0.0318458080292	0.959885120392	0.201949715614	-0.219243764877	1.63243126869	-0.0112271308899
-0.0377848148346	0.969355583191	0.21665596962	-0.219719648361	1.63656747341	-0.0255954265594
-0.0419788360596	0.981099843979	0.234347701073	-0.218340873718	1.63841235638	-0.038688659668
-0.0463297367096	0.994586229324	0.248490929604	-0.215933799744	1.63845229149	-0.0518000125885
-0.0494661331177	1.00655722618	0.258798956871	-0.212554931641	1.63837885857	-0.065553188324
-0.0501141548157	1.01276040077	0.266381382942	-0.209440946579	1.63836181164	-0.0788588523865
-0.0503103733063	1.01371860504	0.269256830215	-0.207304000854	1.63843619823	-0.0872476100922
-0.0524775981903	1.01257872581	0.267483353615	-0.205628871918	1.63736915588	-0.0884473323822
-0.0517225265503	1.01258254051	0.267122745514	-0.204578876495	1.63737392426	-0.0864913463593
-0.043821811676	1.00537467003	0.280410051346	-0.204492330551	1.63830435276	-0.0835423469543
