-104.29989624	-26.5645847321	137.495483398	9.45125770569	1.68973791599	-0.490960091352
-105.08808136	-26.0126590729	137.999145508	8.52303695679	2.27126836777	-0.878799021244
-104.409812927	-26.2607040405	137.749603271	9.9852104187	2.04771065712	0.0702401027083
-104.046318054	-26.6610603333	137.645080566	10.0010375977	2.73143625259	0.497070372105
-103.875228882	-27.0712127686	138.131713867	8.39502334595	5.08428430557	-0.433122217655
-104.005172729	-27.7311134338	138.935012817	7.64717102051	7.30842447281	-1.08466792107
-103.299369812	-27.6058502197	139.172119141	7.79065322876	7.05666875839	-1.26916444302
-103.678642273	-26.6528606415	139.097824097	2.40560364723	8.30793762207	0.520400941372
-104.250816345	-27.0241146088	138.730941772	-1.41585123539	4.91611671448	-0.463314950466
-103.184127808	-26.5385894775	137.665924072	0.797299146652	0.620122671127	-0.498141258955
-102.412620544	-25.6047306061	133.271942139	1.18237471581	-1.68430900574	-0.599407732487
-98.8531951904	-24.4425621033	120.722511292	0.404828518629	-4.96970272064	-0.424217790365
-97.103843689	-21.5769462585	106.082946777	-0.384611219168	-7.49988698959	0.1085081622
-98.3698654175	-19.8250484467	103.159294128	-0.95380795002	-9.06648540497	0.176202267408
-98.1656417847	-18.0226726532	101.079917908	-1.58961653709	-9.66626358032	0.283286452293
-96.5147094727	-15.630232811	94.832611084	-1.96078944206	-10.5414266586	0.521062672138
-95.5200958252	-11.7713699341	89.4176483154	-2.04756164551	-12.2152547836	0.551928818226
-97.9191970825	-5.56920099258	86.7252349854	-2.49021291733	-13.9304304123	0.491488754749
-100.218170166	0.0738688632846	85.2772598267	-3.55250406265	-15.2482385635	0.694446027279
-100.417549133	2.97323536873	84.4502944946	-4.34669065475	-15.5291624069	1.08387494087
-101.815132141	4.93161392212	82.1373825073	-4.69233036041	-15.3326673508	1.52962434292
-102.339187622	4.25082111359	79.4605941772	-4.55059528351	-15.7194623947	1.41024649143
-102.891456604	2.42178702354	78.2862091064	-4.36509895325	-16.334941864	1.019734025
-102.402275085	0.931745588779	76.6104354858	-4.54713869095	-16.7643871307	0.899398207664
-104.400100708	2.03708839417	76.3238677979	-5.06707572937	-17.4652271271	0.837979912758
-106.095870972	3.213296175	78.7688903809	-5.76238441467	-18.373134613	1.0413929224
-106.166809082	2.06166768074	80.9872283936	-6.51466798782	-19.0888023376	1.31834793091
-107.25302124	1.11421561241	81.6415863037	-6.95103216171	-19.5716590881	1.43091762066
-107.533065796	0.747764348984	82.073097229	-6.77917289734	-19.9363136292	0.920274436474
-106.867897034	0.50035238266	82.5288009644	-6.53017282486	-19.8308620453	0.803429841995
-106.850448608	0.531955301762	82.7766799927	-6.72751283646	-20.0104141235	0.744831800461
-106.651313782	-0.0150619139895	82.8697891235	-6.86170339584	-20.0333843231	0.991678535938
-106.903800964	0.100039899349	82.738319397	-7.09389448166	-19.9029636383	1.0576556921
-106.847106934	-0.00353706511669	83.405456543	-7.22291183472	-19.8543148041	0.963205397129
-102.496536255	-2.08122611046	92.8812942505	-7.04726171494	-19.1895484924	0.811068594456
-99.9638824463	-0.962334632874	106.374053955	-7.18815088272	-19.0776920319	1.07914984226
-101.161231995	-3.0614900589	96.4743041992	-7.68729496002	-19.9141693115	1.1680546999
-102.304115295	-5.64614582062	91.4311981201	-7.50295877457	-19.620092392	0.9472001791
-100.911491394	-7.22415542603	81.0745162964	-7.72630596161	-20.0941562653	1.20749342442
-104.438522339	-5.50723409653	69.6135253906	-8.00233650208	-20.8661231995	1.165132761
-105.180992126	-4.70858669281	59.2922897339	-7.62020587921	-21.2074604034	0.705106675625
-107.137428284	-2.75517249107	57.5529136658	-7.77466249466	-21.3954257965	0.658945977688
-109.321105957	-0.207890465856	58.7978210449	-8.48834514618	-21.5977287292	0.752920746803
-110.604011536	0.986539661884	63.251285553	-9.10586071014	-21.6754283905	1.0573618412
-112.99230957	0.338642001152	67.2632904053	-9.27337646484	-21.7264785767	0.846405863762
-111.65549469	0.111235044897	65.3651428223	-9.28341197968	-21.8839874268	0.649317860603
-111.976409912	0.443466871977	72.1105041504	-9.35225772858	-21.9247760773	0.415242105722
-113.634460449	-1.13182878494	72.4073257446	-9.53933334351	-22.0349597931	0.33827227354
