0.0	-0.0	116.196556091	70.9334793091	87.1128234863	1.20990347862
0.0	-0.0	109.094924927	71.6442565918	87.0008468628	1.26112914085
0.0	-0.0	115.921684265	70.9598083496	87.0902709961	1.29639601707
0.0	-0.0	120.765205383	70.4558486938	88.179977417	1.85209929943
0.0	-0.0	124.916481018	-109.697593689	89.3225097656	-177.357131958
0.0	-0.0	125.674629211	-110.551315308	85.3352127075	-176.743988037
0.0	-0.0	126.352874756	-113.152549744	72.4207000732	-175.382614136
0.0	-0.0	123.301361084	-119.611961365	48.6634407043	-173.243713379
0.0	-0.0	126.374412537	-130.476104736	26.0821361542	-174.959472656
0.0	-0.0	122.157714844	-135.430587769	13.1503639221	-177.104995728
0.0	-0.0	119.251922607	-133.39100647	8.11115837097	-176.611053467
0.0	-0.0	119.031112671	-132.016036987	7.75794267654	-176.006027222
0.0	-0.0	114.17881012	-134.171691895	3.07102560997	-175.167510986
0.0	-0.0	100.537750244	-138.728759766	-4.84930229187	-174.247924805
0.0	-0.0	95.1176605225	-141.505996704	-10.5681533813	-174.231399536
0.0	-0.0	95.0022888184	-140.724609375	-10.0859413147	-174.678756714
0.0	-0.0	95.2876586914	-139.094573975	-8.46579170227	-174.35887146
0.0	-0.0	92.2151565552	-138.774871826	-8.14772415161	-174.210586548
0.0	-0.0	53.0074119568	-139.648757935	-8.19847297668	-174.531433105
0.0	-0.0	55.4517402649	-139.511032104	-4.62407016754	-175.238082886
