-60.0672683716	-60.463394165	142.797897339	8.76771354675	-2.15787529945	-2.05278611183
-59.738407135	-60.5208358765	142.168914795	8.63984680176	-1.93425393105	-2.02296447754
-60.4582443237	-60.0939025879	142.780227661	8.34571552277	-2.09558534622	-2.0556371212
-48.5237693787	-61.2297744751	130.234115601	7.83033466339	-4.85057592392	-2.16507983208
-52.3594512939	-61.1266326904	132.131378174	5.00737524033	-8.08177471161	-1.64067268372
-65.1952972412	-56.7794876099	141.517623901	-6.27181386948	-10.5013160706	2.08749127388
-60.6769638062	-58.6487617493	136.967712402	-13.5652732849	-11.5364980698	4.45721387863
-58.8026733398	-59.7853546143	134.364242554	-13.7863502502	-12.1987762451	5.25672912598
-39.5569915771	-63.5320663452	111.224777222	-12.4056940079	-12.7826223373	4.61774587631
6.22941732407	-51.9734420776	60.3023681641	-11.5823726654	-13.914182663	4.1103720665
-14.0349798203	-60.1357002258	89.1896820068	-11.5969181061	-15.2022724152	3.76110982895
-48.5759925842	-62.6015892029	125.455307007	-11.6500377655	-15.8440179825	3.35236406326
-63.9061088562	-62.7734107971	141.668075562	-11.9540233612	-16.0950927734	3.1471991539
-62.7186660767	-65.9510269165	143.060852051	-12.8498849869	-17.2037658691	2.52975225449
-39.3733634949	-71.0731964111	120.00113678	-14.3105611801	-17.8023910522	2.26910805702
