-19.3754920959	-48.9542922974	133.056167603	9.41736125946	-0.291583448648	0.428037136793
-20.1903381348	-48.728225708	133.306564331	9.47643470764	-0.254864871502	0.520207345486
-19.9245681763	-47.9193763733	132.498855591	9.41351127625	-0.390633016825	0.518219530582
-17.4423542023	-41.1320991516	118.186660767	9.19744968414	-0.667883992195	0.581245243549
-23.4744930267	-42.1571159363	123.629524231	6.81507253647	-0.370210707188	1.65354955196
-23.5909004211	-40.3230133057	117.21938324	2.89118456841	0.014246002771	2.49325370789
-23.4681491852	-38.451839447	114.484283447	2.47664022446	0.643329024315	2.68955230713
-24.272069931	-37.3029212952	112.004585266	2.84258437157	0.916993916035	2.88135194778
-25.2172889709	-37.3895339966	113.701713562	2.5540831089	1.00875270367	3.03510332108
-25.5579738617	-37.6573219299	114.804588318	2.34407496452	1.15221560001	3.28159141541
-7.31335401535	-29.7678909302	81.723449707	2.31819963455	1.17735743523	3.25067186356
