0.0	-0.0	-125.368896484	-152.256225586	84.283454895	-79.9539108276
0.0	-0.0	-123.386520386	-153.084976196	82.7582092285	-80.7257232666
0.0	-0.0	-120.126747131	-153.65171814	83.1839370728	-80.1635742188
0.0	0.0	-114.146072388	-154.33253479	83.053276062	-79.9750976562
0.0	0.0	-98.9998550415	-157.959625244	84.2450790405	-82.4261550903
0.0	0.0	-79.2801055908	-158.200408936	86.9457626343	-84.3213729858
0.0	0.0	-62.9205093384	-155.392242432	89.1054611206	-86.3569641113
0.0	0.0	-49.9987449646	23.6978378296	87.9586181641	94.5150222778
0.0	0.0	-38.7156639099	25.2219963074	87.0355987549	92.5060043335
0.0	0.0	-31.7299194336	27.1819896698	87.2005996704	90.5768737793
0.0	0.0	-26.8471412659	28.0341949463	87.0956268311	87.4648742676
0.0	0.0	-24.6567745209	-159.974334717	86.1487045288	-123.952232361
0.0	0.0	-27.2451210022	-171.710830688	87.7112197876	-151.577728271
0.0	0.0	-29.0958271027	176.563980103	86.7037887573	-149.852249146
0.0	0.0	-28.7778911591	161.599441528	84.3436203003	-144.205581665
0.0	0.0	-28.894613266	151.817245483	83.9565429688	-141.771316528
0.0	0.0	-30.1357059479	161.311950684	86.6772232056	-135.167678833
0.0	0.0	-30.9572200775	7.55342578888	78.6807250977	67.5313644409
0.0	0.0	-31.4261550903	30.4272003174	62.196018219	79.5170211792
0.0	0.0	-32.2917442322	45.4198417664	51.7368736267	83.5858612061
0.0	0.0	-32.924621582	45.6697387695	47.6923446655	91.0677947998
0.0	0.0	-33.116153717	49.4273834229	47.6141166687	93.8557357788
0.0	0.0	-33.2500114441	82.7737350464	62.6573638916	47.8593139648
0.0	0.0	-33.4951934814	80.5420150757	69.5078735352	12.0209722519
0.0	0.0	-33.375957489	55.4611473083	49.888092041	18.9869995117
0.0	0.0	-32.9134979248	26.7470684052	33.6234321594	48.7809791565
0.0	0.0	-33.182056427	23.3892097473	28.4029960632	67.5273666382
0.0	0.0	-33.2053909302	41.6803245544	25.3148441315	64.597114563
0.0	0.0	-33.781993866	66.9148178101	28.5859546661	48.751865387
0.0	0.0	-34.411277771	65.6709976196	24.8812255859	57.5546035767
0.0	0.0	-34.8937568665	67.0870666504	22.7410736084	64.0908050537
0.0	0.0	-35.4793205261	71.2868041992	27.0766201019	61.215877533
0.0	0.0	-36.2554092407	74.0600662231	34.9958724976	41.4115028381
0.0	0.0	-36.1482315063	69.694190979	32.5360527039	44.9119224548
0.0	0.0	-36.2850799561	69.8014373779	30.9380474091	49.2717857361
0.0	0.0	-36.4141731262	70.6854705811	32.6259040833	47.9929237366
0.0	0.0	-36.4527015686	72.162940979	32.7316818237	44.5757446289
0.0	0.0	-37.0442008972	73.1495056152	31.8303756714	42.682258606
0.0	0.0	-37.3665847778	76.5889816284	32.5508575439	41.930141449
0.0	0.0	-37.8058052063	82.4402999878	31.861831665	40.7233467102
0.0	0.0	-37.9329071045	85.7622680664	31.1147708893	40.6975669861
0.0	0.0	-38.4033927917	86.7843322754	33.0527038574	40.2568244934
0.0	0.0	-38.0705184937	85.3038864136	33.1920089722	40.3269042969
0.0	0.0	-37.5660133362	83.8158950806	33.3524665833	40.8066558838
0.0	0.0	-37.0490722656	82.5610275269	34.1606369019	41.498626709
0.0	0.0	-36.972278595	82.5416564941	33.976776123	42.5479736328
0.0	0.0	-37.8496170044	81.3910446167	34.9511260986	44.1660575867
0.0	0.0	-42.4216499329	78.0992584229	35.9763793945	46.8159370422
0.0	0.0	-45.5117912292	75.2509613037	36.821105957	49.7642059326
0.0	0.0	-40.6127967834	71.5559997559	36.4433326721	52.709438324
0.0	0.0	-39.5238456726	72.4412460327	35.8934059143	52.8596839905
0.0	0.0	-40.4322853088	71.4745025635	35.3182945251	53.0883331299
0.0	0.0	-41.0626754761	72.6426773071	34.9316558838	53.013835907
0.0	0.0	-46.9061164856	72.6842803955	36.0167922974	53.1305923462
0.0	0.0	-66.3271636963	70.20362854	36.8745765686	55.3663063049
