Participant: 8638

Trial	Condition	Time
0		0			2.7095
1		6			13.8604
2		3			12.7271
3		5			7.2406
4		5			5.6183
5		1			16.3147
6		6			53.1078
7		1			21.5762
8		6			10.3922
9		4			2.9643
10		6			24.8421
11		5			27.2408
12		0			3.4395
13		5			4.1863
14		2			7.3933
15		4			5.6495
16		2			9.2921
17		4			9.9697
18		5			35.7373
19		5			9.6922
20		1			8.718
21		4			6.8935
22		5			16.3899
23		4			3.1062
24		6			23.1449
25		1			22.6537
26		3			5.5509
27		4			5.4833
28		0			1.8989
29		3			6.3937
30		3			16.7013
31		1			48.4322
32		3			18.0805
33		3			4.1513
34		3			6.7158
35		4			7.0041
36		4			10.6278
37		6			14.679
38		3			5.9269
39		6			25.419
40		4			3.0757
41		0			11.614
42		3			10.6803
43		5			9.5369
44		3			11.583
45		5			4.417
46		3			6.6601
47		0			1.2071
48		3			6.818
49		0			4.5722
