-31.0191707611	-44.3959541321	140.225463867	12.0016956329	5.22311162949	3.97620296478
-31.0347919464	-45.0883903503	141.169021606	11.8364038467	5.24359560013	4.04575824738
-29.4197292328	-44.5500488281	137.240509033	11.7051382065	5.38601350784	4.06268119812
-22.6261749268	-42.806678772	112.630638123	11.5683059692	5.49757528305	4.13201332092
-21.76197052	-40.453918457	100.816040039	11.2693548203	5.77624845505	4.24744844437
-23.5877532959	-37.4468574524	95.3552856445	10.6237440109	6.70104074478	4.56759309769
-24.3737449646	-32.8870506287	84.5385284424	9.70230770111	9.16160106659	5.15136003494
-26.3083381653	-30.0917644501	80.0113449097	8.43669319153	11.616361618	5.29065513611
-29.5439414978	-28.3368644714	80.9369125366	7.27132034302	14.1813688278	5.42628574371
-30.7306175232	-27.4921607971	80.2010650635	6.70716714859	16.2929573059	5.7706079483
-32.1187477112	-27.1781215668	85.1854248047	6.39050960541	18.328950882	6.04493427277
-37.2117767334	-27.3629627228	100.435272217	6.08299827576	19.5896320343	6.3452000618
-35.6509361267	-26.5255870819	98.8787460327	5.62896585464	20.3881015778	6.49151849747
-39.2101593018	-24.4378490448	106.373893738	5.40554380417	21.1304359436	6.50117492676
-41.9118690491	-23.0259094238	114.245544434	5.22218227386	21.8816680908	6.65094900131
-37.8159561157	-23.8939666748	104.270111084	4.86071872711	22.0428314209	6.68230056763
-37.5220451355	-23.0216579437	95.0741271973	4.50679826736	22.1811847687	6.72431755066
-40.2272872925	-22.1787395477	93.7657623291	4.24631166458	22.2817955017	6.73035955429
-40.9302101135	-19.3585529327	86.0045318604	3.75949263573	22.3207302094	6.71763515472
-41.9203681946	-14.6617012024	74.1859207153	3.13624548912	22.3041248322	6.54987716675
-41.4364700317	-14.5648889542	69.2505950928	3.00092411041	22.6198101044	6.65853595734
-42.143611908	-14.1278896332	70.262260437	2.93054771423	22.5785999298	6.73570346832
-43.3860626221	-13.7022590637	75.7326507568	2.61231398582	22.3849506378	6.69122648239
-44.7405967712	-12.8958272934	75.5969314575	2.2461078167	22.5177726746	6.5825715065
-44.6876869202	-10.5990257263	72.3467636108	2.26587843895	22.5249729156	6.4966211319
-46.9300689697	-9.20359897614	86.369682312	2.18949103355	22.3169956207	6.59681606293
-50.7241821289	-1.859172225	112.225700378	2.20780444145	22.411529541	6.59318780899
-50.6783103943	-0.740608930588	103.04864502	2.09755206108	22.545211792	6.639316082
-52.9522972107	-1.40224123001	78.4507141113	1.82909107208	22.6811332703	6.39012908936
-57.2680549622	-1.76825118065	69.6456756592	1.6285674572	22.8681278229	6.46080446243
-56.7436218262	-2.14834856987	70.0377731323	0.737649321556	23.0243854523	6.34381961823
-56.2388877869	-1.55089092255	70.7063217163	-1.66367912292	23.4960765839	6.22566080093
-57.5695838928	-1.05351686478	70.9767379761	-4.2954826355	24.4930896759	6.26549768448
-57.933216095	-1.26677644253	71.3232955933	-4.81480026245	26.3267021179	6.5010638237
-57.9282035828	-1.62806081772	71.4608459473	-3.29483795166	28.5527420044	6.90353727341
-58.0406341553	-1.52611887455	71.6627197266	-0.822059631348	31.1054439545	7.32091140747
-58.2231140137	-1.39838922024	72.6483383179	0.742355644703	33.2774772644	7.90313005447
-58.0492362976	-1.43007814884	76.8133239746	0.430621594191	32.8255462646	7.8044052124
-56.7481803894	-2.7813770771	82.4631958008	-0.878692150116	30.1625423431	7.34782457352
-55.4117584229	-3.69567775726	80.5328826904	-2.50428080559	28.3074016571	7.41113519669
-56.9681854248	-2.6104619503	80.4597702026	-7.55946683884	29.848493576	9.38076972961
-57.1116142273	-3.33880209923	80.2471694946	-13.8564958572	34.9864959717	10.8608493805
-57.6775932312	-3.99211287498	80.6629257202	-15.2274169922	35.9248161316	10.2193212509
-58.3314361572	-3.39253282547	81.5895690918	-10.602930069	35.7056388855	10.1787395477
-58.880241394	-3.49871182442	82.7935791016	-3.13473153114	38.464389801	10.282910347
-57.4369544983	-5.60602712631	81.8703384399	2.56722426414	41.8743362427	10.7933368683
-53.2514533997	-10.2109384537	88.0650939941	2.20913434029	41.4467468262	10.5602293015
-50.4640769958	-13.3839187622	96.5576934814	-1.41488730907	37.2580032349	8.82852458954
-48.050075531	-15.0639724731	98.525604248	-3.06823587418	34.1134529114	8.01328754425
-47.7923660278	-14.9611730576	103.94140625	-2.51241159439	33.4616127014	7.93129205704
-50.7427139282	-16.0330142975	119.532829285	-1.28874909878	34.1310920715	8.10706806183
-50.0719337463	-18.7282314301	126.620033264	-1.11365044117	34.775188446	8.01840305328
-38.6239967346	-20.0019721985	100.889022827	-1.77657449245	34.3805122375	7.74433326721
-38.6903114319	-17.3825149536	82.6131896973	-2.2061727047	34.3061485291	7.60967159271
-38.6460876465	-16.9278869629	74.4190444946	-1.50673353672	34.5398292542	7.65360927582
-39.7634887695	-15.8258228302	69.4755630493	-0.584324061871	34.6203079224	8.00553798676
-39.4965362549	-14.2398061752	60.8480949402	-0.460306376219	34.6365394592	7.85319566727
-39.4293212891	-14.1753377914	53.6565055847	-0.135605186224	34.5682640076	7.80895137787
-37.5195922852	-15.1370382309	49.3824653625	2.01832008362	34.005191803	8.40174484253
-36.1988525391	-14.9396886826	45.6648254395	5.70589208603	33.149723053	9.52587413788
-36.9006538391	-14.3644771576	45.1414871216	6.90281248093	33.2478675842	9.63731002808
-37.4211807251	-13.3083429337	45.5026741028	5.18867206573	33.1998176575	8.52720165253
-37.8466682434	-12.7834415436	46.4667739868	4.12882709503	33.1197433472	7.97610998154
-37.9810028076	-12.8921699524	44.8250312805	4.97424030304	33.0308570862	8.07352161407
-38.3557395935	-12.0042476654	43.024974823	5.32861471176	32.9408836365	7.89706707001
-38.9711074829	-11.2912092209	42.3372840881	4.90758609772	32.8671722412	7.71334075928
-38.7344398499	-10.3771982193	41.5548973083	4.40926599503	32.6406135559	7.47218561172
-38.9729118347	-9.37308597565	42.0143585205	4.19044113159	32.1910057068	7.20125675201
-39.0677108765	-9.80689716339	41.830329895	4.05480575562	31.5113677979	7.00163030624
-38.9497261047	-9.56076335907	42.1561470032	3.36172008514	30.5763397217	6.8868560791
-39.2177009583	-9.31657123566	42.7399368286	2.56033468246	29.8055095673	6.59093809128
-38.6560745239	-9.53996276855	42.923286438	2.02917432785	28.9291553497	6.3305439949
-38.0451583862	-9.44627285004	43.0193023682	0.76748085022	27.7483692169	6.31659698486
-38.1165084839	-9.20693874359	42.7708015442	-1.06181681156	26.7652950287	6.1620016098
-38.3212890625	-8.78145217896	43.59715271	-2.30663633347	26.1913414001	5.9868516922
-38.0667228699	-8.90669822693	43.4563407898	-2.39266777039	25.4242954254	6.07985877991
-37.8945960999	-8.53021717072	43.577911377	-2.51727437973	24.6475868225	5.90923070908
-37.9557418823	-8.25005054474	43.4046134949	-2.76473879814	24.5519237518	5.79819297791
-39.0548744202	-8.34916591644	41.226852417	-3.09816932678	24.3433189392	5.76915550232
-41.1895103455	-7.89129543304	47.602684021	-3.20013976097	24.4684295654	5.76522254944
-44.1233978271	-7.96695280075	52.8472251892	-3.19914579391	24.9957942963	5.925740242
-45.7127494812	-6.51515340805	55.2219963074	-3.31161904335	25.2818088531	5.99911642075
-45.1312255859	-5.16256475449	51.6262359619	-3.20650458336	25.6213130951	6.15136432648
-45.3842506409	-5.89956474304	48.8866996765	-3.25481939316	25.9828548431	6.18250226974
-44.1805763245	-6.06544876099	45.9698867798	-3.33625817299	26.0362014771	6.1575717926
-43.8791999817	-5.1309466362	42.1484375	-3.48037409782	26.224817276	6.12076330185
-43.6530265808	-5.43039608002	44.65026474	-3.52076673508	26.3451786041	6.16764545441
-44.8892440796	-7.86677312851	49.5084228516	-3.79111814499	26.3601417542	6.08434724808
-45.9188537598	-6.66241693497	48.4512748718	-3.9458899498	26.5252513885	6.09176540375
-45.9738273621	-5.40014457703	46.0989646912	-3.99878716469	26.6210460663	6.06948232651
-44.0617866516	-4.99677658081	41.4331130981	-3.84882712364	26.6911849976	6.09478187561
-42.6979904175	-4.98912000656	38.76512146	-3.95888614655	26.7793045044	6.1060590744
-42.2108573914	-6.92727088928	40.8043403625	-4.09694099426	26.8195858002	6.11496448517
-44.6727600098	-7.92347192764	45.8744735718	-4.08142614365	26.7674732208	6.20035791397
-45.8582801819	-6.9861946106	45.7426567078	-4.1642665863	26.8691368103	6.21280288696
-46.5716018677	-7.64788150787	46.8512191772	-4.22774028778	26.6920490265	6.09479951859
-46.4361419678	-9.29074668884	48.3763008118	-4.02802991867	26.6006202698	6.00872278214
-47.0088920593	-6.7659034729	46.1316795349	-3.97425484657	26.6078262329	5.92085456848
-47.5794906616	-7.73485136032	47.7027626038	-3.93572807312	26.7228164673	5.8624215126
-48.1455459595	-8.10625267029	48.009437561	-3.97273230553	26.5772647858	5.89751958847
-48.5779075623	-6.60385608673	46.9398155212	-4.14037752151	26.6669425964	5.90103244781
-46.5824813843	-4.00983858109	42.5805587769	-3.87826061249	26.862865448	5.90496444702
-45.9629592896	-5.07267570496	41.031085968	-3.41695904732	26.8947944641	5.79254579544
-45.6330070496	-5.88874959946	41.8342933655	-3.17326593399	26.8057365417	5.81714677811
-46.8568878174	-6.39174318314	43.3016166687	-3.41897988319	26.6266326904	5.71582269669
-46.3828086853	-5.98340892792	43.2699661255	-3.67962622643	26.1163787842	5.7205080986
-46.4326858521	-6.86042404175	43.5635147095	-3.40537214279	26.0801315308	5.63065338135
-46.4423141479	-7.87857675552	43.920539856	-3.15489768982	25.4403476715	5.49730682373
-46.5592269897	-8.14772796631	44.0324554443	-3.6378288269	24.6162605286	5.46620368958
-46.8729972839	-8.51041030884	44.4230422974	-4.55112314224	24.5719814301	5.63296699524
-47.2299232483	-8.719581604	44.7321281433	-5.2790517807	25.1307258606	5.81094551086
-48.0472793579	-8.56962013245	45.3421897888	-5.03399848938	25.8428707123	5.91641139984
-48.22498703	-8.80205345154	45.754486084	-4.21048974991	24.9966068268	5.56177949905
-48.3094520569	-9.321849823	45.7007255554	-3.45548701286	24.3715801239	4.8720035553
-48.3909950256	-9.81839942932	46.1327133179	-3.50917434692	24.0863666534	4.65202569962
-48.9773330688	-10.5706520081	45.8692626953	-4.54240703583	23.9726753235	4.84355545044
-49.6503372192	-10.2234706879	45.3479766846	-6.60484361649	24.6236114502	5.45794963837
-50.0308074951	-10.3406105042	45.7111091614	-8.16512775421	25.9579620361	6.00780296326
-50.0697212219	-10.2716112137	46.2123832703	-8.10730552673	27.4565830231	6.45525169373
-50.1331672668	-10.2056789398	46.4002418518	-7.4646115303	27.6308307648	6.48901367188
-50.4183578491	-9.67413806915	46.4603424072	-6.27101659775	27.5901832581	6.24060773849
-50.3664169312	-8.84685897827	47.5028533936	-3.93522500992	27.5677719116	6.09260559082
-50.6411132812	-9.39105701447	47.9949226379	-1.26028645039	27.0691871643	5.97425174713
-50.4800682068	-9.06764507294	47.8350257874	-1.75860798359	26.9215869904	5.3939037323
-50.8074760437	-8.80188941956	47.6943016052	-2.24403786659	26.769071579	5.28759241104
-50.5344543457	-8.46091270447	47.7375450134	-2.1270942688	26.7270965576	5.48810958862
-50.5046463013	-8.32220935822	47.7449150085	-2.80923485756	26.72697258	5.3914437294
-51.0677452087	-8.11346244812	49.407409668	-3.82075572014	26.8867778778	5.1147351265
