-0.11377120018	1.10888171196	0.234543323517	-0.173995018005	1.59203350544	0.0479309558868
-0.113193750381	1.10938942432	0.232193470001	-0.172776937485	1.59152626991	0.0473301410675
-0.112037181854	1.11011838913	0.231839895248	-0.172256469727	1.59129571915	0.0466878414154
-0.109325885773	1.11505579948	0.232424259186	-0.171411037445	1.58916461468	0.0468522310257
-0.107186079025	1.11972153187	0.233537793159	-0.170501232147	1.5832914114	0.0484261512756
-0.11047744751	1.11728203297	0.230568170547	-0.170995235443	1.58075773716	0.0511076450348
-0.114988565445	1.11347997189	0.224743008614	-0.17359995842	1.58202564716	0.0531048774719
-0.118674278259	1.11356186867	0.218524575233	-0.176425457001	1.58448851109	0.0543102025986
-0.119190692902	1.11856126785	0.210417747498	-0.17954993248	1.58872401714	0.0549421310425
-0.119238138199	1.12437260151	0.203200697899	-0.183335065842	1.59136140347	0.0566220283508
-0.11864900589	1.13445687294	0.195737838745	-0.188487052917	1.59192168713	0.0603909492493
-0.117176771164	1.14546394348	0.190587043762	-0.19481754303	1.59243178368	0.0649293661118
-0.114017963409	1.15445566177	0.189289331436	-0.2010846138	1.59471297264	0.0690009593964
-0.112792491913	1.16131591797	0.188171029091	-0.206699371338	1.59565675259	0.0734713077545
-0.112740516663	1.16722595692	0.185908555984	-0.213363170624	1.59601461887	0.0783236026764
-0.113339662552	1.17116558552	0.187766194344	-0.220997810364	1.5960136652	0.0831205844879
