0.0	-0.0	142.518066406	-115.726531982	83.5942230225	177.203399658
0.0	-0.0	142.777084351	-116.058563232	86.1729812622	177.085678101
0.0	-0.0	140.065567017	-116.439758301	87.550201416	176.609817505
0.0	-0.0	141.176116943	-116.845367432	83.7234268188	176.512741089
0.0	-0.0	140.212371826	-118.197891235	79.520652771	177.757369995
0.0	-0.0	137.379226685	-121.805519104	77.6937942505	179.164154053
0.0	-0.0	96.2267990112	-124.323432922	78.4984588623	-179.703598022
0.0	-0.0	68.7333068848	-123.816375732	79.4609985352	-179.542419434
0.0	-0.0	92.2192993164	-122.79447937	81.4029846191	-179.42414856
0.0	-0.0	114.202011108	-123.585136414	82.7147445679	-179.128128052
0.0	-0.0	123.119911194	-124.604415894	84.8474960327	-177.981582642
