-34.5023002625	-41.9351844788	131.539672852	11.8270769119	1.60725593567	4.58282279968
-35.4581375122	-41.6379890442	132.161865234	11.8487901688	1.53285634518	4.67189359665
-36.073009491	-41.4418869019	132.432632446	11.7400302887	1.46777665615	4.6632065773
-35.8849601746	-41.5775604248	132.325592041	11.7476234436	1.52450442314	4.72353172302
-35.6818847656	-41.2139968872	131.891479492	11.829123497	1.73643505573	4.67226839066
-36.0566368103	-41.0249290466	131.923187256	12.2292585373	2.00763821602	4.66182088852
-36.1223564148	-41.1788902283	131.990982056	12.9119691849	-0.437347859144	4.33842515945
-36.103225708	-40.5004005432	131.593399048	13.3541049957	-2.2754805088	3.88795518875
-36.5905418396	-40.3362083435	131.708999634	13.0973052979	2.151034832	3.87065649033
-37.2764778137	-40.8500175476	132.296005249	14.7113199234	10.4950942993	4.72606945038
-38.2349700928	-40.9845581055	132.961547852	17.5861587524	19.1453113556	5.64309453964
-39.224647522	-40.7212181091	133.705169678	15.4737596512	26.6085319519	6.41872406006
-39.1174697876	-40.4635162354	133.341751099	9.39462184906	30.8412132263	5.82593107224
-39.6150741577	-37.9263801575	131.412796021	3.34018158913	33.4223556519	5.60416221619
-36.4447402954	-34.8341598511	122.254447937	0.537591040134	34.6969337463	5.73467922211
-37.4352111816	-33.1517524719	121.790634155	0.140867322683	36.0773391724	6.52343606949
-38.5272636414	-32.6665840149	119.837890625	-0.306512653828	36.6918182373	6.65838575363
-38.0560340881	-33.0862312317	112.808494568	-0.749945819378	37.1595306396	6.57728242874
-23.5826721191	-31.9056472778	77.8765258789	-0.963527500629	37.5809173584	6.54734277725
-17.0459423065	-20.4517650604	43.2760772705	-0.566304147243	39.0184516907	6.25248003006
-20.797712326	-17.8350830078	48.7123603821	0.666207492352	39.1170921326	6.66885852814
-21.5093955994	-20.8530712128	56.278377533	1.3837569952	37.8484573364	6.83398771286
-19.9122409821	-17.5762882233	56.1410598755	1.27882301807	37.5617027283	6.77728223801
-20.8062095642	-7.25139284134	62.0565757751	1.96818852425	37.8801612854	7.36050081253
-18.4185066223	-5.11044883728	60.2113990784	2.23022198677	36.9359016418	7.31678152084
-33.5019607544	-34.2924385071	90.0782089233	2.02954649925	36.0797653198	7.00195789337
-45.4201049805	-33.6337127686	115.048866272	2.62390756607	36.0044364929	7.15207672119
-41.0872993469	-27.7824230194	113.205253601	3.41537547112	35.7687225342	7.18261194229
-13.3331651688	0.433256238699	58.8560142517	3.52754926682	35.6496963501	7.01163721085
-20.6694755554	10.3821258545	29.8266372681	3.88456368446	35.6905632019	6.76829910278
-25.7902946472	17.6608905792	48.0685806274	4.88640213013	35.138256073	6.79614257812
-23.9016742706	5.46802043915	71.5335845947	5.70220088959	34.5014038086	6.54204034805
-28.5025959015	-5.1163892746	82.4454345703	6.00881481171	34.2933425903	6.2748374939
-25.7832565308	-10.7813043594	82.9174728394	6.42483711243	34.4036560059	5.92973613739
-30.6478042603	-15.96808815	95.847076416	7.34813165665	34.2645874023	6.02735805511
-34.5945091248	-16.3000297546	101.481506348	8.11518001556	33.9037284851	5.74638366699
-20.0746803284	-6.72107601166	78.7217712402	8.21871566772	33.8395881653	5.6018037796
-24.1117095947	10.6251134872	45.3443069458	7.93570327759	33.7193069458	5.60013484955
-28.9297161102	14.3023910522	41.2862663269	7.49529314041	33.6045455933	5.35800027847
-27.4433898926	6.07347297668	62.2611808777	7.64936256409	33.0811309814	5.09887838364
-29.2493305206	3.22658586502	70.5196380615	7.2579202652	32.7312011719	5.43511390686
-27.7955112457	0.958317756653	69.4587631226	6.6066493988	33.0758399963	5.4477186203
-30.6005840302	-0.692035734653	69.0219650269	6.57221317291	33.689250946	5.4270234108
-32.3829231262	-1.20534801483	70.2446060181	6.90773630142	34.3059387207	5.64265346527
-32.5997962952	-0.0129970321432	69.7670288086	6.97261762619	34.4908370972	5.59373092651
-32.0526199341	0.673501908779	68.0478134155	6.84795188904	34.7237052917	5.65957069397
-32.3558044434	2.05086421967	64.4298400879	6.62813138962	34.9430465698	5.95526266098
-29.8783168793	8.92709827423	53.3792495728	6.43007946014	35.4211044312	6.18489027023
-26.3589935303	10.4442138672	47.2464981079	6.14014482498	35.7332687378	6.31902885437
-26.9357204437	12.6521959305	47.124382019	5.92539072037	35.4670410156	6.37211799622
-28.9760704041	12.2625827789	49.8123092651	5.68749189377	34.7529983521	6.30438995361
-31.7481861115	2.85843300819	60.6233482361	5.43705749512	33.8774261475	6.40167713165
-40.3325920105	1.52445781231	96.0327148438	5.1093044281	32.3787498474	6.25535678864
-51.4286994934	7.07705497742	110.30418396	4.83503007889	31.4488334656	6.28870820999
-46.0988807678	-0.60031491518	106.958610535	4.09323072433	30.9991130829	6.14687776566
-40.9859428406	0.747136950493	96.401763916	1.90325689316	25.9677085876	4.47362089157
-43.425403595	0.523709952831	90.7115097046	1.44998133183	21.6607303619	3.77383589745
-47.7319107056	-1.23215126991	89.2899017334	2.30212044716	25.1433467865	4.71523523331
-48.2150917053	-5.10306835175	91.2814788818	3.48645448685	32.892829895	6.27807760239
-48.1974868774	-7.57802724838	92.8136291504	2.95649075508	34.6758346558	6.25853729248
-49.2798042297	-6.3402094841	92.9139022827	2.82712721825	33.405040741	5.44311475754
-44.3278198242	-5.87748765945	87.0381469727	2.66535568237	30.6034450531	5.56003522873
-39.4412345886	-1.68730998039	76.2043762207	2.27417206764	31.4894428253	5.53088617325
-41.921333313	3.00353813171	63.9443511963	2.25911998749	34.7502441406	6.02031469345
-43.9345932007	9.37997055054	56.7103233337	2.55599761009	37.1000976562	5.91118574142
-42.9746665955	11.7857313156	57.2560577393	3.49672818184	37.630607605	5.86337184906
-41.95154953	11.9078950882	56.9154434204	4.99236011505	38.0934066772	5.48097038269
-42.984172821	11.2056007385	56.9748535156	9.10499572754	39.1949768066	5.39584875107
-42.3380813599	10.5736837387	60.1883277893	13.9484548569	40.0588150024	5.73738002777
-41.9959259033	8.94182872772	61.8772926331	12.9661912918	39.5111351013	4.95379781723
-42.3452835083	5.69109010696	67.5514831543	8.6453294754	36.9697570801	4.11729383469
-43.6367111206	0.83647954464	77.8600387573	5.51011800766	34.0583953857	4.41470766068
-48.9024848938	-4.9400138855	89.321434021	4.06016492844	33.1168403625	4.42252874374
-51.0230712891	-5.34048938751	94.6991424561	4.66710090637	33.6204948425	4.90309429169
-48.8133125305	-5.14090013504	91.1313552856	4.99970674515	33.3916511536	4.93489074707
-38.8832740784	3.38446831703	72.5656356812	4.67291736603	32.3748779297	4.88222885132
-40.1554946899	8.86371898651	58.9458503723	4.53563261032	31.2054157257	4.95166397095
-44.2081871033	15.7393264771	50.570526123	4.38364124298	29.3609104156	5.00059890747
-46.5523262024	16.3748092651	53.1384353638	3.89855408669	27.6728858948	4.97962188721
-47.4006195068	15.1148872375	57.7960929871	2.87082052231	26.572719574	5.39628124237
-46.7736320496	6.03189277649	69.1612472534	0.779917061329	26.367193222	6.01091003418
-50.2649536133	7.63935947418	94.0809402466	-1.56260073185	27.785112381	5.59621238708
-55.7209243774	8.21809196472	109.208770752	-0.799233019352	28.7120113373	5.63435411453
-53.1810798645	4.11073493958	111.62134552	0.221343949437	27.5588779449	5.94158601761
-48.7190208435	0.734727203846	102.8465271	-1.20648872852	26.6046295166	5.863530159
-50.9351997375	0.369195640087	85.7021408081	-4.56656360626	26.7723655701	5.09324121475
-60.5793113708	8.83976173401	74.858757019	-4.68094110489	30.0899524689	4.07573986053
-59.887096405	20.1951770782	59.171875	-0.227342218161	33.9179496765	4.73441267014
-58.4117126465	19.2444801331	56.945274353	2.49376821518	34.6538505554	5.13729953766
-58.4474563599	18.7451820374	58.2171592712	2.06002163887	34.943901062	4.42811918259
-57.0192565918	17.2058238983	60.9346084595	1.73319768906	34.8270797729	4.22199773788
-55.600063324	14.5439281464	63.8886032104	1.51477181911	34.2506141663	4.32192993164
-57.6718521118	11.7423324585	62.8016319275	1.08761954308	33.8417816162	3.91798233986
