0.0	-0.0	141.092758179	73.1552276611	85.5424575806	3.90252351761
0.0	-0.0	140.566345215	72.6836929321	85.22631073	4.10897350311
0.0	-0.0	140.286941528	70.9417114258	85.6318511963	4.72705316544
0.0	-0.0	140.085998535	62.1676216125	85.7488327026	6.23475027084
0.0	-0.0	140.02204895	44.6151313782	86.4273605347	7.9514040947
0.0	-0.0	139.677612305	27.2447223663	87.1003189087	9.53459262848
0.0	-0.0	139.671554565	7.69889354706	86.6659698486	10.9265508652
0.0	-0.0	138.562698364	-11.5140075684	85.1462097168	14.3664522171
0.0	-0.0	135.060424805	-24.6772575378	84.3286895752	16.9347953796
0.0	-0.0	130.77545166	-29.4024333954	84.6863250732	18.1279563904
0.0	-0.0	125.401184082	-28.7092208862	85.0826797485	18.9086952209
0.0	-0.0	125.676475525	-26.4640388489	85.3803863525	18.3981380463
0.0	-0.0	126.774238586	-25.2705898285	85.5263671875	17.6375579834
0.0	-0.0	115.462097168	-26.0666542053	85.5652694702	17.5384120941
0.0	-0.0	81.4031066895	-28.1447124481	85.6090545654	18.4184322357
0.0	-0.0	64.7955627441	-27.5965900421	85.1076583862	18.6388683319
0.0	-0.0	79.1795272827	-25.1510734558	84.7678756714	18.568731308
0.0	-0.0	79.2892227173	-21.6487979889	85.6210632324	17.4233150482
