-100.598449707	-27.7647724152	135.065811157	9.49832344055	5.41882610321	0.712286829948
-100.082054138	-28.5355014801	134.18699646	9.70610332489	5.53257036209	0.934266209602
-99.7644882202	-28.9590148926	133.979446411	9.6620016098	5.52280759811	0.908320069313
-99.4879226685	-28.8972129822	133.749023438	9.67251682281	5.59695863724	0.897392630577
-99.3337783813	-29.5165576935	132.461212158	9.84759998322	5.73054170609	1.10432994366
-97.7984085083	-31.3712844849	128.331954956	9.93778610229	5.89770460129	1.10705959797
-95.567565918	-33.3444213867	124.094352722	10.2474975586	5.9491314888	1.11313402653
-93.0876235962	-33.9543151855	121.463912964	10.6769247055	6.51581096649	1.09764611721
-92.3096542358	-34.1348419189	121.482772827	10.6708774567	7.15624904633	1.09697926044
-86.2810516357	-33.5506896973	116.434692383	10.7556705475	7.69193267822	1.14671468735
-77.5791015625	-29.7838420868	103.470039368	10.9373006821	7.6701335907	1.12751305103
-80.2641448975	-28.7574596405	110.70778656	10.962097168	7.44574213028	1.12120950222
-82.2494277954	-23.0875282288	109.198532104	10.8549251556	7.27614879608	1.83631193638
-88.624710083	-19.0717182159	121.290748596	10.384762764	7.02548789978	1.77885377407
-96.6649856567	-25.4954814911	134.433334351	10.1450796127	6.68715238571	1.70735430717
-105.395561218	-25.3195285797	145.906982422	10.1923360825	6.65766954422	1.86460876465
-105.70639801	-28.3529682159	146.041107178	10.233672142	6.682721138	1.90054392815
-104.801300049	-28.119178772	146.548690796	10.2131605148	7.95367670059	2.16114521027
-104.571556091	-29.3058300018	144.911834717	10.0838136673	8.55752754211	2.26728963852
-103.490127563	-29.4517555237	140.663528442	9.61197471619	9.49160957336	2.53155088425
-97.1426620483	-25.9152965546	117.527961731	8.7675113678	12.7572221756	3.2373111248
-89.8376922607	-22.0330276489	92.5616378784	6.78636646271	17.5688400269	4.67551612854
-83.090675354	-19.561000824	75.8919830322	4.24749422073	21.6364250183	6.0765709877
-83.450843811	-15.680803299	72.8602218628	2.18541097641	24.2946796417	6.81371164322
-87.5573883057	-16.0507335663	80.5879211426	0.719570696354	25.6447715759	6.60996007919
-92.0252304077	-14.6785383224	93.7811584473	0.600663840771	26.3134155273	6.70173454285
-89.7966995239	-14.3883676529	94.6211853027	0.857421159744	26.7269058228	6.53636264801
-90.3626022339	-13.3865766525	96.8119277954	0.873476266861	27.3149166107	6.54760360718
-84.2004547119	-12.3867416382	79.5978088379	0.654808580875	28.1128063202	6.75973320007
-82.3319244385	-9.02025699615	73.7610473633	0.547789990902	28.4940166473	6.71930837631
-83.4736785889	-2.70660114288	69.0467376709	0.882020890713	29.377866745	6.80149745941
-82.3958511353	3.78623151779	65.4781265259	1.32290995121	29.918844223	6.83082342148
-81.6791763306	5.73535728455	63.1082115173	1.38074958324	29.9555606842	6.73744058609
-81.2683868408	7.00987625122	62.9236106873	1.38289678097	30.1878261566	6.68431377411
-79.1302261353	6.6096124649	63.7674331665	1.62793421745	30.4256420135	6.56613111496
-78.1026611328	5.7726392746	63.4716911316	1.65036225319	30.2701644897	6.30056190491
-76.481842041	5.38628959656	66.7927398682	1.65983569622	30.174654007	5.67142868042
-75.3923416138	6.13875675201	72.1937103271	1.98316848278	30.3032131195	5.73480939865
-75.1588058472	6.50602436066	73.4301834106	2.13663220406	30.4918022156	5.65865707397
-74.596031189	8.17229557037	77.6221542358	2.04016494751	30.7756710052	5.8164100647
-72.5787658691	6.39825725555	76.5090942383	2.02580785751	30.8333206177	5.69864702225
-71.209197998	4.86938667297	76.1840820312	3.24255943298	31.0525856018	4.66342687607
-69.5730209351	3.08740663528	76.0158309937	6.08745670319	31.3068733215	4.86981964111
-68.0301132202	2.08377146721	75.4609069824	8.17910671234	32.1348686218	5.46717977524
-67.6646957397	2.87216544151	76.0726394653	8.69943523407	35.0443382263	6.72037982941
-66.7951202393	2.63875889778	77.7520904541	7.81536102295	36.5997924805	7.10456228256
-58.9216957092	2.49428629875	71.3600387573	7.00480461121	35.9576148987	6.63609313965
-57.1886062622	4.72016954422	62.9477806091	7.2019701004	36.2598266602	6.4347615242
-59.4458465576	4.14876747131	61.2119445801	6.89444160461	38.9416046143	5.81834030151
-58.7746047974	4.60801506042	63.9121665955	6.77871417999	42.2419624329	5.88525342941
-58.5918998718	2.79034781456	63.8246459961	7.21089220047	43.3107643127	6.17614507675
-60.7379379272	2.42249536514	64.1549453735	7.09443712234	42.4977874756	6.33761501312
-61.4815292358	4.67646789551	64.7936096191	6.11260128021	41.2500152588	5.96777629852
-64.9786529541	6.21038150787	82.1195068359	5.48386240005	39.7739334106	5.71898984909
-69.9532012939	7.40913534164	101.920379639	5.7380027771	38.4290237427	5.81899213791
-69.4399871826	10.1941194534	107.044288635	5.76106452942	38.1252288818	5.59896564484
-60.0767173767	12.900437355	79.9033279419	5.33078622818	37.8898353577	5.3743686676
-59.0497550964	16.4763011932	60.0060653687	5.52166032791	37.4686126709	5.42653560638
-62.2158279419	23.2591533661	45.6753692627	6.4113445282	37.2096748352	5.1744966507
-65.1418075562	28.9395065308	44.6667861938	7.78472805023	37.3551177979	5.12738275528
-62.4973449707	29.9537754059	46.4255142212	9.09169578552	36.8088264465	5.34511184692
-63.9137954712	29.003074646	44.06690979	9.58078098297	36.70154953	5.21911382675
-64.1655502319	27.6154880524	42.6019363403	9.54266262054	36.9965667725	5.00750923157
-66.0532073975	26.13048172	38.5086174011	9.33238792419	36.82837677	4.96562147141
-65.206451416	26.4053573608	36.7386856079	9.57417869568	36.6419296265	4.97091770172
-64.8930587769	27.050113678	37.2079391479	10.0654983521	36.2481842041	4.86084508896
-65.6225814819	26.214225769	38.2338142395	10.1613855362	35.6595153809	4.68614721298
-66.0739440918	24.8824081421	37.8734436035	9.96917724609	34.9828414917	4.34541368484
-67.0291061401	21.7684116364	36.5643882751	9.9979763031	34.2374191284	4.29732465744
-67.0836410522	18.974281311	37.6152114868	9.89306259155	33.6056060791	4.25456237793
-66.2783737183	17.3099632263	38.3306541443	9.36933326721	32.9692306519	4.26745796204
-67.2006454468	16.4310207367	40.2926177979	8.70501708984	32.4933395386	4.33320665359
-67.0873031616	14.3584251404	40.6071739197	8.36343860626	32.3988494873	4.18822526932
-68.2733230591	14.8059635162	41.7688980103	8.03572940826	32.2563591003	4.22409772873
-69.0649108887	15.252243042	42.1669845581	7.06736946106	31.8894786835	4.52114582062
-69.9717254639	15.0687036514	42.843662262	5.10439872742	31.3763370514	4.79519176483
-70.804901123	14.1086235046	43.757724762	3.61649465561	31.0994434357	4.77455854416
-71.613319397	13.766960144	45.225025177	3.25707817078	30.9180774689	5.02135944366
-71.1091461182	13.0990390778	46.1370620728	3.31594562531	30.7067337036	5.16614866257
-72.1467590332	12.0386943817	45.664730072	3.40146446228	30.6151561737	5.15643644333
-72.540435791	12.2511119843	45.8992881775	3.44703292847	30.428647995	5.37173032761
-71.1817474365	11.869477272	47.0758514404	2.90732431412	30.2432022095	5.27156305313
-72.4598007202	10.5128793716	48.3079338074	2.89656805992	30.1284885406	5.1697602272
-72.6443405151	9.69703102112	51.0843849182	3.39739465714	30.3295669556	5.29083442688
-73.0412063599	8.74794197083	56.3230285645	3.48134565353	30.1908588409	5.21560239792
-73.6606445312	10.1847219467	53.2058372498	3.57655286789	30.423406601	5.20836210251
-75.2043991089	10.1856822968	52.4173927307	3.52849411964	30.5647716522	5.20373725891
-73.2455215454	9.36503601074	56.2046508789	3.29729294777	30.4613571167	5.25619077682
-75.2348403931	11.2490367889	58.1640853882	3.25444293022	30.5898914337	5.31288528442
-76.3112182617	10.8616838455	49.1044502258	3.36129045486	30.6018486023	5.27998399734
-72.7707138062	7.95617628098	42.5658683777	3.37346410751	30.5759754181	5.31865549088
-72.7164001465	5.21019506454	40.3111839294	3.17871522903	30.6605873108	5.25292825699
-75.3487625122	5.37526750565	47.0367965698	2.96357154846	30.6790924072	5.39315986633
-76.6678695679	5.40989780426	52.6447029114	2.84071159363	30.6557826996	5.43171930313
-78.3493423462	6.05604505539	53.9175262451	2.6834962368	30.7179069519	5.33741378784
-79.4395065308	6.44921827316	52.5197257996	2.59426903725	30.6339530945	5.29746818542
-81.1927566528	9.82469367981	57.4759712219	2.12558627129	30.7263889313	5.42777872086
-84.8612060547	14.0852298737	61.1321334839	1.7033829689	30.7156658173	5.46001911163
-87.3185348511	14.3046073914	56.0881385803	1.67046153545	30.7641811371	5.5332493782
-85.7540512085	13.5641851425	49.4274101257	1.5017260313	30.7496376038	5.6060051918
-81.9825973511	8.0502948761	42.1350784302	0.96739333868	30.7168502808	5.43971920013
-79.8311538696	8.66779232025	38.7195320129	0.451898366213	30.724187851	5.39689588547
-79.7477645874	14.4341201782	43.2734260559	0.341891944408	30.7430171967	5.43888664246
-82.7846908569	14.5194396973	44.4184341431	-0.416693806648	30.5880241394	5.39174222946
-84.1203842163	14.542840004	44.6217918396	-1.64960205555	30.5842456818	5.39697504044
-85.1113128662	16.2259254456	46.2631721497	-3.31041479111	30.4005203247	5.66638278961
-82.7192459106	16.6528739929	51.6686058044	-3.76009607315	30.0932350159	5.81787443161
-83.5185546875	19.3277015686	54.9567108154	-2.23874425888	29.783493042	5.89932394028
-83.3070983887	19.104631424	55.3539619446	-0.458228319883	29.6683998108	6.20215845108
-82.4478683472	17.0018444061	55.6099662781	-0.528796195984	30.1773738861	6.28590345383
-81.307144165	15.5555562973	53.4090652466	-1.16518449783	30.5257320404	5.79354906082
