-0.036595582962	1.06194603443	0.0313411951065	-0.211738109589	1.58576929569	-0.124039530754
-0.0382096767426	1.06150496006	0.0315304994583	-0.210910081863	1.58560431004	-0.12338411808
-0.0406606197357	1.05935168266	0.0331386327744	-0.211937904358	1.58577573299	-0.122795581818
-0.0543131828308	1.04327487946	0.0472629070282	-0.211697101593	1.58530366421	-0.12214756012
-0.0678389072418	1.04149198532	0.0429977178574	-0.209496021271	1.58453178406	-0.121587514877
-0.0812494754791	1.03470039368	0.0386582612991	-0.206351041794	1.58396017551	-0.121408820152
-0.0861856937408	1.02915334702	0.0354223251343	-0.204325675964	1.58413004875	-0.121658802032
-0.0860106945038	1.02881383896	0.0354061126709	-0.201252698898	1.58432710171	-0.122591257095
-0.0860140323639	1.02855682373	0.035135269165	-0.197914600372	1.58400070667	-0.123362421989
-0.0883586406708	1.02688336372	0.0335922241211	-0.195994138718	1.58486568928	-0.123602628708
