-55.4323387146	-33.3037490845	140.148635864	11.7669172287	4.44861221313	2.78385996819
-55.4795875549	-33.5475006104	139.745056152	12.2338705063	4.66723871231	2.78356432915
-54.6118354797	-33.63854599	138.122528076	12.2633647919	4.8119134903	2.73035120964
-51.029460907	-35.2903175354	130.890411377	12.3980569839	5.91269302368	2.57974696159
-45.3309516907	-35.3037223816	117.267951965	12.6125822067	9.10599899292	2.87774610519
-45.8344421387	-32.8229446411	114.018539429	12.1870222092	10.5062761307	3.27058386803
-46.8928489685	-30.7106132507	109.813720703	10.7060852051	9.93916702271	3.3413579464
-47.2302284241	-29.3227367401	100.117271423	9.45264625549	8.75705051422	3.42988395691
-49.412902832	-29.691318512	93.1325759888	8.56709861755	6.64047861099	3.51094841957
-52.4258003235	-29.7255516052	86.8365707397	7.72266197205	5.28205871582	3.89201831818
-54.5778312683	-30.219783783	77.7386779785	6.59695625305	4.84475517273	4.44062995911
-56.2933311462	-31.2032108307	70.1606903076	5.27292346954	4.41177463531	5.11209344864
-56.8880386353	-32.4028739929	63.3836288452	4.22950077057	3.04874873161	5.55365943909
-58.5708732605	-32.7646942139	58.113368988	3.88473844528	2.30041360855	6.10325241089
-60.9436264038	-33.269317627	54.6764144897	3.42617416382	1.81499052048	6.82915735245
-61.6598739624	-33.5641479492	51.6623001099	2.68873405457	1.48181784153	7.60342931747
