0.0	-0.0	134.699295044	-120.192260742	84.1952590942	170.404403687
0.0	-0.0	132.605560303	-120.470695496	83.9592666626	170.861663818
0.0	-0.0	132.510971069	-120.702674866	83.7469940186	171.261550903
0.0	-0.0	132.040115356	-121.670661926	84.1499710083	171.856185913
0.0	-0.0	132.289047241	-128.775924683	88.1269302368	172.947387695
0.0	-0.0	135.388168335	35.9267883301	86.343132019	-4.21117401123
0.0	-0.0	133.517562866	22.2699508667	82.4809036255	0.36814931035
0.0	-0.0	132.30329895	13.8833675385	79.9604492188	3.49043774605
0.0	-0.0	128.586410522	10.4152793884	76.4880599976	5.09209060669
0.0	-0.0	111.672149658	7.36097955704	70.3731307983	6.72174119949
0.0	-0.0	99.7695770264	1.30904841423	60.4468231201	11.2603025436
0.0	-0.0	67.1431884766	-2.24959111214	51.7749862671	13.1809635162
0.0	-0.0	67.0419692993	-1.10093355179	48.0978393555	12.5245542526
