-0.0501675605774	1.10205709934	0.00338053703308	-0.213648080826	1.58413684368	-0.17370557785
-0.048362493515	1.10311281681	0.00458693504333	-0.212855815887	1.58378529549	-0.173206090927
-0.0488219261169	1.10026359558	0.01034116745	-0.212333202362	1.58418059349	-0.172720909119
-0.0516345500946	1.0847209692	0.0281252861023	-0.211100816727	1.58567214012	-0.172581672668
-0.0675151348114	1.08603823185	0.0190765857697	-0.209415435791	1.58794188499	-0.172414779663
-0.0829825401306	1.0775513649	0.0138428211212	-0.209290027618	1.59146487713	-0.172578334808
-0.0934610366821	1.07043004036	0.0124728679657	-0.211220502853	1.59342992306	-0.172723293304
-0.100284814835	1.0680513382	0.0112447738647	-0.215415000916	1.59073758125	-0.168699979782
-0.100053071976	1.07138633728	0.0114104747772	-0.225002765656	1.58854079247	-0.161670565605
-0.0991880893707	1.06879377365	0.0102005004883	-0.23472070694	1.58704006672	-0.155870914459
-0.100612163544	1.06528806686	0.00924110412598	-0.238714694977	1.58676588535	-0.150763392448
-0.105734825134	1.06412577629	0.0095728635788	-0.240173578262	1.58671069145	-0.144561886787
-0.107850074768	1.06775033474	0.0130293369293	-0.243093013763	1.58689188957	-0.136882066727
-0.111070394516	1.06472861767	0.014995098114	-0.247986555099	1.58606493473	-0.127465248108
-0.114948511124	1.05689406395	0.0149611234665	-0.252597808838	1.58554720879	-0.118199825287
-0.116489887238	1.05314683914	0.0166654586792	-0.256811618805	1.58455336094	-0.110411643982
-0.119194984436	1.05374765396	0.0198953151703	-0.260683059692	1.58392524719	-0.104375839233
-0.111431121826	1.05838251114	0.0432684421539	-0.26377415657	1.58444404602	-0.100588321686
-0.102190256119	1.06404769421	0.0627632141113	-0.267460346222	1.58387386799	-0.0981981754303
-0.101593971252	1.05736470222	0.0695836544037	-0.27195930481	1.58268797398	-0.0961956977844
-0.102369785309	1.06209516525	0.0696929693222	-0.27629160881	1.58303880692	-0.0946836471558
-0.116328477859	1.07665836811	0.0583798885345	-0.278969764709	1.5823571682	-0.0930926799774
-0.125227451324	1.06687927246	0.0574655532837	-0.280738115311	1.58219861984	-0.0925693511963
-0.126415967941	1.06186616421	0.0584590435028	-0.281003713608	1.58364403248	-0.0931143760681
-0.130017757416	1.06719040871	0.0560743808746	-0.279309988022	1.5852547884	-0.0932357311249
-0.126534700394	1.04618048668	0.0709906816483	-0.275257110596	1.58830857277	-0.0948005914688
-0.116205692291	1.03610086441	0.0809905529022	-0.272119045258	1.58905923367	-0.0961602926254
-0.109117507935	1.04084253311	0.084796667099	-0.270944595337	1.58845853806	-0.094245672226
