0.0	-0.0	-143.057998657	-175.236679077	85.8826446533	-101.407249451
0.0	-0.0	-143.369369507	-175.962417603	86.3348312378	-100.648155212
0.0	-0.0	-143.817123413	-175.4503479	86.5973892212	-100.680633545
0.0	-0.0	-143.471862793	-175.831588745	86.5440063477	-100.585594177
0.0	-0.0	-139.529632568	-178.674957275	86.0299530029	-95.2809906006
0.0	-0.0	-127.740913391	177.67527771	87.898727417	-96.126121521
0.0	0.0	-107.803375244	-5.197016716	85.6384048462	74.6089553833
0.0	0.0	-83.4894943237	-1.47019720078	77.4238815308	62.6096038818
0.0	0.0	-64.4860458374	-3.03839993477	73.1771774292	57.9058914185
0.0	0.0	-52.3263702393	-2.66837334633	70.9926223755	60.6526565552
0.0	0.0	-52.4831123352	10.9282016754	72.616973877	53.8474121094
0.0	0.0	-62.4098854065	32.8110237122	78.2536849976	52.2259559631
0.0	0.0	-69.1107788086	36.2054786682	79.6143722534	69.6420211792
0.0	0.0	-72.2287902832	36.0143280029	83.7290878296	79.0327301025
0.0	0.0	-69.744972229	36.4755744934	89.4975967407	66.8520278931
0.0	0.0	-61.2866897583	20.8689746857	82.4453277588	53.089389801
0.0	0.0	-49.9779930115	7.50355815887	83.8694381714	63.9029083252
0.0	0.0	-37.3451728821	179.851959229	80.1695327759	-98.4682769775
0.0	0.0	-29.1156978607	-174.744293213	58.9543113708	-108.820121765
0.0	0.0	-25.8305969238	-158.747543335	66.1759338379	-113.716201782
0.0	0.0	-24.7074184418	-148.120361328	86.0692367554	-91.5473861694
0.0	0.0	-24.5328540802	48.6580123901	61.163734436	79.7579879761
0.0	0.0	-24.2015190125	66.1185302734	33.3909912109	69.7033691406
0.0	0.0	-23.4006061554	65.2859573364	28.0494041443	81.0904083252
0.0	0.0	-23.5200748444	70.0864486694	32.5911216736	83.3261413574
0.0	0.0	-23.2631855011	82.4646530151	31.1261043549	76.3198013306
0.0	0.0	-24.0894012451	90.6274261475	44.9894332886	48.5047111511
0.0	0.0	-24.553188324	85.2056503296	49.0194473267	18.2884063721
0.0	0.0	-24.6306304932	65.8176422119	32.7234420776	32.738861084
0.0	0.0	-24.6805171967	62.5448799133	33.3134651184	42.401134491
0.0	0.0	-25.2065219879	66.5880508423	32.6289558411	50.5410575867
0.0	0.0	-27.1774692535	70.81199646	34.6105384827	53.0944480896
0.0	0.0	-28.5746994019	72.3768310547	34.866317749	56.0153884888
0.0	0.0	-29.6121788025	75.0030975342	32.8752250671	61.538356781
0.0	0.0	-30.9177246094	82.7091522217	41.3964767456	40.7409057617
0.0	0.0	-31.5602474213	82.6198730469	41.9264183044	36.0250434875
0.0	0.0	-31.3134651184	71.8795776367	34.1729164124	51.4567146301
0.0	0.0	-31.727563858	68.3816986084	30.1287574768	62.6040458679
0.0	0.0	-32.3362617493	70.9593200684	31.0040035248	63.0823287964
0.0	0.0	-32.3920059204	77.9844894409	37.4160652161	49.3396339417
0.0	0.0	-32.0778541565	77.1539077759	34.2469940186	52.7419204712
0.0	0.0	-32.4360466003	77.0496368408	31.8322925568	59.1559562683
0.0	0.0	-32.7057380676	89.0869064331	42.6015510559	44.1989631653
0.0	0.0	-34.08360672	91.2048568726	51.0197105408	33.0739593506
0.0	0.0	-34.1400146484	78.1583099365	44.8347358704	42.7724113464
0.0	0.0	-34.0381698608	66.4010696411	38.8385391235	57.8651313782
0.0	0.0	-33.6847229004	61.9968757629	34.7206268311	69.2630081177
0.0	0.0	-34.4207878113	67.8015136719	37.1032066345	60.9308929443
0.0	0.0	-34.1396064758	75.6243286133	45.5444145203	44.9972038269
0.0	0.0	-34.061706543	65.3110656738	41.4829940796	55.461933136
0.0	0.0	-34.1069793701	60.2212715149	35.8993301392	67.4633789062
0.0	0.0	-34.2158813477	66.4225692749	38.2947616577	66.3138427734
0.0	0.0	-34.6487464905	78.0474090576	49.0258712769	45.2345542908
0.0	0.0	-45.4351196289	70.4990921021	46.9478797913	46.375743866
0.0	0.0	-63.2875289917	61.5285644531	43.541683197	55.1310997009
0.0	0.0	-82.3868179321	57.4873466492	41.9508895874	62.4658317566
0.0	0.0	-91.7070617676	55.4833717346	40.5545120239	67.8317871094
0.0	0.0	-91.2890167236	61.4990310669	45.3799209595	48.7310829163
0.0	0.0	-89.3513031006	56.8419647217	44.4796676636	51.0807533264
0.0	0.0	-84.9638977051	44.6879005432	38.7326850891	68.8395614624
0.0	0.0	-82.0216522217	46.202545166	36.7262077332	71.5517959595
0.0	0.0	-82.6487045288	46.0950050354	38.6302108765	67.9396896362
0.0	0.0	-83.4832992554	47.6012840271	43.7221107483	49.3303985596
0.0	0.0	-82.7648239136	37.7600479126	44.5616035461	51.7020149231
0.0	0.0	-83.3031845093	25.475812912	46.5489463806	60.261505127
0.0	0.0	-85.0222167969	17.9702644348	50.022857666	62.7267570496
0.0	0.0	-92.9300231934	14.4603052139	52.2696914673	69.5023040771
0.0	0.0	-96.1673965454	18.876203537	49.8554878235	83.9408950806
0.0	0.0	-89.1206054688	24.9670181274	48.2524375916	91.5436019897
0.0	0.0	-82.3945770264	31.1747493744	49.074634552	96.2188720703
0.0	0.0	-73.9746780396	32.0939064026	49.6462020874	111.628768921
0.0	0.0	-69.6429977417	41.5156669617	51.0637321472	101.133781433
0.0	0.0	-72.1218414307	60.6199226379	59.2299118042	40.9811096191
0.0	0.0	-72.5775527954	39.4197883606	44.1882133484	62.157283783
0.0	0.0	-72.8841400146	28.3537349701	39.2142333984	77.0993041992
0.0	0.0	-73.4346694946	23.6790122986	40.8812408447	81.7019805908
0.0	0.0	-75.7567138672	28.2544536591	42.9354400635	74.1398391724
0.0	0.0	-80.5154571533	32.9767341614	45.4986763	58.5176086426
0.0	0.0	-85.141456604	25.9027004242	45.7219581604	66.0564727783
0.0	0.0	-87.9385299683	16.4562358856	47.727481842	81.8850097656
0.0	0.0	-91.1957168579	16.0300827026	54.6177406311	75.2891921997
0.0	0.0	-90.4435119629	15.772362709	54.7934608459	73.1374359131
0.0	0.0	-90.6748046875	15.0348558426	53.0267982483	80.2743225098
0.0	0.0	-91.2370986938	12.4467554092	50.106918335	97.5796279907
0.0	0.0	-90.8523864746	15.9230728149	48.4746704102	101.998977661
0.0	0.0	-91.0126953125	25.231300354	47.6177520752	87.6093215942
0.0	0.0	-91.233795166	28.0114765167	40.4968070984	69.5727005005
0.0	0.0	-91.1291351318	23.0886611938	37.4876670837	73.3528594971
0.0	0.0	-91.0985946655	33.3110847473	45.23072052	40.5578727722
0.0	0.0	-91.2631225586	30.3955211639	43.5055961609	39.7941703796
0.0	0.0	-91.8658218384	27.9597434998	43.297164917	43.1253547668
0.0	0.0	-91.4505157471	25.5869274139	42.9905395508	46.1119537354
0.0	0.0	-91.358795166	25.5885658264	42.8392944336	44.9950218201
0.0	0.0	-92.1474761963	26.711889267	42.3974876404	40.4496994019
0.0	0.0	-97.1240539551	24.9770870209	41.750793457	43.8590774536
0.0	0.0	-109.037536621	23.3045082092	42.6578674316	45.8665237427
0.0	0.0	-117.540878296	21.9523792267	42.6200218201	46.670791626
0.0	0.0	-116.655570984	21.4348449707	40.9133529663	48.4769897461
0.0	0.0	-106.318603516	22.8843841553	39.7372436523	47.7086715698
0.0	0.0	-96.4426498413	19.9195976257	38.0891265869	49.1445045471
0.0	0.0	-95.9329071045	21.5279407501	38.8330993652	47.1041603088
0.0	0.0	-98.1489257812	21.2012233734	40.0379638672	46.746887207
0.0	0.0	-90.5543823242	20.423166275	38.3533439636	46.9945106506
0.0	0.0	-74.3853530884	19.5124397278	37.2845497131	47.7858505249
0.0	0.0	-61.2681427002	16.8955135345	36.4895019531	48.9028244019
0.0	0.0	-51.2964286804	17.0089206696	36.753528595	49.341053009
0.0	0.0	-56.6189842224	15.7412080765	37.7973480225	50.4900474548
0.0	0.0	-75.7975997925	15.7647848129	40.822593689	51.7212181091
0.0	0.0	-71.9074554443	14.77023983	42.493976593	51.7366867065
0.0	0.0	-24.1984291077	13.7316255569	42.2584877014	48.7894058228
0.0	-0.0	9.91411590576	13.0651683807	40.2227745056	47.9548530579
0.0	-0.0	6.39495754242	15.7910900116	41.3329467773	48.2621192932
0.0	0.0	-27.8909339905	15.096701622	43.2014656067	50.8539047241
0.0	0.0	-73.4179763794	14.0819349289	44.7618331909	52.2949981689
0.0	0.0	-92.970664978	10.6857862473	45.1301651001	53.8875389099
0.0	0.0	-89.9769897461	11.1969709396	45.0972824097	52.0728378296
0.0	0.0	-74.8748016357	8.62382030487	45.4335403442	53.2696075439
0.0	0.0	-57.0647659302	11.0691480637	44.3163566589	53.8991203308
0.0	0.0	-54.4548873901	27.3098697662	39.9958534241	49.2188568115
0.0	0.0	-57.8691329956	50.4306602478	36.0334854126	44.7520370483
0.0	0.0	-58.3855667114	53.0035209656	31.911813736	49.9421310425
0.0	0.0	-57.3971214294	55.3943710327	30.2054767609	50.1461868286
0.0	0.0	-59.940826416	54.5564231873	31.0763244629	52.8206748962
0.0	0.0	-76.2957839966	53.4128036499	33.5784301758	53.399936676
0.0	0.0	-85.4644088745	49.5706977844	34.4572410583	54.7690391541
0.0	0.0	-92.8865966797	48.0917282104	34.6016464233	54.8807754517
0.0	0.0	-106.024139404	44.9035758972	35.6416854858	56.5841026306
0.0	0.0	-107.689682007	44.7651138306	34.9028320312	56.4535675049
0.0	0.0	-94.7730026245	43.8174705505	34.2388839722	55.7284240723
0.0	0.0	-76.0754241943	40.9450531006	33.9649238586	56.034324646
0.0	0.0	-63.0118751526	38.7964057922	32.6906433105	55.656463623
0.0	0.0	-63.2584877014	37.7682380676	28.2998886108	54.1198310852
0.0	0.0	-72.2736129761	38.7000236511	24.4251289368	57.9963340759
0.0	0.0	-74.3768539429	44.9946899414	20.481754303	62.0245513916
0.0	0.0	-73.8798065186	51.7430458069	18.3742237091	59.9009170532
0.0	0.0	-74.4203186035	59.2048721313	24.131975174	40.9904937744
0.0	0.0	-74.0833129883	49.3658103943	17.3512821198	43.6670341492
0.0	0.0	-74.7939910889	53.0962562561	19.3177051544	41.0079269409
0.0	0.0	-74.416343689	52.496963501	19.6756381989	41.7410430908
0.0	0.0	-76.4229431152	52.205745697	20.4010257721	41.4675102234
0.0	0.0	-81.9979095459	51.3301811218	21.3611755371	42.3960800171
0.0	0.0	-94.208732605	50.3830833435	22.0262012482	42.3420410156
0.0	0.0	-117.503364563	50.5539169312	23.5606632233	41.4821472168
0.0	-0.0	-123.114471436	50.4895324707	24.1134967804	40.615234375
0.0	0.0	-113.538879395	49.9938468933	25.2708835602	39.4257659912
0.0	0.0	-109.390510559	46.663734436	27.1218566895	40.2691879272
0.0	0.0	-97.2965927124	45.8928184509	26.4349689484	39.4478187561
0.0	0.0	-76.1795959473	43.7302818298	25.7091083527	38.5614242554
0.0	0.0	-67.4868850708	43.5682983398	26.242351532	37.7075691223
0.0	0.0	-71.077911377	43.4573516846	25.5277690887	37.6714286804
0.0	0.0	-76.9261932373	43.551109314	25.4711532593	37.314491272
0.0	0.0	-82.1813659668	42.7291374207	26.0847244263	37.2688865662
0.0	0.0	-82.8775177002	42.7620735168	26.4206562042	36.9489326477
0.0	0.0	-84.8745651245	42.4854927063	26.8801002502	37.1980743408
0.0	0.0	-94.1165161133	42.1624412537	27.4594707489	37.6696624756
0.0	0.0	-103.217422485	41.2830238342	27.9016723633	37.8142585754
0.0	0.0	-104.323066711	42.0565948486	28.4125957489	36.0810127258
0.0	0.0	-103.78163147	42.4169311523	28.6502952576	34.7875175476
0.0	0.0	-96.5933380127	43.4108695984	27.9102363586	33.1133842468
0.0	0.0	-86.340423584	44.8182525635	26.796459198	30.8013648987
0.0	0.0	-90.3542098999	45.0897521973	26.606552124	30.7177829742
0.0	0.0	-105.317115784	45.6857872009	24.6379489899	30.3116168976
0.0	0.0	-105.242721558	45.2294578552	22.0947437286	30.0205078125
0.0	0.0	-95.3930435181	46.4198989868	24.2166748047	29.2315406799
0.0	0.0	-90.2637786865	45.7085609436	25.8531665802	30.8940124512
0.0	0.0	-70.4280166626	47.2472381592	27.0410194397	29.2799777985
