-20.174407959	2.05385661125	39.3182563782	-4.67539405823	-3.7234787941	-35.7481231689
-20.4908008575	1.79585194588	39.6649284363	-4.5489563942	-3.57355642319	-35.85729599
-20.2179050446	1.69675374031	39.663028717	-4.49395275116	-3.51849102974	-35.9387626648
-20.4579925537	1.71591174603	39.7593688965	-4.35932683945	-3.55519485474	-35.8415985107
-22.3307590485	1.99093282223	42.9485588074	-3.44432377815	-3.76836752892	-34.6490440369
-23.5582199097	0.944733858109	41.0746421814	-1.42875397205	-4.47354078293	-31.5279026031
-25.1864967346	-2.70267057419	37.1680908203	0.551403343678	-5.3219037056	-26.2997360229
-22.9437999725	-6.59373521805	31.2135448456	2.62181401253	-6.43097019196	-20.2680950165
-24.4597854614	-8.65373039246	29.3919734955	5.5078663826	-9.17052841187	-15.6561317444
-23.0724124908	-9.3935585022	29.143371582	7.98319339752	-13.2281599045	-12.9282560349
-16.0307006836	-8.33399963379	26.2758274078	10.5278320312	-17.3472423553	-13.3425292969
-5.16650009155	-5.71146345139	26.3979911804	12.9301586151	-20.1729393005	-15.8489837646
-4.57145547867	-5.36199569702	35.5077323914	14.4642028809	-22.9125041962	-17.4254837036
-4.56527137756	-2.74610114098	39.8268432617	14.7343816757	-23.5806427002	-18.0769920349
-4.32230997086	0.235085099936	31.4907798767	13.9294424057	-20.9342746735	-17.2622070312
-13.2137098312	-4.58168697357	27.3289299011	12.6981315613	-16.3625659943	-15.0490036011
-19.1247501373	-3.07643532753	33.2184791565	11.5739746094	-11.2575855255	-12.1398944855
-22.0777683258	6.91443634033	40.0848579407	10.9687643051	-6.5096745491	-9.04225826263
-20.0640640259	15.6703519821	35.0275001526	10.8994789124	-3.31169366837	-7.14996623993
-10.7941541672	10.7198543549	33.9309196472	11.1010742188	-3.03100943565	-6.40165138245
-5.9457116127	0.962355792522	44.4518890381	11.0367412567	-3.53321957588	-6.18142700195
3.06851506233	-16.0307445526	39.362159729	10.9797916412	-3.81352877617	-6.11200237274
10.3912467957	-29.3927879333	36.4411621094	10.9678688049	-3.96502566338	-6.02093029022
10.617682457	-30.8234214783	40.9573631287	10.8815736771	-3.58951663971	-5.8431558609
13.4604387283	-28.7859268188	41.6141166687	11.0197353363	-3.32058978081	-5.89698600769
18.6815242767	-28.9439468384	38.1269989014	11.1718244553	-3.35970163345	-5.81773757935
23.2596950531	-21.6744098663	21.9463481903	11.4359350204	-3.42222857475	-6.04886817932
19.2240524292	-21.3175792694	9.67717933655	11.6105613708	-3.50179219246	-6.13353300095
9.61545848846	-28.9497203827	16.9797000885	11.579750061	-3.48891305923	-6.1768951416
8.89299297333	-28.5036010742	21.9591693878	11.8026533127	-3.3958170414	-6.17203760147
11.2717580795	-28.3947143555	25.0622253418	12.2183437347	-3.49636220932	-6.3455080986
12.9747314453	-27.6597976685	26.6962394714	12.3535985947	-3.47039270401	-6.8472943306
13.6715669632	-27.7259235382	28.492307663	12.4923534393	-3.5856897831	-7.17226648331
15.2568225861	-28.3562335968	30.3896503448	12.7333393097	-3.74604082108	-7.4298491478
19.5234260559	-23.2048244476	17.7590427399	12.6968021393	-3.95219826698	-7.78762054443
18.2112159729	-24.7261199951	18.4844856262	12.6891832352	-3.87448620796	-7.88558149338
13.2690191269	-28.0599040985	25.7379894257	12.4640283585	-3.95839953423	-7.83491563797
11.5619726181	-30.0534057617	31.7362575531	12.4205608368	-4.15482187271	-7.94829034805
13.3505716324	-29.3174533844	30.8979263306	12.6091470718	-4.29855728149	-8.09792804718
16.6582870483	-26.2303333282	24.5671615601	12.4984741211	-4.30776071548	-8.09713935852
16.095281601	-28.123336792	26.7715892792	12.2788505554	-4.22905826569	-8.01817417145
16.0802536011	-29.1555480957	29.6304798126	12.3523588181	-4.12744808197	-8.11525058746
22.8290653229	-22.5696811676	20.8505878448	12.4259176254	-4.50334644318	-8.20149230957
22.5713939667	-19.6694698334	17.0668506622	12.3906669617	-4.58811903	-8.53237247467
15.8931484222	-22.8076992035	22.319984436	12.3183221817	-4.53732347488	-8.52987957001
10.2284193039	-25.9821796417	29.8552970886	12.2886896133	-4.25766658783	-8.49890899658
8.58994102478	-27.673002243	35.1107978821	12.2139539719	-4.16755962372	-8.42091751099
12.2542486191	-25.3844509125	28.4546604156	12.1783676147	-4.14564418793	-8.61465072632
14.7778816223	-22.4699821472	22.4701728821	12.276058197	-4.09913682938	-8.52649879456
9.82321453094	-24.5516014099	27.9121570587	12.1320095062	-4.04048919678	-8.5286397934
7.7928853035	-27.1238689423	33.9502983093	12.0561466217	-4.02509498596	-8.52318572998
11.3735551834	-25.4710216522	32.1455383301	11.9758405685	-3.92944073677	-8.56520843506
16.555355072	-20.3755950928	22.1897926331	11.9125909805	-4.11430501938	-8.6936750412
12.2923908234	-21.7986698151	23.8936367035	11.9293518066	-4.87958192825	-11.8521957397
7.74180030823	-23.5537929535	28.6067562103	9.64876937866	-6.25947523117	-16.3923168182
6.22618484497	-24.0054683685	31.5363559723	7.62450456619	-7.94470643997	-21.006526947
5.29584980011	-24.6338558197	33.5520439148	7.18667888641	-8.38206386566	-22.9940433502
8.89202880859	-21.6328697205	22.5138626099	7.29169607162	-9.0279712677	-22.7429218292
4.94766664505	-23.2903347015	27.0079193115	6.94999551773	-9.65601921082	-22.2844409943
-0.19201284647	-25.8717575073	34.5476036072	6.61170482635	-9.49869918823	-21.1166210175
0.81545817852	-26.5803966522	35.7506790161	6.40506792068	-9.39322566986	-20.4828796387
0.450535446405	-25.4985618591	33.5963096619	6.96266746521	-9.64183139801	-20.7117843628
1.27182328701	-22.5022583008	23.491771698	6.85586500168	-10.1834192276	-20.8508796692
-4.48146247864	-22.5984630585	26.2249011993	6.46475028992	-10.4670791626	-20.689573288
-10.098115921	-21.5344009399	30.1000137329	6.29297351837	-10.482383728	-20.8367462158
-13.8843641281	-20.0734386444	31.8648662567	6.07008075714	-10.8391494751	-21.3228912354
-15.3984804153	-18.7358131409	35.7009315491	5.50948476791	-12.1312799454	-23.5335559845
-12.5249595642	-20.094078064	42.166305542	5.14671182632	-11.9702863693	-23.9054794312
-9.64270305634	-20.6946468353	45.7252655029	5.57507324219	-11.1208686829	-22.1068954468
-7.12004089355	-20.568353653	49.6964569092	5.48678874969	-10.6649599075	-20.3846530914
-5.92040586472	-19.9449119568	56.403263092	5.79686021805	-10.1603574753	-18.271024704
0.032517876476	-18.7311725616	46.1666679382	5.87386417389	-9.26830005646	-17.4488983154
6.84041690826	-17.156791687	22.1966552734	6.19589042664	-9.37801456451	-18.0780105591
-3.3364739418	-23.1468906403	31.4516372681	6.62401247025	-9.54967784882	-18.1326904297
-9.1682100296	-25.5134563446	39.3375740051	6.75969219208	-9.87451171875	-18.2357215881
-10.3598880768	-24.5369224548	40.5727157593	7.04969787598	-10.2099428177	-18.3915348053
-7.87183475494	-23.1824035645	35.6909675598	7.49212551117	-10.3948497772	-19.0317974091
-6.32839250565	-22.1516723633	28.7837562561	7.5821723938	-10.1798353195	-20.2821712494
-9.96537017822	-22.2253551483	34.1652603149	7.55907154083	-10.1358985901	-21.359172821
-14.6088457108	-20.6817321777	40.7598114014	7.22221422195	-10.1122283936	-22.0914802551
-14.4407958984	-17.5222854614	37.2207984924	7.30002784729	-10.0397777557	-22.8359565735
-14.5734777451	-17.7129898071	36.792388916	7.40154218674	-9.65579128265	-22.5875396729
-15.1511507034	-18.6697769165	41.0727882385	7.48499441147	-9.47142124176	-22.6903209686
-16.2304477692	-20.0759601593	49.1867141724	7.62496042252	-9.4365606308	-22.7950687408
-14.34557724	-20.9384860992	51.3424835205	7.73952627182	-9.47873401642	-22.7219715118
-8.78085231781	-21.2432460785	41.8831329346	7.79089689255	-9.44194602966	-22.7643642426
-9.33070373535	-25.1065998077	36.3192901611	7.82277679443	-9.41683197021	-22.811422348
-10.7403593063	-26.2240943909	36.2658805847	7.93565034866	-9.2322473526	-22.7971763611
-5.85894680023	-22.4629459381	19.2339763641	8.00563240051	-9.25994205475	-22.7671279907
-7.11028957367	-23.013633728	19.3796920776	7.91348361969	-9.18385601044	-22.8447647095
-8.76437854767	-23.3514499664	21.5203151703	8.06731987	-9.14829730988	-22.975812912
-9.74682044983	-23.5045928955	22.9861888885	8.04054832458	-9.09736251831	-22.8547496796
-9.68096828461	-23.6341495514	22.3081264496	8.04201030731	-9.2024641037	-22.8714828491
-9.16190910339	-23.8111896515	19.9388580322	8.18043613434	-9.35128498077	-23.057554245
-9.84235191345	-24.0943202972	21.6989402771	9.01193809509	-10.3528366089	-24.6023025513
-10.9914474487	-23.6847190857	22.9758815765	10.4362134933	-12.8969659805	-27.5606021881
-11.4481954575	-23.7365856171	23.3739700317	11.3355236053	-15.4505224228	-29.5421276093
-11.8799333572	-24.611700058	24.4475231171	11.1266384125	-16.4070415497	-28.9458580017
-10.968129158	-25.1595497131	23.780330658	11.6788978577	-16.9565448761	-26.2904453278
-12.828584671	-25.9728908539	24.8237934113	15.4280052185	-21.7833938599	-23.9617328644
-11.6020612717	-25.4788913727	23.3973064423	19.2343292236	-26.9037590027	-23.9724178314
-11.9617586136	-25.0360889435	23.2852802277	18.8479614258	-28.1066837311	-24.489824295
-12.1849946976	-25.8923187256	23.4103221893	15.9635066986	-22.7543067932	-22.2311267853
-12.9140453339	-26.3677940369	23.9997177124	12.6719369888	-14.5140762329	-18.191822052
-14.0519838333	-26.7105770111	24.483499527	11.9622430801	-7.1075758934	-14.9882946014
-14.0085496902	-26.5839824677	24.7084579468	13.1737928391	-2.94114303589	-12.7625379562
-14.7314224243	-25.9136619568	25.4796390533	14.3274202347	-2.2142226696	-14.5823335648
-14.6798477173	-24.4689331055	25.816236496	17.3850860596	-3.29238724709	-19.3871994019
-15.0382566452	-23.7060642242	25.4714584351	24.2816772461	-7.42409086227	-16.9235897064
-15.7337417603	-23.9283161163	24.4334526062	30.7416706085	-14.0193881989	-4.65829324722
-15.887881279	-24.9715175629	23.9803848267	31.0123195648	-16.9104404449	3.00767803192
-14.4914913177	-24.19165802	24.1116409302	22.8422164917	-11.3890619278	0.957091629505
-14.9306735992	-23.2683582306	25.5013275146	11.4479579926	-5.49984025955	-8.24391651154
-15.5708627701	-22.552564621	26.2061233521	2.15188407898	-3.77756428719	-19.2523860931
-17.2901973724	-22.5061187744	26.9448413849	-1.01390552521	-5.07076311111	-23.3391437531
-16.9626121521	-22.3875045776	26.0216941833	0.409298032522	-6.17348670959	-22.2537479401
-18.2719573975	-22.3177547455	26.7144470215	4.17344474792	-7.07956552505	-18.1468029022
-16.6463375092	-23.0054302216	26.9488449097	7.71633911133	-7.80650997162	-13.9878120422
-7.43241119385	-25.3764743805	24.4490203857	9.67704772949	-7.76236963272	-13.667798996
3.46410751343	-27.1558475494	22.252664566	10.0786504745	-7.10102415085	-14.5196361542
3.99558901787	-29.2065982819	25.0824432373	10.2100105286	-7.01287984848	-14.5794363022
5.2185587883	-30.1087150574	25.4902839661	10.5282335281	-7.1452999115	-14.3348989487
4.81899166107	-29.3992862701	26.5612258911	11.6287002563	-7.74345731735	-15.2757177353
3.84547233582	-28.03515625	26.9589881897	13.7031497955	-8.81478214264	-19.4915790558
2.24976491928	-27.698381424	27.350069046	14.2641487122	-9.85952758789	-21.4748306274
1.35227286816	-27.6663341522	27.5576038361	13.8441181183	-11.9412260056	-23.5633678436
-0.125783503056	-27.2202453613	28.4272060394	13.8058319092	-13.3324117661	-26.8168926239
-0.174013391137	-27.6303119659	28.2083015442	12.9079666138	-12.5281248093	-26.6834659576
-0.665317356586	-27.8366031647	27.8505382538	12.7771778107	-11.985200882	-23.1970043182
-2.41743087769	-28.0809307098	28.0494804382	13.3169164658	-11.7807216644	-18.5120296478
-2.97475361824	-28.7524261475	27.4785442352	14.8412666321	-11.3308134079	-15.5898771286
-3.77234268188	-31.3393611908	27.5140686035	17.4525222778	-11.0611982346	-16.0484676361
-2.92046928406	-33.0492973328	29.2262496948	18.917175293	-11.220664978	-18.2348613739
0.862708032131	-34.8722801208	30.3066711426	18.5988998413	-11.4520082474	-18.5743637085
3.62181758881	-35.5572471619	28.8881568909	18.2535171509	-11.5160207748	-18.4639091492
6.71675634384	-33.4705162048	20.3345603943	18.0521774292	-11.2705068588	-18.6037788391
2.04641532898	-36.5267829895	22.5281887054	18.0328330994	-10.981344223	-18.5226020813
4.07154989243	-35.3731193542	20.6209392548	18.1924419403	-10.6010293961	-18.7046375275
3.51319646835	-35.053401947	21.0713787079	18.3459396362	-10.6264953613	-18.6032047272
3.55101799965	-34.6742973328	20.9064807892	18.0211906433	-10.4763936996	-19.2294197083
3.14096331596	-34.2765808105	21.2766227722	17.5642299652	-9.93521022797	-20.7272701263
2.6649081707	-33.9963760376	21.2088394165	15.8311786652	-9.25677967072	-24.0752639771
2.85884666443	-33.1336479187	20.6168556213	12.2578802109	-8.93501281738	-29.8968753815
2.73478531837	-32.9230079651	20.2043552399	10.0837278366	-9.0752248764	-30.5909538269
2.32898712158	-32.1552810669	19.7116622925	10.3636302948	-9.46259117126	-28.1680107117
0.73582559824	-31.4533653259	20.0911712646	12.1095752716	-9.51947689056	-27.2338905334
0.534537792206	-31.9047088623	19.5336780548	13.5279369354	-9.99223709106	-23.7466278076
-0.852975308895	-32.1751937866	19.4833087921	14.519949913	-10.8307514191	-18.556684494
-0.820328056812	-31.8816890717	19.0167484283	14.861954689	-10.2677173615	-16.908700943
-0.792079806328	-32.2428398132	18.8074474335	15.5588378906	-8.71468257904	-17.926076889
-0.702300965786	-32.1708908081	18.4494934082	16.2728042603	-7.16739749908	-19.3951396942
-1.11514389515	-31.9513931274	18.6470603943	15.9053049088	-5.64277887344	-20.6042385101
-1.16177260876	-31.8099250793	18.51329422	15.1022758484	-3.59231376648	-20.7007598877
-1.27360272408	-31.4841842651	18.6982517242	14.9169960022	-0.347124487162	-21.4098720551
-1.43031454086	-31.1674194336	18.8255939484	16.9093494415	3.29318904877	-23.8250808716
-1.86217188835	-31.0836849213	18.8689174652	18.1543655396	4.71584224701	-25.9384307861
-1.44691753387	-30.7758350372	17.9293403625	17.1031589508	3.58948469162	-26.0808258057
-1.23359358311	-30.6827640533	17.2536735535	15.797369957	0.657006442547	-25.8701820374
-0.659892141819	-31.1428623199	16.3573741913	13.5499267578	-2.73608922958	-23.8491287231
-0.0596967376769	-31.6574649811	15.3531351089	10.2572870255	-2.02303957939	-21.457359314
0.113904625177	-31.8040046692	15.3300905228	8.1215763092	1.52119076252	-22.9588108063
0.205021515489	-32.8425788879	15.2319164276	5.82880973816	4.81509780884	-26.5743503571
0.268452465534	-33.8583145142	14.8651580811	2.98073601723	5.94768381119	-26.0358295441
0.592958152294	-32.762638092	14.842634201	3.53165173531	6.18846225739	-23.6570262909
0.391705393791	-32.1068267822	15.3298635483	6.1242814064	7.3508272171	-22.1616954803
1.23123168945	-31.2423992157	14.4037837982	9.22923564911	3.16061091423	-17.1728668213
