0.0	-0.0	137.747436523	-101.030143738	48.6587295532	-165.46635437
0.0	-0.0	137.058258057	-100.170066833	42.4879112244	-165.559539795
0.0	-0.0	128.629928589	-99.611618042	42.6293792725	-165.591308594
0.0	-0.0	131.665100098	-99.9756088257	42.8039321899	-165.915817261
0.0	-0.0	131.369476318	-100.028541565	42.0822143555	-166.046676636
0.0	-0.0	133.239227295	-98.6421890259	41.8926734924	-166.074768066
0.0	-0.0	117.499481201	-92.7333221436	43.1359443665	-166.528762817
0.0	-0.0	97.2789154053	-78.8754272461	45.622844696	-166.259689331
0.0	-0.0	95.6938781738	-64.1008911133	49.1105728149	-166.322753906
0.0	-0.0	89.4482955933	-53.1275024414	51.0525169373	-166.834701538
0.0	-0.0	85.9579086304	-47.3006248474	56.6220474243	-169.210388184
0.0	-0.0	80.7910385132	-44.5214271545	66.8093795776	-172.873519897
0.0	-0.0	79.5162887573	-43.3846130371	73.0168380737	-175.767776489
0.0	-0.0	82.355758667	-43.3553009033	71.6789169312	-176.481033325
0.0	-0.0	82.7876739502	-43.883102417	71.0008087158	-176.522369385
0.0	-0.0	83.6977157593	-42.9368858337	72.2837753296	-177.049209595
0.0	-0.0	86.3960266113	-41.9000205994	72.2339477539	-177.83203125
0.0	-0.0	82.9727554321	-42.3922996521	70.0029296875	-177.478805542
0.0	-0.0	78.7928390503	-43.6807785034	68.5415420532	-177.900466919
0.0	-0.0	91.4946670532	-45.2196846008	67.1631088257	-178.34425354
0.0	-0.0	113.408058167	-47.3987312317	66.5357971191	-178.337310791
0.0	-0.0	116.193740845	-49.2907981873	67.1862945557	-178.864120483
0.0	-0.0	117.798576355	-48.2674293518	67.0443725586	-178.891113281
0.0	-0.0	114.293785095	-46.8738899231	66.9904708862	-179.233734131
0.0	-0.0	108.005485535	-46.2668304443	67.1052932739	-179.808135986
0.0	-0.0	91.6373062134	-46.6853790283	66.2381820679	179.429153442
0.0	-0.0	85.2857284546	-47.2273292542	65.5047836304	179.538665771
0.0	-0.0	86.4947357178	-47.9317626953	64.0937423706	179.69052124
0.0	-0.0	89.5739440918	-50.7882003784	64.7130737305	178.26348877
0.0	-0.0	88.8853225708	-58.5477104187	67.416053772	178.423812866
0.0	-0.0	87.5565948486	-69.6862487793	71.3602523804	-179.820861816
0.0	-0.0	86.494682312	-71.5630950928	74.2052078247	179.990356445
0.0	-0.0	86.7346878052	-68.2959976196	80.8765335083	178.484481812
0.0	-0.0	85.5752258301	109.153892517	88.9389038086	-2.93603920937
0.0	-0.0	85.6427993774	100.90801239	86.5364990234	-5.09627389908
0.0	-0.0	85.5841140747	97.3611602783	88.5428085327	-5.31806612015
0.0	-0.0	85.6486968994	97.3206100464	89.9273223877	-4.82742357254
0.0	-0.0	84.6068267822	-80.3448944092	86.4776153564	174.824279785
0.0	-0.0	84.6673660278	-77.9406738281	83.9599227905	175.236740112
0.0	-0.0	83.9250183105	-75.8650970459	85.2650680542	173.505966187
0.0	-0.0	82.3659515381	-74.329574585	86.3438186646	172.1121521
0.0	-0.0	76.0487823486	-74.979850769	88.4699707031	170.827514648
0.0	-0.0	72.0539245605	-75.5070114136	89.0951843262	169.971466064
0.0	-0.0	78.0455322266	-76.132774353	87.1704025269	170.080154419
0.0	-0.0	81.9663009644	-77.2764129639	88.1370620728	169.529098511
0.0	-0.0	84.3083114624	-77.6597061157	88.8670654297	169.018829346
0.0	-0.0	85.7527389526	-77.2629013062	88.4897537231	168.987487793
0.0	-0.0	86.5309143066	-78.3767242432	89.7433166504	168.541381836
0.0	-0.0	86.214630127	100.571022034	88.9754943848	-12.7354812622
0.0	-0.0	82.4837646484	-77.7722702026	89.4120407104	165.993728638
0.0	-0.0	78.0603408813	-79.8311538696	88.9227752686	164.198059082
0.0	-0.0	76.9194030762	-82.7981567383	89.6474838257	162.727798462
0.0	-0.0	77.9080581665	-83.1499176025	88.3093795776	160.971084595
0.0	-0.0	76.1298980713	-88.0873794556	87.8048400879	160.348876953
0.0	-0.0	75.648109436	-90.8933334351	87.8186950684	159.804214478
0.0	-0.0	75.4762496948	-87.0180282593	86.9289550781	157.934570312
0.0	-0.0	74.6392974854	-86.6259536743	86.2398986816	157.544433594
0.0	-0.0	70.0759658813	-86.3519973755	85.2584075928	158.064956665
0.0	-0.0	65.131149292	-84.0485229492	84.0839538574	157.65461731
0.0	-0.0	63.2983055115	-83.4460906982	83.9056854248	157.880905151
0.0	-0.0	65.2203674316	-83.2365875244	83.7742156982	157.278656006
0.0	-0.0	73.733505249	-82.746711731	83.9521179199	157.638717651
0.0	-0.0	83.1605148315	-82.638053894	84.2788848877	157.500091553
0.0	-0.0	89.3013381958	-82.106262207	85.218208313	157.63180542
0.0	-0.0	93.0803070068	-82.0040435791	85.7564620972	157.023910522
0.0	-0.0	97.7493438721	-81.4416351318	85.8068237305	156.815628052
0.0	-0.0	100.62776947	-82.4025878906	86.7759857178	156.038619995
0.0	-0.0	100.709487915	-81.8989639282	86.4494934082	155.921478271
0.0	-0.0	98.7455673218	-80.960067749	85.6784133911	155.347518921
0.0	-0.0	95.9505691528	-81.0027160645	85.8515396118	155.293716431
0.0	-0.0	98.6219329834	-80.668182373	85.2503662109	155.129318237
0.0	-0.0	98.3929595947	-80.4202423096	85.2049636841	154.415634155
0.0	-0.0	99.7403411865	-79.9418945312	85.0177688599	154.726882935
0.0	-0.0	99.5761642456	-79.9520874023	85.3522949219	154.501342773
0.0	-0.0	96.6165084839	-80.1082839966	85.3551101685	154.598205566
0.0	-0.0	92.8676147461	-82.8103485107	85.5255203247	154.303985596
0.0	-0.0	92.5206375122	-88.0610580444	86.535697937	153.212768555
0.0	-0.0	92.1581726074	-92.050163269	85.8394012451	151.184860229
0.0	-0.0	91.8724746704	-94.022315979	84.2348556519	148.347488403
0.0	-0.0	92.1022415161	-96.908782959	86.0720977783	145.615615845
0.0	-0.0	90.677192688	-100.023834229	86.8157196045	142.411270142
0.0	-0.0	83.8938674927	-97.9394836426	84.2650680542	140.416534424
0.0	-0.0	76.9011383057	-97.9538955688	85.7164764404	139.845993042
0.0	-0.0	73.0250549316	-97.3472290039	86.8723144531	139.820114136
0.0	-0.0	71.7813873291	-97.9960021973	86.332824707	140.163650513
0.0	-0.0	76.9341278076	-99.968132019	87.4156036377	139.753250122
0.0	-0.0	80.190246582	-99.1233901978	86.4800109863	139.246902466
0.0	-0.0	83.2181091309	-96.1619186401	85.5014266968	139.560470581
0.0	-0.0	88.4939575195	-93.7684249878	84.7481918335	139.83682251
0.0	-0.0	93.8483657837	-92.3085784912	83.8632278442	139.683273315
0.0	-0.0	86.6486282349	-91.0512695312	83.2813262939	139.849975586
0.0	-0.0	78.5888290405	-87.4098358154	82.2173156738	141.442901611
0.0	-0.0	75.5888442993	-79.6969833374	79.0350112915	145.269363403
0.0	-0.0	74.9141540527	-75.39503479	77.824432373	148.847244263
0.0	-0.0	77.5843582153	-69.4837188721	78.766418457	150.954833984
0.0	-0.0	77.8434524536	-62.6784324646	78.0731811523	152.512298584
0.0	-0.0	77.3338470459	-57.7703514099	78.4629440308	154.743942261
0.0	-0.0	80.1479721069	-50.6613082886	80.342376709	155.471847534
0.0	-0.0	81.0447769165	-45.1689109802	81.0787124634	154.969619751
0.0	-0.0	84.5134429932	-43.1007614136	82.6718902588	156.591674805
0.0	-0.0	88.4919586182	-43.2823677063	83.8908233643	158.538848877
0.0	-0.0	88.3170471191	-44.2363777161	83.510887146	159.248687744
0.0	-0.0	82.0995483398	-47.6069641113	85.4034957886	157.209457397
0.0	-0.0	71.400352478	-58.6158943176	85.7268753052	152.403701782
0.0	-0.0	65.2094116211	-69.5587921143	82.1622238159	150.649002075
0.0	-0.0	59.9363021851	-76.0946502686	78.6715621948	148.553482056
0.0	-0.0	71.5497741699	-79.9303588867	76.3851776123	147.850906372
0.0	-0.0	90.8797454834	-81.9568328857	75.5596466064	146.597702026
0.0	-0.0	107.400756836	-83.5212173462	74.5199737549	145.199417114
0.0	-0.0	117.837280273	-83.8261642456	74.4294586182	143.266891479
0.0	-0.0	121.538406372	-83.7196807861	75.5357666016	141.750854492
0.0	-0.0	114.389518738	-83.0565719604	76.8567504883	140.429779053
0.0	-0.0	107.906814575	-82.0582504272	76.9164276123	139.232788086
0.0	-0.0	104.187698364	-82.3244171143	77.0831604004	138.043380737
0.0	-0.0	101.460952759	-81.155418396	75.8508071899	138.938964844
0.0	-0.0	92.1680908203	-79.2834777832	73.7496566772	139.665542603
0.0	-0.0	97.7307128906	-80.1427230835	74.6015777588	139.477493286
0.0	-0.0	106.362335205	-78.6240921021	74.167175293	141.84664917
0.0	-0.0	104.366767883	-75.3861541748	74.0281524658	143.613723755
0.0	-0.0	105.825523376	-72.4476165771	74.7710647583	145.707092285
0.0	-0.0	112.141685486	-69.4315795898	75.7441101074	146.71697998
0.0	-0.0	113.952789307	-66.7679214478	75.4742431641	148.350692749
0.0	-0.0	109.282516479	-64.2534942627	75.536315918	151.130569458
0.0	-0.0	108.18258667	-60.9313201904	74.0386276245	153.423736572
0.0	-0.0	107.36655426	-57.434928894	72.6790847778	155.759552002
0.0	-0.0	101.599594116	-53.189781189	71.8461303711	157.264328003
0.0	-0.0	99.2371063232	-49.1747093201	73.3535614014	158.028076172
0.0	-0.0	98.6546478271	-46.9014587402	73.3670425415	158.411407471
0.0	-0.0	98.0354995728	-48.6769256592	73.0823822021	158.138870239
0.0	-0.0	100.306526184	-52.5035133362	72.8064346313	158.541717529
0.0	-0.0	101.530807495	-56.6845817566	72.0811767578	157.867614746
0.0	-0.0	102.847587585	-59.4812774658	71.1913528442	158.447052002
0.0	-0.0	103.512145996	-64.2680130005	69.8650665283	156.719726562
0.0	-0.0	103.897521973	-67.8210220337	67.6508865356	155.108825684
0.0	-0.0	104.284996033	-70.8388824463	66.2731323242	154.551147461
0.0	-0.0	104.484764099	-73.2305755615	64.6808013916	153.345230103
0.0	-0.0	103.68572998	-75.1794586182	64.0137023926	152.602890015
0.0	-0.0	103.271537781	-75.6051101685	63.3932876587	153.498458862
0.0	-0.0	104.291236877	-74.9828643799	63.6108322144	153.87588501
0.0	-0.0	101.011116028	-74.3129272461	64.5558853149	154.051956177
0.0	-0.0	98.5303115845	-78.8890686035	64.407661438	152.683609009
0.0	-0.0	96.4449996948	-99.6431503296	66.6607055664	151.679672241
0.0	-0.0	96.1554641724	-108.059020996	67.5079193115	149.282592773
0.0	-0.0	93.0172195435	-105.355392456	66.0674514771	149.103271484
0.0	-0.0	92.7201309204	-109.702507019	66.1685409546	147.023849487
0.0	-0.0	90.6519393921	-114.80216217	66.3221130371	145.140777588
0.0	-0.0	85.9521484375	-116.470046997	65.6552200317	145.017089844
0.0	-0.0	75.7510604858	-114.602760315	65.492515564	144.862533569
0.0	-0.0	88.6264953613	-112.271850586	66.0816040039	144.903961182
0.0	-0.0	102.667358398	-110.27960968	66.3488769531	145.885101318
0.0	-0.0	109.186233521	-107.4870224	66.4155960083	146.14163208
0.0	-0.0	116.325813293	-105.37285614	66.7829055786	146.34916687
0.0	-0.0	122.845573425	-104.122795105	66.8006591797	146.487304688
0.0	-0.0	111.506256104	-103.678565979	66.8600082397	146.77104187
0.0	-0.0	112.136734009	-103.656570435	67.2807235718	146.95980835
0.0	-0.0	100.698699951	-102.002563477	66.1978378296	146.976882935
0.0	-0.0	84.8432006836	-101.619728088	66.7010726929	146.931015015
0.0	-0.0	83.6395263672	-100.906684875	67.0257873535	146.758666992
0.0	-0.0	104.724472046	-100.173095703	67.0851745605	146.757385254
0.0	-0.0	112.636680603	-99.3640060425	67.4285354614	146.321914673
0.0	-0.0	123.404685974	-98.426071167	67.2737808228	146.771697998
0.0	-0.0	136.559509277	-98.369102478	67.1597747803	146.171325684
0.0	-0.0	147.299316406	-97.7766036987	67.0807876587	146.211212158
0.0	-0.0	143.535415649	-97.5262908936	67.2319641113	146.056533813
0.0	-0.0	129.237564087	-97.0541610718	66.9608764648	146.220428467
0.0	-0.0	98.4636001587	-96.2505264282	67.0921478271	146.144592285
0.0	-0.0	85.9914550781	-94.9183502197	66.8513717651	146.756790161
0.0	-0.0	69.509513855	-93.1663513184	66.2134475708	146.543991089
0.0	-0.0	57.405254364	-91.9727020264	66.2615966797	146.230667114
0.0	-0.0	60.2307472229	-92.1537857056	66.4136123657	145.869903564
0.0	-0.0	73.5792999268	-90.9311752319	65.764213562	145.940567017
0.0	-0.0	96.8825836182	-90.1843338013	65.7891540527	145.866470337
0.0	-0.0	101.588905334	-90.120552063	65.8003158569	146.173568726
0.0	-0.0	87.965057373	-89.8229370117	65.5723876953	146.376419067
0.0	-0.0	85.6963424683	-89.8193893433	65.8337860107	146.356643677
0.0	-0.0	81.3241348267	-89.4432296753	65.9113540649	146.549972534
0.0	-0.0	96.2472610474	-89.4079360962	65.9957809448	146.561813354
0.0	-0.0	110.106903076	-89.1478042603	66.0134048462	146.747787476
0.0	-0.0	125.967086792	-89.2177505493	66.3412094116	146.538589478
0.0	-0.0	135.167129517	-89.1010131836	66.4968338013	146.815719604
0.0	-0.0	129.95173645	-88.9516296387	66.3031158447	146.427078247
0.0	-0.0	132.814041138	-89.6354064941	66.6743850708	146.454315186
0.0	-0.0	131.668945312	-89.3219833374	66.6036682129	146.45350647
0.0	-0.0	122.235809326	-89.2616653442	66.7869186401	146.390609741
0.0	-0.0	130.563247681	-88.7290878296	66.7717666626	146.499862671
0.0	-0.0	136.811843872	-89.0639801025	66.900138855	146.740203857
0.0	-0.0	122.383125305	-88.2304000854	66.9940872192	146.491958618
0.0	-0.0	116.228965759	-86.0047607422	68.1575317383	147.305160522
0.0	-0.0	116.137107849	-79.3090438843	71.7830352783	148.527114868
0.0	-0.0	115.861717224	-72.1533203125	76.4583358765	151.26651001
0.0	-0.0	116.463241577	-69.4722137451	81.3619232178	153.443145752
0.0	-0.0	116.038398743	-67.7347717285	87.0779724121	153.262069702
0.0	-0.0	114.806289673	115.269943237	89.0357894897	-28.0490264893
0.0	-0.0	113.167129517	116.547470093	87.5308532715	-28.2661190033
0.0	-0.0	111.451347351	114.929656982	84.4865951538	-28.5661964417
0.0	-0.0	110.330062866	112.9659729	86.887802124	-26.8697166443
0.0	-0.0	109.713920593	113.316207886	89.9440612793	-25.8523235321
0.0	-0.0	108.646133423	111.639694214	89.7587661743	-26.339050293
0.0	-0.0	106.00643158	-69.6129379272	89.4932937622	153.578720093
0.0	-0.0	105.597053528	110.223258972	89.7009658813	-27.0101318359
0.0	-0.0	104.949752808	108.3775177	88.0305099487	-27.7290153503
0.0	-0.0	103.864425659	108.129196167	89.6069793701	-26.8652057648
0.0	-0.0	100.536476135	108.163414001	89.5582275391	-26.7849979401
0.0	-0.0	98.5219650269	107.452758789	89.8070449829	-26.9389438629
0.0	-0.0	99.0623168945	98.9587097168	88.3034667969	-27.2609272003
0.0	-0.0	98.2618560791	77.8277130127	79.7210998535	-28.0854206085
0.0	-0.0	97.5333480835	74.8027801514	77.8800048828	-27.7814998627
0.0	-0.0	96.9563369751	72.0458526611	78.7052307129	-28.0584316254
0.0	-0.0	97.8077850342	68.6357803345	78.6141738892	-27.9706382751
0.0	-0.0	97.9144134521	71.5223007202	80.949546814	-26.6053276062
0.0	-0.0	95.4720687866	68.312538147	81.5158920288	-28.1931743622
0.0	-0.0	89.5590438843	67.9574966431	83.465057373	-32.922504425
0.0	-0.0	86.1616363525	77.438621521	88.4583740234	-36.5310325623
0.0	-0.0	84.862739563	80.8248519897	87.6256484985	-38.2480773926
0.0	-0.0	83.878112793	82.1853942871	88.0536117554	-39.0734863281
0.0	-0.0	83.6637496948	82.9987564087	88.4085464478	-38.972492218
0.0	-0.0	84.0757293701	85.0454330444	89.2712554932	-38.3898773193
0.0	-0.0	84.0589447021	85.2534408569	89.0659408569	-38.4901237488
0.0	-0.0	83.9349594116	87.2802963257	89.5951461792	-38.2725219727
0.0	-0.0	84.9357070923	85.604850769	89.7461624146	-38.215385437
0.0	-0.0	84.7208480835	85.0970535278	89.5357437134	-38.6892280579
0.0	-0.0	82.6703338623	-95.3639373779	89.9816513062	140.115188599
0.0	-0.0	82.9373168945	79.123588562	87.5453414917	-41.3804931641
0.0	-0.0	83.7405319214	75.2854003906	83.1035232544	-43.5876426697
0.0	-0.0	83.4720306396	70.9318618774	78.4568252563	-44.8693695068
0.0	-0.0	79.3765487671	64.9942703247	75.9128417969	-45.7490463257
0.0	-0.0	80.1719360352	69.3458862305	79.3490371704	-46.4454841614
0.0	-0.0	77.9733123779	65.6414108276	80.2679214478	-46.5557441711
0.0	-0.0	78.2857208252	56.6709785461	80.3897399902	-47.2437400818
0.0	-0.0	79.6689224243	53.0631828308	82.0896148682	-47.1693000793
0.0	-0.0	79.6313247681	59.7164268494	84.2046127319	-46.1286201477
0.0	-0.0	77.2336349487	62.5742492676	87.4356231689	-47.2051391602
0.0	-0.0	77.5200653076	65.4991989136	89.5729980469	-50.9696807861
0.0	-0.0	78.2354354858	-107.450584412	87.6645889282	126.557998657
0.0	-0.0	77.9068450928	-104.20728302	85.4552841187	126.610832214
0.0	-0.0	77.3576278687	-103.06653595	84.9678421021	128.193405151
0.0	-0.0	76.7177810669	-103.359634399	84.1784362793	130.906219482
0.0	-0.0	76.9673156738	-103.368690491	84.6941070557	130.969223022
0.0	-0.0	76.975440979	-101.845054626	84.6074752808	131.939880371
0.0	-0.0	77.2484588623	-99.2698516846	87.1950531006	129.863098145
0.0	-0.0	76.4549255371	-94.959815979	86.7237854004	130.348953247
0.0	-0.0	75.2438201904	-91.1701965332	87.4919815063	133.136123657
0.0	-0.0	74.035194397	-91.3573684692	87.3295211792	134.013412476
0.0	-0.0	72.6745910645	-92.0093688965	86.8344650269	133.783187866
0.0	-0.0	71.4811859131	-95.681968689	87.0821304321	132.416351318
0.0	-0.0	82.9780502319	-96.3863983154	85.8165054321	133.078567505
0.0	-0.0	102.939880371	-92.2368392944	83.9992980957	132.911651611
0.0	-0.0	112.605560303	-92.6047058105	83.8781433105	131.564529419
0.0	-0.0	114.573150635	-91.4499282837	84.4539108276	131.694137573
0.0	-0.0	111.710487366	-90.8000259399	85.0971603394	130.035949707
0.0	-0.0	99.5047683716	-93.883682251	86.6543426514	129.038253784
0.0	-0.0	91.090675354	73.6136703491	88.0589294434	-55.0365905762
0.0	-0.0	88.866355896	60.2294044495	83.2725601196	-58.0776062012
0.0	-0.0	86.0565872192	46.750579834	80.062713623	-59.2350883484
0.0	-0.0	85.5995025635	35.4632415771	77.2881851196	-59.5195884705
0.0	-0.0	87.8087463379	28.3473014832	76.1682281494	-59.7966308594
0.0	-0.0	91.9359359741	25.0351371765	75.6843032837	-60.8519973755
0.0	-0.0	94.0615844727	30.8349628448	78.2560806274	-61.9683914185
0.0	-0.0	96.0976028442	36.2863883972	80.6864242554	-64.1317062378
0.0	-0.0	101.224594116	38.3860206604	80.6921539307	-66.0842132568
0.0	-0.0	103.65788269	45.4473152161	81.6829528809	-68.3211288452
0.0	-0.0	105.75579834	50.3764762878	83.1230316162	-70.3591308594
0.0	-0.0	109.906677246	56.9342269897	86.0461196899	-70.3643569946
0.0	-0.0	111.97102356	61.7140274048	88.157585144	-71.5829849243
0.0	-0.0	112.147186279	64.4379348755	87.7177734375	-71.9499130249
0.0	-0.0	112.066596985	66.000038147	88.199256897	-71.7216262817
0.0	-0.0	111.940093994	66.7052459717	88.0776596069	-72.1373062134
0.0	-0.0	112.142402649	67.7845840454	88.3159179688	-72.2578735352
0.0	-0.0	110.370201111	67.7808761597	88.2586135864	-73.7211914062
0.0	-0.0	107.986801147	68.5156555176	88.8236846924	-73.9005508423
0.0	-0.0	107.485237122	68.481842041	88.5849456787	-74.4545669556
0.0	-0.0	107.770256042	67.4368515015	88.5533676147	-75.2368240356
0.0	-0.0	106.312965393	66.8007583618	88.951965332	-75.3101348877
0.0	-0.0	101.676307678	67.3658447266	89.3330459595	-75.1288146973
0.0	-0.0	101.511436462	67.0330734253	89.3005447388	-75.4611053467
0.0	-0.0	106.019691467	66.9407196045	89.3610076904	-75.6709671021
0.0	-0.0	110.338905334	65.7621688843	88.5624847412	-76.1941299438
0.0	-0.0	114.688438416	62.5486755371	86.4208450317	-76.109413147
0.0	-0.0	117.206619263	64.0775375366	86.0835494995	-75.9722290039
0.0	-0.0	118.17339325	65.3261871338	86.5859527588	-75.4893722534
0.0	-0.0	117.662437439	64.1011505127	85.6719360352	-76.2949905396
0.0	-0.0	110.67502594	63.1924743652	86.300994873	-77.8205795288
0.0	-0.0	109.79158783	63.6805267334	88.03099823	-77.4887466431
0.0	-0.0	108.549911499	64.4081420898	88.0869903564	-77.0424499512
0.0	-0.0	101.618431091	66.5734100342	88.3333053589	-76.0285339355
0.0	-0.0	91.9136047363	67.177986145	88.1441726685	-76.2153625488
0.0	-0.0	98.6050949097	66.4567184448	87.7668991089	-75.1462478638
0.0	-0.0	105.981781006	66.6409606934	87.6820678711	-73.8382415771
0.0	-0.0	103.535324097	69.1604919434	87.9204788208	-73.2073822021
0.0	-0.0	104.620323181	68.1485443115	88.2468795776	-73.4134368896
0.0	-0.0	102.45400238	69.5416412354	87.9989318848	-72.4317169189
0.0	-0.0	102.62223053	69.3019638062	88.0801620483	-71.5602645874
0.0	-0.0	105.405456543	-107.741104126	87.9502258301	113.835769653
0.0	-0.0	112.803825378	-99.0496826172	80.2241592407	124.314224243
0.0	-0.0	111.96131134	-89.3917694092	75.0322799683	140.568664551
0.0	-0.0	70.881729126	-85.0717773438	71.3684692383	152.919158936
0.0	-0.0	36.6456108093	-77.3638153076	68.4704971313	152.730987549
0.0	-0.0	28.4383239746	-55.9765815735	71.4911651611	156.965576172
0.0	-0.0	31.6775150299	-49.3435783386	75.3359832764	162.371261597
0.0	-0.0	36.7842826843	-52.9934005737	75.3292617798	163.510757446
0.0	-0.0	38.5964164734	-52.2621307373	75.9163131714	166.739425659
0.0	-0.0	38.7280921936	-49.7521286011	76.7076644897	168.669647217
0.0	-0.0	44.4466247559	-47.7133216858	77.6032104492	168.752975464
0.0	-0.0	46.6525802612	-45.5717124939	79.8768844604	170.693878174
0.0	-0.0	31.3732700348	-44.4155654907	79.673324585	172.55078125
0.0	-0.0	39.0772705078	-43.1566009521	80.3652114868	173.484573364
0.0	-0.0	40.5754241943	-42.1925315857	79.3695297241	174.489654541
0.0	-0.0	43.155796051	-41.1431694031	77.3708343506	173.314208984
0.0	-0.0	55.3640785217	-40.7241020203	77.4902877808	171.879653931
0.0	-0.0	85.4276351929	-42.964553833	77.3675842285	171.46723938
0.0	-0.0	98.0840530396	-46.3035049438	75.5669555664	170.085327148
0.0	-0.0	99.6351928711	-48.4962463379	74.5598220825	168.147003174
0.0	-0.0	89.0806655884	-47.7708053589	77.2550430298	165.397796631
0.0	-0.0	80.8676452637	-52.9662513733	79.2975616455	161.947158813
0.0	-0.0	100.163658142	-61.3771705627	75.1250915527	159.694976807
0.0	-0.0	124.60697937	-62.3203773499	73.0056991577	157.643127441
0.0	-0.0	142.243225098	-62.707611084	72.9890213013	156.673721313
0.0	-0.0	155.031646729	-65.3889923096	75.1877441406	155.10458374
0.0	-0.0	133.210647583	-67.9123840332	78.6037597656	154.515991211
0.0	-0.0	120.938049316	-69.0820617676	81.6123123169	153.818771362
0.0	-0.0	114.141731262	-71.0084686279	82.1052093506	151.810699463
0.0	-0.0	111.328804016	-78.0799713135	85.8617706299	147.93359375
0.0	-0.0	107.943580627	-93.5407409668	89.2330932617	144.673660278
0.0	-0.0	104.761390686	-102.92250061	89.4416809082	143.565475464
0.0	-0.0	101.424995422	75.8179931641	88.026184082	-38.6275444031
0.0	-0.0	96.5473480225	78.565612793	89.4825439453	-40.9516220093
0.0	-0.0	93.308265686	-100.016746521	89.4282531738	138.156692505
0.0	-0.0	92.9405441284	77.0868148804	89.9416656494	-43.4952125549
0.0	-0.0	93.9825744629	-104.633209229	89.0287780762	135.282394409
0.0	-0.0	96.2487640381	-110.515350342	89.7464675903	134.536849976
0.0	-0.0	98.0590133667	-108.356788635	87.0109329224	133.977264404
0.0	-0.0	97.7766494751	-103.265060425	83.7018508911	132.847595215
0.0	-0.0	97.6674880981	-100.484436035	83.7751235962	132.282928467
0.0	-0.0	96.162651062	-96.8351669312	82.3611831665	131.216873169
0.0	-0.0	95.864906311	-94.2023239136	82.1016540527	131.286499023
0.0	-0.0	97.3051681519	-93.8503494263	81.7803192139	130.799865723
0.0	-0.0	98.2696990967	-91.7378997803	80.8602600098	130.928604126
0.0	-0.0	98.381439209	-91.8879547119	80.6602096558	130.277481079
0.0	-0.0	99.93800354	-91.2537231445	80.5368728638	129.779647827
0.0	-0.0	104.990310669	-91.423828125	80.5662689209	128.297393799
0.0	-0.0	116.836997986	-94.1763000488	82.8442459106	126.705596924
0.0	-0.0	115.900909424	-95.7050094604	84.2584228516	124.486793518
0.0	-0.0	109.344070435	-95.6091079712	84.7625427246	123.588104248
0.0	-0.0	100.679450989	-97.6735458374	84.9276428223	122.326972961
0.0	-0.0	100.371040344	-97.5223770142	83.9539031982	122.256866455
0.0	-0.0	100.567352295	-97.8524475098	84.1365737915	121.588630676
0.0	-0.0	112.589027405	-98.1966323853	83.5985641479	121.247253418
0.0	-0.0	122.227828979	-97.2892532349	83.6518478394	120.942489624
0.0	-0.0	119.634628296	-97.3825759888	84.1579818726	121.351463318
0.0	-0.0	108.791847229	-98.2600479126	84.0599060059	121.406066895
0.0	-0.0	102.958053589	-98.2375793457	83.5497665405	122.001861572
0.0	-0.0	101.182357788	-97.1409912109	83.6833648682	123.419136047
0.0	-0.0	101.947143555	-91.5883407593	83.2210464478	125.562294006
0.0	-0.0	104.115341187	-89.5095672607	84.7944717407	127.158569336
0.0	-0.0	105.246559143	-90.5586547852	80.9791946411	134.53968811
0.0	-0.0	102.634895325	-95.7334136963	70.546081543	148.012237549
0.0	-0.0	103.808647156	-86.3256454468	67.721862793	162.108352661
0.0	-0.0	107.147865295	-70.5963134766	67.3150405884	174.137908936
0.0	-0.0	108.061134338	-66.8000183105	68.3157501221	-179.390228271
0.0	-0.0	106.887519836	-70.2169570923	66.6248016357	178.919021606
0.0	-0.0	105.146972656	-68.3433609009	65.619934082	-179.375259399
0.0	-0.0	105.598693848	-67.7451400757	62.8139762878	-178.90322876
0.0	-0.0	106.744895935	-80.2941360474	66.812538147	176.532348633
0.0	-0.0	104.452735901	-93.8514404297	75.5831832886	167.6015625
0.0	-0.0	97.1392593384	-85.781867981	70.9825820923	162.994415283
0.0	-0.0	92.8887557983	-89.8658981323	72.0827789307	159.022720337
0.0	-0.0	91.0998535156	-110.834106445	76.7366333008	153.049041748
0.0	-0.0	91.460067749	-124.433990479	75.1176986694	149.378372192
0.0	-0.0	91.991973877	-138.453430176	78.7069168091	144.382675171
0.0	-0.0	92.4368209839	-129.520523071	83.9828643799	141.153686523
0.0	-0.0	89.8379669189	-117.071731567	82.6507110596	140.235458374
0.0	-0.0	88.5709533691	-112.523147583	82.9507522583	139.600799561
0.0	-0.0	89.0596389771	-111.676460266	85.3670883179	137.779541016
0.0	-0.0	89.2264251709	-109.865570068	85.9944381714	137.255737305
0.0	-0.0	88.885635376	-109.766998291	87.7383956909	136.22164917
0.0	-0.0	89.2138595581	-109.028556824	88.88306427	135.333465576
0.0	-0.0	89.6326904297	-107.902709961	87.4290847778	134.686813354
0.0	-0.0	89.6253204346	-109.091186523	87.760559082	132.710998535
0.0	-0.0	90.2647171021	-109.758720398	88.6702651978	131.659744263
0.0	-0.0	90.7467422485	-110.055648804	88.8726119995	131.064422607
0.0	-0.0	91.1791381836	-109.534797668	88.6934890747	129.766738892
0.0	-0.0	91.6305007935	-109.79296875	88.7045974731	129.440124512
0.0	-0.0	91.7386856079	-109.961906433	88.9745330811	128.747650146
0.0	-0.0	92.0617904663	-111.676231384	88.9897384644	128.209884644
0.0	-0.0	92.5664672852	-113.331069946	88.5954666138	127.740753174
0.0	-0.0	92.6261520386	-114.677749634	89.300819397	127.343925476
0.0	-0.0	92.3800964355	-114.107948303	89.3413772583	127.631202698
0.0	-0.0	92.9881896973	-114.426216125	89.4359893799	127.300888062
0.0	-0.0	93.5745010376	64.8522338867	89.7285614014	-53.7164993286
0.0	-0.0	94.4499206543	-115.336128235	89.2351760864	125.272354126
0.0	-0.0	95.331237793	-115.551498413	88.5959320068	124.311584473
0.0	-0.0	96.1198577881	-115.880477905	88.4929962158	123.43560791
0.0	-0.0	96.6616210938	-115.068939209	87.8796768188	123.42099762
0.0	-0.0	96.7683258057	-114.200973511	87.8623962402	123.301269531
0.0	-0.0	96.9697647095	-114.928161621	89.4946289062	123.289154053
0.0	-0.0	97.0911865234	-116.011398315	89.1299285889	123.457603455
0.0	-0.0	97.012550354	-117.390342712	88.8064651489	123.585227966
0.0	-0.0	96.8743515015	-117.165985107	87.7801132202	124.305541992
0.0	-0.0	96.8195419312	-116.203018188	86.6471176147	124.955711365
0.0	-0.0	96.5368347168	-115.021652222	85.9426345825	125.13458252
0.0	-0.0	96.8395385742	-114.218254089	85.1562805176	125.478256226
0.0	-0.0	96.8720169067	-113.03994751	84.6625976562	125.769523621
0.0	-0.0	96.7241973877	-112.587432861	85.3563537598	125.668167114
0.0	-0.0	96.9912872314	-111.909484863	85.1078033447	126.223121643
0.0	-0.0	98.7691650391	-110.99307251	85.4347000122	126.620651245
0.0	-0.0	98.2019805908	-107.692741394	85.2202529907	128.343429565
0.0	-0.0	99.0928115845	-101.281852722	83.9102630615	135.145355225
0.0	-0.0	99.9686355591	-88.1785125732	81.6457977295	145.00177002
0.0	-0.0	104.345993042	-77.4079971313	80.3686447144	152.575012207
0.0	-0.0	109.140289307	-70.336479187	80.2792282104	159.120788574
0.0	-0.0	112.312194824	-66.3120117188	85.0261611938	161.387435913
0.0	-0.0	107.839614868	-64.5060958862	79.2262878418	162.681945801
0.0	-0.0	102.905342102	-70.6693725586	67.2088241577	167.472732544
0.0	-0.0	94.3994903564	-88.5897369385	36.8769111633	177.296325684
0.0	-0.0	96.2181472778	-116.963127136	-14.1107654572	-169.97756958
0.0	-0.0	92.56275177	-139.055831909	-69.3069610596	-166.412246704
0.0	-0.0	87.2267150879	35.5604667664	-82.4685668945	17.5987529755
0.0	-0.0	86.3430175781	44.5605888367	-66.2123641968	28.0995807648
0.0	-0.0	86.3258361816	52.4215927124	-63.058429718	30.9210548401
0.0	-0.0	86.7127914429	58.433631897	-80.1500778198	27.9953956604
0.0	-0.0	89.0500488281	-114.508934021	-50.7884559631	-159.86328125
0.0	-0.0	91.5316238403	-100.566360474	1.48685777187	-163.767456055
0.0	-0.0	96.4448013306	-79.438835144	35.1005172729	-166.529937744
0.0	-0.0	94.7733459473	-65.9989776611	56.0143089294	-172.282531738
0.0	-0.0	88.366027832	-65.4460830688	68.7135238647	-178.997924805
0.0	-0.0	83.466178894	-70.5435562134	76.7696762085	176.12677002
0.0	-0.0	86.2071151733	-73.1462631226	75.2766723633	176.501998901
0.0	-0.0	86.1708602905	-72.1066589355	78.9388961792	172.121032715
0.0	-0.0	85.4003829956	-68.5036621094	82.6388015747	169.250213623
0.0	-0.0	86.0175704956	-71.3330078125	81.647644043	166.113113403
0.0	-0.0	87.6015319824	-73.832862854	79.1478652954	163.153366089
0.0	-0.0	90.5483551025	-73.4771194458	79.3842391968	163.11366272
0.0	-0.0	91.548500061	-74.2113189697	81.5937805176	162.439666748
0.0	-0.0	94.7361679077	-75.1651916504	82.6190872192	163.077697754
0.0	-0.0	100.743644714	-74.7597961426	83.4792938232	163.076934814
0.0	-0.0	104.906761169	-73.2935256958	84.3593597412	162.766448975
0.0	-0.0	103.9348526	-73.4907531738	84.2766265869	163.041061401
0.0	-0.0	101.739692688	-73.2873764038	84.1840286255	162.605667114
0.0	-0.0	95.6803512573	-72.4372558594	84.3723526001	161.794311523
0.0	-0.0	91.3047180176	-72.2602233887	85.2821578979	160.893173218
0.0	-0.0	91.1569824219	-69.6938247681	86.3905410767	159.100494385
0.0	-0.0	92.7946548462	-64.2065429688	80.6940460205	158.470794678
0.0	-0.0	93.5177230835	-51.4499130249	74.0324935913	159.698913574
0.0	-0.0	93.4286575317	-40.1256942749	72.6997756958	159.459243774
0.0	-0.0	95.0167541504	-41.709526062	76.1159973145	159.383071899
0.0	-0.0	100.166595459	-45.3813591003	80.2438278198	157.839569092
0.0	-0.0	101.132347107	-48.5607795715	82.8547439575	155.739517212
0.0	-0.0	106.124061584	-50.0583839417	83.5712890625	154.343780518
0.0	-0.0	109.765304565	-52.2898216248	84.6256713867	153.452468872
0.0	-0.0	113.954147339	-52.8505516052	85.7465057373	153.213775635
0.0	-0.0	113.132713318	-53.5742530823	85.9548721313	152.873458862
0.0	-0.0	94.8848953247	-54.3202323914	85.3815765381	153.160705566
0.0	-0.0	81.9761810303	-55.090965271	85.1491012573	153.786773682
0.0	-0.0	82.6268005371	-54.9477043152	84.5705871582	154.358917236
0.0	-0.0	88.9806518555	-55.6961479187	83.5145187378	154.90007019
0.0	-0.0	88.5203781128	-56.8243789673	81.7186660767	154.721633911
0.0	-0.0	87.1396026611	-56.9913291931	79.9236831665	155.756286621
0.0	-0.0	88.3810806274	-58.2289924622	79.2199630737	155.091506958
0.0	-0.0	92.9485092163	-59.3870658875	77.670425415	156.190811157
0.0	-0.0	79.9739303589	-60.0118865967	74.3618469238	158.01385498
0.0	-0.0	45.7944221497	-67.5070800781	78.5324020386	158.389053345
0.0	-0.0	50.3612632751	-93.5985183716	82.7842559814	159.452087402
0.0	-0.0	56.1134414673	-104.087684631	85.9137115479	156.080749512
0.0	-0.0	66.6615524292	-97.4548721313	85.9458312988	155.243240356
0.0	-0.0	76.8337783813	-98.4044265747	84.4488601685	150.629043579
0.0	-0.0	67.7549743652	-88.8242874146	79.9594650269	147.829803467
0.0	-0.0	70.0323410034	-75.366645813	77.0114517212	148.122543335
0.0	-0.0	70.1060562134	-72.895904541	78.0877990723	148.353363037
0.0	-0.0	74.7936782837	-78.6050491333	77.6979522705	147.832733154
0.0	-0.0	76.9181671143	-89.5612182617	77.9131546021	149.47442627
0.0	-0.0	78.49168396	-111.791275024	78.232963562	150.875152588
0.0	-0.0	79.5840911865	-125.793174744	77.1018371582	150.578765869
0.0	-0.0	78.4718704224	-131.960464478	75.5894317627	145.992340088
0.0	-0.0	79.9044647217	-132.153533936	74.521484375	142.473632812
0.0	-0.0	79.5843658447	-124.081214905	72.5865859985	142.57673645
0.0	-0.0	80.1736602783	-118.363861084	73.3673629761	141.712982178
0.0	-0.0	79.7072143555	-113.608734131	75.7722015381	141.906692505
0.0	-0.0	78.9983596802	-102.498680115	77.7726745605	143.390823364
0.0	-0.0	79.721572876	-89.2006149292	76.3211975098	146.793029785
0.0	-0.0	79.8439254761	-88.5274353027	76.1316986084	146.200088501
0.0	-0.0	78.3862686157	-91.1976242065	75.5737991333	149.644424438
0.0	-0.0	78.7266845703	-93.5081176758	73.0542526245	155.39263916
0.0	-0.0	78.9319229126	-89.8608551025	70.1405105591	158.056762695
0.0	-0.0	78.7406692505	-85.4701843262	69.5219268799	161.749481201
0.0	-0.0	78.939743042	-87.614364624	72.6027526855	160.293838501
0.0	-0.0	78.0855941772	-90.3809738159	75.0149230957	159.895843506
0.0	-0.0	77.768119812	-91.6409378052	76.3337783813	159.882598877
0.0	-0.0	77.5065917969	-85.2062530518	76.0104446411	160.380386353
0.0	-0.0	80.8614273071	-86.0598754883	76.8174438477	159.812744141
0.0	-0.0	86.9175415039	-92.2378234863	79.5994110107	157.185302734
0.0	-0.0	92.2395095825	-92.2894897461	78.2725982666	155.447784424
0.0	-0.0	98.0287475586	-91.4126205444	81.9859008789	154.760848999
0.0	-0.0	94.9197387695	-92.2030487061	82.8637084961	153.613388062
0.0	-0.0	94.2960662842	-92.5506286621	82.1068878174	153.02166748
0.0	-0.0	88.3973388672	-91.7297592163	83.3097839355	152.639572144
0.0	-0.0	85.119644165	-90.3739929199	83.5616912842	152.28036499
0.0	-0.0	83.6795120239	-90.7352905273	83.7095870972	151.96836853
0.0	-0.0	82.8712081909	-90.7767868042	84.7622299194	151.087768555
0.0	-0.0	85.3746795654	-91.2244415283	85.7035903931	150.392425537
0.0	-0.0	88.6440582275	-92.2182693481	85.9437561035	149.897918701
0.0	-0.0	89.290763855	-93.2471542358	87.9366836548	149.209182739
0.0	-0.0	90.8144302368	-93.0198364258	89.5875091553	148.823303223
0.0	-0.0	91.4581985474	-92.8881454468	88.7425537109	148.656173706
0.0	-0.0	92.5602645874	-93.2115097046	89.0407104492	148.491241455
0.0	-0.0	93.4508361816	-93.101272583	88.0833053589	148.543869019
0.0	-0.0	93.9205932617	-92.6412277222	87.4872055054	148.60218811
0.0	-0.0	94.6076049805	-92.8609008789	87.9676361084	148.174926758
0.0	-0.0	96.1394882202	-92.9394454956	87.7660675049	148.042022705
0.0	-0.0	99.4825744629	-92.6114501953	87.7989349365	147.548324585
0.0	-0.0	102.420326233	-91.9275588989	87.8453903198	147.677597046
0.0	-0.0	101.920471191	-92.1544265747	88.0224609375	147.435302734
0.0	-0.0	96.9058074951	-92.1071624756	87.4279785156	147.405395508
0.0	-0.0	92.4614715576	-92.3393707275	87.6024475098	147.206451416
0.0	-0.0	86.8963241577	-92.6674957275	87.8162460327	147.107345581
0.0	-0.0	89.0502548218	-93.0665054321	87.7341842651	146.828903198
0.0	-0.0	89.1660842896	-93.4100646973	87.8705825806	146.970489502
0.0	-0.0	89.5295715332	-92.9939498901	87.9793014526	146.783981323
0.0	-0.0	90.4493026733	-93.5599975586	88.0414581299	146.364242554
0.0	-0.0	92.3824615479	-94.8121566772	87.8563461304	145.943954468
0.0	-0.0	94.2813262939	-95.6528930664	87.5778656006	144.769012451
0.0	-0.0	95.580657959	-95.9636230469	88.1668624878	143.352157593
0.0	-0.0	97.3982925415	-96.3513565063	88.0674362183	142.66065979
0.0	-0.0	100.110527039	-97.0149841309	87.314994812	142.154006958
0.0	-0.0	101.928100586	-96.2846069336	87.4745941162	142.198196411
0.0	-0.0	106.465240479	-96.379524231	87.7176437378	142.266952515
0.0	-0.0	108.764762878	-96.1764984131	87.6590957642	142.447387695
0.0	-0.0	102.836395264	-96.1107406616	88.3704071045	142.26612854
0.0	-0.0	92.6171798706	-96.0454406738	87.7110824585	142.431045532
0.0	-0.0	92.0151290894	-95.8898925781	87.9312973022	142.247772217
0.0	-0.0	93.2916030884	-95.6290054321	87.9976425171	142.259384155
0.0	-0.0	93.4803848267	-95.5261611938	87.7351837158	142.231048584
0.0	-0.0	93.4779815674	-95.5115661621	88.1343688965	141.949661255
0.0	-0.0	93.8129501343	-95.4377593994	87.9349594116	141.722869873
0.0	-0.0	93.0753326416	-95.3277740479	87.943862915	141.359664917
0.0	-0.0	93.8688049316	-95.2483673096	88.0512466431	140.878387451
0.0	-0.0	96.9498062134	-95.0578079224	87.9161682129	140.943161011
0.0	-0.0	96.5586624146	-95.3879470825	88.0613708496	140.604232788
0.0	-0.0	98.3131027222	-95.5185012817	87.8469543457	140.598312378
0.0	-0.0	97.4249267578	-95.3307952881	88.2316894531	140.463851929
0.0	-0.0	97.7300415039	-94.6840667725	87.9741592407	141.34602356
0.0	-0.0	96.5557937622	-92.4608764648	87.4651870728	142.783004761
0.0	-0.0	97.8603210449	-92.0433349609	88.2281188965	142.947601318
0.0	-0.0	102.961647034	-91.2157287598	87.5433959961	142.916976929
0.0	-0.0	105.046531677	-91.6967544556	88.0031204224	141.512084961
0.0	-0.0	105.748649597	-90.8679122925	88.236076355	140.453491211
0.0	-0.0	106.067237854	-88.89087677	86.8461303711	140.279251099
0.0	-0.0	105.912208557	-88.1861801147	87.523399353	139.362747192
0.0	-0.0	98.7677841187	-89.6044998169	85.8343887329	138.344573975
0.0	-0.0	109.762260437	-89.6090240479	84.1957550049	139.008712769
0.0	-0.0	109.886940002	-89.6511917114	84.8502349854	139.068878174
0.0	-0.0	112.767066956	-88.3376235962	85.3720779419	138.577941895
0.0	-0.0	109.415542603	-88.1835327148	85.0016098022	138.98890686
0.0	-0.0	119.545349121	-89.7871322632	85.4596328735	138.850280762
0.0	-0.0	130.220733643	-90.3451309204	83.306602478	139.69291687
0.0	-0.0	138.009185791	-89.8011169434	82.0291519165	140.58682251
0.0	-0.0	148.444534302	-88.0523452759	81.5224838257	141.965408325
0.0	-0.0	128.322540283	-87.3972473145	81.4127426147	141.795211792
0.0	-0.0	113.245925903	-85.6696472168	82.0685653687	142.097091675
0.0	-0.0	105.929969788	-83.7500991821	81.998916626	142.334365845
0.0	-0.0	97.5408554077	-83.2310180664	82.7930679321	142.029464722
0.0	-0.0	95.956817627	-83.582862854	82.5790481567	141.951965332
0.0	-0.0	96.9862976074	-82.7303390503	80.5414962769	142.970748901
0.0	-0.0	91.4814147949	-80.5059127808	80.4375457764	143.78352356
0.0	-0.0	91.1414413452	-80.5311279297	80.6280288696	142.941192627
0.0	-0.0	89.6156768799	-79.0191955566	79.4808502197	143.734848022
0.0	-0.0	95.0107040405	-74.6113891602	75.8687591553	145.642349243
0.0	-0.0	104.852226257	-66.8459320068	71.527015686	150.571258545
0.0	-0.0	117.878562927	-61.9102630615	68.5003814697	157.419967651
0.0	-0.0	126.173744202	-58.2578125	64.9889755249	161.850723267
0.0	-0.0	128.331436157	-59.3697319031	65.6578674316	168.71131897
0.0	-0.0	126.966621399	-76.1875152588	67.9134979248	177.81993103
0.0	-0.0	120.327033997	-119.28427887	66.1270523071	-174.263381958
0.0	-0.0	114.148750305	-141.146896362	65.6364364624	-178.055999756
0.0	-0.0	110.776893616	-138.11567688	70.5297546387	178.326400757
0.0	-0.0	106.491661072	-127.846412659	74.8756561279	176.919921875
0.0	-0.0	103.585723877	-123.315299988	83.2270812988	176.013748169
0.0	-0.0	101.4478302	59.606086731	85.7389526367	-5.89051866531
0.0	-0.0	99.7020339966	62.2565689087	86.5441513062	-8.33308410645
0.0	-0.0	98.1015090942	64.5946731567	89.075302124	-10.4830360413
0.0	-0.0	95.834197998	70.6641387939	89.6571731567	-12.832780838
0.0	-0.0	95.1610641479	-104.207542419	89.9763870239	166.078781128
0.0	-0.0	94.2305221558	-101.685256958	89.7153091431	165.177261353
0.0	-0.0	93.1382369995	-95.9015197754	88.9984817505	165.04045105
0.0	-0.0	92.8321762085	-89.0033493042	89.0372619629	164.760848999
0.0	-0.0	92.8901443481	-85.7748031616	89.8208007812	164.111663818
0.0	-0.0	91.970954895	-87.5601806641	89.7748031616	163.573654175
0.0	-0.0	91.4799957275	-85.9423980713	88.4050598145	163.700927734
0.0	-0.0	90.8283004761	-85.8759002686	87.7048950195	164.179077148
0.0	-0.0	90.8753967285	-85.6787796021	87.6955947876	164.211380005
0.0	-0.0	90.3051605225	-84.6424789429	87.8315734863	163.99798584
0.0	-0.0	90.3299713135	-84.1103286743	88.2832870483	163.863983154
0.0	-0.0	90.6034011841	-83.9421157837	88.4894866943	163.942565918
0.0	-0.0	90.685585022	-83.7230987549	87.7962493896	164.215270996
0.0	-0.0	91.8645324707	-83.6866836548	87.7751312256	164.161361694
0.0	-0.0	91.3496551514	-82.1809539795	87.9868469238	164.074066162
0.0	-0.0	91.2573852539	-79.7322463989	89.5494995117	163.855194092
0.0	-0.0	91.1364593506	99.1603012085	89.1664581299	-16.8432254791
0.0	-0.0	90.7155609131	99.620475769	86.9610595703	-17.4793834686
0.0	-0.0	90.4867553711	99.8050231934	86.6223526001	-17.8059997559
0.0	-0.0	90.0281219482	96.2495422363	87.436958313	-18.2933883667
0.0	-0.0	89.7456893921	95.9906082153	88.3093719482	-18.3161735535
0.0	-0.0	89.2392730713	97.9448318481	89.588722229	-18.1382198334
0.0	-0.0	89.0922241211	97.6612319946	89.9668502808	-18.4669055939
0.0	-0.0	88.7613372803	97.342086792	89.6383590698	-18.5126590729
0.0	-0.0	88.6657562256	-81.9412689209	89.900428772	161.58052063
0.0	-0.0	88.5703964233	99.5070724487	89.9340820312	-18.3527469635
0.0	-0.0	88.549331665	98.6799163818	89.7253494263	-18.8824977875
0.0	-0.0	88.5143280029	-80.9530792236	89.8721466064	161.085189819
0.0	-0.0	88.5514068604	-80.4300842285	89.8112792969	160.948776245
0.0	-0.0	88.5606842041	99.3692703247	89.6078872681	-19.4629268646
0.0	-0.0	88.5239257812	97.7278747559	88.7443313599	-20.2560596466
0.0	-0.0	88.3243637085	95.7249908447	88.8436126709	-20.1511135101
0.0	-0.0	87.9500579834	94.5593414307	89.9909744263	-20.4392929077
0.0	-0.0	87.7123565674	89.9978103638	88.9093551636	-20.3974781036
0.0	-0.0	87.4359664917	86.2738265991	87.1189575195	-19.8166828156
0.0	-0.0	87.2003097534	90.3909378052	86.9898834229	-20.6527328491
0.0	-0.0	86.7646942139	86.6040344238	85.9335098267	-20.1022663116
0.0	-0.0	86.3465576172	84.3034744263	86.6325836182	-19.1919326782
0.0	-0.0	85.7182006836	85.3874588013	87.5102157593	-19.6694278717
0.0	-0.0	85.3220977783	82.5077819824	86.7809066772	-20.6233406067
0.0	-0.0	84.8915405273	85.1640167236	88.8626556396	-20.6933250427
0.0	-0.0	84.5005874634	-89.5691299438	89.9914855957	159.11366272
0.0	-0.0	84.7816925049	-82.0061264038	88.6956176758	159.857650757
0.0	-0.0	84.3952713013	-80.0546264648	88.1750946045	159.68927002
0.0	-0.0	84.5552444458	-82.0030517578	88.3154754639	158.993545532
0.0	-0.0	84.4598312378	-81.4208145142	88.3390884399	159.114456177
0.0	-0.0	84.3524703979	-82.4303207397	87.6806945801	159.09854126
0.0	-0.0	84.2258300781	-79.7775650024	84.5937347412	159.896087646
0.0	-0.0	82.321434021	-62.5259628296	74.9200973511	166.272720337
0.0	-0.0	84.1284484863	-49.4903259277	73.3364334106	175.404373169
0.0	-0.0	85.2838973999	-76.5072250366	72.7160263062	174.978729248
0.0	-0.0	84.4851226807	-74.2524490356	77.2640838623	166.108963013
0.0	-0.0	89.1512756348	-50.0127868652	77.2256469727	168.713989258
0.0	-0.0	89.6009750366	-47.8128738403	80.3394851685	173.709945679
0.0	-0.0	88.1536254883	-54.9191169739	79.8666687012	170.321502686
0.0	-0.0	88.9529800415	-52.3177947998	77.133682251	170.696838379
0.0	-0.0	90.123298645	-46.4054336548	74.6228179932	173.113845825
0.0	-0.0	90.2606506348	-40.4760437012	81.2581939697	172.168289185
0.0	-0.0	89.4902877808	-35.6869468689	86.4352798462	175.464599609
0.0	-0.0	89.4082336426	-33.9986686707	82.5191802979	178.714050293
0.0	-0.0	87.6981124878	-32.5548095703	77.4284057617	-176.810165405
0.0	-0.0	86.2620391846	-33.4739379883	74.5054244995	-172.748794556
0.0	-0.0	86.0709991455	-32.8965377808	74.6211624146	-174.465286255
0.0	-0.0	86.1856994629	-43.2276000977	77.2259063721	-172.154830933
0.0	-0.0	84.0480194092	-65.0095214844	80.4272003174	-175.636550903
0.0	-0.0	83.7970352173	-54.7015304565	84.9136047363	-175.668548584
0.0	-0.0	82.2747268677	120.736206055	80.2162017822	2.90302300453
0.0	-0.0	80.1991729736	107.025779724	82.1661682129	1.02199447155
