0.0462639331818	1.05004167557	-0.164801597595	-0.159089326859	1.58515274525	-0.32244515419
0.0455820560455	1.05153870583	-0.164955615997	-0.159125089645	1.58527219296	-0.322449445724
0.0451612472534	1.05224442482	-0.164854168892	-0.158954143524	1.58379518986	-0.321946144104
0.0420358181	1.04974889755	-0.164799928665	-0.159291505814	1.57823836803	-0.320075273514
0.0345900058746	1.03970956802	-0.167414307594	-0.159505605698	1.57094192505	-0.317026615143
0.0349094867706	1.03225135803	-0.180293917656	-0.160172462463	1.56551671028	-0.314599275589
0.0420036315918	1.02457737923	-0.197172999382	-0.1614985466	1.55881464481	-0.313692569733
0.0473761558533	1.02151250839	-0.22665309906	-0.163111209869	1.55344545841	-0.313152074814
0.0653433799744	1.0255074501	-0.241018295288	-0.165044546127	1.55366742611	-0.312817811966
0.0793142318726	1.02776551247	-0.245937108994	-0.166506528854	1.55205845833	-0.311557292938
0.0828056335449	1.02220678329	-0.247337818146	-0.167570352554	1.54855430126	-0.309236049652
0.0837721824646	1.00522947311	-0.252690434456	-0.168737649918	1.54486393929	-0.306315302849
0.0858383178711	0.996343374252	-0.266771554947	-0.169232606888	1.54320430756	-0.303944587708
0.0897018909454	0.985332965851	-0.277545452118	-0.169080972672	1.54307866096	-0.302401900291
0.0895824432373	0.980792999268	-0.290464878082	-0.168836593628	1.54298651218	-0.301039099693
0.0942101478577	0.983467102051	-0.281455516815	-0.169387102127	1.54353761673	-0.300018429756
0.0888512134552	0.992653131485	-0.27351140976	-0.170735120773	1.54442131519	-0.299077510834
0.0810658931732	0.994879961014	-0.279009461403	-0.171932458878	1.54398655891	-0.298654556274
0.0783693790436	1.00240731239	-0.288268566132	-0.174572706223	1.54275000095	-0.297951459885
0.0835535526276	1.00989603996	-0.28610098362	-0.185522556305	1.5413120985	-0.298272013664
0.0848481655121	1.01401686668	-0.289421439171	-0.195387363434	1.54181313515	-0.300747871399
0.0841319561005	1.01658201218	-0.295676469803	-0.19571018219	1.54120504856	-0.302874803543
0.0876202583313	1.02461004257	-0.296791315079	-0.193575620651	1.54133486748	-0.305006742477
0.0877027511597	1.04526495934	-0.299723386765	-0.195338010788	1.54265260696	-0.307939529419
0.0914363861084	1.05046367645	-0.298377275467	-0.202241659164	1.54393827915	-0.313583612442
0.0865550041199	1.04764533043	-0.307650089264	-0.212056159973	1.54429602623	-0.321951508522
0.0832946300507	1.04447603226	-0.312058925629	-0.220921754837	1.54428815842	-0.33224773407
0.077841758728	1.02938938141	-0.322864413261	-0.227505207062	1.54457473755	-0.341467022896
0.0659167766571	1.01476740837	-0.345057725906	-0.234268188477	1.54434406757	-0.347609043121
0.0525741577148	1.02909994125	-0.365791320801	-0.242165565491	1.54375684261	-0.351124048233
0.050537109375	1.04966259003	-0.370635271072	-0.249769926071	1.54501616955	-0.352449893951
0.0551161766052	1.0444188118	-0.367378234863	-0.254579305649	1.54563951492	-0.352986335754
0.0479743480682	1.03938293457	-0.370315313339	-0.258220434189	1.54632043839	-0.353015899658
0.0338976383209	1.03505659103	-0.379280567169	-0.262980699539	1.54729259014	-0.351242780685
0.0247428417206	1.05848455429	-0.370106220245	-0.26980471611	1.54661667347	-0.347792625427
0.016753911972	1.08486402035	-0.360015869141	-0.279588222504	1.54550766945	-0.342714905739
0.0231728553772	1.05978965759	-0.31054019928	-0.288817882538	1.54367530346	-0.338658690453
0.0229213237762	1.0170788765	-0.279480934143	-0.291919946671	1.54312431812	-0.335983753204
0.0100605487823	0.99683713913	-0.270770311356	-0.287215232849	1.54284214973	-0.332057476044
-0.01020860672	0.986433982849	-0.280704855919	-0.277354478836	1.54202616215	-0.327335596085
-0.026207447052	0.996411323547	-0.305694103241	-0.267740488052	1.54105687141	-0.322635412216
-0.0277190208435	1.01244521141	-0.31597340107	-0.262350797653	1.54013371468	-0.317145586014
-0.0265953540802	1.03142571449	-0.331966280937	-0.262156486511	1.53690493107	-0.312585711479
-0.0211026668549	1.04280686378	-0.347589731216	-0.263735771179	1.53328251839	-0.310163021088
-0.0148947238922	1.04827332497	-0.366897821426	-0.263927459717	1.53015553951	-0.309799194336
-0.0119693279266	1.05646371841	-0.388650298119	-0.266048908234	1.528028965	-0.310246944427
-0.00882816314697	1.06372523308	-0.405254840851	-0.273879051208	1.52669143677	-0.309533834457
-0.00708103179932	1.06724250317	-0.420727849007	-0.281665563583	1.52396535873	-0.311050653458
-0.00532841682434	1.06625711918	-0.433685064316	-0.283851146698	1.5237531662	-0.315533638
-0.00372195243835	1.06577205658	-0.438892602921	-0.280981302261	1.52820289135	-0.323522686958
-0.000152349472046	1.05941104889	-0.43816447258	-0.280277013779	1.53260040283	-0.334074497223
-7.0333480835e-05	1.05288863182	-0.449179887772	-0.282009124756	1.53522145748	-0.344876289368
0.0140256881714	1.05614185333	-0.454728841782	-0.283413410187	1.5382168293	-0.354186534882
0.0210635662079	1.07672464848	-0.461974143982	-0.285172224045	1.54020369053	-0.362090826035
0.0312461853027	1.10470044613	-0.45964217186	-0.288536310196	1.54041016102	-0.368320465088
0.0373764038086	1.11741280556	-0.455522656441	-0.293455839157	1.53964054585	-0.370701551437
0.0404620170593	1.12424898148	-0.448489904404	-0.300589561462	1.53738176823	-0.371938347816
0.0455074310303	1.12199747562	-0.441525578499	-0.30819439888	1.53485882282	-0.372597694397
0.0520153045654	1.11814558506	-0.433040142059	-0.309585809708	1.53483712673	-0.374287366867
0.0434377193451	1.10986626148	-0.426159739494	-0.306232452393	1.53509831429	-0.376277565956
0.0240926742554	1.11757457256	-0.429709196091	-0.303910017014	1.53401100636	-0.377238035202
0.0110991001129	1.14538240433	-0.429802894592	-0.304828643799	1.53207921982	-0.377021789551
0.0179164409637	1.16236758232	-0.419500112534	-0.306028842926	1.52922153473	-0.376434445381
0.0234384536743	1.1681317091	-0.413950562477	-0.306586742401	1.52766954899	-0.376641273499
0.0209233760834	1.1466190815	-0.420446038246	-0.306826591492	1.5259141922	-0.376933813095
0.0208811759949	1.11790895462	-0.429716587067	-0.305456638336	1.52379989624	-0.376898765564
0.0213415622711	1.10530638695	-0.43524479866	-0.300910949707	1.52278292179	-0.377073764801
0.0234649181366	1.11696016788	-0.430041790009	-0.293001174927	1.52350056171	-0.377119421959
0.0284988880157	1.12413680553	-0.432053565979	-0.28556394577	1.52393209934	-0.376558303833
0.0311462879181	1.11809849739	-0.438543796539	-0.279937982559	1.52438557148	-0.375009059906
0.0313229560852	1.11113619804	-0.441330432892	-0.278349161148	1.52444577217	-0.373158931732
0.0342743396759	1.10619497299	-0.441446781158	-0.280559778214	1.52438569069	-0.372170209885
0.0389611721039	1.10296738148	-0.43837594986	-0.281332015991	1.52475309372	-0.372203111649
0.0393400192261	1.10110843182	-0.436877846718	-0.278736352921	1.52348577976	-0.372489213943
0.0410034656525	1.09765172005	-0.435699224472	-0.276544332504	1.51655697823	-0.37401163578
0.0447270870209	1.0965436697	-0.434712171555	-0.274928092957	1.51180875301	-0.375271081924
0.0488760471344	1.09562313557	-0.432894468307	-0.270131826401	1.51203584671	-0.377780675888
0.0510523319244	1.09559249878	-0.430797934532	-0.263844490051	1.51630449295	-0.382745504379
0.0537047386169	1.09582030773	-0.428357601166	-0.260540723801	1.51990020275	-0.389586448669
0.0582640171051	1.09076142311	-0.426406264305	-0.25728726387	1.52359604836	-0.398832082748
0.0625550746918	1.08883714676	-0.42181456089	-0.25279712677	1.52798342705	-0.409803390503
0.0648469924927	1.09053146839	-0.416065096855	-0.250381946564	1.53244876862	-0.421032190323
0.0678033828735	1.08650529385	-0.411738991737	-0.249436855316	1.53439819813	-0.432073116302
0.072925567627	1.08229768276	-0.405371308327	-0.248460054398	1.53503751755	-0.441107988358
0.0777831077576	1.08038258553	-0.398740530014	-0.248178005219	1.53436291218	-0.446227788925
0.08034324646	1.08052372932	-0.393763303757	-0.24836730957	1.53135728836	-0.447638034821
0.0805566310883	1.08057785034	-0.390870332718	-0.246134519577	1.52748227119	-0.445331096649
0.0803520679474	1.0823546648	-0.390030384064	-0.243494749069	1.52609145641	-0.442109823227
0.0788300037384	1.08332574368	-0.392510294914	-0.243801593781	1.52631056309	-0.440186142921
0.0764236450195	1.0825997591	-0.395138382912	-0.249314785004	1.52748990059	-0.439521431923
0.0728507041931	1.07959806919	-0.396513938904	-0.257340431213	1.52939581871	-0.440353393555
0.0713043212891	1.07874047756	-0.39458656311	-0.261171340942	1.53230810165	-0.443603038788
0.0687503814697	1.08142399788	-0.391186714172	-0.257619142532	1.53496468067	-0.449182510376
0.0672228336334	1.08288037777	-0.387441635132	-0.253715753555	1.53744089603	-0.456570148468
0.0659790039062	1.0832259655	-0.384170174599	-0.254677295685	1.53888249397	-0.463752508163
0.0639657974243	1.08288478851	-0.380838513374	-0.25772190094	1.53888785839	-0.469708919525
0.0634636878967	1.08224415779	-0.377444624901	-0.259920358658	1.53907096386	-0.473263263702
0.0621888637543	1.08335053921	-0.378598451614	-0.259255170822	1.53876674175	-0.47230219841
0.0616140365601	1.0837328434	-0.379662513733	-0.258028030396	1.53700387478	-0.467473506927
0.0547041893005	1.08673989773	-0.381158828735	-0.25736117363	1.53671085835	-0.460069894791
0.0400614738464	1.085719347	-0.393584489822	-0.256067752838	1.53695690632	-0.450230836868
0.0282421112061	1.07327866554	-0.411329030991	-0.254547834396	1.5365152359	-0.43793964386
0.0192050933838	1.07528066635	-0.429542422295	-0.253148078918	1.53608989716	-0.424658894539
0.0165145397186	1.08684468269	-0.427169084549	-0.252785921097	1.53680884838	-0.411698102951
0.0161390304565	1.07660472393	-0.421574473381	-0.252659320831	1.53757154942	-0.400166511536
0.0131738185883	1.07017743587	-0.448778629303	-0.252893447876	1.53761255741	-0.390369653702
0.0159976482391	1.09525942802	-0.461069345474	-0.254463195801	1.53541398048	-0.38253235817
0.0217499732971	1.12207853794	-0.441472530365	-0.256521224976	1.53432655334	-0.37716126442
0.0241873264313	1.10797989368	-0.423054456711	-0.258648872375	1.53452408314	-0.374805212021
0.0238456726074	1.09184217453	-0.421883106232	-0.26052570343	1.53491461277	-0.374245882034
0.029643535614	1.09534406662	-0.407918572426	-0.263379096985	1.53585612774	-0.374597549438
0.0283982753754	1.0974599123	-0.406880497932	-0.268267631531	1.53843271732	-0.37566280365
0.0229308605194	1.09689176083	-0.415435314178	-0.273495197296	1.53903138638	-0.376746058464
0.0221545696259	1.09744203091	-0.41946721077	-0.275027513504	1.53816366196	-0.377810955048
0.0269572734833	1.10359168053	-0.41276049614	-0.275089502335	1.53770089149	-0.378415107727
0.0316135883331	1.12456548214	-0.404019117355	-0.276651144028	1.53815901279	-0.378326654434
0.0293257236481	1.12340772152	-0.40428352356	-0.28000831604	1.53875219822	-0.377546191216
0.0275478363037	1.08339846134	-0.411282300949	-0.28644156456	1.53838920593	-0.376630425453
0.0252375602722	1.06476819515	-0.408222913742	-0.293464660645	1.53794133663	-0.375204086304
0.0154318809509	1.08945906162	-0.403603076935	-0.297041416168	1.53676819801	-0.373371839523
0.0159664154053	1.10149753094	-0.399236679077	-0.293260812759	1.53493595123	-0.370027422905
0.0262057781219	1.08170640469	-0.398614168167	-0.282046794891	1.53507709503	-0.368158459663
0.029449224472	1.07634556293	-0.39729809761	-0.269874572754	1.53614723682	-0.367810130119
0.0291013717651	1.08888864517	-0.384877920151	-0.266731023788	1.536419034	-0.366168379784
0.0262682437897	1.10139381886	-0.382066130638	-0.270328044891	1.53761339188	-0.363771915436
0.0319020748138	1.09304988384	-0.376354932785	-0.278507947922	1.54203295708	-0.364291548729
0.0470099449158	1.07143342495	-0.373229026794	-0.280972957611	1.54692709446	-0.368915677071
0.0577509403229	1.06767737865	-0.362262010574	-0.27155995369	1.54800140858	-0.375489711761
0.0586655139923	1.0762668848	-0.347754478455	-0.262230396271	1.54418385029	-0.379833698273
0.0605783462524	1.08318591118	-0.336775302887	-0.258428812027	1.54370629787	-0.381816148758
0.0633306503296	1.08628201485	-0.3317258358	-0.257471323013	1.54599142075	-0.380670309067
0.0644772052765	1.09562897682	-0.327294111252	-0.257060289383	1.54548990726	-0.376298904419
0.0630769729614	1.08292531967	-0.340427875519	-0.255701065063	1.54478681087	-0.370361447334
0.0633659362793	1.0704703331	-0.349041342735	-0.25358080864	1.54464638233	-0.364908337593
0.0648403167725	1.07830131054	-0.342715740204	-0.251105308533	1.54553842545	-0.360291957855
0.0642125606537	1.08370542526	-0.336822748184	-0.248758077621	1.54537177086	-0.356606721878
0.057333946228	1.08756375313	-0.333560943604	-0.247623682022	1.54499828815	-0.354515314102
0.0509414672852	1.09776473045	-0.33180308342	-0.24797296524	1.54429328442	-0.352620840073
0.0502822399139	1.10414588451	-0.333737254143	-0.249413967133	1.54451560974	-0.351210594177
0.0556936264038	1.10288476944	-0.332631230354	-0.250891208649	1.54370677471	-0.350462555885
0.0626876354218	1.10935795307	-0.331079483032	-0.251677751541	1.54383897781	-0.349922418594
0.0729851722717	1.08966934681	-0.332637548447	-0.250341176987	1.54384195805	-0.349838733673
0.0786168575287	1.05552244186	-0.358319759369	-0.248519897461	1.54357290268	-0.350249767303
0.0613102912903	1.04238557816	-0.366628885269	-0.248199224472	1.54299616814	-0.350428581238
0.0544180870056	1.01652145386	-0.384819030762	-0.248798131943	1.54196691513	-0.351477861404
0.057137966156	1.00712680817	-0.400147676468	-0.249583482742	1.54200422764	-0.35211122036
0.0573379993439	1.02035999298	-0.418786287308	-0.250065803528	1.54152607918	-0.351657867432
0.0571894645691	1.03671622276	-0.426095247269	-0.249439239502	1.54030501842	-0.350262403488
0.0605957508087	1.03711056709	-0.427533864975	-0.248867988586	1.53915810585	-0.348555326462
0.0653986930847	1.02281045914	-0.431023001671	-0.250471830368	1.53886568546	-0.346833467484
0.0682625770569	1.02557253838	-0.432415127754	-0.25293302536	1.53871023655	-0.345401525497
0.075626373291	1.03649806976	-0.428432106972	-0.254796028137	1.53873980045	-0.343103766441
0.0790700912476	1.02569293976	-0.447372198105	-0.255766391754	1.53842389584	-0.340544939041
0.0823934078217	1.02887654305	-0.452823996544	-0.257510662079	1.53792655468	-0.337552070618
0.0771186351776	1.05183458328	-0.454009532928	-0.258825540543	1.53737950325	-0.335639715195
0.0751428604126	1.0768725872	-0.472530841827	-0.26030421257	1.53766226768	-0.333708763123
0.087420463562	1.09676074982	-0.483469247818	-0.262895107269	1.53853487968	-0.331842660904
0.102672815323	1.11063075066	-0.480111837387	-0.266446113586	1.54044902325	-0.331287622452
0.0986766815186	1.1131811142	-0.482607126236	-0.270147800446	1.54225337505	-0.332002401352
0.0890617370605	1.12373816967	-0.47428393364	-0.273077726364	1.54258513451	-0.334044933319
0.0797970294952	1.1335477829	-0.463224411011	-0.27715587616	1.54315555096	-0.337576270103
0.0727190971375	1.137809515	-0.451216459274	-0.28249502182	1.54417598248	-0.343098640442
0.0623044967651	1.13896906376	-0.439675331116	-0.286662101746	1.54537177086	-0.349272251129
0.0573287010193	1.14262402058	-0.429052114487	-0.288650989532	1.5460357666	-0.353694438934
0.057012796402	1.14509654045	-0.422372698784	-0.289110898972	1.54512107372	-0.355490446091
0.0538783073425	1.14514374733	-0.418948054314	-0.288903236389	1.5436912775	-0.356017351151
0.0511231422424	1.14550590515	-0.415148496628	-0.288698673248	1.54251229763	-0.355214357376
0.051034450531	1.14300131798	-0.410056591034	-0.288513898849	1.5401674509	-0.354306459427
0.045636177063	1.1380096674	-0.405652523041	-0.288813591003	1.53779506683	-0.353800535202
0.0369443893433	1.13331067562	-0.39924955368	-0.289367437363	1.53603303432	-0.354607462883
0.03204870224	1.13308918476	-0.390145659447	-0.290325641632	1.53702259064	-0.356230378151
0.0304226875305	1.13451445103	-0.381820201874	-0.291245222092	1.53873765469	-0.357089996338
0.0277309417725	1.13537085056	-0.375326633453	-0.292329549789	1.54035866261	-0.357701778412
0.0247528553009	1.1345937252	-0.371400594711	-0.294055461884	1.54118347168	-0.358542084694
0.0229172706604	1.13225924969	-0.368606567383	-0.296184778214	1.54051601887	-0.359726905823
0.0238170623779	1.13353955746	-0.364669442177	-0.296556711197	1.54101192951	-0.362219572067
0.0233554840088	1.13410019875	-0.36302292347	-0.299212217331	1.5418959856	-0.36561191082
0.0218231678009	1.13195121288	-0.363655567169	-0.303622722626	1.54125237465	-0.369665145874
0.0183255672455	1.1300920248	-0.36754488945	-0.305147886276	1.54155099392	-0.371166706085
0.0175869464874	1.13138186932	-0.373896121979	-0.302130222321	1.53952825069	-0.370505571365
0.0199413299561	1.13085246086	-0.375218868256	-0.302184820175	1.53884470463	-0.372087240219
0.0209052562714	1.13119029999	-0.375959634781	-0.305239915848	1.53930079937	-0.375945925713
0.0228731632233	1.13800227642	-0.375900745392	-0.305428981781	1.53710579872	-0.37965130806
0.0233688354492	1.14659368992	-0.377033233643	-0.303181886673	1.53576397896	-0.382139921188
0.0229225158691	1.15029346943	-0.380035042763	-0.301634788513	1.53381812572	-0.384011983871
0.0218758583069	1.15790569782	-0.38058423996	-0.301090717316	1.53392422199	-0.386320829391
0.0213761329651	1.15948832035	-0.3805372715	-0.299906253815	1.53446042538	-0.389045715332
0.0217688083649	1.15248286724	-0.382343411446	-0.299294948578	1.53475928307	-0.3907777071
0.0204794406891	1.1475288868	-0.385227441788	-0.299233436584	1.53522634506	-0.39143371582
0.0194344520569	1.13788259029	-0.38825750351	-0.298002243042	1.53589975834	-0.391539931297
0.0161428451538	1.13069534302	-0.396263599396	-0.296616077423	1.53623878956	-0.390363693237
0.0154423713684	1.13111114502	-0.396174192429	-0.296420097351	1.53612709045	-0.388403177261
0.0154383182526	1.13901424408	-0.394197463989	-0.295907735825	1.53612470627	-0.385517597198
0.0225570201874	1.14707362652	-0.386639118195	-0.294476270676	1.5357272625	-0.381900072098
0.0308027267456	1.16038930416	-0.378365755081	-0.293264627457	1.53586649895	-0.377948760986
0.0236237049103	1.15956497192	-0.376015901566	-0.291403055191	1.53565001488	-0.373445034027
0.0223486423492	1.13508570194	-0.392813563347	-0.289678573608	1.53497004509	-0.369187951088
0.0150489807129	1.15139257908	-0.397366046906	-0.288591861725	1.53472304344	-0.364888310432
0.0254347324371	1.12793064117	-0.397903442383	-0.287572622299	1.53460538387	-0.361293315887
0.0439476966858	1.07789456844	-0.419737100601	-0.286058664322	1.53451061249	-0.357983112335
0.0302836894989	1.091588974	-0.41225707531	-0.28462600708	1.53471338749	-0.35528755188
0.0222203731537	1.11929321289	-0.399605989456	-0.283106088638	1.53497433662	-0.352871894836
0.0267126560211	1.08401739597	-0.416334867477	-0.28177022934	1.5351845026	-0.350852251053
0.0462417602539	1.02419948578	-0.425970077515	-0.280110120773	1.5363008976	-0.348470211029
0.0367815494537	1.03112959862	-0.401440143585	-0.277651786804	1.53680121899	-0.345108985901
0.0253708362579	1.03579187393	-0.399530410767	-0.271832942963	1.53695642948	-0.34153342247
0.0184316635132	1.02349686623	-0.410586237907	-0.260623931885	1.53788745403	-0.339823842049
0.0131242275238	1.01656031609	-0.421635866165	-0.247384548187	1.53863716125	-0.339179754257
0.00998115539551	1.02686071396	-0.431764006615	-0.236596107483	1.53876638412	-0.338863492012
0.00767636299133	1.02849125862	-0.437794208527	-0.226128101349	1.53956210613	-0.338524341583
0.0145981311798	1.02185249329	-0.435010433197	-0.218209028244	1.54013168812	-0.339877605438
0.0196852684021	1.01127266884	-0.4276304245	-0.214903593063	1.54378128052	-0.344435691833
0.0188624858856	1.00600647926	-0.420676231384	-0.213138580322	1.54007339478	-0.355457782745
0.0160467624664	1.01022815704	-0.417786836624	-0.207569122314	1.53746140003	-0.367499113083
0.0181279182434	1.0185239315	-0.421325683594	-0.200816869736	1.53605282307	-0.376534223557
0.0165452957153	1.01818704605	-0.432078123093	-0.199882984161	1.53073346615	-0.381313443184
0.0166139602661	1.01384878159	-0.439447402954	-0.212805986404	1.52902305126	-0.376163482666
0.0125794410706	1.00611662865	-0.440756082535	-0.224467754364	1.53096795082	-0.372525453568
0.00708436965942	1.0034661293	-0.436187028885	-0.227905273438	1.53426861763	-0.372788906097
0.00405478477478	1.00159430504	-0.429241776466	-0.230075120926	1.53620409966	-0.372006654739
0.00540924072266	1.00481033325	-0.424445867538	-0.226833105087	1.53507852554	-0.368805170059
0.00798630714417	1.00412607193	-0.424675107002	-0.217378139496	1.53317308426	-0.366766691208
0.00960397720337	1.00693225861	-0.423355817795	-0.207085132599	1.53066551685	-0.364999890327
0.0107493400574	1.01027011871	-0.421544313431	-0.204545259476	1.5290106535	-0.359336137772
0.0122423171997	1.00930356979	-0.419770479202	-0.208768129349	1.52959740162	-0.350430965424
0.0122380256653	1.00796318054	-0.416953802109	-0.212251663208	1.53062701225	-0.343896389008
0.0138368606567	1.00762557983	-0.414907932281	-0.212909221649	1.53276133537	-0.341710090637
0.0182323455811	1.00759983063	-0.411882162094	-0.215979099274	1.53613293171	-0.341597080231
0.0207481384277	1.01108193398	-0.409061431885	-0.216667413712	1.53748118877	-0.345282793045
0.0222022533417	1.01348662376	-0.410102367401	-0.213531255722	1.5371581316	-0.351168632507
0.0208101272583	1.01071071625	-0.413139104843	-0.207363605499	1.53844189644	-0.35821056366
0.0194492340088	1.01029157639	-0.414333820343	-0.205879211426	1.53973686695	-0.363200187683
0.0202529430389	1.01186752319	-0.413816690445	-0.210970878601	1.54138362408	-0.363487958908
0.0202159881592	1.01003336906	-0.415216684341	-0.222138166428	1.54388940334	-0.360749483109
0.0175020694733	1.00471377373	-0.417776346207	-0.233403205872	1.54690182209	-0.360400795937
0.0164866447449	1.00393652916	-0.416262388229	-0.240458965302	1.54767978191	-0.362877130508
0.0161521434784	1.00773406029	-0.412913680077	-0.247689008713	1.54741370678	-0.365072727203
0.0150039196014	1.00800561905	-0.411886930466	-0.257296800613	1.54812574387	-0.365474939346
0.0117702484131	1.00578045845	-0.41165137291	-0.266687631607	1.54815089703	-0.365053892136
0.00814437866211	1.00705170631	-0.409980297089	-0.272666454315	1.54634606838	-0.363977313042
0.00445890426636	1.01094079018	-0.411713123322	-0.276364326477	1.54536008835	-0.362969994545
0.00155448913574	1.01547956467	-0.414127349854	-0.279647111893	1.54486989975	-0.362698793411
-0.00122737884521	1.02869200706	-0.415978312492	-0.282483577728	1.54524433613	-0.363210082054
0.000557422637939	1.02895188332	-0.415760755539	-0.283142089844	1.54543578625	-0.365108847618
-0.00182867050171	1.02319288254	-0.418569087982	-0.281085968018	1.54668045044	-0.367639899254
-0.0030632019043	1.02692174911	-0.41896212101	-0.283810138702	1.54701709747	-0.369704723358
-0.00120759010315	1.02496242523	-0.419519424438	-0.288204431534	1.54738974571	-0.370589613914
-0.0012731552124	1.02349925041	-0.419704437256	-0.295948982239	1.54833102226	-0.370402932167
-0.000276327133179	1.02225399017	-0.417344927788	-0.29993224144	1.54763543606	-0.370708346367
6.55651092529e-05	1.02282834053	-0.41456079483	-0.298344135284	1.54704332352	-0.370992898941
0.00156426429749	1.02385449409	-0.412415504456	-0.29354095459	1.54692077637	-0.371228575706
0.002277135849	1.021235466	-0.412097454071	-0.284086227417	1.54688572884	-0.37203335762
-0.0017511844635	1.02309393883	-0.418613433838	-0.277854919434	1.54670858383	-0.372837424278
-0.00297284126282	1.02079606056	-0.423287153244	-0.271091461182	1.54662716389	-0.373774647713
-0.000715255737305	1.02119040489	-0.421878576279	-0.268549919128	1.54538941383	-0.373122811317
-0.000598192214966	1.02321600914	-0.422710895538	-0.268776655197	1.54405009747	-0.372090816498
-0.00178527832031	1.02586984634	-0.427176475525	-0.270696640015	1.54405784607	-0.370936155319
-0.000175952911377	1.03644180298	-0.428273916245	-0.273373603821	1.54426336288	-0.370356798172
0.00255727767944	1.03698778152	-0.423445701599	-0.275294542313	1.5445343256	-0.370510101318
0.0185866355896	1.00215363503	-0.420611381531	-0.276507616043	1.54478859901	-0.371360301971
0.0444958209991	0.979056835175	-0.439253807068	-0.277100563049	1.54479002953	-0.372396707535
0.0442452430725	1.00060129166	-0.419838070869	-0.278547286987	1.54467153549	-0.373185873032
0.0210628509521	1.04066538811	-0.412764668465	-0.280386447906	1.54489326477	-0.373411893845
0.0135827064514	1.06912136078	-0.417665719986	-0.283050298691	1.54496109486	-0.373012304306
0.0172295570374	1.04708552361	-0.413408756256	-0.283921003342	1.54495465755	-0.372660160065
0.0161392688751	1.03068828583	-0.417745351791	-0.289694070816	1.54656350613	-0.370657920837
0.0162332057953	1.03255152702	-0.413572430611	-0.297354221344	1.54682505131	-0.367727398872
0.0139636993408	1.03221225739	-0.41103720665	-0.294741630554	1.54526519775	-0.366632223129
0.0166163444519	1.02159261703	-0.410593986511	-0.29100561142	1.5439504385	-0.365487575531
0.010183095932	1.04000234604	-0.402327537537	-0.291546106339	1.54425215721	-0.36322593689
0.0101399421692	1.06462264061	-0.394714474678	-0.292165756226	1.54405581951	-0.360887289047
0.0144922733307	1.05351185799	-0.395954012871	-0.291651725769	1.54326176643	-0.359131336212
0.0188705921173	1.02964377403	-0.400898337364	-0.29115152359	1.54365038872	-0.357466220856
0.0154299736023	1.05020880699	-0.388951063156	-0.292465209961	1.54429197311	-0.355944514275
0.015810251236	1.06492996216	-0.388815402985	-0.294770717621	1.54396033287	-0.355259299278
0.0234291553497	1.0599668026	-0.388203263283	-0.294711112976	1.54428875446	-0.356639266014
0.0367484092712	1.04829835892	-0.377410173416	-0.294321060181	1.54528713226	-0.359803915024
0.0327551364899	1.04828810692	-0.376696825027	-0.293335199356	1.5457971096	-0.363606214523
0.0325307846069	1.07292187214	-0.374054908752	-0.293299674988	1.54622280598	-0.366617679596
0.0212135314941	1.07423019409	-0.386531352997	-0.294278621674	1.54641151428	-0.368570327759
0.0228099822998	1.05272006989	-0.384245157242	-0.295524835587	1.54630458355	-0.36988067627
0.0145063400269	1.05686283112	-0.38250041008	-0.296585798264	1.54591298103	-0.370606422424
0.012375831604	1.06875312328	-0.377631545067	-0.297671794891	1.54561567307	-0.370447039604
0.0105364322662	1.05795574188	-0.38031578064	-0.298845767975	1.54514312744	-0.370112419128
0.00630378723145	1.05290293694	-0.380029916763	-0.299978971481	1.54543364048	-0.368498086929
0.00165677070618	1.0726326704	-0.373147964478	-0.300800323486	1.54497790337	-0.365847110748
-0.000909805297852	1.07309925556	-0.373783111572	-0.301683664322	1.54419434071	-0.362403512001
0.0055878162384	1.05347943306	-0.363503456116	-0.302542924881	1.54369533062	-0.358941555023
0.0016074180603	1.06635546684	-0.357631444931	-0.303921699524	1.54323256016	-0.355144381523
-0.00541138648987	1.07080292702	-0.356991052628	-0.305195331573	1.54258441925	-0.351373672485
-0.000257253646851	1.05351948738	-0.347815275192	-0.304481744766	1.54240083694	-0.348130822182
-0.00265955924988	1.06444740295	-0.341016292572	-0.30343914032	1.54360568523	-0.344571232796
-0.012464761734	1.07646894455	-0.339703798294	-0.300549030304	1.5459510088	-0.340139865875
-0.0114603042603	1.04969739914	-0.335187077522	-0.294407844543	1.54789972305	-0.33477807045
0.00286841392517	1.01122927666	-0.323835134506	-0.287577390671	1.54946303368	-0.330057859421
-0.00211000442505	1.01912999153	-0.297911047935	-0.287718772888	1.54985105991	-0.323620557785
-0.0190844535828	1.03628468513	-0.283170938492	-0.295963048935	1.54921293259	-0.316738128662
-0.0305223464966	1.02649259567	-0.277338981628	-0.299313783646	1.54940390587	-0.311549901962
-0.0400295257568	1.0131072998	-0.274311304092	-0.288899183273	1.54967856407	-0.306487321854
-0.0465857982635	1.01601934433	-0.27288544178	-0.273150682449	1.5478708744	-0.300914764404
-0.0428032875061	1.01600241661	-0.26924097538	-0.25950551033	1.54459869862	-0.296861171722
-0.0314230918884	1.01245737076	-0.264488220215	-0.246462106705	1.54856061935	-0.295185804367
-0.0230767726898	1.00314712524	-0.263929843903	-0.227027177811	1.5533643961	-0.292778253555
-0.0142221450806	0.991052627563	-0.272977590561	-0.201885223389	1.55301678181	-0.289815425873
-0.00777816772461	1.00307440758	-0.282017230988	-0.185074806213	1.55204391479	-0.28650021553
0.000512838363647	1.01122093201	-0.278385400772	-0.182557344437	1.55177652836	-0.283829689026
0.0111055374146	1.00718283653	-0.260792016983	-0.195896863937	1.5529807806	-0.288019895554
0.0232095718384	1.00323343277	-0.246175527573	-0.212282896042	1.55425632	-0.301449537277
0.0313129425049	1.004373312	-0.232211112976	-0.210681676865	1.5524930954	-0.310889720917
0.032609462738	1.01413416862	-0.221760988235	-0.199359178543	1.54690539837	-0.313296079636
0.0335834026337	1.01703739166	-0.214093804359	-0.185869216919	1.53725397587	-0.313468933105
0.035968542099	1.01690936089	-0.212175726891	-0.175825357437	1.53374421597	-0.31286239624
0.0378289222717	1.01585173607	-0.211498022079	-0.171348810196	1.53737199306	-0.314745426178
0.0425112247467	1.00925588608	-0.207989215851	-0.163547277451	1.53937280178	-0.319477081299
0.0456385612488	1.00717949867	-0.199517011642	-0.153258323669	1.54371166229	-0.323586940765
0.0462350845337	1.00236225128	-0.191084861755	-0.146069049835	1.54918575287	-0.327751755714
