-17.914226532	-0.323715567589	36.6732292175	-13.0564079285	-2.62620306015	-33.5612678528
-18.2442798615	-0.459978997707	36.7904434204	-12.9056816101	-2.58385872841	-33.5598182678
-18.380355835	-0.298161000013	36.5136260986	-12.8860549927	-2.51732683182	-33.5569152832
-18.5666446686	-0.245942220092	36.4158439636	-12.8685064316	-2.36180758476	-33.5908203125
-18.7978172302	-0.382184863091	36.1798057556	-12.6701793671	-1.81910693645	-33.0775222778
-19.3360004425	-0.982982218266	35.6563072205	-10.1317539215	-0.881639778614	-29.6524391174
-20.8469944	-2.38579034805	36.4467926025	-4.96673583984	1.56214010715	-25.1517276764
-19.7348842621	-4.04654455185	36.6426887512	0.253088057041	6.46763038635	-21.0635452271
-16.0191574097	-3.80837869644	35.5700874329	2.74474167824	6.94210195541	-20.5162639618
-15.6144990921	-3.28478527069	36.3580322266	1.95967829227	6.81893587112	-22.0434856415
-14.9293136597	-3.26652216911	35.4921379089	1.23114681244	8.54631614685	-21.3034992218
-16.7785148621	-1.22675573826	33.0668716431	-2.0374481678	13.2520008087	-18.6319961548
-21.6716499329	-1.57064723969	33.7578315735	-5.88847351074	21.3286705017	-15.6038007736
-22.2866687775	-2.74057364464	33.5184288025	-6.71527862549	27.1559047699	-12.9890947342
-21.2096881866	-3.92800545692	33.742767334	-8.55709266663	28.1875019073	-11.3913707733
-20.9690494537	-5.61364173889	31.6653842926	-10.6772766113	24.9232730865	-10.5347270966
-21.9194164276	-6.78993654251	30.7245903015	-11.3223896027	22.6770763397	-8.53357219696
-24.4946174622	-7.02296495438	33.2749862671	-10.9603967667	22.2891330719	-6.50673770905
-25.9228935242	-6.32392168045	34.0986213684	-10.6265563965	21.7832775116	-4.63136720657
-28.6677875519	-5.22908496857	33.6326560974	-11.0070056915	21.3307800293	-2.65671467781
-32.4491348267	-3.89068698883	34.4475631714	-11.0509614944	22.1122817993	-0.721192419529
-32.9471359253	-4.30152273178	34.7881813049	-10.6004371643	22.2615318298	0.432418525219
-31.6442756653	-4.02856254578	37.0962944031	-10.4061822891	22.0885448456	1.69028639793
-31.7715167999	-5.20540809631	40.1769142151	-10.5943508148	21.2470226288	3.24145698547
-33.26304245	-4.2002415657	41.3726768494	-10.5956697464	21.3888111115	4.31575536728
-33.3805351257	2.58431243896	34.8934402466	-10.1159305573	22.5537605286	4.23815822601
-32.6245002747	7.10278654099	31.8119907379	-9.24934482574	22.458990097	3.37424230576
-30.1091766357	8.45944309235	31.4099178314	-8.77740573883	22.1241550446	3.04017543793
-22.0537338257	12.1171388626	23.4909820557	-8.65454387665	23.0031051636	3.0967233181
-19.9425830841	14.1469755173	20.3308143616	-8.63009357452	24.8924922943	2.77874827385
-22.1257209778	14.2204456329	23.3117465973	-8.82544517517	26.3284111023	2.22553944588
-24.8334980011	12.6416378021	25.1081409454	-8.72766304016	26.993806839	1.60182058811
-26.9103755951	11.8396320343	23.3841056824	-8.02978229523	27.4920902252	1.2998521328
-27.4153251648	12.2174577713	23.5181407928	-7.39216947556	27.8281879425	0.946002960205
-29.1279983521	15.3034563065	25.2891368866	-7.07327747345	27.9788398743	0.715835690498
-29.8626041412	21.8654174805	31.5604171753	-6.97407341003	28.1504535675	0.655450344086
-30.0032348633	26.8983364105	37.2080726624	-6.75387334824	28.4038486481	0.431583166122
-29.6800346375	28.4394626617	39.2477416992	-6.51859521866	28.9288711548	0.0854886993766
-30.1647129059	26.3371829987	38.1936454773	-6.08747148514	30.3792495728	-0.327577799559
-31.3822612762	20.6391735077	34.0182266235	-5.54840087891	32.659412384	-0.705289185047
-31.927072525	21.553144455	31.4314823151	-5.60326480865	34.805103302	-1.58973646164
-34.5338821411	27.3517608643	30.5930271149	-5.76100969315	35.4999542236	-2.3720767498
-33.2287445068	32.3127593994	34.4096107483	-5.59660768509	35.2496795654	-2.35218262672
-31.6299552917	36.4881744385	43.3373680115	-5.46124315262	35.0710487366	-2.0664627552
-28.7133541107	34.6734733582	46.1241607666	-5.43584060669	34.6583976746	-1.95986497402
-26.6700706482	29.7959346771	37.5596809387	-5.44890165329	34.1287117004	-1.84720528126
-28.3664665222	29.3217201233	30.9669933319	-5.48221969604	33.4262008667	-1.98077642918
-32.6320037842	31.8462753296	30.8046302795	-5.2311167717	33.0557250977	-1.9025374651
-32.2624053955	34.6626358032	36.9781150818	-5.04951810837	33.2557601929	-2.04875206947
-30.1468067169	30.0457630157	30.3143997192	-4.55387878418	33.2412414551	-2.03006649017
-27.1382598877	24.4798069	26.388841629	-4.62190532684	33.0704116821	-2.20677733421
-25.3524227142	18.2402267456	27.987487793	-4.55757427216	32.9410591125	-2.32672810555
-23.8469791412	13.1576719284	35.5742378235	-4.32826519012	32.8987960815	-2.21748423576
-25.6428203583	10.412610054	43.7836151123	-4.43202400208	32.6991653442	-2.35992884636
-27.62940979	18.455116272	39.6062927246	-4.55232381821	32.6517486572	-2.46397638321
-33.35597229	26.8311290741	35.0703811646	-4.40716743469	32.6048431396	-2.54919981956
-38.2102928162	36.075138092	38.2626304626	-4.3138461113	32.7019309998	-2.43891453743
-37.1219863892	39.2827072144	41.7227287292	-4.23136472702	32.8319511414	-2.47491574287
-30.4199256897	32.081993103	43.6028709412	-4.190284729	32.8878822327	-2.55661702156
-24.6129512787	16.9388275146	37.3104858398	-4.0713186264	32.695476532	-2.57603883743
-15.0807504654	8.34813976288	28.5937385559	-4.02887153625	32.2831764221	-2.65137267113
-1.07509231567	7.77656698227	11.0099315643	-3.94257998466	31.4252490997	-2.72172355652
8.72725963593	8.73244762421	-1.77972817421	-3.54087543488	30.4601287842	-2.69256305695
12.7532434464	14.2874650955	-6.0070271492	-3.25067901611	30.1526069641	-2.746301651
5.46695804596	22.8228740692	5.5626616478	-3.16555142403	30.3273048401	-3.02018928528
0.156411930919	25.2370738983	9.47141551971	-3.0594625473	30.4369449615	-3.18452978134
-2.21015715599	25.6987113953	10.4712581635	-3.29152321815	30.5643215179	-3.18118095398
-7.66349506378	24.0840587616	19.6049404144	-3.58165574074	30.6986351013	-3.24844837189
-12.7353487015	23.7839221954	25.0348129272	-3.57175183296	30.6947956085	-3.31763505936
-12.609954834	23.4231472015	24.5047683716	-3.52524232864	30.7422065735	-3.44660520554
-13.1631336212	23.2615032196	25.1501083374	-3.68689155579	30.7028541565	-3.50358247757
-15.9243927002	23.0043888092	27.6441879272	-3.87456440926	30.6255683899	-3.66354298592
-17.7605800629	23.7551212311	24.0107440948	-3.83255791664	30.6798973083	-3.72726845741
-20.2819347382	25.4245052338	24.9600791931	-3.68212223053	30.9410037994	-3.75339961052
-21.6699066162	26.1725559235	24.7830467224	-3.50358247757	31.1193199158	-3.84835457802
-23.3164730072	26.913898468	25.0588283539	-3.17475938797	31.2991504669	-3.77371096611
-24.030292511	28.066904068	26.1086158752	-3.01885533333	31.494304657	-3.76628494263
-25.7661476135	29.6105442047	31.4494132996	-3.18319630623	31.5343437195	-3.82405042648
-23.4189147949	29.1277275085	31.9417819977	-3.03710269928	31.5285835266	-3.85974407196
-22.960849762	30.5369529724	35.0950431824	-3.03012728691	31.5147533417	-3.87653589249
-20.877576828	29.3575534821	33.1435813904	-2.99439430237	31.5964031219	-3.91566443443
-19.1717567444	16.7020359039	15.3311738968	-2.9005343914	31.5438709259	-3.88375926018
-22.3283882141	10.209936142	6.4051117897	-2.74134039879	31.6406764984	-3.97205924988
-26.2068481445	11.1322660446	2.50479459763	-2.55739188194	31.8254985809	-4.12129878998
-31.5378494263	16.1486625671	3.16299986839	-2.25592470169	31.7749214172	-4.11633205414
-33.7185325623	20.4522857666	3.46545505524	-2.17894077301	31.8438091278	-4.18271160126
-35.7926559448	21.5451259613	3.1688785553	-2.14829659462	31.945098877	-4.3574590683
-37.1406936646	22.9893112183	4.2972278595	-1.99703907967	32.0749320984	-4.39666080475
-37.6416473389	24.8513221741	6.22525072098	-1.95309972763	32.1477775574	-4.3788895607
-36.4453277588	25.6765460968	7.31047534943	-2.04058480263	32.2194366455	-4.27724933624
-36.2924537659	25.4041881561	7.67803144455	-1.96828937531	32.2348251343	-4.24665307999
-36.724281311	25.4094963074	7.50048875809	-1.90651321411	32.1362533569	-4.25739955902
-36.7444000244	25.7590885162	8.0783996582	-2.09113478661	32.1244773865	-4.30821275711
-37.6152458191	25.6033649445	7.37465381622	-2.20429849625	32.0075569153	-4.18289136887
-37.4035720825	24.6741352081	6.13105392456	-2.54267501831	31.6044540405	-4.18899393082
-38.0466766357	24.0225257874	5.5909819603	-3.43631863594	30.6086292267	-4.50252056122
-38.1085395813	23.8715381622	6.19811487198	-4.74980688095	30.4269256592	-6.04695415497
-37.9947662354	22.786611557	6.54399204254	-5.89078235626	31.7085494995	-7.1018037796
-37.3374099731	22.2968254089	6.95333480835	-5.79766798019	31.869260788	-7.05226564407
-37.7378501892	22.8399009705	7.68606710434	-5.01024675369	31.699136734	-6.82872676849
-37.1350059509	23.7791309357	7.85226869583	-4.56196832657	31.8559303284	-6.74733829498
-37.5790023804	24.1075496674	6.57267189026	-4.40153884888	31.8468723297	-6.77695512772
-37.2660598755	22.8534545898	2.93519806862	-4.5075044632	31.9513282776	-6.78468799591
-36.2911262512	23.1606197357	4.83678913116	-4.37166261673	32.0926513672	-6.68506193161
-35.8608818054	27.1965885162	13.3495750427	-4.16304397583	32.2409934998	-6.44203710556
-36.5172729492	25.6161785126	8.51884269714	-4.14349842072	32.2414207458	-6.4703130722
-36.4699783325	24.7171878815	7.23431015015	-4.05637407303	32.2340545654	-6.52525234222
-37.26354599	26.6288833618	13.0273790359	-4.18776464462	32.1006851196	-6.63447809219
-35.6605682373	26.3101482391	15.8644266129	-4.23250722885	31.8229923248	-6.70418787003
-35.2561149597	23.7673892975	17.2567615509	-4.16376161575	31.6232757568	-6.58007669449
-34.6938362122	22.4552230835	30.1605567932	-4.31135320663	31.4747009277	-6.66122150421
-33.4401321411	26.9690265656	41.9101371765	-4.40464639664	31.535741806	-6.72070074081
-31.0211715698	25.159532547	36.9919395447	-4.40600442886	31.6136779785	-6.78847169876
-28.4743614197	13.7724237442	9.52789974213	-4.05793523788	31.6044921875	-6.82216787338
-31.7301883698	10.5589771271	-4.38172054291	-3.68294048309	31.5169372559	-6.82440280914
-31.4757137299	15.4449796677	0.287812262774	-4.50487470627	31.304353714	-9.17023468018
-31.3985614777	18.9055652618	4.79755353928	-8.33106899261	31.7056503296	-18.5837917328
-33.161151886	18.8709659576	5.60650587082	-9.44126701355	32.8135185242	-24.85505867
-33.8117523193	19.2703590393	13.2608690262	-6.22810554504	33.0572319031	-22.0280437469
-30.5403728485	20.8480091095	17.5280818939	-5.2773809433	33.5629234314	-17.1598911285
-29.4566326141	20.3361816406	17.7239437103	-5.82575798035	33.7110595703	-12.6840267181
-28.5037384033	20.8770484924	20.2888298035	-6.69702339172	34.4836158752	-9.84907531738
-27.4122200012	20.3815765381	21.7494659424	-8.11710739136	35.2786521912	-12.0466861725
-27.6915054321	21.7283935547	23.1648826599	-10.127869606	34.4608764648	-19.526391983
-27.7087001801	22.181344986	23.4526405334	-12.1417999268	32.963142395	-27.5308361053
-27.8266887665	21.6270561218	22.7291297913	-12.4945306778	31.8384876251	-32.1618309021
-28.8179206848	20.5805301666	21.6318359375	-11.4384822845	31.8996696472	-30.3831596375
-28.7247161865	20.776845932	21.8411502838	-10.6877040863	33.7730484009	-23.6655864716
-29.0415592194	20.0990905762	21.797662735	-9.42489337921	36.8566513062	-14.9576692581
-29.0198001862	19.3703689575	21.7561702728	-8.7675075531	38.8977355957	-9.21263408661
-29.4891605377	19.2339324951	21.4068412781	-9.29950618744	39.1845779419	-8.24430751801
-30.0001792908	19.4102745056	21.2559642792	-9.90493488312	38.6012763977	-11.1354618073
-30.0520896912	20.4242534637	22.3325462341	-6.66576719284	37.5739326477	-16.1731777191
-30.2097740173	21.0611057281	22.5480422974	-2.48637247086	36.307346344	-22.6796264648
-31.3303947449	21.866853714	22.4304389954	-1.12442040443	34.1756439209	-30.0290336609
-31.8630313873	21.4431152344	22.2629966736	-0.367078393698	33.7516555786	-30.94190979
-30.7921676636	20.7150592804	22.0736064911	-2.52210187912	33.9225883484	-28.0931453705
-31.5991764069	20.4032878876	21.8688278198	-6.68578481674	34.734828949	-23.0546684265
-30.4489440918	19.7200775146	22.4198093414	-9.38556861877	37.5756645203	-18.1427669525
-29.8955383301	19.516576767	22.2380313873	-8.52125072479	39.4072608948	-14.8186559677
-29.2981300354	20.1419448853	25.3369827271	-8.27094173431	39.3802490234	-13.3476428986
-29.505739212	19.9894275665	23.7385787964	-9.29567050934	38.9885368347	-14.2869234085
-30.4483757019	20.3731365204	22.1768836975	-8.64590549469	38.9976882935	-15.5088291168
-31.0199966431	21.1221981049	21.4763679504	-7.98748636246	39.6607131958	-16.6371307373
-30.9576377869	21.4464817047	22.184015274	-8.58726406097	40.3050346375	-18.214056015
-29.9643497467	21.7430782318	23.0140323639	-10.0611209869	40.9172134399	-23.311750412
-30.3132381439	21.8560009003	23.3975086212	-11.1774511337	40.88879776	-29.6400489807
-30.7116088867	21.183927536	23.819978714	-10.4300260544	41.136505127	-31.1013221741
-30.7583580017	20.4974746704	23.6482143402	-9.81680202484	41.0370826721	-28.5692691803
-31.6962127686	20.1509056091	22.110326767	-8.81635570526	40.2731056213	-24.2020816803
-31.9352588654	23.8132743835	20.6170520782	-7.78032493591	40.2026786804	-19.8734741211
-32.8700218201	28.9665794373	22.9172954559	-8.55834293365	40.4801445007	-19.4592876434
-28.3386116028	29.2867717743	22.3213176727	-8.71866130829	39.9303855896	-19.5461387634
-27.070356369	28.4500484467	22.1595516205	-8.42669391632	39.5121688843	-19.8469791412
-27.4654541016	27.5064487457	21.6708393097	-9.07787799835	39.309299469	-20.4150485992
-27.83360672	27.2854785919	21.6868534088	-13.7146720886	38.7186889648	-26.5828609467
-28.2515201569	28.4151268005	22.7244186401	-15.8374910355	36.8304977417	-33.5286750793
-29.0565280914	27.152973175	22.6800270081	-14.7909154892	36.8374328613	-33.5262145996
-28.7195053101	25.5646953583	23.5713443756	-13.8780469894	37.379360199	-28.1713047028
-28.8352165222	23.9245872498	23.2637844086	-15.5504951477	38.3844909668	-21.2860889435
-28.6330509186	23.3558998108	22.8357410431	-22.6750507355	38.7042236328	-16.8244304657
-29.1545219421	23.9102096558	23.0874977112	-31.4139137268	38.5257797241	-17.2158718109
-30.2257499695	24.1066417694	22.6507492065	-31.0852165222	38.3096199036	-18.405921936
-30.6981296539	23.5605602264	22.4353733063	-32.422416687	36.8205413818	-21.9161548615
-31.3026981354	23.1757469177	22.7152748108	-31.8759365082	36.197681427	-23.4974327087
-31.4898052216	22.8156795502	22.3976039886	-25.0804195404	36.2335243225	-22.3973331451
-32.5365982056	24.7328891754	23.5484676361	-15.9700937271	36.724697113	-22.3101177216
-33.0344963074	25.5207748413	24.1117343903	-7.16615724564	37.104763031	-22.7338447571
-32.7012786865	25.2304763794	24.3615055084	-4.37011814117	38.1122207642	-24.3791065216
-32.6484794617	25.134185791	24.4566192627	-5.27520895004	38.5026283264	-26.0418548584
-32.4545669556	25.2741374969	24.59466362	-7.43686437607	38.1688728333	-25.403459549
-32.1064224243	24.930606842	24.2362422943	-12.7436227798	37.3003883362	-25.7054843903
-31.9809112549	25.0458316803	24.5642127991	-17.9674034119	36.4070777893	-27.5478878021
-31.927904129	25.1541690826	24.9653396606	-20.495388031	36.1483306885	-29.9125385284
-32.168384552	23.6478176117	25.2508945465	-18.8370113373	36.4707794189	-29.8822116852
-34.3696479797	25.2668876648	38.1153411865	-15.7683067322	36.5516700745	-27.8441810608
-34.0697479248	25.8492698669	36.3086738586	-15.9496278763	36.882232666	-28.4551296234
-35.1887817383	30.5930271149	48.3247528076	-15.5657119751	37.1898536682	-28.2731227875
-32.8870201111	28.8883800507	43.6017227173	-15.4738254547	37.2249984741	-28.1674976349
-34.4763374329	28.7122497559	42.7244529724	-15.6835851669	37.3221435547	-28.366071701
-36.4357872009	27.5284461975	38.0800247192	-15.080447197	37.595916748	-28.2304725647
-34.2698364258	24.2742595673	26.9587364197	-15.0505342484	37.5056533813	-28.2420978546
-33.3230285645	22.9219474792	20.0951156616	-15.0233802795	37.469959259	-28.2874202728
-33.4757614136	23.2062129974	19.3264961243	-14.8464107513	37.5084953308	-28.2733707428
-32.2053108215	23.2855148315	18.9029903412	-14.8702611923	37.4963340759	-28.3140144348
-31.6478500366	22.1376285553	18.1183280945	-14.8014678955	37.4830284119	-28.3905143738
-34.6871376038	21.7260055542	30.6744804382	-14.7770500183	37.5992469788	-28.4434394836
-34.5931892395	25.6006202698	34.961681366	-14.745839119	37.3791465759	-28.6058959961
-37.8245391846	26.6208267212	39.6999397278	-14.5832881927	37.2563095093	-28.6831703186
-37.9812812805	27.0384960175	43.9827423096	-14.2387456894	37.2381591797	-28.6578731537
-38.2395706177	25.810092926	40.5792236328	-14.0801286697	37.0880050659	-28.6615810394
-37.6132736206	23.2980709076	30.6013965607	-13.9375257492	36.7768325806	-28.5707740784
-38.0046005249	22.4505500793	25.2821102142	-13.466925621	36.3738746643	-28.1774578094
-38.7770080566	23.6225852966	25.9085845947	-12.913807869	35.8969078064	-27.690071106
-37.7173843384	24.1267471313	24.4925479889	-12.3065071106	35.2522697449	-26.8734817505
-35.3155555725	22.5054664612	19.3158988953	-11.8896036148	35.9971351624	-26.7707653046
-34.0325431824	19.9059448242	14.9252386093	-12.3532314301	38.6967658997	-27.9951457977
-33.2965583801	19.2064914703	17.9718666077	-12.8617801666	39.7146186829	-28.5583591461
-35.0307655334	24.0901355743	34.1171951294	-12.4965105057	38.9736976624	-28.1190071106
-36.9609222412	26.309545517	40.3492469788	-11.7629327774	38.563205719	-27.844039917
-39.16198349	25.7169017792	42.0716094971	-11.3916120529	38.4631996155	-27.9826602936
-40.2408180237	24.4307594299	44.2490272522	-11.2877635956	37.8250808716	-27.9488716125
-39.396774292	23.9213943481	42.8839607239	-11.3051376343	37.5657844543	-27.8258285522
-38.4201889038	24.5707035065	40.858089447	-10.9878921509	37.3056335449	-27.7527294159
-34.5627593994	26.4795665741	33.8314704895	-10.5304584503	36.7726554871	-27.5698661804
-30.6089916229	32.2002792358	34.9120903015	-10.5313463211	36.6259078979	-27.4711990356
-30.702922821	33.7876396179	31.8931121826	-10.612821579	36.4110336304	-27.3670845032
-29.1510410309	33.1303710938	26.0142173767	-10.4452028275	36.0717010498	-27.1495571136
-28.7901344299	28.6372318268	14.9480552673	-10.4662237167	35.7856025696	-27.3186569214
-30.3394927979	28.6838035583	16.1172962189	-10.1626672745	35.7973556519	-27.401758194
-32.8322219849	29.7672424316	28.206905365	-10.2302103043	35.7276992798	-27.2465209961
-32.9267196655	30.2407569885	28.4026813507	-10.5974111557	35.6116943359	-27.2966709137
-33.0679321289	27.4168491364	18.2796554565	-10.5180997849	35.5625953674	-27.1579189301
-32.7957725525	24.6810855865	11.9919786453	-10.6670627594	35.464553833	-27.2440986633
-33.8875579834	24.5018577576	13.9284172058	-10.9728384018	35.4506607056	-27.1628780365
-35.2023124695	26.7041683197	31.9828071594	-10.9683113098	35.3864631653	-27.0829982758
-35.7761383057	27.4829444885	40.8310470581	-11.0382394791	35.3794708252	-27.093744278
-36.8011741638	26.2026481628	40.004989624	-11.0525999069	35.3618240356	-27.1802177429
-37.2655029297	25.9003582001	42.1480560303	-11.050617218	35.4544792175	-27.1594429016
-37.4562759399	25.5670261383	44.7315483093	-11.4801464081	35.3295898438	-27.2392139435
-38.0502357483	24.3703670502	43.3963012695	-11.4880027771	35.4053001404	-27.1927165985
-38.0965919495	28.3501396179	50.4380378723	-11.3646268845	35.3318862915	-27.2008800507
-31.9837799072	37.6474952698	58.486038208	-11.151017189	35.2146453857	-26.9576282501
-24.1215991974	38.7062988281	42.3423347473	-11.4206876755	35.2043685913	-26.9642982483
-25.3963623047	36.6381950378	27.5082931519	-11.2022514343	34.9302902222	-26.7379684448
-26.7044830322	37.0152511597	30.4928913116	-11.451043129	35.1702575684	-26.8347434998
-27.3486537933	36.7923774719	29.5237312317	-13.4436664581	34.5391387939	-29.2632102966
-29.1669311523	36.7679901123	29.2456169128	-18.0134849548	33.555065155	-35.2803039551
-27.5682945251	35.7203102112	31.7448291779	-19.0525722504	35.8946914673	-36.4225311279
-27.667634964	34.8288116455	31.9110298157	-14.9810018539	37.0150184631	-31.2475013733
-29.5100383759	35.2989730835	34.2738761902	-8.87668895721	36.7869606018	-21.0373096466
-29.217300415	34.303943634	34.4321517944	-3.68375825882	36.30884552	-9.22861480713
-29.2795162201	33.6590766907	33.6639328003	-2.42964100838	36.4577178955	-4.65777540207
-30.064748764	34.1375312805	34.1290512085	-3.01098132133	37.0401649475	-7.51818084717
-28.7228469849	33.7806854248	35.7100334167	-2.66342043877	36.8797492981	-10.8500766754
-29.0271472931	33.9654083252	35.5288505554	-0.965776145458	36.4980201721	-14.866399765
-29.2981147766	33.7908325195	35.5113830566	-1.10648822784	37.1034317017	-17.7766742706
-29.263010025	33.1910552979	35.1242675781	-2.68694138527	36.7926826477	-19.1536445618
-30.0201015472	33.2670288086	34.3035392761	-4.11257982254	36.2872924805	-20.3197193146
-30.7159633636	33.7243881226	33.5040168762	-4.43774938583	36.461391449	-21.6201763153
-31.113571167	32.8901634216	31.8959674835	-5.51442050934	36.1440963745	-22.1285934448
-31.4865493774	30.128282547	26.2373065948	-8.06153869629	35.9416694641	-22.6056098938
-32.0614013672	29.3647403717	22.6932182312	-10.3605871201	35.9817276001	-23.2564029694
-31.3202838898	29.9609127045	24.0973758698	-13.7949714661	35.3308944702	-24.8680877686
-31.3697910309	29.8007125854	24.0689697266	-16.7218971252	34.2938194275	-25.9251613617
-31.9623413086	28.9919586182	23.0956249237	-17.3014259338	34.1010398865	-25.2965755463
-31.4403438568	29.3499851227	24.1966266632	-15.0048055649	34.8012695312	-22.5234889984
-32.0558929443	29.560174942	24.1695575714	-8.74387931824	36.0116729736	-17.7900257111
