-0.0546875	1.15084648132	0.0324220657349	-0.199851036072	1.59483599663	-0.202566146851
-0.054696559906	1.15210843086	0.0330797433853	-0.200144052505	1.59535908699	-0.203066825867
-0.0552978515625	1.15286791325	0.0333552360535	-0.200480222702	1.59574127197	-0.20313334465
-0.0565490722656	1.15305030346	0.033679485321	-0.200410842896	1.5969465971	-0.203174352646
-0.0567400455475	1.15221118927	0.0346789360046	-0.199140787125	1.59702575207	-0.203011631966
-0.0570645332336	1.15137684345	0.034770488739	-0.195880651474	1.59566056728	-0.201799631119
-0.0584087371826	1.14858233929	0.0331801176071	-0.192108392715	1.5915760994	-0.199578881264
-0.0582315921783	1.1468398571	0.030294418335	-0.187405347824	1.58412253857	-0.196251153946
-0.0566375255585	1.14667105675	0.0270628929138	-0.182674646378	1.57608497143	-0.191859006882
-0.0552096366882	1.14550817013	0.0240335464478	-0.177906036377	1.57004654408	-0.187784075737
-0.0544052124023	1.14192080498	0.0210747718811	-0.175561189651	1.56679129601	-0.182111024857
-0.0536859035492	1.13688611984	0.0188282728195	-0.174120426178	1.56488192081	-0.175102233887
-0.0528285503387	1.13123047352	0.0175886154175	-0.173358678818	1.56428551674	-0.16673707962
-0.0490880012512	1.12641704082	0.0181219577789	-0.173570632935	1.56399381161	-0.156204223633
-0.0446329116821	1.12180960178	0.020078420639	-0.170763254166	1.56309628487	-0.145773768425
