0.0	-0.0	97.0622329712	-104.95526123	89.9147338867	-173.964294434
0.0	-0.0	81.0650482178	-106.155273438	87.7865142822	-175.427703857
0.0	-0.0	83.1814117432	-107.976989746	85.5173873901	-175.591781616
0.0	-0.0	83.3190155029	-111.053688049	83.472076416	-174.839080811
0.0	-0.0	85.3482666016	-113.994438171	82.5088043213	-174.482208252
0.0	-0.0	86.6726913452	-116.188278198	81.9552688599	-173.556137085
0.0	-0.0	90.5943069458	-121.003631592	80.1810913086	-171.1015625
0.0	-0.0	91.5533065796	-133.363647461	73.8805618286	-167.653640747
0.0	-0.0	90.8096160889	-147.161941528	63.5390014648	-166.077072144
0.0	-0.0	90.9671020508	-155.135421753	50.8920211792	-165.655609131
0.0	-0.0	95.0883331299	-158.961410522	45.2973976135	-167.385818481
0.0	-0.0	99.0280532837	-160.881530762	44.3717002869	-167.795135498
0.0	-0.0	99.9344558716	-162.145050049	45.211479187	-167.736785889
0.0	-0.0	101.306243896	-164.106231689	46.9163589478	-167.235626221
0.0	-0.0	102.516578674	-166.93687439	50.5767021179	-166.778167725
0.0	-0.0	100.14315033	-168.481765747	49.6379051208	-165.053955078
0.0	-0.0	97.3391799927	-170.196212769	47.8079719543	-164.833724976
0.0	-0.0	91.9507980347	-170.989334106	47.427066803	-165.241638184
0.0	-0.0	88.1973876953	-170.693832397	46.770275116	-165.633087158
0.0	-0.0	87.7359390259	-169.771133423	46.4473457336	-166.025588989
0.0	-0.0	96.132522583	-169.603088379	47.3518638611	-166.319915771
0.0	-0.0	112.011779785	-169.677536011	46.8392868042	-166.043807983
0.0	-0.0	121.336448669	-170.78427124	45.8969612122	-166.149932861
0.0	-0.0	123.237953186	-174.529891968	43.6368713379	-164.859222412
0.0	-0.0	122.945320129	177.248260498	40.7570037842	-161.993515015
0.0	-0.0	121.86781311	170.639205933	37.6986198425	-161.255371094
0.0	-0.0	118.936653137	171.837295532	33.5371665955	-162.633850098
0.0	-0.0	106.808418274	177.553192139	30.9540863037	-163.596740723
0.0	-0.0	85.2724456787	-176.713745117	26.6620464325	-164.322433472
0.0	-0.0	65.0304718018	-171.617584229	25.8690490723	-165.196105957
0.0	-0.0	72.2535934448	-169.661437988	29.2994976044	-165.41595459
