0.0	-0.0	-134.993637085	-153.957763672	82.4832611084	-78.1612625122
0.0	-0.0	-135.097991943	-150.953887939	84.4248199463	-77.3711853027
0.0	-0.0	-135.189239502	-148.491409302	87.4275436401	-75.2587203979
0.0	-0.0	-135.116516113	35.7602424622	86.8250274658	109.474113464
0.0	-0.0	-135.056793213	38.0232620239	78.3505706787	114.719581604
0.0	-0.0	-132.823883057	35.5142326355	68.5399780273	119.798027039
0.0	-0.0	-122.679199219	36.7632980347	69.9777526855	93.0281677246
0.0	0.0	-104.381164551	28.5954246521	66.3908462524	79.2214508057
0.0	0.0	-88.0228271484	30.333152771	72.8478775024	62.224811554
0.0	0.0	-84.0767440796	-144.215133667	85.5186233521	-144.960372925
0.0	0.0	-87.4149475098	-152.166061401	82.9989547729	-155.153915405
0.0	0.0	-87.2979660034	-161.316757202	85.1972045898	-152.943664551
0.0	0.0	-85.182800293	-170.583023071	85.9609909058	-146.570663452
0.0	0.0	-85.8623199463	-170.218109131	85.5228881836	-145.969726562
0.0	0.0	-86.3826370239	-166.374450684	85.6035461426	-135.950164795
0.0	0.0	-84.979347229	-159.474822998	87.2593002319	-103.758270264
0.0	0.0	-83.2055664062	-152.226364136	89.3078231812	-111.10559082
0.0	0.0	-82.4132156372	-142.134155273	84.9554748535	-123.802429199
0.0	0.0	-83.0399551392	-145.424865723	84.2224273682	-144.895782471
0.0	0.0	-83.1518936157	22.2493896484	89.9873046875	22.7757854462
0.0	0.0	-83.654548645	5.43935918808	82.8296127319	15.4024152756
0.0	0.0	-83.9430236816	-2.18210673332	82.4735870361	10.3063964844
0.0	0.0	-84.5583343506	-8.18722629547	81.3933181763	-2.62599110603
0.0	0.0	-85.4788131714	-8.15629577637	82.2292327881	-5.87421989441
0.0	0.0	-85.4951782227	-4.80511188507	86.0614624023	-4.22618627548
0.0	0.0	-85.463218689	-8.74914646149	82.7178573608	-16.8066120148
0.0	0.0	-85.8898773193	-14.3742952347	75.3024749756	-29.6689548492
0.0	0.0	-86.0786437988	-15.7504529953	75.5293121338	-26.7086162567
0.0	0.0	-86.1991882324	-15.3592367172	75.8960952759	-27.4849395752
0.0	0.0	-86.8121566772	-20.8505897522	71.410446167	-33.7486381531
0.0	0.0	-87.238243103	-22.5766601562	68.4081573486	-36.9597549438
0.0	0.0	-87.4202957153	-22.0177116394	66.8539733887	-39.4230003357
0.0	0.0	-87.821472168	-21.0595417023	68.5805664062	-37.6486968994
0.0	0.0	-88.2192230225	-21.0132217407	68.2580947876	-38.1819419861
0.0	0.0	-88.0312728882	-20.5359783173	66.7755355835	-39.7678222656
0.0	0.0	-88.6800918579	-18.2749881744	65.9500732422	-40.7775878906
0.0	0.0	-88.7522354126	-15.7175302505	65.9594116211	-40.9475708008
0.0	0.0	-88.7152023315	-14.0943717957	65.8165359497	-41.3540725708
0.0	0.0	-88.6696624756	-13.0655288696	65.5963973999	-42.242477417
0.0	0.0	-88.5080718994	-12.9724359512	65.4478759766	-42.6633796692
0.0	0.0	-87.8615722656	-12.5131235123	65.2415618896	-43.143245697
0.0	0.0	-87.7743988037	-11.7894353867	65.2246780396	-42.7795906067
0.0	0.0	-87.7458648682	-11.7023077011	72.9044189453	-17.7537822723
0.0	0.0	-88.0810775757	-16.9269771576	76.7488098145	-7.6746339798
0.0	0.0	-88.9867324829	-18.2217979431	75.8229598999	-5.41279745102
0.0	0.0	-89.85105896	-17.7967700958	73.8583450317	-13.8205127716
0.0	0.0	-90.767074585	-17.4251365662	68.391166687	-30.1184501648
0.0	0.0	-91.4026412964	-14.0678119659	61.8947906494	-42.7802505493
0.0	0.0	-92.499671936	-10.8550815582	58.0701637268	-49.763004303
0.0	0.0	-93.0920715332	-11.727104187	58.4284858704	-49.4735412598
0.0	0.0	-93.1375045776	-10.3064851761	59.631275177	-45.7014465332
0.0	0.0	-93.2517623901	-7.87017393112	60.9446144104	-39.7003250122
0.0	0.0	-94.0930099487	-5.96633195877	60.862197876	-40.9204864502
0.0	0.0	-94.1194229126	-1.86820447445	60.7956352234	-34.2387084961
0.0	0.0	-93.9361343384	-5.43003606796	62.4388847351	-4.37562036514
0.0	0.0	-94.729927063	-9.92188453674	68.908744812	15.0416793823
0.0	0.0	-95.1467590332	-6.57961416245	69.5353240967	20.2763729095
0.0	0.0	-95.7031402588	6.8703289032	73.5453033447	5.49027633667
0.0	0.0	-96.1669235229	19.6955947876	76.1867675781	-26.9045257568
0.0	0.0	-96.7891464233	20.6888561249	71.0330505371	-43.5684585571
0.0	0.0	-96.7021484375	19.7626361847	69.0912246704	-42.5335235596
0.0	0.0	-97.0992507935	17.8643665314	71.4310760498	-31.8642253876
0.0	0.0	-97.2351989746	17.8427295685	77.0164260864	-22.7201251984
0.0	0.0	-97.5055007935	18.2589836121	80.8051757812	-22.9267215729
0.0	0.0	-98.0177154541	21.6708564758	87.3004302979	-18.683807373
0.0	0.0	-98.3362884521	-154.687850952	84.6996612549	179.871368408
0.0	0.0	-98.544883728	-155.610290527	81.4102020264	-176.541503906
0.0	0.0	-98.340133667	-158.088424683	84.676864624	177.126159668
0.0	0.0	-98.6354370117	-158.8487854	86.2775039673	170.861373901
0.0	0.0	-98.5885162354	-158.241897583	87.0807800293	167.291015625
0.0	0.0	-98.0812454224	-154.086013794	82.6786804199	-172.635894775
0.0	0.0	-97.8490600586	-150.495315552	73.4571380615	-140.752700806
0.0	0.0	-97.8983383179	-147.229431152	69.3004379272	-143.581161499
0.0	0.0	-97.4234466553	-145.245407104	65.3507003784	-160.281021118
0.0	0.0	-96.9086608887	-145.108108521	66.1241912842	-169.668502808
0.0	0.0	-96.6081466675	-151.483215332	70.2622451782	-169.037246704
0.0	0.0	-95.4004211426	-155.23815918	69.0737228394	-156.056106567
0.0	0.0	-94.2027206421	-149.65057373	68.449798584	-166.981552124
0.0	0.0	-93.0294876099	-143.698562622	60.7300758362	-174.753768921
0.0	0.0	-92.7188034058	-137.079162598	61.1370658875	-170.630447388
0.0	0.0	-91.6954727173	-131.423324585	66.9944000244	-141.704833984
0.0	0.0	-90.4712524414	-111.053939819	68.9794692993	-120.719024658
0.0	0.0	-90.4565658569	-88.5890655518	76.3528213501	-126.949043274
0.0	0.0	-89.6095275879	-87.2268295288	78.6851882935	-143.395385742
0.0	0.0	-89.6329498291	-101.505981445	81.4205474854	-174.340408325
0.0	0.0	-89.3835525513	-110.967666626	83.437210083	168.144348145
0.0	0.0	-89.0730514526	-120.876579285	77.2811965942	-172.740432739
0.0	0.0	-88.9568634033	-129.679107666	68.5698699951	-120.415214539
0.0	0.0	-89.7445755005	-127.23033905	70.9624099731	-108.270500183
0.0	0.0	-89.6246109009	-122.346679688	76.4871139526	-100.43686676
0.0	0.0	-89.2645263672	-119.351348877	77.3029022217	-109.514320374
0.0	0.0	-88.4716339111	-116.83732605	82.0156021118	-131.112747192
0.0	0.0	-87.7165985107	-123.650306702	88.0808486938	-156.288787842
0.0	0.0	-85.6913528442	53.2413291931	88.2934112549	15.2219181061
0.0	0.0	-81.4283752441	-116.266273499	86.2078170776	-168.318069458
0.0	0.0	-76.7849273682	-107.520507812	81.4499816895	-176.991271973
0.0	0.0	-73.0907363892	-111.57674408	82.5681304932	-178.41027832
0.0	0.0	-70.013961792	-116.677459717	82.1644821167	-171.610641479
0.0	0.0	-88.0062637329	-115.524261475	79.8592605591	-168.664352417
0.0	0.0	-114.508293152	-120.318008423	78.1298828125	-164.44682312
0.0	0.0	-119.94543457	-125.947845459	77.8447418213	-163.192977905
0.0	0.0	-107.534088135	-128.288345337	77.0073318481	-163.965103149
0.0	0.0	-91.0273513794	-133.082366943	77.0111312866	-164.981613159
0.0	0.0	-73.192741394	-136.354858398	78.2354660034	-166.643630981
0.0	0.0	-58.2173500061	-136.401062012	78.1419067383	-166.351303101
0.0	0.0	-49.4100036621	-136.098480225	77.025680542	-165.849822998
0.0	0.0	-44.1255989075	-137.386764526	76.3187255859	-165.78742981
0.0	0.0	-41.7873191833	-138.160247803	75.557434082	-165.468566895
0.0	0.0	-46.4961547852	-141.374206543	74.9289550781	-163.939163208
0.0	0.0	-54.5444068909	-146.163360596	77.598487854	-154.7993927
0.0	0.0	-62.0740470886	-154.049255371	83.7940979004	-120.767196655
0.0	0.0	-65.5325241089	27.3717575073	89.6946716309	61.433013916
0.0	0.0	-65.3933792114	32.2504692078	83.62109375	75.5265579224
0.0	0.0	-63.3026199341	39.4875717163	78.1266937256	88.7019729614
0.0	0.0	-62.5862998962	49.9913368225	78.642868042	78.5896911621
