0.0	-0.0	131.787399292	-100.125991821	67.7225570679	-166.349441528
0.0	-0.0	132.347717285	-100.607414246	67.2734832764	-166.656326294
0.0	-0.0	132.225921631	-102.372398376	64.3868865967	-166.18208313
0.0	-0.0	127.772895813	-106.180656433	52.3140678406	-165.78187561
0.0	-0.0	117.017272949	-109.924804688	37.7842330933	-164.914108276
0.0	-0.0	109.007522583	-108.004356384	29.5493736267	-163.535614014
0.0	-0.0	100.547439575	-102.964439392	27.4789524078	-163.295608521
0.0	-0.0	97.356086731	-98.9313430786	26.7619342804	-163.850616455
0.0	-0.0	92.344871521	-98.2817382812	24.9783935547	-163.128677368
0.0	-0.0	86.97631073	-99.1157989502	22.6999130249	-163.184738159
0.0	-0.0	76.3818054199	-100.20980072	21.3285713196	-164.204956055
0.0	-0.0	53.9415397644	-99.858505249	21.08335495	-165.006729126
0.0	-0.0	40.2665863037	-98.1720657349	21.6769943237	-165.270507812
0.0	-0.0	41.4256896973	-96.1992111206	23.1743888855	-165.673477173
0.0	-0.0	42.7935295105	-94.237159729	23.6761760712	-166.391876221
0.0	-0.0	41.908405304	-93.2811584473	23.670835495	-166.917633057
0.0	-0.0	39.8136940002	-92.1009521484	23.9295635223	-167.155441284
0.0	-0.0	35.1608505249	-90.9232177734	23.8543758392	-166.956481934
0.0	-0.0	27.7652282715	-90.078956604	23.8908634186	-166.926971436
0.0	-0.0	23.1492710114	-88.6719284058	23.7587509155	-166.201980591
0.0	-0.0	25.2340507507	-87.6072921753	23.942281723	-166.198226929
0.0	-0.0	26.6639652252	-87.021156311	24.1564064026	-166.45614624
0.0	-0.0	27.9627685547	-86.3015594482	24.3094997406	-166.480163574
0.0	-0.0	28.3688831329	-84.9623413086	25.2968940735	-166.465637207
0.0	-0.0	29.8521671295	-83.1266479492	25.7866897583	-166.48727417
0.0	-0.0	31.0123329163	-81.4260635376	26.3354682922	-167.403945923
0.0	-0.0	34.8417282104	-80.2141723633	26.8729133606	-167.48626709
0.0	-0.0	35.424156189	-80.5618515015	27.4022769928	-168.073257446
0.0	-0.0	35.2230873108	-80.2606124878	27.8665390015	-168.176391602
0.0	-0.0	37.2972946167	-80.2852172852	28.7496795654	-168.389816284
0.0	-0.0	38.799861908	-80.3220291138	29.2428321838	-167.901184082
0.0	-0.0	42.5431556702	-81.0688247681	30.0079784393	-167.58190918
0.0	-0.0	42.9723777771	-81.4157562256	30.357591629	-167.031402588
0.0	-0.0	43.2918167114	-81.9890975952	31.0012569427	-167.120056152
0.0	-0.0	43.5959091187	-82.3248672485	31.3208389282	-167.447952271
0.0	-0.0	47.1310577393	-81.3876190186	31.694229126	-166.985488892
0.0	-0.0	47.3025741577	-80.5339050293	30.6821041107	-166.191711426
0.0	-0.0	46.9234886169	-79.1599502563	27.603017807	-166.520370483
0.0	-0.0	48.4262199402	-74.4502944946	21.2745723724	-166.090209961
0.0	-0.0	49.394493103	-65.8540496826	18.7824554443	-164.116989136
0.0	-0.0	50.5921211243	-60.6007499695	20.1070709229	-164.490737915
0.0	-0.0	49.8820648193	-59.4658737183	19.8225708008	-163.734283447
0.0	-0.0	50.5413856506	-62.3793144226	16.835565567	-162.888153076
0.0	-0.0	51.1232223511	-68.1097335815	14.2828636169	-163.484176636
0.0	-0.0	52.254901886	-68.9766159058	11.0502290726	-163.942153931
0.0	-0.0	58.8189926147	-66.0070800781	11.9261884689	-164.010818481
0.0	-0.0	54.1995010376	-64.772354126	15.8557443619	-165.1224823
0.0	-0.0	47.6081047058	-65.3899536133	16.1741008759	-165.289352417
0.0	-0.0	49.6213989258	-63.4108428955	14.2318267822	-165.299560547
0.0	-0.0	48.8686256409	-59.4970245361	14.1278734207	-164.548599243
