-14.3547096252	-66.9628677368	141.012176514	8.90519142151	-0.213556647301	0.605220973492
-12.1497039795	-66.3697357178	138.43611145	8.88706588745	-0.188623592257	0.521296918392
-11.0794706345	-65.7755584717	136.88609314	8.94041442871	-0.305258661509	0.548650026321
-10.1552248001	-64.0154266357	132.991043091	8.4777841568	1.60805416107	0.832255125046
-17.4660167694	-61.8504447937	136.272720337	6.51826810837	7.26077318192	1.44637978077
-22.9648284912	-60.5321006775	139.804199219	3.19916653633	14.8296079636	2.10878992081
-23.7521114349	-60.2646713257	139.936080933	0.789788722992	22.2514591217	2.32359814644
-24.5958023071	-59.3134803772	137.704818726	-0.514465391636	28.1129302979	2.70219492912
-22.2485561371	-54.6087188721	126.83354187	-1.26800334454	30.4816150665	2.80461835861
-24.0207767487	-50.8366470337	121.925720215	-1.65379977226	30.7976036072	2.99286389351
-17.2376613617	-41.4425506592	101.910491943	-1.84545040131	31.2786197662	2.9177467823
-15.3978013992	-36.359336853	93.5878219604	-1.62628757954	31.8535289764	2.89351296425
-12.6794366837	-36.4514083862	93.1103439331	-1.23836243153	31.7614650726	2.77865052223
-10.251783371	-34.9246063232	89.3940353394	-1.10637307167	32.231010437	2.85433602333
-10.8780946732	-35.5361671448	90.4048080444	-1.27479994297	32.5366287231	2.75153446198
-11.5588388443	-35.648223877	90.7615280151	-0.858141362667	32.2328224182	2.72206068039
-1.81982111931	-25.0152854919	67.8489837646	-0.513232529163	32.3991165161	2.83766913414
