0.0584025382996	1.03973269463	-0.197584629059	-0.177603244781	1.59816479683	-0.338076472282
0.0574548244476	1.03950786591	-0.196442842484	-0.177206277847	1.59887766838	-0.339454174042
0.0564062595367	1.03997755051	-0.196100711823	-0.176880121231	1.5982260704	-0.339930057526
0.0502514839172	1.03596973419	-0.193298101425	-0.177249908447	1.59424090385	-0.338881611824
0.0437386035919	1.03398323059	-0.194597959518	-0.17795753479	1.58734405041	-0.335622906685
0.0417342185974	1.03510093689	-0.196442604065	-0.178888082504	1.57808315754	-0.330747246742
0.0437247753143	1.03685665131	-0.197407007217	-0.180309772491	1.57359218597	-0.325877904892
0.0430865287781	1.03399062157	-0.199123620987	-0.182160139084	1.57333755493	-0.322818756104
0.0403232574463	1.03148627281	-0.200570464134	-0.185299396515	1.57441425323	-0.320618152618
0.0392127037048	1.03174185753	-0.200297474861	-0.189173221588	1.57623767853	-0.319102048874
0.0387101173401	1.03186535835	-0.198206186295	-0.192232608795	1.5783816576	-0.318338394165
0.0372381210327	1.03244519234	-0.195246338844	-0.194306850433	1.58091700077	-0.317144393921
0.0344145298004	1.03149104118	-0.192153453827	-0.196026325226	1.58299648762	-0.31549346447
0.0429339408875	1.01490497589	-0.169093132019	-0.197774648666	1.58549869061	-0.313160896301
0.0530123710632	1.01129555702	-0.164398193359	-0.198942899704	1.58856391907	-0.311454057693
0.0408515930176	1.01337814331	-0.166414499283	-0.200630664825	1.59231436253	-0.31134223938
0.0317087173462	1.01808071136	-0.174855113029	-0.201089859009	1.59539747238	-0.313736915588
0.0333378314972	1.0270485878	-0.179957985878	-0.198453903198	1.59792947769	-0.317532300949
0.0395174026489	1.02098798752	-0.170960187912	-0.195843696594	1.59824848175	-0.321675777435
