-0.0026524066925	1.00688552856	0.197875142097	-0.170167922974	1.58851313591	0.0318431854248
-0.00334000587463	1.00581479073	0.198078155518	-0.170348644257	1.58824038506	0.032329082489
-0.00355815887451	1.00461101532	0.197633624077	-0.171626329422	1.58585333824	0.0321657657623
-0.008793592453	1.00052976608	0.19465637207	-0.174194097519	1.57767248154	0.0330678224564
-0.0239548683167	0.987064361572	0.180320620537	-0.176831960678	1.5679718256	0.0353484153748
-0.0321655273438	0.98212647438	0.164026021957	-0.17654800415	1.56244051456	0.037548661232
-0.0318946838379	0.982395648956	0.157053470612	-0.174415111542	1.56100797653	0.0392506122589
-0.0242078304291	0.978327512741	0.159964799881	-0.17320394516	1.56035327911	0.0397213697433
-0.0167207717896	0.978905200958	0.168293118477	-0.174693822861	1.55892491341	0.0394594669342
-0.00877451896667	0.981140613556	0.180621147156	-0.176731109619	1.5574272871	0.0383640527725
-0.00194954872131	0.984687566757	0.190592288971	-0.178549766541	1.55674278736	0.0370318889618
0.00463509559631	0.996469259262	0.196359634399	-0.179502248764	1.55659914017	0.0360040664673
0.00257110595703	1.02161478996	0.191326975822	-0.180106163025	1.55697190762	0.0353274345398
-0.0104467868805	1.03692960739	0.173100709915	-0.180933475494	1.55832195282	0.034942150116
-0.0243000984192	1.03550744057	0.151905059814	-0.182132005692	1.5587631464	0.035142660141
-0.0261464118958	1.03427457809	0.137452960014	-0.184250831604	1.55879437923	0.0354731082916
-0.0200099945068	1.03733301163	0.125267028809	-0.186027526855	1.55901765823	0.0360852479935
-0.0112946033478	1.03801465034	0.115924954414	-0.187931060791	1.55892169476	0.0362973213196
7.15255737305e-06	1.039965868	0.112676620483	-0.189881324768	1.55895113945	0.0362153053284
0.0054304599762	1.04475903511	0.109684944153	-0.191167354584	1.55871224403	0.0355892181396
0.0029661655426	1.04258513451	0.10598218441	-0.19206571579	1.55887913704	0.0349626541138
-0.00386571884155	1.04377436638	0.100859761238	-0.192892313004	1.55899703503	0.0344579219818
-0.00865173339844	1.04453396797	0.0987951755524	-0.193244457245	1.55916965008	0.0339938402176
-0.0115058422089	1.05024814606	0.0980904102325	-0.192855834961	1.55985450745	0.0338351726532
-0.0104782581329	1.06168925762	0.10200548172	-0.191462039948	1.56028842926	0.0331683158875
-0.00724911689758	1.07363545895	0.109112381935	-0.189713716507	1.56049835682	0.0325399637222
-0.00904941558838	1.0796713829	0.111512541771	-0.188062906265	1.5609241724	0.0322315692902
-0.0109300613403	1.0890198946	0.109424829483	-0.186937332153	1.56134986877	0.0318925380707
-0.0116872787476	1.10005581379	0.109579205513	-0.185712814331	1.56176137924	0.0309648513794
-0.0165536403656	1.11089348793	0.105689287186	-0.185132980347	1.56262052059	0.0297666788101
-0.0209009647369	1.12285268307	0.103466272354	-0.185106277466	1.5630838871	0.028519153595
-0.0263931751251	1.12871456146	0.10066485405	-0.18575668335	1.56364226341	0.0277231931686
-0.0290405750275	1.13279163837	0.0997544527054	-0.186230897903	1.56398355961	0.0268644094467
-0.0306904315948	1.13349366188	0.099246263504	-0.186533927917	1.56448817253	0.0262711048126
-0.0311281681061	1.12857306004	0.101277351379	-0.186749219894	1.56482720375	0.0259635448456
-0.0287892818451	1.10317564011	0.109792709351	-0.187616825104	1.56501019001	0.0258462429047
-0.0280261039734	1.08183562756	0.11222410202	-0.189990758896	1.56401264668	0.0262528657913
-0.0326159000397	1.08813142776	0.104870557785	-0.194697141647	1.56123363972	0.0255961418152
-0.0343217849731	1.09095740318	0.0991296768188	-0.201267242432	1.55497670174	0.0204684734344
-0.0373320579529	1.09613728523	0.0891982316971	-0.207549571991	1.55218493938	0.0112297534943
-0.0434739589691	1.09715998173	0.0779609680176	-0.214553833008	1.55217635632	0.00223302841187
-0.047553062439	1.09576427937	0.0704419612885	-0.221747398376	1.55094373226	-0.0037807226181
-0.0494101047516	1.09411084652	0.0656840801239	-0.228312969208	1.54865539074	-0.00855934619904
-0.0512094497681	1.09412074089	0.0631729364395	-0.233305692673	1.54670846462	-0.0121219158173
-0.0542988777161	1.09089696407	0.0629785060883	-0.233588695526	1.54382288456	-0.0174555778503
-0.0543849468231	1.08382856846	0.0674114227295	-0.232746601105	1.54433012009	-0.0238001346588
-0.0539002418518	1.09058380127	0.0635056495667	-0.232425928116	1.54723584652	-0.0273756980896
-0.0546777248383	1.09289991856	0.0545060634613	-0.232785701752	1.54703617096	-0.0285632610321
-0.0585372447968	1.08982717991	0.0472383499146	-0.232085704803	1.54534602165	-0.0288021564484
-0.0609674453735	1.0874787569	0.0418341159821	-0.231323480606	1.54515731335	-0.0289695262909
