0.00369024276733	0.974724054337	-0.00189423561096	-0.160601615906	1.59139513969	-0.186458110809
0.00393962860107	0.973479270935	-0.00204503536224	-0.160928726196	1.59092128277	-0.181921839714
0.00324702262878	0.973827838898	-0.00190770626068	-0.161656618118	1.59123921394	-0.178268909454
0.00304532051086	0.975399971008	-0.00181198120117	-0.162196397781	1.59159731865	-0.176223039627
0.00367379188538	0.979157447815	0.000475645065308	-0.16336107254	1.59446537495	-0.174955129623
-0.000324726104736	0.981910467148	0.00165152549744	-0.165169000626	1.60435771942	-0.17445731163
-0.000710248947144	0.98189496994	0.00395536422729	-0.166995286942	1.61228191853	-0.177744865417
-0.000153541564941	0.980910778046	0.0071268081665	-0.166980743408	1.6180973053	-0.182181835175
-7.62939453125e-05	0.980335950851	0.010712146759	-0.165164709091	1.6218559742	-0.188050985336
0.000312805175781	0.981085062027	0.0156774520874	-0.163148880005	1.62447762489	-0.194254875183
0.000635862350464	0.981791734695	0.0200915336609	-0.160449266434	1.62698996067	-0.20320224762
0.000959634780884	0.982855796814	0.0246820449829	-0.157500743866	1.62736320496	-0.214045763016
0.00152111053467	0.986479520798	0.0292904376984	-0.155251741409	1.62655317783	-0.225475549698
0.00230073928833	0.990880966187	0.0327243804932	-0.1531291008	1.62451839447	-0.237874865532
0.00446939468384	0.994415283203	0.0353548526764	-0.151750802994	1.6222730875	-0.24929857254
0.0307307243347	1.00172924995	0.0581934452057	-0.151597499847	1.62110960484	-0.256625533104
0.0798659324646	1.02117204666	0.0632930994034	-0.152007818222	1.62098407745	-0.260833978653
0.0594732761383	1.03045392036	0.0590595006943	-0.152984857559	1.62064635754	-0.262290477753
0.0517706871033	1.01591181755	0.0505998134613	-0.153780460358	1.62069773674	-0.26056599617
0.04017162323	1.00555443764	0.0386016368866	-0.154665231705	1.62064611912	-0.256471276283
0.0283768177032	0.998797893524	0.0303308963776	-0.153558969498	1.62059044838	-0.253025531769
0.0243072509766	1.00013756752	0.0267109870911	-0.152916908264	1.62146782875	-0.251612663269
0.0728304386139	1.02878093719	0.0197086334229	-0.152923583984	1.62273526192	-0.251933813095
0.0774793624878	1.03416204453	0.018140912056	-0.15278840065	1.62344121933	-0.254234075546
0.0651817321777	1.02741408348	0.017669916153	-0.15140414238	1.62322449684	-0.257896065712
0.0548000335693	1.02004647255	0.0112369060516	-0.15044593811	1.62193381786	-0.261302709579
0.0421557426453	1.01986956596	-0.00153267383575	-0.148836612701	1.62093818188	-0.266185522079
0.047670841217	1.02028942108	-0.00510358810425	-0.148462772369	1.62026083469	-0.274736642838
