-0.0754375457764	0.982442617416	-0.176205992699	-0.135543823242	1.58579552174	-0.336085319519
-0.0760471820831	0.98300075531	-0.175870656967	-0.135775089264	1.58522641659	-0.336261987686
-0.0765600204468	0.982132434845	-0.176353216171	-0.13583946228	1.58547079563	-0.336978673935
-0.0758986473083	0.978216171265	-0.174624204636	-0.136567115784	1.58609676361	-0.338083267212
-0.0764455795288	0.97517323494	-0.172886133194	-0.141703128815	1.58770108223	-0.339854359627
-0.0656576156616	0.976141691208	-0.167595863342	-0.151276350021	1.59008264542	-0.342427015305
-0.0432603359222	0.975000858307	-0.163044095039	-0.161075353622	1.59318101406	-0.346667528152
-0.027229309082	0.966786623001	-0.166999340057	-0.167672872543	1.59457814693	-0.351011753082
-0.0184931755066	0.958020448685	-0.173732280731	-0.167859315872	1.59555137157	-0.355052113533
-0.0117177963257	0.949509143829	-0.176571249962	-0.161659002304	1.59765553474	-0.358581066132
-0.00890326499939	0.946086168289	-0.175367355347	-0.150798797607	1.59836649895	-0.361268997192
-0.00716805458069	0.948549032211	-0.171945810318	-0.139379024506	1.59832334518	-0.362181186676
-0.00481057167053	0.950931310654	-0.169889211655	-0.128068447113	1.59669828415	-0.361358165741
-0.000519752502441	0.950648546219	-0.168321371078	-0.117053031921	1.59539794922	-0.361065268517
0.00344586372375	0.949546098709	-0.166730642319	-0.109460115433	1.59448122978	-0.363593459129
0.00643801689148	0.951758861542	-0.164718270302	-0.101902961731	1.5931507349	-0.367488384247
0.00638294219971	0.960154056549	-0.167855262756	-0.0928328037262	1.59255981445	-0.370757818222
-0.00603485107422	0.960626363754	-0.192966222763	-0.0845384597778	1.59287631512	-0.370703220367
0.00242209434509	0.927607536316	-0.21385383606	-0.0791065692902	1.59240603447	-0.368071317673
0.0261957645416	0.912340641022	-0.217028021812	-0.0764539241791	1.59235012531	-0.364072203636
0.0493788719177	0.909523963928	-0.209911584854	-0.0751779079437	1.59251666069	-0.359645724297
0.0653574466705	0.909963607788	-0.203029870987	-0.0744605064392	1.59188175201	-0.355469465256
0.0717206001282	0.911927938461	-0.199024558067	-0.0730826854706	1.59138035774	-0.352648615837
0.0710387229919	0.913136005402	-0.197818994522	-0.0722501277924	1.59158957005	-0.351964354515
0.0713591575623	0.91464471817	-0.196007728577	-0.0723242759705	1.59154653549	-0.351758480072
0.0694093704224	0.916071653366	-0.195233345032	-0.0723657608032	1.59111166	-0.351774811745
0.0657074451447	0.914903402328	-0.196356773376	-0.0725152492523	1.59091281891	-0.351400375366
0.0654585361481	0.929136753082	-0.196409463882	-0.0726878643036	1.59081017971	-0.350313901901
0.0693922042847	0.973799467087	-0.205945134163	-0.0721521377563	1.59034025669	-0.348390936852
0.0747711658478	0.960784196854	-0.199790477753	-0.0706057548523	1.58984649181	-0.346749782562
0.0709316730499	0.946618080139	-0.198433995247	-0.0701146125793	1.58999609947	-0.345690250397
0.0628485679626	0.94721031189	-0.203712463379	-0.0698862075806	1.59003353119	-0.344728827477
0.0529601573944	0.951817989349	-0.210945606232	-0.0707492828369	1.59004497528	-0.344225764275
0.0444250106812	0.963174343109	-0.219712972641	-0.0731039047241	1.59020042419	-0.343663692474
0.0416147708893	0.953237295151	-0.21605682373	-0.0755062103271	1.59016215801	-0.343672513962
0.0474631786346	0.929384708405	-0.203752279282	-0.0766997337341	1.58991229534	-0.342877149582
0.0642340183258	0.938151359558	-0.190874814987	-0.0772631168365	1.59049320221	-0.341860294342
0.074494600296	0.945306301117	-0.181915640831	-0.0781061649323	1.59053051472	-0.340970039368
0.0756871700287	0.947764635086	-0.17996931076	-0.0785665512085	1.59032261372	-0.339874863625
0.0826151371002	0.946560621262	-0.175150513649	-0.0791118144989	1.5900747776	-0.338540792465
0.084742307663	0.948241472244	-0.174270391464	-0.0800335407257	1.59035372734	-0.337352156639
0.0824637413025	0.949119567871	-0.173515081406	-0.0803234577179	1.59027969837	-0.336005449295
0.0871376991272	0.945709705353	-0.16788828373	-0.0803835391998	1.59010231495	-0.334660053253
0.096254825592	0.935177564621	-0.159955263138	-0.0810391902924	1.59019517899	-0.333472967148
0.081729888916	0.946423053741	-0.164312839508	-0.081787109375	1.59028875828	-0.332313299179
0.06951379776	0.944476127625	-0.170391798019	-0.0824632644653	1.59001600742	-0.331626176834
0.071854352951	0.942956924438	-0.172034978867	-0.0830907821655	1.59044671059	-0.331665039062
0.0793437957764	0.941222667694	-0.170844078064	-0.0829870700836	1.59051823616	-0.331553459167
0.0808908939362	0.941002368927	-0.171236634254	-0.0824217796326	1.59050798416	-0.331483364105
0.0808851718903	0.942337274551	-0.171177268028	-0.0821099281311	1.59082973003	-0.331229448318
0.0801784992218	0.943273067474	-0.171295166016	-0.0821056365967	1.59097874165	-0.330791711807
0.0751805305481	0.946270465851	-0.173697710037	-0.0804083347321	1.5926296711	-0.331370353699
0.0691201686859	0.947322368622	-0.177777290344	-0.0781981945038	1.59520709515	-0.33271241188
0.0651888847351	0.947608232498	-0.178243398666	-0.0785613059998	1.59236717224	-0.332971096039
0.0620226860046	0.947973251343	-0.175824761391	-0.077490568161	1.58758878708	-0.331914782524
0.0598909854889	0.949300289154	-0.175252079964	-0.0733509063721	1.58647024632	-0.330902457237
0.0557234287262	0.950734376907	-0.179164409637	-0.0685124397278	1.58716499805	-0.330693483353
0.0504624843597	0.952698230743	-0.187470197678	-0.0655446052551	1.58851957321	-0.331558704376
0.0512170791626	0.951251745224	-0.192494988441	-0.0635416507721	1.59006714821	-0.333099007607
0.0525290966034	0.947910308838	-0.196183443069	-0.0616018772125	1.58987796307	-0.333281517029
0.0545878410339	0.946482181549	-0.199511289597	-0.0599229335785	1.5891238451	-0.333007335663
0.0545997619629	0.946401119232	-0.201042294502	-0.0593752861023	1.58832299709	-0.332260012627
0.0571191310883	0.948291063309	-0.199621915817	-0.0596833229065	1.58810067177	-0.331845760345
0.0607857704163	0.952633857727	-0.196659326553	-0.0604929924011	1.58768713474	-0.331501722336
0.0582628250122	0.951635599136	-0.198446750641	-0.0619151592255	1.5876480341	-0.331324458122
0.0519208908081	0.947974920273	-0.20446896553	-0.0640640258789	1.58776378632	-0.331401348114
0.0467576980591	0.940607309341	-0.211585760117	-0.0661273002625	1.58813714981	-0.33166718483
0.0443849563599	0.935481309891	-0.217659711838	-0.0681221485138	1.58806467056	-0.331711530685
0.045369386673	0.934816837311	-0.220600366592	-0.0692427158356	1.58785748482	-0.33131313324
0.0493104457855	0.932468414307	-0.221158742905	-0.0700588226318	1.58804535866	-0.33091378212
0.0494303703308	0.932607650757	-0.223171114922	-0.0707817077637	1.5881203413	-0.329797625542
0.0489387512207	0.934185266495	-0.222474932671	-0.0712661743164	1.58786535263	-0.328229427338
0.0474197864532	0.936440467834	-0.222791433334	-0.0721509456635	1.58793973923	-0.327127814293
0.045654296875	0.940937042236	-0.223672866821	-0.0738019943237	1.58802878857	-0.326151132584
0.0429425239563	0.944230556488	-0.22584438324	-0.075617313385	1.58799302578	-0.325336813927
0.0415503978729	0.94488286972	-0.225452899933	-0.0774612426758	1.58833479881	-0.324735999107
0.0431370735168	0.943111419678	-0.223838329315	-0.0797305107117	1.58841085434	-0.324447393417
0.0388998985291	0.945808649063	-0.233529090881	-0.0815877914429	1.58854424953	-0.324298143387
0.0357084274292	0.946098089218	-0.242268800735	-0.0832319259644	1.58886384964	-0.324309945107
0.0376574993134	0.934534549713	-0.238692522049	-0.0846748352051	1.58935916424	-0.324424505234
0.0378158092499	0.924109697342	-0.237127065659	-0.0861871242523	1.5897346735	-0.324409127235
0.0356116294861	0.925943136215	-0.238080859184	-0.0869960784912	1.58962380886	-0.324617624283
0.0362658500671	0.926476716995	-0.235949993134	-0.0870907306671	1.5899285078	-0.324798345566
0.04017329216	0.926298856735	-0.230880498886	-0.0862720012665	1.58997511864	-0.324432611465
0.047595500946	0.929286241531	-0.223449707031	-0.08416223526	1.59042930603	-0.324045062065
0.0520207881927	0.936272621155	-0.222104907036	-0.0796666145325	1.59125995636	-0.323375463486
0.0511801242828	0.937248468399	-0.226145267487	-0.0772771835327	1.59060847759	-0.322081565857
