-10.9642601013	0.687416136265	47.9022636414	-7.57065629959	2.91771411896	-35.3295326233
-11.3026409149	0.721631705761	47.8989067078	-7.50705432892	2.926674366	-35.1734352112
-11.3997240067	0.815113127232	47.7484054565	-7.46489667892	3.25389814377	-34.705532074
-14.5936689377	1.08996379375	44.7215270996	-5.37378787994	3.10739564896	-32.3308525085
-23.5180721283	-0.884982168674	43.8314437866	-0.0860882773995	2.02933883667	-25.3516941071
-28.9033641815	-4.3108549118	47.2699394226	5.14403915405	0.452914088964	-18.6672306061
-23.520898819	-3.08751726151	36.9706687927	7.93955564499	-1.59200274944	-14.0228786469
-21.2024250031	-3.14077496529	30.044752121	9.32317638397	-2.93511104584	-11.1282510757
-16.9890441895	-5.48208713531	29.4307746887	10.3156147003	-3.87315607071	-8.26030158997
-13.3922042847	-8.83159923553	33.5859680176	11.1948900223	-4.62898349762	-4.75297403336
-9.45708560944	-11.5742015839	33.6291847229	11.5310716629	-4.42905187607	-0.950269043446
-8.55643081665	-13.6322908401	33.2680130005	11.756269455	-4.0687494278	2.39666986465
-6.60809278488	-14.8632717133	32.989440918	11.9827880859	-3.38181352615	5.26738166809
-5.20628023148	-15.8107204437	33.2026023865	12.2480506897	-2.53391742706	7.86346769333
-4.02843761444	-16.6874485016	32.9389381409	12.260216713	-1.57645082474	10.0354728699
-3.35351538658	-17.0574264526	32.9151954651	11.9048423767	-1.7432461977	10.5315942764
-3.30884337425	-17.5578937531	32.8900756836	11.5644207001	-2.06030988693	9.51311683655
-4.18707752228	-18.6325492859	33.1746368408	11.5447940826	-2.42114138603	7.54972314835
-4.64755105972	-19.7761230469	33.37733078	11.811164856	-3.35133528709	4.57855796814
-5.52250099182	-20.5943393707	33.8601760864	12.8632555008	-4.33104562759	0.48828586936
-6.18991613388	-21.7679100037	37.7771835327	13.9422082901	-5.82808637619	-2.1329331398
4.98990917206	-13.5841274261	17.3542022705	14.8182268143	-7.05706453323	-2.91935253143
11.5318145752	-8.50897121429	7.04155683517	14.9651689529	-8.37148475647	-3.72966170311
7.62153482437	-15.520277977	6.95718717575	15.0209703445	-9.72516727448	-4.40332269669
-0.910311460495	-22.5846748352	14.7658071518	14.968208313	-9.96117973328	-5.30570220947
-3.73011136055	-25.4986743927	25.4504089355	15.4425983429	-9.57661056519	-6.59735393524
1.40167105198	-27.7164745331	26.6855049133	16.2818698883	-9.73063755035	-7.50344514847
9.20489025116	-23.8339557648	19.959810257	16.2624664307	-9.47867012024	-7.74573898315
13.1987752914	-21.7169094086	13.1397247314	15.6975812912	-9.20909404755	-7.67448711395
10.4355134964	-25.4712963104	22.4157600403	15.2674589157	-8.59799957275	-7.54140806198
12.2504787445	-24.8373279572	23.0755882263	14.6184015274	-7.46211910248	-6.94121408463
11.8711557388	-24.8584785461	25.1009101868	14.5193061829	-6.79184532166	-6.44726467133
12.403380394	-24.1187744141	24.4468021393	14.6383132935	-6.37134933472	-6.27458524704
14.1045217514	-21.8955612183	22.1629886627	14.6788358688	-6.94847202301	-6.17745065689
15.919921875	-19.9966220856	20.3187675476	14.7337398529	-9.61596012115	-8.0651922226
15.534942627	-18.8821773529	21.7969207764	13.975268364	-13.0350894928	-13.6469841003
12.3897943497	-17.7867984772	21.2912693024	11.9715042114	-14.3581695557	-16.5101566315
5.80712175369	-19.7992687225	20.5018749237	10.591424942	-13.2348890305	-14.9888114929
-0.609979450703	-20.1661567688	21.3944644928	9.79085922241	-10.3338756561	-10.0121231079
-1.40178155899	-20.6074466705	22.5756835938	10.0781993866	-7.99875545502	-6.79464626312
-0.452694922686	-21.2162437439	24.7910346985	11.2369813919	-6.95963191986	-6.64643096924
1.49249792099	-21.470621109	23.8468570709	12.60820961	-6.3394780159	-8.07429599762
2.91528248787	-20.8358840942	14.977221489	13.0495128632	-6.42369842529	-9.07894325256
4.0776925087	-17.6653842926	2.04625916481	12.4782943726	-7.39858818054	-9.21002864838
-2.77480840683	-20.8605213165	11.0090818405	11.8021917343	-8.03589057922	-9.20881080627
-5.85407018661	-22.294511795	14.1593866348	11.4503469467	-7.83008384705	-8.98632621765
-6.57487249374	-25.0248394012	20.9473361969	11.5089225769	-7.46293783188	-8.89980316162
-1.88549757004	-24.9834499359	22.4310512543	11.8192052841	-7.0788807869	-9.08661174774
0.720803618431	-23.2288837433	22.5791091919	11.7497053146	-6.77073335648	-9.04242324829
2.22510719299	-23.0198993683	23.4961795807	11.376121521	-6.80888414383	-8.9286441803
3.35245800018	-23.2179203033	25.9981803894	11.1369504929	-6.70864343643	-9.20734596252
4.20383691788	-21.3846378326	27.4347496033	10.5840587616	-6.51352071762	-11.2343387604
3.34653496742	-21.9684772491	23.1085796356	9.89631748199	-6.627348423	-14.1992511749
-0.408560544252	-23.3717575073	27.0056762695	10.3192873001	-7.08164834976	-13.88093853
-1.85292804241	-23.5242080688	27.4883937836	10.6915073395	-7.96160078049	-13.8093624115
-3.85739469528	-24.6512413025	29.5502052307	10.9401330948	-8.63249778748	-14.6402044296
-1.14042794704	-23.9581756592	25.3016357422	11.46646595	-9.25641441345	-16.6826190948
-0.594513952732	-23.8675842285	21.9068660736	12.1465072632	-9.26016426086	-18.6137447357
-1.17968940735	-24.6026477814	25.446264267	12.4517555237	-8.99675559998	-18.9622440338
-1.32728421688	-25.3528518677	28.5543346405	12.5566701889	-8.91580963135	-19.3176136017
0.575828313828	-24.8596763611	28.4567756653	12.7768440247	-8.87441253662	-19.6558036804
4.03809928894	-22.2440280914	18.2020359039	13.0467672348	-8.78706264496	-19.8692054749
3.2208750248	-22.4309463501	16.8491420746	13.0642633438	-8.66181278229	-19.7320156097
-1.60389518738	-24.2726993561	21.7681045532	12.8746089935	-8.50800418854	-19.3644924164
-2.08649086952	-26.017124176	29.1732826233	12.8283786774	-8.34805870056	-19.047082901
-0.95089161396	-26.5676937103	31.8369903564	13.1879072189	-7.91629123688	-18.8435325623
2.56205415726	-25.6364116669	24.8935852051	13.3078613281	-7.82259750366	-18.9245986938
3.30203866959	-25.1338558197	19.3474693298	13.4021720886	-7.86536026001	-18.8326053619
