0.0	-0.0	135.53477478	69.8537826538	86.4887771606	2.62432479858
0.0	-0.0	135.226135254	69.7107162476	87.0449371338	2.28241705894
0.0	-0.0	135.030563354	69.1656112671	87.8341903687	2.66529035568
0.0	-0.0	135.50453186	68.5615463257	87.6866836548	2.71040940285
0.0	-0.0	130.072494507	63.5860824585	87.5259246826	4.35232305527
0.0	-0.0	117.261276245	55.362701416	87.4280853271	7.64231348038
0.0	-0.0	113.520042419	51.3505477905	88.7930221558	9.3525094986
0.0	-0.0	107.952964783	-128.727584839	89.3431243896	-169.982696533
0.0	-0.0	107.913864136	-128.062057495	88.7541503906	-170.283905029
0.0	-0.0	108.047973633	-128.670852661	88.908821106	-169.92048645
0.0	-0.0	102.749328613	-129.865325928	89.6854629517	-169.109359741
0.0	-0.0	98.1496582031	-129.763473511	89.7691650391	-169.190368652
