-6.26919126511	-3.82021021843	49.7073402405	1.72663128376	4.36269378662	-33.6206016541
-6.05104207993	-3.71772933006	49.5862121582	1.82129526138	4.27962636948	-33.6180152893
-6.28961992264	-3.56271481514	49.624004364	1.72251653671	4.62750339508	-33.3703727722
-7.47015428543	-2.95968651772	49.6707458496	1.17975187302	6.5792593956	-31.8496837616
-7.3992524147	-3.55473542213	49.2004470825	1.74924719334	10.7564210892	-29.1706123352
-6.4921374321	-4.05066204071	48.0493049622	3.64418745041	15.8950691223	-26.3874149323
-4.96589231491	-4.24640512466	45.6909637451	5.54009199142	19.700843811	-24.2417488098
-4.43751716614	-5.46335411072	43.7983016968	6.50998210907	21.6306781769	-22.6211013794
-2.7029504776	-9.37955474854	38.0858306885	6.58143520355	21.24269104	-20.212480545
-3.96257281303	-11.5388450623	37.7997360229	6.1730055809	19.5322875977	-16.537311554
-6.35908031464	-11.7877464294	40.6675605774	6.11513805389	17.3507270813	-12.3432664871
-4.49242258072	-11.4384059906	38.9004211426	6.21316862106	14.8333978653	-8.61550807953
-1.95304846764	-12.2875556946	36.5365715027	5.69928407669	12.0921878815	-5.66489601135
-0.526401817799	-12.2511606216	35.8604049683	5.19998168945	10.4140815735	-3.84675431252
-0.859702169895	-12.0508365631	36.7584037781	5.23652362823	10.3468399048	-3.2455072403
-3.54131412506	-11.5245780945	38.9255523682	5.60224628448	11.9620599747	-3.94087481499
-4.74199962616	-10.8213100433	39.1574745178	6.03696870804	12.9486379623	-5.27920246124
-5.25423717499	-10.5004081726	38.48595047	5.98722553253	13.4289216995	-6.32855367661
-7.12243175507	-10.5074281693	38.846988678	5.38598680496	13.0101108551	-6.37202501297
-9.37397480011	-9.00057697296	39.3417663574	4.62758111954	12.8100366592	-6.2441034317
-11.6661176682	1.438560009	35.1245994568	3.86378979683	13.4472160339	-6.03234529495
-16.5991172791	16.1232051849	32.9111595154	3.73458743095	14.8284158707	-6.02954769135
-19.4961490631	21.9647922516	33.7262687683	4.14494609833	16.7251968384	-6.03094053268
-20.3494815826	24.3496170044	37.4967803955	5.03881883621	19.1520633698	-6.06419849396
-18.8894081116	24.7840595245	38.5940666199	6.73015737534	20.9943218231	-6.14877748489
-11.8556098938	19.1063480377	44.6428756714	8.23210906982	21.956193924	-6.50345134735
-8.29458427429	12.4775409698	34.7201728821	8.65890407562	22.5743579865	-6.85915088654
-7.86146116257	8.10760688782	27.9399833679	8.5888633728	22.8587665558	-7.26732540131
-8.6050825119	4.39507293701	24.6258792877	8.76365852356	23.1747074127	-7.55978250504
-10.378950119	0.575751781464	22.2272949219	9.06080627441	23.3868713379	-7.97579956055
-11.6397285461	-0.504775941372	21.1268978119	9.39439582825	23.4714107513	-8.17100429535
-12.4124746323	-0.351794809103	18.6328868866	9.40922260284	23.2302074432	-8.31212615967
-13.7678565979	1.26150691509	15.5938587189	9.43936824799	23.0121059418	-8.67676067352
-15.8789958954	4.04325914383	13.7793922424	9.6873664856	22.9809417725	-8.74350452423
-19.0662689209	6.83527612686	12.091550827	9.95184612274	23.0047473907	-8.78511428833
-19.6255474091	7.98881626129	10.6380910873	10.3079843521	22.9704666138	-8.86952781677
-18.8538970947	8.01042079926	9.16170787811	10.6440896988	22.9887123108	-8.99750804901
-17.5915927887	6.88883495331	7.09833288193	10.7613515854	23.29413414	-9.19291305542
-17.2760868073	5.01368188858	4.59856176376	10.9760446548	23.5035362244	-9.38443183899
-18.4652099609	3.18193984032	2.72501444817	11.4225721359	23.7375774384	-9.41713142395
-19.0654201508	1.78140759468	3.17557120323	11.6948833466	23.8443775177	-9.45982074738
-21.1698513031	0.496930241585	3.24758219719	11.9391145706	23.7906894684	-9.51689910889
-23.1168346405	1.6495898962	8.73841571808	12.1686401367	23.7856674194	-9.59560775757
-22.2511177063	10.7868251801	24.4232711792	12.4841108322	23.6812229156	-9.6722612381
-16.7331924438	15.6335840225	27.254442215	12.7340393066	23.8757705688	-9.72132587433
-14.908156395	18.5511837006	28.65990448	12.6898002625	24.7054901123	-9.71535205841
-14.0436906815	18.5776901245	28.8374061584	12.8372564316	27.2210273743	-10.1448402405
-14.0061883926	18.6396484375	28.7759456635	13.4243488312	31.8068122864	-15.4110956192
-14.4614868164	18.6699962616	28.3276157379	14.2866373062	35.6088256836	-22.0474262238
-11.9296665192	17.513168335	25.0066833496	13.7578029633	37.7931022644	-26.0643024445
-8.63694572449	15.1589794159	21.3804626465	12.6214532852	37.8254928589	-29.2095298767
-8.17052650452	14.1014175415	23.4423961639	11.6956291199	36.5396347046	-32.6250572205
-8.65723705292	14.1738147736	23.0931339264	11.2318115234	34.8032608032	-34.0763702393
-8.9086561203	14.3182630539	22.8451309204	11.3469209671	34.0492286682	-34.5468635559
-12.5405521393	13.92258358	25.871931076	11.3817796707	34.0436477661	-34.7485809326
-17.926240921	10.7780771255	32.7942657471	11.6370506287	33.510383606	-34.0231437683
-21.7363452911	10.1735973358	41.3652381897	11.7022829056	32.7753868103	-31.9754066467
-17.6347103119	14.7382135391	46.1502685547	12.2979726791	31.5503864288	-29.1745071411
-4.81404399872	19.7174263	37.0409736633	13.6448001862	30.519449234	-25.7604618073
-0.690577208996	22.1301937103	25.5120029449	14.3767700195	30.6618251801	-22.9004268646
0.447975277901	23.9363021851	21.7989292145	15.3278932571	32.8666572571	-21.630399704
0.472861588001	23.6361885071	22.3942623138	16.2269515991	35.2335166931	-22.7095317841
0.854516863823	22.8026161194	22.4367733002	17.0156059265	36.5833015442	-24.0661354065
0.518717765808	22.6056499481	21.5628814697	17.4317760468	36.7426071167	-24.6311130524
0.196439042687	22.5729866028	21.2588424683	17.4716491699	36.9334449768	-24.7738437653
0.208269879222	21.9829883575	23.1505088806	17.2672386169	37.2831573486	-24.9833240509
0.16211335361	19.6179199219	20.5702342987	17.0299797058	37.3620872498	-25.0749931335
-0.803282976151	19.9562892914	18.733297348	16.6030235291	37.3074302673	-25.6300888062
-3.43549108505	19.8577270508	27.0023937225	16.2450389862	37.6237602234	-25.7561607361
-4.19932317734	20.7414779663	25.9785823822	14.8642110825	38.6008110046	-26.2480678558
-5.67688179016	21.468547821	24.6628570557	14.0526571274	39.7951011658	-27.8160362244
-5.16792488098	21.8285522461	22.2110328674	13.3891048431	40.9306564331	-31.0009117126
-2.87623977661	21.9436454773	17.3836555481	13.0480041504	40.9624519348	-34.9682426453
-5.63557338715	18.55260849	24.8980789185	13.4957361221	40.0073356628	-33.393913269
-9.20637512207	17.7395610809	36.470035553	12.8342733383	36.3093566895	-29.0323123932
-12.1055660248	18.4585895538	39.6554679871	12.405374527	32.7527923584	-25.3732700348
-13.5456790924	19.6584358215	39.4210205078	12.9416027069	31.9197788239	-24.5360870361
-14.8512029648	20.4579639435	37.8923034668	13.458073616	32.0019302368	-24.9835987091
-14.2593545914	21.1046009064	31.4705257416	13.7833433151	31.9341602325	-25.566860199
-10.3149356842	23.0478153229	23.5201854706	14.363360405	32.0792121887	-25.937166214
-6.69897699356	23.6369056702	17.019361496	14.7410793304	32.2279396057	-26.4239330292
-6.29260444641	23.4742622375	16.2359237671	14.9221744537	32.4454879761	-26.653553009
-6.91781282425	23.4453048706	15.8196344376	14.8726005554	32.5678520203	-26.8076972961
-7.58192300797	23.347038269	15.2285013199	14.8395462036	32.5889968872	-27.1538658142
-7.49049949646	22.6090602875	17.9128952026	14.8619155884	32.7061080933	-27.303144455
-9.44225692749	22.61195755	30.9988307953	14.8113031387	32.7372970581	-27.5006160736
-9.509516716	22.7839622498	31.2924499512	14.9022054672	32.6426544189	-27.4902591705
-8.58707046509	25.059879303	36.4765625	14.9564914703	32.7339401245	-27.6039943695
-8.32392978668	26.9565601349	36.2541809082	14.9908790588	32.7104415894	-27.6830463409
-5.80157423019	29.2635116577	36.7720298767	14.9867515564	32.7132797241	-27.7484493256
-2.9721724987	31.5570678711	33.1790885925	14.856136322	32.8209381104	-27.9259681702
0.986808717251	32.433216095	22.0403079987	15.0660200119	32.7482185364	-27.9445381165
3.71897912025	31.980556488	15.2947044373	14.9922351837	33.0008354187	-28.1089916229
3.69721508026	31.7418136597	15.6661911011	15.2768125534	33.0924949646	-28.0596523285
-0.606023788452	31.1753959656	30.7999916077	15.0731372833	33.1643676758	-28.158405304
-1.89747393131	29.8069782257	28.8159236908	15.0039901733	33.1950531006	-28.1783618927
-3.26304125786	26.1322574615	29.4637298584	15.1367883682	33.2193527222	-28.2829589844
-6.12020254135	18.5914421082	24.2680225372	15.0111503601	33.2709197998	-28.3146209717
-6.0239443779	18.0245952606	22.7247200012	14.966588974	33.3055458069	-28.3829803467
-6.13559436798	18.7806510925	20.5841751099	15.0178318024	33.2548141479	-28.41938591
-5.12233066559	19.8487949371	16.1666717529	14.8780145645	33.376701355	-28.4815711975
-4.66916322708	22.2262744904	12.3624238968	15.0221147537	33.2596664429	-28.4335079193
-4.23536586761	20.4414405823	18.2784252167	15.0331296921	33.2495689392	-28.4152698517
-6.46003484726	24.2574653625	28.5181331635	15.1072940826	33.2754859924	-28.4375629425
-4.17775154114	29.3983039856	27.6893081665	15.2927350998	33.0988845825	-28.4622936249
-3.72275304794	32.5348358154	28.0571632385	15.197716713	33.1378898621	-28.4809875488
-3.11534023285	33.7478027344	29.4663791656	15.2534656525	33.0895195007	-28.4789104462
-1.42201304436	35.5935935974	30.4789714813	15.6391010284	33.0777053833	-28.4172077179
0.382926881313	36.5317192078	30.8841285706	15.557882309	32.9010391235	-28.4391536713
2.93809700012	38.923614502	31.7496757507	15.4274644852	32.8669013977	-28.4316196442
6.19205570221	42.9331588745	33.6125526428	15.4598913193	32.5933418274	-28.406288147
9.28582286835	46.4999237061	34.7411575317	15.2629814148	32.7775726318	-28.3398189545
10.2372159958	47.9173622131	35.8768501282	15.3363752365	32.8016891479	-28.1732234955
9.09383487701	44.8097267151	34.0623855591	15.0953712463	32.8083496094	-28.1211528778
4.34111738205	31.5467796326	24.7485713959	15.2118358612	33.0184402466	-28.1457481384
1.01384520531	23.1962528229	20.3790721893	15.4996213913	33.1027336121	-29.131067276
-1.68775653839	20.013502121	20.3939533234	13.0701036453	33.3579788208	-33.8176612854
-3.40767669678	18.0828552246	20.5296573639	11.8941354752	36.028881073	-35.4961700439
-3.87317252159	16.9217376709	20.8512897491	11.9233818054	37.9680671692	-36.119468689
-4.98438644409	17.7483196259	22.3235015869	10.6191749573	37.497795105	-37.2951927185
-5.52503490448	17.5823173523	23.93060112	10.0560998917	35.9027633667	-35.5704154968
-6.14491510391	17.0642910004	23.6053409576	11.8353147507	32.463432312	-31.6337795258
-6.21313238144	16.8304290771	23.1387825012	14.8791999817	26.6780033112	-26.2525463104
-7.15390729904	16.8262653351	22.6417179108	16.6535263062	21.2907047272	-22.9235210419
-8.0998544693	16.8989696503	22.1221828461	18.3847389221	17.3004207611	-21.2569198608
-8.03888034821	16.9474925995	22.602640152	20.3776931763	15.717549324	-20.6801662445
-8.25186347961	16.2320594788	23.0132713318	21.841550827	15.8681459427	-20.4670505524
-6.67796707153	15.3597679138	18.1326446533	21.5997314453	19.8021507263	-21.3913707733
-7.50945806503	14.1457185745	18.2885112762	22.3676891327	24.6963329315	-21.3739185333
-7.49797058105	15.1171112061	17.8928890228	23.0135993958	28.311662674	-21.0365009308
-6.82800912857	20.4903144836	19.7305755615	22.139881134	30.8650569916	-21.7851524353
-6.50011634827	23.2057609558	23.0824642181	20.9382648468	33.2170639038	-23.0328807831
-7.15910434723	23.0029468536	22.0089187622	20.0436210632	35.3356018066	-23.4854888916
-7.2743024826	22.7821140289	21.2452869415	19.320438385	36.6891288757	-24.0529747009
-7.07860994339	22.3217754364	20.6068000793	17.8562068939	36.8550872803	-25.1970081329
-7.09507894516	21.8500270844	20.3234443665	17.098361969	36.4484786987	-25.6597862244
-6.45232772827	19.7058010101	22.4147415161	17.3542461395	34.0554504395	-24.6592845917
-7.66193199158	17.3520908356	23.6610813141	17.2863540649	30.1997032166	-23.6348800659
-8.02202224731	17.6799793243	24.8569355011	17.7555179596	27.5703277588	-22.9029483795
-8.18290138245	17.2174777985	24.3604488373	18.2329025269	27.1294364929	-22.6335372925
-8.52077960968	17.0119857788	24.1000156403	18.2548046112	27.87799263	-22.7893466949
-9.5841627121	15.5893354416	22.4038715363	18.2938308716	29.0315418243	-22.9410018921
-6.20748090744	22.6355400085	21.8077507019	18.4325351715	30.0386333466	-23.0923728943
-5.87271738052	28.2809715271	24.3132362366	18.4635448456	30.3697471619	-23.3370418549
-5.16760778427	29.3296070099	24.757226944	18.2095279694	30.6382026672	-23.4469909668
-5.17191028595	29.1472072601	24.3940296173	18.3193874359	31.0580196381	-23.5105381012
-5.21243810654	29.1131649017	24.6085987091	18.4182472229	31.2968235016	-23.811542511
-5.34582948685	28.4930152893	24.8946723938	18.6050758362	31.6659259796	-24.0757083893
-5.06643486023	27.9213924408	25.3654880524	19.3262310028	32.0838737488	-24.5742073059
-5.09083509445	29.2204055786	25.1392116547	20.7311649323	32.8052177429	-26.4721870422
-4.99765110016	28.3669242859	24.8360767365	21.8602561951	33.8203773499	-27.4360580444
-4.51023483276	27.602897644	24.5019245148	23.0464839935	34.5719299316	-27.7543411255
-4.31924390793	27.1000785828	23.2605247498	23.0246562958	34.6747398376	-28.0754394531
-3.587890625	26.5478477478	25.1444282532	21.9217643738	33.9734268188	-27.9526405334
-4.16907501221	28.0555496216	31.6704406738	20.2387313843	33.0648155212	-27.6412525177
-5.50005197525	31.8406410217	41.1994628906	19.5965461731	32.6703834534	-27.3669433594
-4.2837138176	32.8775138855	40.0562171936	20.2266731262	32.6146240234	-27.1200466156
-2.2496278286	30.4397335052	29.0357456207	20.1681365967	32.7802619934	-27.0010929108
-0.259427726269	29.6388549805	26.0435581207	19.9004821777	32.9438781738	-26.8504047394
0.211802452803	29.2585029602	24.250787735	19.7110385895	33.066444397	-26.8305892944
-0.361832618713	27.6078701019	19.5122623444	19.5229263306	33.1701545715	-26.8651161194
-0.685933947563	26.7278175354	16.7434768677	19.331817627	33.114566803	-26.9707660675
-1.76622319221	27.7883758545	22.989774704	19.3044147491	33.3015213013	-27.0712928772
-2.23030543327	27.6001853943	22.8340339661	19.3959388733	33.2942466736	-27.1545219421
-3.18301653862	27.4049911499	21.7400226593	19.3074913025	33.2307701111	-27.1825714111
-5.24298715591	27.1653022766	35.1292991638	19.0972690582	32.8622093201	-27.0513305664
-6.92212486267	27.267621994	38.6038246155	19.0314903259	32.7450180054	-27.1732311249
-5.65942811966	26.2274284363	37.3544692993	19.4674892426	32.8220024109	-27.2890758514
-0.365997195244	24.7308502197	23.0739173889	19.4920120239	32.6420593262	-27.3697490692
-1.11944210529	26.8001995087	23.9018993378	19.3240871429	32.7294692993	-27.3932952881
-0.73123973608	28.053899765	25.3068351746	19.5054340363	32.7296905518	-27.3645896912
-1.29448401928	27.4647388458	22.97697258	19.4673728943	32.6386566162	-27.4007453918
-2.97761178017	26.6042537689	20.8008785248	19.3769264221	32.5697975159	-27.2366886139
-4.56914806366	27.2749080658	20.5174293518	19.5233955383	32.5510253906	-27.3083972931
-4.79642629623	27.273733139	17.6099395752	19.5585231781	32.5288619995	-27.6106777191
-3.62616205215	26.8868637085	13.5522918701	19.4638652802	32.5065116882	-27.7903194427
-3.36308073997	28.5335140228	20.9781246185	19.5241527557	32.3668174744	-27.7137470245
-4.27367639542	30.6908569336	34.4503211975	19.6539745331	32.1616287231	-27.656583786
-3.53365039825	30.0572738647	36.4896278381	19.8528289795	32.1006546021	-27.4656639099
-3.85110783577	30.1220359802	43.1628417969	19.7125797272	31.9432277679	-27.1851882935
-4.40978240967	29.2479820251	43.0229911804	19.6270809174	31.661611557	-26.9472732544
-1.64049589634	26.5540046692	30.7352981567	19.7595481873	31.5130081177	-26.5996017456
-2.18781924248	23.3555049896	16.8496627808	20.0225467682	31.3513584137	-26.2377490997
-1.81861519814	22.4703998566	9.40810871124	20.3056945801	31.2534561157	-26.030960083
-1.9264998436	23.2505149841	12.3291330338	20.289768219	31.1707630157	-25.8383750916
-2.20031785965	23.3980751038	15.8607559204	20.3862056732	30.7329559326	-25.4355983734
-3.22442865372	21.3653697968	14.0016212463	20.5233402252	30.5161838531	-25.1639556885
-7.50658798218	17.5802192688	25.6908130646	20.6550807953	30.1355304718	-24.898859024
-12.3724193573	19.164352417	35.8447608948	20.7645492554	30.195941925	-24.6195583344
-12.6058034897	22.1770381927	37.2365760803	20.9839763641	30.1565246582	-24.4206237793
-8.70827770233	25.0985336304	26.9693431854	21.1162071228	30.3092288971	-24.3064250946
-6.08328199387	25.7806224823	21.1704025269	21.0300445557	30.6862888336	-24.400806427
-4.97569561005	25.4936752319	19.9109859467	21.1392726898	30.9033927917	-24.4203605652
-4.46618032455	25.2187671661	18.5039577484	21.1000099182	31.1254615784	-24.638381958
-5.61605501175	25.2898235321	22.0619621277	21.0367527008	31.2743167877	-24.6288776398
-6.36947250366	24.5354175568	26.3532428741	21.0625190735	31.3346652985	-24.7475643158
-5.23539352417	23.9514598846	23.5354003906	21.3001880646	31.487071991	-24.6617908478
-1.02541613579	21.8394546509	9.93687152863	21.2116298676	31.5772209167	-24.5601520538
1.72998726368	21.2458324432	4.72598934174	21.012928009	31.7149524689	-24.6217002869
4.24557209015	26.2665710449	10.1724395752	20.9969882965	31.7422332764	-24.6510753632
2.71352410316	32.8088531494	20.2417545319	20.7508907318	31.8614807129	-24.450258255
3.19942879677	33.3673706055	20.6856861115	20.674577713	32.0735778809	-24.4380016327
2.00428748131	31.0520057678	22.9614143372	20.6800270081	32.3780174255	-24.3518218994
0.512530684471	28.5199928284	31.7987232208	20.6454296112	32.4287376404	-24.3425521851
-0.483889847994	27.5712547302	33.7189025879	20.6947669983	32.2835731506	-24.3346195221
-1.42520010471	27.2123947144	39.406791687	20.6202659607	32.0910377502	-24.4458751678
-1.43798303604	26.6810073853	37.5035514832	20.475353241	32.1676483154	-24.4610824585
0.700308978558	25.2167205811	24.8437671661	20.5126647949	32.1905860901	-24.4642066956
1.85132372379	24.7228660583	22.0398178101	20.5151443481	32.3091201782	-24.4698162079
2.56859636307	24.2897758484	21.6294174194	20.5331821442	32.5262489319	-24.3943653107
1.52586996555	24.4939537048	20.7898197174	20.4755249023	32.6588401794	-24.2050971985
-0.666129529476	25.1306610107	26.1580142975	20.470407486	32.6610641479	-24.0815467834
-2.86964130402	24.9256248474	27.8095531464	20.4967460632	32.7662887573	-24.1210289001
-3.39310026169	21.4541511536	22.3133583069	20.4930934906	32.8481483459	-24.1734161377
-1.39837765694	17.8925933838	17.7168216705	20.3433914185	32.7700309753	-24.1156368256
-0.758864045143	21.8555030823	26.7079792023	20.0762405396	32.644443512	-23.8938560486
0.123574741185	32.3460464478	40.7875442505	19.8224086761	32.5814552307	-23.9175662994
2.02332377434	33.3700790405	35.5717544556	19.8812065125	33.3745002747	-23.9135341644
1.1327958107	32.3913154602	33.4796028137	19.3774662018	36.4154129028	-25.3986206055
0.193190187216	29.8727016449	31.8530883789	16.5995178223	41.1780357361	-30.4997787476
-0.179030939937	27.3219242096	29.082069397	14.0389099121	42.5850791931	-35.6497535706
1.01394462585	25.5679512024	25.6256504059	12.6252393723	42.9459877014	-38.513671875
3.88044977188	24.4164237976	15.2438983917	12.5832920074	42.2011795044	-38.5929718018
0.824566721916	22.485616684	27.0027122498	12.9400930405	39.639213562	-36.5476417542
-6.80290842056	18.8917560577	38.2613830566	13.6615533829	36.698299408	-33.610004425
-6.48511362076	18.0696048737	46.9984893799	13.9835300446	33.1259765625	-30.3888530731
-6.94794845581	18.5447444916	59.777885437	13.9560775757	30.6350879669	-27.5178108215
-9.43675327301	19.1612930298	69.8956832886	14.3731145859	29.7615013123	-24.9853458405
-7.46541023254	19.1303787231	66.1864013672	14.7348871231	29.6652164459	-22.6770153046
5.98205375671	17.8847007751	37.6109657288	14.3514957428	29.2613716125	-21.2599639893
0.0138108069077	20.3628635406	42.5529327393	13.9890556335	28.7149677277	-20.5151481628
-2.14200925827	23.521566391	43.5772171021	14.1507377625	28.6465606689	-20.1738033295
-2.68743538857	25.0870075226	46.2905731201	13.9873352051	28.4619693756	-19.8759326935
-0.291086167097	27.7967014313	48.0534439087	13.6361989975	28.1232872009	-19.5803470612
1.04166948795	31.4015045166	48.9503288269	13.4244146347	27.9119033813	-19.4336566925
6.0592546463	32.2384681702	41.9377746582	13.1313800812	27.6907653809	-19.168838501
2.85976457596	21.2534427643	28.2745838165	12.7149448395	27.0433597565	-18.677734375
-4.98123836517	7.6732583046	22.838394165	12.3354635239	26.4115047455	-18.4609527588
-8.956366539	3.40195703506	21.3050556183	12.6079502106	27.0124225616	-18.5843162537
-13.0440988541	1.07620573044	18.7291717529	13.4046640396	27.360616684	-18.4714794159
-12.9883546829	0.682238161564	19.9495067596	13.4638214111	27.2360534668	-18.488899231
-12.8782968521	-2.06067562103	16.9383029938	13.3275585175	26.6822490692	-18.3730621338
-12.7973432541	-2.03499102592	16.014333725	13.1964607239	26.2778129578	-18.4781761169
-13.1687812805	-1.80885744095	16.5295696259	13.6405706406	25.9297275543	-18.3695449829
-13.1403369904	1.69050884247	18.6795063019	13.8590049744	25.8745937347	-18.4761390686
-11.4564056396	5.57682132721	16.7230377197	13.7987155914	25.7337284088	-18.457485199
-9.62872695923	12.4788446426	15.8863039017	13.8935918808	25.9479084015	-18.5074577332
-9.28400421143	16.049041748	18.0429439545	13.9938755035	26.1309623718	-18.5286808014
-9.40468502045	15.5215797424	17.8093605042	14.0398235321	26.2765884399	-18.5656337738
-10.1525259018	15.4283218384	17.3211746216	14.2162923813	26.5387458801	-18.7700901031
-10.0222520828	16.1064682007	15.8558568954	14.5131874084	26.7439613342	-19.008562088
-9.59705162048	17.0301551819	15.4363107681	14.6836843491	26.8569583893	-19.1402301788
-9.18882656097	17.8152923584	14.5812911987	14.8290500641	26.9616165161	-19.3009262085
-8.79477405548	18.5581798553	14.2242984772	15.0434522629	27.0991802216	-19.3726959229
-8.50678539276	19.3188018799	13.8643083572	15.3115034103	27.225435257	-19.4689865112
-8.51975917816	19.5369606018	13.6000585556	15.4750843048	27.3374958038	-19.5944576263
-8.83653354645	19.7433376312	12.7307958603	15.5256147385	27.3787822723	-19.6094245911
-8.75498104095	20.0212440491	11.6756696701	15.5743560791	27.5122814178	-19.7101459503
-8.44911956787	20.5300426483	11.3875513077	15.7162075043	27.5804519653	-19.8119869232
-7.95638036728	20.3811187744	12.1204395294	15.8480262756	27.7142353058	-19.835899353
-7.76750659943	20.5595779419	12.0775413513	15.8143987656	27.8064727783	-19.7761669159
-7.41476345062	21.2807540894	11.3682193756	15.868596077	27.8811626434	-19.9098052979
-7.20358419418	22.1215934753	10.8983821869	15.9232759476	27.9663162231	-19.9354248047
-6.79031467438	22.7872695923	10.7576665878	15.9314994812	28.0502891541	-19.9894065857
-6.54015493393	23.3185424805	10.814661026	15.9598026276	28.1321315765	-20.0604877472
-6.16790723801	23.8308753967	10.0442171097	16.022195816	28.2884788513	-20.1616821289
-6.19990587234	24.0453491211	9.64527130127	15.8007545471	28.3828392029	-20.0925159454
-6.1875462532	24.2814998627	9.81115531921	15.3733034134	28.3450584412	-20.1260261536
-6.39525127411	24.4635639191	9.53315162659	15.1738243103	28.498298645	-20.1160526276
-6.22873926163	24.6152629852	9.58448600769	15.0178833008	28.4684810638	-20.1115093231
-6.34820318222	24.8123874664	10.5642375946	14.9843587875	28.5576553345	-20.1036548615
-6.82665634155	25.6323852539	12.6955308914	14.8918085098	28.5742301941	-20.0785751343
