0.0	-0.0	-132.36656189	-128.962493896	87.9678955078	-62.1170196533
0.0	-0.0	-132.429412842	-130.054779053	87.8487319946	-62.7412185669
0.0	-0.0	-131.951171875	-130.319396973	88.2459411621	-63.5273132324
0.0	-0.0	-128.557266235	-130.701553345	88.8868713379	-64.5724411011
0.0	0.0	-117.032096863	-132.427947998	89.5581817627	-66.4368743896
0.0	0.0	-96.1339416504	41.4420967102	84.8687896729	109.53074646
0.0	0.0	-77.0193405151	22.0943393707	87.1999588013	89.1198883057
0.0	0.0	-60.4727973938	5.42304515839	84.4914398193	54.0991630554
0.0	0.0	-47.2642440796	-9.02057933807	82.7160568237	61.9085845947
0.0	0.0	-39.5053062439	-10.817073822	86.1891326904	70.5031356812
0.0	0.0	-37.5559806824	-2.35110712051	87.5129776001	71.1580581665
0.0	0.0	-40.1749267578	6.28862905502	87.2454299927	68.6315689087
0.0	0.0	-39.7152557373	19.3644294739	86.7456817627	70.9659500122
0.0	0.0	-33.8889923096	41.3927116394	84.6103210449	81.1755981445
0.0	0.0	-25.5231151581	67.8185348511	83.6991577148	81.9299240112
0.0	0.0	-16.4683036804	79.698387146	86.4571380615	87.3658218384
0.0	0.0	-9.41472053528	-107.937080383	83.2370834351	-79.3409881592
0.0	0.0	-3.02140212059	-132.608459473	72.5977859497	-80.2682800293
0.0	-0.0	3.8386027813	-143.369537354	77.087852478	-104.607498169
0.0	-0.0	8.10556793213	19.5354423523	86.7111358643	57.11170578
0.0	-0.0	5.55331516266	-2.1295337677	75.969367981	53.1629295349
0.0	0.0	-1.72651958466	-15.4211082458	73.1810760498	47.8064079285
0.0	0.0	-5.72140645981	-24.2000007629	73.7013931274	61.5503044128
0.0	0.0	-7.81809854507	-12.5303192139	82.1560058594	98.7902603149
0.0	0.0	-10.4345378876	23.9175624847	77.9005050659	76.8320541382
0.0	0.0	-10.459769249	48.4691810608	89.4321670532	34.6651535034
0.0	0.0	-9.9535484314	40.8669319153	82.8363037109	11.8776512146
0.0	0.0	-8.49477958679	3.44435715675	69.9215698242	55.968296051
0.0	0.0	-7.18492031097	-24.669172287	75.4779968262	96.9858474731
0.0	0.0	-7.01969718933	-6.31846809387	65.0059051514	98.9233932495
0.0	0.0	-5.94332027435	26.3468894958	56.2776069641	75.057434082
0.0	0.0	-5.77297115326	55.831489563	60.4496955872	31.7207641602
0.0	0.0	-6.57788515091	44.293888092	50.7316741943	55.4500007629
0.0	0.0	-6.76154899597	43.805934906	47.6172523499	61.9217758179
0.0	0.0	-7.42857265472	52.9739723206	51.0358810425	52.9563827515
0.0	0.0	-8.12476062775	57.7812080383	49.3286514282	48.2569465637
0.0	0.0	-9.45022964478	64.2961273193	46.4377746582	47.9763259888
0.0	0.0	-11.1801700592	56.1738700867	39.9802856445	68.979927063
0.0	0.0	-13.3489217758	69.4149856567	40.8289337158	62.4673080444
0.0	0.0	-15.7387199402	83.2962112427	44.9696426392	45.1111869812
0.0	0.0	-19.2596549988	82.2470626831	42.8610229492	41.6820602417
0.0	0.0	-23.5684680939	83.8780822754	43.5475387573	33.8590965271
0.0	0.0	-27.4077186584	80.9367675781	39.7745513916	36.0556259155
0.0	0.0	-28.9382514954	77.1696014404	38.455581665	41.1821289062
0.0	0.0	-28.2891750336	76.0675964355	37.6024703979	45.0895004272
0.0	0.0	-27.9563980103	76.0174865723	37.1795310974	50.1443939209
0.0	0.0	-28.228143692	78.5047454834	37.539478302	51.2579231262
0.0	0.0	-28.6205234528	93.2203598022	47.2683944702	31.3959980011
0.0	0.0	-28.3954048157	84.8204269409	40.5609855652	39.295539856
0.0	0.0	-27.8549079895	84.5594482422	40.3521881104	37.0144996643
0.0	0.0	-28.6233940125	85.5490264893	39.6500740051	34.2927932739
0.0	0.0	-30.2128257751	83.7406005859	41.9877815247	32.7253379822
0.0	0.0	-29.1743602753	74.8425369263	41.2436294556	32.996509552
0.0	0.0	-25.3007793427	64.9645385742	37.2589607239	40.7416343689
0.0	0.0	-23.0584602356	60.0865936279	34.1411476135	50.4099769592
0.0	0.0	-24.5517425537	61.9458770752	34.2833557129	52.0128746033
0.0	0.0	-25.4503288269	71.3673553467	43.5656013489	33.0032081604
0.0	0.0	-24.370798111	70.8549346924	42.9033813477	26.4135150909
0.0	0.0	-23.198928833	65.8386306763	38.5290870667	32.894733429
0.0	0.0	-22.7126407623	61.1254692078	33.4868812561	41.3477134705
0.0	0.0	-22.8284473419	59.8310241699	33.3371353149	41.4321060181
0.0	0.0	-22.7180347443	59.4093208313	34.8117103577	37.4654808044
0.0	0.0	-22.3403320312	57.5059394836	34.1476325989	32.5583000183
0.0	0.0	-22.4504947662	54.6910247803	31.5227584839	40.888256073
0.0	0.0	-21.965473175	55.9151573181	30.4744815826	45.2525863647
0.0	0.0	-21.2366275787	59.9820785522	32.9471206665	36.5678634644
0.0	0.0	-21.4141254425	63.2699432373	34.312877655	30.93998909
0.0	0.0	-19.5069179535	56.0198402405	31.1657752991	41.4994010925
0.0	0.0	-17.819890976	55.9815444946	30.5374946594	45.9572219849
0.0	0.0	-16.83070755	55.6379470825	30.9589748383	45.5869979858
0.0	0.0	-16.0722045898	62.9202880859	38.0465736389	24.8876266479
0.0	0.0	-14.6013832092	56.6681289673	34.3540229797	34.3129806519
0.0	0.0	-13.0310459137	50.8244743347	28.3983039856	48.1837768555
0.0	0.0	-12.9265136719	52.3012390137	26.2480697632	53.1023712158
0.0	0.0	-13.5204181671	54.8075904846	25.0420360565	55.0869026184
0.0	0.0	-15.6961488724	59.0522766113	24.1215248108	56.5778656006
0.0	0.0	-39.7670631409	65.7452316284	26.2230434418	57.6317901611
0.0	0.0	-66.04712677	65.0159378052	27.7133350372	63.2141418457
0.0	0.0	-70.3479995728	63.1699867249	29.5249137878	66.8471984863
0.0	0.0	-72.7156829834	64.1239776611	27.8405227661	67.9920730591
0.0	0.0	-80.2409744263	62.9856719971	29.4065570831	67.2297286987
0.0	0.0	-86.980140686	67.7462921143	33.0987739563	59.8140830994
0.0	0.0	-88.5942840576	68.9611358643	31.1309871674	60.2990112305
0.0	0.0	-87.7027816772	70.0848693848	30.9526901245	59.3151550293
0.0	0.0	-87.5559005737	71.2088394165	32.7519073486	58.3470840454
0.0	0.0	-88.0231170654	70.5478286743	35.3705825806	53.313419342
0.0	0.0	-86.7989273071	65.2007446289	38.8774909973	46.0207099915
0.0	0.0	-83.9134140015	56.5557556152	44.9208984375	41.8979072571
0.0	0.0	-80.6772232056	47.2863807678	48.8489303589	41.1843986511
0.0	0.0	-77.8745803833	46.2985992432	49.4164772034	40.7031784058
0.0	0.0	-76.460144043	40.5982246399	50.3204040527	48.3701591492
0.0	0.0	-76.0032119751	41.907119751	50.6406936646	52.8526382446
0.0	0.0	-75.6739578247	41.6144714355	48.8612823486	56.8703193665
0.0	0.0	-75.307434082	38.3651504517	49.0060043335	65.6678619385
0.0	0.0	-75.9908065796	43.1870536804	54.0065879822	76.2362823486
0.0	0.0	-76.3533935547	44.2953834534	54.5749969482	78.1555023193
0.0	0.0	-76.4446411133	46.8250617981	47.2815818787	57.8020210266
0.0	0.0	-76.8667144775	42.2744445801	38.1828956604	58.7507972717
0.0	0.0	-77.324546814	43.9003601074	37.5644378662	62.5320854187
0.0	0.0	-77.234336853	51.5284423828	41.7700119019	49.5047264099
0.0	0.0	-77.9482269287	54.378276825	47.4548110962	31.628900528
0.0	0.0	-78.360710144	47.4770126343	45.0682830811	36.8710289001
0.0	0.0	-78.35987854	41.4472541809	43.3003540039	43.5073623657
0.0	0.0	-78.8237838745	33.24010849	39.6774673462	57.3479537964
0.0	0.0	-79.6221313477	36.9006919861	40.0119934082	56.9419822693
0.0	0.0	-79.8397598267	47.4780158997	44.0675888062	35.1137657166
0.0	0.0	-80.4406661987	39.8483924866	41.9474487305	41.59582901
0.0	0.0	-80.1985397339	35.4905509949	42.1220855713	45.1656761169
0.0	0.0	-80.6566925049	32.9810295105	41.286693573	50.0095710754
0.0	0.0	-80.9955215454	33.681388855	42.6421051025	50.0632667542
0.0	0.0	-81.326423645	43.7184524536	46.9667854309	37.5253448486
0.0	0.0	-80.9270248413	35.7322769165	44.6214904785	46.8434486389
0.0	0.0	-80.3464431763	29.2944641113	44.6764907837	53.2971725464
0.0	0.0	-79.8742675781	24.1651973724	41.9448127747	66.6181640625
0.0	0.0	-79.8946075439	29.4145851135	41.4309768677	67.9662399292
0.0	0.0	-79.1195144653	38.3432273865	41.9146232605	54.9150123596
0.0	0.0	-78.3401260376	36.822883606	40.9402580261	53.590171814
0.0	0.0	-75.6900634766	38.1830024719	43.0475616455	48.8411445618
0.0	0.0	-72.7066192627	41.8451309204	46.8113708496	41.8939552307
0.0	0.0	-71.3475265503	40.676399231	48.2754707336	42.67578125
0.0	0.0	-70.2061309814	39.1296539307	48.6872901917	43.5246429443
0.0	0.0	-69.6020126343	38.4803924561	48.6468925476	43.4317207336
0.0	0.0	-69.4888763428	36.8243904114	48.6685256958	43.800163269
0.0	0.0	-70.8855209351	37.0791015625	47.7701873779	45.2241134644
0.0	0.0	-70.2305297852	34.9022827148	45.7901954651	50.5929603577
0.0	0.0	-68.222114563	34.2910690308	40.1984558105	67.6725692749
0.0	0.0	-62.3092498779	41.9100379944	35.3431167603	57.3455352783
0.0	0.0	-59.6860809326	51.3026771545	40.533039093	39.3754310608
0.0	0.0	-59.8867301941	41.7169494629	40.1672515869	46.5873718262
0.0	0.0	-59.9832077026	42.5593605042	39.2133331299	48.5250511169
0.0	0.0	-60.02526474	44.3997077942	38.0502052307	50.0703735352
0.0	0.0	-60.8980712891	48.8628120422	38.0483016968	48.0783309937
0.0	0.0	-65.8975067139	53.0968360901	37.6297721863	52.3700904846
0.0	0.0	-78.9499435425	58.4937438965	36.3280677795	57.292224884
0.0	0.0	-83.5797653198	56.3404121399	37.1197967529	58.0895462036
0.0	0.0	-82.673576355	52.8515052795	33.8167991638	63.9062156677
0.0	0.0	-82.653175354	51.9081726074	33.2434539795	65.1602706909
0.0	0.0	-83.7021942139	52.9082107544	30.3379764557	65.9151535034
0.0	0.0	-83.8225250244	58.0639572144	26.8160896301	65.8603897095
0.0	0.0	-82.7477874756	65.945022583	23.7221736908	59.7905731201
0.0	0.0	-82.6744003296	70.9282608032	23.7098903656	53.2138938904
0.0	0.0	-82.1575241089	71.5008087158	25.5071849823	52.2349014282
0.0	0.0	-82.3203277588	70.9826431274	28.4516048431	48.7103805542
0.0	0.0	-82.0526657104	68.3753356934	30.5592937469	47.0476417542
0.0	0.0	-82.0534210205	67.2859649658	37.2373695374	40.0647773743
0.0	0.0	-82.0229110718	59.317943573	40.0984649658	41.1630630493
0.0	0.0	-81.4930419922	56.506187439	42.8611793518	40.1397666931
0.0	0.0	-81.0566253662	53.9692726135	41.8384819031	44.4789924622
0.0	0.0	-80.2412567139	51.9023399353	40.3935585022	52.9019699097
0.0	0.0	-80.2624206543	54.4970588684	38.9487609863	54.7870750427
0.0	0.0	-79.9877624512	56.0911941528	37.7841529846	53.7136688232
0.0	0.0	-79.910369873	56.6049232483	36.6750679016	55.3436470032
0.0	0.0	-80.3787155151	56.1295166016	35.6739082336	58.1736831665
0.0	0.0	-80.8580245972	58.2017784119	34.3181190491	58.2909622192
0.0	0.0	-81.5799636841	58.7478256226	33.2541007996	55.67760849
0.0	0.0	-81.8335418701	61.1960372925	30.2838745117	58.227230072
0.0	0.0	-86.139213562	62.9642791748	28.8076038361	60.0575904846
0.0	0.0	-93.1627731323	61.2982902527	30.7088222504	59.4320526123
0.0	0.0	-101.862533569	61.8924636841	30.2355976105	59.2385177612
0.0	0.0	-111.762916565	59.3152503967	30.2593307495	60.4254646301
0.0	0.0	-114.572776794	57.7209663391	30.8102416992	61.190536499
0.0	0.0	-109.430221558	56.1903991699	31.019077301	63.7237052917
0.0	0.0	-100.5337677	57.8259468079	29.4537620544	63.0928764343
0.0	0.0	-95.4452133179	60.729511261	26.257434845	62.4010543823
0.0	0.0	-92.8303527832	63.126625061	25.1596698761	58.6652526855
0.0	0.0	-92.2377929688	72.2035903931	23.9375171661	49.9984931946
0.0	0.0	-93.0000457764	70.9921112061	22.1104049683	50.2265739441
0.0	0.0	-92.7573852539	68.6430358887	25.8143634796	49.6436843872
0.0	0.0	-92.524810791	71.2554321289	35.5702857971	40.2258758545
0.0	0.0	-92.9498672485	64.7057800293	36.7743911743	43.0506134033
0.0	0.0	-93.2562103271	62.0300674438	38.2440986633	43.20652771
0.0	0.0	-92.3672027588	61.1861114502	36.9717636108	44.6807098389
0.0	0.0	-90.525718689	61.3207015991	29.1686191559	53.7833518982
0.0	0.0	-87.2357635498	59.4539070129	23.9435443878	62.309879303
0.0	0.0	-83.8942718506	63.1487159729	18.8737869263	66.0289382935
0.0	0.0	-80.3233108521	71.1078872681	16.46276474	63.6290664673
0.0	0.0	-76.9256057739	79.2775039673	27.8830127716	33.4738845825
0.0	0.0	-75.1938781738	77.624206543	29.5644493103	24.6336460114
0.0	0.0	-74.5126876831	60.6980705261	32.4586448669	33.2972755432
0.0	0.0	-74.1606521606	59.7265663147	33.7947158813	37.4591712952
