0.0	-0.0	132.392837524	-103.420005798	74.6360855103	-167.486022949
0.0	-0.0	131.289291382	-103.406463623	74.3881530762	-167.480651855
0.0	-0.0	130.887908936	-103.388557434	73.865234375	-167.551864624
0.0	-0.0	131.269958496	-103.405204773	72.7181243896	-167.837615967
0.0	-0.0	130.877502441	-103.933113098	69.3130264282	-167.302688599
0.0	-0.0	131.035079956	-104.582847595	63.4721679688	-166.363845825
0.0	-0.0	131.01776123	-107.110298157	61.4578895569	-166.132781982
0.0	-0.0	130.579528809	-109.976104736	62.369304657	-166.253646851
0.0	-0.0	130.675827026	-112.980270386	62.7306518555	-165.162536621
0.0	-0.0	121.798034668	-121.700538635	63.8750572205	-164.119735718
0.0	-0.0	108.127609253	-136.435455322	66.3773956299	-162.848922729
0.0	-0.0	99.1924362183	-151.600326538	68.8105163574	-161.595504761
0.0	-0.0	95.0725326538	-162.465454102	70.6955871582	-160.516113281
0.0	-0.0	92.0432128906	-166.24836731	73.0658798218	-159.532775879
0.0	-0.0	90.263343811	-167.280975342	76.2121658325	-159.907150269
0.0	-0.0	90.1371002197	-168.569274902	79.9958572388	-161.691360474
0.0	-0.0	88.0081787109	-174.246200562	82.6313018799	-163.741012573
0.0	-0.0	87.9320983887	177.451812744	83.7688217163	-164.773895264
0.0	-0.0	86.712928772	171.819610596	86.3847198486	-164.563446045
0.0	-0.0	85.9092712402	170.478485107	89.2543640137	-164.310592651
0.0	-0.0	85.0513000488	171.691497803	89.4839096069	-164.249053955
