0.0	-0.0	131.461547852	-99.5832748413	85.1614532471	-166.29208374
0.0	-0.0	132.109405518	-99.3957977295	85.4082336426	-165.993270874
0.0	-0.0	132.331542969	-99.7656021118	85.5935745239	-166.028564453
0.0	-0.0	132.219726562	-99.7676010132	85.4705276489	-165.776382446
0.0	-0.0	131.886825562	-99.5740509033	84.854927063	-166.008728027
0.0	-0.0	131.953933716	-98.4916000366	84.0122451782	-165.97203064
0.0	-0.0	132.136245728	83.434463501	89.7152252197	13.1034927368
0.0	-0.0	131.464279175	85.0854110718	83.2372589111	11.9369707108
0.0	-0.0	131.585525513	-95.760597229	85.6483917236	-168.475875854
0.0	-0.0	132.277481079	-91.5975952148	61.6527748108	-166.107284546
0.0	-0.0	132.852813721	-83.0597991943	35.3232078552	-163.643035889
0.0	-0.0	133.68170166	-86.8724136353	12.1248092651	-160.686019897
0.0	-0.0	133.544082642	-104.570922852	-1.5926412344	-162.394821167
0.0	-0.0	131.29447937	-123.329299927	-9.58031463623	-163.100921631
0.0	-0.0	123.57989502	-133.000717163	-13.6485528946	-163.029968262
0.0	-0.0	122.003753662	-134.459411621	-17.9508876801	-160.687301636
0.0	-0.0	120.165596008	-135.744354248	-19.8687934875	-160.000350952
0.0	-0.0	113.989837646	-137.125656128	-21.4063510895	-160.219238281
0.0	-0.0	82.6091308594	-137.885757446	-22.381072998	-160.331222534
0.0	-0.0	44.0209846497	-136.976608276	-26.5465164185	-161.169845581
0.0	-0.0	46.3169898987	-133.454574585	-27.7980537415	-160.196990967
0.0	-0.0	56.1182823181	-130.936965942	-23.9186840057	-159.421951294
0.0	-0.0	56.5600814819	-131.062149048	-22.4753170013	-159.644699097
0.0	-0.0	61.8907432556	-129.439178467	-23.563583374	-158.170562744
0.0	-0.0	55.9610786438	-128.256103516	-21.2579593658	-157.961975098
0.0	-0.0	86.4393692017	-128.953048706	-18.3393516541	-158.938476562
0.0	-0.0	114.832099915	-127.390281677	-18.0738220215	-158.548660278
0.0	-0.0	115.415534973	-124.977378845	-17.3822498322	-158.475280762
0.0	-0.0	64.7915115356	-124.436714172	-16.850944519	-158.821472168
0.0	-0.0	30.112531662	-123.611480713	-17.2260437012	-159.569869995
0.0	-0.0	44.4516143799	-120.695602417	-15.6865148544	-159.545059204
0.0	-0.0	69.5108413696	-118.09223175	-13.6627321243	-160.364944458
0.0	-0.0	82.4962615967	-116.978385925	-12.8488740921	-161.027267456
0.0	-0.0	82.2868118286	-115.987045288	-13.2209157944	-162.165802002
0.0	-0.0	93.8932342529	-113.272750854	-12.9460544586	-161.882003784
0.0	-0.0	102.020698547	-110.789535522	-11.7269210815	-162.798782349
0.0	-0.0	84.8715896606	-110.361839294	-11.5552110672	-163.205718994
0.0	-0.0	46.4733772278	-111.020942688	-11.2813882828	-163.22644043
0.0	-0.0	40.3805274963	-112.452598572	-10.86277771	-163.862960815
0.0	-0.0	58.6303138733	-112.092453003	-9.55677890778	-164.801528931
0.0	-0.0	70.7127761841	-113.009101868	-8.23885154724	-163.824584961
0.0	-0.0	69.8797149658	-115.045631409	-9.09142398834	-163.558364868
0.0	-0.0	69.5109100342	-115.38508606	-10.747253418	-163.836669922
0.0	-0.0	70.2230148315	-114.337783813	-12.8497200012	-163.070068359
0.0	-0.0	69.4276809692	-114.066833496	-13.403295517	-163.249343872
0.0	-0.0	67.7882232666	-114.387939453	-14.0925016403	-163.097335815
0.0	-0.0	65.7279815674	-115.068115234	-14.7618331909	-162.259399414
0.0	-0.0	55.5532341003	-115.601249695	-16.0515098572	-161.406463623
0.0	-0.0	47.5207939148	-116.523765564	-17.1431388855	-161.152709961
0.0	-0.0	45.8241767883	-117.113426208	-16.638168335	-160.891433716
0.0	-0.0	48.5475921631	-117.874923706	-14.5572824478	-161.120605469
0.0	-0.0	58.8190612793	-118.570129395	-12.0864343643	-160.77532959
0.0	-0.0	91.5387878418	-119.602325439	-7.59345388412	-161.17048645
0.0	-0.0	108.931243896	-120.317077637	-4.5520658493	-161.102539062
0.0	-0.0	108.151664734	-122.329231262	-3.41132974625	-161.466827393
0.0	-0.0	96.2443161011	-128.837890625	9.48659515381	-166.089981079
0.0	-0.0	91.0540542603	-130.790420532	25.0055522919	-168.687164307
0.0	-0.0	89.3584747314	-128.536453247	16.7255840302	-166.299362183
0.0	-0.0	91.2045059204	-124.772041321	-6.6592335701	-161.724945068
0.0	-0.0	92.7122039795	-125.932327271	-13.4037599564	-160.952056885
0.0	-0.0	92.7599487305	-126.635238647	-11.2302017212	-163.715866089
0.0	-0.0	88.0846557617	-126.856765747	-2.12741708755	-163.320281982
0.0	-0.0	76.9882202148	-128.112411499	-3.73864507675	-163.565979004
0.0	-0.0	64.9164276123	-128.250549316	-13.0156259537	-161.988845825
0.0	-0.0	57.8270111084	-127.455093384	-21.042547226	-162.075454712
0.0	-0.0	57.0068588257	-124.877334595	-22.7279376984	-162.363845825
0.0	-0.0	56.6569595337	-120.892127991	-24.1320037842	-163.488647461
0.0	-0.0	56.8057327271	-109.362205505	-27.0621166229	-163.854492188
0.0	-0.0	59.9318962097	-94.1552810669	-30.081237793	-162.878997803
0.0	-0.0	61.4996147156	-94.6904678345	-29.0676784515	-164.607376099
0.0	-0.0	66.4736328125	-107.837280273	-21.9763412476	-167.665908813
0.0	-0.0	76.2788238525	-117.599128723	-12.9803829193	-166.810287476
0.0	-0.0	88.7352828979	-122.747627258	-9.22948932648	-166.805999756
0.0	-0.0	94.6078720093	-121.294021606	-10.6600866318	-165.470092773
0.0	-0.0	92.4383010864	-119.900352478	-10.515422821	-165.063415527
0.0	-0.0	74.1390762329	-120.878547668	-7.49462223053	-165.384338379
0.0	-0.0	60.7475547791	-121.394645691	-4.09907531738	-165.200073242
0.0	-0.0	50.6398506165	-121.727859497	1.19852936268	-164.934082031
0.0	-0.0	53.6742782593	-123.131340027	6.58182525635	-165.13949585
0.0	-0.0	56.9198417664	-125.970024109	10.1401348114	-164.012359619
0.0	-0.0	66.8468933105	-131.725952148	11.0962381363	-162.092895508
0.0	-0.0	91.521446228	-139.390823364	7.26637458801	-163.032150269
0.0	-0.0	107.795555115	-137.898132324	3.77434420586	-163.233856201
0.0	-0.0	111.008270264	-134.418884277	6.99711418152	-162.242263794
0.0	-0.0	104.824417114	-137.54524231	9.89755439758	-162.232177734
0.0	-0.0	89.1799468994	-147.793319702	10.0156898499	-164.433258057
0.0	-0.0	77.892791748	-149.887756348	1.63669931889	-167.623504639
0.0	-0.0	59.4623756409	-137.252304077	-11.1227769852	-166.11567688
0.0	-0.0	56.8172492981	-127.674789429	-13.9151086807	-164.461959839
0.0	-0.0	57.9628219604	-128.56072998	-14.759100914	-166.452941895
0.0	-0.0	60.5786018372	-129.81288147	-14.6358146667	-167.382843018
0.0	-0.0	64.4032516479	-130.328994751	-12.9953289032	-167.039627075
0.0	-0.0	62.7478027344	-131.694091797	-11.5888967514	-168.043777466
