0.0	-0.0	138.029525757	77.8226013184	86.3416442871	-7.3287062645
0.0	-0.0	136.969543457	79.3087768555	86.4718856812	-8.32381916046
0.0	-0.0	100.354408264	79.0886077881	86.3600769043	-8.11219501495
0.0	-0.0	90.8631362915	78.7884216309	86.3713150024	-7.82403278351
0.0	-0.0	100.778709412	76.9325027466	88.0989456177	-7.58807373047
0.0	-0.0	99.8566360474	-103.326393127	79.8226928711	171.603897095
0.0	-0.0	98.8172988892	-94.4275512695	61.9332389832	170.798309326
0.0	-0.0	99.5861206055	-78.0490570068	42.8880767822	171.195098877
0.0	-0.0	101.926345825	-68.7411727905	38.5852622986	171.10206604
