0.0	-0.0	-143.011779785	-170.771331787	86.7359237671	-95.5870056152
0.0	-0.0	-142.974594116	-171.376266479	86.6921844482	-95.6170654297
0.0	-0.0	-142.614212036	-171.54699707	86.8310394287	-95.9487533569
0.0	-0.0	-142.148529053	-171.409698486	87.2671051025	-96.4041366577
0.0	-0.0	-141.838867188	-173.018112183	86.6203231812	-95.0606460571
0.0	-0.0	-141.046173096	170.317260742	81.9166946411	-79.396156311
0.0	-0.0	-140.393005371	157.039215088	57.2259178162	-105.252334595
0.0	-0.0	-135.965713501	150.746292114	62.2276077271	-112.522705078
0.0	-0.0	-121.075637817	152.716049194	68.1669311523	-113.611572266
0.0	0.0	-96.9189071655	149.330856323	79.4154052734	-103.950523376
0.0	0.0	-70.0643692017	157.529708862	89.3054885864	-105.541992188
0.0	0.0	-50.5782470703	-15.6513786316	86.6735687256	71.5429611206
0.0	0.0	-37.7511367798	-4.22872400284	83.6341781616	66.4651107788
0.0	0.0	-27.7384185791	10.1380596161	81.0016326904	52.6033172607
0.0	0.0	-19.5604515076	21.3195457458	79.2118606567	35.4486160278
0.0	0.0	-13.1624898911	28.0510406494	81.6000442505	20.7514972687
0.0	0.0	-9.6701965332	29.5486507416	83.8422317505	20.5446090698
0.0	0.0	-7.08029222488	31.3783111572	84.0012893677	24.8747653961
0.0	0.0	-6.48171424866	37.2283706665	85.0674667358	11.8837499619
0.0	0.0	-7.3614449501	45.9476470947	74.0864562988	-10.4633455276
0.0	0.0	-7.91896820068	43.0696182251	50.8592910767	32.8037033081
0.0	0.0	-8.83774089813	51.1590652466	34.117099762	50.6977424622
0.0	0.0	-10.4508047104	56.4635658264	29.4414920807	57.1521682739
0.0	0.0	-11.7472515106	57.441783905	30.2020587921	56.4653015137
0.0	0.0	-12.6475343704	73.5251922607	37.4779052734	25.5095100403
0.0	0.0	-14.1469430923	74.6455917358	38.6304092407	21.8790569305
0.0	0.0	-15.9860315323	64.8488845825	32.6788291931	38.7729644775
0.0	0.0	-17.1798534393	62.657875061	30.6402225494	49.2015228271
0.0	0.0	-17.8802165985	68.5898742676	31.2914981842	53.4996376038
0.0	0.0	-19.3535079956	74.0083694458	32.3202857971	52.0949287415
0.0	0.0	-19.8229465485	72.380241394	31.0699748993	53.5066146851
0.0	0.0	-20.0206794739	74.4756011963	26.7002620697	59.8114967346
0.0	0.0	-19.8413410187	81.0493392944	34.3191833496	49.3972663879
0.0	0.0	-20.7470359802	89.3378601074	42.8050041199	27.2369251251
0.0	0.0	-20.2888374329	86.5167007446	39.9703903198	35.3602142334
0.0	0.0	-20.5573501587	82.8682098389	35.3808860779	46.5612297058
0.0	0.0	-20.3185844421	81.2093887329	31.7676906586	55.9211578369
0.0	0.0	-20.4037055969	81.4533920288	31.6495800018	61.1931343079
0.0	0.0	-20.4042034149	86.3499755859	33.3152961731	57.269744873
0.0	0.0	-20.5230197906	88.8046035767	34.2382698059	54.0895500183
0.0	0.0	-20.5709114075	86.0538711548	29.306760788	62.8046951294
0.0	0.0	-20.5321578979	84.6167602539	22.9096984863	73.3712005615
0.0	0.0	-20.8331432343	88.1596603394	26.0946922302	67.6403884888
0.0	0.0	-20.8116588593	93.9318695068	38.3712501526	45.4956893921
0.0	0.0	-20.7151203156	87.3793869019	37.7660217285	39.2991676331
0.0	0.0	-20.7902736664	82.3403244019	36.4668312073	38.080909729
0.0	0.0	-21.008687973	77.1761856079	33.2116775513	44.9997558594
0.0	0.0	-20.43592453	75.1891098022	30.8699321747	53.3290176392
0.0	0.0	-20.9910106659	77.1362533569	30.9565620422	55.1261024475
0.0	0.0	-21.0441761017	84.5222244263	35.6090812683	46.8628234863
0.0	0.0	-21.1231708527	81.0879974365	31.6692619324	50.220375061
0.0	0.0	-21.4788684845	76.1298599243	25.95246315	60.7414054871
0.0	0.0	-21.5456142426	71.8619918823	20.5495128632	69.4149093628
0.0	0.0	-21.4698753357	71.9175109863	17.9039783478	71.430770874
0.0	0.0	-21.8962860107	72.5637512207	18.287399292	69.1917266846
0.0	0.0	-21.9216632843	72.3540649414	17.9351348877	67.7943649292
0.0	0.0	-21.7772083282	72.573425293	17.4229736328	68.9608612061
0.0	0.0	-21.431142807	84.1577377319	25.1922512054	54.6662216187
0.0	0.0	-21.8255710602	97.2694854736	33.6268157959	38.8060112
0.0	0.0	-22.4814281464	88.9241638184	25.637430191	46.2995758057
0.0	0.0	-26.5948925018	82.2504119873	19.7588748932	55.5927810669
0.0	0.0	-35.1889572144	78.591545105	16.5809020996	61.5540542603
0.0	0.0	-46.3407325745	76.6415405273	19.6389102936	60.6113014221
