-52.2565460205	-58.2396354675	133.209487915	8.61444568634	-0.929283797741	0.518097639084
-51.8602104187	-57.8086738586	132.802017212	8.64870262146	-0.820996940136	0.510309696198
-51.9485435486	-57.6572532654	132.924667358	8.62061786652	-0.766095817089	0.601158678532
-52.2957725525	-57.90391922	133.18862915	8.68708610535	-0.69038939476	0.713479697704
-52.3615837097	-57.8166160583	133.078384399	8.28886127472	-0.811995744705	0.9201207757
-52.3687591553	-57.9658966064	132.765228271	7.11591625214	-1.03975963593	1.43082940578
-53.3498191833	-58.3311042786	132.794235229	6.08937263489	-1.05524969101	1.99261629581
-54.5057754517	-57.9320068359	129.295303345	5.6822476387	-1.05977511406	2.26125025749
