-0.046311378479	1.046022892	0.0246949195862	-0.134912252426	1.59504663944	-0.184187531471
-0.0464293956757	1.04624891281	0.024585723877	-0.136726617813	1.59347653389	-0.180192708969
-0.0451674461365	1.04729104042	0.0247316360474	-0.138597011566	1.59236216545	-0.176493883133
-0.0439567565918	1.04873394966	0.0241990089417	-0.140602111816	1.59247028828	-0.174099445343
-0.0449869632721	1.04750299454	0.0230400562286	-0.147193908691	1.59175980091	-0.172805547714
-0.0449860095978	1.0476129055	0.0237295627594	-0.158630609512	1.5883795023	-0.171357274055
-0.0427570343018	1.0490937233	0.0268332958221	-0.170292139053	1.58259165287	-0.171509742737
-0.0389881134033	1.05166077614	0.0303134918213	-0.176517486572	1.57694458961	-0.172421813011
-0.0389583110809	1.05236315727	0.0319101810455	-0.176239490509	1.57189834118	-0.17252612114
-0.0398819446564	1.05234599113	0.0337324142456	-0.172703742981	1.56754934788	-0.171677112579
-0.0417218208313	1.05130887032	0.0326635837555	-0.168424844742	1.5634406805	-0.170093774796
-0.0437157154083	1.05581045151	0.0283222198486	-0.165769100189	1.55870246887	-0.167588949203
-0.0426015853882	1.05461263657	0.0393104553223	-0.163686990738	1.55387032032	-0.164621710777
