-0.00402069091797	0.957035541534	-0.0215990543365	-0.172571897507	1.59196507931	-0.166777133942
-0.0049295425415	0.956926822662	-0.0225675106049	-0.17307472229	1.59171164036	-0.166327476501
-0.00573587417603	0.955695867538	-0.0238509178162	-0.173790931702	1.59189105034	-0.165614843369
-0.00563192367554	0.95460152626	-0.0246043205261	-0.175106048584	1.59869921207	-0.165218830109
-0.00390195846558	0.95313501358	-0.0256700515747	-0.176846504211	1.61119329929	-0.171463370323
-0.00458645820618	0.950706005096	-0.0245625972748	-0.177350997925	1.61794817448	-0.181148409843
-0.00514554977417	0.950962305069	-0.0192818641663	-0.173674345016	1.62228107452	-0.193737745285
-0.00668740272522	0.952278852463	-0.0107035636902	-0.168703317642	1.62486827374	-0.208823442459
-0.00693893432617	0.957065343857	-0.00321233272552	-0.166821956635	1.62575423717	-0.222682476044
-0.00637578964233	0.961810588837	0.00131523609161	-0.165272474289	1.62508189678	-0.23290348053
-0.0064160823822	0.963757276535	0.00159704685211	-0.164166212082	1.62476241589	-0.23961687088
0.00628280639648	0.95978474617	0.0137447118759	-0.164909124374	1.62529063225	-0.242741942406
0.0411438941956	0.947791814804	0.0295279026031	-0.166663169861	1.62691807747	-0.245097398758
0.0212678909302	0.952893733978	0.0189895629883	-0.168476104736	1.62679314613	-0.24525308609
0.00779294967651	0.947705745697	0.00754523277283	-0.169222354889	1.62562179565	-0.242159962654
-0.0020489692688	0.951960325241	-0.0102245807648	-0.169350147247	1.62557399273	-0.240186095238
-0.00559377670288	0.951513767242	-0.0235158205032	-0.168560266495	1.62664103508	-0.24564576149
-0.00235366821289	0.952927112579	-0.0257074832916	-0.169348478317	1.62632966042	-0.257381916046
0.00215816497803	0.959770441055	-0.0226655006409	-0.170991182327	1.62313044071	-0.27264046669
0.00579309463501	0.970234870911	-0.0190491676331	-0.173968553543	1.61825919151	-0.291033506393
0.0400772094727	0.978528022766	0.00625860691071	-0.179553508759	1.61344885826	-0.30977678299
0.056295633316	0.99415564537	0.00349092483521	-0.185061693192	1.60805571079	-0.326195716858
0.0435810089111	0.995302438736	-0.00150847434998	-0.187519550323	1.60285818577	-0.340019464493
0.0322940349579	0.991486549377	-0.00986051559448	-0.189277172089	1.599214077	-0.350748300552
0.010285615921	0.991671323776	-0.0284093618393	-0.190866470337	1.59766829014	-0.358106136322
0.000397443771362	0.996092557907	-0.0413691997528	-0.190985918045	1.59647083282	-0.363550662994
0.0417151451111	1.00010251999	-0.0231652259827	-0.191148757935	1.59679305553	-0.36834025383
0.034695148468	1.00641989708	-0.029292345047	-0.192295312881	1.59707558155	-0.371207714081
0.0242319107056	1.00268340111	-0.0377836227417	-0.193216085434	1.59674525261	-0.373045325279
-0.00142621994019	0.998958349228	-0.0561678409576	-0.194724798203	1.59734034538	-0.373855113983
-0.00695157051086	1.00363230705	-0.0636410713196	-0.197202205658	1.59751439095	-0.374791026115
0.0302693843842	1.00377106667	-0.0451216697693	-0.202083826065	1.59768211842	-0.37580037117
0.043372631073	1.01129770279	-0.0463116168976	-0.208196163177	1.59803390503	-0.375216960907
0.0201773643494	1.01423454285	-0.0520629882812	-0.216325521469	1.59836649895	-0.372886180878
0.00677371025085	1.00894999504	-0.056679725647	-0.22611451149	1.59890341759	-0.368963956833
-0.00447845458984	1.00748705864	-0.0607028007507	-0.236539840698	1.59946215153	-0.363360285759
0.0458533763885	1.00141072273	-0.0415375232697	-0.245992898941	1.60092294216	-0.357294559479
0.0231921672821	1.0242626667	-0.042130947113	-0.253381967545	1.60383498669	-0.348917961121
0.00385117530823	1.02630090714	-0.0398154258728	-0.258007526398	1.60594546795	-0.336569190025
-0.00748014450073	1.01839756966	-0.0435416698456	-0.263239622116	1.60863852501	-0.321541547775
-0.0167384147644	1.01431584358	-0.0493452548981	-0.266003370285	1.61258780956	-0.306815862656
0.0140700340271	1.018232584	-0.044989824295	-0.265468597412	1.61746680737	-0.295863389969
0.0298497676849	1.02282595634	-0.0395975112915	-0.263808965683	1.62184965611	-0.287786126137
-0.00376319885254	1.03215956688	-0.0388917922974	-0.261944770813	1.62388324738	-0.28019952774
-0.00658345222473	1.03257107735	-0.0351874828339	-0.260288000107	1.62618839741	-0.276934742928
-0.00556492805481	1.02150297165	-0.0244501829147	-0.259571790695	1.6272778511	-0.281911969185
0.0427262783051	0.983254909515	-0.00609922409058	-0.259205818176	1.62252306938	-0.288188695908
0.0348794460297	1.00064826012	-0.00428104400635	-0.259726762772	1.61567258835	-0.293664216995
0.0275249481201	1.00737786293	-0.0011385679245	-0.261245727539	1.60809600353	-0.299021959305
0.0289497375488	1.01079750061	-0.00152564048767	-0.264182090759	1.60229361057	-0.304275989532
0.0307638645172	1.00911259651	-0.0024995803833	-0.266197919846	1.59989368916	-0.308443427086
0.0228700637817	1.00702619553	-0.00611019134521	-0.266714334488	1.5972905159	-0.310909032822
0.0154402256012	1.005194664	-0.012334227562	-0.265884637833	1.59438896179	-0.314517736435
0.0116105079651	1.00247430801	-0.0176322460175	-0.266338348389	1.59309029579	-0.320778608322
0.00958609580994	1.00079727173	-0.0231821537018	-0.266376495361	1.59300923347	-0.328237295151
0.0139155387878	1.00015425682	-0.0241363048553	-0.264899015427	1.59223139286	-0.335970640182
0.0129590034485	1.00200629234	-0.023792386055	-0.263029575348	1.58951413631	-0.344706535339
0.00743412971497	1.00493264198	-0.0238697528839	-0.261782169342	1.58479714394	-0.355338931084
0.00446915626526	1.0086004734	-0.026050567627	-0.261162281036	1.5798933506	-0.369323730469
0.00520133972168	1.01112222672	-0.0290632247925	-0.261440992355	1.5753313303	-0.383383274078
0.00729775428772	1.02070045471	-0.036438703537	-0.261997699738	1.57093000412	-0.395134210587
0.02126288414	1.03264451027	-0.0488554239273	-0.263371944427	1.56692540646	-0.404855966568
0.027242898941	1.04363322258	-0.0663787126541	-0.264869689941	1.56464505196	-0.411792516708
0.0160245895386	1.05149698257	-0.0784069299698	-0.265493631363	1.56306314468	-0.415353536606
0.0125064849854	1.05148839951	-0.0817791223526	-0.265054225922	1.56168925762	-0.417725324631
0.0313923358917	1.0417535305	-0.0659415721893	-0.264583826065	1.561840415	-0.418844103813
0.0445287227631	1.03415870667	-0.0548286437988	-0.26327085495	1.56347417831	-0.41670191288
0.0335590839386	1.03648614883	-0.0550663471222	-0.260743379593	1.56422269344	-0.411593437195
0.0284044742584	1.03228664398	-0.054705619812	-0.258739471436	1.56463861465	-0.405109643936
0.0326721668243	1.02643203735	-0.0526323318481	-0.256647348404	1.56560838223	-0.397404193878
0.0302283763885	1.02641153336	-0.0519169569016	-0.254739522934	1.56676340103	-0.389824390411
0.0197644233704	1.02623414993	-0.0529842376709	-0.253111124039	1.56774783134	-0.383304834366
0.0175449848175	1.02496480942	-0.0521428585052	-0.251083850861	1.56876134872	-0.379748344421
0.0308561325073	1.02107071877	-0.0441672801971	-0.249125480652	1.57014918327	-0.378702402115
0.0230541229248	1.03111886978	-0.0501315593719	-0.246799230576	1.56992173195	-0.379302144051
-0.00207805633545	1.04172277451	-0.0601488351822	-0.245783567429	1.56497359276	-0.383507490158
-0.0143520832062	1.04543852806	-0.0634911060333	-0.246075153351	1.55778777599	-0.393021941185
-0.0142621994019	1.04979753494	-0.0620341300964	-0.246731042862	1.55142176151	-0.405920267105
0.00916147232056	1.05312275887	-0.0432620048523	-0.247571706772	1.54611766338	-0.417362928391
0.0267148017883	1.0633289814	-0.0452048778534	-0.247677326202	1.54237246513	-0.424590349197
0.0248668193817	1.06866908073	-0.0463618040085	-0.247670650482	1.5389380455	-0.426836252213
0.00847673416138	1.06658136845	-0.0563013553619	-0.248083353043	1.53751587868	-0.425284385681
-0.00526189804077	1.07030010223	-0.0705894231796	-0.248227119446	1.53967773914	-0.419229030609
-0.0179414749146	1.07763004303	-0.0915615558624	-0.248276472092	1.5439606905	-0.409515619278
-0.0274572372437	1.07562541962	-0.103605031967	-0.248697757721	1.54680085182	-0.400735497475
-0.0276775360107	1.080540061	-0.115080833435	-0.251564502716	1.54761898518	-0.394897937775
-0.0285360813141	1.08753049374	-0.129331231117	-0.257467508316	1.54792463779	-0.391242861748
-0.0305104255676	1.09317243099	-0.140112996101	-0.263252019882	1.5509802103	-0.389210700989
-0.0249025821686	1.10402333736	-0.143894672394	-0.267056703568	1.55361890793	-0.386162757874
-0.00214457511902	1.11798119545	-0.136381149292	-0.270641088486	1.55720698833	-0.382318139076
0.0215141773224	1.11984574795	-0.115030765533	-0.274300336838	1.56187832355	-0.376929044724
0.000109195709229	1.12483513355	-0.112614870071	-0.276653528214	1.56684947014	-0.370246529579
-0.0077953338623	1.12163209915	-0.101587057114	-0.278974056244	1.57102704048	-0.363072395325
-0.0269157886505	1.11108541489	-0.0878970623016	-0.281278371811	1.57395887375	-0.355444788933
-0.0309252738953	1.10900628567	-0.0817992687225	-0.282023191452	1.57401037216	-0.348805904388
-0.0388684272766	1.11356639862	-0.089928150177	-0.282685756683	1.57414567471	-0.344203948975
-0.0438528060913	1.11244595051	-0.0847747325897	-0.282678604126	1.57408344746	-0.341898202896
-0.0563061237335	1.11915683746	-0.101100444794	-0.283055305481	1.57403123379	-0.341500997543
-0.0510196685791	1.13798964024	-0.109701514244	-0.282591581345	1.57396662235	-0.341982841492
-0.046085357666	1.14862895012	-0.102666735649	-0.282864570618	1.57395482063	-0.342347502708
-0.0637788772583	1.14616155624	-0.0967447757721	-0.286752939224	1.57482028008	-0.340619325638
-0.0782809257507	1.14560365677	-0.0901510715485	-0.294759273529	1.57573437691	-0.337339878082
-0.0870866775513	1.14870417118	-0.0769182443619	-0.303822755814	1.57580757141	-0.333598971367
-0.0877485275269	1.15586841106	-0.0584213733673	-0.309879302979	1.57699847221	-0.330133676529
-0.102183818817	1.1492960453	-0.049720287323	-0.31281208992	1.57777953148	-0.324811220169
-0.108542442322	1.14853811264	-0.0452408790588	-0.311865329742	1.57756018639	-0.31911444664
-0.0985860824585	1.16761481762	-0.0392556190491	-0.308566570282	1.57745528221	-0.314730644226
-0.088695526123	1.17296648026	-0.00966131687164	-0.304565429688	1.5778875351	-0.311518907547
-0.0979328155518	1.18277275562	-0.020658493042	-0.299922466278	1.57797586918	-0.308993816376
-0.11060667038	1.17222416401	-0.024603843689	-0.296420812607	1.57853102684	-0.3075299263
-0.114176034927	1.16655671597	-0.0321791172028	-0.293313264847	1.5788859129	-0.306454658508
-0.114464759827	1.16518032551	-0.0364058017731	-0.289244413376	1.57955694199	-0.304538726807
-0.112756729126	1.17050623894	-0.0397379398346	-0.284675121307	1.58067536354	-0.301592469215
-0.109809398651	1.18008553982	-0.0313045978546	-0.280819892883	1.58166468143	-0.298402786255
-0.0883796215057	1.1851991415	-0.00457978248596	-0.278202533722	1.58251512051	-0.295274138451
-0.0820550918579	1.18507194519	-0.000749111175537	-0.275099754333	1.58350157738	-0.291889429092
-0.0826985836029	1.19221282005	-0.0122150182724	-0.272253036499	1.5838342905	-0.288007259369
-0.0823428630829	1.19153439999	-0.0139305591583	-0.269616365433	1.58383500576	-0.285931587219
-0.0827081203461	1.19334149361	-0.0193991661072	-0.266845941544	1.58447885513	-0.284315109253
-0.0877530574799	1.19706559181	-0.0344399213791	-0.264367580414	1.58449161053	-0.282804727554
-0.0880408287048	1.20037376881	-0.0453789234161	-0.262577295303	1.58450222015	-0.281939387321
-0.113391399384	1.18555903435	-0.0441199541092	-0.260798931122	1.58477318287	-0.281436920166
-0.140749692917	1.14990639687	-0.0257484912872	-0.25877904892	1.58437645435	-0.281160593033
-0.14158987999	1.14724946022	-0.0259757041931	-0.257838249207	1.5847966671	-0.281195282936
-0.140277385712	1.14330136776	-0.020697593689	-0.256680965424	1.58479857445	-0.281060814857
-0.130876302719	1.15194499493	-0.0253546237946	-0.255153179169	1.58473455906	-0.280793190002
-0.121697425842	1.16602528095	-0.0289680957794	-0.253654241562	1.58459448814	-0.280623912811
-0.120547771454	1.17319941521	-0.0331122875214	-0.252672672272	1.58421170712	-0.281122684479
-0.123809337616	1.17830324173	-0.0407264232635	-0.252315044403	1.58457648754	-0.28182888031
-0.126288175583	1.18275356293	-0.0430015325546	-0.252748012543	1.58462584019	-0.28312921524
-0.128807067871	1.18503332138	-0.0444546937943	-0.25350356102	1.58518731594	-0.28392636776
-0.128084182739	1.18603014946	-0.0410177707672	-0.254302024841	1.58598399162	-0.28431892395
-0.126022577286	1.18773043156	-0.034033536911	-0.255096673965	1.58706271648	-0.284164190292
-0.123310804367	1.18851876259	-0.0283539295197	-0.255989074707	1.58764231205	-0.283859729767
-0.118247509003	1.19050014019	-0.0194298028946	-0.25730919838	1.58778631687	-0.283623695374
-0.111470222473	1.2021625042	0.00505816936493	-0.258503675461	1.58823037148	-0.282576084137
-0.104517936707	1.22074234486	0.0115160942078	-0.258633613586	1.58899533749	-0.280753135681
-0.10302066803	1.24966454506	-0.0138764381409	-0.257806301117	1.59025204182	-0.278287768364
-0.0965099334717	1.26080489159	-0.0201051235199	-0.256259441376	1.59137022495	-0.276965737343
-0.0972247123718	1.26053118706	-0.0177345275879	-0.254407644272	1.59292984009	-0.276471138
-0.0982701778412	1.2539999485	-0.0127093791962	-0.252813816071	1.59404480457	-0.276977539062
-0.0979747772217	1.25308811665	-0.0216757059097	-0.251902341843	1.59584271908	-0.276135802269
-0.104261875153	1.25843548775	-0.0575277805328	-0.250934839249	1.59603559971	-0.27499461174
-0.137467622757	1.23670220375	-0.0679686069489	-0.250705718994	1.59616911411	-0.274524450302
-0.16991186142	1.19236493111	-0.0477643013	-0.249979734421	1.59630310535	-0.274520516396
-0.168689250946	1.19160807133	-0.022561788559	-0.24892783165	1.59680330753	-0.275091171265
-0.149755239487	1.23726689816	-0.0249700546265	-0.247428417206	1.59738755226	-0.274821996689
-0.120858669281	1.27091872692	-0.0276346206665	-0.244898557663	1.59748756886	-0.274651288986
-0.108184099197	1.28161799908	-0.0240952968597	-0.242254018784	1.59783542156	-0.274674654007
-0.113123893738	1.28275382519	-0.0175557136536	-0.239904880524	1.59855604172	-0.27440738678
-0.149906635284	1.27100932598	-0.000336885452271	-0.236707925797	1.59905040264	-0.273230791092
-0.163720369339	1.25292205811	0.0112156867981	-0.233199119568	1.59903144836	-0.272169947624
-0.156913042068	1.27220916748	0.0159283876419	-0.230014562607	1.60022950172	-0.270314693451
-0.133944511414	1.31222724915	0.0188736915588	-0.227255821228	1.60067903996	-0.26843726635
-0.121140480042	1.33350133896	0.0149297714233	-0.22421002388	1.6008040905	-0.267118215561
-0.103884935379	1.33963954449	0.00410056114197	-0.22040104866	1.60076117516	-0.267328023911
-0.102827310562	1.3349725008	0.0158658027649	-0.216300010681	1.6004730463	-0.268642663956
-0.13041138649	1.32487285137	0.0197124481201	-0.212338447571	1.60042858124	-0.270783305168
-0.148971557617	1.29487645626	0.0122948884964	-0.209239244461	1.6001316309	-0.274310827255
-0.141359567642	1.2937066555	0.0137950181961	-0.207038402557	1.60118842125	-0.27737569809
-0.128593921661	1.2924875021	0.0128504037857	-0.20476937294	1.60155928135	-0.278297305107
-0.108670711517	1.30482721329	0.0171003341675	-0.202439785004	1.60176765919	-0.277011156082
-0.104985237122	1.3075170517	0.00919771194458	-0.200634002686	1.60120201111	-0.274710893631
-0.109959602356	1.30802452564	0.0243921279907	-0.199553012848	1.60116767883	-0.272124171257
-0.119211673737	1.29292416573	0.0335386991501	-0.198888540268	1.60128390789	-0.270114421844
-0.117360591888	1.2963578701	0.0259246826172	-0.198664188385	1.60147202015	-0.267894625664
-0.12052321434	1.30447268486	0.0186251401901	-0.197571516037	1.6011326313	-0.26584148407
-0.12802028656	1.30354773998	0.0115356445312	-0.196243524551	1.60167145729	-0.263707995415
-0.138860940933	1.2944662571	0.00343179702759	-0.194825410843	1.6023645401	-0.261807799339
-0.141506433487	1.2938631773	-0.0012059211731	-0.193755865097	1.60309481621	-0.260357737541
-0.141797304153	1.29056382179	-0.00150728225708	-0.194226264954	1.60319209099	-0.259195566177
-0.141322374344	1.29120349884	0.00297021865845	-0.195528268814	1.60279524326	-0.257897615433
-0.135406732559	1.30165207386	0.00697290897369	-0.197597503662	1.60280072689	-0.25591301918
-0.136516094208	1.30597949028	0.0184257030487	-0.199944019318	1.60231673717	-0.252901077271
-0.135885000229	1.3072271347	1.060962677e-05	-0.202186346054	1.60216641426	-0.249509334564
-0.133687734604	1.31522655487	-0.00529301166534	-0.202818393707	1.60186970234	-0.246514439583
-0.128046751022	1.32231104374	-0.0109353065491	-0.203191518784	1.60173761845	-0.244288563728
-0.140861272812	1.32116580009	-0.0128244161606	-0.203404188156	1.60219860077	-0.242840051651
-0.140527248383	1.3242162466	-0.0183334350586	-0.203731060028	1.6026058197	-0.242025375366
-0.134867429733	1.33239555359	-0.0183453559875	-0.20432138443	1.60353541374	-0.242230176926
-0.156375646591	1.32772552967	-0.0148733854294	-0.204064130783	1.60455656052	-0.242474555969
-0.176299333572	1.32170319557	0.00390648841858	-0.203138589859	1.60464262962	-0.24290895462
-0.184004068375	1.32565653324	0.00964689254761	-0.202129364014	1.60400152206	-0.242727041245
-0.180342435837	1.33934521675	-0.00344860553741	-0.201132059097	1.60423350334	-0.242309689522
-0.180041313171	1.33079767227	-0.0254862308502	-0.199770450592	1.60434901714	-0.242256641388
-0.199449062347	1.28330898285	-0.0352646112442	-0.198891878128	1.60508704185	-0.241801977158
-0.206609010696	1.23973369598	-0.00922131538391	-0.198562383652	1.6049374342	-0.240890026093
-0.218539476395	1.2499537468	0.0238380432129	-0.198675632477	1.60419631004	-0.240139245987
-0.21856880188	1.2513551712	0.0476291179657	-0.198922872543	1.60385811329	-0.239363193512
-0.227345466614	1.26948535442	0.0433971881866	-0.199853181839	1.60388684273	-0.239329099655
-0.22466301918	1.31577241421	0.043710231781	-0.20201420784	1.60329926014	-0.239047527313
-0.194974184036	1.35081362724	0.0564465522766	-0.203011989594	1.60331821442	-0.23859834671
-0.150456905365	1.3702018261	0.0610891580582	-0.202566862106	1.60298931599	-0.238276720047
-0.108742713928	1.37081694603	0.066365480423	-0.201055049896	1.60231781006	-0.237841010094
-0.065395116806	1.35069894791	0.0849443674088	-0.199378967285	1.60199975967	-0.23771584034
-0.0308632850647	1.31461369991	0.103082895279	-0.19789147377	1.60134601593	-0.23783826828
-0.00055193901062	1.27739608288	0.106304764748	-0.195843219757	1.60079967976	-0.237564325333
0.0243737697601	1.23062050343	0.112408161163	-0.191964387894	1.60060429573	-0.237085819244
0.042720079422	1.2140288353	0.114267587662	-0.18857550621	1.60065627098	-0.236657142639
0.0415847301483	1.23640465736	0.113221168518	-0.186934709549	1.60163533688	-0.237146019936
0.0187880992889	1.27964043617	0.0946431159973	-0.187978029251	1.60345089436	-0.239332675934
0.0189754962921	1.29249215126	0.0900950431824	-0.190386772156	1.60579693317	-0.243078947067
0.00950288772583	1.29423713684	0.0954074859619	-0.192923784256	1.60740947723	-0.249227523804
0.00182056427002	1.29508948326	0.0969693660736	-0.196593999863	1.60920774937	-0.255756497383
-0.0109748840332	1.30188262463	0.0925430059433	-0.200267076492	1.61030375957	-0.261724472046
-0.0293436050415	1.31044960022	0.0861732959747	-0.204433441162	1.61109948158	-0.265582323074
-0.0423583984375	1.31618344784	0.0814402103424	-0.208132266998	1.61125802994	-0.267236351967
-0.0565536022186	1.31536948681	0.0780320167542	-0.212229251862	1.61191022396	-0.267935276031
-0.0675895214081	1.31139659882	0.076523065567	-0.216202974319	1.61204874516	-0.267622470856
-0.070925951004	1.30746269226	0.0777518749237	-0.21832036972	1.61179065704	-0.266822814941
-0.0768291950226	1.3009108305	0.0773875713348	-0.219235658646	1.61151945591	-0.266134738922
-0.0794992446899	1.29290437698	0.0792894363403	-0.22021818161	1.61154568195	-0.26496720314
-0.0747261047363	1.28670036793	0.0830011367798	-0.219614028931	1.61136102676	-0.263616800308
-0.0704793930054	1.28323495388	0.0855937004089	-0.217084646225	1.61084532738	-0.261955738068
-0.0693097114563	1.28299283981	0.0856726169586	-0.214574575424	1.610689044	-0.25995850563
-0.0646152496338	1.2849560976	0.0865280628204	-0.210953235626	1.61025285721	-0.25869011879
-0.0646910667419	1.28677558899	0.0835888385773	-0.207942008972	1.60999011993	-0.258034706116
-0.0673699378967	1.29007840157	0.075318813324	-0.207499980927	1.61008572578	-0.257305622101
-0.0763335227966	1.29098296165	0.0722433328629	-0.210556030273	1.61030185223	-0.25645506382
-0.0795297622681	1.28521478176	0.0750362873077	-0.215596199036	1.61080658436	-0.25704741478
-0.0793700218201	1.27498424053	0.0770061016083	-0.219350337982	1.61086547375	-0.259280800819
-0.0791046619415	1.26533186436	0.0772895812988	-0.21649813652	1.61029613018	-0.261556506157
-0.0714733600616	1.26662003994	0.0768647193909	-0.209279537201	1.60980427265	-0.26283955574
-0.0679075717926	1.26754009724	0.0732216835022	-0.209918498993	1.60892033577	-0.262732982635
-0.068502664566	1.26338934898	0.0746448040009	-0.209393978119	1.6084215641	-0.263343334198
-0.0678973197937	1.25999939442	0.0798377990723	-0.205496788025	1.60741865635	-0.265721797943
-0.0676817893982	1.26280128956	0.0785927772522	-0.204608440399	1.60736238956	-0.267089605331
-0.0786306858063	1.25980746746	0.0754525661469	-0.203744411469	1.60678482056	-0.265737295151
-0.0943703651428	1.25252342224	0.0673725605011	-0.204043388367	1.60669088364	-0.262722015381
-0.0965621471405	1.24824202061	0.0585980415344	-0.205999612808	1.60668599606	-0.259316921234
-0.0875473022461	1.25147438049	0.06795835495	-0.208181381226	1.60679972172	-0.256052732468
-0.0946083068848	1.24863016605	0.064056634903	-0.209939002991	1.60686206818	-0.253042221069
-0.109474658966	1.24224066734	0.0593839883804	-0.21204829216	1.60659813881	-0.249715447426
-0.119643688202	1.23700320721	0.0571010112762	-0.214333057404	1.60652124882	-0.246279001236
-0.113562107086	1.24072194099	0.0626544952393	-0.215913534164	1.607645154	-0.243240594864
-0.107048749924	1.24634158611	0.0632439851761	-0.217095851898	1.60790789127	-0.240570068359
-0.100533723831	1.25215065479	0.0586544275284	-0.217345952988	1.60817074776	-0.238606214523
-0.0994129180908	1.25651156902	0.0522000789642	-0.216570615768	1.60859274864	-0.237805247307
-0.107333898544	1.25537490845	0.0451747179031	-0.216202259064	1.6084676981	-0.237553358078
-0.118879079819	1.25017106533	0.032688498497	-0.217049837112	1.60859596729	-0.238073825836
-0.131978034973	1.24038314819	0.0137912034988	-0.218032121658	1.60910832882	-0.239248871803
-0.142848014832	1.23130977154	0.00414180755615	-0.218684911728	1.60925352573	-0.240484237671
-0.145032405853	1.23012471199	0.00475931167603	-0.219125509262	1.60942065716	-0.241774439812
-0.138786077499	1.24027740955	0.00252461433411	-0.219191074371	1.61002993584	-0.243579268456
-0.12073802948	1.26101374626	0.00143241882324	-0.218608617783	1.61036193371	-0.245594382286
-0.0954165458679	1.28605246544	-0.00445604324341	-0.217382907867	1.61024820805	-0.247508049011
-0.0703265666962	1.31203138828	-0.00627815723419	-0.216756105423	1.61026656628	-0.248951196671
-0.0502560138702	1.33382570744	-0.00368511676788	-0.21738243103	1.61013352871	-0.249813318253
-0.0346176624298	1.34656238556	-0.000880479812622	-0.218374729156	1.61015439034	-0.250352859497
-0.0166330337524	1.35450947285	-0.0125643014908	-0.220215559006	1.61025798321	-0.249311804771
0.0017306804657	1.35733044147	-0.0233987569809	-0.221747636795	1.60978722572	-0.246568799019
0.0177321434021	1.35838854313	-0.0329904556274	-0.223202466965	1.60922551155	-0.243093967438
0.025693655014	1.35541474819	-0.0332318544388	-0.224369525909	1.6086359024	-0.239948034286
0.0212097167969	1.34406387806	-0.0332096815109	-0.225891113281	1.60825681686	-0.237138748169
0.0194826126099	1.33647322655	-0.0314214229584	-0.228458404541	1.60845148563	-0.233960866928
0.0150580406189	1.32747614384	-0.0259693861008	-0.230499744415	1.60833883286	-0.230840325356
0.0136885643005	1.32287788391	-0.0213010311127	-0.231431245804	1.60752892494	-0.2270424366
0.00508618354797	1.31699919701	-0.0172560214996	-0.231355190277	1.60659980774	-0.222262620926
-0.00848841667175	1.30737876892	-0.0117136240005	-0.230513334274	1.60580718517	-0.21734046936
-0.0170862674713	1.30114305019	-0.00626921653748	-0.22945022583	1.60498178005	-0.212858438492
-0.0236279964447	1.29617071152	-0.00428771972656	-0.228747367859	1.60425436497	-0.208809375763
-0.0239908695221	1.29402160645	-0.00165843963623	-0.228094816208	1.60352933407	-0.205628871918
-0.023993730545	1.29201948643	-0.00240921974182	-0.227648973465	1.60260307789	-0.203561067581
-0.0200798511505	1.2964502573	-0.00760114192963	-0.227400779724	1.60220515728	-0.20207452774
-0.0153839588165	1.30121731758	-0.0165174007416	-0.227153778076	1.60175347328	-0.201450705528
-0.0175428390503	1.30108308792	-0.0163443088531	-0.226630449295	1.60133647919	-0.200981140137
-0.0196576118469	1.30058729649	-0.0187320709229	-0.226236581802	1.60110449791	-0.200261592865
-0.018027305603	1.30149161816	-0.0130658149719	-0.225749015808	1.60083866119	-0.199463248253
-0.0185129642487	1.29905807972	0.00247979164124	-0.225135803223	1.60078537464	-0.199177026749
-0.030002117157	1.29406607151	0.000585079193115	-0.224813461304	1.60111629963	-0.198231339455
-0.0420134067535	1.28755426407	0.00343310832977	-0.224044084549	1.60135769844	-0.19735622406
-0.0507137775421	1.28498327732	0.00112652778625	-0.223653793335	1.60130739212	-0.196706533432
-0.0527472496033	1.28341007233	0.0026468038559	-0.22353053093	1.6008348465	-0.195594549179
-0.0563254356384	1.27833616734	-0.00121629238129	-0.223043680191	1.6006705761	-0.194713354111
-0.05695271492	1.27549052238	-0.00283694267273	-0.222186088562	1.6005781889	-0.194406509399
-0.0640830993652	1.27254331112	-0.00222969055176	-0.221106529236	1.60077309608	-0.193817138672
-0.0692949295044	1.26618134975	0.00903618335724	-0.21978187561	1.60063350201	-0.193409442902
-0.0746369361877	1.26160478592	0.0162270069122	-0.218490600586	1.60041069984	-0.19290137291
-0.0741903781891	1.2607396841	0.0202486515045	-0.217995166779	1.60027825832	-0.192498087883
-0.0731835365295	1.26155495644	0.0204099416733	-0.217708826065	1.60030245781	-0.191962718964
-0.0714468955994	1.26662695408	0.0179679393768	-0.217428922653	1.60022962093	-0.191000819206
-0.0682282447815	1.27235996723	0.0109095573425	-0.217036008835	1.59988844395	-0.189837932587
-0.0633051395416	1.27914321423	0.00179934501648	-0.21661233902	1.59972429276	-0.188482761383
-0.0560879707336	1.28869688511	-0.0105841159821	-0.215994596481	1.59970772266	-0.187100410461
-0.0543982982635	1.2936258316	-0.0234518051147	-0.215343475342	1.59956037998	-0.185861349106
-0.0536472797394	1.29565930367	-0.0277121067047	-0.214456558228	1.5994386673	-0.184615850449
-0.051059961319	1.29684710503	-0.0272619724274	-0.213927745819	1.59950947762	-0.183282136917
-0.0494320392609	1.29665589333	-0.0231671333313	-0.213677406311	1.59949493408	-0.182269573212
-0.0452978610992	1.30045485497	-0.0108587741852	-0.213221788406	1.59943902493	-0.182024717331
-0.0406980514526	1.30250024796	0.000882029533386	-0.212809801102	1.59956002235	-0.181968688965
-0.0420815944672	1.30135536194	0.0056483745575	-0.213299512863	1.59946012497	-0.181953907013
-0.0470628738403	1.30064296722	0.00806140899658	-0.213625907898	1.5996966362	-0.182278871536
-0.0524265766144	1.30176687241	0.00938653945923	-0.214794158936	1.60144782066	-0.183638811111
-0.0543079376221	1.31181907654	0.0177553892136	-0.217383623123	1.60524868965	-0.187796354294
-0.0661070346832	1.32112085819	0.0270946025848	-0.223108053207	1.61012125015	-0.19402050972
-0.087085723877	1.32618272305	0.0337045192719	-0.231422424316	1.61460793018	-0.201641440392
-0.107877016068	1.33022737503	0.0386296510696	-0.237882852554	1.61791145802	-0.20934689045
-0.0985186100006	1.35002553463	0.054144859314	-0.242892980576	1.61920940876	-0.214724063873
-0.0967071056366	1.35866725445	0.0781006813049	-0.247380256653	1.62022304535	-0.219005584717
-0.114339828491	1.35912907124	0.080198764801	-0.251984834671	1.62096583843	-0.221765160561
-0.138887166977	1.35463953018	0.0815013647079	-0.256392002106	1.62042295933	-0.22253537178
-0.15163898468	1.34885931015	0.0840096473694	-0.258054733276	1.61966359615	-0.221720337868
-0.14883518219	1.34786772728	0.0791628360748	-0.257228851318	1.61968159676	-0.219856500626
-0.151086807251	1.34199535847	0.0779321193695	-0.255427837372	1.61938846111	-0.217448711395
-0.140917778015	1.34246516228	0.0788669586182	-0.253848075867	1.61906528473	-0.214382529259
-0.138821601868	1.33852243423	0.0756930112839	-0.252759933472	1.61833667755	-0.210931420326
-0.141541719437	1.33230018616	0.0789532661438	-0.251253604889	1.6179997921	-0.208145141602
-0.140155792236	1.32891106606	0.0801426172256	-0.250628948212	1.61765623093	-0.206543207169
-0.133747577667	1.33294904232	0.0799033641815	-0.250950336456	1.61735987663	-0.206193089485
-0.127258300781	1.33825147152	0.0908558368683	-0.251143217087	1.6168961525	-0.206698894501
-0.129001379013	1.33746814728	0.0801174640656	-0.251198768616	1.61667525768	-0.207365036011
-0.133141994476	1.33522975445	0.0760469436646	-0.250270366669	1.61629402637	-0.207897424698
-0.138080358505	1.32744169235	0.0789015293121	-0.250020742416	1.61597764492	-0.208581447601
-0.128506183624	1.3258163929	0.0876668691635	-0.250666856766	1.61619877815	-0.209058046341
-0.126151561737	1.32389318943	0.0860462188721	-0.25130200386	1.61628723145	-0.208967924118
-0.129553318024	1.31843245029	0.0816831588745	-0.252381086349	1.61568653584	-0.20837199688
-0.140566110611	1.30904424191	0.0758936405182	-0.255380392075	1.61547148228	-0.207601666451
-0.14368224144	1.30358362198	0.0742561817169	-0.251073122025	1.6157886982	-0.207914471626
-0.13986492157	1.30392122269	0.0749704837799	-0.243410587311	1.61601746082	-0.209667801857
-0.136718273163	1.30069553852	0.0703021287918	-0.244033575058	1.61551094055	-0.211669683456
-0.133807420731	1.29433107376	0.066169500351	-0.238104581833	1.61511158943	-0.217795133591
-0.130836486816	1.29209017754	0.0625720024109	-0.232816696167	1.61408686638	-0.22611117363
-0.124433755875	1.29167926311	0.0568295717239	-0.229962348938	1.61380314827	-0.235663890839
-0.116782665253	1.28788733482	0.0568760633469	-0.225433349609	1.61353325844	-0.244883418083
-0.108580350876	1.28415119648	0.0477471351624	-0.220241785049	1.61341357231	-0.251715421677
-0.099406003952	1.28467452526	0.0423858165741	-0.215119361877	1.61338746548	-0.256759405136
-0.079400062561	1.2901507616	0.0575879812241	-0.212149381638	1.61384499073	-0.259616732597
-0.0829091072083	1.28959906101	0.0451323986053	-0.209839344025	1.6141564846	-0.261016368866
-0.0935688018799	1.28748488426	0.0381169319153	-0.20720410347	1.61388623714	-0.261406898499
-0.106815814972	1.28560507298	0.0277061462402	-0.205680847168	1.61361348629	-0.261166453362
-0.116134166718	1.27975559235	0.0249722003937	-0.205593109131	1.61381852627	-0.260653018951
-0.124017953873	1.27434718609	0.0213856697083	-0.206471443176	1.61413693428	-0.259847521782
-0.130372047424	1.27260732651	0.0233252048492	-0.207117319107	1.6143938303	-0.258683681488
-0.133077144623	1.2707375288	0.0391383171082	-0.206962347031	1.6146517992	-0.255623579025
-0.12345123291	1.28013968468	0.0401847362518	-0.206785678864	1.61477935314	-0.252205967903
-0.0969820022583	1.29545104504	0.0477283000946	-0.207231521606	1.61482679844	-0.249212145805
-0.0956885814667	1.29345273972	0.0416284799576	-0.207463264465	1.61504590511	-0.247042655945
-0.104235172272	1.27977073193	0.0561443567276	-0.207616329193	1.61484026909	-0.24571955204
-0.104812383652	1.27852916718	0.0497174263	-0.208141088486	1.61447739601	-0.245849132538
-0.0900917053223	1.28707838058	0.0526876449585	-0.207607269287	1.61293411255	-0.250000834465
-0.0909905433655	1.28074896336	0.0398327112198	-0.204683065414	1.60940647125	-0.260058164597
-0.0844206809998	1.27896678448	0.0379328727722	-0.197881221771	1.6036491394	-0.275250911713
-0.072291135788	1.28592479229	0.0278522968292	-0.187508106232	1.59814941883	-0.294229030609
-0.0635595321655	1.28740286827	0.0189439058304	-0.177670001984	1.59535121918	-0.313822507858
-0.0655913352966	1.27516531944	0.0206081867218	-0.171100616455	1.59192085266	-0.33105969429
-0.0606865882874	1.26824474335	0.0102322101593	-0.166780471802	1.58913314342	-0.34510743618
-0.0427882671356	1.27764511108	0.00541818141937	-0.162070989609	1.58750092983	-0.354972481728
-0.0314943790436	1.2824395895	0.00655198097229	-0.158017158508	1.58684122562	-0.361075878143
-0.0471062660217	1.2753341198	-0.00186574459076	-0.153892278671	1.58648514748	-0.363820433617
-0.0340065956116	1.28027689457	0.000593543052673	-0.15097784996	1.5870411396	-0.363624095917
-0.0335083007812	1.28011310101	0.0139949321747	-0.149224996567	1.58717703819	-0.360877275467
-0.0550518035889	1.27286231518	-0.0064789056778	-0.148391008377	1.58752167225	-0.355491399765
-0.0624837875366	1.27034950256	0.0035765171051	-0.147798776627	1.58816254139	-0.349892616272
-0.0783414840698	1.25583922863	0.00130701065063	-0.14849281311	1.58942914009	-0.344042181969
-0.0772821903229	1.25586795807	0.00842344760895	-0.149398326874	1.59006786346	-0.337089300156
-0.0872342586517	1.2503592968	0.0124453306198	-0.15064573288	1.59181129932	-0.329937696457
-0.0874600410461	1.24889862537	0.0135946273804	-0.153176307678	1.59388065338	-0.322184085846
-0.0819470882416	1.25862836838	0.0166471004486	-0.156005859375	1.59545624256	-0.313840389252
-0.0908904075623	1.25097703934	0.0234680175781	-0.159274816513	1.59766066074	-0.305478334427
-0.103974342346	1.2429267168	0.0254046916962	-0.163336753845	1.59988868237	-0.295689821243
-0.115475654602	1.24644947052	0.0308820009232	-0.166790962219	1.60258507729	-0.286260128021
-0.119295358658	1.25365638733	-0.00631356239319	-0.169548749924	1.60441398621	-0.277621388435
-0.119164466858	1.25056171417	-0.00305104255676	-0.171619653702	1.60462141037	-0.271541595459
-0.116611480713	1.24497961998	-0.000442862510681	-0.174487113953	1.60480761528	-0.267413973808
-0.113941431046	1.24091458321	-0.0042644739151	-0.176971912384	1.60563015938	-0.263687849045
-0.110957384109	1.23668539524	0.00811803340912	-0.184883832932	1.60768318176	-0.260433316231
-0.11062169075	1.2281537056	0.0148793458939	-0.194725990295	1.6103168726	-0.260510921478
-0.115435838699	1.22139465809	0.0216755867004	-0.187894821167	1.6119992733	-0.260840892792
-0.121334075928	1.21662664413	0.0314915180206	-0.174993753433	1.6145015955	-0.263370275497
-0.122322559357	1.20630252361	0.0462551116943	-0.165084600449	1.61841678619	-0.271439313889
-0.12060546875	1.18988776207	0.058123588562	-0.157035589218	1.62085938454	-0.284521460533
-0.118215799332	1.18192338943	0.0672388076782	-0.147570133209	1.6199555397	-0.295320034027
-0.114971399307	1.18726432323	0.0694394111633	-0.13480091095	1.61742091179	-0.302631855011
-0.106836795807	1.19661855698	0.0720822811127	-0.11856842041	1.61394798756	-0.309183120728
-0.0994739532471	1.2030223608	0.0727635622025	-0.100487470627	1.60993146896	-0.314460992813
-0.0838303565979	1.20720994473	0.0767340660095	-0.0917975902557	1.6092427969	-0.318113803864
-0.058012008667	1.20048987865	0.100183486938	-0.0871474742889	1.61025488377	-0.320814847946
-0.0587074756622	1.197026968	0.0924236774445	-0.0785980224609	1.60859668255	-0.320612549782
-0.0663273334503	1.19825875759	0.0839788913727	-0.0729813575745	1.60729539394	-0.318488717079
-0.0735394954681	1.20086371899	0.0806751251221	-0.0699651241302	1.60592961311	-0.315099954605
-0.0929009914398	1.19383251667	0.0691220760345	-0.0700533390045	1.60587394238	-0.31136572361
-0.108409404755	1.1894620657	0.0588216781616	-0.0729918479919	1.60540831089	-0.306215763092
-0.109521865845	1.19639801979	0.0498117208481	-0.0762526988983	1.60657787323	-0.300350546837
-0.108511924744	1.19762444496	0.0493251085281	-0.0820965766907	1.60763967037	-0.294408559799
-0.108178853989	1.19642412663	0.0455069541931	-0.0899949073792	1.60855305195	-0.286871552467
-0.111636161804	1.19325935841	0.0418081283569	-0.0977599620819	1.60926508904	-0.278255462646
