0.10445022583	1.03708052635	-0.194677591324	-0.156229257584	1.5947881937	-0.364899396896
0.103271961212	1.03774046898	-0.1935069561	-0.156441688538	1.59420287609	-0.363256216049
0.102039813995	1.03761148453	-0.192139863968	-0.156614780426	1.59251153469	-0.361347794533
0.101615428925	1.03782320023	-0.191384315491	-0.15686583519	1.59031891823	-0.358428120613
0.101475000381	1.0374982357	-0.191490411758	-0.15762925148	1.58921873569	-0.355293512344
0.100476980209	1.03372764587	-0.191347837448	-0.15866112709	1.58817970753	-0.352388858795
0.0966920852661	1.02600979805	-0.187413215637	-0.159755706787	1.58429145813	-0.348453998566
0.0958490371704	1.02696871758	-0.191712379456	-0.161228179932	1.57572352886	-0.343503952026
0.101460456848	1.03099942207	-0.194071769714	-0.161465167999	1.56573104858	-0.337422728539
0.105954647064	1.03227376938	-0.197269201279	-0.160676956177	1.55804157257	-0.331374883652
0.106976985931	1.03083014488	-0.201010227203	-0.160448074341	1.55176568031	-0.325890660286
0.106671333313	1.02708745003	-0.206233263016	-0.161395549774	1.54714429379	-0.321930885315
0.107094764709	1.02544903755	-0.208468198776	-0.16289806366	1.53939855099	-0.319635868073
0.10480260849	1.02688407898	-0.206964969635	-0.164497852325	1.52940499783	-0.319716215134
0.101938247681	1.02913498878	-0.204565048218	-0.165676593781	1.52366697788	-0.320569515228
0.0997729301453	1.02958512306	-0.205237865448	-0.165751695633	1.52165412903	-0.322049260139
0.0964875221252	1.0293803215	-0.209505558014	-0.164946079254	1.52203309536	-0.323270797729
0.0990860462189	1.03094863892	-0.208249807358	-0.163571834564	1.52236735821	-0.324079990387
0.0925626754761	1.02901148796	-0.213837623596	-0.162463188171	1.52175664902	-0.325567483902
0.0816252231598	1.0300154686	-0.227934837341	-0.16056394577	1.52298426628	-0.326903104782
0.0784747600555	1.02644371986	-0.231080532074	-0.160007953644	1.52415347099	-0.327926874161
0.0747785568237	1.02743077278	-0.230093002319	-0.158977508545	1.52434277534	-0.328727960587
0.0671453475952	1.02681922913	-0.228892087936	-0.155403375626	1.52525377274	-0.329867959023
0.06645154953	1.02763438225	-0.223350286484	-0.150301933289	1.52610933781	-0.331616997719
0.0721666812897	1.03578877449	-0.214613556862	-0.147386789322	1.52576816082	-0.332355380058
0.0779738426208	1.04288315773	-0.210416555405	-0.148819208145	1.52693271637	-0.332517623901
0.0588376522064	1.04127407074	-0.215069055557	-0.149413347244	1.52737343311	-0.331290960312
0.0424988269806	1.03000855446	-0.220158338547	-0.147558689117	1.52617275715	-0.330298066139
0.0383727550507	1.03100633621	-0.221349477768	-0.146347522736	1.52572667599	-0.329246997833
0.0440323352814	1.03465366364	-0.219782829285	-0.146882534027	1.52671003342	-0.328390598297
0.046707868576	1.03829336166	-0.219767093658	-0.151710987091	1.52874970436	-0.327550530434
0.0438885688782	1.03554153442	-0.221178770065	-0.160728216171	1.53017306328	-0.327632427216
0.0387389659882	1.03084301949	-0.222559332848	-0.163651943207	1.5292724371	-0.328691720963
0.0349328517914	1.03016471863	-0.221605062485	-0.157666444778	1.52845907211	-0.329665899277
0.0305788516998	1.03152251244	-0.219847202301	-0.150245189667	1.52729034424	-0.330903410912
0.0303318500519	1.03316521645	-0.218869328499	-0.143936634064	1.52778971195	-0.331974983215
0.0305445194244	1.03446888924	-0.218380451202	-0.129765510559	1.52777051926	-0.334983348846
