0.0	-0.0	126.04624939	73.859664917	81.178237915	0.835888385773
0.0	-0.0	124.050949097	71.7483215332	81.1791152954	1.49072408676
0.0	-0.0	123.5730896	70.2738876343	81.0961380005	2.255600214
0.0	-0.0	122.663642883	70.3053131104	80.5581665039	1.86450874805
0.0	-0.0	121.821601868	70.7660217285	79.2932510376	1.46301722527
0.0	-0.0	119.710716248	72.7973556519	75.0370407104	1.20936715603
0.0	-0.0	117.830802917	78.296546936	71.4379806519	1.17540025711
0.0	-0.0	72.2779998779	86.7876739502	66.429901123	-0.329185128212
0.0	-0.0	19.9185581207	94.2032165527	58.8887825012	-2.79650998116
0.0	-0.0	32.4614028931	98.0630645752	57.7422294617	-4.41009140015
0.0	-0.0	46.8794937134	99.8234024048	58.8033599854	-4.86833429337
0.0	-0.0	59.2808647156	101.296508789	61.2111663818	-4.69723415375
