-30.8129348755	-51.2270126343	136.908615112	7.73818588257	2.75841259956	0.89683765173
-28.658908844	-51.9189491272	134.680297852	8.00626182556	2.5593559742	1.01708853245
-27.405664444	-51.3126602173	132.684921265	7.80468893051	2.5909178257	0.881975054741
-23.3062934875	-51.0787315369	124.86026001	7.9187040329	2.48742723465	1.01574254036
-14.7727279663	-41.4949798584	92.7171401978	8.19749641418	2.96548962593	1.05228435993
-18.6359062195	-36.6683692932	88.0925140381	8.70838069916	3.68039441109	0.857163190842
-22.3176002502	-28.1585865021	78.1628265381	9.24431800842	6.10848808289	0.567578434944
-30.5846729279	-25.4025859833	83.5836257935	9.81520271301	9.82004547119	0.814023077488
-31.4810161591	-23.4542064667	84.2695999146	10.6802253723	15.052646637	-0.259255766869
-31.5641651154	-23.6344223022	85.0440673828	13.3257322311	21.9151306152	-1.11256992817
-30.474193573	-23.5552082062	84.3473510742	15.9029006958	26.4443855286	-0.492665380239
-29.5113124847	-22.8026771545	84.0517044067	16.3324604034	26.0582294464	-0.841026723385
-28.7033081055	-20.9695510864	79.4654769897	16.1986694336	25.8793449402	-1.12263023853
-29.9049777985	-18.7329540253	75.0157928467	14.9140233994	26.6748657227	-1.03857314587
-33.0046195984	-16.5862693787	71.2220993042	13.3100366592	26.5285720825	-0.955848634243
-35.5295829773	-14.9969959259	71.2781600952	12.2935590744	27.0306243896	-0.890920877457
-34.8666191101	-14.653883934	69.9496383667	12.1081075668	26.7368412018	-0.928431689739
-33.2549133301	-13.7264766693	67.9675827026	11.7224159241	26.3228321075	-0.790076851845
-32.0238265991	-12.0272512436	68.3778457642	11.8387985229	26.601858139	-0.551175475121
-27.2978820801	-8.10837078094	98.1729354858	12.9478931427	26.5149726868	-0.180808216333
-22.8147201538	-1.81518352032	110.466743469	14.6302852631	27.3228378296	0.00664571439847
-18.5191230774	-2.84469008446	95.2500762939	15.6969890594	28.8874988556	0.0919815227389
-17.6096343994	-4.67718267441	67.7405929565	16.1484832764	28.7222309113	0.0760636031628
-18.0589389801	-1.22730565071	70.8404769897	17.2869911194	28.3980674744	0.544246137142
-20.9266395569	5.83798027039	104.769386292	19.3360996246	28.1099700928	1.04747128487
-17.8771743774	9.70717716217	91.7234649658	21.0191612244	28.3506660461	1.28568041325
-16.9449100494	6.31296634674	64.6354370117	21.3757190704	28.4984321594	1.1683703661
-13.1963682175	1.13410556316	34.4461784363	21.4876060486	28.3113136292	1.16484880447
-7.96147298813	3.33145451546	25.2941741943	22.5888576508	28.1556797028	1.35896945
-8.4574432373	2.23424315453	45.2574806213	22.8478546143	27.9566745758	1.27306711674
-14.2185144424	3.44493937492	70.4133682251	23.0023326874	27.7228183746	1.06184303761
-14.8973178864	4.03294324875	75.2947540283	24.0275211334	27.8325538635	1.24837553501
-8.06725502014	5.98903512955	33.910949707	24.3901920319	27.8699951172	1.2609115839
-9.7111492157	4.12535762787	27.4496212006	24.5491809845	27.4749717712	1.02988958359
-8.07297706604	3.50937366486	31.4285984039	25.6360702515	27.3684310913	1.09640824795
-8.12036705017	2.20410990715	55.0862770081	26.7567329407	27.1810874939	1.24977648258
