-24.2744636536	-0.501676142216	36.1996421814	-7.4527130127	9.3125038147	-34.8723869324
-24.1087722778	-0.187859416008	36.250202179	-7.26283740997	9.46606349945	-34.8347587585
-24.2618408203	-0.0938460305333	35.9679069519	-7.14112186432	9.7895116806	-34.6191978455
-27.3150157928	4.25476121902	31.5273036957	-5.40905284882	12.2807216644	-32.7662353516
-28.3327007294	9.28749275208	27.0475196838	-1.0476641655	17.3635387421	-29.0874633789
-26.4764900208	8.49865627289	23.5599651337	2.97984552383	21.6250591278	-25.3715782166
-21.6706314087	7.31935405731	21.499174118	4.80383872986	23.4470539093	-23.454864502
-17.3638706207	8.74837398529	11.5724382401	5.10637569427	23.6503143311	-23.6594638824
-15.2123184204	10.5663528442	-4.57831335068	5.44495201111	23.8779735565	-23.8091392517
-14.7608976364	7.42574310303	-1.35808861256	6.28399658203	23.9082012177	-23.3778247833
-14.0811357498	4.71276903152	9.70778369904	7.29725074768	23.348115921	-22.6356678009
-16.3359375	1.10725569725	25.9237194061	8.06581687927	23.0295276642	-21.7365398407
-15.2257852554	-0.169479802251	27.2335681915	8.76630878448	23.1797447205	-20.1284198761
-14.1544742584	-1.22956931591	27.8758335114	9.18244838715	23.3480453491	-17.9399700165
-12.7383804321	-0.774110794067	28.0626487732	9.63350200653	23.2887783051	-15.5365056992
-12.2886667252	-0.451604425907	27.8091259003	10.6082077026	22.6278381348	-12.7789020538
-11.8545036316	-0.808791458607	26.4172306061	11.1117925644	22.2290229797	-9.23306846619
-12.5094718933	-1.20770907402	25.5669612885	11.890704155	21.754442215	-5.91123723984
-13.6967439651	-1.00654649734	27.0383892059	12.8259963989	21.0741901398	-3.25025033951
-14.4807939529	-1.03861868382	26.7986450195	12.3139400482	21.0952110291	-0.968065261841
-15.7514038086	-1.61870121956	26.528470993	11.8488750458	20.994562149	2.07223033905
-15.5844163895	-1.12004101276	26.5537624359	11.0298261642	20.6653385162	3.46863126755
-15.7053108215	-0.956445097923	26.4130973816	9.91784191132	20.1716651917	3.91278481483
-13.2929086685	-0.845945715904	23.3214359283	8.56109619141	20.2361888885	3.34226465225
0.845726251602	16.0632076263	-6.44711828232	7.25277996063	20.545249939	1.7409375906
1.04949879646	20.4888801575	-8.75524997711	5.96354627609	20.8549365997	-0.826603710651
2.30981040001	19.4527111053	-2.15795183182	5.98115253448	22.1470413208	-3.07021570206
4.02228403091	17.726984024	2.57166719437	7.12997055054	23.8486766815	-5.27454423904
3.37180614471	16.6225738525	1.90763688087	7.44846582413	24.959821701	-8.33456516266
2.44103980064	16.621175766	5.63151836395	7.83502101898	25.4561100006	-10.5032281876
0.242109075189	10.9782447815	19.3865032196	7.54092025757	25.7008533478	-10.8407993317
-3.03254508972	11.2327880859	19.3223686218	7.41059970856	25.6392459869	-10.471529007
-4.03042602539	12.046169281	20.2356052399	8.19401264191	25.5587749481	-10.6763067245
-3.08385777473	16.1275806427	17.3274669647	8.54667472839	25.7654037476	-11.3506860733
-0.836689352989	19.917339325	13.3905344009	8.20253658295	25.7258586884	-11.262503624
-0.347833633423	21.7226200104	9.62357902527	7.88884210587	25.7772159576	-11.2014837265
-0.481440037489	21.5836677551	10.6747865677	7.82447052002	26.1143417358	-11.2536010742
-0.206585213542	22.1416721344	10.8898820877	7.60222816467	26.214466095	-11.3863716125
0.367000490427	23.2872314453	11.1577854156	7.33148813248	26.292432785	-11.5488872528
0.483862876892	23.1602210999	12.2627716064	7.26016569138	26.3800945282	-11.5726976395
0.484274655581	22.8902626038	13.2722949982	7.19267225266	26.3778076172	-11.8796377182
0.381779640913	23.2609176636	14.0542888641	7.15098237991	26.2917690277	-13.147939682
0.462117135525	23.4936408997	15.0426492691	7.42507219315	26.6713180542	-14.4859399796
0.299257427454	23.0485477448	15.2520942688	8.16875076294	27.4197788239	-15.1235027313
