-43.0318832397	-39.0792732239	140.191818237	14.1236391068	4.5435256958	3.99004149437
-41.5026054382	-36.2594108582	136.931869507	14.2904987335	4.76459741592	3.89957070351
-27.5535926819	-20.634552002	102.027351379	14.6484622955	5.82834100723	3.91895914078
-41.3577156067	-20.7643299103	113.413253784	15.4175796509	9.85410404205	4.217233181
-46.840007782	-15.7045021057	109.051681519	14.862241745	14.2632951736	4.74384832382
-45.8022499084	-15.6244316101	109.501457214	11.7442464828	14.1890296936	4.47199392319
-45.4970169067	-16.7240810394	114.732383728	6.37661790848	12.671995163	4.56672763824
-47.6687812805	-18.5095596313	117.407546997	0.936895310879	11.4177627563	5.10715913773
-49.2111473083	-20.2393722534	119.239593506	-6.22895145416	9.82637500763	6.20852708817
-49.7117156982	-22.5846862793	120.646736145	-13.1313772202	7.93089389801	6.9546585083
-49.0669593811	-22.5706577301	116.488075256	-15.6360902786	6.65583848953	7.2829875946
-45.3075065613	-23.3217144012	104.353393555	-15.5833177567	6.35450649261	7.52610826492
-48.2354354858	-22.3139572144	101.592430115	-15.7243680954	5.98967075348	7.60869979858
-49.5202255249	-21.3865470886	99.5796737671	-16.0672092438	5.75597143173	7.47797346115
-49.9600906372	-21.368730545	100.34753418	-16.5452404022	5.37509727478	7.47702217102
-49.9613990784	-20.9073352814	99.8959121704	-16.9902381897	4.73627090454	7.57789373398
-48.9811058044	-19.7295703888	97.1265640259	-17.4043064117	4.0264081955	7.6854224205
-47.3927612305	-19.6528244019	92.64503479	-17.4315872192	3.11346244812	7.56744527817
-49.5722465515	-20.5255088806	94.4115753174	-17.3479652405	1.97275149822	7.37986278534
-50.3335800171	-21.7333755493	95.2558135986	-17.485162735	1.24080967903	7.35822820663
-51.8055915833	-22.9111480713	96.0169448853	-18.0911464691	0.931055009365	7.41727018356
-42.0234336853	-8.79972648621	80.7567901611	-18.6202888489	0.793592095375	7.5511932373
-39.1404762268	-11.3355636597	81.4150314331	-18.817155838	0.470718711615	7.67251205444
-49.8929901123	-22.4620685577	96.1320800781	-18.6028957367	0.578357100487	7.5761756897
-53.5689468384	-24.7538757324	102.117507935	-18.0026569366	1.10930430889	7.25333356857
-54.4311714172	-23.3577861786	102.563430786	-17.5975189209	1.54026329517	7.23472356796
-38.4939537048	-4.16674566269	83.330619812	-17.5804462433	1.83769094944	7.17603111267
