0.0	-0.0	-134.265762329	10.2325372696	89.0511169434	69.2146072388
0.0	-0.0	-133.757583618	8.98543548584	89.4274673462	69.231918335
0.0	-0.0	-133.227645874	9.46978569031	89.4606170654	68.3322525024
0.0	-0.0	-129.651321411	-177.257797241	85.4846420288	-117.342254639
0.0	-0.0	-121.9817276	169.171600342	76.4514389038	-127.825790405
0.0	0.0	-109.322311401	158.599258423	74.149848938	-129.068328857
0.0	0.0	-94.7154846191	165.420730591	78.5040054321	-130.04826355
0.0	0.0	-85.1100387573	175.577850342	83.5796737671	-130.613174438
0.0	0.0	-79.3505172729	-178.942504883	88.1404495239	-133.153060913
0.0	0.0	-72.5002059937	4.96724700928	88.0054016113	51.2588920593
0.0	0.0	-58.0803222656	5.65985774994	81.0868148804	72.7431182861
0.0	0.0	-40.9500770569	13.0308952332	76.5296401978	69.5191421509
0.0	0.0	-24.9525566101	5.18857288361	84.4954986572	54.1445884705
0.0	0.0	-9.85166072845	157.745285034	86.2141571045	-133.369293213
0.0	-0.0	1.72125303745	140.021499634	76.5998001099	-129.71774292
0.0	-0.0	9.74507331848	133.210083008	66.1692352295	-126.994033813
0.0	-0.0	13.3205537796	139.71673584	62.509803772	-126.059150696
0.0	-0.0	11.5700387955	149.53288269	60.3696937561	-121.045196533
0.0	-0.0	3.72014045715	171.026626587	66.464805603	-120.025260925
0.0	0.0	-22.2623176575	-178.588150024	77.6690368652	-134.462600708
0.0	0.0	-43.8948822021	173.232650757	85.4544219971	-138.566253662
0.0	0.0	-52.4484405518	167.421127319	86.9183959961	-141.307510376
0.0	0.0	-59.5380210876	165.253555298	86.3293228149	-146.002471924
0.0	0.0	-67.0658416748	160.356781006	82.3754959106	-142.277816772
0.0	0.0	-71.0920410156	158.832717896	80.2034988403	-141.202163696
0.0	0.0	-69.9544830322	153.394317627	72.9809036255	-141.812423706
0.0	0.0	-70.3358612061	152.942245483	69.045539856	-141.291290283
0.0	0.0	-71.8358764648	155.068466187	66.2819671631	-142.272094727
0.0	0.0	-73.446105957	158.242004395	64.8637466431	-145.528182983
0.0	0.0	-77.466506958	161.132614136	63.424079895	-145.226837158
0.0	0.0	-85.4197769165	166.052688599	63.0238113403	-144.736282349
0.0	0.0	-105.089393616	170.311538696	61.0351104736	-144.597564697
0.0	-0.0	-128.379425049	167.239730835	58.0531692505	-143.115859985
0.0	-0.0	-135.637969971	160.97064209	55.2317276001	-144.80859375
0.0	-0.0	-139.157531738	158.008346558	54.1048965454	-146.046478271
0.0	-0.0	-138.238143921	155.049438477	54.993019104	-146.276687622
0.0	-0.0	-131.414520264	156.593399048	55.756729126	-149.326522827
0.0	-0.0	-126.936538696	152.943756104	54.6630783081	-151.532592773
0.0	-0.0	-129.529403687	151.508331299	53.391746521	-154.418991089
0.0	-0.0	-134.552185059	151.376617432	49.0541687012	-154.851821899
0.0	-0.0	-134.024383545	158.271896362	56.7663497925	-109.046173096
0.0	-0.0	-135.068634033	154.464355469	55.631023407	-104.260223389
0.0	-0.0	-135.907974243	147.422470093	48.4799995422	-103.318092346
0.0	-0.0	-136.764205933	146.238708496	42.0244140625	-118.915527344
0.0	-0.0	-137.891235352	144.110473633	37.6454277039	-113.235351562
0.0	-0.0	-138.009292603	144.392852783	40.6913642883	-102.456016541
0.0	-0.0	-138.154876709	144.605178833	42.1083145142	-96.3755950928
0.0	-0.0	-138.572540283	142.417709351	40.4206161499	-101.140350342
0.0	-0.0	-138.581359863	139.105285645	37.3275947571	-106.001602173
0.0	-0.0	-138.884353638	139.607299805	38.0345726013	-115.675949097
0.0	-0.0	-138.928955078	139.20980835	39.9947166443	-127.158500671
0.0	-0.0	-138.588577271	142.250762939	42.7037887573	-127.364822388
0.0	-0.0	-138.970916748	146.725204468	45.6308860779	-150.029922485
0.0	-0.0	-139.150222778	146.324737549	43.8038520813	-160.143981934
0.0	-0.0	-139.00038147	145.46736145	41.2365226746	-157.324035645
0.0	-0.0	-139.10534668	142.522994995	40.2792167664	-134.281295776
0.0	-0.0	-139.214157104	140.159118652	39.0171508789	-117.954574585
0.0	-0.0	-139.562225342	136.23260498	39.5605735779	-107.242149353
0.0	-0.0	-139.58895874	134.685958862	40.2613639832	-107.510185242
0.0	-0.0	-139.728546143	135.310043335	40.0647544861	-110.421234131
0.0	-0.0	-139.794403076	137.087799072	41.8778915405	-115.476852417
0.0	-0.0	-139.773620605	137.745941162	41.8911170959	-114.805511475
0.0	-0.0	-139.374176025	137.550201416	37.2175712585	-110.436653137
0.0	-0.0	-139.395507812	140.446166992	31.3684196472	-113.031745911
0.0	-0.0	-137.954742432	147.293991089	17.2437362671	-109.533508301
0.0	-0.0	-138.508560181	148.435302734	14.1983318329	-120.606643677
0.0	-0.0	-138.032394409	153.703521729	9.27406692505	-117.204711914
0.0	-0.0	-138.633621216	152.176925659	16.5084667206	-121.661872864
0.0	-0.0	-138.423339844	154.096069336	13.4483375549	-111.462104797
0.0	-0.0	-138.244659424	155.128829956	12.0808095932	-84.4415359497
0.0	-0.0	-138.400253296	154.302993774	10.6851682663	-89.3119506836
0.0	-0.0	-138.185958862	146.981613159	3.5078163147	-92.0670089722
0.0	-0.0	-138.351745605	143.351013184	3.64843678474	-110.83039856
0.0	-0.0	-138.300537109	139.104858398	19.2274284363	-146.883285522
0.0	-0.0	-137.986190796	129.430648804	39.954990387	-152.934570312
0.0	-0.0	-137.502609253	118.790649414	47.5972595215	-149.769622803
0.0	-0.0	-136.699813843	116.627693176	54.235168457	-151.632400513
0.0	-0.0	-135.547546387	121.994422913	48.8806915283	-157.180419922
0.0	-0.0	-133.703216553	126.613548279	43.6007080078	-164.021713257
0.0	-0.0	-131.624938965	129.069793701	41.9978599548	-168.059967041
0.0	-0.0	-127.334068298	136.626144409	33.2116622925	-139.37677002
0.0	-0.0	-124.550247192	142.687454224	23.3640098572	-81.8266677856
0.0	-0.0	-123.878517151	143.438247681	27.2776813507	-93.8845596313
0.0	-0.0	-124.364715576	142.247756958	32.5541534424	-117.87210083
0.0	-0.0	-124.185882568	144.926651001	35.9547653198	-125.057441711
0.0	-0.0	-125.168922424	146.129898071	34.7995376587	-117.808670044
0.0	-0.0	-126.828155518	148.837982178	38.0044555664	-137.643569946
0.0	-0.0	-136.421112061	151.154525757	38.7542037964	-138.584884644
0.0	-0.0	-135.701843262	150.730819702	40.0714569092	-111.866317749
0.0	-0.0	-125.345993042	144.423568726	40.2956237793	-82.263961792
0.0	0.0	-112.574081421	138.519515991	37.1240272522	-68.3881378174
0.0	0.0	-106.493522644	144.904525757	35.3526268005	-96.0734481812
0.0	0.0	-107.389350891	142.61680603	35.1049118042	-108.78427124
0.0	0.0	-108.127983093	143.674468994	35.6224403381	-112.40940094
0.0	0.0	-108.438743591	144.34475708	36.6254653931	-114.916442871
0.0	0.0	-109.891677856	144.668395996	37.0601348877	-115.252723694
0.0	0.0	-111.811340332	147.084777832	39.4238471985	-116.408782959
0.0	0.0	-112.686004639	147.306167603	41.1755332947	-113.289276123
0.0	0.0	-113.116188049	145.983978271	41.2320823669	-129.743453979
0.0	0.0	-114.35785675	145.573394775	40.9155883789	-137.791900635
0.0	0.0	-114.29335022	139.522796631	35.1706428528	-111.653991699
0.0	0.0	-115.111869812	135.494018555	29.9057292938	-111.194488525
0.0	0.0	-115.704277039	134.734451294	33.6499328613	-124.449668884
0.0	0.0	-115.581428528	136.750610352	35.3530273438	-126.718162537
0.0	0.0	-115.889122009	135.542709351	31.6426086426	-107.598777771
0.0	0.0	-116.019355774	134.039581299	30.0354652405	-108.828079224
0.0	0.0	-116.092453003	132.410522461	29.8197822571	-112.24836731
0.0	0.0	-115.746078491	134.537796021	34.7168807983	-122.810165405
0.0	0.0	-115.6690979	133.476715088	37.718132019	-134.447143555
0.0	0.0	-115.325424194	128.707641602	34.483379364	-132.425689697
0.0	0.0	-115.523002625	129.019165039	32.4452552795	-130.721969604
0.0	0.0	-115.717216492	129.98387146	34.8657722473	-133.850921631
0.0	0.0	-115.558456421	129.2525177	38.0750083923	-140.058837891
0.0	0.0	-115.917236328	131.108581543	39.9559059143	-130.179916382
0.0	0.0	-116.072601318	131.101654053	35.8207969666	-104.841804504
0.0	0.0	-117.019226074	132.095092773	33.8153686523	-105.905288696
0.0	-0.0	-126.375259399	131.314880371	32.0820770264	-114.662017822
0.0	-0.0	-144.42527771	128.551986694	31.2917804718	-114.304748535
0.0	-0.0	-143.348648071	133.797180176	36.4350280762	-110.278114319
0.0	-0.0	-124.466156006	143.847442627	53.530002594	-114.454078674
0.0	0.0	-91.2409591675	147.350250244	68.9659118652	-137.467254639
0.0	0.0	-69.1162796021	154.920379639	55.7682304382	-162.598648071
0.0	0.0	-52.0031738281	155.131866455	52.6188812256	-170.041412354
0.0	0.0	-31.835723877	155.794967651	47.4659233093	-158.352508545
0.0	0.0	-9.43358135223	153.456771851	45.3792381287	-146.348068237
0.0	-0.0	5.70822763443	154.044677734	47.3601837158	-146.551544189
0.0	-0.0	8.15445995331	154.593353271	48.0783653259	-134.124786377
0.0	-0.0	2.12757325172	155.753173828	48.3090896606	-126.953208923
0.0	0.0	-8.25004482269	157.005310059	49.6977767944	-123.486175537
0.0	0.0	-22.1315784454	155.363464355	55.699344635	-136.601852417
0.0	0.0	-36.0796394348	148.918502808	58.2739906311	-150.754928589
0.0	0.0	-46.7879066467	147.331558228	55.3599052429	-148.40335083
0.0	0.0	-51.4600372314	145.153915405	53.2265129089	-144.716567993
0.0	0.0	-56.4461135864	143.8490448	53.6389732361	-151.723800659
0.0	0.0	-65.5714797974	142.626846313	51.6148376465	-153.677383423
0.0	0.0	-69.7440643311	141.543304443	50.1716270447	-153.421966553
0.0	0.0	-70.2705383301	140.912567139	49.2143096924	-153.684249878
0.0	0.0	-72.7623138428	142.69442749	47.4440078735	-149.437469482
0.0	0.0	-78.7311172485	142.292068481	48.0480957031	-146.248291016
0.0	0.0	-94.5973510742	141.41645813	44.7685699463	-142.649230957
0.0	0.0	-106.648635864	137.649093628	43.000667572	-144.13092041
0.0	0.0	-112.998802185	137.811203003	44.2462158203	-145.341415405
0.0	0.0	-111.161956787	136.27947998	45.8318099976	-148.613006592
0.0	0.0	-104.434410095	135.058181763	46.1685180664	-150.772735596
0.0	0.0	-95.5267028809	131.558197021	48.490688324	-130.569152832
0.0	0.0	-88.6026992798	127.823493958	41.8232841492	-98.835647583
0.0	0.0	-88.9654769897	122.610824585	36.4876327515	-88.2455444336
0.0	0.0	-92.066444397	122.852027893	37.9284896851	-90.3405227661
0.0	0.0	-92.541343689	125.176300049	41.157081604	-100.837593079
0.0	0.0	-92.1041183472	127.321174622	41.6019248962	-103.660896301
0.0	0.0	-92.743057251	128.112533569	41.6198158264	-104.646186829
0.0	0.0	-93.1461486816	130.433883667	44.3418540955	-113.649673462
0.0	0.0	-93.3290481567	132.751296997	47.7025985718	-125.580848694
0.0	0.0	-93.7661972046	132.334869385	48.5610046387	-133.638442993
0.0	0.0	-94.1653442383	132.106185913	48.7142829895	-135.995758057
0.0	0.0	-94.1192398071	132.59677124	48.5076713562	-137.073440552
0.0	0.0	-94.7646636963	132.372451782	48.5693626404	-138.370407104
0.0	0.0	-94.9547576904	133.136291504	50.2303657532	-143.774261475
0.0	0.0	-95.7572784424	132.934127808	51.6492195129	-148.34588623
0.0	0.0	-95.7838897705	131.40713501	48.6818962097	-143.475387573
0.0	0.0	-96.644569397	130.864562988	44.1385231018	-139.993026733
0.0	0.0	-96.463760376	130.421005249	43.3506965637	-141.402175903
0.0	0.0	-97.1739654541	131.269088745	44.4540100098	-144.321105957
0.0	0.0	-98.3603210449	131.543228149	44.8498840332	-144.347763062
0.0	0.0	-98.9466018677	131.41809082	45.2912216187	-146.340927124
0.0	0.0	-99.3947067261	132.089035034	46.0909423828	-144.39402771
0.0	0.0	-99.0656890869	133.3959198	52.2276077271	-126.494590759
0.0	0.0	-99.7466125488	131.600112915	45.7206802368	-99.807762146
0.0	0.0	-101.039680481	128.835632324	42.76171875	-97.0352096558
0.0	0.0	-101.154434204	128.053009033	43.5752067566	-102.046730042
0.0	0.0	-101.537483215	127.632530212	43.7354736328	-106.597160339
0.0	0.0	-101.909591675	128.871170044	44.7587890625	-110.260322571
0.0	0.0	-102.048629761	132.520004272	46.2807235718	-105.595787048
0.0	0.0	-102.406173706	133.586914062	45.9545326233	-108.313262939
0.0	0.0	-102.100364685	135.485656738	46.1362571716	-120.213562012
0.0	0.0	-102.086608887	135.484970093	44.9073410034	-129.60774231
0.0	0.0	-102.515991211	133.441421509	42.4743461609	-134.014328003
0.0	0.0	-102.286132812	133.511016846	42.9065208435	-138.459350586
0.0	0.0	-102.122085571	134.548934937	43.7936401367	-141.390274048
0.0	0.0	-102.211326599	134.937652588	44.6579742432	-143.934844971
0.0	0.0	-102.322547913	134.183807373	44.753868103	-144.81149292
0.0	0.0	-102.150527954	132.986053467	44.4713172913	-145.938064575
0.0	0.0	-102.234962463	131.39630127	44.3930015564	-147.145111084
0.0	0.0	-101.833427429	131.422973633	44.5187835693	-147.33102417
0.0	0.0	-101.690315247	134.570892334	45.6949043274	-147.028549194
0.0	0.0	-101.373443604	135.783111572	48.1591148376	-144.292053223
0.0	0.0	-101.347381592	136.246246338	51.1374740601	-130.553100586
0.0	0.0	-101.459312439	132.418014526	46.1019020081	-109.994049072
0.0	0.0	-101.804176331	128.032577515	41.8596534729	-106.265792847
0.0	0.0	-102.102745056	125.789360046	40.6492958069	-112.721984863
0.0	0.0	-102.273101807	124.645675659	40.2892074585	-117.466171265
0.0	0.0	-102.636749268	125.622512817	40.948600769	-120.055099487
0.0	0.0	-103.154159546	126.072662354	41.1223258972	-121.036949158
0.0	0.0	-102.419593811	126.760688782	42.6151847839	-123.539482117
0.0	0.0	-102.60484314	129.117141724	44.3356666565	-126.24168396
0.0	0.0	-102.578460693	133.317596436	47.242389679	-140.974975586
0.0	0.0	-102.583076477	135.506103516	44.4138069153	-151.370422363
0.0	0.0	-106.129257202	138.663024902	27.4784736633	-131.434829712
0.0	0.0	-106.472557068	136.308044434	31.3041286469	-145.067337036
0.0	0.0	-97.8322143555	138.888214111	32.8630256653	-142.000686646
0.0	0.0	-92.5750961304	136.542633057	37.4096946716	-147.093536377
0.0	0.0	-94.3515777588	136.605239868	41.0353889465	-151.826171875
0.0	0.0	-95.8358078003	134.862686157	39.378276825	-143.118911743
0.0	0.0	-93.4244308472	132.354141235	35.8984718323	-105.896888733
0.0	0.0	-93.4235992432	130.879119873	35.5997200012	-108.338630676
0.0	0.0	-94.6161956787	129.937988281	37.9207801819	-111.109840393
0.0	0.0	-94.8701553345	129.241104126	39.5748176575	-118.613075256
0.0	0.0	-95.7847137451	128.486557007	40.1270980835	-120.524902344
0.0	0.0	-96.5612411499	128.981842041	40.5319747925	-122.484611511
0.0	0.0	-95.972694397	129.801498413	40.3810310364	-124.191978455
0.0	0.0	-95.5735015869	130.951675415	40.9863586426	-125.228034973
0.0	0.0	-95.0149917603	131.429275513	40.8874702454	-128.774291992
0.0	0.0	-94.552986145	130.293762207	39.2602729797	-130.077728271
0.0	0.0	-93.9386062622	129.31199646	38.6490859985	-133.562515259
0.0	0.0	-93.2450866699	129.075241089	38.7346878052	-135.104812622
0.0	0.0	-92.7020797729	129.475143433	40.3199005127	-138.861953735
0.0	0.0	-92.5160675049	129.497375488	40.5716171265	-139.883377075
0.0	0.0	-91.8664016724	129.223602295	40.4494171143	-140.025802612
0.0	0.0	-91.7421112061	129.731918335	41.1957473755	-142.615631104
0.0	0.0	-92.44581604	129.594070435	42.1558837891	-146.174468994
0.0	0.0	-93.0158233643	130.342834473	41.9494590759	-143.988265991
0.0	0.0	-93.2397460938	127.53993988	40.1666564941	-127.848243713
0.0	0.0	-93.9447250366	125.93913269	36.8874473572	-117.255859375
0.0	0.0	-94.1820755005	124.347579956	37.7905960083	-118.717590332
0.0	0.0	-94.7306442261	123.750808716	38.7140159607	-124.704559326
0.0	0.0	-94.9375	123.845657349	38.4256401062	-125.122261047
0.0	0.0	-95.0261383057	124.838981628	39.1312522888	-127.391326904
0.0	0.0	-94.7422180176	125.863861084	39.8379478455	-129.340530396
0.0	0.0	-94.5622634888	127.324623108	41.8962249756	-135.962844849
0.0	0.0	-94.1348571777	129.467010498	41.9750328064	-139.700393677
0.0	0.0	-92.9530181885	129.662078857	41.3696594238	-140.812698364
0.0	0.0	-92.7733154297	130.071121216	42.8214378357	-145.284454346
0.0	0.0	-93.0322036743	130.802932739	44.0527076721	-148.07144165
0.0	0.0	-93.6790924072	131.354003906	45.1277160645	-149.481796265
0.0	0.0	-93.4804763794	130.692016602	44.9219284058	-150.118041992
0.0	0.0	-93.9910583496	129.53944397	44.9784851074	-151.110855103
0.0	0.0	-94.0458145142	129.112518311	45.6866493225	-151.937728882
0.0	0.0	-94.4624710083	130.404067993	47.2923202515	-152.477996826
0.0	0.0	-94.2461395264	130.652374268	48.1687698364	-153.356399536
0.0	0.0	-94.6033172607	129.69859314	48.3256225586	-154.950302124
0.0	0.0	-94.4528579712	129.362716675	48.5035133362	-155.239822388
0.0	0.0	-94.4822387695	130.779922485	47.5028953552	-139.694885254
0.0	0.0	-94.8020172119	134.182144165	42.2174224854	-109.455993652
0.0	0.0	-95.3894119263	130.278961182	41.5279579163	-116.703529358
0.0	0.0	-95.9360198975	130.271514893	41.1760749817	-120.634109497
0.0	0.0	-95.4449386597	129.1537323	42.2020263672	-125.52684021
0.0	0.0	-94.4477767944	130.18069458	42.9053688049	-128.81463623
0.0	0.0	-93.3538742065	132.431167603	41.7727622986	-130.47328186
0.0	0.0	-92.2529830933	131.558776855	37.6581306458	-132.302841187
0.0	0.0	-89.6302719116	129.709503174	35.5154762268	-134.997039795
0.0	0.0	-87.380241394	129.214035034	35.448841095	-136.38269043
0.0	0.0	-83.8187942505	127.966743469	36.1191825867	-141.072097778
0.0	0.0	-80.3935623169	127.292991638	35.2854881287	-143.030639648
