0.0	-0.0	134.231369019	-101.77709198	53.5746498108	-164.388504028
0.0	-0.0	132.455093384	-101.612350464	53.5027961731	-164.458465576
0.0	-0.0	132.387832642	-101.613830566	51.8847732544	-164.458816528
0.0	-0.0	128.702682495	-101.277633667	45.2729301453	-164.379501343
0.0	-0.0	113.79322052	-97.9619293213	36.610206604	-163.904205322
0.0	-0.0	112.542579651	-91.8695831299	31.9181251526	-163.562484741
0.0	-0.0	103.472618103	-87.7790145874	30.2601127625	-163.952758789
0.0	-0.0	101.957077026	-88.1870346069	29.5821857452	-163.494415283
0.0	-0.0	98.4186859131	-90.806678772	25.7137851715	-161.600097656
0.0	-0.0	92.0565719604	-96.5861206055	19.7254734039	-160.675888062
0.0	-0.0	93.624420166	-99.2443313599	17.4038925171	-161.102676392
0.0	-0.0	95.530090332	-97.3631668091	17.7170143127	-160.636459351
0.0	-0.0	81.4130249023	-94.140625	17.6785449982	-160.615386963
0.0	-0.0	79.0183181763	-90.1622695923	15.5227861404	-161.671447754
0.0	-0.0	78.0185089111	-82.0830307007	10.6672611237	-163.923492432
0.0	-0.0	77.3764038086	-70.1266708374	7.03693532944	-164.767532349
0.0	-0.0	77.6611862183	-62.3685951233	4.36440420151	-165.579803467
0.0	-0.0	78.3642196655	-58.0424156189	2.99555253983	-166.90322876
0.0	-0.0	79.1493148804	-54.5128135681	1.67419743538	-167.369476318
0.0	-0.0	78.9339599609	-48.9678192139	1.41276490688	-167.896682739
0.0	-0.0	79.3960266113	-46.5525970459	0.398672670126	-167.523880005
0.0	-0.0	79.1569366455	-51.514377594	0.226620674133	-167.720077515
0.0	-0.0	78.306854248	-56.507938385	-1.38552248478	-168.616943359
0.0	-0.0	78.3952484131	-52.656337738	-5.60479068756	-167.814880371
0.0	-0.0	78.4031829834	-44.9825439453	-8.60801029205	-166.016082764
0.0	-0.0	78.8446731567	-40.777179718	-11.5608510971	-165.917892456
0.0	-0.0	79.0129165649	-40.9406394958	-13.4785766602	-164.96661377
0.0	-0.0	76.5265884399	-41.9882850647	-12.5063524246	-164.230178833
0.0	-0.0	40.6833610535	-42.8615913391	-11.3479394913	-164.397125244
0.0	-0.0	29.1229858398	-44.1301116943	-7.72273540497	-164.687545776
