0.0	-0.0	131.332824707	-120.146438599	87.0856781006	174.963607788
0.0	-0.0	123.324516296	-119.815322876	84.8402099609	174.964050293
0.0	-0.0	112.809158325	-119.887069702	81.310043335	175.548309326
0.0	-0.0	111.01890564	-121.166893005	75.0722198486	176.720275879
0.0	-0.0	111.147911072	-123.265327454	69.2929840088	178.288726807
0.0	-0.0	107.798408508	-125.42565918	67.0567016602	179.239593506
0.0	-0.0	107.026779175	-126.531784058	67.6020736694	179.503448486
0.0	-0.0	106.092338562	-125.932548523	68.9105834961	179.855865479
0.0	-0.0	105.62121582	-125.764328003	75.5369491577	179.571685791
0.0	-0.0	97.8247146606	53.5635223389	89.3642578125	-0.595764398575
0.0	-0.0	100.724029541	52.5615921021	72.2400588989	-0.276536345482
0.0	-0.0	103.091964722	51.6307296753	50.752243042	-0.729211270809
0.0	-0.0	100.352584839	53.2920417786	37.3890953064	-3.01755475998
0.0	-0.0	95.0854034424	55.9913444519	28.4858322144	-4.34429979324
0.0	-0.0	94.2541503906	57.29322052	23.1863899231	-5.27978849411
0.0	-0.0	87.8484344482	58.3933372498	20.5240688324	-6.47066164017
0.0	-0.0	72.2262191772	59.7797851562	20.290145874	-7.42756652832
0.0	-0.0	75.1626815796	60.7221755981	20.6008167267	-7.88843536377
0.0	-0.0	103.412971497	60.7912979126	21.1380767822	-8.22767448425
0.0	-0.0	133.371017456	60.8552246094	22.739397049	-8.44365310669
0.0	-0.0	143.32321167	62.7710418701	21.4944877625	-10.6226682663
0.0	-0.0	134.291275024	64.6904983521	16.3726577759	-13.8949651718
0.0	-0.0	102.137367249	64.3235244751	14.4846334457	-16.7385864258
