0.0	-0.0	139.344726562	-110.996688843	87.1726837158	-179.140136719
0.0	-0.0	141.439743042	-109.872886658	87.6995544434	-179.568740845
0.0	-0.0	141.014038086	-109.454322815	87.2808761597	-179.470336914
0.0	-0.0	140.596740723	-110.247406006	87.141960144	-178.916473389
0.0	-0.0	137.972671509	-113.938186646	85.0762786865	-177.504379272
0.0	-0.0	141.368469238	-132.056152344	84.5720596313	-176.383651733
0.0	-0.0	139.765884399	-153.89515686	84.2467651367	-173.670883179
0.0	-0.0	139.493041992	-169.225219727	84.060546875	-171.431350708
0.0	-0.0	139.304168701	-178.17805481	86.2742843628	-169.910491943
0.0	-0.0	136.074035645	176.195220947	89.4775161743	-169.299179077
0.0	-0.0	132.086105347	-9.75697803497	88.1657104492	10.3222751617
0.0	-0.0	129.073898315	-13.1148538589	87.8330612183	10.3626012802
0.0	-0.0	131.374984741	-13.53723526	88.3253250122	11.1052436829
0.0	-0.0	130.516494751	-13.4442634583	88.3567733765	11.3773841858
0.0	-0.0	128.91027832	-13.3836126328	88.0081710815	11.9070453644
0.0	-0.0	106.041786194	-13.0007772446	87.92162323	12.5125827789
