0.0	-0.0	135.150512695	-106.546661377	73.7988052368	-177.932693481
0.0	-0.0	134.274795532	-105.921257019	73.3928985596	-177.243591309
0.0	-0.0	133.983230591	-105.97807312	73.4520111084	-177.239074707
0.0	-0.0	133.572952271	-106.063804626	73.2681732178	-177.359619141
0.0	-0.0	132.940429688	-105.493057251	72.8619384766	-176.714828491
0.0	-0.0	129.030090332	-105.29372406	72.3414154053	-176.691589355
0.0	-0.0	124.1277771	-104.405960083	72.1937179565	-176.626602173
0.0	-0.0	121.671409607	-103.045936584	70.666343689	-176.729751587
0.0	-0.0	121.737602234	-102.95224762	68.7755050659	-176.675567627
0.0	-0.0	117.653877258	-102.776725769	66.9976119995	-176.624359131
0.0	-0.0	104.700294495	-102.232933044	66.9347991943	-176.570449829
0.0	-0.0	108.191886902	-102.097724915	67.5611419678	-176.79335022
0.0	-0.0	109.317649841	-102.357803345	68.0691452026	-174.655105591
0.0	-0.0	119.320999146	-103.657737732	68.8882827759	-174.616867065
0.0	-0.0	132.321212769	-104.54927063	69.7636260986	-174.968826294
0.0	-0.0	146.257156372	-104.456489563	70.0935745239	-174.472610474
0.0	-0.0	146.316848755	-104.274887085	69.984336853	-174.31590271
0.0	-0.0	146.802276611	-104.399513245	66.6710205078	-173.599243164
0.0	-0.0	145.236999512	-104.645240784	64.4091491699	-173.226196289
0.0	-0.0	141.482803345	-105.941207886	62.1375617981	-172.495819092
0.0	-0.0	120.070289612	-108.302894592	53.1922798157	-170.671585083
0.0	-0.0	94.7370300293	-113.793640137	38.7847061157	-166.487930298
0.0	-0.0	77.0201644897	-121.466461182	26.2438354492	-162.205291748
0.0	-0.0	73.6067886353	-127.838600159	17.6450252533	-159.559631348
0.0	-0.0	79.1153564453	-132.563568115	13.4979782104	-160.095993042
0.0	-0.0	92.3495254517	-133.256057739	11.2153720856	-159.852157593
0.0	-0.0	94.3772277832	-132.479721069	9.97883319855	-160.314407349
0.0	-0.0	98.8921737671	-132.307144165	8.26403045654	-160.458602905
0.0	-0.0	83.583984375	-132.943756104	5.81651544571	-159.739089966
0.0	-0.0	74.3508911133	-133.378982544	4.7231388092	-159.761154175
0.0	-0.0	67.9821624756	-132.529724121	2.12702512741	-159.613479614
0.0	-0.0	64.773223877	-131.130844116	0.313992112875	-159.504119873
0.0	-0.0	63.5353317261	-130.852523804	0.204886987805	-159.792800903
0.0	-0.0	63.8490028381	-130.892181396	-0.465578198433	-159.911392212
0.0	-0.0	64.0534439087	-130.172012329	-1.30103325844	-160.280670166
0.0	-0.0	63.5357971191	-130.02243042	-0.843205034733	-161.022491455
0.0	-0.0	66.1701431274	-130.116638184	-0.572824478149	-162.852783203
0.0	-0.0	71.3834991455	-129.114395142	-0.853136479855	-162.807159424
0.0	-0.0	72.5958099365	-128.587112427	-1.34796977043	-162.961868286
0.0	-0.0	77.7478103638	-128.855499268	-2.32606697083	-162.681533813
0.0	-0.0	77.0839157104	-128.940170288	-2.47615361214	-162.677780151
0.0	-0.0	76.3199081421	-126.029998779	-3.09024238586	-165.973846436
0.0	-0.0	76.1785888672	-117.690673828	-3.77816438675	-165.438018799
0.0	-0.0	75.3421630859	-110.887008667	-5.8392701149	-163.845825195
0.0	-0.0	75.8317108154	-108.834533691	-14.0931987762	-160.289047241
0.0	-0.0	77.6123199463	-111.175636292	-19.7598934174	-158.741165161
0.0	-0.0	73.5932540894	-113.839691162	-18.1113586426	-159.905197144
0.0	-0.0	63.0870132446	-113.522270203	-18.4833717346	-160.690628052
0.0	-0.0	61.3205032349	-114.109977722	-25.3949356079	-162.337966919
0.0	-0.0	63.793384552	-114.717407227	-36.0389785767	-162.478179932
0.0	-0.0	63.7013282776	-113.504905701	-39.7799530029	-161.578048706
0.0	-0.0	64.3668823242	-113.533081055	-37.8571052551	-160.948455811
0.0	-0.0	63.7210769653	-116.283164978	-34.1214408875	-161.895141602
0.0	-0.0	79.7607040405	-118.511154175	-29.90716362	-162.799743652
0.0	-0.0	100.869934082	-117.879768372	-25.5544185638	-162.540328979
0.0	-0.0	107.165512085	-117.576721191	-24.4446926117	-163.086807251
0.0	-0.0	81.1853408813	-118.934661865	-23.8130226135	-163.815658569
0.0	-0.0	62.7696876526	-118.630508423	-22.4649200439	-163.738357544
0.0	-0.0	46.6391067505	-116.122436523	-21.6333999634	-164.371917725
0.0	-0.0	44.1068840027	-112.127326965	-22.1507720947	-164.691757202
0.0	-0.0	46.5288238525	-108.036346436	-20.6973361969	-164.010971069
0.0	-0.0	44.2927093506	-106.361991882	-19.9676113129	-164.30229187
0.0	-0.0	42.8941650391	-106.234298706	-20.8726119995	-164.919204712
0.0	-0.0	38.9694328308	-106.98261261	-20.6429958344	-165.105636597
0.0	-0.0	36.5102119446	-106.457489014	-19.991147995	-165.120635986
0.0	-0.0	37.3176269531	-104.906219482	-18.9279212952	-165.398330688
0.0	-0.0	38.2480621338	-104.47341156	-17.1482887268	-165.884262085
0.0	-0.0	37.6602783203	-105.052452087	-15.2009315491	-166.900726318
0.0	-0.0	36.754989624	-105.014541626	-12.9848356247	-167.090682983
0.0	-0.0	37.7591400146	-105.240409851	-10.9964036942	-167.198791504
0.0	-0.0	37.9049873352	-106.703765869	-9.13412570953	-167.314208984
0.0	-0.0	40.1264533997	-108.670150757	-7.58290815353	-166.926559448
0.0	-0.0	40.8748931885	-109.876487732	-7.16285181046	-167.362411499
0.0	-0.0	41.6452674866	-110.660850525	-6.79123592377	-167.416259766
0.0	-0.0	41.9308166504	-113.239204407	-5.91179323196	-166.573410034
0.0	-0.0	42.895198822	-119.101219177	-4.18243026733	-165.668304443
0.0	-0.0	43.6628608704	-123.854446411	-3.35502076149	-165.717636108
0.0	-0.0	44.9798622131	-125.204177856	-2.81030035019	-165.05078125
0.0	-0.0	45.865524292	-125.046470642	-2.27788710594	-164.47064209
0.0	-0.0	45.8270263672	-124.844352722	-1.88491857052	-164.585784912
0.0	-0.0	45.7980651855	-124.567588806	-1.38474440575	-163.887969971
0.0	-0.0	46.7866172791	-126.169410706	-0.774739682674	-164.169525146
0.0	-0.0	47.9635505676	-126.423072815	-0.484812051058	-164.447265625
0.0	-0.0	50.9202613831	-124.947601318	-0.897888123989	-164.18788147
0.0	-0.0	56.6013832092	-124.557151794	-0.549029052258	-164.231765747
0.0	-0.0	53.7433013916	-124.265907288	-1.1541839838	-164.440719604
0.0	-0.0	52.0991477966	-124.348884583	-1.79812026024	-164.388305664
0.0	-0.0	56.0751075745	-125.066871643	-1.29192137718	-164.259094238
0.0	-0.0	59.2051773071	-125.238288879	-1.74626612663	-163.987548828
0.0	-0.0	50.0507621765	-124.946662903	-1.7364846468	-164.147949219
0.0	-0.0	43.222946167	-124.813072205	-1.82481241226	-164.047668457
0.0	-0.0	39.9506111145	-125.408447266	-1.98664772511	-164.234542847
0.0	-0.0	46.832862854	-126.026977539	-1.96011948586	-163.799606323
0.0	-0.0	51.1999359131	-126.436935425	-1.94663596153	-163.729736328
0.0	-0.0	53.210105896	-126.885566711	-2.18447709084	-163.935348511
0.0	-0.0	52.2313766479	-127.184112549	-1.9197524786	-164.081161499
0.0	-0.0	56.346534729	-128.417373657	-2.14529824257	-163.738922119
0.0	-0.0	61.0320129395	-129.817321777	-2.18197751045	-163.646148682
0.0	-0.0	56.9249420166	-130.013320923	-2.26295638084	-163.45854187
0.0	-0.0	50.1283454895	-130.375350952	-2.25286030769	-163.126876831
0.0	-0.0	42.8084182739	-131.869476318	-2.15024352074	-163.612289429
0.0	-0.0	39.0296821594	-133.580230713	-2.18551516533	-163.855758667
0.0	-0.0	42.3840789795	-133.925674438	-2.23950147629	-163.688400269
0.0	-0.0	44.3124389648	-135.909790039	-1.85859465599	-163.783584595
0.0	-0.0	44.4988250732	-139.499969482	-1.75514566898	-163.88961792
0.0	-0.0	45.9785690308	-144.447570801	-1.2318290472	-163.072235107
0.0	-0.0	51.0609512329	-146.411315918	-0.413027048111	-162.574707031
0.0	-0.0	54.8024024963	-142.431838989	0.551478624344	-162.360580444
0.0	-0.0	55.1528205872	-136.721862793	1.05128538609	-161.607376099
0.0	-0.0	55.5624237061	-136.355453491	-0.495726913214	-161.019500732
0.0	-0.0	54.501247406	-138.403656006	-1.30765783787	-162.436294556
