-0.0450592041016	1.0194466114	0.190378546715	-0.202453374863	1.59299552441	0.00900721549988
-0.0410137176514	1.02152228355	0.19282245636	-0.201680898666	1.59246659279	0.0100135803223
-0.0385227203369	1.02128434181	0.195302248001	-0.201205015182	1.59001648426	0.0115580558777
-0.0382552146912	1.02255320549	0.195910096169	-0.200318336487	1.58459472656	0.0145745277405
-0.043217420578	1.01918649673	0.192757368088	-0.195972442627	1.58175873756	0.0163352489471
-0.0456104278564	1.01483201981	0.189660072327	-0.188956260681	1.58226442337	0.0155918598175
-0.0371909141541	1.01379942894	0.192873239517	-0.181986570358	1.58336055279	0.0141849517822
-0.0261809825897	1.01883029938	0.19675385952	-0.177727937698	1.58502817154	0.013546705246
-0.0238711833954	1.02697372437	0.195672750473	-0.176139593124	1.58698248863	0.0141515731812
-0.0288398265839	1.03243327141	0.19308245182	-0.175975561142	1.58909332752	0.0159504413605
-0.0365288257599	1.03408336639	0.190968632698	-0.175556182861	1.59199917316	0.0183290243149
-0.0395267009735	1.03342151642	0.192672967911	-0.174366474152	1.59343874454	0.0214146375656
-0.0396642684937	1.0332930088	0.194771051407	-0.172955513	1.5943454504	0.0250233411789
-0.0401482582092	1.03629398346	0.194924354553	-0.172290086746	1.59673273563	0.0283558368683
-0.0457854270935	1.03897428513	0.192062973976	-0.171572208405	1.5998030901	0.0318918228149
-0.0493614673615	1.04454874992	0.188652515411	-0.169780015945	1.60040748119	0.036420583725
-0.0536603927612	1.05046010017	0.184576511383	-0.167440652847	1.60040414333	0.0426058769226
-0.0570747852325	1.05248713493	0.18026971817	-0.166677236557	1.59913945198	0.050040602684
-0.059538602829	1.05057454109	0.17767727375	-0.165833711624	1.5975331068	0.0562386512756
