-67.4064407349	-32.0945892334	143.473526001	9.66428756714	2.76052236557	0.373406767845
-67.5677032471	-31.4858760834	143.005722046	9.72515773773	2.98920083046	0.51878041029
-67.4892120361	-31.2214298248	142.251617432	9.70587825775	3.09141802788	0.521329462528
-67.4984436035	-31.521730423	141.598251343	10.0092163086	3.0458753109	0.526555836201
-67.4138565063	-30.8027896881	141.652664185	10.413848877	2.50921368599	0.454385578632
-67.053276062	-30.7012939453	140.777893066	9.54665756226	0.0956047475338	0.0779731050134
-67.2345504761	-29.4412937164	140.307785034	8.34319496155	-2.2222878933	-0.0828575417399
-67.3093719482	-28.7402515411	139.38243103	7.09615421295	-3.93838167191	0.0521599240601
-66.9118118286	-28.787317276	135.476501465	5.91697216034	-6.51169204712	0.363764315844
-67.0824737549	-29.6262149811	129.695495605	4.05450630188	-12.0409231186	0.494425028563
-67.7121658325	-28.9332294464	125.979682922	1.88612532616	-15.7332458496	1.08457779884
-68.6950836182	-27.5252380371	123.626113892	-1.22439932823	-18.6704864502	2.10221004486
-70.2837219238	-26.705745697	119.650268555	-2.84242606163	-21.8941020966	2.86336302757
-70.6445541382	-24.5067806244	113.988464355	-2.62455415726	-23.3923377991	2.51981472969
-69.835067749	-23.0660171509	106.395385742	-2.68127894402	-24.1240215302	2.38486218452
-69.9830322266	-21.6062297821	99.1538467407	-3.0946958065	-24.6194038391	2.37128806114
-70.1291046143	-22.6370868683	92.4193344116	-3.34900045395	-24.431552887	2.64120817184
-70.1569519043	-25.1098766327	85.6326675415	-2.97308135033	-24.2753562927	2.48961806297
-70.2214355469	-27.5386009216	80.9175949097	-2.35569858551	-24.2140865326	2.29364824295
-69.9680252075	-28.0291900635	78.1279067993	-2.46387243271	-24.3703594208	2.23488116264
-69.0303878784	-25.628326416	74.2188644409	-2.73845982552	-24.4267082214	2.1286239624
-70.1318969727	-24.9596061707	73.2104873657	-2.90799069405	-24.620672226	2.013712883
-70.4534988403	-24.7924346924	71.0510177612	-3.01215529442	-24.8529376984	1.82473421097
-69.3700027466	-23.9145107269	68.4813461304	-3.13085579872	-25.0927352905	1.66425347328
-67.8681640625	-24.0727233887	64.629524231	-3.35953426361	-25.1874294281	1.56913256645
-65.0647659302	-23.8662700653	60.6381263733	-3.37997293472	-25.2749328613	1.5144084692
-64.8301544189	-23.7980880737	60.0185508728	-3.59013032913	-25.3435935974	1.487195611
