0.0	-0.0	-136.455780029	3.75080156326	87.0544433594	68.9456634521
0.0	-0.0	-136.709411621	4.06247901917	86.7130661011	68.1585464478
0.0	-0.0	-137.021469116	3.09548568726	86.7963943481	67.8562698364
0.0	-0.0	-132.402954102	3.32116508484	86.2328720093	67.5024185181
0.0	-0.0	-122.675949097	3.86928296089	86.1290588379	67.0444030762
0.0	0.0	-109.242988586	4.32236337662	86.1596908569	67.2908935547
0.0	0.0	-87.4738082886	4.18317127228	84.6648483276	71.5121765137
0.0	0.0	-71.0097579956	0.565023362637	82.4062576294	78.494140625
0.0	0.0	-58.4285736084	-0.899244189262	80.7811431885	79.3237686157
0.0	0.0	-46.4825706482	-4.28611660004	79.0271606445	83.5983963013
0.0	0.0	-37.349937439	-7.73835897446	78.26902771	88.892578125
0.0	0.0	-30.0617961884	-4.80648374557	80.2173614502	84.6424026489
0.0	0.0	-26.2266082764	0.127521753311	84.6989822388	77.5273971558
0.0	0.0	-22.9327716827	2.3616771698	88.665802002	79.1362075806
0.0	0.0	-15.8708572388	-175.468475342	89.30493927	-95.7378540039
0.0	0.0	-7.35782957077	-177.586959839	89.2465438843	-83.0753707886
0.0	0.0	-1.97136461735	-177.743667603	89.9821853638	-77.2514266968
0.0	0.0	-1.37847590446	5.36186408997	88.8578338623	102.619766235
0.0	0.0	-3.1816637516	-166.080673218	88.393699646	-100.598823547
0.0	0.0	-4.44647216797	-162.433166504	86.9675369263	-118.008415222
0.0	0.0	-5.51497936249	-162.358810425	85.447769165	-129.705825806
0.0	0.0	-5.23925685883	-173.708190918	78.6963882446	-132.944213867
0.0	0.0	-5.96107959747	176.913192749	77.25440979	-128.2212677
0.0	0.0	-7.10473537445	177.826065063	77.9619522095	-126.956634521
0.0	0.0	-8.30563259125	-178.270339966	78.8718338013	-125.952529907
0.0	0.0	-8.7682723999	-171.122543335	79.0834503174	-108.713798523
0.0	0.0	-8.6853685379	-168.513031006	78.0784301758	-93.4598236084
0.0	0.0	-6.95364284515	-163.46055603	73.6073760986	-89.6820907593
0.0	0.0	-6.48209095001	-166.191162109	72.4032363892	-93.8766784668
0.0	0.0	-4.52471113205	-171.925323486	71.7965011597	-96.8988037109
0.0	0.0	-1.03133320808	-172.481674194	73.102355957	-97.602935791
0.0	0.0	-3.03384804726	-172.437652588	71.935256958	-99.0236968994
0.0	0.0	-4.54696559906	-172.820297241	70.442527771	-98.6175308228
0.0	0.0	-7.93630981445	-171.829193115	71.9168395996	-97.8463134766
0.0	0.0	-12.0810918808	-172.166793823	71.6900787354	-97.383026123
0.0	0.0	-19.6776504517	-174.802108765	71.997215271	-95.7660980225
0.0	0.0	-27.4634361267	-177.830078125	72.8728866577	-95.668586731
0.0	0.0	-29.1856613159	-179.377822876	73.5145797729	-95.7314605713
0.0	0.0	-27.8586864471	178.239089966	72.470085144	-96.4623260498
0.0	0.0	-26.2010383606	179.116653442	67.8748168945	-104.913825989
0.0	0.0	-24.1505851746	-171.719268799	55.0172080994	-111.870895386
0.0	0.0	-23.9092273712	-166.117950439	48.5504570007	-113.789451599
0.0	0.0	-23.2664146423	-164.368179321	45.6926231384	-111.68006897
0.0	0.0	-22.4247932434	-164.452713013	42.0911865234	-113.301551819
0.0	0.0	-22.233379364	-164.269271851	40.2307357788	-111.491409302
0.0	0.0	-22.6816539764	-165.180862427	36.7615890503	-112.302490234
0.0	0.0	-22.8108978271	-164.788116455	35.0183601379	-111.136962891
0.0	0.0	-23.1654109955	-164.315597534	34.2502326965	-110.692245483
0.0	0.0	-23.7747535706	-161.492294312	34.2107200623	-104.005722046
0.0	0.0	-23.9633102417	-157.589996338	33.7922592163	-94.8036270142
0.0	0.0	-24.4571323395	-157.679977417	30.4796981812	-95.4841461182
0.0	0.0	-24.3028774261	-159.925964355	30.243680954	-96.1703186035
0.0	0.0	-24.4004173279	-159.921173096	31.8964443207	-95.3197860718
0.0	0.0	-24.1155090332	-162.99559021	50.7130126953	-96.683807373
0.0	0.0	-24.472661972	-166.500457764	61.7792053223	-100.447372437
0.0	0.0	-24.7085533142	-172.671386719	53.6414985657	-98.4525680542
0.0	0.0	-24.6544380188	175.665969849	44.6945075989	-87.7538299561
0.0	0.0	-24.8195896149	168.425735474	32.713092804	-87.9716033936
0.0	0.0	-24.6284160614	-172.693771362	27.3586616516	-106.897758484
0.0	0.0	-25.2343540192	-158.451202393	19.4610347748	-121.697479248
0.0	0.0	-25.5848426819	-155.773651123	15.8987369537	-121.369987488
0.0	0.0	-26.1080741882	-156.835037231	12.9174251556	-113.778640747
0.0	0.0	-26.1209716797	-158.385910034	11.3963842392	-106.637420654
0.0	0.0	-25.9516639709	-157.343841553	10.7148942947	-106.07572937
0.0	0.0	-26.6033496857	-154.597854614	11.1309366226	-104.459739685
0.0	0.0	-27.3385925293	-156.15524292	12.0850868225	-108.397727966
0.0	0.0	-27.52186203	-157.318893433	12.4703083038	-110.900215149
0.0	0.0	-27.7005138397	-156.59362793	9.05581665039	-112.315597534
0.0	0.0	-28.2627449036	-153.389984131	4.88322544098	-108.21962738
0.0	0.0	-28.2587509155	-152.078796387	2.63296318054	-103.799186707
0.0	0.0	-27.9697589874	-151.076217651	2.05816364288	-101.499633789
0.0	0.0	-28.0725154877	-152.699066162	16.6780452728	-100.76815033
0.0	0.0	-27.8577919006	-157.400131226	33.6743164062	-97.9020614624
0.0	0.0	-28.1628627777	-163.64074707	34.6651763916	-87.3545913696
0.0	0.0	-28.7200336456	-158.647186279	21.128364563	-110.092208862
0.0	0.0	-28.8607368469	-160.512466431	11.9026384354	-120.19631958
0.0	0.0	-28.5170154572	-162.725067139	6.77724885941	-111.765167236
0.0	0.0	-28.9457416534	-167.167785645	3.67430853844	-106.738189697
0.0	0.0	-29.1439399719	-165.602416992	3.30710363388	-105.852272034
0.0	0.0	-29.2753047943	-162.677764893	15.0327758789	-113.34312439
0.0	0.0	-29.1395988464	-163.778274536	32.7502861023	-127.164512634
0.0	0.0	-29.5486774445	-165.249786377	40.0393562317	-125.280662537
0.0	0.0	-29.5438995361	-166.150497437	43.399974823	-120.100189209
0.0	0.0	-29.6115207672	-167.709884644	39.6500205994	-125.834815979
0.0	0.0	-29.7025775909	-172.700241089	36.5906257629	-135.385391235
0.0	0.0	-29.9097003937	-177.37147522	29.3751506805	-127.167938232
0.0	0.0	-30.081823349	175.371414185	25.4957790375	-130.435653687
0.0	0.0	-29.8564453125	177.448989868	24.6847496033	-123.381355286
0.0	0.0	-30.2092647552	-178.931365967	21.9041919708	-114.646186829
0.0	0.0	-30.3263473511	-176.665878296	19.6436729431	-111.591079712
0.0	0.0	-30.2186775208	-175.743469238	25.8008270264	-116.369316101
0.0	0.0	-30.6387958527	178.754898071	37.1576881409	-122.552574158
0.0	0.0	-30.8200359344	175.027511597	39.8881759644	-121.672271729
0.0	0.0	-31.2639846802	168.096588135	42.4474525452	-113.585220337
0.0	0.0	-31.6496963501	162.131195068	41.5375289917	-123.336967468
0.0	0.0	-31.6733360291	170.791427612	38.015953064	-135.154693604
0.0	0.0	-31.4785709381	-179.261428833	23.2380332947	-116.309555054
0.0	0.0	-31.5033416748	-175.627944946	14.8381853104	-102.640632629
0.0	0.0	-31.761554718	-177.047302246	12.832365036	-103.041282654
0.0	0.0	-31.3890552521	177.570663452	23.6186237335	-114.180236816
0.0	0.0	-30.8117580414	171.921768188	32.8028526306	-125.295608521
0.0	0.0	-30.5276851654	169.876296997	32.9829673767	-122.007980347
0.0	0.0	-30.91888237	168.752349854	35.2947883606	-112.325378418
0.0	0.0	-30.8827495575	165.491470337	42.6311035156	-110.10308075
0.0	0.0	-31.0046577454	164.546310425	44.8054924011	-120.932312012
0.0	0.0	-30.5742530823	167.578216553	37.6632385254	-128.513916016
0.0	0.0	-30.4253082275	172.227462769	24.9843082428	-117.97618866
0.0	0.0	-30.1974639893	178.686477661	14.9197645187	-93.3855895996
0.0	0.0	-30.3006076813	177.041519165	15.9466705322	-100.499412537
0.0	0.0	-30.0960903168	169.743087769	22.2019901276	-115.001358032
0.0	0.0	-29.7788467407	161.686233521	27.699306488	-125.40952301
0.0	0.0	-29.9448127747	154.941253662	29.2295570374	-128.238876343
0.0	0.0	-29.4501609802	156.841461182	23.5385608673	-121.857597351
0.0	0.0	-30.2219314575	167.039123535	18.6972961426	-106.741592407
0.0	0.0	-29.9138221741	172.139480591	24.2333698273	-106.104698181
0.0	0.0	-29.8985729218	171.482147217	31.6931934357	-108.672676086
0.0	0.0	-30.1203155518	169.239547729	39.2338066101	-107.363861084
0.0	0.0	-36.1560668945	165.872817993	45.9781646729	-101.72064209
0.0	0.0	-42.1102027893	161.283157349	47.6051177979	-105.943840027
0.0	0.0	-45.6749992371	169.927215576	31.0201072693	-103.333450317
0.0	0.0	-46.8455352783	-178.901290894	15.1971797943	-90.8104171753
0.0	0.0	-45.9138221741	-177.924468994	7.98814630508	-84.7768325806
0.0	0.0	-42.7737579346	-177.280487061	16.0032787323	-87.9819717407
0.0	0.0	-37.8418884277	176.458770752	38.6856651306	-98.6899795532
0.0	0.0	-28.0680332184	169.470672607	60.2378234863	-98.2869033813
0.0	0.0	-15.4559373856	169.600570679	71.4891357422	-101.294044495
0.0	0.0	-0.733771026134	166.422698975	75.4110565186	-95.6269683838
0.0	-0.0	13.142791748	176.49987793	61.4024620056	-118.069793701
0.0	-0.0	21.2761135101	177.097106934	39.9999580383	-122.093330383
0.0	-0.0	29.5508079529	174.373779297	29.8318977356	-112.785697937
0.0	-0.0	34.9434776306	173.882369995	22.4525623322	-107.255355835
0.0	-0.0	34.5029983521	176.114959717	28.7791614532	-103.400466919
0.0	-0.0	33.4408187866	172.649932861	47.0461883545	-108.871383667
0.0	-0.0	18.9600315094	171.005310059	63.7693901062	-116.830673218
0.0	-0.0	18.3292427063	172.030929565	66.2209014893	-118.996292114
0.0	-0.0	14.1117200851	167.457839966	65.6833190918	-120.549560547
0.0	-0.0	13.5625228882	164.290847778	66.7998123169	-120.505027771
0.0	-0.0	0.562973558903	163.592193604	67.6276931763	-121.022758484
0.0	-0.0	5.74555635452	160.851165771	58.9718208313	-128.316635132
0.0	-0.0	2.38846063614	159.17237854	54.7751197815	-133.583190918
0.0	-0.0	4.95176839828	156.393890381	47.8389015198	-139.116424561
0.0	-0.0	5.24730682373	159.173965454	42.5215415955	-142.577667236
0.0	-0.0	4.59741258621	161.98526001	39.5555343628	-144.039871216
0.0	-0.0	3.9133412838	163.770263672	36.4954338074	-140.458389282
0.0	-0.0	3.50951385498	163.979324341	34.5526504517	-139.877960205
0.0	-0.0	2.46226286888	164.054199219	32.0305633545	-139.050689697
0.0	-0.0	1.62025570869	164.453842163	28.8418598175	-135.809127808
0.0	-0.0	2.0747013092	167.864593506	33.2286987305	-131.997497559
0.0	-0.0	1.77829289436	170.838592529	40.2933044434	-133.166427612
0.0	-0.0	1.22668290138	169.585891724	39.8241615295	-126.87322998
0.0	0.0	-0.0634905919433	165.49168396	39.1000061035	-101.644760132
0.0	-0.0	0.19552063942	164.321655273	42.8647193909	-105.997962952
0.0	-0.0	0.431310355663	165.903961182	44.6303215027	-106.628105164
0.0	-0.0	0.76624250412	169.853012085	56.3846588135	-109.85749054
0.0	-0.0	0.61426115036	169.075698853	68.9079818726	-109.549049377
0.0	-0.0	0.970838665962	166.896972656	72.8184585571	-106.551704407
0.0	-0.0	0.574661850929	167.150909424	76.8680419922	-111.658905029
0.0	-0.0	0.069489300251	167.334213257	81.6065444946	-116.485420227
0.0	0.0	-0.391634523869	168.304351807	75.789855957	-112.642692566
0.0	0.0	-0.48984387517	169.407943726	63.4852905273	-110.290420532
0.0	0.0	-1.76299548149	171.524383545	66.077331543	-105.27482605
0.0	0.0	-1.24657797813	169.340393066	87.8079452515	-95.3924102783
0.0	0.0	-0.98092019558	164.773956299	82.3859786987	-98.0317382812
0.0	0.0	-0.641139388084	163.074813843	82.7753677368	-103.121589661
0.0	0.0	-25.1498222351	162.976989746	79.0469512939	-103.691864014
0.0	0.0	-82.5043334961	161.524887085	78.6077041626	-104.612243652
0.0	0.0	-98.4878082275	161.113052368	82.1743927002	-103.735328674
0.0	0.0	-106.338752747	163.282501221	83.2386016846	-106.03629303
0.0	-0.0	-123.04183197	159.074798584	83.4273452759	-106.986038208
0.0	-0.0	-123.189056396	158.083633423	80.5279846191	-105.484405518
0.0	0.0	-109.262229919	157.653076172	80.1111526489	-105.044876099
0.0	0.0	-95.5037002563	156.791763306	82.1589813232	-104.142494202
0.0	0.0	-88.0635757446	157.363601685	84.8177108765	-103.022186279
0.0	0.0	-84.7749557495	158.575164795	88.3134155273	-100.1379776
0.0	0.0	-76.3701400757	-11.9465246201	83.3132858276	84.9609603882
0.0	0.0	-64.9077301025	-164.815383911	72.0569763184	-115.815170288
0.0	0.0	-57.9696617126	176.240097046	54.181186676	-114.781982422
0.0	0.0	-56.5431022644	176.528579712	50.647567749	-110.203277588
0.0	0.0	-54.4904212952	176.053497314	47.9867591858	-112.487792969
0.0	0.0	-54.8801269531	169.051116943	46.2914123535	-111.545143127
0.0	0.0	-56.3448524475	167.404922485	45.0238800049	-112.050308228
0.0	0.0	-57.3992385864	168.414825439	46.0380554199	-111.432174683
0.0	0.0	-58.9604873657	172.042175293	48.7816352844	-109.90410614
0.0	0.0	-75.2921981812	173.542938232	49.4499473572	-110.847427368
0.0	0.0	-110.661628723	171.311767578	47.0827674866	-109.681838989
0.0	0.0	-112.847053528	173.390853882	49.3878097534	-108.966293335
0.0	0.0	-117.483383179	173.351211548	50.8644828796	-110.47290802
0.0	0.0	-116.305168152	171.915359497	49.9037475586	-109.306175232
0.0	0.0	-103.119300842	173.397171021	51.2621803284	-108.364868164
0.0	0.0	-90.8452911377	174.454193115	53.5548858643	-108.919708252
0.0	0.0	-86.9589691162	173.94229126	54.4513587952	-109.719436646
0.0	0.0	-91.3256149292	173.509506226	54.7192726135	-114.516151428
0.0	0.0	-86.1599349976	173.508071899	54.7500915527	-102.319587708
0.0	0.0	-77.8894882202	174.195159912	44.2966651917	-111.950363159
0.0	0.0	-69.4811019897	171.651550293	37.523727417	-112.290740967
0.0	0.0	-65.3605270386	170.195327759	38.7344894409	-110.927131653
0.0	0.0	-67.5868453979	168.455413818	38.9983673096	-110.454406738
0.0	0.0	-71.4251251221	167.428436279	39.343963623	-110.192687988
0.0	0.0	-76.9461212158	168.658157349	40.6268882751	-103.792152405
0.0	0.0	-90.0569610596	168.425506592	40.3194885254	-103.098426819
0.0	0.0	-104.442802429	165.103271484	42.0570640564	-101.197097778
0.0	0.0	-102.878074646	166.194412231	43.2029876709	-102.352073669
0.0	0.0	-101.27205658	167.731170654	40.1404800415	-107.049751282
0.0	0.0	-101.112075806	167.038406372	39.5360908508	-113.869850159
0.0	0.0	-103.70905304	165.330291748	40.3052062988	-110.320075989
0.0	0.0	-105.816955566	164.105682373	42.2350540161	-108.170448303
0.0	0.0	-105.984153748	162.735855103	42.1687355042	-108.663299561
0.0	0.0	-104.803657532	164.124328613	49.0929069519	-106.041099548
0.0	0.0	-101.398406982	164.979675293	60.0791015625	-102.558189392
0.0	0.0	-100.439369202	174.384399414	44.0582695007	-106.087219238
0.0	0.0	-99.51146698	170.907302856	31.2201652527	-100.012435913
0.0	0.0	-97.6082839966	168.726409912	26.9645462036	-106.201972961
0.0	0.0	-96.7210540771	170.525466919	23.7591495514	-104.421684265
0.0	0.0	-96.9642944336	169.902420044	24.3004417419	-106.409072876
0.0	0.0	-97.2961120605	164.799545288	38.387172699	-105.833610535
0.0	0.0	-98.1442184448	165.052886963	44.6019821167	-103.33152771
0.0	0.0	-99.1802215576	166.030029297	45.680683136	-110.340927124
0.0	0.0	-100.045852661	168.051971436	39.8640632629	-113.661651611
0.0	0.0	-100.422943115	165.474731445	38.3706016541	-120.740020752
0.0	0.0	-100.278785706	164.040283203	37.2914199829	-122.175941467
0.0	0.0	-100.471244812	166.000228882	39.0276412964	-124.895309448
0.0	0.0	-105.108978271	166.836029053	42.3315963745	-124.159065247
0.0	0.0	-107.371231079	168.80406189	48.8644371033	-108.264640808
0.0	0.0	-107.928024292	164.382522583	49.8532218933	-102.641433716
0.0	0.0	-114.117935181	160.078140259	50.7758293152	-97.6381607056
0.0	-0.0	-129.53968811	160.481399536	52.4618263245	-98.4632949829
0.0	-0.0	-139.520812988	160.152954102	51.7501792908	-99.2578430176
0.0	-0.0	-133.459793091	161.239181519	52.052154541	-100.517677307
0.0	0.0	-115.29649353	161.104141235	52.6957359314	-101.799201965
0.0	0.0	-81.2987442017	161.15838623	53.1782875061	-103.260437012
0.0	0.0	-42.7070350647	161.118560791	54.3365821838	-104.135749817
0.0	0.0	-23.9862766266	160.856719971	54.6299438477	-103.158248901
0.0	0.0	-29.5303192139	160.275360107	54.7718544006	-101.588516235
0.0	0.0	-43.4447097778	161.583786011	56.0384178162	-99.0080871582
0.0	0.0	-55.185295105	161.05657959	55.4864006042	-97.8013534546
0.0	0.0	-64.7767562866	159.658599854	53.4513626099	-96.7603759766
0.0	0.0	-69.1811447144	157.080581665	51.0395507812	-95.8301620483
0.0	0.0	-71.9061203003	158.359390259	51.460483551	-95.328918457
0.0	0.0	-72.3121032715	157.868469238	52.24792099	-97.0257644653
0.0	0.0	-65.3973083496	158.824569702	53.8298950195	-101.846824646
0.0	0.0	-57.10597229	160.244720459	54.5548019409	-102.986694336
0.0	0.0	-47.4230690002	160.440567017	53.9353485107	-101.456207275
0.0	0.0	-35.3386917114	155.574951172	55.2706947327	-95.5547866821
0.0	0.0	-23.7740325928	154.785476685	56.6765480042	-96.2063140869
0.0	0.0	-20.0683326721	157.710952759	58.9551010132	-96.4635772705
0.0	0.0	-11.4821052551	158.81854248	57.4322166443	-94.7411575317
0.0	0.0	-0.0680163726211	155.645889282	57.7434654236	-94.5195388794
0.0	-0.0	5.37583780289	154.301940918	62.4518013	-98.3208389282
0.0	-0.0	8.13321399689	155.909072876	63.8012275696	-97.2694625854
0.0	-0.0	6.38556241989	157.103759766	64.3092498779	-97.8991317749
0.0	-0.0	4.17831754684	157.321548462	62.8702888489	-98.9401550293
0.0	-0.0	4.21996974945	158.582626343	61.552444458	-99.0803527832
0.0	-0.0	5.11304330826	158.625076294	62.5027694702	-100.453140259
0.0	-0.0	7.83092308044	157.757034302	61.8991546631	-100.805038452
0.0	-0.0	6.25883054733	157.862518311	62.3061561584	-101.23387146
0.0	-0.0	3.03767609596	157.082946777	61.3021011353	-100.426712036
0.0	0.0	-0.754355013371	158.06729126	60.951965332	-101.321434021
0.0	0.0	-3.59711003304	156.716812134	59.4808082581	-104.226379395
0.0	0.0	-3.78277683258	162.28503418	52.331829071	-112.17250824
0.0	0.0	-7.99906826019	170.638580322	36.8044204712	-111.640197754
0.0	0.0	-18.9019031525	171.334350586	26.3706855774	-96.0816574097
0.0	0.0	-25.9020805359	173.047866821	28.9864044189	-97.8527145386
0.0	0.0	-29.7178440094	174.771560669	38.0255699158	-94.6190109253
0.0	0.0	-26.2783908844	178.020645142	61.9910888672	-132.01802063
0.0	0.0	-22.6428222656	173.918106079	66.954284668	-136.964035034
0.0	0.0	-20.2552986145	164.249588013	59.5750312805	-109.2501297
0.0	0.0	-17.5565013885	157.090698242	49.0896530151	-94.9813613892
0.0	0.0	-17.8141155243	166.077407837	50.641204834	-120.250976562
0.0	0.0	-19.0006332397	172.540405273	48.2738189697	-130.414749146
0.0	0.0	-24.6092891693	179.756011963	44.2203178406	-141.910385132
0.0	0.0	-37.5654754639	-179.583450317	40.1425476074	-143.718460083
0.0	0.0	-42.506401062	177.986297607	39.2216720581	-140.526367188
0.0	0.0	-42.2545166016	177.433517456	39.6173171997	-136.482666016
0.0	0.0	-40.5326652527	175.309371948	42.1849327087	-134.843292236
0.0	0.0	-40.2939796448	175.443618774	40.7494773865	-130.018127441
0.0	0.0	-39.3341941833	174.46496582	40.6941375732	-130.528778076
0.0	0.0	-39.4550285339	174.035232544	40.3510742188	-129.992706299
0.0	0.0	-41.519367218	173.950180054	38.9645996094	-127.731880188
0.0	0.0	-47.1605415344	173.837265015	38.8761444092	-126.945396423
0.0	0.0	-49.3018989563	174.287231445	40.839553833	-126.755348206
0.0	0.0	-50.7502174377	175.310897827	41.5595397949	-126.202095032
0.0	0.0	-51.5826454163	175.655487061	41.9235458374	-126.026672363
0.0	0.0	-47.9649467468	175.163116455	42.0639877319	-127.033332825
0.0	0.0	-42.8028526306	175.172714233	42.4288978577	-125.478256226
0.0	0.0	-40.1291694641	169.475646973	41.4977645874	-106.634429932
0.0	0.0	-40.2990684509	170.082351685	41.7125091553	-108.462005615
0.0	0.0	-41.0060005188	171.266387939	40.9019508362	-113.199012756
0.0	0.0	-41.0574111938	170.553771973	35.0288619995	-100.950454712
0.0	0.0	-41.6235466003	175.60597229	41.4547653198	-97.5447921753
0.0	0.0	-41.2987823486	177.658233643	63.507598877	-120.134307861
0.0	0.0	-42.545627594	172.538269043	79.3057022095	-119.692375183
0.0	0.0	-43.8984718323	169.385391235	80.5489730835	-120.002441406
0.0	0.0	-44.4378242493	168.180831909	62.4211616516	-116.217643738
0.0	0.0	-43.615398407	170.428253174	44.2082824707	-122.026412964
0.0	0.0	-43.6810073853	168.468048096	35.1627082825	-123.558250427
0.0	0.0	-44.7271232605	169.201339722	32.4807395935	-122.966789246
0.0	0.0	-45.5669136047	167.671188354	31.608745575	-121.214805603
0.0	0.0	-46.2219009399	166.280593872	31.9183864594	-121.247550964
0.0	0.0	-46.6370429993	167.203308105	32.5476074219	-116.538124084
0.0	0.0	-48.1412086487	166.531082153	35.3778343201	-110.964042664
0.0	0.0	-51.7003555298	165.086654663	35.4019432068	-111.373939514
0.0	0.0	-53.6052207947	164.961990356	36.6713905334	-111.543495178
0.0	0.0	-50.0055160522	165.550460815	38.3265647888	-111.283233643
0.0	0.0	-51.8646125793	164.927932739	37.7371025085	-110.387611389
0.0	0.0	-50.6174201965	161.936767578	36.5020561218	-110.138458252
0.0	0.0	-59.0272598267	164.209991455	39.169216156	-109.9296875
0.0	0.0	-65.8412322998	164.669326782	40.4548110962	-111.012710571
0.0	0.0	-71.7194442749	164.5703125	39.7432365417	-111.147102356
0.0	0.0	-71.9028015137	165.489303589	40.1708374023	-111.601318359
0.0	0.0	-90.7183990479	172.630050659	47.8767242432	-114.355537415
0.0	-0.0	-125.077674866	167.496780396	40.8937835693	-114.475578308
0.0	-0.0	-141.404373169	168.423110962	41.8865699768	-114.453681946
0.0	-0.0	-143.149536133	169.646820068	42.9511604309	-114.07233429
0.0	-0.0	-130.719970703	166.858886719	44.2264556885	-114.764480591
0.0	0.0	-107.061935425	162.561325073	46.7089424133	-111.652389526
0.0	0.0	-86.8590698242	165.285644531	50.7901687622	-109.140739441
0.0	0.0	-90.773765564	160.194000244	51.7907905579	-112.801071167
0.0	0.0	-108.097084045	160.851501465	49.2009735107	-111.377548218
0.0	-0.0	-122.796913147	161.28817749	47.7986373901	-111.563865662
0.0	-0.0	-132.447616577	160.82019043	46.4784507751	-111.802688599
0.0	-0.0	-124.391731262	161.246383667	45.3635292053	-111.082969666
0.0	0.0	-109.369812012	161.675170898	46.002822876	-109.935180664
0.0	0.0	-98.9358139038	163.932296753	38.5449104309	-103.060386658
0.0	0.0	-96.5607528687	166.01914978	26.5139141083	-104.949134827
0.0	0.0	-96.0688247681	170.359481812	18.994846344	-97.9411239624
0.0	0.0	-95.0841445923	172.155593872	16.1431331635	-102.977416992
0.0	0.0	-95.3231201172	171.630004883	17.0862998962	-102.563354492
0.0	0.0	-96.9637451172	170.614105225	20.6255550385	-101.119270325
0.0	0.0	-98.6672515869	169.296203613	29.5460948944	-102.336181641
0.0	-0.0	-123.410751343	172.188980103	40.3141670227	-104.514732361
0.0	-0.0	-144.086776733	164.93737793	40.4886856079	-104.735397339
0.0	-0.0	-135.394760132	167.080596924	40.2813339233	-107.619148254
0.0	-0.0	-123.402381897	166.254623413	43.8426094055	-114.402648926
0.0	0.0	-99.0303192139	163.702896118	57.9192047119	-105.479202271
0.0	0.0	-81.6715011597	-27.6666812897	85.8709259033	89.326751709
0.0	0.0	-80.8284454346	158.013427734	73.9607009888	-98.059425354
0.0	0.0	-85.2266845703	171.289550781	34.7568588257	-116.028701782
0.0	0.0	-84.8334274292	164.090484619	26.1733474731	-120.687202454
0.0	0.0	-84.6769332886	164.372207642	23.8167705536	-117.303268433
0.0	0.0	-84.8777999878	164.060882568	29.2114315033	-115.600982666
0.0	0.0	-86.5623397827	161.191802979	37.5815620422	-113.987113953
0.0	0.0	-89.4740447998	162.795303345	36.2540626526	-113.964248657
0.0	0.0	-88.9562606812	162.545257568	34.6897888184	-117.349586487
0.0	0.0	-90.0527038574	163.966415405	32.1665382385	-120.874534607
0.0	0.0	-90.9347763062	164.685241699	30.8634872437	-123.649276733
0.0	0.0	-90.6152038574	161.2084198	32.9158821106	-118.717292786
0.0	0.0	-90.6415786743	158.774337769	36.4653968811	-117.642295837
0.0	0.0	-91.4433364868	156.742523193	37.1413497925	-113.326431274
0.0	0.0	-91.7309799194	154.678329468	38.3875274658	-113.582977295
0.0	0.0	-92.2207717896	153.696151733	38.4313926697	-113.331138611
0.0	0.0	-92.1835098267	151.798934937	39.0412864685	-115.8019104
0.0	0.0	-92.2893295288	150.214202881	41.5149917603	-117.835227966
0.0	0.0	-92.8590927124	150.251464844	45.2605323792	-124.500785828
0.0	0.0	-93.4210662842	154.323074341	41.0457725525	-128.336837769
0.0	0.0	-93.5014801025	154.345672607	35.7310791016	-129.27204895
0.0	0.0	-93.9148483276	153.518234253	34.9738006592	-133.593612671
0.0	0.0	-94.1598205566	152.990737915	35.7979888916	-138.804321289
0.0	0.0	-94.1608810425	151.040740967	40.108997345	-129.957977295
0.0	0.0	-94.1118545532	146.910705566	41.6372909546	-115.946266174
0.0	0.0	-93.869102478	141.4896698	40.1310310364	-107.86579895
0.0	0.0	-94.4841461182	137.74937439	41.3860359192	-104.305641174
0.0	0.0	-94.7513809204	135.09463501	44.0104408264	-104.035072327
0.0	0.0	-94.8864746094	137.048721313	45.5152549744	-114.080940247
0.0	0.0	-94.8767776489	137.225692749	46.1022834778	-125.344169617
0.0	0.0	-95.2138900757	138.527526855	45.6109352112	-129.826705933
0.0	0.0	-94.6069412231	139.452911377	43.3753547668	-131.18321228
0.0	0.0	-94.7429122925	138.79876709	42.6377220154	-133.952728271
0.0	0.0	-94.7018356323	139.460906982	43.4077301025	-136.532714844
0.0	0.0	-94.9168624878	138.843292236	45.2411308289	-133.656112671
0.0	0.0	-94.939201355	137.329147339	48.2608718872	-132.608856201
0.0	0.0	-95.189704895	136.170944214	47.659072876	-133.418197632
0.0	0.0	-96.0439071655	135.140853882	48.9413604736	-131.879470825
0.0	0.0	-96.4337387085	132.011703491	50.9390716553	-120.677131653
0.0	0.0	-98.934677124	131.839599609	50.9356651306	-118.662055969
0.0	0.0	-99.4097976685	135.836013794	46.5920715332	-121.447776794
0.0	0.0	-99.3888168335	141.085327148	41.1671981812	-127.619796753
0.0	0.0	-99.2374572754	144.696502686	37.133846283	-130.363342285
0.0	0.0	-99.5518798828	145.84034729	33.2664985657	-128.724365234
0.0	0.0	-98.9593276978	142.304199219	34.2310409546	-124.721008301
0.0	0.0	-99.727897644	139.586914062	33.6331176758	-116.340438843
0.0	0.0	-100.351287842	135.256454468	33.3571472168	-112.550109863
0.0	0.0	-101.5415802	133.153564453	35.785118103	-111.822029114
0.0	0.0	-101.368865967	132.153640747	37.7730178833	-113.072311401
0.0	0.0	-100.930297852	131.715774536	41.9939804077	-114.800956726
0.0	0.0	-99.2339096069	135.974029541	42.3183021545	-120.252807617
0.0	0.0	-98.5803604126	134.752075195	38.5526771545	-122.976394653
0.0	0.0	-99.0236968994	135.892654419	36.0885124207	-121.893516541
0.0	0.0	-99.1337738037	136.58682251	35.4740982056	-123.367759705
0.0	0.0	-98.9725875854	135.825119019	36.402759552	-128.224884033
0.0	0.0	-100.072624207	135.767028809	38.2368164062	-126.98399353
0.0	0.0	-101.041549683	132.446411133	44.0947799683	-130.427536011
0.0	0.0	-109.535682678	131.718856812	44.0357780457	-129.571243286
0.0	-0.0	-129.081253052	132.556777954	43.5849342346	-127.773246765
0.0	-0.0	-135.15272522	134.561416626	45.479888916	-127.502593994
0.0	-0.0	-127.947502136	136.094451904	46.8312187195	-129.337417603
0.0	0.0	-112.071029663	136.949966431	46.5493583679	-130.190383911
0.0	0.0	-86.239982605	136.982147217	47.9398536682	-130.188018799
0.0	0.0	-45.6167945862	138.214782715	49.3114089966	-124.239334106
0.0	0.0	-8.99903297424	139.992980957	49.5183334351	-122.620223999
0.0	0.0	-3.54260921478	140.438873291	50.1373252869	-119.357017517
0.0	0.0	-21.0414066315	144.114624023	53.6338500977	-118.287193298
0.0	0.0	-9.51160526276	141.572128296	51.9838409424	-114.566802979
0.0	0.0	-21.8180274963	144.216445923	54.1435317993	-114.474220276
0.0	0.0	-7.50334835052	143.95753479	50.4552268982	-115.117538452
0.0	0.0	-15.371925354	140.719421387	48.3317527771	-116.0727005
0.0	0.0	-8.72789669037	141.140670776	44.89635849	-115.673866272
0.0	0.0	-4.04148674011	139.631500244	43.4009132385	-115.953346252
0.0	0.0	-9.06459140778	139.40965271	45.6227722168	-117.498748779
0.0	0.0	-7.38635063171	139.34942627	45.0941200256	-116.790313721
0.0	0.0	-3.89097332954	140.291275024	41.2534065247	-116.266677856
0.0	0.0	-1.14459514618	149.446533203	38.3014259338	-103.570907593
0.0	-0.0	0.111997127533	156.94329834	41.4024467468	-94.6483230591
0.0	0.0	-1.2960422039	160.389892578	44.4612045288	-81.3102264404
0.0	0.0	-3.3974711895	157.961578369	44.8502731323	-67.0964660645
0.0	0.0	-3.86668896675	155.780990601	44.1899909973	-51.5504608154
0.0	0.0	-4.48520851135	164.125183105	50.0882949829	-82.6516265869
0.0	0.0	-5.38961601257	160.268722534	57.9397659302	-65.7675170898
0.0	0.0	-7.61044836044	178.092453003	55.2521820068	-127.099708557
0.0	0.0	-10.8398008347	174.189346313	55.7879447937	-151.446090698
0.0	0.0	-11.8383808136	168.695495605	54.8804702759	-145.619415283
0.0	0.0	-12.7328615189	167.72354126	53.1963195801	-144.584381104
0.0	0.0	-14.2243423462	166.234680176	47.0152893066	-143.188858032
0.0	0.0	-14.9508466721	165.908218384	43.7037124634	-147.589263916
0.0	0.0	-15.4907159805	164.966110229	43.0450210571	-148.678268433
0.0	0.0	-15.9630079269	164.423431396	42.2542762756	-148.571853638
0.0	0.0	-16.2511291504	163.616500854	41.571105957	-148.546325684
0.0	0.0	-17.5058116913	163.668838501	41.1940193176	-147.934814453
0.0	0.0	-19.3842220306	162.702346802	42.1578636169	-147.189422607
0.0	0.0	-22.0587539673	162.570419312	44.3223342896	-147.117279053
0.0	0.0	-23.9175510406	163.047286987	45.5915031433	-145.925048828
0.0	0.0	-25.2543773651	162.893081665	46.5257415771	-146.880447388
0.0	0.0	-25.9573879242	161.76612854	45.3233299255	-146.417053223
0.0	0.0	-25.0847053528	162.391937256	43.7462806702	-146.405807495
0.0	0.0	-25.2446346283	162.781555176	40.1276512146	-145.810440063
0.0	0.0	-25.498916626	163.727432251	36.4250526428	-144.556564331
0.0	0.0	-25.9224319458	165.539367676	34.718585968	-143.779968262
0.0	0.0	-26.1056728363	167.041732788	34.0155563354	-143.584976196
0.0	0.0	-26.3962879181	169.246582031	34.3531532288	-143.487045288
0.0	0.0	-27.0756568909	170.800582886	33.5360488892	-142.415420532
0.0	0.0	-27.9371643066	171.460266113	32.5520629883	-141.257324219
0.0	0.0	-28.169839859	171.69883728	32.7138710022	-141.759628296
0.0	0.0	-28.6463527679	173.075958252	32.5076789856	-141.102737427
0.0	0.0	-29.1751785278	173.708679199	32.8754043579	-141.583618164
0.0	0.0	-29.4799747467	174.837432861	33.0968666077	-141.660064697
0.0	0.0	-29.4236221313	175.255874634	32.9406814575	-141.53604126
0.0	0.0	-29.4155101776	175.22088623	32.7133750916	-141.672988892
0.0	0.0	-29.2627620697	175.755630493	33.1054725647	-141.758041382
0.0	0.0	-28.2396831512	175.991241455	34.2313613892	-141.508804321
0.0	0.0	-28.5096054077	176.536148071	35.5321578979	-141.080795288
0.0	0.0	-29.4714508057	177.182693481	36.3699645996	-141.14982605
0.0	0.0	-29.9761638641	176.956436157	36.1208343506	-141.325119019
0.0	0.0	-29.4985294342	177.796844482	35.4652481079	-140.84526062
0.0	0.0	-29.4021759033	179.177444458	34.8940124512	-140.785263062
0.0	0.0	-28.8987827301	179.617965698	35.4971580505	-141.033218384
0.0	0.0	-26.8257846832	-179.47833252	36.3181991577	-140.095794678
0.0	0.0	-25.7292404175	179.809188843	37.7123413086	-140.248016357
0.0	0.0	-25.7401027679	179.053649902	36.9526481628	-134.377197266
0.0	0.0	-25.9306259155	178.229156494	36.2413749695	-129.479171753
0.0	0.0	-25.8641014099	176.681838989	34.2324790955	-122.101608276
0.0	0.0	-26.3638763428	178.219039917	34.293598175	-125.069755554
0.0	0.0	-26.6534519196	178.546783447	33.7133560181	-129.579162598
0.0	0.0	-27.3100643158	175.109222412	31.7125244141	-131.285675049
0.0	0.0	-27.5628166199	171.21496582	28.2263679504	-132.021575928
0.0	0.0	-27.8470420837	170.287277222	26.9043807983	-130.925033569
0.0	0.0	-27.2531414032	172.142807007	27.9060592651	-130.272827148
0.0	0.0	-26.7864875793	171.973510742	34.8026924133	-129.999511719
0.0	0.0	-28.3809967041	171.499145508	35.7102279663	-128.443862915
0.0	0.0	-29.3079509735	170.042480469	34.3186607361	-123.607505798
0.0	0.0	-28.5473079681	169.453735352	30.791934967	-106.188087463
0.0	0.0	-27.5252571106	168.83380127	30.1640110016	-99.8231658936
0.0	0.0	-27.1560611725	168.228637695	32.4705200195	-122.358734131
0.0	0.0	-26.4076213837	168.872543335	32.26197052	-128.615966797
0.0	0.0	-25.9795017242	166.929260254	30.0769920349	-128.867431641
0.0	0.0	-26.1070251465	166.339248657	28.5743350983	-129.03855896
0.0	0.0	-26.2156238556	167.443740845	29.9444293976	-136.931137085
0.0	0.0	-26.2318592072	168.650985718	32.3265724182	-144.957641602
0.0	0.0	-25.9829483032	169.091903687	34.3145103455	-150.877166748
0.0	0.0	-26.0241260529	169.277679443	33.4714050293	-149.707061768
0.0	0.0	-25.8506259918	168.664794922	33.5331916809	-150.267379761
0.0	0.0	-25.9207706451	168.795684814	33.8895072937	-150.473983765
0.0	0.0	-25.5785217285	168.833984375	34.4802284241	-150.537094116
0.0	0.0	-25.2226142883	168.453842163	35.1195373535	-150.103591919
0.0	0.0	-24.5143737793	168.817428589	36.4412231445	-148.846298218
0.0	0.0	-24.6794090271	168.672683716	37.576713562	-147.730667114
0.0	0.0	-24.710893631	169.636474609	37.9414634705	-146.417892456
0.0	0.0	-24.1254520416	169.163284302	38.1034240723	-146.463287354
0.0	0.0	-23.0681037903	169.167190552	37.8678894043	-145.979537964
0.0	0.0	-22.6384506226	169.618164062	37.9528007507	-145.261505127
0.0	0.0	-23.4113349915	169.454025269	37.6469154358	-144.381317139
0.0	0.0	-22.5909290314	169.133270264	38.1834983826	-143.786437988
0.0	0.0	-23.4322967529	168.93321228	37.9607658386	-141.92590332
0.0	0.0	-23.4733848572	168.080810547	38.0434799194	-142.369277954
0.0	0.0	-24.706287384	168.244720459	38.5834083557	-142.140914917
0.0	0.0	-25.8612575531	167.391723633	38.9376182556	-142.34803772
0.0	0.0	-27.0654430389	167.6381073	39.4987449646	-142.75151062
0.0	0.0	-28.3903808594	166.012954712	38.6276664734	-143.636352539
0.0	0.0	-24.5859012604	164.27583313	38.6084022522	-143.595001221
0.0	0.0	-22.0504207611	165.240524292	38.9284133911	-142.656677246
0.0	0.0	-24.7143154144	165.004013062	37.6545257568	-142.171066284
0.0	0.0	-34.4120559692	165.486968994	36.4803123474	-142.377334595
0.0	0.0	-58.9579696655	164.471832275	33.81224823	-141.069534302
0.0	0.0	-79.3255081177	163.88899231	34.7511901855	-141.760986328
0.0	0.0	-78.3992385864	164.134567261	35.4813652039	-141.13633728
0.0	0.0	-69.3102035522	163.980895996	36.4694290161	-141.208816528
0.0	0.0	-57.3144454956	164.308990479	37.4486541748	-141.555114746
0.0	0.0	-45.3324165344	163.825668335	39.098323822	-142.542770386
0.0	0.0	-38.7099761963	163.529464722	40.3651695251	-143.439041138
0.0	0.0	-37.1196937561	162.800247192	41.5181427002	-143.556381226
0.0	0.0	-43.2749481201	161.656356812	42.9922943115	-144.159317017
0.0	0.0	-50.7703742981	161.739639282	44.3627548218	-143.595977783
0.0	0.0	-60.9466781616	160.202041626	45.3035469055	-144.85949707
0.0	0.0	-66.2361831665	159.470993042	44.3784065247	-145.052383423
0.0	0.0	-63.8696670532	159.654693604	43.7101745605	-145.319793701
0.0	0.0	-61.2034263611	159.901382446	43.2145385742	-144.923599243
0.0	0.0	-48.2807998657	159.473373413	42.6414070129	-144.190002441
0.0	0.0	-33.0454673767	159.179672241	42.3984909058	-143.451446533
0.0	0.0	-25.342294693	159.698120117	41.7749595642	-142.403671265
0.0	0.0	-25.6740932465	160.311065674	40.8983764648	-141.772674561
0.0	0.0	-27.6977386475	159.937179565	40.5963859558	-141.989715576
0.0	0.0	-26.703163147	159.312835693	40.5165786743	-142.156051636
0.0	0.0	-24.1100215912	158.811416626	40.1579437256	-142.277359009
0.0	0.0	-31.3434638977	158.648956299	41.176612854	-143.037353516
0.0	0.0	-42.8570137024	159.14730835	40.5771942139	-142.854492188
0.0	0.0	-50.986579895	158.330322266	40.249080658	-143.543014526
0.0	0.0	-52.9106750488	158.449630737	39.8749961853	-143.156539917
0.0	0.0	-53.5779838562	157.907058716	40.648815155	-143.258453369
0.0	0.0	-58.7404174805	158.35736084	41.1691207886	-141.94619751
0.0	0.0	-65.7290039062	158.821411133	41.8891906738	-141.069274902
0.0	0.0	-61.3696327209	158.277862549	42.6742630005	-142.619186401
0.0	0.0	-53.6376190186	156.432693481	40.147026062	-142.812820435
