0.0188429355621	0.975203752518	-0.0131394863129	-0.186054706573	1.59396493435	-0.134351849556
0.0185804367065	0.975406885147	-0.0116784572601	-0.186475992203	1.59423995018	-0.134542703629
0.0175907611847	0.975556850433	-0.0104129314423	-0.188226222992	1.59400033951	-0.133743047714
0.0168533325195	0.975688934326	-0.0104149580002	-0.195135593414	1.59385597706	-0.13208591938
0.0170397758484	0.973793268204	-0.0103607177734	-0.206374168396	1.59376978874	-0.131433963776
0.0160040855408	0.97248005867	-0.00882577896118	-0.216787338257	1.59372127056	-0.132618188858
0.0136256217957	0.972721815109	-0.00463724136353	-0.228328943253	1.59415817261	-0.136258006096
0.00952887535095	0.972041130066	0.000498533248901	-0.240304470062	1.59481573105	-0.141544222832
0.00208902359009	0.969577312469	0.00535047054291	-0.248886108398	1.59485864639	-0.145249009132
-0.0084662437439	0.967572927475	0.00933396816254	-0.253493070602	1.59431135654	-0.146603107452
-0.0165550708771	0.966191768646	0.015341758728	-0.255716562271	1.59396827221	-0.145666122437
-0.0208072662354	0.968207120895	0.01921916008	-0.257054328918	1.59383368492	-0.143341302872
-0.0233359336853	0.968358278275	0.0213277339935	-0.258236885071	1.59394550323	-0.140961527824
-0.021919965744	0.965087652206	0.0270648002625	-0.260589838028	1.59370779991	-0.139474868774
-0.0168941020966	0.944355487823	0.0419790744781	-0.263295888901	1.59369444847	-0.139237165451
-0.0147516727448	0.925961256027	0.0452035665512	-0.264152765274	1.59388053417	-0.139361858368
-0.0257847309113	0.921360254288	0.0381302833557	-0.263800144196	1.59389746189	-0.138208866119
-0.0293388366699	0.910351276398	0.0365080833435	-0.262163162231	1.59342730045	-0.135885000229
