-0.0254943370819	1.00289058685	0.0364005565643	-0.215779304504	1.59280562401	-0.134025931358
-0.025890827179	1.00393843651	0.0368357896805	-0.215654850006	1.59249269962	-0.132741451263
-0.0263676643372	1.001912117	0.0374730825424	-0.215795278549	1.5924680233	-0.131940245628
-0.0291457176208	1.00146341324	0.0370552539825	-0.219490289688	1.59300661087	-0.131385803223
-0.0318791866302	0.998184680939	0.0370631217957	-0.227841854095	1.59376060963	-0.130914211273
-0.0341317653656	0.99643945694	0.0364339351654	-0.231281042099	1.59315693378	-0.13075530529
-0.0366005897522	0.997126102448	0.0355575084686	-0.231200218201	1.59219932556	-0.13016974926
-0.035924911499	1.0002784729	0.0361930131912	-0.230515003204	1.59173333645	-0.13007581234
-0.0350251197815	1.00113463402	0.037008523941	-0.23063826561	1.59169840813	-0.129880309105
-0.0356357097626	1.00120902061	0.0363714694977	-0.231050014496	1.59175169468	-0.129788517952
-0.0324814319611	0.994339704514	0.0449812412262	-0.231451272964	1.59154486656	-0.129917740822
