-34.8586769104	-57.6105079651	141.776794434	11.9698629379	3.78440761566	3.4722430706
-34.8452529907	-57.3488464355	141.662307739	11.9898300171	5.38643598557	3.3928334713
-34.1677627563	-57.0926971436	140.912628174	12.3341856003	5.87242460251	3.16933512688
-34.0347137451	-57.0805282593	140.811431885	12.917840004	4.77558326721	3.23933243752
-32.6453323364	-55.6805763245	136.051864624	13.714720726	1.55889964104	3.08937120438
-31.9048194885	-48.761554718	122.933708191	14.7081508636	-1.38822054863	3.06006669998
-39.116558075	-42.8652687073	120.103675842	15.0605297089	-4.26459741592	2.79919528961
-42.9218139648	-41.9966163635	121.369865417	15.3383312225	-8.07053470612	2.44343018532
-39.5089492798	-41.1789512634	118.519172668	15.8054761887	-12.3251714706	1.59616458416
-40.6728630066	-41.4645690918	120.051490784	16.5694522858	-15.2855625153	1.0585193634
-41.1780662537	-42.8772468567	120.87638092	17.480298996	-17.3977680206	0.736470401287
-41.5778007507	-44.177230835	122.140136719	18.1266269684	-19.3867969513	0.0186627078801
-40.3239746094	-44.3592796326	119.64654541	18.3328170776	-21.202129364	-0.358855903149
-33.0066223145	-43.6620140076	105.99835968	18.3285980225	-21.9493198395	-0.281136363745
-5.85753393173	-35.997718811	70.1146316528	18.4715175629	-22.0949382782	-0.126946792006
