0.0100932121277	0.964298963547	0.0108556747437	-0.209063529968	1.58819377422	-0.12571811676
0.0103363990784	0.967657327652	0.00932741165161	-0.208449602127	1.58848249912	-0.127685785294
0.0101561546326	0.968042850494	0.00918483734131	-0.208199739456	1.58820843697	-0.129264593124
0.0105197429657	0.967700004578	0.00896978378296	-0.20872426033	1.5881510973	-0.130168199539
0.00695896148682	0.964473485947	0.00885629653931	-0.211505413055	1.58689546585	-0.129423618317
0.00329947471619	0.962807893753	0.00713658332825	-0.222708702087	1.58685481548	-0.128062725067
0.00481653213501	0.961702108383	0.00780987739563	-0.23530125618	1.58658719063	-0.128829360008
0.00247931480408	0.960367918015	0.00885760784149	-0.244115352631	1.58654677868	-0.129894018173
-7.46250152588e-05	0.959402084351	0.0104932785034	-0.249131917953	1.58830237389	-0.131404042244
-0.00259900093079	0.958526611328	0.0134100914001	-0.252505064011	1.59016096592	-0.132594704628
-0.00659108161926	0.956570625305	0.016318321228	-0.255851507187	1.59130954742	-0.133204698563
-0.010365486145	0.955175638199	0.0183765888214	-0.258306980133	1.59150421619	-0.133241653442
-0.012734413147	0.956433057785	0.0191819667816	-0.259837627411	1.59106111526	-0.132690191269
-0.0137572288513	0.956488847733	0.0206850767136	-0.261079072952	1.59100604057	-0.132238388062
-0.0148663520813	0.955769062042	0.0222456455231	-0.26252746582	1.59113526344	-0.131592512131
-0.0167744159698	0.948309183121	0.0303165912628	-0.263791561127	1.59106040001	-0.130905270576
