0.0	-0.0	144.835845947	-129.810195923	85.0910415649	164.584350586
0.0	-0.0	144.699234009	-128.491317749	85.0096435547	164.726852417
0.0	-0.0	144.586700439	-127.481697083	84.8979263306	164.39213562
0.0	-0.0	144.111862183	-126.939491272	82.5216064453	164.600006104
0.0	-0.0	137.386886597	-126.509963989	77.6862182617	165.535552979
0.0	-0.0	116.30305481	-125.752639771	69.1496200562	166.554458618
0.0	-0.0	110.969322205	-123.220405579	60.752910614	167.980895996
0.0	-0.0	101.987617493	-116.56427002	54.0535125732	167.601715088
0.0	-0.0	98.7181167603	-106.833755493	50.2024497986	166.595413208
0.0	-0.0	98.1508026123	-100.349899292	48.7162666321	165.960830688
0.0	-0.0	93.8200683594	-97.4358291626	49.2588157654	165.081878662
0.0	-0.0	51.9685287476	-94.4767379761	50.4694328308	165.044387817
0.0	-0.0	52.268699646	-93.275718689	53.4982795715	164.080978394
0.0	-0.0	82.6735305786	-94.1085739136	57.4186210632	164.229431152
0.0	-0.0	112.144119263	-94.698425293	60.1178436279	164.189971924
0.0	-0.0	116.287475586	-92.864112854	61.1960906982	164.812942505
