-79.633895874	-35.2816848755	140.538635254	1.72616922855	-0.438652604818	-6.33710861206
-79.5743026733	-35.6884422302	140.505752563	1.65727567673	-0.625056862831	-6.30418109894
-79.4717483521	-35.5115890503	140.492630005	1.77332758904	-0.650031268597	-6.32674503326
-79.5556716919	-35.3265647888	140.552780151	2.00572633743	-0.657365500927	-6.36033916473
-77.8828964233	-34.6985702515	138.06578064	2.44292426109	-0.560243010521	-6.44141769409
-70.486946106	-34.4585113525	123.676017761	3.27140116692	-0.287953287363	-6.64691305161
-57.2035446167	-34.8423309326	100.481391907	4.85244703293	0.216413408518	-6.87249803543
-44.318271637	-33.3621253967	80.8647766113	6.74982881546	0.757463872433	-7.18827629089
-36.586681366	-32.6283798218	69.6803359985	8.83142757416	0.968528211117	-7.29113721848
