0.0	-0.0	141.825424194	-120.456382751	88.6617355347	172.097045898
0.0	-0.0	142.125152588	-119.267478943	88.7082672119	171.679229736
0.0	-0.0	142.046981812	-118.474815369	88.9030456543	170.999313354
0.0	-0.0	141.549819946	-118.720428467	88.9022903442	170.70463562
0.0	-0.0	136.98626709	-118.784645081	88.1550979614	170.445755005
0.0	-0.0	115.077171326	-117.214576721	86.6554336548	170.11946106
0.0	-0.0	95.2359237671	-113.916137695	83.7222213745	169.107772827
0.0	-0.0	72.8755111694	-109.392318726	79.0406570435	168.400024414
0.0	-0.0	59.4075889587	-104.999298096	72.3205566406	167.862304688
0.0	-0.0	57.817779541	-101.727996826	65.6821517944	167.597091675
0.0	-0.0	61.5195198059	-99.3033370972	59.6683769226	166.781738281
0.0	-0.0	67.0583572388	-97.1299514771	54.8314666748	166.725402832
0.0	-0.0	72.6687240601	-95.5582122803	53.1174621582	166.907485962
0.0	-0.0	78.2948913574	-94.2259521484	54.8264961243	167.651199341
0.0	-0.0	82.0440979004	-93.1054382324	57.6558227539	168.475219727
0.0	-0.0	87.5569152832	-92.3073196411	57.8446311951	169.309997559
0.0	-0.0	90.2014541626	-90.8699645996	55.259437561	170.38458252
0.0	-0.0	94.6306991577	-88.08644104	52.4538993835	171.50050354
0.0	-0.0	94.0580825806	-84.5230026245	50.4681358337	171.856216431
0.0	-0.0	89.9499969482	-80.768989563	49.5950126648	171.773666382
