0.0	-0.0	139.471618652	51.140789032	89.8615112305	-16.6544475555
0.0	-0.0	139.558609009	50.9828491211	89.8056106567	-16.926322937
0.0	-0.0	139.498626709	50.8692398071	89.792137146	-16.7541236877
0.0	-0.0	139.299179077	52.4159851074	89.2681121826	-16.2853527069
0.0	-0.0	132.164459229	56.0211601257	87.8266906738	-16.166967392
0.0	-0.0	120.901519775	62.0121269226	84.3423538208	-15.3593502045
0.0	-0.0	118.803848267	68.4028625488	78.9654846191	-14.3297863007
0.0	-0.0	115.339355469	74.7479400635	72.1763839722	-13.0851993561
0.0	-0.0	107.541534424	81.0915527344	65.9298934937	-12.482134819
0.0	-0.0	99.5104293823	87.042137146	62.1129570007	-12.5004615784
0.0	-0.0	100.218170166	92.3903808594	61.0364608765	-12.5374708176
0.0	-0.0	103.858222961	96.2664108276	60.7371292114	-12.9061079025
0.0	-0.0	105.469581604	98.8785705566	60.0251350403	-13.1497745514
0.0	-0.0	105.971618652	101.541488647	57.6689109802	-13.5477828979
0.0	-0.0	105.281585693	104.969871521	55.2603225708	-13.9485931396
0.0	-0.0	105.90397644	107.614959717	55.0331001282	-13.8504896164
0.0	-0.0	107.0573349	109.905418396	55.9394378662	-14.6193084717
0.0	-0.0	106.52368927	111.26965332	57.921169281	-16.277545929
0.0	-0.0	90.7371826172	109.684257507	60.4287109375	-17.1959972382
0.0	-0.0	70.8740386963	107.204879761	62.1970291138	-18.2808799744
0.0	-0.0	70.6882247925	104.980354309	62.5519142151	-18.4645786285
0.0	-0.0	72.4105224609	102.540313721	63.0502319336	-18.6293354034
0.0	-0.0	74.1871261597	99.7576904297	64.5079879761	-17.9444599152
0.0	-0.0	76.0149154663	96.0827178955	65.1464309692	-16.70677948
0.0	-0.0	78.2416229248	91.6022796631	65.9399261475	-15.2798194885
