0.0	-0.0	139.986221313	-121.352058411	89.220954895	166.104385376
0.0	-0.0	139.779464722	-122.222694397	89.5058822632	166.082901001
0.0	-0.0	138.835296631	-122.994361877	89.3985137939	166.197189331
0.0	-0.0	137.182510376	-123.581085205	89.0612945557	166.421081543
0.0	-0.0	124.433395386	-125.212104797	87.3063583374	166.850692749
0.0	-0.0	108.520812988	-128.748809814	82.0907821655	168.3177948
0.0	-0.0	101.540710449	-133.998306274	74.9913864136	170.197296143
0.0	-0.0	99.2194595337	-139.497390747	67.1040878296	172.107177734
0.0	-0.0	100.954391479	-144.331451416	58.8473739624	173.749572754
0.0	-0.0	99.6807556152	-148.56880188	51.3595657349	175.287384033
0.0	-0.0	96.2084503174	-152.063079834	44.6754379272	176.722076416
0.0	-0.0	90.182472229	-154.520721436	38.5005836487	177.593170166
0.0	-0.0	86.083152771	-156.135421753	33.2490539551	177.680877686
0.0	-0.0	85.4911880493	-157.350006104	29.3756828308	177.655319214
0.0	-0.0	84.9287948608	-158.109725952	25.6143665314	178.331481934
0.0	-0.0	85.308921814	-158.750793457	21.0556240082	179.163406372
0.0	-0.0	85.2833557129	-159.068603516	17.8172397614	179.269104004
0.0	-0.0	84.6004104614	-158.544586182	15.1549549103	179.62991333
0.0	-0.0	81.9742279053	-157.783401489	13.9214086533	-179.835739136
