0.0837223529816	1.25732564926	0.305697083473	-0.116396188736	1.57698333263	0.0551859140396
0.0866611003876	1.25748682022	0.306208968163	-0.115183115005	1.57714247704	0.0550649166107
0.0895066261292	1.25861203671	0.305791854858	-0.11425280571	1.57687103748	0.0549354553223
0.0906648635864	1.2587184906	0.305403232574	-0.113292455673	1.57680523396	0.0545942783356
0.0904424190521	1.25793612003	0.306143403053	-0.112947702408	1.57693219185	0.0544474124908
0.0905601978302	1.25432026386	0.312056303024	-0.112635135651	1.57716596127	0.054731965065
0.0900819301605	1.24478125572	0.329181194305	-0.112764120102	1.57707619667	0.0552109479904
0.0922567844391	1.2221019268	0.354391336441	-0.113136053085	1.5764811039	0.0560467243195
0.100225687027	1.19909155369	0.369321942329	-0.114353895187	1.57601690292	0.0570331811905
0.101572036743	1.18067836761	0.374509692192	-0.116404056549	1.57632851601	0.0585803985596
0.0957200527191	1.16837537289	0.376362085342	-0.118725061417	1.5766569376	0.0607100725174
0.0889136791229	1.16556549072	0.377058982849	-0.12146282196	1.57724118233	0.0632138252258
0.0832362174988	1.16785728931	0.378778100014	-0.124680519104	1.57823526859	0.0657985210419
