0.0471782684326	1.1984411478	-0.0716509819031	-0.0966300964355	1.57180929184	-0.266571164131
0.0477764606476	1.1984295845	-0.0700886249542	-0.0957009792328	1.57210862637	-0.2664270401
0.0483074188232	1.19839680195	-0.0696890354156	-0.0944302082062	1.57239031792	-0.266439199448
0.0487241744995	1.19742453098	-0.068384885788	-0.0930972099304	1.57239413261	-0.266141891479
0.0482752323151	1.19603061676	-0.0658166408539	-0.0921015739441	1.57094168663	-0.26484310627
0.0471253395081	1.19488823414	-0.0612206459045	-0.0920369625092	1.56824481487	-0.262630462646
0.0419230461121	1.19243824482	-0.0553286075592	-0.0932602882385	1.56572926044	-0.260004043579
0.0351910591125	1.18583238125	-0.0489296913147	-0.0961747169495	1.56416273117	-0.257422208786
0.0291604995728	1.1695882082	-0.0361125469208	-0.099570274353	1.56415832043	-0.25471997261
0.0351543426514	1.14986157417	-0.0193817615509	-0.102754354477	1.56474578381	-0.252704143524
0.0460610389709	1.12515473366	-0.00558686256409	-0.105048418045	1.56559550762	-0.251176953316
0.0430355072021	1.11730861664	-0.00461483001709	-0.106732368469	1.56739747524	-0.24987411499
0.0360672473907	1.11827886105	-0.00564348697662	-0.108597993851	1.57092046738	-0.2491979599
0.0304448604584	1.12388813496	-0.00594687461853	-0.110548496246	1.57479274273	-0.249485969543
0.0276155471802	1.12872600555	-0.00424838066101	-0.111737012863	1.57568192482	-0.249845266342
0.0276081562042	1.13497459888	-0.00366508960724	-0.111547470093	1.57424426079	-0.24995970726
0.0295872688293	1.13894486427	-0.003173828125	-0.110031604767	1.57363212109	-0.250221371651
0.0333263874054	1.13858020306	-0.00161874294281	-0.108591079712	1.57474648952	-0.250890851021
0.0363433361053	1.13572800159	-5.29289245605e-05	-0.108055353165	1.57670092583	-0.251379489899
0.037394285202	1.13415515423	0.000802993774414	-0.107928276062	1.57809698582	-0.251461863518
0.0390124320984	1.13433551788	0.00223648548126	-0.10733795166	1.57850253582	-0.251657962799
0.0411274433136	1.13583850861	0.00381720066071	-0.106276750565	1.57781505585	-0.251298189163
0.0434575080872	1.1368367672	0.00467050075531	-0.104554891586	1.57599663734	-0.2505235672
0.0455343723297	1.13626658916	0.00488138198853	-0.102122306824	1.57406556606	-0.250419378281
0.048552274704	1.1363273859	0.00448572635651	-0.100065469742	1.57229459286	-0.251382231712
0.0505130290985	1.13830280304	0.00253546237946	-0.0985960960388	1.57275438309	-0.253022909164
