0.112898588181	1.11503577232	-0.0131332874298	-0.0688962936401	1.57323753834	-0.240600585938
0.113569974899	1.11919867992	-0.0140483379364	-0.0689957141876	1.57263302803	-0.240742683411
0.11282324791	1.11950802803	-0.0143778324127	-0.0684695243835	1.57266902924	-0.240936875343
0.112030267715	1.11941313744	-0.0145571231842	-0.0684432983398	1.57331669331	-0.241398096085
0.112562894821	1.12101626396	-0.011207818985	-0.0685820579529	1.57487297058	-0.241904497147
0.112600564957	1.12692940235	-0.0063214302063	-0.0689580440521	1.57908987999	-0.243218421936
0.108706235886	1.1344987154	-0.00338339805603	-0.0696668624878	1.58435535431	-0.245346784592
0.101804494858	1.13773679733	-0.00131416320801	-0.0705893039703	1.58913338184	-0.248036503792
0.0960671901703	1.14089143276	-0.00054931640625	-0.0709657669067	1.59333372116	-0.250539541245
0.0890738964081	1.14297580719	-0.00191950798035	-0.0706965923309	1.59699249268	-0.252546668053
0.0803561210632	1.14685571194	-0.00612378120422	-0.0700931549072	1.60062718391	-0.254034042358
0.0754153728485	1.15298807621	-0.00846362113953	-0.0691542625427	1.60220897198	-0.255199670792
0.083881855011	1.15578186512	-0.00131773948669	-0.0684702396393	1.60109233856	-0.255273103714
0.0815591812134	1.14822006226	0.0030769109726	-0.0683085918427	1.59933841228	-0.254017114639
0.066154718399	1.15073168278	-0.000248432159424	-0.0686120986938	1.59836435318	-0.252448558807
0.0552604198456	1.15025007725	-0.00187659263611	-0.0697824954987	1.59765410423	-0.251038074493
0.0515491962433	1.15213608742	-0.00191497802734	-0.0717837810516	1.59796094894	-0.251036167145
0.0465750694275	1.14817261696	-0.00295996665955	-0.0732188224792	1.59886682034	-0.252094268799
0.0490279197693	1.14533150196	-0.00340628623962	-0.073563337326	1.60007238388	-0.253843665123
0.0484702587128	1.14395654202	-0.00773859024048	-0.0731229782104	1.60131108761	-0.255739212036
0.0464050769806	1.1472312212	-0.0131461620331	-0.0720944404602	1.60247242451	-0.2570759058
0.0396428108215	1.14837825298	-0.01922082901	-0.0711450576782	1.6027276516	-0.25802385807
0.0351531505585	1.15073001385	-0.0202548503876	-0.0703825950623	1.60219597816	-0.258095026016
0.0347411632538	1.15967345238	-0.0206149816513	-0.0699665546417	1.60154533386	-0.257603406906
0.0335953235626	1.16987764835	-0.0234425067902	-0.0695400238037	1.60110390186	-0.257342219353
0.030565738678	1.16961216927	-0.0230474472046	-0.0696444511414	1.60168540478	-0.257986903191
0.0319306850433	1.16778218746	-0.021558880806	-0.0698826313019	1.60379040241	-0.259634256363
0.0337064266205	1.1654061079	-0.0209918022156	-0.0698180198669	1.60623419285	-0.262335300446
0.0358667373657	1.16197669506	-0.0198395252228	-0.0688986778259	1.60877287388	-0.265684723854
0.0372583866119	1.15942394733	-0.0188598632812	-0.0670213699341	1.61026334763	-0.269232034683
