-39.6940574646	-69.3423156738	143.50189209	3.77205491066	-0.41869199276	-3.07725143433
-40.5182304382	-69.1250457764	144.204116821	4.29499673843	-0.381656736135	-3.14644026756
-41.0676383972	-69.0674743652	144.678421021	4.27576732635	-0.43265375495	-3.18766999245
-41.1053314209	-68.8002166748	144.796890259	4.23480081558	-0.745755374432	-3.17445087433
-34.9274330139	-66.8463897705	138.329406738	3.90470910072	-2.4198076725	-3.2537446022
-14.4465112686	-56.4917640686	111.551376343	2.98002552986	-6.07897615433	-3.44455242157
-4.23761081696	-45.5343894958	94.0720443726	1.99197876453	-10.044965744	-3.80028653145
-3.97770214081	-43.3474807739	90.5299758911	1.16402626038	-13.6823177338	-3.79418134689
-6.71153879166	-43.3837890625	92.6616592407	0.51610916853	-16.97498703	-3.53765106201
-7.29452466965	-43.9230537415	92.8037567139	0.328953742981	-19.7767620087	-3.77268362045
-8.04741096497	-44.518371582	94.1290969849	0.862887084484	-21.9351234436	-4.04837846756
-7.98915576935	-44.8496589661	94.155418396	1.90698826313	-23.5813007355	-4.50160741806
-7.58853197098	-45.1145172119	93.9139175415	3.21363139153	-25.1969871521	-5.22476291656
-7.13941669464	-45.3259429932	93.7421951294	4.41991853714	-26.5998897552	-5.93038272858
