0.0	-0.0	142.428161621	59.5357398987	83.1679000854	-9.63409042358
0.0	-0.0	142.839187622	58.6961555481	85.3864822388	-9.07977390289
0.0	-0.0	142.945709229	59.1119155884	87.2256164551	-8.88721370697
0.0	-0.0	143.082809448	60.0616073608	88.1587600708	-8.80647277832
0.0	-0.0	143.052078247	60.4963722229	88.2176895142	-9.20212173462
0.0	-0.0	141.632064819	60.1827087402	88.3143844604	-9.10156345367
0.0	-0.0	130.058944702	57.325958252	88.9796600342	-8.77641105652
0.0	-0.0	100.993766785	-128.219268799	89.8220901489	172.287399292
0.0	-0.0	77.6283874512	-135.819381714	88.3572769165	173.448287964
0.0	-0.0	68.1524353027	-145.097686768	87.3985977173	174.183456421
0.0	-0.0	69.1596832275	-154.61869812	87.5923690796	174.353012085
0.0	-0.0	70.5063552856	-163.688720703	88.0312957764	174.868591309
0.0	-0.0	72.0222244263	-171.996704102	88.1137313843	175.778701782
0.0	-0.0	73.2943954468	-179.217453003	88.3043670654	176.549530029
0.0	-0.0	74.0313262939	174.572570801	88.5659637451	177.105895996
0.0	-0.0	74.2902755737	169.83001709	88.7480926514	177.542816162
0.0	-0.0	76.0322341919	165.608154297	89.2813262939	177.964355469
0.0	-0.0	76.3883590698	160.995056152	89.6897506714	178.333602905
