0.0	-0.0	148.654541016	54.8268814087	88.5545272827	-16.7514915466
0.0	-0.0	147.937042236	55.2040901184	89.0322036743	-16.6296386719
0.0	-0.0	147.539642334	55.1409988403	89.1441879272	-16.8786144257
0.0	-0.0	147.317626953	54.9326095581	89.1691741943	-17.054101944
0.0	-0.0	147.294509888	54.7878074646	89.257019043	-16.9920406342
0.0	-0.0	146.271316528	54.4748382568	89.360748291	-16.8241157532
0.0	-0.0	135.108642578	-126.000175476	89.6608963013	163.356506348
0.0	-0.0	108.068054199	-126.777145386	86.9463043213	164.201202393
0.0	-0.0	86.6592102051	-128.71987915	82.2494888306	165.662902832
0.0	-0.0	77.465133667	-132.2784729	78.0594100952	167.116378784
0.0	-0.0	75.6146240234	-137.136444092	76.3282089233	168.129730225
0.0	-0.0	76.0005569458	-142.291854858	76.1985626221	168.969039917
0.0	-0.0	76.2158584595	-147.443710327	77.0647125244	169.69984436
0.0	-0.0	76.4333267212	-151.241638184	78.2332382202	170.586349487
0.0	-0.0	76.9695510864	-152.442016602	80.5996246338	171.326324463
0.0	-0.0	77.8285293579	-151.560806274	83.669960022	171.748580933
