-0.0246217250824	1.15607225895	0.217096090317	-0.140336513519	1.57972943783	-0.00334489345551
-0.0248141288757	1.15704905987	0.216991782188	-0.140275478363	1.57954955101	-0.00274181365967
-0.0243272781372	1.15662658215	0.218308448792	-0.140388965607	1.57941854	-0.00197815895081
-0.0240504741669	1.15739202499	0.218778967857	-0.140882492065	1.57952237129	-0.00117158889771
-0.0242581367493	1.15768837929	0.22025001049	-0.141315460205	1.57946777344	-0.000119566917419
-0.022745847702	1.15427446365	0.226772546768	-0.141953229904	1.57907402515	0.000760555267334
-0.0127813816071	1.14411604404	0.245694637299	-0.142678260803	1.57860004902	0.00114822387695
0.00459742546082	1.12265980244	0.265572071075	-0.143666505814	1.57775533199	0.00119614601135
0.0158169269562	1.08034908772	0.279183387756	-0.145804166794	1.57499313354	0.000658988952637
-0.00143718719482	1.02751970291	0.270979642868	-0.148811817169	1.57189702988	-0.000324964523315
-0.0179107189178	0.994524240494	0.254451155663	-0.152136802673	1.56999671459	-0.00120544433594
-0.0317060947418	0.972617864609	0.238789081573	-0.154400110245	1.56722164154	-0.00267446041107
-0.0440452098846	0.959219694138	0.225436449051	-0.155883073807	1.56271493435	-0.00407338142395
-0.054368019104	0.957389831543	0.217487335205	-0.15705704689	1.55733942986	-0.00511789321899
-0.0632834434509	0.961598396301	0.209428787231	-0.15788936615	1.55152654648	-0.00610756874084
-0.0698599815369	0.966433048248	0.203531503677	-0.158153295517	1.54746186733	-0.00706613063812
-0.0715749263763	0.976325273514	0.21065735817	-0.158348560333	1.5460255146	-0.00737476348877
-0.0699083805084	0.969387054443	0.212941169739	-0.158468484879	1.5455378294	-0.00721287727356
-0.0829367637634	0.966501235962	0.19969534874	-0.158908367157	1.54487967491	-0.00635349750519
-0.0921850204468	0.96604347229	0.194089412689	-0.160052776337	1.54454171658	-0.00521063804626
-0.0993995666504	0.963097810745	0.18945980072	-0.161311864853	1.54380226135	-0.00414562225342
-0.103384256363	0.965172767639	0.189141750336	-0.162227153778	1.54288387299	-0.00325918197632
-0.106300830841	0.968976736069	0.189113616943	-0.162582397461	1.54147934914	-0.00289940834045
-0.109220504761	0.972055435181	0.186289072037	-0.162467956543	1.54053473473	-0.00252199172974
-0.111698150635	0.974596500397	0.183510065079	-0.162233352661	1.5394462347	-0.00269150733948
-0.113089084625	0.976510286331	0.181376218796	-0.161465644836	1.53891098499	-0.00287520885468
-0.113685131073	0.980482578278	0.180088281631	-0.160278081894	1.53959035873	-0.00345921516418
-0.114844560623	0.983813524246	0.176216006279	-0.159075975418	1.53984379768	-0.00450539588928
-0.117711305618	0.989336967468	0.171614289284	-0.158381462097	1.54039573669	-0.00578165054321
-0.120771884918	0.993845701218	0.168076634407	-0.15816283226	1.54111874104	-0.0073207616806
-0.122362136841	0.995233535767	0.16606593132	-0.158757686615	1.5414121151	-0.00902843475342
-0.12322306633	0.996025562286	0.163689374924	-0.159187555313	1.54090356827	-0.0107405185699
-0.124013185501	0.994268417358	0.158811092377	-0.15900683403	1.53911209106	-0.0123472213745
-0.124128818512	0.991567373276	0.153897881508	-0.158048629761	1.53794574738	-0.0136575698853
-0.124535083771	0.99210858345	0.150522112846	-0.156769752502	1.53724884987	-0.0146291255951
-0.125104904175	0.995316028595	0.149611711502	-0.155622720718	1.53656327724	-0.0155626535416
-0.124881982803	0.994725704193	0.148409128189	-0.15558052063	1.53598475456	-0.0164885520935
-0.124266624451	0.995107412338	0.148572683334	-0.156278848648	1.53471517563	-0.0172121524811
-0.123151779175	0.993261814117	0.147889494896	-0.156700611115	1.53313243389	-0.0173587799072
-0.12225317955	0.99188542366	0.147556066513	-0.1569480896	1.53214716911	-0.0168974399567
-0.122065544128	0.992020368576	0.147093772888	-0.156961679459	1.53063619137	-0.0165036916733
-0.121761798859	0.991714477539	0.147312879562	-0.156799077988	1.52917349339	-0.0160999298096
-0.121495485306	0.99218916893	0.148316383362	-0.156222343445	1.52907598019	-0.0155240297318
