-41.2734985352	-66.667388916	136.202224731	6.34007310867	1.07610845566	-0.346515208483
-38.2872505188	-66.9608917236	133.348175049	6.6581401825	0.893341779709	-0.495127826929
-38.4795837402	-66.9369506836	133.512115479	6.80957221985	0.724047243595	-0.580693304539
-39.3026885986	-66.7635116577	134.211196899	6.98275184631	0.716145992279	-0.628938734531
-39.9375038147	-66.7203140259	134.689559937	7.11443758011	0.804548919201	-0.60462975502
-40.2232551575	-65.9750366211	134.991897583	7.29148769379	1.10127997398	-0.715957224369
-36.5859718323	-61.4503173828	132.323348999	7.87967300415	2.13352489471	-0.866251766682
-28.4865131378	-52.2715530396	118.325889587	9.07215213776	3.61232805252	-0.82945728302
-20.8479576111	-38.7221031189	97.4286499023	10.5872421265	5.07534456253	-0.813997507095
-11.6682529449	-22.2223777771	69.3595962524	12.1112737656	6.65838813782	-0.928150594234
-7.28848409653	-8.02245998383	51.6616134644	13.5124225616	8.21131134033	-0.848131537437
-4.68496608734	0.608735561371	42.7699966431	14.3941268921	9.78187656403	-0.924593687057
-4.26781892776	3.91932106018	42.2158203125	14.6629457474	10.9566049576	-0.910466849804
-1.9605743885	6.15927600861	37.1001091003	14.6557369232	11.8846654892	-0.81472069025
-0.59169948101	7.91806840897	34.6923751831	14.5224742889	13.5121841431	-0.62487834692
-0.894102752209	8.15277576447	33.9094429016	14.1929101944	15.3367347717	-0.516607403755
-4.53822994232	6.21811246872	37.4768447876	13.5530347824	16.2988014221	-0.360359042883
-8.22210597992	4.42888736725	39.7036933899	12.6276159286	16.2248344421	-0.215730115771
-10.4349431992	4.37852954865	39.5252227783	11.670167923	15.6307220459	-0.188225343823
-12.3125829697	4.81801700592	39.7924118042	10.9433631897	15.2553262711	0.0417172275484
-14.0516395569	4.93834972382	39.9667053223	10.4999513626	15.1928749084	0.331841021776
-14.7027997971	4.76487159729	42.1209716797	10.4049043655	15.2287988663	0.444587141275
-13.8637390137	3.56622695923	47.0689811707	10.8266086578	15.1907558441	0.498248159885
-13.3216257095	3.01218652725	65.2363204956	11.3902826309	15.0526790619	0.551655471325
-12.4901666641	2.07026720047	76.6226119995	11.9976654053	15.008310318	0.542191982269
-12.6980218887	2.14937138557	83.6566772461	12.5070056915	15.1787853241	0.469967573881
-12.6481637955	3.69456291199	86.4253540039	13.0459413528	15.5666465759	0.463731020689
-12.0195808411	4.12151575089	85.0258407593	13.597943306	15.9058322906	0.525178909302
-11.5128889084	3.52966213226	77.1488952637	13.9761838913	16.0749530792	0.651732444763
-11.2038469315	3.53361487389	73.2534637451	14.0851640701	16.8445339203	0.797785520554
-11.2974910736	3.8329501152	71.9891891479	14.1507511139	18.7566070557	1.22863006592
-11.0522890091	3.7284052372	70.6411056519	14.2881040573	20.3695907593	1.42369103432
-10.2900981903	3.40197706223	70.1630020142	14.5171175003	21.0845832825	1.39833343029
-9.9105682373	2.69109392166	69.5227355957	14.9810419083	20.9899597168	1.25448298454
-9.54212188721	2.0078971386	69.0411987305	15.8867692947	21.2699260712	1.24584889412
-8.86753463745	1.71660232544	68.5522994995	16.4195995331	22.4436206818	1.34774816036
-8.29483795166	1.77134776115	68.2871170044	16.3949069977	24.5170650482	1.26634609699
-7.94768667221	1.8224594593	68.1230163574	16.5391273499	26.4082698822	1.2603559494
-7.36477279663	1.80618035793	68.025390625	17.7210559845	27.6114997864	1.26041710377
-4.7303943634	1.06689202785	66.2843017578	19.9401168823	27.6381893158	1.10206854343
0.448170810938	0.0946407541633	61.1424942017	22.4880332947	27.3175048828	1.02977824211
3.52347350121	-1.18750023842	59.4688720703	24.4939823151	27.3371429443	0.97687548399
5.92695760727	-2.90442633629	60.2602005005	25.053609848	27.5138263702	0.668881416321
7.86739826202	-6.29107570648	63.7008094788	24.8509464264	27.6273117065	0.312817811966
9.49353885651	-9.65794658661	66.7523040771	24.6349925995	27.5509243011	0.297122359276
12.6410341263	-12.818397522	67.7550354004	24.5361976624	27.3504180908	0.269541889429
17.0674552917	-14.3416042328	67.3304290771	24.3505935669	27.3110618591	0.282717436552
24.9238796234	-15.1755304337	62.5722732544	24.1102714539	27.3008136749	0.225984156132
30.0338878632	-15.2917556763	62.0570983887	23.9165687561	27.3064289093	0.314158558846
32.216468811	-17.7422924042	65.9489974976	23.6408519745	27.138425827	0.320314764977
28.819524765	-18.4508495331	71.6759872437	23.3502044678	26.7847862244	0.279267728329
24.9081401825	-18.5048332214	78.0189590454	23.2670536041	25.8445701599	-0.00667670974508
