-22.9161643982	-61.7621421814	142.974700928	4.41936683655	-1.35269677639	-3.86465263367
-22.7026729584	-61.5562667847	142.25994873	4.50496053696	-1.18056356907	-3.86196899414
-23.5776634216	-61.4400749207	142.866363525	4.60612535477	-1.19949126244	-3.83316206932
-21.2904167175	-60.8409881592	139.88873291	4.46967172623	-1.28243756294	-3.82298731804
-5.15092277527	-55.1036949158	114.627243042	4.0541343689	-1.90714430809	-3.70077824593
6.58414936066	-40.9494552612	92.2390518188	3.36456775665	-2.06505179405	-4.0051074028
11.5060062408	-29.7599983215	76.9953994751	2.11733198166	-1.63873255253	-4.09315443039
8.17712497711	-25.5737876892	75.4760513306	0.571701824665	-1.46061778069	-4.42111587524
3.50384235382	-26.5318603516	78.3784332275	-1.09264957905	-1.63900256157	-4.51647996902
1.1469284296	-28.3080978394	77.7393035889	-3.10177779198	-1.7716165781	-4.42163515091
0.251758933067	-29.6792411804	78.0036315918	-4.72764587402	-1.83685922623	-4.0896320343
0.65597474575	-30.4925270081	77.8286361694	-5.67129135132	-1.69377470016	-3.82906150818
1.48352205753	-30.6853904724	77.5866241455	-5.92641353607	-1.48675501347	-3.59209394455
2.53437662125	-30.6586551666	76.8568267822	-5.71938228607	-1.32303571701	-3.38988375664
3.97658276558	-31.4709072113	75.6817932129	-5.1604719162	-1.19943118095	-3.36446332932
3.26045036316	-34.539516449	79.8098449707	-4.56954145432	-1.16160392761	-3.52536201477
