-46.8090438843	-60.3850898743	141.337158203	7.01971721649	1.08651411533	-0.387776643038
-45.8577041626	-60.6196746826	140.558944702	7.15805244446	0.990751445293	-0.521926105022
-44.8426704407	-60.6061973572	139.773696899	7.32825183868	0.959295392036	-0.696368694305
-44.3340950012	-60.4329872131	139.415603638	7.33842658997	0.873892247677	-0.716090559959
-40.7629699707	-58.362903595	134.880554199	7.16867017746	0.973816275597	-0.763063967228
-31.1241931915	-52.2741851807	119.156555176	6.90807628632	1.22842502594	-0.713785111904
-20.4128704071	-39.7682037354	100.202980042	6.5637793541	1.83415424824	-0.51891297102
-15.0512647629	-33.7306060791	90.2905273438	5.6461687088	2.33837032318	-0.341598421335
-13.641450882	-29.6787128448	85.2122650146	3.86852955818	2.49386310577	-0.0997880548239
-16.2987957001	-27.9761295319	85.856590271	1.8246730566	2.24357295036	0.160358935595
-18.3923721313	-27.850315094	86.9084777832	0.203126221895	1.85684108734	0.32772770524
-19.4714336395	-27.9079780579	87.5938034058	-0.469685345888	1.52178394794	0.357110351324
-19.9528312683	-27.9821491241	87.9085617065	-0.433371305466	1.21262478828	0.46411934495
-19.4304885864	-28.0641708374	87.4804611206	-0.197155892849	0.664868295193	0.521239042282
-18.1394729614	-28.1272087097	86.602722168	0.00291434885003	-0.133809834719	0.525402188301
-19.1777496338	-28.4704189301	91.6225585938	-0.145480558276	-0.877660691738	0.708169937134
-20.3183746338	-25.9722385406	94.8656616211	-0.393814504147	-1.05519449711	0.81714117527
-17.8445186615	-23.4857177734	87.1318969727	-0.413203924894	-0.514054358006	0.854572415352
