-36.4436035156	-69.1942062378	142.425216675	3.92369580269	-3.2110118866	-4.03385591507
-35.3115234375	-69.4261856079	141.410324097	3.3683590889	-2.75452136993	-3.94702553749
-34.5002822876	-69.397567749	140.572143555	3.0978679657	-2.55029630661	-3.75739884377
-33.6113815308	-69.1494216919	139.42489624	2.80273079872	-2.71694946289	-3.80434632301
-27.8403911591	-67.126953125	132.446670532	1.22643792629	-3.42692661285	-3.89428281784
-18.7403526306	-59.2848205566	118.640274048	-1.95259022713	-4.67633771896	-4.02476739883
-16.3392543793	-50.1592025757	112.893547058	-5.56496858597	-6.02733421326	-3.93952393532
-15.2501440048	-43.5398216248	108.532981873	-9.0940322876	-7.22810220718	-3.80106854439
-15.5991792679	-38.7010154724	105.896446228	-12.3358011246	-8.26521968842	-3.57344698906
-18.9586620331	-38.0602416992	107.345718384	-15.0525159836	-9.42678356171	-3.1369407177
-21.7174453735	-39.8508529663	108.388626099	-17.3627529144	-10.7525482178	-2.77490234375
-22.0082759857	-40.9082527161	107.978507996	-18.9668769836	-11.8969650269	-2.62474393845
-21.2247314453	-41.6571960449	107.376228333	-19.7340908051	-13.1473493576	-2.58494997025
-20.498916626	-42.2153625488	106.926513672	-19.9464168549	-14.6039838791	-2.53181552887
-20.2096309662	-42.786567688	106.966773987	-19.9317588806	-15.7621574402	-2.54721331596
-19.6293773651	-43.283531189	106.789100647	-19.8571186066	-16.216091156	-2.87413454056
-18.2552318573	-43.3859405518	105.061721802	-20.2150211334	-15.7002286911	-2.725679636
-16.6358070374	-40.8462409973	100.156295776	-20.3954639435	-14.7291135788	-2.47258257866
