0.0	-0.0	144.662261963	-111.387588501	86.670539856	-177.484680176
0.0	-0.0	143.24949646	-110.456169128	86.680015564	-178.111831665
0.0	-0.0	142.154708862	-110.037055969	86.5377807617	-178.440856934
0.0	-0.0	142.44128418	-110.322601318	86.1841125488	-178.766601562
0.0	-0.0	142.718353271	-110.948822021	86.5581283569	-178.902633667
0.0	-0.0	140.52746582	-111.515426636	86.9393539429	-178.966400146
0.0	-0.0	127.047050476	-112.441314697	86.8717041016	-178.55921936
0.0	-0.0	101.398872375	-113.732505798	85.5313568115	-178.362350464
0.0	-0.0	79.6385040283	-115.570487976	84.3257598877	-178.274917603
0.0	-0.0	72.1140136719	-119.151344299	84.4114761353	-177.673980713
0.0	-0.0	72.8172073364	-124.162734985	84.5334091187	-177.106643677
0.0	-0.0	73.1189498901	-129.833374023	85.0661087036	-176.910507202
0.0	-0.0	73.7183074951	-134.923446655	86.4069213867	-176.865234375
