-71.3371200562	-58.0902404785	139.930358887	4.52833604813	0.249779298902	-4.63388538361
-71.4506225586	-57.8037071228	139.761322021	4.22378396988	0.162155330181	-4.64868688583
-70.8102264404	-57.4746055603	138.734481812	3.97763562202	0.213434487581	-4.59995126724
-69.3222427368	-56.5774040222	136.550506592	3.77081632614	0.333054125309	-4.51460790634
-60.7280921936	-52.6004867554	122.184585571	3.167355299	1.0353552103	-4.34029150009
-53.4929885864	-44.2447929382	107.359603882	1.91915154457	2.88034629822	-3.83189129829
-51.2909049988	-35.9987297058	101.138473511	0.125596791506	5.28896903992	-3.20105957985
-53.0303001404	-26.057466507	99.1102828979	-1.69218468666	7.93003177643	-2.56347751617
-58.370223999	-11.1597633362	101.032020569	-3.28201770782	10.6623868942	-2.0348777771
-64.0264205933	-1.85415816307	99.2934646606	-4.66585016251	13.1313285828	-1.51094269753
-68.3019561768	1.42673063278	96.0812225342	-5.79848337173	15.3536081314	-1.05214858055
-70.3920593262	2.60573673248	89.6500167847	-6.57648897171	17.3826675415	-0.789855599403
-73.1674957275	5.70914030075	86.1159744263	-7.10344457626	19.069852829	-0.774059176445
-76.5108642578	7.17058086395	85.3879928589	-7.48326683044	20.338891983	-0.766477584839
-76.9831390381	7.04132652283	84.9137115479	-7.73337221146	21.6191577911	-0.510001242161
-76.858039856	6.97817420959	85.2808837891	-7.93299722672	23.1225261688	-0.259099006653
-76.6168823242	7.12084388733	85.2122497559	-8.0147485733	24.1944503784	-0.24019280076
-76.1124801636	8.59849071503	84.3859558105	-7.81486749649	25.0219860077	-0.102183505893
-75.9128112793	11.0740785599	81.7526855469	-7.58039665222	25.3689918518	0.035882268101
