0.103423833847	1.21434962749	-0.0498325824738	-0.0791094303131	1.57809793949	-0.230473279953
0.104519844055	1.21545135975	-0.0501563549042	-0.0791506767273	1.57804381847	-0.229677438736
0.104249715805	1.21540772915	-0.0491662025452	-0.0792129039764	1.57817053795	-0.22915148735
0.104050397873	1.21548759937	-0.0472557544708	-0.0796287059784	1.57869935036	-0.229578495026
0.104732036591	1.21354317665	-0.0408027172089	-0.0801553726196	1.57950425148	-0.229974508286
0.105860233307	1.20496940613	-0.0297708511353	-0.0798389911652	1.58062946796	-0.23057448864
0.108926296234	1.1953804493	-0.0226277112961	-0.0779933929443	1.58157634735	-0.231293439865
0.111624956131	1.18823075294	-0.0201280117035	-0.0754046440125	1.58227753639	-0.231899738312
0.113915920258	1.18511903286	-0.0211151838303	-0.0723106861115	1.58351516724	-0.233271360397
0.11363196373	1.18432056904	-0.0218006372452	-0.0693004131317	1.58571410179	-0.235451936722
0.114871263504	1.18489015102	-0.0228091478348	-0.066303730011	1.58823001385	-0.237979650497
0.115633964539	1.18586289883	-0.0232124328613	-0.0633754730225	1.5897564888	-0.240158200264
