-49.4786453247	-27.3804931641	136.014404297	8.78178501129	-1.55632984638	0.406649500132
-49.7147216797	-27.3471813202	135.908096313	8.5000371933	-1.60622501373	0.409034073353
-49.9958000183	-27.4165000916	135.697296143	8.21471786499	-1.72522342205	0.524502158165
-50.4165611267	-27.2123165131	135.787796021	8.08927154541	-1.84249293804	0.64478957653
-50.7451591492	-27.1422042847	135.867706299	8.16191673279	-1.77338349819	0.768180549145
-51.076751709	-27.0029277802	136.074142456	8.27274227142	-1.72277927399	0.632997691631
-51.2747993469	-26.5755634308	136.144577026	8.45555400848	-1.86369824409	0.506822288036
-51.4093666077	-26.2551250458	136.093658447	8.61349391937	-1.96881437302	0.435446619987
-51.7278785706	-25.2555160522	136.438201904	8.669506073	-2.07693862915	0.384766280651
-52.6296653748	-22.5917339325	138.517807007	8.53586196899	-2.08042693138	0.409372419119
-51.2898750305	-19.3214263916	136.799224854	8.13048267365	-1.88700342178	0.706150710583
-49.0299987793	-18.6794834137	128.90171814	7.39346599579	-1.5880573988	0.988767981529
-48.1967048645	-18.7795963287	124.258758545	6.61218738556	-1.22912573814	1.03320920467
-47.3519935608	-19.7624511719	119.92805481	6.05956745148	-0.696806609631	1.16838943958
-46.5445404053	-20.219039917	117.389564514	5.61111354828	0.324512302876	1.14570653439
-43.6036376953	-21.0641212463	111.022018433	5.42654514313	1.50445652008	0.930058538914
-40.458782196	-21.7174129486	104.316596985	5.53410768509	2.4212937355	0.881311118603
-38.7504272461	-22.1375370026	100.118896484	5.39393520355	3.10466718674	0.861658811569
-38.4841918945	-22.023853302	99.7826461792	5.07241725922	3.78607773781	0.881408154964
-37.783996582	-21.9204406738	98.8941192627	4.79222106934	4.64671897888	0.911025464535
-36.8889579773	-22.2693634033	97.370880127	4.58745956421	5.67410802841	0.874061405659
-36.293258667	-22.4587669373	96.5039291382	4.50500822067	7.00768470764	0.988229990005
-36.0272293091	-22.4922199249	95.1810531616	4.43976688385	7.85159444809	1.2316327095
-33.2809028625	-23.4918441772	83.8735122681	4.48353862762	8.26747131348	1.32318246365
-24.752494812	-24.2209205627	54.3039627075	4.56019687653	8.37727928162	1.3209810257
-20.5095729828	-23.0664863586	44.2688446045	5.02046775818	8.2464427948	1.13910782337
-18.9271087646	-22.2594566345	42.8822479248	6.96890878677	7.74065685272	-0.0324218198657
-18.011133194	-21.2290496826	40.8785171509	9.89359855652	7.08696985245	-1.08775424957
-18.0881309509	-21.0212478638	41.4205474854	11.9819869995	6.66782236099	-1.55749797821
-17.9993934631	-20.9684314728	41.2875061035	11.4508037567	6.51581192017	-1.7077306509
-17.4040355682	-20.8420562744	40.598865509	9.31718730927	6.40425443649	-1.42348480225
-17.0792198181	-20.5676326752	41.6202087402	6.42038822174	5.96212291718	-0.923465311527
-16.9825820923	-20.3772850037	42.4046516418	3.30033183098	4.8882522583	-0.429962933064
-17.1867637634	-20.2958488464	41.853969574	0.31918156147	2.96826767921	0.0198597814888
-17.6874523163	-19.8627147675	41.4814682007	-1.65599656105	1.27386903763	0.536802470684
-18.2796382904	-19.5054016113	42.1422080994	-2.79530477524	0.684195876122	0.992393732071
-18.6648292542	-19.6483516693	43.9455070496	-3.61194348335	0.700907588005	1.27757453918
-19.3945846558	-19.9940299988	44.5451889038	-4.27497386932	0.704566717148	1.41224944592
-19.8245277405	-20.1070747375	44.6481246948	-4.56633758545	0.558193027973	1.57603514194
-20.06599617	-19.9953479767	44.9121513367	-4.56065940857	0.544310033321	1.67281270027
-20.6437969208	-20.0646800995	45.7761459351	-4.59646129608	0.63549977541	1.75160706043
-21.4556407928	-20.1401786804	46.8168640137	-4.71013975143	0.670212388039	1.79677700996
