0.0	-0.0	137.95375061	-110.452812195	87.3815383911	-176.74597168
0.0	-0.0	138.346786499	-110.330322266	86.7623443604	-176.689605713
0.0	-0.0	138.88822937	-110.413894653	86.6063842773	-176.569702148
0.0	-0.0	140.059631348	-110.601539612	86.7436447144	-176.59777832
0.0	-0.0	140.224990845	-110.391067505	86.6774597168	-177.057937622
0.0	-0.0	140.607620239	-109.692329407	86.4648132324	-177.263427734
0.0	-0.0	140.550231934	-108.244995117	86.0989074707	-177.703948975
0.0	-0.0	136.586425781	-105.955314636	86.201461792	-178.427902222
0.0	-0.0	122.966163635	-101.925209045	86.1100234985	-179.287704468
0.0	-0.0	114.947875977	-96.358039856	86.3047027588	179.870895386
0.0	-0.0	110.962608337	-90.310874939	87.2523269653	178.834732056
0.0	-0.0	109.223922729	-84.0772094727	88.728767395	177.489456177
0.0	-0.0	107.053108215	102.021194458	89.1479644775	-3.81510925293
0.0	-0.0	106.162414551	108.147888184	87.6893615723	-5.07715940475
0.0	-0.0	105.774246216	113.719604492	87.1494445801	-6.51947879791
0.0	-0.0	105.38205719	117.993812561	87.1918563843	-7.68259811401
0.0	-0.0	104.413658142	119.773200989	87.4763717651	-8.23677158356
0.0	-0.0	100.243164062	118.305366516	88.1105804443	-8.57096862793
0.0	-0.0	89.6050643921	115.971488953	88.5178527832	-8.35471343994
0.0	-0.0	76.4431991577	114.401924133	88.8089141846	-8.2307472229
0.0	-0.0	72.4717941284	113.588768005	88.9261932373	-7.92045736313
0.0	-0.0	65.3188323975	112.517883301	89.243560791	-7.07947349548
0.0	-0.0	61.7004508972	111.022369385	89.4107971191	-6.23503303528
0.0	-0.0	58.7350959778	109.63394165	89.4622802734	-5.36499595642
0.0	-0.0	52.3362464905	108.73286438	89.2458343506	-4.75669336319
0.0	-0.0	46.8119163513	107.524139404	88.9647140503	-4.19517278671
0.0	-0.0	41.9038047791	105.841659546	88.5390167236	-3.5385222435
0.0	-0.0	40.4111824036	104.292831421	89.1335678101	-3.15171098709
0.0	-0.0	37.5253562927	103.28225708	89.7850036621	-2.96953773499
0.0	-0.0	48.0535354614	102.957580566	89.9554214478	-3.20137834549
