0.0	-0.0	139.191818237	53.815158844	89.5993118286	-14.3638696671
0.0	-0.0	138.776092529	53.5974845886	89.7248916626	-14.8874206543
0.0	-0.0	138.766265869	53.5580024719	89.8825378418	-15.165353775
0.0	-0.0	138.227172852	-126.748931885	89.9378433228	165.08026123
0.0	-0.0	126.277984619	50.4481925964	88.3743591309	-14.735622406
0.0	-0.0	103.085105896	43.5084114075	84.1969146729	-14.5082111359
0.0	-0.0	89.8821334839	33.1049804688	79.5023574829	-13.5711050034
0.0	-0.0	82.3581466675	21.8573112488	75.4733810425	-12.2398557663
0.0	-0.0	81.8996505737	11.2728691101	71.8996963501	-11.2389411926
0.0	-0.0	81.9462051392	2.12500619888	68.4658203125	-10.2792596817
0.0	-0.0	82.5550613403	-5.01079654694	64.952041626	-9.24209403992
0.0	-0.0	82.6461334229	-9.51135540009	62.8379936218	-8.66642951965
0.0	-0.0	82.5240097046	-12.4501609802	61.5435142517	-8.35603713989
0.0	-0.0	82.5133972168	-14.0524873734	60.7993888855	-7.99042463303
0.0	-0.0	82.5679244995	-15.1374263763	60.2405357361	-7.75030040741
0.0	-0.0	82.5119018555	-16.3986110687	59.2807617188	-7.61402893066
0.0	-0.0	82.3485794067	-18.0355224609	57.4809455872	-7.32234954834
