-51.0199356079	-66.7846679688	143.671569824	8.10287094116	0.634458243847	0.0488034747541
-51.1140937805	-66.9076766968	143.74659729	7.97900295258	0.572488605976	0.142069935799
-51.3017196655	-67.0738372803	143.975158691	8.0105266571	0.489079296589	0.13366907835
-51.4814949036	-66.8862228394	144.128616333	8.07934474945	0.333864808083	0.151263162494
-51.5050354004	-66.5134048462	143.837402344	8.06270313263	0.271069914103	0.167984738946
-47.5643615723	-63.1079597473	136.821075439	8.16723251343	-0.051094096154	0.137228235602
-35.2246208191	-53.664226532	110.277107239	8.53691482544	-0.947941362858	0.0614109523594
-22.383939743	-41.3625831604	84.6288146973	9.25360107422	-2.66871619225	-0.126091405749
-16.36328125	-37.0028686523	74.5199737549	9.98485660553	-5.19125318527	-0.353156834841
-14.0703659058	-36.1653175354	69.4047470093	10.4569625854	-8.03900623322	-0.53555315733
-13.9305725098	-36.5123405457	69.4699859619	10.7981672287	-10.8365287781	-0.728801310062
-14.8092460632	-38.3885803223	71.4033966064	11.1556901932	-13.2081241608	-0.918406128883
-14.7860240936	-41.0656661987	72.5095672607	11.6441545486	-15.0706796646	-1.22001743317
-14.8108215332	-42.3226470947	73.1283569336	12.3669309616	-16.7869491577	-1.38690829277
-15.024102211	-42.4329071045	73.7504806519	13.0990209579	-18.1949424744	-1.63676989079
-15.4781579971	-42.0967140198	74.3093643188	13.9631891251	-19.4134712219	-1.86173141003
-15.3602151871	-41.8319778442	73.8142852783	15.043838501	-20.4462356567	-2.17600250244
