-71.0397644043	-46.6755409241	144.230911255	4.03105688095	0.227391391993	-4.80401706696
-70.926864624	-46.7915420532	143.67024231	4.05154132843	-1.7173066226e-05	-4.63502979279
-71.1844024658	-46.4795188904	143.62713623	3.929469347	-0.0459362454712	-4.51581907272
-71.2657012939	-46.3917274475	143.434692383	3.74175047874	-0.0745836719871	-4.43410301208
-70.2981262207	-45.748374939	141.536590576	3.50117087364	-0.293486446142	-4.39554309845
-60.3033905029	-44.985710144	122.197990417	3.11345338821	-0.363158047199	-4.50989437103
-41.8964042664	-37.3681411743	88.7232437134	2.65947890282	-0.109381556511	-4.68652534485
-31.1691474915	-25.2999534607	68.4107666016	2.14316940308	0.201764509082	-4.52840614319
-30.0216026306	-15.6079320908	60.005569458	1.41232204437	0.365281015635	-4.31565093994
-33.5130386353	-12.8024663925	58.580078125	0.360217839479	0.52095156908	-4.206366539
-36.0416526794	-13.7615947723	56.9083595276	-0.970438539982	0.572674810886	-4.05466890335
-38.2798728943	-15.6109142303	57.5799407959	-2.4754486084	0.561814546585	-3.85895299911
-40.1083259583	-17.8616580963	57.0831947327	-3.87223696709	0.524379193783	-3.73262882233
-40.4291534424	-19.588054657	52.7316818237	-4.72264289856	0.424053668976	-3.62213206291
-42.2139282227	-19.8398590088	56.3649902344	-5.21453142166	0.101386517286	-3.52753281593
