-72.5149993896	-49.1808624268	143.061523438	4.08687257767	0.887832343578	-4.87282800674
-72.4246520996	-49.3298454285	143.086013794	3.83010911942	0.608759522438	-4.98729085922
-71.8645553589	-49.4387283325	142.559539795	3.74724841118	0.546751201153	-5.1934838295
-71.589630127	-49.4204673767	142.401290894	3.90656900406	0.664864957333	-5.23716974258
-67.6900482178	-49.1589241028	137.488357544	4.21872186661	0.801301777363	-5.38379001617
-58.0531654358	-50.2058563232	123.171302795	5.00611019135	0.943700253963	-5.50484800339
-44.2067642212	-49.176990509	104.61403656	6.29553222656	1.16225361824	-5.59399271011
-33.1185913086	-47.8730049133	91.5878067017	8.03931617737	1.24199581146	-5.6498875618
-27.2010536194	-47.2383575439	86.6190185547	9.82887172699	1.215929389	-5.68605947495
-21.879327774	-45.8180580139	81.6832809448	11.4199867249	1.12518048286	-5.65411186218
