0.0144939422607	1.16699647903	0.286108613014	-0.107104063034	1.57888245583	0.0605334043503
0.0159981250763	1.16719663143	0.286074399948	-0.106521129608	1.57889258862	0.0598694086075
0.017472743988	1.16717517376	0.286895275116	-0.106038808823	1.57896232605	0.0594766139984
0.018177986145	1.16701090336	0.288075208664	-0.105674505234	1.57905888557	0.0592029094696
0.0179471969604	1.16322982311	0.294696331024	-0.10586476326	1.57897293568	0.0592176914215
0.0187122821808	1.15141832829	0.312497854233	-0.106252193451	1.57870733738	0.0596785545349
0.0210103988647	1.12506735325	0.339353561401	-0.107063531876	1.57779455185	0.0601253509521
0.0246984958649	1.10755217075	0.350727081299	-0.108702659607	1.57726514339	0.0612485408783
0.0233924388885	1.0962792635	0.354108095169	-0.111518859863	1.5772652626	0.0631457567215
0.0156509876251	1.09034407139	0.353300094604	-0.115015268326	1.57783126831	0.0649943351746
0.00836491584778	1.08927083015	0.352470636368	-0.118096113205	1.5786087513	0.0667865276337
0.00371527671814	1.08960807323	0.35303914547	-0.119992733002	1.57933557034	0.0682566165924
0.00166153907776	1.09001171589	0.35380756855	-0.120931148529	1.57990086079	0.0696526765823
0.00277018547058	1.0907869339	0.355367898941	-0.121221780777	1.58082437515	0.0714595317841
0.00571870803833	1.09061968327	0.357207894325	-0.121354818344	1.58204400539	0.0733486413956
0.00608158111572	1.08990287781	0.358114242554	-0.122084140778	1.58310258389	0.0755655765533
0.00410485267639	1.08412456512	0.36116027832	-0.122842550278	1.58329093456	0.0775136947632
0.00447082519531	1.08135509491	0.364850521088	-0.122949361801	1.58239865303	0.0791099071503
