-36.6686820984	-66.5062713623	137.560409546	8.24078083038	0.658751964569	1.46450126171
-36.5847053528	-66.6481552124	137.643234253	8.3702955246	0.733762860298	1.49228906631
-36.0674247742	-66.6463699341	137.272247314	8.58347225189	0.852764606476	1.4513207674
-35.8789367676	-66.6929855347	137.093200684	8.66326904297	1.033670187	1.32595765591
-36.1275978088	-66.6809234619	137.246643066	8.71027469635	1.15578866005	1.24026799202
-36.5883102417	-66.6286621094	137.61088562	8.56209373474	1.11291348934	1.15311384201
-36.4182128906	-66.4381561279	137.159133911	7.96391916275	0.549628674984	1.05699622631
-31.9079685211	-64.5020751953	131.694351196	6.7608923912	-0.516796112061	1.01983869076
-20.765958786	-59.248249054	112.32484436	5.10371112823	-1.95873367786	1.12606751919
-5.66511487961	-45.0562896729	76.4409332275	3.30505275726	-3.57461667061	1.42664206028
3.79745101929	-26.0892505646	46.5386047363	1.35943520069	-5.03576946259	1.8297753334
5.42086219788	-17.224811554	40.4232139587	-0.743615925312	-6.55529165268	2.32349562645
3.9946436882	-12.6115016937	39.4249153137	-3.31666278839	-8.43912506104	3.03685283661
1.94300746918	-14.6551294327	38.0360794067	-6.15502882004	-10.6944437027	3.7050652504
-0.875414729118	-20.002286911	39.8243103027	-8.42307567596	-12.6535701752	4.07079982758
-1.57441604137	-23.1539897919	40.2197723389	-9.39746856689	-13.8237991333	4.22362661362
-1.41715013981	-24.5837211609	40.0707702637	-9.35855770111	-14.6711893082	4.16024160385
-0.946804046631	-27.141992569	41.9722747803	-8.97025680542	-15.7663106918	3.85409450531
-1.466802001	-29.8949375153	45.1316642761	-8.7508649826	-17.3789920807	3.52349615097
-1.61894130707	-32.0709228516	46.9428939819	-8.88391494751	-19.3630638123	3.36063480377
-1.80894625187	-33.7402610779	48.7752151489	-8.98993873596	-20.760892868	3.23705506325
-1.40572214127	-34.315372467	48.8102722168	-8.53365898132	-21.4016780853	2.97871685028
-0.50586938858	-35.1889228821	49.054649353	-7.86438083649	-21.7231903076	2.70785355568
0.0626567527652	-35.4265785217	48.7926597595	-7.37373447418	-22.0492134094	2.43617415428
0.370269656181	-35.6403503418	48.9031829834	-7.03581190109	-22.405960083	2.23221611977
0.196768641472	-36.2305908203	49.6336364746	-6.84612417221	-22.7086486816	2.11791849136
-0.826100707054	-38.3742179871	52.4442634583	-6.6856918335	-22.968957901	1.9889806509
-3.29497694969	-43.0240020752	58.7129936218	-6.60270452499	-22.7927322388	1.80267691612
-5.75589466095	-47.802696228	64.8485488892	-6.66401910782	-22.0986862183	1.80604219437
-8.08249759674	-51.3588218689	70.1097793579	-6.60274267197	-21.7109031677	1.61225271225
-9.04307365417	-53.6536483765	73.2334671021	-6.29532814026	-21.7651805878	1.47347331047
-9.1930398941	-56.0333633423	74.9844512939	-6.23314142227	-21.8209342957	1.53762125969
-9.19423675537	-58.8350906372	76.6050872803	-6.52580308914	-21.8627891541	1.68927824497
-9.4637928009	-61.5251922607	78.4421157837	-6.64351558685	-21.9142971039	1.77650129795
-8.85400485992	-63.6423988342	79.0817337036	-6.39526987076	-21.8728256226	1.67682826519
-9.88069152832	-63.8568077087	80.487663269	-6.1878862381	-21.4352226257	1.63810610771
-10.9207782745	-63.6479721069	81.3134155273	-6.22463035583	-20.9388103485	1.74623370171
-9.20905780792	-58.3283920288	71.1187133789	-6.33966588974	-20.3608169556	1.74879002571
-7.78119468689	-49.3951721191	52.379119873	-6.28604125977	-19.8649768829	1.57422745228
-7.51240587234	-47.8223075867	44.5568771362	-6.25551366806	-19.690580368	1.60723924637
-9.33083248138	-45.2883110046	34.0270881653	-6.50652170181	-19.7718429565	1.68990945816
-15.1571388245	-43.274936676	23.3246078491	-6.6837477684	-19.7900333405	1.82608878613
-27.2282752991	-42.5648040771	29.5134563446	-6.65512084961	-19.6731262207	1.89873468876
-34.486579895	-43.2860221863	38.7192687988	-6.60532569885	-19.268491745	2.02435946465
-37.3223152161	-43.4691696167	45.8182220459	-6.6568608284	-18.808763504	2.11354494095
-39.8533058167	-43.0499916077	56.8318405151	-6.934715271	-18.4712982178	2.28491020203
-43.0243186951	-43.5108222961	72.8396453857	-7.31569814682	-18.2825489044	2.43287706375
-44.2365379333	-46.9028282166	84.2451858521	-7.47684001923	-18.3782558441	2.48190283775
-46.0057029724	-50.4228477478	93.6148147583	-7.34860229492	-18.5795383453	2.4273276329
-48.5370025635	-54.8416442871	102.275772095	-7.18189477921	-18.686214447	2.19356679916
-51.0115509033	-58.3686561584	108.766822815	-7.06465244293	-18.5190639496	2.08180713654
-50.4253463745	-60.2321166992	109.330627441	-6.9534740448	-18.1796951294	2.03709459305
-46.6512107849	-57.1354103088	103.711517334	-6.83003664017	-17.7681255341	2.05478930473
-41.4087905884	-52.707157135	94.6389007568	-6.73848724365	-17.3400154114	2.18960428238
-39.4027442932	-49.9170761108	88.2172012329	-6.8746509552	-17.8526935577	2.41639661789
-37.0223426819	-47.8796043396	82.1104354858	-7.41140890121	-19.544467926	2.73270344734
-35.0494842529	-46.3795814514	77.738067627	-7.84767055511	-21.6508655548	3.06709980965
-35.1245040894	-45.6693534851	77.5999984741	-7.88249826431	-23.4184360504	3.01739478111
-34.4203529358	-45.8108634949	76.8103866577	-7.40108346939	-24.7967510223	2.78517603874
-32.61977005	-46.3840827942	74.9999084473	-6.45005893707	-26.0028762817	2.25671434402
-30.9307632446	-46.851436615	73.715057373	-5.38925790787	-26.5979099274	1.65855956078
-29.9539604187	-47.0516891479	73.4956512451	-4.7158446312	-26.4386386871	1.20646333694
