-53.9787139893	-22.7375831604	144.696060181	8.8939447403	0.74602240324	-0.787720918655
-54.1593284607	-22.5472412109	144.556564331	8.65713119507	0.606543421745	-0.673495054245
-54.2753486633	-22.5591430664	144.685684204	8.49815559387	0.375941962004	-0.692713677883
-54.3289985657	-22.6412773132	144.900650024	8.55878162384	0.317248225212	-0.712493300438
-54.2487716675	-22.5597839355	144.823516846	8.65482234955	0.467609524727	-0.728755176067
-53.0952415466	-23.2633094788	140.512130737	8.46668624878	1.09635961056	-0.699507534504
-48.6851654053	-26.1572132111	127.371025085	7.95425510406	1.933588624	-0.436206281185
-36.337020874	-30.0740661621	96.9766464233	7.08114814758	3.09047269821	-0.0575557351112
-19.3080310822	-25.6443405151	60.4169425964	6.05232667923	4.51692819595	0.403567910194
-12.0486602783	-18.6089782715	42.0245666504	4.81439685822	6.17881822586	0.863656461239
-10.0062980652	-14.244887352	37.7982521057	3.32176661491	7.63559389114	1.47579944134
-9.55448246002	-12.3628768921	42.4589729309	1.8086284399	8.93919181824	1.93946766853
-11.70307827	-11.7749919891	51.5774497986	0.486305981874	9.73116493225	2.49745178223
-14.1166706085	-11.1083068848	59.8493499756	-0.696489751339	10.3981533051	2.89426636696
-17.2992706299	-10.5745191574	69.0581893921	-1.65260982513	11.3670339584	3.16330003738
-22.0513286591	-10.2927560806	78.93359375	-2.49298810959	12.352104187	3.26225686073
-27.6560115814	-9.89791870117	90.8926620483	-3.1418223381	13.299492836	3.34166002274
-32.9705200195	-9.42903900146	101.663818359	-3.75673103333	14.0327987671	3.62485647202
-36.1132659912	-8.3527841568	105.563232422	-4.13053035736	14.6678104401	3.68132400513
-36.4157409668	-6.74735593796	103.181694031	-4.21127891541	15.0506687164	3.63184905052
-32.6137466431	-6.01140880585	85.897354126	-3.93528389931	15.4269371033	3.59358501434
-28.5186367035	-2.17837357521	71.1472702026	-3.51975250244	15.6916208267	3.59143543243
-27.2387218475	-0.305471032858	64.4378967285	-3.12564635277	15.7677078247	3.74270248413
-26.2459793091	2.09140944481	63.2984695435	-2.90806150436	16.1641998291	3.93228459358
-25.9997997284	3.64695382118	61.8898124695	-2.87661862373	16.6299438477	4.12183666229
-26.5615749359	5.45603609085	61.4391937256	-2.92120623589	17.0646591187	4.16503381729
-26.0070819855	7.41276073456	59.7863044739	-2.82567739487	17.4030380249	4.23119449615
-25.1219768524	8.98534679413	58.5769729614	-2.91128110886	17.8812522888	4.22545909882
-25.6402111053	9.43829154968	57.3346290588	-2.90666985512	18.5745449066	4.08429384232
-25.5264205933	9.12977313995	56.6695365906	-2.70797634125	20.5978775024	3.81826400757
-25.3843841553	8.55847454071	56.6076087952	-2.81779789925	23.0816230774	3.4109609127
-25.3894882202	8.11819934845	56.682762146	-3.02996850014	25.0273361206	3.08215212822
-25.051738739	7.86025190353	56.7974090576	-3.55343866348	26.0595703125	2.98571395874
