0.0	-0.0	146.340362549	72.35912323	84.1884460449	-0.559347808361
0.0	-0.0	146.445999146	71.2622528076	83.637840271	-0.268591910601
0.0	-0.0	146.766113281	70.725440979	83.3241958618	-0.264561295509
0.0	-0.0	147.011535645	71.0466842651	83.3264160156	-0.00992318056524
0.0	-0.0	146.737426758	71.065032959	83.1762619019	-0.058051854372
0.0	-0.0	140.853271484	70.5996780396	83.3103637695	-0.0707944706082
0.0	-0.0	126.673278809	70.0176544189	85.1060256958	0.229937389493
0.0	-0.0	121.294761658	68.4611358643	88.3872833252	1.05015277863
0.0	-0.0	119.128433228	-114.672370911	88.6037368774	-178.577926636
0.0	-0.0	117.347114563	-117.886695862	86.4380645752	-178.221054077
0.0	-0.0	116.759277344	-121.171516418	85.7761001587	-177.779815674
0.0	-0.0	114.546432495	-124.139472961	85.5512542725	-177.422851562
0.0	-0.0	112.1379776	-126.203918457	85.5097885132	-176.865585327
0.0	-0.0	110.543365479	-127.123008728	85.4401321411	-176.633209229
0.0	-0.0	106.333122253	-126.858818054	85.8601226807	-176.630401611
0.0	-0.0	93.8502655029	-125.952217102	86.2589035034	-177.028030396
0.0	-0.0	68.8795852661	-125.210639954	86.7982788086	-177.206939697
0.0	-0.0	59.7004089355	-125.582336426	86.0006332397	-177.073028564
0.0	-0.0	54.6101417542	-126.275253296	83.8547134399	-176.579223633
0.0	-0.0	53.1092185974	-128.37437439	79.0909957886	-176.188751221
0.0	-0.0	52.7904243469	-132.190216064	74.8623352051	-175.277282715
0.0	-0.0	53.2012901306	-137.061706543	72.1670455933	-175.090545654
0.0	-0.0	53.8290023804	-140.349945068	70.4572753906	-174.334152222
0.0	-0.0	53.084186554	-141.293395996	68.3330078125	-172.913208008
0.0	-0.0	53.0140647888	-141.074935913	65.5232925415	-171.631378174
0.0	-0.0	53.3703346252	-140.600067139	61.4808197021	-171.148742676
0.0	-0.0	53.6647109985	-139.366088867	55.1186790466	-171.059768677
0.0	-0.0	53.3878669739	-137.14453125	48.5256080627	-171.650543213
0.0	-0.0	53.320892334	-135.332839966	47.5780525208	-172.66166687
0.0	-0.0	54.0497779846	-134.481567383	53.1239089966	-173.971252441
0.0	-0.0	53.6711807251	-135.162765503	66.0787582397	-175.291000366
0.0	-0.0	53.160900116	-136.310806274	79.3225708008	-176.227767944
0.0	-0.0	53.5048370361	-137.652648926	88.3834838867	-176.52456665
0.0	-0.0	53.9819869995	40.2139663696	86.3126220703	3.36405563354
0.0	-0.0	55.5388526917	39.8905754089	85.7125930786	3.6445813179
0.0	-0.0	61.1549415588	40.808719635	86.9858703613	3.65226149559
