-0.0846083164215	1.13713645935	0.20884680748	-0.143785238266	1.57773196697	-0.0113031864166
-0.0835127830505	1.1366341114	0.210315942764	-0.142988920212	1.57791924477	-0.0112082958221
-0.0828444957733	1.13688492775	0.210612535477	-0.142226696014	1.57799398899	-0.0111166238785
-0.0826716423035	1.13747596741	0.210950136185	-0.141538381577	1.57791161537	-0.0111584663391
-0.0826435089111	1.13764238358	0.210997104645	-0.141093254089	1.57790529728	-0.0113587379456
-0.0821723937988	1.13735818863	0.211666941643	-0.140737771988	1.57791304588	-0.0112254619598
-0.0824327468872	1.1347899437	0.215698122978	-0.141051054001	1.57773709297	-0.0112266540527
-0.0843412876129	1.12806963921	0.224910259247	-0.142938137054	1.57724654675	-0.0110614299774
-0.0890235900879	1.11502063274	0.248265862465	-0.146185874939	1.57669007778	-0.0112355947495
-0.0952665805817	1.09267115593	0.269188404083	-0.150151729584	1.57617294788	-0.011666059494
-0.108872652054	1.07555341721	0.26844060421	-0.154766082764	1.57586288452	-0.0122911930084
-0.126539230347	1.06774938107	0.256729483604	-0.159883975983	1.57561886311	-0.0136784315109
-0.145317316055	1.06415510178	0.244665622711	-0.165212869644	1.57539224625	-0.0153784751892
-0.16286110878	1.06370139122	0.234599351883	-0.170327186584	1.57478022575	-0.0177397727966
-0.177515506744	1.06421148777	0.225788593292	-0.175141811371	1.57413136959	-0.0205075740814
-0.188063144684	1.0633918047	0.217502117157	-0.179085731506	1.57370138168	-0.0234407186508
-0.194432735443	1.06292569637	0.210292339325	-0.181743621826	1.57397294044	-0.0259330272675
-0.197385311127	1.06154811382	0.205766677856	-0.182412862778	1.57442569733	-0.0273282527924
-0.197057008743	1.0611975193	0.205324649811	-0.182494163513	1.57547318935	-0.0281803607941
-0.195100784302	1.05970644951	0.205739498138	-0.183273553848	1.57712590694	-0.029062628746
