0.0849993228912	1.19161701202	-0.0597414970398	-0.0685715675354	1.58021771908	-0.255272388458
0.0857350826263	1.19172775745	-0.0585498809814	-0.0675055980682	1.58061850071	-0.254977226257
0.0847594738007	1.19240045547	-0.0569834709167	-0.0668611526489	1.58066999912	-0.254481673241
0.0849206447601	1.19270265102	-0.0534198284149	-0.0669028759003	1.58084213734	-0.253397107124
0.0867018699646	1.18600440025	-0.0331420898438	-0.0679712295532	1.58153176308	-0.25191962719
0.093047618866	1.15517067909	0.00650417804718	-0.0703554153442	1.58281350136	-0.25028014183
0.108140945435	1.11417734623	0.029573559761	-0.0740461349487	1.58395421505	-0.248705387115
0.0947694778442	1.08807361126	0.0365192890167	-0.0788338184357	1.58517038822	-0.246987819672
0.0760917663574	1.08560311794	0.0356206893921	-0.084566116333	1.58647239208	-0.245733141899
0.0548856258392	1.09088468552	0.034277677536	-0.0903384685516	1.58821213245	-0.244993448257
0.0402319431305	1.09652686119	0.0340764522552	-0.0955893993378	1.59023439884	-0.244892954826
0.0330386161804	1.10242211819	0.0343718528748	-0.0991616249084	1.59188365936	-0.244813680649
0.031501531601	1.10629284382	0.0360026359558	-0.100490570068	1.59237337112	-0.24391078949
0.0347075462341	1.11154556274	0.0384573936462	-0.100534439087	1.5922935009	-0.242146730423
0.0395228862762	1.12032961845	0.0397086143494	-0.100121736526	1.59188210964	-0.239858984947
0.0425791740417	1.13340497017	0.0358997583389	-0.0997886657715	1.59164965153	-0.237148523331
0.0426061153412	1.14630365372	0.0283340215683	-0.0997071266174	1.5912309885	-0.234918236732
0.0434727668762	1.16102492809	0.0193282365799	-0.0997965335846	1.59111475945	-0.232676744461
0.0411932468414	1.17124807835	0.0125576257706	-0.0993223190308	1.59105932713	-0.230719089508
0.0379691123962	1.1759352684	0.0110092163086	-0.098662853241	1.59167671204	-0.228769540787
