-78.4772567749	-39.1249351501	139.852416992	4.48457241058	0.51096701622	-3.32951426506
-78.640914917	-39.3468017578	140.025894165	4.46474933624	0.664148509502	-3.3789358139
-78.489440918	-39.2629547119	140.011734009	4.63498353958	0.732595980167	-3.49605560303
-78.3385467529	-39.573474884	139.832443237	4.93823099136	0.811826765537	-3.43994569778
-73.9945526123	-40.7039985657	133.230606079	5.60838460922	0.880146026611	-3.52677607536
-60.1619186401	-42.8443717957	112.319709778	7.19399642944	1.0933599472	-3.72132372856
-48.8909721375	-43.0982666016	98.3550262451	9.31782722473	1.29928529263	-3.96450042725
-40.1666870117	-41.9184570312	89.2516937256	11.6552581787	1.48622751236	-4.12921524048
-35.6978187561	-41.4971237183	85.9931182861	13.8717756271	1.37409639359	-4.20692825317
-33.3852882385	-40.7959671021	84.7626953125	15.8782644272	0.974777877331	-4.34538602829
-31.2136249542	-40.4431610107	83.1266708374	17.4007434845	0.411807745695	-4.55307769775
-30.545124054	-40.226890564	83.0695724487	18.3771152496	-0.091920375824	-4.73727035522
-29.9574699402	-40.3388252258	82.7645568848	18.7691135406	-0.342897385359	-4.88181734085
-30.1418380737	-40.9427680969	83.1869277954	18.2859172821	-0.17616340518	-4.93365716934
-28.9584693909	-42.2012481689	80.5033721924	16.8277397156	0.310724318027	-5.07928133011
