-33.6493415833	-57.134147644	138.892669678	3.38352704048	-1.53940272331	-4.60931301117
-34.4113960266	-57.4408302307	139.492599487	3.29720401764	-1.54946005344	-4.58212137222
-34.3490867615	-57.4366569519	139.086151123	3.07689166069	-1.58561635017	-4.58654260635
-29.5536003113	-55.2127723694	132.213912964	2.21848225594	-1.93301379681	-4.56039762497
-18.4748954773	-45.3846244812	113.833358765	0.128095492721	-2.80542802811	-4.51604223251
-12.883562088	-36.207195282	101.414871216	-3.05168437958	-4.0912194252	-4.12874412537
-13.777015686	-30.1421909332	99.0454406738	-6.71609544754	-5.14380025864	-3.52683520317
-15.6686782837	-29.8347320557	98.9501113892	-10.3677940369	-6.28317165375	-2.66994667053
-17.3041343689	-30.6698074341	99.4431915283	-13.3647928238	-7.50027942657	-1.90934503078
-17.866941452	-31.4658164978	99.785369873	-15.1246614456	-8.74429893494	-1.33879876137
-17.7505970001	-32.7442893982	99.4904403687	-15.9897699356	-10.1709251404	-1.01105368137
-17.4883728027	-34.6049079895	98.8258209229	-16.0406551361	-11.3109989166	-0.99932205677
-17.9713668823	-37.6037025452	99.0741043091	-15.5140714645	-11.8406047821	-1.05586016178
-19.529958725	-42.8385696411	101.232398987	-15.2122936249	-12.1460390091	-1.2093539238
-25.4345283508	-49.0893287659	107.519935608	-15.2696428299	-12.0680503845	-1.34144735336
-39.187461853	-50.0470924377	123.101158142	-15.3064947128	-11.8806495667	-1.33728849888
-44.1768951416	-46.7234649658	128.025985718	-15.2098875046	-11.7138233185	-1.46988463402
-36.3706932068	-44.5050163269	116.257347107	-15.0779037476	-11.4440422058	-1.46775472164
-26.996006012	-40.6334037781	102.016242981	-15.197552681	-10.9614133835	-1.32700622082
-22.5768814087	-35.7437057495	92.9291687012	-15.5157403946	-10.3955526352	-1.06849753857
-23.4171524048	-35.7836227417	90.8333740234	-16.4188804626	-10.0334482193	-0.930154204369
-24.8137569427	-37.3805618286	90.4269485474	-18.3362102509	-10.073141098	-0.773987710476
