0.0	-0.0	146.982192993	87.5687561035	48.3301582336	3.96711063385
0.0	-0.0	146.798538208	88.0821380615	48.2688674927	3.71317076683
0.0	-0.0	146.810943604	88.050239563	48.1821174622	3.66159510612
0.0	-0.0	146.848831177	87.8485565186	48.1424217224	3.47826433182
0.0	-0.0	146.958999634	87.6149368286	47.9984931946	3.29783058167
0.0	-0.0	147.366729736	87.8069152832	47.8064460754	3.36575198174
0.0	-0.0	146.118972778	88.558883667	47.8942871094	3.53209280968
0.0	-0.0	140.747207642	88.2350463867	48.9599266052	4.00860357285
0.0	-0.0	124.543716431	88.0852584839	49.5896339417	3.82680702209
0.0	-0.0	98.6595458984	87.5817184448	50.8770637512	3.67566537857
0.0	-0.0	71.4949417114	86.4751434326	51.9139137268	3.23142170906
0.0	-0.0	48.0946884155	86.23828125	53.6448097229	2.61591362953
0.0	-0.0	28.7058677673	85.7484893799	54.7493400574	2.64055538177
0.0	-0.0	16.7828521729	85.8053436279	55.4623260498	2.86018776894
0.0	-0.0	12.86606884	87.2396087646	60.6236038208	2.1851079464
0.0	-0.0	12.1708850861	90.8368225098	64.7157897949	-2.56918692589
0.0	-0.0	12.2852458954	91.9331436157	69.6394805908	-1.64222836494
0.0	-0.0	13.9962863922	91.2943649292	73.9297332764	0.442805707455
0.0	-0.0	16.0025424957	94.8121490479	77.5664825439	-0.057458050549
0.0	-0.0	18.7696170807	97.9610671997	82.6987915039	-1.73926651478
0.0	-0.0	22.7475337982	97.6987762451	82.9201431274	-2.43892478943
0.0	-0.0	26.5047721863	96.828453064	82.9886856079	-2.59594869614
0.0	-0.0	28.9568748474	97.6620025635	83.0962905884	-2.62589406967
0.0	-0.0	29.9154186249	98.7489013672	81.2424163818	-2.65546107292
0.0	-0.0	29.8679637909	100.20186615	78.9449691772	-2.86562514305
0.0	-0.0	30.2109909058	100.741691589	77.5270004272	-3.47489976883
0.0	-0.0	30.0185089111	101.318275452	77.2476119995	-4.11858701706
0.0	-0.0	29.3022060394	101.147697449	77.7550582886	-4.25379800797
0.0	-0.0	29.1180477142	101.412246704	77.4752120972	-4.30289030075
0.0	-0.0	29.5797462463	101.499229431	77.5950088501	-4.16806507111
0.0	-0.0	32.2343788147	101.309204102	78.2119064331	-4.12370920181
0.0	-0.0	38.1456642151	100.764358521	78.5633392334	-4.05285358429
0.0	-0.0	52.8928604126	100.116096497	78.6970901489	-4.49401760101
0.0	-0.0	74.3487930298	99.8529815674	78.9939041138	-5.23677015305
0.0	-0.0	94.8226242065	99.4722976685	79.371307373	-5.37030029297
0.0	-0.0	112.976013184	99.4892044067	79.0023574829	-5.02600955963
0.0	-0.0	128.40826416	99.9340209961	78.5261993408	-4.29141426086
0.0	-0.0	137.647018433	99.2253570557	77.8079681396	-3.02157402039
0.0	-0.0	135.459106445	99.451423645	76.7804107666	-2.49027729034
0.0	-0.0	125.381813049	100.321304321	76.1164703369	-2.43752527237
0.0	-0.0	111.389518738	101.606040955	75.7205734253	-3.40416145325
0.0	-0.0	95.5448455811	101.393463135	76.1687164307	-4.05226659775
0.0	-0.0	81.0611801147	99.8427200317	77.1207580566	-3.3915450573
0.0	-0.0	72.6721572876	99.8223495483	77.9684829712	-3.46790671349
0.0	-0.0	67.7359161377	100.157783508	77.6183166504	-4.10094022751
0.0	-0.0	63.244682312	100.435058594	76.985206604	-7.08714103699
0.0	-0.0	59.4047622681	98.1132583618	76.6750488281	-15.9016590118
0.0	-0.0	56.2006797791	95.5159835815	77.2585830688	-30.0033836365
0.0	-0.0	53.9121704102	91.8872299194	78.7138214111	-45.3586921692
0.0	-0.0	52.5682067871	87.0650634766	77.7838134766	-46.3575515747
0.0	-0.0	51.4366378784	85.16015625	78.3377151489	-44.7355461121
0.0	-0.0	50.6224861145	83.769493103	79.7795333862	-35.0976676941
0.0	-0.0	48.9772338867	82.2804718018	81.2480773926	-19.7591819763
0.0	-0.0	47.8512763977	81.1641616821	80.9221420288	-9.55512046814
0.0	-0.0	46.8488616943	79.9859313965	79.9070968628	-2.43613529205
0.0	-0.0	46.6349411011	76.8886566162	78.9296722412	4.28935337067
0.0	-0.0	47.0467758179	73.0802764893	78.827796936	8.8745765686
0.0	-0.0	48.8470611572	72.4629898071	78.5350799561	8.54918003082
0.0	-0.0	52.8552703857	73.3570251465	78.0692596436	8.26816082001
0.0	-0.0	59.2678947449	74.3103866577	77.9234390259	7.9613571167
0.0	-0.0	69.8610610962	75.6165618896	77.5122756958	7.09738397598
0.0	-0.0	83.5581817627	76.7370376587	77.4634628296	6.83314418793
0.0	-0.0	100.224205017	78.214515686	77.648979187	6.07865333557
0.0	-0.0	111.275428772	79.3053436279	78.4795227051	5.21921539307
0.0	-0.0	109.900131226	78.0716171265	78.3620223999	5.98494243622
0.0	-0.0	100.988815308	82.9322738647	79.3447036743	-6.31604146957
0.0	-0.0	91.2166061401	89.3808364868	83.2888946533	-31.5110931396
0.0	-0.0	80.8876342773	88.2310943604	82.3573760986	-36.4090652466
0.0	-0.0	71.2027664185	88.4943237305	82.56665802	-35.4554214478
0.0	-0.0	62.8867607117	88.6686706543	82.8686523438	-32.7363548279
0.0	-0.0	58.8436889648	89.2575302124	83.1351242065	-30.7099533081
0.0	-0.0	57.9619293213	89.9561004639	83.6378326416	-31.1558361053
0.0	-0.0	58.5167770386	89.0475158691	84.9736709595	-33.0796585083
0.0	-0.0	59.7562065125	85.2502059937	86.3050994873	-35.4447479248
0.0	-0.0	60.2803382874	81.1972045898	84.8171768188	-26.0527915955
0.0	-0.0	62.3343505859	73.0913314819	81.5274429321	-5.71589565277
0.0	-0.0	64.0436401367	68.4038619995	80.233039856	4.64686250687
0.0	-0.0	65.9030227661	68.0974731445	80.0161819458	4.76464128494
0.0	-0.0	69.7773666382	68.1840667725	79.8869476318	4.97692394257
0.0	-0.0	74.6669158936	69.1309967041	79.5501174927	4.71904373169
0.0	-0.0	80.8932342529	69.3369903564	79.4477767944	4.62451267242
0.0	-0.0	91.1468505859	69.6628265381	79.6272659302	4.26482391357
0.0	-0.0	104.879730225	69.3675842285	79.9374389648	3.92939829826
0.0	-0.0	116.512336731	69.2564468384	80.2326126099	3.75464963913
0.0	-0.0	117.065467834	68.5567626953	80.1251373291	4.41611814499
0.0	-0.0	110.270927429	68.9962158203	79.295539856	4.81447076797
0.0	-0.0	99.770111084	69.7231063843	79.2449264526	5.20234632492
0.0	-0.0	87.5801773071	70.4644012451	80.2600708008	5.88493537903
0.0	-0.0	75.4571685791	71.299079895	81.1914978027	6.26282501221
0.0	-0.0	65.9115066528	71.5620346069	81.9332275391	6.2660908699
0.0	-0.0	59.9606781006	72.3176879883	82.6087799072	5.15500020981
0.0	-0.0	58.1379852295	72.9413299561	83.1644134521	4.28064250946
0.0	-0.0	58.0134544373	72.9282150269	82.5391464233	4.20801925659
0.0	-0.0	58.2908630371	72.720489502	80.8103942871	3.08213639259
0.0	-0.0	58.8542098999	71.2729187012	79.7275695801	2.28998947144
0.0	-0.0	59.2002906799	70.6224517822	79.7518768311	2.70690560341
0.0	-0.0	59.9151153564	70.2439117432	79.6548080444	3.09568524361
0.0	-0.0	60.1182899475	70.0902481079	79.8827896118	3.14066362381
0.0	-0.0	59.9934463501	69.835723877	80.2082748413	3.14944076538
0.0	-0.0	59.3955993652	69.6742477417	80.2115402222	3.16725993156
0.0	-0.0	58.322593689	69.9333267212	80.1140060425	3.18994498253
0.0	-0.0	56.4480400085	69.819190979	80.1862945557	3.42300200462
0.0	-0.0	54.6254768372	69.2674865723	80.4193725586	3.50951194763
0.0	-0.0	53.9415588379	68.7153091431	80.482421875	3.46567869186
0.0	-0.0	53.6023521423	68.25340271	80.8618469238	3.49456095695
0.0	-0.0	53.719417572	67.8075637817	81.0702362061	3.60994696617
0.0	-0.0	54.0321807861	67.4076538086	81.0284957886	3.82419395447
0.0	-0.0	54.7362327576	67.0547103882	79.2794952393	2.89912486076
0.0	-0.0	54.6523704529	66.2836837769	78.1578979492	2.73353171349
0.0	-0.0	55.0166015625	65.9246902466	77.486541748	4.55358552933
0.0	-0.0	54.9511528015	65.8803329468	77.1916885376	5.69951248169
0.0	-0.0	55.0804901123	65.7863540649	77.3394317627	7.10450029373
0.0	-0.0	55.6305885315	65.3138961792	77.2269897461	9.04021072388
0.0	-0.0	55.5286750793	64.3345108032	77.0886917114	12.5568304062
0.0	-0.0	55.7302894592	63.2444114685	76.7053451538	14.9795894623
0.0	-0.0	56.2561187744	63.4433441162	76.6053924561	14.7302103043
0.0	-0.0	59.1851043701	63.7720451355	76.6305389404	14.5358076096
0.0	-0.0	62.1432266235	64.161781311	76.4923248291	14.2215061188
0.0	-0.0	67.7281341553	64.7616882324	76.1610031128	13.7757282257
0.0	-0.0	79.4034194946	65.759475708	76.1181488037	12.887629509
0.0	-0.0	92.9565811157	66.7873382568	76.4429244995	12.6078996658
0.0	-0.0	106.021339417	68.0187454224	77.0143356323	12.001452446
0.0	-0.0	114.602241516	68.3445358276	77.6513977051	11.7890062332
0.0	-0.0	112.503265381	67.8904724121	77.931968689	12.0323381424
0.0	-0.0	103.596000671	67.5781784058	77.643157959	12.5141210556
0.0	-0.0	93.8302688599	67.2649459839	77.8790283203	13.0235910416
0.0	-0.0	83.2843475342	67.8092803955	79.1386413574	13.9241113663
0.0	-0.0	74.0991439819	66.9266815186	80.0867843628	18.8503932953
0.0	-0.0	66.2067260742	66.5615234375	80.1134490967	22.9284877777
0.0	-0.0	60.4945716858	66.01222229	79.4723510742	24.414812088
0.0	-0.0	57.805229187	66.0146179199	79.032875061	24.230588913
0.0	-0.0	57.7302474976	65.8860855103	78.9292602539	23.6623001099
0.0	-0.0	61.4876861572	66.2458648682	78.8775253296	22.458272934
0.0	-0.0	69.8050613403	65.7566986084	78.0368499756	21.6612262726
0.0	-0.0	82.6147918701	64.6171417236	77.3640060425	21.0816574097
0.0	-0.0	96.1707382202	64.2504882812	77.5207748413	20.471496582
0.0	-0.0	107.500946045	64.102180481	77.8487243652	19.9944038391
0.0	-0.0	114.467605591	64.4394607544	77.623336792	19.0892105103
0.0	-0.0	117.079032898	64.7677154541	77.3545074463	18.8911819458
0.0	-0.0	114.69203186	65.3482666016	77.044342041	19.0221595764
0.0	-0.0	108.18964386	66.2524719238	77.0169219971	19.4516639709
0.0	-0.0	99.9286270142	67.0613555908	76.5600357056	19.752664566
0.0	-0.0	90.3686904907	68.1746292114	75.6652297974	19.8954162598
0.0	-0.0	80.9502029419	69.7356491089	73.6691055298	20.6785945892
0.0	-0.0	72.9926986694	72.161567688	71.0676498413	21.5487670898
0.0	-0.0	66.9444732666	74.7550430298	68.6621932983	22.9731674194
0.0	-0.0	64.3716125488	77.035369873	67.7365646362	22.4141731262
0.0	-0.0	66.0671615601	77.5886459351	67.8502120972	22.1557769775
0.0	-0.0	69.9754180908	77.9766387939	68.617980957	21.8926563263
0.0	-0.0	72.2230758667	77.2346191406	69.5148925781	21.6838188171
0.0	-0.0	74.0943374634	75.9008712769	69.4766159058	20.5295009613
0.0	-0.0	75.7197341919	73.140083313	69.3767776489	18.6198310852
0.0	-0.0	78.1772689819	69.2213134766	69.5541305542	17.8229541779
0.0	-0.0	82.9925231934	67.882019043	70.2092285156	17.3351039886
0.0	-0.0	88.3729095459	67.188583374	70.7085113525	17.3839302063
0.0	-0.0	93.6708602905	67.0040283203	70.7947387695	17.48320961
0.0	-0.0	97.938873291	66.3759841919	71.0338058472	17.8808403015
0.0	-0.0	101.157318115	65.7743682861	71.2151641846	17.9868736267
0.0	-0.0	101.468734741	65.158493042	71.8193359375	18.4362316132
0.0	-0.0	99.8822479248	65.040687561	72.1129150391	18.3972129822
0.0	-0.0	97.5084762573	64.8327407837	72.0037155151	18.0999698639
0.0	-0.0	95.5945510864	64.3951263428	71.9362792969	17.8344097137
0.0	-0.0	93.2775421143	64.2666015625	72.3070297241	17.6917285919
0.0	-0.0	90.2159957886	64.1025314331	72.0155715942	17.6257705688
0.0	-0.0	86.561630249	64.237159729	71.7148513794	17.621219635
0.0	-0.0	85.3919677734	64.5738067627	71.4314193726	17.55717659
0.0	-0.0	84.6790847778	64.7087478638	71.3352890015	17.5707683563
0.0	-0.0	84.3372039795	64.7180938721	71.4545211792	18.0445251465
0.0	-0.0	86.0623550415	64.7007064819	71.4047012329	18.3965930939
0.0	-0.0	88.0196533203	64.807723999	71.201965332	18.2407608032
0.0	-0.0	88.4451446533	65.1579284668	71.0695800781	18.2576789856
0.0	-0.0	86.8792495728	66.6110610962	70.534576416	17.4960784912
0.0	-0.0	84.3661727905	68.4817428589	69.6465911865	15.9234476089
0.0	-0.0	81.8510818481	71.7394180298	69.4320983887	12.2265729904
0.0	-0.0	80.435508728	73.5008087158	69.5541763306	9.89213943481
0.0	-0.0	78.511932373	76.7169952393	70.4487991333	4.05028581619
0.0	-0.0	77.4053268433	79.4666519165	71.3742980957	0.982163071632
0.0	-0.0	77.9046173096	78.8781890869	71.4294891357	1.84888744354
0.0	-0.0	78.443145752	79.0978317261	72.0377502441	1.91451501846
0.0	-0.0	80.158416748	78.7471389771	72.2898330688	2.00574588776
0.0	-0.0	83.6754837036	78.4110565186	72.3984527588	1.875852108
0.0	-0.0	89.2419509888	77.4696731567	72.9847183228	1.78164660931
0.0	-0.0	95.530128479	76.1606826782	73.6134719849	1.7045314312
0.0	-0.0	99.9729690552	74.998046875	73.95337677	1.87900900841
0.0	-0.0	101.28868866	74.2778549194	74.5693054199	1.88239741325
0.0	-0.0	101.431404114	72.2294158936	74.4079742432	2.45976758003
0.0	-0.0	99.3237838745	72.1486129761	74.09765625	2.24803233147
0.0	-0.0	94.858757019	72.5594940186	74.1251449585	2.61363172531
0.0	-0.0	91.3399200439	73.671875	74.0654220581	2.73662209511
0.0	-0.0	88.9594345093	74.1282272339	73.7827529907	2.88640761375
0.0	-0.0	87.6789932251	74.1951904297	73.3493881226	2.86456227303
0.0	-0.0	86.334777832	73.8910751343	73.0177383423	3.661059618
0.0	-0.0	84.617401123	75.7752609253	71.6398468018	5.60048246384
0.0	-0.0	82.8507080078	80.2719039917	71.5913238525	6.19234228134
0.0	-0.0	81.8405151367	83.2398605347	72.7085113525	6.24429798126
0.0	-0.0	81.0995407104	85.6519622803	73.0125808716	6.19601535797
0.0	-0.0	81.1095504761	90.5985031128	73.3108825684	5.32963514328
0.0	-0.0	81.0497360229	99.1701431274	73.9924087524	2.24308347702
0.0	-0.0	80.6314544678	104.648971558	74.0594787598	1.17542850971
0.0	-0.0	80.2682952881	107.464508057	74.7290878296	-1.40312194824
0.0	-0.0	79.8617477417	107.647079468	74.8425521851	-2.97838020325
0.0	-0.0	80.0374603271	104.976615906	72.9959182739	-12.1991815567
0.0	-0.0	79.840637207	100.503822327	71.3677520752	-19.212556839
0.0	-0.0	79.9404602051	96.9552230835	70.0810775757	-22.5786209106
0.0	-0.0	80.1339263916	96.4460983276	70.9774703979	-35.265171051
0.0	-0.0	79.9035110474	96.0810546875	71.7454986572	-47.9262466431
0.0	-0.0	80.083366394	95.4463577271	71.0262069702	-51.2340126038
0.0	-0.0	79.8939666748	95.2838745117	71.0156784058	-49.6775093079
0.0	-0.0	79.6335144043	94.0452728271	72.1017074585	-40.7298774719
0.0	-0.0	79.6066665649	89.9662857056	72.7815551758	-25.0448551178
0.0	-0.0	79.8728637695	86.6391525269	73.6682128906	-12.452378273
0.0	-0.0	79.5234603882	82.7430725098	73.8468475342	-0.997403621674
0.0	-0.0	80.154800415	79.4416122437	72.8958129883	6.27223348618
0.0	-0.0	81.2256851196	73.8317871094	70.9860229492	15.8491868973
0.0	-0.0	82.2973709106	70.1851348877	69.8223724365	20.9090213776
0.0	-0.0	83.8206329346	68.4312667847	68.6197509766	21.4040985107
0.0	-0.0	85.6683197021	67.768447876	67.8369522095	21.6527843475
0.0	-0.0	87.328742981	67.7485275269	67.4109039307	21.5578708649
0.0	-0.0	87.6389770508	68.0508575439	67.506690979	20.9899597168
0.0	-0.0	87.713104248	68.4633331299	67.4399795532	20.3475418091
0.0	-0.0	88.5212173462	68.741569519	67.3896560669	20.048456192
0.0	-0.0	89.3461685181	68.6241607666	67.4969558716	20.2141628265
0.0	-0.0	89.3032836914	68.4136810303	67.9503936768	20.5928955078
0.0	-0.0	89.6619720459	68.1722259521	67.8230514526	20.2245731354
0.0	-0.0	89.4602127075	68.5495681763	67.9803390503	19.0435066223
0.0	-0.0	88.8231964111	69.2712936401	68.1411972046	18.2785835266
0.0	-0.0	88.4109649658	70.0295028687	67.84765625	17.5065879822
0.0	-0.0	88.0926818848	70.4860458374	67.5908355713	17.3188037872
0.0	-0.0	87.8910217285	70.9595031738	67.4761581421	16.9297904968
0.0	-0.0	88.0152816772	71.4688720703	67.4814682007	16.8304214478
0.0	-0.0	88.62084198	71.8055496216	67.3261566162	16.6534633636
0.0	-0.0	89.9351043701	71.8813095093	67.4499282837	16.7170505524
0.0	-0.0	92.986114502	71.7706985474	67.7494430542	16.817483902
0.0	-0.0	101.064529419	72.2129592896	67.8223342896	16.5834980011
0.0	-0.0	114.45627594	72.7019577026	67.7132110596	16.0821800232
0.0	-0.0	127.97908783	73.1463317871	68.0462188721	15.7607955933
0.0	-0.0	134.258651733	73.2738342285	68.5010757446	15.8682041168
0.0	-0.0	131.20993042	73.3556365967	68.5921096802	15.7320489883
0.0	-0.0	121.350372314	74.5388031006	69.0411453247	13.3244514465
0.0	-0.0	109.548545837	74.1976928711	69.0837402344	12.8396453857
0.0	-0.0	97.2066116333	73.8948669434	69.0695571899	13.0510606766
0.0	-0.0	84.7984237671	73.9261474609	68.8699035645	13.2766628265
0.0	-0.0	74.9981384277	74.3339385986	68.6489868164	13.3405590057
0.0	-0.0	68.232749939	74.6308670044	68.4766387939	13.2306528091
0.0	-0.0	63.6450958252	74.7373352051	68.188873291	13.1363754272
0.0	-0.0	61.9264411926	74.7997283936	68.7698669434	12.6649847031
0.0	-0.0	61.9897117615	74.8607711792	69.3733825684	11.86764431
0.0	-0.0	63.0382118225	75.9032440186	70.5265197754	6.4994931221
0.0	-0.0	64.8728561401	76.8558349609	73.1343307495	-3.4957947731
0.0	-0.0	65.9942703247	80.7039108276	76.9449539185	-18.1509838104
0.0	-0.0	67.0426254272	82.3919372559	80.3728485107	-26.1706466675
0.0	-0.0	67.7861557007	84.5690078735	81.7892837524	-29.9259700775
0.0	-0.0	68.2366943359	85.3723068237	82.5911178589	-29.5639381409
0.0	-0.0	68.784324646	84.8815994263	83.051651001	-27.4809875488
0.0	-0.0	68.7322692871	85.2571640015	84.3642730713	-24.756477356
0.0	-0.0	68.9146575928	86.3422698975	85.3096237183	-22.2158050537
0.0	-0.0	68.6712188721	85.5002288818	84.5097579956	-13.311047554
0.0	-0.0	68.3503875732	86.839515686	83.0932235718	-11.2125806808
0.0	-0.0	67.9684295654	87.3678817749	82.0102615356	-10.3462467194
0.0	-0.0	67.14478302	87.4546432495	81.1679611206	-7.70840072632
0.0	-0.0	66.4111251831	88.4825897217	79.9838867188	-6.5597858429
0.0	-0.0	65.3129043579	89.048500061	80.0339736938	-7.79913330078
0.0	-0.0	64.7802124023	90.0487518311	81.4473571777	-17.884180069
0.0	-0.0	65.0145263672	90.8612823486	82.6005554199	-26.1997184753
0.0	-0.0	64.8349685669	89.3965606689	82.816192627	-28.0099315643
0.0	-0.0	65.2323913574	87.8468704224	81.7529602051	-23.8154411316
0.0	-0.0	65.2949676514	81.4188690186	79.405456543	-7.89434766769
0.0	-0.0	65.1504058838	77.4864807129	78.7087554932	5.32468271255
0.0	-0.0	65.1989135742	76.6888504028	78.2176818848	6.28974056244
0.0	-0.0	65.4920883179	75.7398605347	77.7160263062	7.75742721558
0.0	-0.0	67.1439971924	75.453338623	76.7297363281	8.75186157227
0.0	-0.0	68.7912063599	75.18775177	76.2959899902	10.5533895493
0.0	-0.0	70.3078231812	73.8354721069	75.8897781372	13.603094101
0.0	-0.0	71.3719329834	73.6691131592	75.7403182983	13.7625589371
0.0	-0.0	71.978225708	73.317855835	75.7165603638	13.7849769592
0.0	-0.0	72.1229629517	73.3132553101	75.4864349365	13.6603679657
0.0	-0.0	71.5997924805	73.8375549316	75.3529281616	13.3728485107
0.0	-0.0	71.0205307007	74.3163528442	75.0588150024	13.2546043396
0.0	-0.0	69.9683990479	74.790435791	75.0076293945	13.2497587204
0.0	-0.0	69.1059341431	75.0249099731	75.0897827148	13.224237442
0.0	-0.0	68.3496398926	75.1764755249	75.44972229	13.0318040848
0.0	-0.0	68.0620956421	75.2795715332	75.3646774292	12.8727121353
0.0	-0.0	67.7693252563	75.412902832	75.4883728027	12.7475509644
0.0	-0.0	67.8384094238	75.2131347656	75.6924438477	12.9686021805
0.0	-0.0	67.9341430664	74.9762115479	75.795791626	12.9070167542
0.0	-0.0	67.7955703735	74.5787200928	75.6027984619	12.849281311
0.0	-0.0	67.9046096802	74.3416900635	75.2927017212	12.9695777893
0.0	-0.0	67.4337081909	74.0091400146	75.4862670898	12.9667682648
0.0	-0.0	67.2144241333	73.7486343384	75.5496368408	13.1615991592
0.0	-0.0	66.9925231934	73.2978134155	75.5325164795	13.9218063354
0.0	-0.0	67.0318450928	73.0125274658	75.6094970703	14.7000303268
0.0	-0.0	67.202331543	71.8880615234	75.3883361816	17.8056907654
0.0	-0.0	67.2786102295	71.7520828247	75.2524108887	19.841506958
0.0	-0.0	67.262588501	71.617225647	74.904296875	20.1663322449
0.0	-0.0	67.3657531738	71.3052368164	74.5941848755	20.5723323822
0.0	-0.0	67.2643127441	70.7370529175	74.3579940796	21.8333282471
0.0	-0.0	67.1244812012	70.0888671875	74.1758728027	23.7934761047
0.0	-0.0	67.2918243408	70.1509475708	73.847984314	24.3049621582
0.0	-0.0	68.8443145752	70.1064147949	73.4366455078	24.3704719543
0.0	-0.0	72.3840103149	70.50340271	73.19896698	24.0050907135
0.0	-0.0	79.5529785156	70.6753234863	73.1662368774	23.6174888611
0.0	-0.0	91.8159637451	71.0171432495	73.0338058472	23.0148773193
0.0	-0.0	105.305007935	70.9971847534	73.2213897705	22.8887786865
0.0	-0.0	114.169143677	70.3281478882	73.5997390747	23.7158870697
0.0	-0.0	113.946899414	70.0401000977	73.5233383179	24.5465736389
0.0	-0.0	107.021224976	69.902557373	72.0486526489	25.5991249084
0.0	-0.0	97.3270721436	69.9039077759	71.0790176392	26.1654624939
0.0	-0.0	87.7176589966	69.7518157959	70.6835021973	27.4310874939
0.0	-0.0	79.1899032593	68.9195632935	70.7151947021	30.9711093903
0.0	-0.0	72.6097640991	68.3494186401	69.8829269409	32.2917709351
0.0	-0.0	67.8667602539	68.9843292236	69.0745697021	31.2536849976
0.0	-0.0	66.3975906372	69.2581787109	68.0879135132	30.5417118073
0.0	-0.0	66.5281066895	69.8812332153	67.5272674561	29.8111419678
0.0	-0.0	67.8218765259	69.9152984619	67.2402191162	30.1548023224
0.0	-0.0	72.451789856	69.3294830322	66.3996047974	31.131061554
0.0	-0.0	80.4891662598	67.9828414917	66.2768325806	32.9184417725
0.0	-0.0	88.8716506958	68.2579040527	66.6112747192	32.0925521851
0.0	-0.0	96.3363265991	68.3135681152	66.370765686	32.1691894531
0.0	-0.0	102.721229553	68.5534896851	65.8847198486	32.1484184265
0.0	-0.0	105.563728333	68.53125	65.8323440552	32.4489860535
0.0	-0.0	106.247535706	68.5613632202	65.7110214233	32.4885292053
0.0	-0.0	105.821914673	68.8709106445	65.4038848877	32.2939987183
0.0	-0.0	105.720909119	69.6348724365	64.5962524414	31.7885665894
0.0	-0.0	105.611274719	70.3470001221	63.9586334229	31.3046951294
0.0	-0.0	104.980125427	70.9932174683	63.0678596497	31.0899963379
0.0	-0.0	104.30519104	71.7004241943	62.669380188	30.0214309692
0.0	-0.0	103.390441895	71.6000213623	63.2206878662	29.3352489471
0.0	-0.0	101.952781677	72.4199676514	64.1171722412	27.6484794617
0.0	-0.0	100.975311279	74.9245681763	64.6470870972	23.8247833252
0.0	-0.0	96.8710784912	79.385055542	65.8391723633	15.3131551743
0.0	-0.0	90.5938110352	80.6445617676	69.4268569946	5.73335266113
0.0	-0.0	85.3031845093	86.0412979126	74.6725463867	-10.2055368423
0.0	-0.0	82.3015518188	85.5572967529	80.7810668945	-13.9350214005
0.0	-0.0	80.3667526245	84.5179824829	84.4734115601	-10.5334863663
0.0	-0.0	79.1343688965	85.6561203003	86.220451355	-8.8553943634
0.0	-0.0	78.3481292725	85.7523193359	87.0586395264	-7.9879322052
0.0	-0.0	77.6707687378	86.8243179321	88.1726989746	-7.80491161346
0.0	-0.0	77.0439376831	86.9788742065	88.3395843506	-7.15205574036
0.0	-0.0	75.5954818726	88.1063842773	88.8434753418	-7.07912874222
0.0	-0.0	74.4998855591	88.3234558105	88.6884307861	-6.81677436829
0.0	-0.0	74.2020797729	86.493888855	87.7409744263	-1.78478968143
0.0	-0.0	74.6685638428	83.0003356934	86.2744827271	5.42810058594
0.0	-0.0	77.1935348511	80.6049728394	85.092048645	10.3926420212
0.0	-0.0	79.1824874878	77.510635376	83.1388473511	19.2828884125
0.0	-0.0	81.8451461792	71.8925323486	79.7279968262	30.8062286377
0.0	-0.0	84.1674575806	68.0615310669	77.6314926147	37.1660995483
0.0	-0.0	85.603553772	66.9486846924	76.5496902466	37.5277099609
0.0	-0.0	86.6438751221	67.320526123	76.2026519775	36.4830856323
0.0	-0.0	88.5902557373	67.4735107422	75.3905029297	35.4715118408
0.0	-0.0	91.3764877319	68.5044021606	74.8168640137	34.9759521484
0.0	-0.0	94.4065704346	69.3062820435	74.9007339478	33.8912506104
0.0	-0.0	101.724914551	69.676109314	74.9154510498	33.4492340088
0.0	-0.0	113.313568115	69.739074707	75.0832443237	33.0429115295
0.0	-0.0	128.173034668	69.7235641479	75.1755142212	32.6824188232
0.0	-0.0	139.169662476	69.5980987549	75.2996139526	32.4645118713
0.0	-0.0	137.208358765	68.7606124878	75.7395019531	33.0002365112
0.0	-0.0	120.673484802	68.7639160156	75.7716674805	32.9088783264
0.0	-0.0	94.4622192383	68.3182144165	75.3669662476	33.3236541748
