-68.9503326416	-46.2556190491	146.545166016	4.51839828491	-1.6175839901	-4.45142555237
-69.0208969116	-46.1192016602	146.191986084	4.11595773697	-1.61203038692	-4.2981595993
-68.9572753906	-45.8855285645	145.889831543	3.69243192673	-1.65655207634	-4.19140720367
-66.7421035767	-45.8612098694	142.573974609	3.1868751049	-1.60934650898	-4.15391111374
-52.2443771362	-47.7322654724	117.218360901	1.83291554451	-1.40824317932	-3.85796928406
-26.5438461304	-43.1661376953	73.4230728149	-0.636226773262	-1.18064641953	-3.54168772697
-14.1483917236	-30.2070293427	43.6414031982	-3.75989794731	-0.843239486217	-3.09979367256
-19.0656814575	-21.728723526	36.1513023376	-7.11693525314	-0.524043738842	-2.64377045631
-29.0728759766	-19.5595550537	38.2551002502	-10.348326683	-0.203726276755	-2.45996904373
-40.1252593994	-21.4612064362	45.563495636	-13.3845567703	-0.00389650790021	-2.33017349243
-49.7685470581	-23.4082279205	52.0938606262	-15.9223251343	0.19769987464	-2.13926124573
-57.3619003296	-22.0560531616	63.4785003662	-18.2059650421	0.433412522078	-1.91429007053
-58.2547302246	-22.3056106567	63.688167572	-20.6001338959	0.475838065147	-1.60056257248
-58.9504699707	-22.5771350861	63.9582328796	-23.1499404907	0.404141664505	-1.20886468887
-59.087310791	-23.4144306183	63.9358634949	-25.4036808014	0.460396766663	-0.765644729137
