0.116665840149	1.18119978905	-0.0183765888214	-0.0811169147491	1.57761561871	-0.228280305862
0.116747617722	1.17994618416	-0.0180020332336	-0.0802886486053	1.57690227032	-0.229489088058
0.116483926773	1.17987525463	-0.0189616680145	-0.0798556804657	1.57684421539	-0.23063492775
0.116761922836	1.18048393726	-0.0204222202301	-0.0802793502808	1.57703316212	-0.231996536255
0.11700630188	1.18084800243	-0.0206091403961	-0.0813438892365	1.5766876936	-0.233461618423
0.115024328232	1.17932295799	-0.0200953483582	-0.0836498737335	1.5750027895	-0.235132813454
0.109951019287	1.17585289478	-0.0188975334167	-0.0870070457458	1.57189822197	-0.236896634102
0.105491399765	1.1766564846	-0.0180720090866	-0.0909299850464	1.56855595112	-0.238491296768
0.102840900421	1.18026006222	-0.0171743631363	-0.0943737030029	1.56554329395	-0.240371704102
0.10283613205	1.18459951878	-0.0159816741943	-0.0979919433594	1.56262552738	-0.242947459221
0.103606700897	1.19101202488	-0.0155653953552	-0.101214408875	1.56029272079	-0.245294570923
0.104534626007	1.19649612904	-0.0156017541885	-0.103535175323	1.55799841881	-0.247640967369
0.105544805527	1.20203781128	-0.0162987709045	-0.105112314224	1.55496251583	-0.249419212341
0.105682373047	1.20656323433	-0.0177495479584	-0.106640815735	1.55132353306	-0.251444578171
0.105023384094	1.21093952656	-0.0195879936218	-0.108080148697	1.54893326759	-0.253149032593
0.10521531105	1.21023929119	-0.0167484283447	-0.108615159988	1.54842185974	-0.254310250282
0.111849308014	1.20537936687	-0.00776326656342	-0.10817027092	1.54881834984	-0.255434632301
0.113646507263	1.19909346104	-0.00542640686035	-0.107846260071	1.54947495461	-0.256294727325
0.115097045898	1.19555675983	-0.00582945346832	-0.108232498169	1.55034685135	-0.25743830204
0.113786220551	1.19527387619	-0.010103225708	-0.109771728516	1.55161118507	-0.259068608284
0.117534399033	1.19841372967	-0.0132396221161	-0.112219572067	1.55276703835	-0.260660529137
