-0.0996909141541	1.1749689579	0.212330341339	-0.139702558517	1.57629144192	-0.0131688117981
-0.100512742996	1.17452085018	0.212391018867	-0.139399051666	1.57660961151	-0.013843536377
-0.101200580597	1.17408716679	0.212994337082	-0.138816833496	1.57649421692	-0.0142900943756
-0.102263212204	1.17295110226	0.214589118958	-0.138266324997	1.57627570629	-0.0150852203369
-0.106180667877	1.16694235802	0.226208090782	-0.138199329376	1.5750015974	-0.0157976150513
-0.114236831665	1.15104413033	0.240690231323	-0.139273405075	1.57188367844	-0.0160604715347
-0.121325731277	1.13139128685	0.249741792679	-0.141324043274	1.56771850586	-0.0158135890961
-0.129676818848	1.10361659527	0.254042625427	-0.143861293793	1.56318557262	-0.0156965255737
-0.138828516006	1.06032586098	0.251089572906	-0.146128416061	1.55841016769	-0.015860080719
-0.14465379715	1.02783370018	0.236815214157	-0.148233413696	1.55383980274	-0.0159204006195
-0.150149822235	1.01349163055	0.221128463745	-0.149761676788	1.54963183403	-0.0154144763947
-0.154793024063	1.00832939148	0.209820389748	-0.150678873062	1.54560852051	-0.0145406723022
-0.157666683197	1.00181102753	0.199509859085	-0.151641368866	1.54221367836	-0.0133756399155
-0.159740924835	0.998351097107	0.189813613892	-0.152878522873	1.53944218159	-0.0123561620712
-0.16045832634	0.998908281326	0.186826705933	-0.154545068741	1.53669095039	-0.0116455554962
-0.16029381752	1.0001077652	0.187178134918	-0.156520843506	1.53316521645	-0.0114073753357
-0.159592151642	1.00182938576	0.18829190731	-0.157916784286	1.5305570364	-0.011997461319
-0.157922029495	1.0013692379	0.189547181129	-0.158678531647	1.52864599228	-0.0128234624863
-0.155339241028	0.999001264572	0.187896490097	-0.158802509308	1.52785313129	-0.0133078098297
