0.0	-0.0	144.437438965	-111.511863708	88.2478942871	177.98727417
0.0	-0.0	143.94329834	-111.518531799	88.7212677002	177.940734863
0.0	-0.0	143.898071289	-111.730331421	88.7216873169	177.685089111
0.0	-0.0	143.600830078	-111.587104797	88.528213501	177.268203735
0.0	-0.0	143.781982422	-111.591201782	88.374458313	177.432159424
0.0	-0.0	143.628875732	-112.203056335	88.3395614624	177.39831543
0.0	-0.0	142.309799194	-113.234764099	87.6743850708	177.582870483
0.0	-0.0	136.9427948	-115.133026123	85.0361480713	178.686843872
0.0	-0.0	125.509925842	-119.382598877	79.2917633057	-179.460372925
0.0	-0.0	119.267028809	-125.618156433	71.2597427368	-177.031677246
0.0	-0.0	116.684204102	-132.686203003	62.1737556458	-174.714080811
0.0	-0.0	115.33114624	-140.429275513	53.9592666626	-172.531021118
0.0	-0.0	115.564552307	-146.715301514	47.4083518982	-171.808914185
0.0	-0.0	117.57635498	-149.94909668	42.5030441284	-171.07598877
0.0	-0.0	117.319984436	-150.020233154	38.9593963623	-170.405288696
0.0	-0.0	101.286308289	-148.679336548	37.3951148987	-169.969192505
0.0	-0.0	69.76197052	-148.0572052	36.6844596863	-170.013671875
0.0	-0.0	50.9441680908	-148.336151123	35.9850234985	-169.364578247
0.0	-0.0	54.5614700317	-149.04977417	34.8994903564	-169.128509521
0.0	-0.0	62.3743515015	-149.642593384	33.3694000244	-168.790771484
0.0	-0.0	67.6941223145	-150.053955078	31.1770744324	-168.168289185
0.0	-0.0	78.6958999634	-150.283157349	29.2666759491	-168.124160767
0.0	-0.0	86.7652816772	-149.674438477	27.3728084564	-168.068710327
0.0	-0.0	76.0051116943	-148.785568237	26.1179428101	-167.755996704
0.0	-0.0	51.7759475708	-148.844177246	25.898393631	-167.144256592
0.0	-0.0	44.9076118469	-149.275772095	25.4011268616	-167.272460938
0.0	-0.0	44.6854743958	-149.395797729	24.8327045441	-167.066238403
0.0	-0.0	43.8222198486	-149.348495483	24.1003704071	-167.007888794
0.0	-0.0	44.2385253906	-149.35848999	23.4181861877	-167.030776978
0.0	-0.0	47.286190033	-149.022857666	23.2669124603	-167.196838379
0.0	-0.0	53.9204330444	-147.843765259	23.2324733734	-167.213226318
0.0	-0.0	62.2887992859	-146.568069458	22.7923755646	-167.46282959
0.0	-0.0	72.1843795776	-145.659057617	22.6313762665	-167.743804932
0.0	-0.0	85.5221099854	-145.128479004	22.9574222565	-167.760543823
0.0	-0.0	94.5171661377	-145.221984863	23.2075443268	-167.647201538
0.0	-0.0	103.009887695	-145.764419556	23.4056739807	-167.580795288
0.0	-0.0	108.69140625	-145.90512085	23.5926704407	-168.183578491
0.0	-0.0	99.7747116089	-145.23638916	23.9652023315	-168.427474976
0.0	-0.0	72.5104446411	-145.162612915	24.7181358337	-168.387771606
0.0	-0.0	49.9907150269	-146.048858643	25.0567474365	-168.355361938
0.0	-0.0	42.0647621155	-146.571212769	25.5755004883	-168.448471069
0.0	-0.0	42.5184059143	-147.07673645	25.9723510742	-168.371566772
0.0	-0.0	44.6201438904	-147.864974976	26.1756153107	-168.287902832
0.0	-0.0	48.766166687	-148.744445801	26.1888523102	-168.373855591
0.0	-0.0	50.9861221313	-149.279678345	26.3473148346	-168.096878052
0.0	-0.0	51.8086967468	-149.457855225	27.4536952972	-167.833633423
0.0	-0.0	55.4029083252	-149.382232666	28.5859222412	-167.316696167
0.0	-0.0	55.3035507202	-148.859085083	27.9632797241	-166.958099365
0.0	-0.0	55.2738227844	-148.436523438	23.8086147308	-166.902267456
0.0	-0.0	55.4371528625	-148.713851929	16.1721477509	-167.355545044
