-0.016606092453	1.25611269474	0.325723648071	-0.140610218048	1.57819247246	0.0311827659607
-0.0156230926514	1.26039016247	0.325768232346	-0.14045715332	1.57858526707	0.0314073562622
-0.0154519081116	1.2621229887	0.325488448143	-0.140068054199	1.57860839367	0.0319133996964
-0.0153841972351	1.26221346855	0.325041890144	-0.139822483063	1.57822608948	0.0325574874878
-0.0151574611664	1.26255071163	0.325549244881	-0.139986991882	1.57802462578	0.0334905385971
-0.0150501728058	1.26254045963	0.326590061188	-0.140432834625	1.57821631432	0.0343601703644
-0.0159223079681	1.26642310619	0.327404260635	-0.141168355942	1.57887327671	0.0352206230164
-0.0145151615143	1.27661347389	0.328906655312	-0.142351150513	1.57999658585	0.0359696149826
-0.00144958496094	1.29036009312	0.336551189423	-0.143702983856	1.58125448227	0.0366351604462
0.0149812698364	1.2902957201	0.347248315811	-0.145191907883	1.58250367641	0.0372964143753
0.0219333171844	1.28546798229	0.351822018623	-0.146978378296	1.58421683311	0.0376977920532
0.0223212242126	1.28358888626	0.352027177811	-0.149055480957	1.58673894405	0.0377535820007
0.0205190181732	1.28409445286	0.352735519409	-0.151234865189	1.58907079697	0.0369880199432
0.018449306488	1.28637075424	0.353759765625	-0.152612686157	1.59053325653	0.0358915328979
0.0155029296875	1.28983342648	0.355247020721	-0.152992248535	1.59167194366	0.0353662967682
0.0102949142456	1.29574370384	0.356086611748	-0.15343952179	1.59278988838	0.0355449914932
0.00258255004883	1.30331885815	0.355395913124	-0.154346704483	1.59498357773	0.0356098413467
-0.00646448135376	1.31126856804	0.353584885597	-0.155829429626	1.59731543064	0.0351061820984
-0.0177772045135	1.3196542263	0.34931576252	-0.156887054443	1.59968233109	0.0342719554901
-0.0293681621552	1.33036994934	0.343748092651	-0.157335519791	1.60165309906	0.0329155921936
-0.0394158363342	1.34407293797	0.33722615242	-0.157346725464	1.60305941105	0.0318262577057
-0.0485105514526	1.35881865025	0.329503178596	-0.157248497009	1.60397982597	0.0312008857727
-0.0556166172028	1.36944079399	0.322382926941	-0.157564640045	1.60394489765	0.030703663826
-0.0574469566345	1.37411499023	0.319743394852	-0.157700777054	1.6034181118	0.0307891368866
-0.0520033836365	1.37953031063	0.321411371231	-0.158063411713	1.6033526659	0.0309863090515
-0.0449457168579	1.38081908226	0.325800299644	-0.158947944641	1.60347473621	0.0310897827148
-0.041898727417	1.38271665573	0.325300812721	-0.159875869751	1.60413384438	0.0311591625214
-0.0425264835358	1.38605976105	0.323432445526	-0.160807609558	1.60481584072	0.0307521820068
-0.0458238124847	1.39092862606	0.320473074913	-0.161856889725	1.6059281826	0.0298023223877
-0.0502300262451	1.39451801777	0.318064212799	-0.16296339035	1.60757863522	0.0280591249466
-0.0544130802155	1.39528238773	0.316567897797	-0.163896560669	1.60960674286	0.0260584354401
-0.056601524353	1.39472556114	0.316268801689	-0.164346933365	1.61136603355	0.0239703655243
-0.0578029155731	1.39437973499	0.315614104271	-0.164242744446	1.61234819889	0.0219874382019
-0.0589509010315	1.3946287632	0.313862800598	-0.16431760788	1.61281824112	0.0204801559448
-0.0603322982788	1.39425373077	0.312351107597	-0.164349079132	1.61290597916	0.0191706418991
-0.0616953372955	1.39358687401	0.311649918556	-0.16477060318	1.61283063889	0.0181660652161
-0.0636360645294	1.39293158054	0.309982776642	-0.165547847748	1.61270821095	0.0172650814056
-0.065943479538	1.39194178581	0.308613061905	-0.166528224945	1.61237287521	0.0167809724808
-0.0680558681488	1.39086008072	0.307747125626	-0.167006492615	1.61189198494	0.0163885354996
-0.0704920291901	1.39051485062	0.306704282761	-0.166946172714	1.6116451025	0.0162171125412
-0.0706007480621	1.39173412323	0.306113839149	-0.166394948959	1.61159455776	0.0163849592209
-0.0668966770172	1.39390277863	0.307448148727	-0.166162252426	1.61144006252	0.0168206691742
-0.0612938404083	1.39708137512	0.307493567467	-0.1654920578	1.61131107807	0.0176696777344
-0.0557012557983	1.40093970299	0.305443406105	-0.164491415024	1.61131119728	0.0187448263168
-0.0495588779449	1.40767705441	0.301736116409	-0.163373708725	1.61108756065	0.0202803611755
-0.0414187908173	1.41620957851	0.298124313354	-0.162043094635	1.61049771309	0.0219373703003
-0.0410478115082	1.41910684109	0.295536994934	-0.161179065704	1.60948753357	0.0233498811722
-0.0453765392303	1.41764974594	0.295076370239	-0.161039829254	1.60841751099	0.0245428085327
-0.0511364936829	1.41569709778	0.292924165726	-0.161499500275	1.60756075382	0.0254360437393
-0.0537948608398	1.41521859169	0.29246711731	-0.161965370178	1.60736238956	0.0258234739304
-0.0512456893921	1.41961431503	0.292445421219	-0.16185426712	1.60743415356	0.0260031223297
-0.0457527637482	1.42295384407	0.29537820816	-0.161690950394	1.60768306255	0.0259020328522
-0.0448746681213	1.42456889153	0.294362068176	-0.161809921265	1.60786128044	0.0256071090698
-0.0433115959167	1.42906737328	0.292599320412	-0.161754131317	1.60831236839	0.0251996517181
-0.041877746582	1.43241620064	0.291655063629	-0.16140460968	1.60937452316	0.0248212814331
-0.0438635349274	1.43136370182	0.290928959846	-0.160937547684	1.61070156097	0.0238270759583
-0.0462334156036	1.42752850056	0.293099164963	-0.160590648651	1.61173176765	0.0222115516663
-0.0461292266846	1.42378664017	0.296855092049	-0.160383462906	1.61239612103	0.0202178955078
-0.0455300807953	1.42230784893	0.298279523849	-0.159695148468	1.61321890354	0.0175062417984
-0.0444142818451	1.42152297497	0.299083948135	-0.158918142319	1.61410570145	0.0134453773499
-0.0427391529083	1.42077517509	0.299167513847	-0.158527374268	1.61451148987	0.00952184200287
-0.0416219234467	1.41898775101	0.298823595047	-0.1582903862	1.61353290081	0.00661551952362
-0.0418970584869	1.41739463806	0.297292709351	-0.157543182373	1.6121288538	0.00475025177002
-0.0422649383545	1.41661143303	0.295500278473	-0.156202316284	1.61071455479	0.00339233875275
-0.0426881313324	1.41552865505	0.294399380684	-0.155111074448	1.60960352421	0.00209486484528
-0.043580532074	1.41384887695	0.294626712799	-0.154839754105	1.60849738121	0.00121593475342
-0.0458464622498	1.41179358959	0.293845534325	-0.155084609985	1.60765755177	-5.03063201904e-05
-0.0488483905792	1.40952563286	0.292365550995	-0.155230283737	1.60770225525	-0.00128877162933
-0.0500597953796	1.40766918659	0.291453957558	-0.154871940613	1.6082495451	-0.00282454490662
-0.05109167099	1.40653240681	0.291647076607	-0.15367770195	1.60829019547	-0.00407886505127
-0.0518147945404	1.40716385841	0.290872693062	-0.151903390884	1.60829460621	-0.00496876239777
-0.0524587631226	1.40741658211	0.290617585182	-0.151406049728	1.6060192585	-0.00452446937561
-0.0538358688354	1.40728259087	0.290071368217	-0.15328335762	1.6030728817	-0.00291562080383
-0.0556426048279	1.40869247913	0.289213299751	-0.157208919525	1.60187900066	-0.00153064727783
-0.0579733848572	1.4095031023	0.28883099556	-0.161055803299	1.60159599781	-0.000554800033569
-0.0624475479126	1.4088075161	0.287942409515	-0.163359165192	1.6016061306	0.000245094299316
-0.0660789012909	1.40323603153	0.291110634804	-0.163448572159	1.60149669647	0.00111293792725
-0.0630438327789	1.40278244019	0.294988155365	-0.163036346436	1.60176992416	0.00205087661743
-0.054589509964	1.41238999367	0.294914007187	-0.162561893463	1.60210847855	0.00333595275879
-0.0417830944061	1.42204356194	0.298789381981	-0.162474632263	1.60218548775	0.00457549095154
-0.0344305038452	1.42655205727	0.302661180496	-0.162553548813	1.60235655308	0.00577557086945
-0.0337674617767	1.42936873436	0.303243875504	-0.163209676743	1.60300004482	0.00709223747253
-0.0349881649017	1.43173122406	0.304314494133	-0.164409637451	1.60363793373	0.00823199748993
-0.0377430915833	1.43306612968	0.304096341133	-0.165309429169	1.60400247574	0.00945639610291
-0.0413038730621	1.43394362926	0.301908254623	-0.165736913681	1.60415124893	0.0109149217606
-0.0424013137817	1.43507754803	0.300403356552	-0.16597867012	1.60381662846	0.0120937824249
-0.0439977645874	1.4349694252	0.298668861389	-0.165914058685	1.60335147381	0.0130721330643
-0.0458390712738	1.43177247047	0.299584150314	-0.16535782814	1.60317027569	0.0141844749451
-0.0490293502808	1.42707288265	0.299127101898	-0.164739608765	1.60331881046	0.0154539346695
-0.0516958236694	1.42118573189	0.298916578293	-0.163904428482	1.60394239426	0.0165224075317
-0.0547235012054	1.41557538509	0.299372315407	-0.163018465042	1.60462486744	0.0177354812622
-0.0554203987122	1.41545498371	0.298442006111	-0.16202044487	1.60620212555	0.0184239149094
-0.0562069416046	1.41577708721	0.298178911209	-0.161219835281	1.60786056519	0.0186980962753
-0.0561935901642	1.41590762138	0.298841238022	-0.160374164581	1.60955536366	0.0185412168503
-0.0565028190613	1.41509389877	0.30006980896	-0.159786224365	1.61113655567	0.0176758766174
-0.0568525791168	1.41403532028	0.301908373833	-0.158747673035	1.61284208298	0.0166397094727
-0.0573217868805	1.41381442547	0.30357837677	-0.15717959404	1.61473858356	0.0150866508484
-0.0580716133118	1.41380393505	0.305266141891	-0.15491104126	1.61713588238	0.0130121707916
-0.0584423542023	1.41396522522	0.306947469711	-0.152462005615	1.61933469772	0.0100831985474
-0.0587635040283	1.41424429417	0.307614326477	-0.150572299957	1.62118434906	0.00683999061584
-0.0575001239777	1.41489565372	0.30877661705	-0.148965358734	1.62183082104	0.00450468063354
-0.0549232959747	1.41349434853	0.31260573864	-0.147805690765	1.62168955803	0.00341367721558
-0.0511662960052	1.41174328327	0.316365480423	-0.14701628685	1.62116348743	0.00289392471313
-0.04984998703	1.41707861423	0.312141656876	-0.146854877472	1.62062239647	0.00291895866394
