-0.0934000015259	1.16498970985	0.206032752991	-0.136159658432	1.57584702969	-0.0195261240005
-0.0936629772186	1.16395545006	0.206164956093	-0.135574102402	1.57600677013	-0.019593834877
-0.0942702293396	1.16362273693	0.20596241951	-0.135289430618	1.57608366013	-0.0195362567902
-0.0941424369812	1.16417849064	0.206404209137	-0.135204792023	1.57618939877	-0.0194501876831
-0.0943338871002	1.16413116455	0.207941532135	-0.135707616806	1.57587993145	-0.0191049575806
-0.096310377121	1.16152572632	0.21632039547	-0.137089252472	1.57558190823	-0.0187072753906
-0.101962804794	1.15207409859	0.233431220055	-0.139592647552	1.57538712025	-0.0181375741959
-0.111631155014	1.13325405121	0.249659657478	-0.143306016922	1.57520210743	-0.0175285339355
-0.124424934387	1.11326670647	0.257219791412	-0.148480176926	1.57490539551	-0.0173356533051
-0.143751144409	1.09937703609	0.253358483315	-0.153846502304	1.57477533817	-0.0176236629486
-0.165659427643	1.09318459034	0.243678092957	-0.159016132355	1.57440662384	-0.0184831619263
-0.185938119888	1.09323847294	0.232551574707	-0.163367033005	1.57414484024	-0.0197608470917
-0.202938318253	1.09701704979	0.220524311066	-0.166737318039	1.57419848442	-0.0208501815796
-0.217234611511	1.09798586369	0.206016778946	-0.169530630112	1.5745818615	-0.0217273235321
-0.227560043335	1.09586811066	0.193188905716	-0.172232866287	1.57487905025	-0.0224483013153
-0.234569072723	1.09409844875	0.182487010956	-0.174500226974	1.57527494431	-0.0226945877075
-0.23939037323	1.09444761276	0.174893736839	-0.176085472107	1.57515883446	-0.0224581956863
-0.241559267044	1.09615397453	0.171432495117	-0.177390098572	1.57538127899	-0.0222401618958
-0.242398500443	1.10009074211	0.170420646667	-0.179003953934	1.57569038868	-0.0223159790039
-0.243118524551	1.10339021683	0.171751737595	-0.181190729141	1.57580506802	-0.0226984024048
-0.243410348892	1.10726010799	0.17150247097	-0.183290958405	1.57575666904	-0.0238122940063
-0.243622303009	1.10915982723	0.170913696289	-0.185478448868	1.57613301277	-0.0248694419861
-0.243284225464	1.11110389233	0.170741796494	-0.187410831451	1.57642018795	-0.026228427887
-0.242231607437	1.11386370659	0.170784711838	-0.188998699188	1.57653510571	-0.027557015419
-0.241055011749	1.11536741257	0.171357870102	-0.18933391571	1.57631242275	-0.0282561779022
-0.239758014679	1.11372160912	0.174116611481	-0.188806533813	1.57582747936	-0.0287790298462
-0.236882686615	1.11300182343	0.179914832115	-0.187894582748	1.57548892498	-0.028913974762
-0.234861850739	1.11284148693	0.18314909935	-0.187459945679	1.57567572594	-0.0294599533081
-0.233501911163	1.11094486713	0.187060952187	-0.187673807144	1.57597827911	-0.030876159668
-0.228919744492	1.11288583279	0.191373586655	-0.187507629395	1.5760974884	-0.032609462738
-0.223378181458	1.11761915684	0.193729639053	-0.186351060867	1.57573366165	-0.0338144302368
