0.0	-0.0	146.206436157	54.48229599	83.6316299438	-16.9329471588
0.0	-0.0	147.004180908	53.8616523743	84.6087341309	-16.3997955322
0.0	-0.0	146.233169556	53.4429168701	84.7652816772	-16.3033885956
0.0	-0.0	144.284011841	52.017868042	85.5725250244	-16.1525802612
0.0	-0.0	134.187927246	47.9256591797	87.2467575073	-14.8964710236
0.0	-0.0	127.152931213	-138.771133423	89.4687728882	166.667495728
0.0	-0.0	122.993896484	-145.797668457	84.9492492676	167.372680664
0.0	-0.0	117.162460327	-152.543624878	79.8074264526	168.266174316
0.0	-0.0	116.709617615	-159.046356201	74.5520935059	168.66317749
0.0	-0.0	117.30821228	-165.779571533	69.6860580444	168.898620605
0.0	-0.0	118.291130066	-172.480224609	64.9878768921	168.736923218
0.0	-0.0	120.182846069	-178.592681885	60.365562439	168.851867676
0.0	-0.0	123.523086548	176.233596802	56.3177566528	169.216583252
0.0	-0.0	126.773025513	173.024414062	53.4003410339	169.510665894
0.0	-0.0	129.900466919	170.242477417	51.3880157471	170.635681152
0.0	-0.0	131.322509766	166.872329712	50.4514465332	172.099746704
0.0	-0.0	130.713119507	165.555969238	49.5366249084	173.25642395
0.0	-0.0	110.146690369	168.621932983	49.2336235046	174.551696777
