0.0	-0.0	144.738021851	-108.257865906	87.7612762451	177.642684937
0.0	-0.0	144.543533325	-108.976463318	88.0612258911	177.973144531
0.0	-0.0	144.636886597	-109.491539001	88.8148803711	177.920684814
0.0	-0.0	144.854034424	-109.353996277	89.0682220459	177.806915283
0.0	-0.0	144.851150513	-109.03704834	88.713394165	177.777542114
0.0	-0.0	141.283172607	-109.494918823	86.9870452881	177.844894409
0.0	-0.0	129.522033691	-110.897064209	84.5285949707	178.541427612
0.0	-0.0	101.323623657	-113.415893555	81.1312103271	179.697143555
0.0	-0.0	63.6614570618	-116.47013855	76.9952697754	-178.980117798
0.0	-0.0	43.7284088135	-120.116065979	72.0018997192	-177.520050049
0.0	-0.0	37.8069190979	-124.514480591	67.5806350708	-175.780593872
0.0	-0.0	41.3235244751	-129.095687866	63.5759735107	-174.349060059
0.0	-0.0	50.381942749	-133.096420288	61.0540771484	-172.72555542
0.0	-0.0	58.7468452454	-136.723968506	59.0431175232	-171.449157715
0.0	-0.0	67.8101119995	-139.688903809	56.2500686646	-170.588775635
0.0	-0.0	77.8133087158	-142.225982666	53.2515907288	-170.25843811
0.0	-0.0	90.0080490112	-144.219070435	50.3790473938	-170.087722778
0.0	-0.0	100.535575867	-146.045883179	48.1123504639	-169.168029785
0.0	-0.0	105.444007874	-147.304000854	46.1936607361	-168.973220825
0.0	-0.0	103.937011719	-147.653015137	44.9312019348	-169.059463501
0.0	-0.0	88.0768051147	-146.941864014	43.8317642212	-169.201095581
0.0	-0.0	72.1825485229	-145.665390015	42.9735641479	-169.25201416
0.0	-0.0	64.7787322998	-144.495422363	42.7839317322	-168.894866943
0.0	-0.0	63.339630127	-143.78894043	41.6482772827	-168.319778442
0.0	-0.0	61.9784317017	-143.588409424	40.2283058167	-167.694000244
0.0	-0.0	61.3066902161	-143.798278809	38.9051742554	-167.544418335
0.0	-0.0	59.8014411926	-143.477279663	37.9664840698	-167.234512329
0.0	-0.0	58.8504753113	-143.678695679	36.4561805725	-167.299636841
0.0	-0.0	57.5003852844	-143.761199951	34.6411399841	-167.661743164
0.0	-0.0	56.632144928	-143.185531616	28.9718132019	-168.492889404
0.0	-0.0	56.569229126	-143.354476929	21.6009712219	-169.64616394
0.0	-0.0	56.7584037781	-144.004180908	15.3729076385	-170.699661255
0.0	-0.0	56.8639297485	-145.441299438	12.0534620285	-170.970199585
