0.0716745853424	1.20991337299	-0.0458476543427	-0.0613014698029	1.58008086681	-0.254941701889
0.0640072822571	1.20569181442	-0.0490942001343	-0.0622062683105	1.5793697834	-0.254093408585
0.0576388835907	1.20240962505	-0.0501217842102	-0.0637474060059	1.5769854784	-0.251616001129
0.0543406009674	1.20372152328	-0.0509459972382	-0.0653772354126	1.57477283478	-0.248610854149
0.0517449378967	1.20538163185	-0.050434589386	-0.0670557022095	1.57396447659	-0.246007680893
0.0493586063385	1.20722711086	-0.0492768287659	-0.0689148902893	1.57463228703	-0.244572877884
0.0463690757751	1.20801842213	-0.0462498664856	-0.0709953308105	1.57551455498	-0.243977308273
0.0444486141205	1.20495676994	-0.0365589857101	-0.0733444690704	1.57649421692	-0.243367910385
0.0466582775116	1.1973785162	-0.0176455974579	-0.0761911869049	1.57752048969	-0.241741418839
0.0512804985046	1.19019150734	-0.00435054302216	-0.0787718296051	1.57781791687	-0.239772796631
0.0549178123474	1.1880300045	0.000979423522949	-0.0808775424957	1.5777682066	-0.237314224243
0.0553433895111	1.18924593925	0.00119960308075	-0.0825841426849	1.57765328884	-0.234964609146
0.0556163787842	1.19062435627	0.00177502632141	-0.083487033844	1.5772434473	-0.23299908638
0.0565876960754	1.19158923626	0.00254857540131	-0.0836887359619	1.57719993591	-0.231163263321
0.0568940639496	1.19101381302	0.0032787322998	-0.0835719108582	1.57679152489	-0.229767799377
