-28.3946361542	-76.7590789795	133.897506714	3.59725546837	-1.06202757359	-4.64420461655
-28.1127414703	-76.9060897827	133.68649292	3.4390027523	-1.06756591797	-4.53126192093
-27.3781509399	-76.8276596069	132.9737854	3.4352452755	-1.06880712509	-4.58277177811
-27.255563736	-76.3809127808	132.740661621	3.48212361336	-1.02188968658	-4.58999156952
-20.9390583038	-74.4551925659	125.746994019	3.30069184303	-1.19726455212	-4.4366736412
-6.34841346741	-67.6202087402	106.351257324	2.49330425262	-1.51970887184	-4.36533975601
0.400780022144	-52.8477325439	92.4809799194	0.452221482992	-2.01378297806	-4.11322927475
2.56391048431	-38.4898910522	84.3240280151	-2.81708192825	-2.76747512817	-3.97216248512
-0.213677898049	-30.311000824	81.5016937256	-6.59727954865	-3.88788223267	-3.78885173798
-6.77885818481	-32.4276847839	86.8043899536	-10.3842382431	-5.39117383957	-3.42948317528
-11.6310777664	-36.2336616516	90.5439987183	-13.6579637527	-6.99646234512	-3.11915683746
-17.3860721588	-40.3255004883	96.4564819336	-15.9004936218	-8.44273757935	-2.60593032837
-21.81498909	-43.2144508362	100.067779541	-17.219499588	-9.60787200928	-2.17547035217
-23.1526451111	-45.0969047546	100.635421753	-17.7914524078	-10.7620019913	-1.86257112026
