-78.080871582	-42.1145706177	141.928115845	3.77288079262	-1.85493779182	-4.01116943359
-78.1920700073	-42.1380882263	141.637832642	3.52208209038	-1.76692247391	-3.91324090958
-78.4222640991	-42.1679725647	141.688278198	3.32473707199	-1.23154115677	-3.77430963516
-77.8447189331	-42.2434196472	140.705444336	3.14934682846	-1.1073693037	-3.68071269989
-73.2679367065	-44.193397522	132.775756836	2.78154993057	-1.2657405138	-3.59830236435
-53.1946029663	-46.9554672241	101.144271851	1.48983824253	-1.16781902313	-3.4634373188
-37.45652771	-45.1895294189	78.4968643188	-1.17283058167	-1.16251063347	-3.16970896721
-33.9717445374	-41.7638092041	70.7671890259	-5.21100854874	-1.11709749699	-2.6579041481
-38.130897522	-39.6218261719	70.6541290283	-9.78327655792	-0.900305211544	-2.25129008293
-47.5718765259	-37.7679748535	69.0603256226	-14.0321273804	-0.50068551302	-1.83842158318
-56.6277732849	-33.8774185181	65.7986831665	-17.5096549988	-0.0413871407509	-1.38409924507
-61.8420333862	-30.7282218933	62.5627632141	-20.093547821	0.197493121028	-0.925949037075
-67.5659561157	-28.7648143768	62.366065979	-22.3127040863	0.192189320922	-0.524770975113
-71.1632614136	-27.94789505	63.0794372559	-24.427532196	0.103420197964	-0.239869967103
