-0.102838754654	1.16381299496	0.189526438713	-0.139759540558	1.57878470421	-0.0313336849213
-0.102133750916	1.16372776031	0.189410209656	-0.139619827271	1.57878601551	-0.0311825275421
-0.102653026581	1.16372954845	0.190043330193	-0.139196872711	1.57865893841	-0.0305520296097
-0.10275053978	1.16392457485	0.191689729691	-0.138701915741	1.57889068127	-0.0296070575714
-0.103152751923	1.1636377573	0.199050307274	-0.138108491898	1.58002018929	-0.0279786586761
-0.102537631989	1.16346538067	0.220578193665	-0.136889457703	1.58248579502	-0.0263959169388
-0.0992887020111	1.15691447258	0.247479081154	-0.135679006577	1.58610582352	-0.0253751277924
-0.0989935398102	1.1464663744	0.260849118233	-0.134810209274	1.59049725533	-0.0252244472504
-0.0986940860748	1.15123546124	0.259835600853	-0.134236097336	1.59509658813	-0.0255646705627
-0.0994284152985	1.15726518631	0.258904695511	-0.133481502533	1.59866380692	-0.0263888835907
-0.0983788967133	1.16453611851	0.259403944016	-0.132603168488	1.60131967068	-0.0271549224854
-0.0980429649353	1.16870176792	0.25994348526	-0.132053375244	1.60364174843	-0.0277647972107
-0.0975646972656	1.17055976391	0.259603261948	-0.131159305573	1.60551714897	-0.028710603714
