-73.68800354	-50.6851425171	142.318008423	3.24898314476	0.881177127361	-4.21922683716
-73.5763473511	-50.5065040588	142.005554199	3.35383725166	0.754765689373	-4.29771614075
-73.8174591064	-50.3024139404	142.152420044	3.42589592934	0.709039449692	-4.36576700211
-73.8207626343	-50.4099845886	142.255157471	3.44743084908	0.701600432396	-4.43220949173
-72.8863067627	-50.3224639893	141.086868286	3.35751891136	0.788558661938	-4.35479307175
-66.6445846558	-49.2564086914	130.1224823	2.63783454895	0.954291880131	-4.1467666626
-53.6875534058	-44.3418960571	105.655342102	1.03458285332	1.15844786167	-3.90489459038
-44.0326271057	-34.0922279358	83.9061965942	-1.42772817612	1.36554682255	-3.45643544197
-39.549621582	-23.2967910767	68.2087402344	-4.65187978745	1.52313697338	-3.03439998627
-41.6078033447	-16.4929847717	60.3141441345	-8.05896568298	1.65954589844	-2.68624186516
-46.1331138611	-14.0397939682	58.0217666626	-11.2733802795	1.80949139595	-2.27098703384
-50.0153236389	-13.4866523743	55.1214103699	-14.0364027023	1.87910079956	-1.85060989857
-53.5826148987	-14.0469474792	54.3720245361	-16.2145366669	1.78941941261	-1.49201273918
-59.592010498	-14.7632761002	60.667049408	-17.9248981476	1.49934792519	-1.0804131031
-65.5282669067	-14.8330640793	69.8231277466	-19.4391098022	1.22190332413	-0.73493206501
-70.4734039307	-14.6163434982	77.4957809448	-20.4361419678	0.973501443863	-0.530596613884
-74.071105957	-15.0564727783	83.4420700073	-20.7979793549	0.912915766239	-0.389725416899
-75.9501266479	-16.2885532379	86.5922622681	-21.0213222504	0.787881076336	-0.29161760211
-76.4904556274	-17.9910507202	87.0502243042	-21.526927948	0.573201298714	-0.135387480259
-75.8072357178	-18.8971366882	85.7822189331	-22.340215683	0.448767483234	0.00533121591434
-75.7038421631	-20.0321712494	84.9684448242	-23.3537712097	0.38961943984	0.0422548167408
-75.6059799194	-20.6664085388	84.6630172729	-24.5193653107	0.174346610904	0.0538917817175
-75.2093658447	-21.4079189301	83.8904724121	-25.6795387268	-0.0283876713365	0.101371057332
-74.5851898193	-22.2359104156	83.0916595459	-26.5183010101	-0.232106119394	0.051978059113
-73.8382797241	-22.5387535095	82.5354156494	-26.3369922638	-0.156063839793	0.147388353944
-72.1634979248	-21.5966815948	82.5387420654	-25.5329017639	0.118933327496	0.383350551128
-68.8284378052	-20.4277191162	82.6910247803	-24.5302047729	0.253536432981	0.654138982296
-66.8128890991	-19.3660430908	85.3360290527	-24.319726944	0.185301557183	0.735826730728
-65.7755432129	-18.3182964325	95.9883575439	-24.8165512085	0.0257719755173	0.784107923508
-64.7482223511	-19.6891174316	104.575645447	-25.2461338043	-0.138449668884	0.811552345753
-61.2192192078	-21.6192016602	91.8552093506	-25.0297050476	0.0562660805881	0.811750233173
