0.106498003006	1.24666178226	-0.0748100280762	-0.0713531970978	1.57837224007	-0.247994184494
0.107391834259	1.24691975117	-0.0760833024979	-0.0710752010345	1.57916212082	-0.248502254486
0.108064651489	1.2462053299	-0.0748682022095	-0.0705690383911	1.57941150665	-0.248863816261
0.10834145546	1.24463129044	-0.0692944526672	-0.0706679821014	1.57897126675	-0.249361276627
0.106931209564	1.23457384109	-0.0481057167053	-0.0718729496002	1.57692265511	-0.249356865883
0.1027739048	1.21189677715	-0.0207231044769	-0.0748205184937	1.57349681854	-0.249445319176
0.091521024704	1.19652247429	-0.0142643451691	-0.0790460109711	1.57034754753	-0.249284505844
0.0768158435822	1.18789219856	-0.0159556865692	-0.083732843399	1.56797778606	-0.249079227448
0.0683362483978	1.18781149387	-0.019992351532	-0.0882148742676	1.56655657291	-0.248527765274
0.0666902065277	1.1937110424	-0.025340795517	-0.0921900272369	1.5648983717	-0.248462677002
0.0641975402832	1.19966256618	-0.0337746143341	-0.0947394371033	1.56302046776	-0.24805021286
0.0641031265259	1.19969141483	-0.0315387248993	-0.096476316452	1.56111216545	-0.247876167297
0.0692341327667	1.18769431114	-0.0163486003876	-0.0980143547058	1.559471488	-0.248170852661
0.0687174797058	1.17543923855	-0.0123007297516	-0.0999979972839	1.55832827091	-0.24800491333
0.0648188591003	1.17066335678	-0.0137702226639	-0.102469444275	1.55760753155	-0.247254371643
0.0633640289307	1.17087435722	-0.0150179862976	-0.105216264725	1.55645811558	-0.247024536133
0.0650370121002	1.17746174335	-0.0170435905457	-0.107282876968	1.5550814867	-0.247415781021
0.0656733512878	1.18313658237	-0.0203471183777	-0.108322381973	1.55377209187	-0.248356103897
0.0685985088348	1.1909224987	-0.0222191810608	-0.108823776245	1.55219995975	-0.248719930649
0.0705082416534	1.19616270065	-0.0234296321869	-0.108583450317	1.5494505167	-0.24910390377
