0.0	-0.0	138.319015503	-132.399276733	87.4188919067	163.932174683
0.0	-0.0	139.345428467	-131.410705566	88.997215271	163.394485474
0.0	-0.0	139.187088013	-130.889526367	89.9633789062	163.277526855
0.0	-0.0	139.110656738	-131.00819397	89.8012619019	163.552322388
0.0	-0.0	138.867782593	-130.713851929	89.3653793335	163.526794434
0.0	-0.0	135.011535645	-129.618255615	89.1406326294	163.316833496
0.0	-0.0	126.018531799	-126.547897339	89.9634399414	163.185653687
0.0	-0.0	119.99331665	58.8086090088	85.8717956543	-16.7636222839
0.0	-0.0	112.961425781	65.4230194092	79.0573196411	-16.9252986908
0.0	-0.0	105.949790955	72.8038101196	72.4459152222	-16.9287853241
0.0	-0.0	99.2581558228	79.6232681274	68.3753356934	-17.2343120575
0.0	-0.0	96.7770462036	85.1902694702	66.5195541382	-17.5012607574
