0.0661797523499	1.20419430733	-0.0652287006378	-0.068915605545	1.58015477657	-0.229790210724
0.065854549408	1.20447707176	-0.0644464492798	-0.0703608989716	1.57999038696	-0.229018807411
0.0648663043976	1.20482385159	-0.0625445842743	-0.0723206996918	1.58041787148	-0.228893518448
0.0620279312134	1.20437049866	-0.0609931945801	-0.0743622779846	1.58047258854	-0.229009151459
0.0575609207153	1.20199275017	-0.0543060302734	-0.0770835876465	1.58045530319	-0.229761958122
0.0498414039612	1.19594550133	-0.0439401865005	-0.0810027122498	1.58093583584	-0.230915784836
0.0370132923126	1.18383252621	-0.0359432697296	-0.0865142345428	1.58186554909	-0.232307553291
0.0250058174133	1.15814960003	-0.018096446991	-0.0931622982025	1.58330416679	-0.234697341919
0.019891500473	1.13160979748	-0.00251007080078	-0.100113868713	1.5855897665	-0.23748755455
0.011048078537	1.11661851406	0.000231266021729	-0.106360912323	1.58862793446	-0.240838646889
-0.0012264251709	1.11545646191	-0.00482368469238	-0.110945701599	1.59192490578	-0.243943452835
-0.0112743377686	1.11984407902	-0.00869727134705	-0.113945960999	1.59438800812	-0.246933460236
