0.0	-0.0	143.747665405	57.599937439	86.5563659668	-8.95842933655
0.0	-0.0	143.684539795	58.2296180725	86.7084274292	-9.16078472137
0.0	-0.0	143.251144409	58.5109710693	86.922958374	-8.824634552
0.0	-0.0	141.983184814	57.4131507874	87.6697158813	-8.6663274765
0.0	-0.0	134.440231323	53.3994407654	89.0348892212	-7.71078395844
0.0	-0.0	127.000541687	-134.204696655	88.3696289062	173.828155518
0.0	-0.0	125.041366577	-143.727798462	84.5606079102	175.420959473
0.0	-0.0	125.298667908	-153.095840454	80.0108032227	176.73789978
0.0	-0.0	126.542160034	-161.709136963	74.1242141724	177.495849609
0.0	-0.0	126.086532593	-168.918869019	68.32371521	178.091033936
0.0	-0.0	126.185325623	-174.387329102	62.4018630981	178.784912109
0.0	-0.0	126.768028259	-178.386627197	55.8448905945	179.659347534
0.0	-0.0	126.796325684	178.332595825	49.9989089966	-178.913024902
0.0	-0.0	126.851173401	175.264297485	45.8933181763	-178.016433716
0.0	-0.0	121.186950684	172.664505005	43.4814071655	-177.268249512
