0.0566029548645	1.37452995777	0.327436089516	-0.135426044464	1.58265221119	0.0464999675751
0.0533785820007	1.37344074249	0.32758140564	-0.134754896164	1.58227646351	0.0465660095215
0.0514116287231	1.37421095371	0.326818227768	-0.134261846542	1.58236598969	0.0463693141937
0.0502500534058	1.37531101704	0.326438546181	-0.133606433868	1.58277952671	0.0460493564606
0.0495126247406	1.37536633015	0.326166272163	-0.132820129395	1.58297371864	0.0456528663635
0.0490925312042	1.37421834469	0.32733976841	-0.132740736008	1.58239603043	0.0457122325897
0.0501027107239	1.36804187298	0.332931160927	-0.133684396744	1.58080875874	0.0462598800659
0.0496261119843	1.34679305553	0.343175888062	-0.135724306107	1.57840752602	0.0474298000336
0.0451321601868	1.30820155144	0.353772759438	-0.138689756393	1.57528138161	0.0486351251602
0.0341093540192	1.26245236397	0.359991908073	-0.141860246658	1.57186245918	0.0501061677933
0.0200800895691	1.22346758842	0.361223340034	-0.14496254921	1.56871747971	0.0517238378525
0.00569415092468	1.18624556065	0.35974407196	-0.147431612015	1.56647503376	0.0538228750229
-0.00918984413147	1.15337371826	0.354246973991	-0.149265289307	1.56449055672	0.0560520887375
-0.0225903987885	1.12681221962	0.343361616135	-0.150450468063	1.56275582314	0.0587570667267
-0.0328912734985	1.10714244843	0.332024097443	-0.151431083679	1.5610896349	0.0613760948181
-0.0390028953552	1.09281611443	0.324439287186	-0.152053117752	1.55996465683	0.0641909837723
-0.0365273952484	1.0946367979	0.326863288879	-0.151818275452	1.55956017971	0.0665836334229
-0.0118017196655	1.09071695805	0.340335249901	-0.151775836945	1.55907821655	0.069039106369
-0.00632810592651	1.07368481159	0.34183049202	-0.151336431503	1.55860686302	0.0706119537354
-0.00903487205505	1.06435596943	0.338841438293	-0.150786161423	1.55885410309	0.0718859434128
-0.017459154129	1.05149149895	0.333475708961	-0.150633573532	1.55819153786	0.0719109773636
-0.0264437198639	1.03818392754	0.326191544533	-0.150309085846	1.55672347546	0.0716485977173
-0.0353071689606	1.02890396118	0.317557930946	-0.149169445038	1.5538829565	0.0711870193481
-0.0412936210632	1.0267572403	0.310807704926	-0.148051261902	1.54997086525	0.0704754590988
-0.0447154045105	1.02742409706	0.306446313858	-0.146774530411	1.54517686367	0.0703070163727
-0.0467467308044	1.02997159958	0.30417740345	-0.145783901215	1.54006803036	0.0705380439758
-0.0487313270569	1.03247475624	0.302581310272	-0.144932031631	1.53515791893	0.0708568096161
-0.0510659217834	1.03394150734	0.300344824791	-0.143962621689	1.53204739094	0.0713894367218
-0.0529844760895	1.03609466553	0.299387931824	-0.142879962921	1.53139066696	0.0718616247177
-0.0509128570557	1.05139684677	0.302924156189	-0.141818761826	1.53212273121	0.0720553398132
-0.0380132198334	1.06752181053	0.311537861824	-0.140574216843	1.53280413151	0.071845293045
-0.0385499000549	1.06961405277	0.310184955597	-0.139848709106	1.53344941139	0.0707075595856
-0.0402770042419	1.07194113731	0.309479594231	-0.139814376831	1.53350365162	0.0697581768036
-0.0435383319855	1.07503318787	0.306637763977	-0.140412807465	1.5333429575	0.0685089826584
-0.0476920604706	1.07593107224	0.303105711937	-0.142269611359	1.53303682804	0.0671305656433
-0.0514054298401	1.07682931423	0.300539255142	-0.145198345184	1.53324759007	0.065623998642
-0.0539186000824	1.07879114151	0.299306154251	-0.14866065979	1.53471076488	0.0643227100372
-0.0543365478516	1.08028256893	0.29971408844	-0.151482105255	1.53675556183	0.0628960132599
-0.0542304515839	1.07950592041	0.299877643585	-0.153601884842	1.53946816921	0.0613551139832
-0.0544850826263	1.07843923569	0.299380779266	-0.155238389969	1.54207062721	0.0598864555359
-0.054838180542	1.07867491245	0.29838347435	-0.156658649445	1.54324233532	0.0583161115646
-0.056827545166	1.08031630516	0.295621395111	-0.157057523727	1.54275393486	0.0573444366455
-0.0573031902313	1.08564305305	0.293133020401	-0.156524658203	1.54232370853	0.0572578907013
-0.061137676239	1.09252166748	0.287246108055	-0.156491994858	1.54202818871	0.057760477066
-0.0666677951813	1.09296953678	0.282382726669	-0.156566619873	1.54195451736	0.0583999156952
-0.0680224895477	1.08740329742	0.28345656395	-0.157432079315	1.54218554497	0.0590116977692
-0.0666699409485	1.08711612225	0.283813595772	-0.158603668213	1.54176723957	0.0586168766022
-0.0643169879913	1.08602333069	0.283298492432	-0.159486293793	1.54063773155	0.057719707489
-0.0611310005188	1.08371412754	0.282217502594	-0.159749746323	1.5392819643	0.0566248893738
-0.0585045814514	1.08095252514	0.280860424042	-0.159538269043	1.53799211979	0.0552575588226
-0.057000875473	1.07934367657	0.279556751251	-0.15917134285	1.53649544716	0.053891658783
-0.0561056137085	1.07900071144	0.279328465462	-0.158254146576	1.53404211998	0.0521582365036
-0.0553815364838	1.07971787453	0.279764652252	-0.15687251091	1.53184878826	0.0504516363144
-0.0547227859497	1.08143758774	0.281841278076	-0.155064344406	1.53070700169	0.0491943359375
-0.0534799098969	1.08142948151	0.285027265549	-0.152827501297	1.53060925007	0.048669219017
-0.0528597831726	1.08132112026	0.286140680313	-0.151294946671	1.53082430363	0.0483047962189
-0.0510580539703	1.09306776524	0.288408517838	-0.151181221008	1.53183960915	0.0484727621078
-0.0542504787445	1.10426461697	0.284200191498	-0.151810407639	1.5324780941	0.0495007038116
-0.0562705993652	1.10698640347	0.282138824463	-0.152690649033	1.53275823593	0.0504829883575
-0.0562424659729	1.10388481617	0.283908247948	-0.153436183929	1.53303360939	0.0515348911285
-0.0542702674866	1.10217893124	0.285165905952	-0.154482603073	1.53335905075	0.0530202388763
-0.0544788837433	1.10173273087	0.284257173538	-0.155395507812	1.53338336945	0.0540547370911
-0.055410861969	1.10144865513	0.28368473053	-0.155826568604	1.53363668919	0.0548447370529
-0.0575039386749	1.10089802742	0.282329082489	-0.155653715134	1.53378272057	0.0556432008743
-0.0593218803406	1.10003638268	0.280465126038	-0.155007600784	1.53370416164	0.0569581985474
-0.0609436035156	1.09752094746	0.277686476707	-0.154351234436	1.53385996819	0.0585153102875
-0.0600442886353	1.0949805975	0.277459740639	-0.153263568878	1.53378999233	0.0601687431335
-0.0601325035095	1.09354031086	0.275976419449	-0.152152299881	1.53385806084	0.0618951320648
-0.0609288215637	1.09202349186	0.273513436317	-0.151402950287	1.53422749043	0.063800573349
-0.0611391067505	1.08968496323	0.272992372513	-0.150972604752	1.53429174423	0.0663461685181
-0.0590920448303	1.08566963673	0.273867607117	-0.150817871094	1.53383266926	0.0682026147842
-0.0558180809021	1.0833761692	0.275110602379	-0.151057004929	1.53396308422	0.0698534250259
-0.0545449256897	1.08166611195	0.27105474472	-0.151336431503	1.53474628925	0.0714410543442
-0.0515241622925	1.07867121696	0.270662069321	-0.151601076126	1.53580224514	0.0721346139908
-0.0485787391663	1.07399368286	0.272965312004	-0.151925325394	1.53661501408	0.0724391937256
-0.0490522384644	1.07132101059	0.270444273949	-0.152421236038	1.53667879105	0.0726144313812
-0.0515687465668	1.07311868668	0.268905520439	-0.153849363327	1.53580570221	0.0733541250229
-0.0536484718323	1.07252347469	0.268583774567	-0.155786514282	1.53448724747	0.0736441612244
-0.0546476840973	1.07200229168	0.269835472107	-0.156975746155	1.53322720528	0.0741527080536
-0.055499792099	1.0743213892	0.271709918976	-0.156980037689	1.53126037121	0.0744502544403
-0.0558907985687	1.07737934589	0.27425467968	-0.155804157257	1.52969825268	0.0750547647476
-0.055579662323	1.07921004295	0.277233242989	-0.152497768402	1.52835035324	0.07654774189
-0.0539789199829	1.08110547066	0.280638813972	-0.147874355316	1.52761793137	0.0785298347473
-0.0487365722656	1.0827524662	0.286648750305	-0.144032001495	1.52737867832	0.0799660682678
-0.0428800582886	1.08499228954	0.291319608688	-0.142147779465	1.52748692036	0.0809136629105
-0.0410764217377	1.08875155449	0.291080594063	-0.141695022583	1.52752840519	0.0811368227005
-0.040709733963	1.08922624588	0.290170192719	-0.14191198349	1.52735793591	0.0806090831757
-0.0416901111603	1.0882935524	0.290244460106	-0.142329931259	1.52518081665	0.07919049263
-0.0417346954346	1.09090769291	0.2922539711	-0.142538070679	1.52278017998	0.0779976844788
-0.041966676712	1.09322845936	0.293882727623	-0.14222741127	1.52017998695	0.0768659114838
-0.042159318924	1.09526264668	0.294460177422	-0.141740083694	1.51908040047	0.0763709545135
-0.0432696342468	1.09680294991	0.294330358505	-0.141330957413	1.52003860474	0.076637506485
-0.0459790229797	1.09736692905	0.292507648468	-0.140381813049	1.5220823288	0.076495885849
-0.0481100082397	1.09611940384	0.291857242584	-0.13697886467	1.52296388149	0.0759553909302
-0.0495958328247	1.09556424618	0.2914737463	-0.13148355484	1.5229395628	0.0749138593674
-0.0490760803223	1.09674167633	0.291971564293	-0.127534389496	1.52198922634	0.0733703374863
-0.0472648143768	1.09910082817	0.292556762695	-0.12693977356	1.52151584625	0.0720498561859
-0.0449810028076	1.1003600359	0.294085979462	-0.128792524338	1.52255749702	0.0714690685272
-0.0440611839294	1.09797978401	0.292639374733	-0.131703615189	1.52341413498	0.0706804990768
-0.0401263237	1.1013405323	0.295439481735	-0.134925603867	1.52359926701	0.0697340965271
-0.0407724380493	1.10708022118	0.291378378868	-0.137876987457	1.52420735359	0.0690453052521
-0.0416605472565	1.11271131039	0.288970351219	-0.140344381332	1.52422511578	0.0688858032227
-0.0416340827942	1.11334049702	0.290064930916	-0.142066001892	1.52357661724	0.0690281391144
-0.0392575263977	1.11264300346	0.293024897575	-0.143310308456	1.52340102196	0.0693026781082
-0.0387902259827	1.11221802235	0.293335318565	-0.144738197327	1.52378857136	0.0697693824768
