-0.0709726810455	1.15945589542	0.200776696205	-0.137670278549	1.57707536221	-0.019960641861
-0.0719451904297	1.15787684917	0.201289772987	-0.137722730637	1.57741653919	-0.0200855731964
-0.0730621814728	1.15841782093	0.201130270958	-0.137934923172	1.57711935043	-0.0199029445648
-0.0744678974152	1.15928852558	0.200912833214	-0.138381719589	1.57699406147	-0.0196108818054
-0.0757310390472	1.1600612402	0.20055437088	-0.138823270798	1.57682144642	-0.0193756818771
-0.076744556427	1.16056144238	0.200867176056	-0.139127731323	1.5765157938	-0.0191550254822
-0.0772924423218	1.16022539139	0.204196929932	-0.139911651611	1.57662439346	-0.0192569494247
-0.0773141384125	1.15618753433	0.221130490303	-0.141837596893	1.57657265663	-0.0192186832428
-0.0787880420685	1.14044201374	0.246197938919	-0.144869804382	1.57642889023	-0.0194652080536
-0.0830583572388	1.11255848408	0.265418291092	-0.149366140366	1.57600140572	-0.0199002027512
-0.0956509113312	1.09240758419	0.268707036972	-0.155078887939	1.57588219643	-0.0202696323395
-0.11404967308	1.08287274837	0.26350903511	-0.160985708237	1.57579517365	-0.0205516815186
-0.133368492126	1.08316171169	0.256235361099	-0.166828155518	1.57574021816	-0.0207158327103
-0.151048660278	1.0865778923	0.247740983963	-0.171575069427	1.57554864883	-0.0216541290283
-0.167390823364	1.09185028076	0.237486362457	-0.175610303879	1.57553088665	-0.022745847702
-0.178340673447	1.09726297855	0.228804111481	-0.179192066193	1.57561314106	-0.0241461992264
-0.184137582779	1.09920060635	0.223374009132	-0.182523488998	1.57618319988	-0.0256155729294
-0.184951543808	1.09859335423	0.221102952957	-0.185793399811	1.57701826096	-0.0269639492035
-0.183233737946	1.09723353386	0.220149159431	-0.188435077667	1.5774948597	-0.0281026363373
-0.180965423584	1.09737598896	0.219306111336	-0.190269231796	1.57756137848	-0.0290200710297
-0.178897857666	1.10036897659	0.217794418335	-0.190626144409	1.57726764679	-0.0292899608612
