0.0	-0.0	138.449707031	-116.115501404	85.5763626099	176.390701294
0.0	-0.0	138.359970093	-116.012542725	86.4358596802	175.847229004
0.0	-0.0	138.338180542	-115.691131592	86.6249313354	175.357025146
0.0	-0.0	138.463897705	-115.953193665	86.5201873779	175.165237427
0.0	-0.0	138.210281372	-116.346336365	86.3898620605	174.989181519
0.0	-0.0	136.3203125	-116.390647888	85.5780258179	175.102828979
0.0	-0.0	122.074028015	-116.554397583	84.5735855103	175.333984375
0.0	-0.0	95.8962173462	-117.143104553	83.1327896118	175.734024048
0.0	-0.0	73.969367981	-118.520133972	82.3978424072	176.508010864
0.0	-0.0	62.0596199036	-121.614494324	82.7284622192	177.695617676
0.0	-0.0	58.9526329041	-126.813575745	84.758026123	179.057403564
0.0	-0.0	58.3477325439	-133.301818848	86.7765655518	-179.447113037
0.0	-0.0	58.6405258179	-138.646270752	86.7179870605	-178.344894409
0.0	-0.0	60.2279510498	-142.484039307	86.2615890503	-177.685440063
