0.189788818359	1.09666645527	0.0260062217712	-0.0495450496674	1.53603923321	-0.220450758934
0.188320398331	1.0969722271	0.0251710414886	-0.0477035045624	1.53658998013	-0.221868276596
0.186996936798	1.0977383852	0.0241456031799	-0.0479187965393	1.53673553467	-0.223232030869
0.186404705048	1.09677445889	0.0228426456451	-0.048595905304	1.537545681	-0.225540757179
0.184403419495	1.09666717052	0.0220810174942	-0.0485692024231	1.53978097439	-0.227487683296
0.181268215179	1.09752702713	0.0209331512451	-0.0472657680511	1.54208004475	-0.228535890579
0.175989866257	1.09667992592	0.0192914009094	-0.0444738864899	1.54425871372	-0.228308916092
0.170004844666	1.09403264523	0.017160654068	-0.040938615799	1.54738652706	-0.227431774139
0.166050195694	1.0901504755	0.0147260427475	-0.0376355648041	1.55069673061	-0.227523565292
0.164464235306	1.08674490452	0.01254093647	-0.034656047821	1.55315721035	-0.227825284004
0.164267301559	1.08468079567	0.0106793642044	-0.0320870876312	1.55348789692	-0.228395104408
0.163382291794	1.0849634409	0.00924706459045	-0.0304555892944	1.55309140682	-0.228477597237
0.163427829742	1.0853112936	0.00832641124725	-0.0296802520752	1.55269443989	-0.227725744247
0.163417339325	1.0867587328	0.00784659385681	-0.0297660827637	1.55110311508	-0.227197170258
0.163755655289	1.08882153034	0.00780606269836	-0.0306539535522	1.55032324791	-0.226704955101
0.16401553154	1.08926773071	0.00786900520325	-0.0316898822784	1.5515229702	-0.227146148682
0.163918018341	1.08860456944	0.00828862190247	-0.0327596664429	1.55284285545	-0.228056073189
0.163333654404	1.08918333054	0.00898623466492	-0.0338625907898	1.55399239063	-0.229165792465
0.162354946136	1.08999300003	0.010039806366	-0.0349607467651	1.55457651615	-0.230430483818
0.161151170731	1.09148228168	0.0108077526093	-0.0362555980682	1.55547201633	-0.231286764145
0.159601688385	1.09233510494	0.0120751857758	-0.0374112129211	1.55615472794	-0.231347084045
0.158976793289	1.09227144718	0.0131847858429	-0.0385646820068	1.55679345131	-0.230826735497
0.158770799637	1.09244084358	0.0141416788101	-0.0401711463928	1.55642795563	-0.229620218277
0.158162117004	1.09302067757	0.0150054693222	-0.0418629646301	1.5546939373	-0.228629112244
0.157150268555	1.09585368633	0.0154159069061	-0.0425405502319	1.55372846127	-0.227783918381
0.152704238892	1.10120892525	0.0149385929108	-0.0421357154846	1.55270600319	-0.227225542068
0.148966789246	1.10595273972	0.014666557312	-0.0403614044189	1.55213928223	-0.226929545403
0.144837141037	1.11022686958	0.0141526460648	-0.0378901958466	1.55247592926	-0.226915121078
0.141572475433	1.11291611195	0.0136964321136	-0.0356249809265	1.55307877064	-0.227002382278
0.139252185822	1.11388492584	0.0133783817291	-0.0333652496338	1.5538226366	-0.226916790009
0.140841007233	1.11327219009	0.0138635635376	-0.0314548015594	1.55422949791	-0.226707935333
0.147313117981	1.11075246334	0.014417886734	-0.0300898551941	1.55446898937	-0.226097106934
0.14764046669	1.10952317715	0.0144364833832	-0.0291357040405	1.55439686775	-0.22532916069
0.147923707962	1.10941636562	0.0142660140991	-0.0283651351929	1.55422973633	-0.224937915802
0.148527145386	1.10987830162	0.0146627426147	-0.0274760723114	1.55381274223	-0.22462105751
0.149020433426	1.10989558697	0.0150537490845	-0.0268564224243	1.55388474464	-0.22457408905
0.149761915207	1.10942435265	0.0152809619904	-0.0261828899384	1.55412971973	-0.224556207657
0.150234699249	1.10959768295	0.0156232118607	-0.0252377986908	1.55426716805	-0.224577188492
0.150024414062	1.11004531384	0.0154311656952	-0.0239117145538	1.55429828167	-0.224772453308
0.149277687073	1.10974025726	0.0154646635056	-0.0219171047211	1.55421566963	-0.225111603737
0.147176980972	1.10917139053	0.0159940719604	-0.0196437835693	1.55285775661	-0.225805997849
0.144419670105	1.11062085629	0.0159623622894	-0.0178182125092	1.55104279518	-0.22674369812
0.142386674881	1.11251044273	0.0160781145096	-0.0171692371368	1.54984784126	-0.227478504181
0.142251968384	1.11200106144	0.0163407325745	-0.0180325508118	1.54982876778	-0.227605462074
0.143003225327	1.11163043976	0.0164313316345	-0.0194749832153	1.5505437851	-0.227298736572
0.144060611725	1.11156380177	0.0171041488647	-0.0212440490723	1.55158925056	-0.226429224014
0.144765138626	1.1103938818	0.0176303386688	-0.0236022472382	1.55253112316	-0.225644826889
0.14625787735	1.10947966576	0.0186541080475	-0.027482509613	1.55348694324	-0.224733352661
0.148470878601	1.10793447495	0.0195970535278	-0.0311207771301	1.55423891544	-0.223903417587
0.150619506836	1.10672259331	0.0205252170563	-0.033839225769	1.55449235439	-0.223147392273
0.153289318085	1.10549855232	0.0214223861694	-0.0359330177307	1.55396306515	-0.222258210182
0.155970335007	1.10446298122	0.0224952697754	-0.0368657112122	1.55255329609	-0.221366167068
0.157955169678	1.10480284691	0.0233058929443	-0.0370812416077	1.55109202862	-0.220843911171
0.15926194191	1.10657596588	0.0246057510376	-0.0350027084351	1.55051362514	-0.220378875732
0.16024851799	1.10922455788	0.0257333517075	-0.0304591655731	1.55085909367	-0.219852924347
0.160601139069	1.11216020584	0.0265038013458	-0.0253224372864	1.55029070377	-0.219624757767
0.160811662674	1.11381399632	0.0261874198914	-0.0215132236481	1.54957580566	-0.219322323799
0.161196231842	1.11512696743	0.0250759124756	-0.018942117691	1.5493645668	-0.219090938568
0.161849498749	1.11522448063	0.0237389802933	-0.0190947055817	1.54942297935	-0.219178676605
0.161809444427	1.11302363873	0.0224373340607	-0.0212934017181	1.55043411255	-0.220197916031
0.159157752991	1.11181938648	0.0218724012375	-0.0225801467896	1.5506901741	-0.221475601196
0.155375957489	1.11226022243	0.0214664936066	-0.0217204093933	1.55139005184	-0.22265124321
0.152054071426	1.11174654961	0.020836353302	-0.0199439525604	1.55330920219	-0.224083423615
0.150406599045	1.1098344326	0.019831776619	-0.0177626609802	1.55515003204	-0.22564458847
0.152252674103	1.10931921005	0.0185835361481	-0.0161809921265	1.55664658546	-0.225775241852
0.153090000153	1.10998356342	0.0189211368561	-0.0151109695435	1.55599713326	-0.226725935936
0.151902198792	1.11466252804	0.0185692310333	-0.0129907131195	1.55576300621	-0.228100419044
0.151046514511	1.11598241329	0.0180809497833	-0.0110743045807	1.55560398102	-0.229750990868
0.149067401886	1.11522889137	0.0168128013611	-0.0120105743408	1.55539858341	-0.23079431057
0.148067474365	1.11765623093	0.0158274173737	-0.0142254829407	1.55526292324	-0.231288671494
0.148142814636	1.1198669672	0.0152668952942	-0.0159983634949	1.55556869507	-0.232216358185
0.146876096725	1.12047624588	0.0147199630737	-0.0175137519836	1.5561324358	-0.233905076981
0.147838592529	1.12029445171	0.0139702558517	-0.0178592205048	1.55688500404	-0.235427379608
0.149440765381	1.11988437176	0.0130031108856	-0.018411397934	1.55738258362	-0.235467195511
0.152041435242	1.11832904816	0.0116801261902	-0.0189924240112	1.55707502365	-0.2349203825
0.154292583466	1.11671054363	0.0100395679474	-0.0183401107788	1.55689954758	-0.233632206917
0.15763258934	1.115650177	0.00956237316132	-0.0169310569763	1.55631148815	-0.232558012009
0.161185979843	1.11501669884	0.00972008705139	-0.0152192115784	1.55609953403	-0.231759309769
0.163453578949	1.11423265934	0.010031580925	-0.0133595466614	1.55585122108	-0.23153924942
0.16578578949	1.11379528046	0.0108280181885	-0.0107266902924	1.5563813448	-0.231659054756
0.166647672653	1.11371707916	0.0112452507019	-0.00693154335022	1.55681931973	-0.231945514679
0.167850017548	1.11393404007	0.01140666008	-0.00214338302612	1.55665850639	-0.232095122337
0.168329715729	1.1146389246	0.0115873813629	0.00122141838074	1.55559825897	-0.231939196587
0.167934894562	1.11546432972	0.0114959478378	0.00318813323975	1.55515289307	-0.231480121613
0.167402267456	1.1145734787	0.0116322040558	0.00499153137207	1.55469226837	-0.231462955475
0.165966272354	1.11468684673	0.0114076137543	0.00723886489868	1.55373203754	-0.231854200363
0.164993286133	1.11513638496	0.0114047527313	0.00932145118713	1.55327117443	-0.2324436903
0.163425207138	1.11520433426	0.0118002891541	0.01145195961	1.55264532566	-0.23269033432
0.160046815872	1.11541616917	0.012619972229	0.014151096344	1.55043745041	-0.23278927803
0.155578136444	1.11714923382	0.0120739936829	0.0185513496399	1.5468300581	-0.233404755592
0.154210090637	1.11818063259	0.0103483200073	0.024001121521	1.544241786	-0.235553979874
0.156684398651	1.11834537983	0.00816977024078	0.0279884338379	1.54337906837	-0.238832235336
0.162430286407	1.11842834949	0.00591278076172	0.029351234436	1.54488456249	-0.242532014847
0.163988113403	1.11709666252	0.00440549850464	0.0279293060303	1.54783594608	-0.245238304138
0.164919137955	1.11447751522	0.00385141372681	0.0239160060883	1.55161464214	-0.245494008064
0.165640115738	1.11317431927	0.0048041343689	0.0176029205322	1.5550994873	-0.243089437485
0.167624235153	1.1130617857	0.00576043128967	0.0101659297943	1.55612373352	-0.239416122437
0.170303583145	1.11294937134	0.00708603858948	0.00267601013184	1.55618464947	-0.235459327698
0.171682596207	1.11124885082	0.00918054580688	-0.00344324111938	1.55571889877	-0.232039928436
0.17110490799	1.11087942123	0.0110013484955	-0.00716924667358	1.55497324467	-0.229781389236
0.167810678482	1.11054182053	0.0133018493652	-0.00925612449646	1.55323731899	-0.229452371597
0.161904335022	1.11229503155	0.0149731636047	-0.0108556747437	1.55211830139	-0.230625391006
0.157497406006	1.11358726025	0.016838312149	-0.0124440193176	1.55121541023	-0.23268020153
0.152729511261	1.11686813831	0.0184426307678	-0.0136580467224	1.55081701279	-0.234971642494
0.14958357811	1.12100291252	0.0189146995544	-0.0145192146301	1.55083668232	-0.236744880676
0.149134159088	1.12326800823	0.0185223817825	-0.0148859024048	1.55077338219	-0.238211393356
0.150212526321	1.1246638298	0.0176930427551	-0.0153653621674	1.55075716972	-0.238778591156
0.1517162323	1.12715041637	0.0171786546707	-0.0156636238098	1.55079340935	-0.23858833313
0.153029680252	1.13322281837	0.0165939331055	-0.014955997467	1.55099248886	-0.238305687904
0.151941537857	1.14178752899	0.0153384208679	-0.0144264698029	1.55119121075	-0.23758149147
0.149490833282	1.14809238911	0.0135636329651	-0.0147125720978	1.55086040497	-0.236764907837
0.147859096527	1.15209400654	0.0120998620987	-0.0156564712524	1.55022954941	-0.236009836197
0.148863077164	1.15524065495	0.0105328559875	-0.0161271095276	1.54906606674	-0.235402941704
0.152473926544	1.1600382328	0.00846445560455	-0.0161554813385	1.54722714424	-0.23503613472
0.15478849411	1.16624855995	0.00616550445557	-0.0165710449219	1.54571378231	-0.23458814621
0.153402328491	1.16859924793	0.00482106208801	-0.0180840492249	1.54535353184	-0.233946323395
0.154997110367	1.16825544834	0.0051543712616	-0.0192863941193	1.5454710722	-0.233475208282
0.157717227936	1.1642023325	0.0067195892334	-0.0200617313385	1.54526269436	-0.233329772949
0.159420251846	1.15884315968	0.0090137720108	-0.0205562114716	1.54514706135	-0.232843875885
0.156344652176	1.15846776962	0.0094530582428	-0.0206553936005	1.54493391514	-0.23221218586
0.151813268661	1.15976643562	0.00868213176727	-0.0211544036865	1.54488968849	-0.231227874756
0.153017759323	1.15855467319	0.00910806655884	-0.0222518444061	1.54399657249	-0.230232715607
0.155517339706	1.15895164013	0.00975346565247	-0.0230963230133	1.54244279861	-0.229334592819
0.156334877014	1.16103422642	0.0106317996979	-0.023601770401	1.54009079933	-0.228737950325
0.155137300491	1.16443789005	0.0111575126648	-0.0245614051819	1.53828299046	-0.227986931801
0.153772830963	1.16780328751	0.0109925270081	-0.0253896713257	1.53682529926	-0.227809429169
0.152168750763	1.17054378986	0.010237455368	-0.0264487266541	1.53581929207	-0.227764129639
0.151052951813	1.17112672329	0.00935316085815	-0.0273189544678	1.53484451771	-0.228110551834
0.149805307388	1.17100548744	0.00855910778046	-0.027792930603	1.53369438648	-0.228971719742
0.148061275482	1.17018806934	0.00865113735199	-0.0282225608826	1.53213143349	-0.229876041412
0.147165775299	1.16887927055	0.00855326652527	-0.028608083725	1.53221380711	-0.230195760727
0.145432949066	1.16787588596	0.00782513618469	-0.0290143489838	1.53254675865	-0.230144619942
0.144963264465	1.16753840446	0.00814533233643	-0.0295670032501	1.53223598003	-0.229754447937
0.144653558731	1.16792368889	0.00824308395386	-0.0302999019623	1.53194916248	-0.229136705399
0.14482998848	1.16727793217	0.00857841968536	-0.0317094326019	1.5325949192	-0.228331685066
0.144313097	1.16631019115	0.00904250144958	-0.032692193985	1.53337824345	-0.227635622025
0.142561674118	1.16635859013	0.00990545749664	-0.0325300693512	1.53366661072	-0.226939082146
0.139709711075	1.1664866209	0.0106266736984	-0.0320539474487	1.53373658657	-0.226480007172
0.137524843216	1.16637277603	0.0111248493195	-0.0309929847717	1.53487050533	-0.226188898087
0.136488199234	1.1662774086	0.0117015838623	-0.029700756073	1.53628444672	-0.226161956787
0.136703491211	1.16622912884	0.0127032995224	-0.0295026302338	1.53756356239	-0.22661447525
0.137180566788	1.16593205929	0.013557434082	-0.028781414032	1.53938901424	-0.226707935333
0.138422250748	1.16543722153	0.0140044689178	-0.0287742614746	1.54101550579	-0.226786613464
0.141419649124	1.16525888443	0.014452457428	-0.0306034088135	1.54259753227	-0.226446390152
0.146036624908	1.16399526596	0.014599442482	-0.033741235733	1.54375386238	-0.226096630096
0.150059700012	1.1635068655	0.0149345397949	-0.0369715690613	1.54380321503	-0.225810050964
0.153275728226	1.16407179832	0.0152328014374	-0.0394508838654	1.54243397713	-0.225821733475
0.15558052063	1.16517686844	0.0151619911194	-0.0417506694794	1.54047834873	-0.226066350937
0.156527519226	1.16596114635	0.0152367353439	-0.0436928272247	1.53818953037	-0.226451396942
0.156889200211	1.16648769379	0.0149629116058	-0.0459105968475	1.53603160381	-0.227005958557
0.156961679459	1.16673898697	0.0147500038147	-0.0488040447235	1.53491985798	-0.227583408356
0.155044317245	1.16672587395	0.0152088403702	-0.0503647327423	1.53621327877	-0.228103756905
0.151336669922	1.16654837132	0.0160871744156	-0.0501685142517	1.53883838654	-0.22815489769
0.146215438843	1.16517305374	0.0169478654861	-0.0480608940125	1.54286396503	-0.227933883667
0.141188144684	1.16242980957	0.0183483362198	-0.0432932376862	1.54823029041	-0.227434396744
0.136882781982	1.16134297848	0.0195497274399	-0.0361912250519	1.5534235239	-0.227576255798
0.132788181305	1.16171586514	0.0213087797165	-0.0287547111511	1.55693817139	-0.227818965912
0.128997325897	1.16113615036	0.0224704742432	-0.0211312770844	1.55853402615	-0.228474617004
0.125089168549	1.16054832935	0.0236072540283	-0.0133776664734	1.55707335472	-0.228534221649
0.121322154999	1.1615293026	0.0240045785904	-0.00613856315613	1.55367207527	-0.227525472641
0.119540929794	1.16057920456	0.0240561962128	0.00128078460693	1.54914033413	-0.226051568985
0.118549108505	1.15793323517	0.0251568555832	0.00780057907104	1.54479658604	-0.224879026413
0.115978479385	1.15657639503	0.0267552137375	0.0133860111237	1.54129755497	-0.223962068558
0.113440990448	1.15531897545	0.0278916358948	0.0176074504852	1.5400800705	-0.223576903343
0.113169193268	1.1532099247	0.0285845994949	0.019716501236	1.54050934315	-0.223610162735
0.114869594574	1.15311658382	0.0286095142365	0.0190715789795	1.5421333313	-0.223837852478
0.117349147797	1.15424180031	0.0286376476288	0.0155675411224	1.54559373856	-0.224438905716
0.11878156662	1.15599644184	0.0278488397598	0.00946545600891	1.54981207848	-0.224729180336
0.121307849884	1.15620815754	0.0265469551086	0.00255584716797	1.55320131779	-0.224562168121
0.1239798069	1.15468740463	0.0254346132278	-0.00440764427185	1.55577659607	-0.223746299744
0.126546144485	1.15345644951	0.0245769023895	-0.0107731819153	1.55757987499	-0.222737789154
0.128989219666	1.15213608742	0.0237312316895	-0.0173356533051	1.5586514473	-0.221715927124
0.131693124771	1.15074956417	0.0230531692505	-0.0235912799835	1.55868375301	-0.220888137817
0.13388967514	1.15054559708	0.0227189064026	-0.0294873714447	1.55838513374	-0.220528125763
0.135538101196	1.15060138702	0.0224727392197	-0.0351505279541	1.55812704563	-0.220548033714
0.136971712112	1.1504175663	0.0217463970184	-0.0406935214996	1.55689525604	-0.221163272858
0.138848543167	1.15069162846	0.0208637714386	-0.0460274219513	1.55475199223	-0.222541928291
0.14185500145	1.15138375759	0.0200960636139	-0.0511484146118	1.55284452438	-0.224520087242
0.145207643509	1.15213942528	0.0197863578796	-0.0557000637054	1.55085158348	-0.226870298386
0.148070812225	1.15432417393	0.0199365615845	-0.0588426589966	1.54909062386	-0.228484869003
0.149528980255	1.15529823303	0.0204780101776	-0.0601396560669	1.54904818535	-0.22914648056
0.148931026459	1.15542304516	0.0210528373718	-0.059543132782	1.5491861105	-0.229011297226
0.147159099579	1.15440297127	0.0212396383286	-0.0581538677216	1.54935157299	-0.228361487389
0.146324396133	1.15360033512	0.0212715864182	-0.0576131343842	1.54874634743	-0.227100610733
0.146729707718	1.1533370018	0.0205397605896	-0.0583558082581	1.54716253281	-0.224831342697
0.147451639175	1.1524554491	0.0200196504593	-0.0594799518585	1.54600763321	-0.221565008163
0.14751958847	1.14951002598	0.0194172859192	-0.0599091053009	1.54636204243	-0.218965053558
0.146832227707	1.14657068253	0.0200256109238	-0.0586719512939	1.5471612215	-0.217082500458
0.145740747452	1.14467251301	0.0210837125778	-0.0566613674164	1.54743909836	-0.215994358063
0.144699573517	1.14312398434	0.0231482982635	-0.0542635917664	1.54780197144	-0.215330839157
0.145879745483	1.14069390297	0.0248591899872	-0.0519063472748	1.54841077328	-0.215215682983
0.146893024445	1.13981711864	0.0255001783371	-0.051189661026	1.54821753502	-0.215136408806
0.148044586182	1.13925051689	0.0264284610748	-0.0514950752258	1.54784476757	-0.214898586273
0.149374008179	1.13512182236	0.029355764389	-0.0521574020386	1.54739713669	-0.214411854744
0.149405002594	1.13022542	0.0336508750916	-0.0530471801758	1.54730677605	-0.214061498642
0.149394035339	1.12417030334	0.038651227951	-0.0538885593414	1.547311306	-0.213770747185
0.149333000183	1.11867594719	0.0428524017334	-0.0542628765106	1.54727733135	-0.213745951653
0.148639440536	1.11271095276	0.0460028648376	-0.0542049407959	1.54708075523	-0.213942050934
0.147083759308	1.10904991627	0.0468709468842	-0.0536947250366	1.54688584805	-0.214149475098
0.146093130112	1.10756421089	0.0463039875031	-0.0527901649475	1.54686427116	-0.214839577675
0.145718812943	1.10803067684	0.045903801918	-0.0515601634979	1.54705345631	-0.215702414513
0.145808458328	1.10873091221	0.0456019639969	-0.0505599975586	1.54726433754	-0.216766834259
0.145857572556	1.10937929153	0.0454118251801	-0.0491452217102	1.54770362377	-0.217429637909
0.145886659622	1.10999178886	0.0451240539551	-0.0470309257507	1.54863750935	-0.217676877975
0.144901275635	1.10996079445	0.0450030565262	-0.0441563129425	1.54966044426	-0.217284679413
0.142906665802	1.10950016975	0.0454177856445	-0.0408980846405	1.55114674568	-0.216737866402
0.139175415039	1.10855531693	0.0459334850311	-0.0372598171234	1.55256605148	-0.215947151184
0.136198759079	1.10793936253	0.0465260744095	-0.0333514213562	1.5531154871	-0.215158104897
0.134891986847	1.10855710506	0.0474804639816	-0.0309243202209	1.55318903923	-0.214163064957
0.136725902557	1.10873067379	0.0480529069901	-0.030681848526	1.55306625366	-0.21337556839
0.139958620071	1.10804903507	0.0487209558487	-0.0329422950745	1.55219519138	-0.212588310242
0.14332985878	1.10851991177	0.0494138002396	-0.0357184410095	1.55058264732	-0.21215569973
0.146779060364	1.1093890667	0.0495046377182	-0.0386412143707	1.54814720154	-0.212101459503
0.15044927597	1.10969352722	0.0496606826782	-0.0416831970215	1.54519832134	-0.212032079697
0.153615236282	1.10868823528	0.0494247674942	-0.0449280738831	1.54231417179	-0.212059736252
0.156624555588	1.10771143436	0.0492370128632	-0.0488293170929	1.53947901726	-0.21190571785
0.158978462219	1.10656833649	0.0489023923874	-0.0533230304718	1.53725385666	-0.211937427521
0.160610675812	1.10633659363	0.0493307113647	-0.0583000183105	1.53546082973	-0.211865186691
0.161769866943	1.10788691044	0.0491139888763	-0.0634565353394	1.53350460529	-0.212530374527
0.163426160812	1.11203956604	0.0494372844696	-0.0686576366425	1.5314540863	-0.21348118782
0.164448261261	1.11730968952	0.0497024059296	-0.0726654529572	1.52988350391	-0.214649200439
0.163894176483	1.1207613945	0.0488164424896	-0.0754585266113	1.52878534794	-0.215735197067
0.162422418594	1.12132644653	0.0472741127014	-0.0770905017853	1.52842187881	-0.216140270233
0.160514593124	1.12057006359	0.0453593730927	-0.0768620967865	1.52963650227	-0.216624736786
0.158947229385	1.11896526814	0.0435898303986	-0.0743691921234	1.53279960155	-0.216831684113
0.157766342163	1.11732900143	0.0423128604889	-0.069776058197	1.53730916977	-0.216637611389
0.156765937805	1.11620736122	0.0415425300598	-0.0638828277588	1.54252994061	-0.215714335442
0.15524148941	1.11487066746	0.0409897565842	-0.0580463409424	1.54706656933	-0.214173316956
0.154168128967	1.11397063732	0.0404062271118	-0.0532784461975	1.54957914352	-0.213003635406
0.153700590134	1.1128256321	0.0404506921768	-0.0505900382996	1.55128288269	-0.21184194088
0.153815507889	1.11264371872	0.040295958519	-0.0489084720612	1.55268073082	-0.211068153381
0.155090808868	1.11236667633	0.0415010452271	-0.0474696159363	1.55368709564	-0.210110664368
0.156060218811	1.10908401012	0.0446622371674	-0.0461056232452	1.55386173725	-0.20943403244
0.156402826309	1.10691487789	0.0478186607361	-0.0449874401093	1.5530591011	-0.20875287056
0.15614771843	1.10699272156	0.0518288612366	-0.0443153381348	1.55224919319	-0.208724975586
0.155951738358	1.10891067982	0.0551323890686	-0.0444540977478	1.55171012878	-0.209124565125
0.155415058136	1.11083030701	0.0565549135208	-0.0453977584839	1.55122733116	-0.209619045258
0.15474486351	1.11182415485	0.0565549135208	-0.0469100475311	1.55038559437	-0.210257768631
0.155285358429	1.1119645834	0.0557825565338	-0.0485637187958	1.54950070381	-0.211488127708
0.157258749008	1.11245691776	0.0541768074036	-0.0509521961212	1.5481017828	-0.21319270134
0.161176204681	1.11186218262	0.0524319410324	-0.0547032356262	1.54630386829	-0.214417457581
0.164956092834	1.11123180389	0.050936460495	-0.0589616298676	1.54375398159	-0.215546369553
0.167214393616	1.11098635197	0.0503638982773	-0.0633308887482	1.54107475281	-0.216525435448
0.167681217194	1.11244761944	0.0510296821594	-0.0669374465942	1.53883993626	-0.217272758484
0.165958404541	1.11472058296	0.0517612695694	-0.0690810680389	1.53716087341	-0.218324661255
0.16340470314	1.11741149426	0.0524569749832	-0.0688283443451	1.53677988052	-0.218865871429
0.161426782608	1.11961495876	0.0524020195007	-0.0668778419495	1.53587448597	-0.21843791008
0.160982370377	1.12122750282	0.0517745018005	-0.0651354789734	1.53430902958	-0.217535972595
0.161966323853	1.123026371	0.0505529642105	-0.0640580654144	1.53225135803	-0.21578836441
0.163769721985	1.12447834015	0.0493333339691	-0.0633416175842	1.53053545952	-0.213417649269
0.165558099747	1.12692177296	0.0478931665421	-0.0621843338013	1.53075706959	-0.211400747299
0.1665122509	1.12721014023	0.0473331212997	-0.0605683326721	1.53208839893	-0.21004986763
0.165877580643	1.12584769726	0.0467903614044	-0.0590209960938	1.5353063345	-0.209139823914
0.163608551025	1.12498855591	0.0462347269058	-0.056972026825	1.54090213776	-0.208545088768
0.161561727524	1.12509047985	0.0461387634277	-0.0538241863251	1.54701137543	-0.208066940308
0.16077542305	1.12485814095	0.0469551086426	-0.0498251914978	1.55045509338	-0.207814455032
0.160517215729	1.12566435337	0.0478413105011	-0.0456311702728	1.5507465601	-0.207673311234
0.161731481552	1.12591826916	0.0487135648727	-0.0413069725037	1.54942846298	-0.207614898682
0.163748025894	1.12637901306	0.0492255687714	-0.0382907390594	1.54810059071	-0.208016514778
0.165539741516	1.12745308876	0.0496399402618	-0.0368094444275	1.54713833332	-0.208240270615
0.166545152664	1.12793326378	0.0494434833527	-0.0360004901886	1.54585909843	-0.208568811417
0.168179035187	1.12887167931	0.0500326156616	-0.035843372345	1.54342091084	-0.20826792717
0.169231176376	1.1317281723	0.049788236618	-0.0358357429504	1.54010152817	-0.207509040833
0.170265197754	1.13480079174	0.0490498542786	-0.0352613925934	1.53802216053	-0.206116676331
0.169915914536	1.1359244585	0.0476474761963	-0.0347502231598	1.53570795059	-0.204330205917
0.168271064758	1.13551211357	0.0462868213654	-0.0353248119354	1.53352272511	-0.202180862427
0.164831876755	1.13572561741	0.0444045066833	-0.0346376895905	1.53139817715	-0.200242519379
0.160777807236	1.13771009445	0.0430973768234	-0.0329570770264	1.52949464321	-0.198372840881
0.158192873001	1.1403567791	0.0427247285843	-0.0313167572021	1.52857601643	-0.196510076523
0.161118030548	1.1392108202	0.0435907840729	-0.0299861431122	1.5287116766	-0.195017576218
0.164783239365	1.13443624973	0.0447838306427	-0.0299322605133	1.52867043018	-0.194044828415
0.165549755096	1.13170623779	0.0448391437531	-0.0296802520752	1.52822089195	-0.193317651749
0.163578033447	1.13273847103	0.0449965000153	-0.0297973155975	1.52742266655	-0.192840576172
0.165278911591	1.13416159153	0.0453705787659	-0.0294358730316	1.52736938	-0.192313432693
0.167183637619	1.13487148285	0.0459724664688	-0.0289840698242	1.52800750732	-0.1917989254
0.167566776276	1.1361361742	0.0458407402039	-0.0279500484467	1.53050816059	-0.191686630249
0.166817426682	1.1360129118	0.0456545352936	-0.0250380039215	1.53516125679	-0.192363500595
0.16398191452	1.13633942604	0.0455929040909	-0.0201365947723	1.54060816765	-0.193389892578
0.160097837448	1.13663339615	0.0454026460648	-0.0140607357025	1.54513680935	-0.195098638535
0.155104160309	1.13669216633	0.0458921194077	-0.00817012786865	1.54714274406	-0.196726322174
0.151219844818	1.13738930225	0.0460489988327	-0.00300145149231	1.5461076498	-0.197593688965
0.147734165192	1.13871276379	0.0454722642899	0.000460624694824	1.54388809204	-0.19745349884
0.146171092987	1.13927793503	0.0445555448532	0.00129699707031	1.54276585579	-0.196705102921
0.146173477173	1.13804030418	0.0448702573776	-0.000474214553833	1.5433806181	-0.1958963871
0.146925926208	1.13814461231	0.0455930233002	-0.00527453422546	1.54444873333	-0.195467948914
0.14802479744	1.13825571537	0.0463906526566	-0.0124289989471	1.54484307766	-0.196060419083
0.148389577866	1.13591778278	0.0477316379547	-0.0200896263123	1.54436039925	-0.197429418564
0.148022890091	1.13702738285	0.0478630065918	-0.0275001525879	1.54285299778	-0.198872566223
0.147773742676	1.13876998425	0.0483002662659	-0.0330998897552	1.54114019871	-0.200483798981
0.147758960724	1.14052391052	0.0483375787735	-0.0367977619171	1.53958463669	-0.20172727108
0.148245573044	1.14142477512	0.0483813285828	-0.0389642715454	1.53824210167	-0.202458739281
0.149820566177	1.14131605625	0.047598361969	-0.0409686565399	1.53705143929	-0.202471017838
0.151879549026	1.14069330692	0.0468850135803	-0.0427341461182	1.53606462479	-0.20192027092
0.153566360474	1.14171433449	0.0463713407516	-0.0444791316986	1.53474152088	-0.200726151466
0.154012203217	1.14368259907	0.04612159729	-0.046539068222	1.53316187859	-0.199197769165
0.152985572815	1.14409136772	0.0459508895874	-0.049515247345	1.5319955349	-0.197710514069
0.151186704636	1.14262115955	0.0462000370026	-0.0525233745575	1.53148698807	-0.196309804916
0.149438858032	1.14206516743	0.046098947525	-0.0542280673981	1.53133690357	-0.195274591446
0.148506641388	1.14183568954	0.0457057952881	-0.0550410747528	1.53150331974	-0.194810032845
0.14936375618	1.14247584343	0.0456805229187	-0.0564069747925	1.53117287159	-0.194545984268
0.151007413864	1.14212214947	0.0455149412155	-0.0584442615509	1.53063678741	-0.194724202156
0.152986288071	1.14231693745	0.0450093746185	-0.0618064403534	1.53017389774	-0.195101499557
0.15531206131	1.14319229126	0.0449523925781	-0.0655889511108	1.53003537655	-0.195932865143
0.15633893013	1.14469158649	0.044872045517	-0.0693919658661	1.52988505363	-0.19676232338
0.156135320663	1.1466319561	0.0452783107758	-0.0721468925476	1.53006982803	-0.19728064537
0.155136346817	1.14818775654	0.0453548431396	-0.0736684799194	1.53022325039	-0.198068141937
0.153529644012	1.14590513706	0.0462000370026	-0.0739359855652	1.53045189381	-0.198850870132
0.153472900391	1.13731122017	0.0490734577179	-0.0735275745392	1.53075885773	-0.200165271759
0.15490937233	1.13040173054	0.0505867004395	-0.0733709335327	1.5312525034	-0.201484799385
0.160687685013	1.12650322914	0.0507709980011	-0.0731728076935	1.53152501583	-0.202893018723
0.165844202042	1.12446594238	0.0500333309174	-0.0730102062225	1.53195989132	-0.20390868187
0.167313098907	1.12202203274	0.0497404336929	-0.0732898712158	1.53176259995	-0.204427361488
0.162267684937	1.12455379963	0.0489418506622	-0.0740783214569	1.53143036366	-0.204339027405
0.159458637238	1.12503349781	0.0495467185974	-0.0748217105865	1.53099775314	-0.20367872715
0.158366441727	1.1239593029	0.0506155490875	-0.0753870010376	1.53123426437	-0.203057169914
0.156870365143	1.1227812767	0.0512971878052	-0.076007604599	1.5318570137	-0.201902389526
0.155713558197	1.1216083765	0.0516593456268	-0.0764629840851	1.53220427036	-0.200718641281
0.155670642853	1.12035644054	0.0513862371445	-0.0761923789978	1.53253114223	-0.200109481812
0.156495809555	1.11915922165	0.0513390302658	-0.0755875110626	1.53292393684	-0.199922919273
0.15770483017	1.11766314507	0.0510900020599	-0.0745325088501	1.53330373764	-0.200533866882
0.15883398056	1.11646568775	0.0517522096634	-0.0729999542236	1.53327584267	-0.20126080513
0.159096479416	1.1139588356	0.0532176494598	-0.0719218254089	1.53307282925	-0.202259778976
0.158210754395	1.11026275158	0.0553433895111	-0.0715470314026	1.53276383877	-0.203240990639
0.155552625656	1.10549449921	0.0580810308456	-0.0715129375458	1.53256082535	-0.204152822495
0.153711557388	1.10214614868	0.0604945421219	-0.0715265274048	1.53242456913	-0.204635739326
0.152427434921	1.09938180447	0.0623714923859	-0.0715126991272	1.53220164776	-0.20469045639
0.15140080452	1.09577608109	0.0640475749969	-0.0714266300201	1.5316838026	-0.20484483242
0.150549411774	1.09239125252	0.0650947093964	-0.0715110301971	1.5314065218	-0.204780101776
0.150124073029	1.09000241756	0.0656015872955	-0.0720129013062	1.53071439266	-0.205218315125
0.150527000427	1.08783257008	0.0662157535553	-0.0728032588959	1.5301142931	-0.205598950386
0.150633096695	1.08405613899	0.0671597719193	-0.0735785961151	1.52972972393	-0.206521391869
0.151237249374	1.08241713047	0.067024230957	-0.0734760761261	1.52980518341	-0.207003712654
0.151497364044	1.08068478107	0.066253900528	-0.0729539394379	1.53009319305	-0.20726776123
0.150531291962	1.0792825222	0.065731883049	-0.0721983909607	1.53049719334	-0.206920862198
0.147763967514	1.07928979397	0.0645451545715	-0.0714073181152	1.5316734314	-0.206634998322
0.146612882614	1.0788564682	0.0642958879471	-0.0702962875366	1.53266572952	-0.206178188324
0.145740747452	1.07761895657	0.0650427341461	-0.0693907737732	1.53398811817	-0.205420017242
0.143724918365	1.07726871967	0.0659302473068	-0.0694181919098	1.53621518612	-0.204053163528
0.140949010849	1.07658445835	0.0661561489105	-0.069855928421	1.53825962543	-0.202879667282
0.137417793274	1.07614147663	0.0667449235916	-0.0698938369751	1.53938186169	-0.20196223259
0.134977817535	1.07623124123	0.0675755739212	-0.0696859359741	1.53929209709	-0.201185703278
0.134335517883	1.07662510872	0.0683621168137	-0.069634437561	1.53814256191	-0.200249910355
0.13575220108	1.07623124123	0.0682179927826	-0.0703973770142	1.5366499424	-0.199557304382
0.137966394424	1.07467854023	0.0682690143585	-0.0712568759918	1.53580117226	-0.198268532753
0.140117168427	1.07285034657	0.0688403844833	-0.0716915130615	1.53487384319	-0.196702718735
0.141038656235	1.0709747076	0.0705024003983	-0.071081161499	1.53435087204	-0.195108413696
0.141816616058	1.06981098652	0.0716934204102	-0.0699017047882	1.53448164463	-0.193568587303
0.142748832703	1.07016324997	0.0717217922211	-0.0686452388763	1.53497731686	-0.192418575287
0.144774675369	1.0694694519	0.0712270736694	-0.0670566558838	1.53620362282	-0.191777825356
0.146610498428	1.0684543848	0.0705921649933	-0.065337896347	1.53820800781	-0.19167637825
0.147364616394	1.06881761551	0.0706121921539	-0.0627770423889	1.54014348984	-0.192053794861
0.147081136703	1.06921815872	0.0709643363953	-0.0598609447479	1.54228174686	-0.192855119705
0.146629571915	1.06846368313	0.0712561607361	-0.0562613010406	1.54456865788	-0.193675994873
0.146602392197	1.06704616547	0.0706518888474	-0.0520997047424	1.54651689529	-0.194694280624
0.147924423218	1.0658468008	0.0691604614258	-0.0473666191101	1.54862713814	-0.195389389992
0.149641275406	1.06420052052	0.0678046941757	-0.0428519248962	1.55038845539	-0.195862054825
0.150424480438	1.06365597248	0.0668257474899	-0.0386798381805	1.55189347267	-0.196513056755
0.149852752686	1.06362354755	0.0660952329636	-0.0349192619324	1.553124547	-0.197243213654
0.148847341537	1.06316661835	0.0657509565353	-0.0311939716339	1.5540150404	-0.198351621628
0.147312402725	1.06297457218	0.0653547048569	-0.0276784896851	1.55456089973	-0.199704408646
0.146488189697	1.06244122982	0.0649942159653	-0.0238933563232	1.55504524708	-0.201233148575
0.144539833069	1.06261718273	0.0645825862885	-0.0205438137054	1.55508840084	-0.203281164169
0.143287181854	1.06309056282	0.0641934871674	-0.0181438922882	1.5550391674	-0.204581022263
0.142890930176	1.06230413914	0.0627624988556	-0.0167882442474	1.5549685955	-0.205728054047
0.14360165596	1.06183314323	0.0618686676025	-0.0159783363342	1.55480754375	-0.205933570862
0.145463943481	1.06127977371	0.0611637830734	-0.0152335166931	1.55420410633	-0.205655574799
0.147236347198	1.06097877026	0.0608983039856	-0.0150854587555	1.5539290905	-0.205312132835
0.147700071335	1.06086063385	0.0611679553986	-0.0162789821625	1.55446970463	-0.205145835876
0.147380113602	1.05914640427	0.061362862587	-0.0192594528198	1.55509459972	-0.205107450485
0.146674871445	1.05469989777	0.0621747970581	-0.023353099823	1.55601251125	-0.205122113228
0.146651029587	1.0523045063	0.0625823736191	-0.0278205871582	1.55721080303	-0.205016374588
0.146728277206	1.05093741417	0.06267619133	-0.0319533348083	1.55835437775	-0.204780220985
0.146764278412	1.05062484741	0.0634112358093	-0.0353872776031	1.55903589725	-0.204517006874
0.146795988083	1.05056643486	0.0642683506012	-0.0385682582855	1.55931770802	-0.204245448112
0.1477227211	1.05051207542	0.0650205612183	-0.0423603057861	1.55921590328	-0.204432010651
0.14879989624	1.05043911934	0.0662069320679	-0.0466103553772	1.55897426605	-0.204396486282
0.149503946304	1.05049109459	0.0671988725662	-0.0514416694641	1.55840313435	-0.204236388206
0.149241685867	1.05066776276	0.0682990550995	-0.0562269687653	1.55775427818	-0.203881263733
0.148248672485	1.05050420761	0.0690565109253	-0.0615267753601	1.55697226524	-0.203529596329
0.14745759964	1.04956626892	0.0693756341934	-0.0672647953033	1.55634975433	-0.203732132912
0.147404670715	1.04906225204	0.0692890882492	-0.0726728439331	1.55584168434	-0.204140901566
0.148169994354	1.04807591438	0.0689252614975	-0.0769081115723	1.55589652061	-0.204366445541
0.148994445801	1.04738926888	0.0687417984009	-0.0784707069397	1.55588972569	-0.204121232033
0.149373531342	1.04821658134	0.0693284273148	-0.077118396759	1.55605375767	-0.203520655632
0.149239778519	1.05015134811	0.0699622631073	-0.0740225315094	1.55687606335	-0.202828407288
0.149593830109	1.05121278763	0.0701353549957	-0.070193529129	1.55848991871	-0.202178955078
0.15064406395	1.05119252205	0.069463968277	-0.0660254955292	1.56004691124	-0.201480388641
0.153379678726	1.05078864098	0.0676584243774	-0.0614511966705	1.5609806776	-0.20109307766
0.156339406967	1.04922819138	0.0656884908676	-0.0563688278198	1.56231093407	-0.200331926346
0.158070802689	1.04780507088	0.063732624054	-0.0516929626465	1.56306266785	-0.200023412704
0.159243822098	1.04714035988	0.0627951622009	-0.048210144043	1.5632609129	-0.199816942215
0.159254074097	1.04707694054	0.0627111196518	-0.0459170341492	1.5630646944	-0.199595332146
0.158164262772	1.04755139351	0.0629377365112	-0.0445578098297	1.56242358685	-0.199344158173
0.157583475113	1.04803800583	0.0637979507446	-0.0439088344574	1.56183409691	-0.198821306229
0.15341591835	1.05182766914	0.0656753778458	-0.0435981750488	1.56147503853	-0.198474764824
0.147585868835	1.05475354195	0.0676356554031	-0.0437200069427	1.56107103825	-0.19873046875
0.141380310059	1.05901193619	0.0689771175385	-0.0439755916595	1.56077444553	-0.198935031891
0.137173652649	1.06264770031	0.0694171190262	-0.0442745685577	1.56074535847	-0.199761152267
0.134855270386	1.06533479691	0.0695914030075	-0.0439953804016	1.56037259102	-0.200386762619
0.133108139038	1.06897234917	0.0687987804413	-0.0429992675781	1.56010961533	-0.20129776001
0.132592439651	1.0727827549	0.0675294399261	-0.0417602062225	1.55988168716	-0.20230782032
0.131847143173	1.07696688175	0.0655689239502	-0.0405943393707	1.55981647968	-0.203114151955
0.131718158722	1.07997226715	0.063631772995	-0.039281129837	1.56001889706	-0.203716397285
0.132809877396	1.07938492298	0.0626993179321	-0.0381872653961	1.56010460854	-0.204282283783
0.132658958435	1.07969224453	0.0620620250702	-0.0376644134521	1.55984854698	-0.204872369766
0.134274959564	1.08202326298	0.0612397193909	-0.037239074707	1.55969393253	-0.205488085747
0.134819746017	1.08624053001	0.0599619150162	-0.036363363266	1.5598732233	-0.206057310104
0.134945392609	1.09115600586	0.058503985405	-0.0356554985046	1.55989897251	-0.20624089241
0.133789300919	1.0935125351	0.0578111410141	-0.0353772640228	1.55950450897	-0.206372499466
0.133419513702	1.09190988541	0.0574886798859	-0.0350985527039	1.55903875828	-0.20615208149
0.133892774582	1.09049487114	0.0572785139084	-0.0347239971161	1.55880522728	-0.205694675446
0.134613990784	1.09032785892	0.0573539733887	-0.0341773033142	1.55871367455	-0.205209255219
0.135324954987	1.08971214294	0.0574262142181	-0.0335023403168	1.55853235722	-0.204870462418
0.135872840881	1.08950006962	0.0578447580338	-0.0326099395752	1.5583114624	-0.204339385033
0.137231111526	1.09012687206	0.0578507184982	-0.0314784049988	1.5580047369	-0.203829288483
0.139658927917	1.09160089493	0.057165145874	-0.0297889709473	1.55768156052	-0.203149437904
0.143716096878	1.09292316437	0.0561467409134	-0.0274038314819	1.55744862556	-0.202608585358
0.149419546127	1.09257781506	0.0550583600998	-0.0249211788177	1.55736529827	-0.20224070549
0.15191411972	1.09096705914	0.0540533065796	-0.0228099822998	1.55697381496	-0.202085971832
0.151438236237	1.09056329727	0.0540415048599	-0.0222508907318	1.55600011349	-0.202325582504
0.152235984802	1.09141564369	0.0545134544373	-0.0224368572235	1.55508518219	-0.202452898026
0.152765274048	1.09181427956	0.0550385713577	-0.0220017433167	1.55408239365	-0.202992200851
0.152956724167	1.09271299839	0.0553114414215	-0.0205233097076	1.55306124687	-0.20348918438
0.152281045914	1.09322810173	0.0556883811951	-0.0188627243042	1.55202627182	-0.204278469086
0.151419878006	1.09471583366	0.0556112527847	-0.0186944007874	1.55068743229	-0.205164194107
0.151447534561	1.09543180466	0.0553951263428	-0.0188965797424	1.54865705967	-0.205913901329
0.151157140732	1.09633481503	0.0550627708435	-0.0188963413239	1.54700911045	-0.206770300865
0.150698423386	1.09667623043	0.0549051761627	-0.0188736915588	1.54689621925	-0.207000732422
0.150204896927	1.09595561028	0.0544829368591	-0.0190627574921	1.54754590988	-0.207097291946
0.149889230728	1.09526991844	0.0542752742767	-0.0197324752808	1.54761576653	-0.206749677658
0.150283098221	1.09471786022	0.0538835525513	-0.0202543735504	1.54570794106	-0.206634521484
0.151096820831	1.09527075291	0.0535348653793	-0.0204081535339	1.5412914753	-0.206830263138
0.152112007141	1.09674036503	0.0529364347458	-0.0202898979187	1.53757190704	-0.206742286682
0.153563261032	1.09738969803	0.052597284317	-0.0199825763702	1.53453743458	-0.20694231987
0.15508556366	1.09893834591	0.0522372722626	-0.0196542739868	1.53111565113	-0.207389712334
0.156333208084	1.10029768944	0.052018404007	-0.0196211338043	1.53044641018	-0.207316398621
0.156856298447	1.09995543957	0.0519506931305	-0.0197746753693	1.53293979168	-0.20691037178
0.156305551529	1.09906291962	0.0520944595337	-0.0194215774536	1.53756189346	-0.206336379051
0.154710531235	1.10069012642	0.0519552230835	-0.0183629989624	1.54285728931	-0.206363201141
0.155619621277	1.10125720501	0.0523046255112	-0.0160980224609	1.54715716839	-0.20649933815
0.15663599968	1.09999740124	0.0531327724457	-0.0133211612701	1.5496815443	-0.206223845482
0.156132698059	1.09920251369	0.0536551475525	-0.0111672878265	1.55050396919	-0.206031680107
0.155036449432	1.09841442108	0.0541980266571	-0.00976824760437	1.55038738251	-0.205596208572
0.156005859375	1.09366166592	0.0551232099533	-0.00997090339661	1.54939866066	-0.204677700996
0.156083345413	1.08975744247	0.0556691884995	-0.0113456249237	1.54753899574	-0.203674554825
0.155210494995	1.08779454231	0.0558948516846	-0.0138864517212	1.545363307	-0.202472925186
0.154265165329	1.08791923523	0.0560208559036	-0.0170702934265	1.54427790642	-0.201002120972
0.151739597321	1.08773398399	0.0564997196198	-0.0206587314606	1.54427850246	-0.19979095459
0.142481327057	1.08922970295	0.0564070940018	-0.0245633125305	1.54504740238	-0.198869585991
0.13441991806	1.0896281004	0.0562264919281	-0.0277440547943	1.54614245892	-0.198179960251
0.130241155624	1.09027862549	0.0568670034409	-0.0292575359344	1.54670286179	-0.197939872742
0.127058029175	1.09173572063	0.0571013689041	-0.0286436080933	1.54648005962	-0.197552204132
0.126299858093	1.09364199638	0.0568020343781	-0.0271077156067	1.54580903053	-0.197037935257
0.128226518631	1.0938616991	0.0565965175629	-0.0252366065979	1.54565906525	-0.196595907211
0.131144046783	1.09350478649	0.0568480491638	-0.0236732959747	1.54543149471	-0.196507930756
0.133195638657	1.09419894218	0.056694984436	-0.0223805904388	1.54552721977	-0.196351885796
0.135270595551	1.09406387806	0.0566517114639	-0.0207345485687	1.54588782787	-0.196545600891
0.14063167572	1.0937359333	0.0568445920944	-0.0187835693359	1.54617094994	-0.196842432022
0.1455950737	1.09410011768	0.0564653873444	-0.0168294906616	1.54659748077	-0.19723367691
0.152782917023	1.09500181675	0.0557878017426	-0.0150799751282	1.54644799232	-0.197280168533
0.160472393036	1.09545207024	0.0550467967987	-0.0137522220612	1.54631614685	-0.197288513184
0.165415048599	1.09651553631	0.0548844337463	-0.0124442577362	1.54612648487	-0.196990013123
0.167901992798	1.09642148018	0.0546789169312	-0.0120229721069	1.54592716694	-0.196546554565
0.167961120605	1.09577274323	0.0548963546753	-0.0119798183441	1.54558217525	-0.19620013237
0.16680932045	1.0956094265	0.0547763109207	-0.011860370636	1.54489517212	-0.196122765541
0.166501283646	1.09614062309	0.0548989772797	-0.0119695663452	1.54441690445	-0.195871114731
0.167634010315	1.09634482861	0.0550171136856	-0.0120778083801	1.54452872276	-0.195674538612
0.169183254242	1.09654283524	0.0548560619354	-0.0118765830994	1.54463660717	-0.195896744728
0.169600248337	1.09797549248	0.0544397830963	-0.0110447406769	1.54454731941	-0.196719408035
0.170504808426	1.09926581383	0.0541427135468	-0.0111587047577	1.54469668865	-0.197253227234
0.171079158783	1.09854674339	0.0538505315781	-0.0128376483917	1.54490077496	-0.197778701782
0.17151594162	1.09832453728	0.0537601709366	-0.015625	1.54497635365	-0.198045969009
0.172086000443	1.09912288189	0.0539561510086	-0.01908659935	1.544957757	-0.198395490646
0.173462152481	1.10019004345	0.0540846586227	-0.0234072208405	1.5444624424	-0.198633670807
0.174317598343	1.10062456131	0.0537123680115	-0.0289924144745	1.54361641407	-0.199177384377
0.175423383713	1.10034763813	0.0529597997665	-0.0357387065887	1.54245138168	-0.200042963028
0.175705909729	1.10019469261	0.0526080131531	-0.0428895950317	1.54076182842	-0.200690507889
0.175596952438	1.10146832466	0.0518901348114	-0.0497570037842	1.53971242905	-0.201174378395
0.176613092422	1.10280847549	0.0506436824799	-0.0561833381653	1.53889274597	-0.20151591301
0.179385662079	1.10172915459	0.0485373735428	-0.0623354911804	1.5383027792	-0.202198028564
0.184122085571	1.09933137894	0.0459057092667	-0.0681581497192	1.53784382343	-0.203234195709
0.189340591431	1.09717166424	0.0428982973099	-0.0734438896179	1.5377959013	-0.204139471054
0.194102525711	1.09557402134	0.0406696796417	-0.0762233734131	1.53789842129	-0.204773306847
0.19581079483	1.09582567215	0.0403082370758	-0.0756344795227	1.53806781769	-0.204667210579
0.193308353424	1.09809231758	0.0409091711044	-0.0732700824738	1.53836107254	-0.204507827759
0.190258741379	1.0997838974	0.041583776474	-0.0708928108215	1.53904914856	-0.204066634178
0.188445568085	1.10021674633	0.0417187213898	-0.069712638855	1.5389623642	-0.204135656357
0.188470363617	1.09979808331	0.0404778718948	-0.0714600086212	1.53827178478	-0.204428911209
0.189124822617	1.09941828251	0.039244055748	-0.0739936828613	1.53815734386	-0.205254554749
0.188454866409	1.09817826748	0.0394371747971	-0.0760390758514	1.53874254227	-0.204968214035
0.185403823853	1.09737432003	0.0394802093506	-0.07559633255	1.53806877136	-0.203857064247
0.180269479752	1.09655416012	0.0385853052139	-0.0744578838348	1.5371119976	-0.203046798706
0.176820278168	1.09657502174	0.0375467538834	-0.0732223987579	1.5369809866	-0.203194379807
0.176184177399	1.09617173672	0.0367140769958	-0.0723433494568	1.53718078136	-0.204159855843
0.177319049835	1.09605228901	0.0362033843994	-0.0715429782867	1.53757572174	-0.204998493195
0.17769575119	1.09594273567	0.0352907180786	-0.0713305473328	1.53681659698	-0.205989003181
0.177777290344	1.09462630749	0.0346006155014	-0.0729970932007	1.53595137596	-0.206547021866
0.176998615265	1.09334647655	0.0338611602783	-0.0753285884857	1.53468310833	-0.207104206085
0.176126718521	1.09246623516	0.033261179924	-0.0781700611115	1.53321290016	-0.207907438278
0.174962520599	1.09114444256	0.0322390794754	-0.0822608470917	1.53180086613	-0.209264755249
0.17479300499	1.08897924423	0.0312138795853	-0.0858287811279	1.53186869621	-0.211107611656
0.175051927567	1.08769488335	0.0306084156036	-0.0856268405914	1.53470301628	-0.211996674538
0.175288438797	1.08885443211	0.0301457643509	-0.0815892219543	1.53906106949	-0.212446928024
0.175654649734	1.09050893784	0.0298953056335	-0.0760374069214	1.54310429096	-0.212503314018
0.175758838654	1.09057128429	0.0293226242065	-0.0710747241974	1.54615557194	-0.212592601776
0.175673961639	1.08949685097	0.0280457735062	-0.0669815540314	1.54780614376	-0.212325334549
0.175043344498	1.0876480341	0.0268723964691	-0.0639219284058	1.54851186275	-0.212258338928
0.173806190491	1.08644604683	0.0262761116028	-0.0612304210663	1.5489872694	-0.212564229965
0.172839403152	1.08627927303	0.0262460708618	-0.0583734512329	1.54984235764	-0.212879419327
0.171395301819	1.0871360302	0.0268121957779	-0.0555973052979	1.55081105232	-0.213014364243
0.171391487122	1.08719182014	0.0268424749374	-0.0533626079559	1.55196988583	-0.212955236435
0.172954559326	1.0865265131	0.0266973972321	-0.0524418354034	1.55249738693	-0.212695121765
0.174876451492	1.08584368229	0.0266779661179	-0.0530023574829	1.55210077763	-0.212500095367
0.176815032959	1.08579456806	0.0272957086563	-0.0543549060822	1.5514831543	-0.21218085289
0.178810358047	1.08538269997	0.0288286209106	-0.0570759773254	1.55135428905	-0.211412668228
0.179996967316	1.08394098282	0.0295901298523	-0.0616314411163	1.55136477947	-0.211105942726
0.180583238602	1.08157873154	0.0302461385727	-0.0665245056152	1.55113613605	-0.211626052856
0.179718017578	1.07962930202	0.0310227870941	-0.0700173377991	1.55150735378	-0.212571382523
0.179097414017	1.07858872414	0.032320022583	-0.0713114738464	1.55239474773	-0.212893009186
0.178058862686	1.07843959332	0.0333396196365	-0.0713167190552	1.55299949646	-0.211829900742
0.176871776581	1.07967960835	0.0337538719177	-0.0727846622467	1.55263411999	-0.21059346199
0.17721247673	1.07959282398	0.0343730449677	-0.0763640403748	1.55135166645	-0.209381341934
0.178946018219	1.07692492008	0.0353872776031	-0.0811874866486	1.54951381683	-0.208981871605
0.178234577179	1.07874751091	0.0355594158173	-0.0860412120819	1.54799520969	-0.208555698395
0.177306652069	1.07913863659	0.0361173152924	-0.0904955863953	1.54594945908	-0.208653211594
0.174182891846	1.07894408703	0.03679728508	-0.094893693924	1.54399359226	-0.209342241287
0.170719385147	1.07679700851	0.0370585918427	-0.099630355835	1.54190182686	-0.210697412491
0.167454957962	1.07471776009	0.0371514558792	-0.104295730591	1.5398696661	-0.212390065193
0.165338039398	1.07561302185	0.0375235080719	-0.107166051865	1.53877484798	-0.213809490204
0.163839578629	1.07974469662	0.0390146970749	-0.107175111771	1.53863179684	-0.213338375092
0.161924362183	1.08346879482	0.0397827625275	-0.105769395828	1.53770411015	-0.212309598923
0.160989761353	1.08489871025	0.03941655159	-0.104706525803	1.53533995152	-0.2104575634
0.162763595581	1.08471858501	0.0384135246277	-0.10441827774	1.53210926056	-0.208087444305
0.165298700333	1.08523893356	0.0371943712234	-0.104734420776	1.52815902233	-0.205995321274
0.167767524719	1.08738493919	0.0366520881653	-0.105710983276	1.5242421627	-0.203797101974
0.169614315033	1.09054672718	0.0356303453445	-0.107778072357	1.51947653294	-0.201996803284
0.170301914215	1.09215295315	0.0346937179565	-0.109258651733	1.51779663563	-0.200684547424
0.16991353035	1.09287071228	0.0341670513153	-0.110337972641	1.51809716225	-0.200305938721
0.167498588562	1.09335160255	0.0339175462723	-0.111791133881	1.51641821861	-0.200749874115
0.164391994476	1.09461915493	0.0337009429932	-0.112950086594	1.51460492611	-0.201149940491
0.164633512497	1.09616208076	0.033896446228	-0.113659620285	1.51433670521	-0.201585769653
0.167239665985	1.09463858604	0.0345605611801	-0.113945960999	1.51566708088	-0.202333688736
0.164312601089	1.09496486187	0.0346210002899	-0.113415002823	1.51663351059	-0.203090786934
0.160320997238	1.09527862072	0.0342125892639	-0.113051891327	1.51664745808	-0.203741908073
0.160890579224	1.09457349777	0.0334893465042	-0.113173484802	1.51548957825	-0.204117536545
0.163787841797	1.09519016743	0.03266954422	-0.113749265671	1.51409029961	-0.204307317734
0.167233228683	1.09638571739	0.0319049358368	-0.114962339401	1.51260972023	-0.204650640488
0.169496059418	1.0975369215	0.0311036109924	-0.116697311401	1.51120626926	-0.20500433445
0.173830509186	1.09582138062	0.0304114818573	-0.117494344711	1.51048696041	-0.205338358879
0.175163507462	1.09206879139	0.0296068191528	-0.117157459259	1.51068127155	-0.205806970596
0.17110824585	1.09192872047	0.0287190675735	-0.115294933319	1.51251769066	-0.206294298172
0.165335893631	1.09333026409	0.0275021791458	-0.110550165176	1.51779162884	-0.206805706024
0.165217399597	1.09193539619	0.0261427164078	-0.102231264114	1.52554893494	-0.207964658737
0.16629743576	1.09083783627	0.0246293544769	-0.0917096138	1.53210556507	-0.210037946701
0.168068408966	1.08963429928	0.0228414535522	-0.0797188282013	1.53561651707	-0.212253570557
0.170359611511	1.08860576153	0.0209773778915	-0.0675802230835	1.53665697575	-0.213774800301
0.172697782516	1.08742892742	0.0189216136932	-0.0563774108887	1.53759241104	-0.214564085007
0.17406129837	1.08477282524	0.0177047252655	-0.0462169647217	1.53897166252	-0.214917182922
0.174428224564	1.08252000809	0.0176260471344	-0.0376944541931	1.54024744034	-0.214520812035
0.174434900284	1.08055198193	0.0179067850113	-0.0306923389435	1.5407140255	-0.213866472244
0.174669027328	1.07913327217	0.0186312198639	-0.0257015228271	1.54058325291	-0.212703466415
0.175906419754	1.07757532597	0.0189244747162	-0.0234389305115	1.54108345509	-0.21192741394
0.178117513657	1.07654237747	0.0197370052338	-0.023885011673	1.54224896431	-0.211265921593
0.180290460587	1.0764131546	0.0208455324173	-0.0274059772491	1.54257524014	-0.210625052452
0.18142914772	1.07550060749	0.0226764678955	-0.0333769321442	1.54206132889	-0.209821939468
0.178953170776	1.07394897938	0.0249706506729	-0.0413112640381	1.54153430462	-0.208815574646
0.175318241119	1.07280194759	0.0268268585205	-0.0497462749481	1.54033982754	-0.208001255989
0.17124414444	1.07439041138	0.0286458730698	-0.0567147731781	1.53940618038	-0.207377672195
0.16601395607	1.07899415493	0.0312852859497	-0.0617418289185	1.5378497839	-0.206970453262
0.161565542221	1.08539712429	0.0343778133392	-0.0631897449493	1.53599095345	-0.207537174225
0.155739307404	1.09299767017	0.0366365909576	-0.0623290538788	1.53604197502	-0.20800101757
0.148888111115	1.10224163532	0.0368318557739	-0.0606307983398	1.53731644154	-0.208920001984
0.142693042755	1.10918259621	0.0364933013916	-0.0586128234863	1.539255023	-0.210053443909
0.144807815552	1.11218607426	0.0373789072037	-0.0560007095337	1.54130673409	-0.210884571075
0.156844615936	1.10772931576	0.0394690036774	-0.0528266429901	1.54252815247	-0.211505770683
0.162155389786	1.10215044022	0.0388762950897	-0.0489661693573	1.54284071922	-0.211528301239
0.163553714752	1.10029292107	0.0365760326385	-0.0459804534912	1.54282832146	-0.21186876297
0.165830850601	1.100045681	0.0351175069809	-0.0448040962219	1.54232990742	-0.212762355804
0.167038440704	1.10237109661	0.0333604812622	-0.0437994003296	1.54087197781	-0.214129924774
0.17018032074	1.10495233536	0.0318064689636	-0.042370557785	1.53815662861	-0.215961694717
0.172850847244	1.10781538486	0.0303953886032	-0.0414469242096	1.53622758389	-0.218183636665
0.174156188965	1.10999333858	0.0293344259262	-0.042379617691	1.53640937805	-0.220485448837
0.175446033478	1.11033034325	0.0280939340591	-0.0457084178925	1.53681468964	-0.223328351974
0.176171302795	1.11109280586	0.0273058414459	-0.0496468544006	1.5381270647	-0.226191043854
0.177061080933	1.11413002014	0.0279128551483	-0.0520462989807	1.53902566433	-0.229165554047
0.176302909851	1.12179303169	0.029222369194	-0.0516242980957	1.53938674927	-0.23201417923
0.172845840454	1.12923538685	0.0305914878845	-0.0473699569702	1.53778910637	-0.234532356262
0.17023229599	1.13333427906	0.0302906036377	-0.0429103374481	1.53651452065	-0.236438155174
0.167426109314	1.13254392147	0.0280637741089	-0.0383176803589	1.53800415993	-0.23785007
0.165253162384	1.12871718407	0.0260590314865	-0.0324878692627	1.54030334949	-0.239305496216
0.165011644363	1.12454497814	0.0235111713409	-0.0256335735321	1.54165148735	-0.240360021591
0.169887304306	1.12020289898	0.020941734314	-0.0187327861786	1.54241573811	-0.240357756615
0.175875425339	1.11486279964	0.0182116031647	-0.0122106075287	1.54219210148	-0.239715337753
0.180009841919	1.11050391197	0.0157675743103	-0.00592803955078	1.54145646095	-0.238796710968
0.181039333344	1.10782027245	0.0144491195679	-0.00043249130249	1.5411901474	-0.237609744072
0.180420637131	1.10602760315	0.0144979953766	0.00331711769104	1.541898489	-0.236677289009
0.178588867188	1.10475063324	0.0154869556427	0.00604796409607	1.54294717312	-0.235562324524
0.175480127335	1.10326397419	0.0166993141174	0.00855350494385	1.54340183735	-0.234274625778
0.172298669815	1.10082840919	0.0179057121277	0.011513710022	1.54198873043	-0.233062505722
0.168257474899	1.09931659698	0.01919734478	0.0155971050262	1.53910064697	-0.232107162476
0.165596723557	1.09898257256	0.0205738544464	0.0198974609375	1.53644156456	-0.231360197067
0.164249897003	1.09892499447	0.0227129459381	0.0231926441193	1.53584563732	-0.230458974838
0.165149450302	1.09701883793	0.0250805616379	0.023157119751	1.53731787205	-0.228604197502
0.164610385895	1.09637498856	0.0266827344894	0.0194878578186	1.5397734642	-0.225370168686
0.164195775986	1.0965154171	0.0282074213028	0.0135424137115	1.54327583313	-0.22167634964
0.165923118591	1.09631752968	0.0295886993408	0.00712275505066	1.5462179184	-0.218535661697
0.16704416275	1.09784328938	0.0308539867401	0.00164175033569	1.54759263992	-0.216865777969
0.168942213058	1.10092639923	0.0323928594589	-0.00169730186462	1.54790759087	-0.217131614685
0.170582532883	1.10463821888	0.0340272188187	-0.00329947471619	1.54649460316	-0.219491124153
0.17157959938	1.10869848728	0.0358054637909	-0.00419187545776	1.54327464104	-0.222782611847
0.171957015991	1.11265468597	0.0366127490997	-0.00470972061157	1.54034221172	-0.225702285767
0.171880722046	1.11547291279	0.0371925830841	-0.00492072105408	1.53793871403	-0.227704763412
0.171056747437	1.11723148823	0.0369369983673	-0.00490975379944	1.53616225719	-0.229316234589
0.170847654343	1.11798119545	0.0366414785385	-0.00492644309998	1.53721249104	-0.229600906372
0.170849561691	1.11635088921	0.0360915660858	-0.00492382049561	1.54045069218	-0.22904086113
0.17037320137	1.11247229576	0.0352611541748	-0.00459980964661	1.54376852512	-0.228013515472
0.168649673462	1.10820543766	0.0339612960815	-0.00329852104187	1.54627263546	-0.227103948593
0.168081283569	1.10375797749	0.0324708223343	-0.00108075141907	1.54799008369	-0.226795911789
0.169073104858	1.09962248802	0.0314618349075	0.00351810455322	1.54951906204	-0.226933240891
0.170132637024	1.0969440937	0.0304327011108	0.0102376937866	1.55021071434	-0.227398991585
0.170744180679	1.09507024288	0.0301955938339	0.0186903476715	1.54963827133	-0.228006362915
0.170752763748	1.09352266788	0.0300832986832	0.027548789978	1.54805767536	-0.228453755379
0.171146869659	1.09130942822	0.0298529863358	0.0350699424744	1.54634952545	-0.228364825249
0.171307086945	1.08970546722	0.0300600528717	0.0406687259674	1.54508340359	-0.228350162506
0.171060800552	1.08828997612	0.0309762954712	0.0433435440063	1.54450523853	-0.228346824646
0.174491643906	1.08623898029	0.0319612026215	0.0426478385925	1.5444933176	-0.228246927261
0.181473255157	1.08375179768	0.0313422679901	0.0391590595245	1.54498279095	-0.229072332382
0.187880516052	1.08255791664	0.0308837890625	0.0349013805389	1.54591345787	-0.230377435684
0.192048072815	1.08362734318	0.02965092659	0.0301225185394	1.54724347591	-0.231786727905
0.194977998734	1.0856231451	0.0287352800369	0.0253045558929	1.54866957664	-0.232533693314
0.198877096176	1.08642232418	0.0279815196991	0.0205216407776	1.55001366138	-0.232300043106
0.201126098633	1.0857821703	0.0267739295959	0.0155417919159	1.55089831352	-0.231138944626
0.200771570206	1.0850584507	0.0250209569931	0.0112409591675	1.55106210709	-0.229958891869
0.199676036835	1.08462142944	0.0230095386505	0.00831460952759	1.55081748962	-0.228911161423
0.195364952087	1.08686196804	0.02161693573	0.00684070587158	1.55028164387	-0.228194475174
0.193400382996	1.08939135075	0.0211884975433	0.00596141815186	1.54994654655	-0.227733612061
0.192781209946	1.09018373489	0.0211709737778	0.00488948822021	1.54972541332	-0.227224469185
0.191886663437	1.09042847157	0.0209285020828	0.00416707992554	1.54930007458	-0.226681113243
0.195234298706	1.09247434139	0.0214035511017	0.00404858589172	1.54861426353	-0.226375579834
0.197183132172	1.0937936306	0.022443652153	0.00370955467224	1.54821705818	-0.225834488869
0.194268465042	1.09525799751	0.0238621234894	0.00303888320923	1.54832673073	-0.225011825562
0.191878318787	1.09557580948	0.0250890254974	0.00254011154175	1.54824531078	-0.224380850792
0.190411090851	1.095941782	0.0266386270523	0.00252771377563	1.54841423035	-0.223560810089
0.190234661102	1.09508562088	0.027464389801	0.00229859352112	1.54878485203	-0.22279214859
0.189989805222	1.09344279766	0.0277296304703	0.00320148468018	1.5491271019	-0.22177875042
0.188436031342	1.09224927425	0.0281811952591	0.00528693199158	1.54929578304	-0.220493555069
0.18657040596	1.09159612656	0.0285522937775	0.00682759284973	1.54934597015	-0.219331860542
0.185663938522	1.09144973755	0.029149055481	0.00774383544922	1.54955339432	-0.218046426773
0.183918952942	1.0904276371	0.0293428897858	0.00792288780212	1.54977619648	-0.216902494431
0.180574893951	1.08985590935	0.0297926664352	0.00759792327881	1.54992687702	-0.215402245522
0.173950910568	1.09205675125	0.0304433107376	0.00710105895996	1.54975676537	-0.213515043259
0.167647361755	1.0937731266	0.0306297540665	0.00632262229919	1.54952061176	-0.211581349373
0.160877943039	1.09472751617	0.0303192138672	0.00511813163757	1.54934513569	-0.209922671318
0.154021263123	1.09478294849	0.0300707817078	0.00335741043091	1.54943430424	-0.208604574203
0.147323846817	1.09539890289	0.0294073820114	0.000856399536133	1.54974603653	-0.20806324482
0.142314910889	1.09619891644	0.0291128158569	-0.0024254322052	1.55028820038	-0.207508563995
0.140489339828	1.09628891945	0.0295691490173	-0.00534534454346	1.55044329166	-0.206780433655
0.143574953079	1.09684586525	0.0303950309753	-0.00718212127686	1.54977118969	-0.205772399902
0.145278692245	1.09702670574	0.0307416915894	-0.00769567489624	1.54870986938	-0.20497751236
0.142836809158	1.09648728371	0.0306241512299	-0.00810742378235	1.54794037342	-0.204250335693
0.140443563461	1.09634709358	0.030624628067	-0.00912880897522	1.54777097702	-0.204213619232
0.139390945435	1.09697794914	0.0310657024384	-0.0111961364746	1.54772436619	-0.204249620438
0.13738489151	1.09772777557	0.0309543609619	-0.0143809318542	1.5478335619	-0.204633831978
0.134207248688	1.09828162193	0.0304777622223	-0.0179870128632	1.54829287529	-0.205157756805
0.133643865585	1.09721577168	0.0302793979645	-0.0212512016296	1.54864883423	-0.205436825752
0.13428068161	1.09507954121	0.0299626588821	-0.0237658023834	1.54863858223	-0.205645918846
0.135185003281	1.09351825714	0.0301208496094	-0.0261850357056	1.5483726263	-0.205186843872
0.136983633041	1.09168112278	0.0302400588989	-0.0286657810211	1.54774153233	-0.20441365242
0.137484073639	1.09036958218	0.0306539535522	-0.0305862426758	1.54687452316	-0.203637361526
0.136192798615	1.09053611755	0.0316278934479	-0.0312910079956	1.54579997063	-0.203051328659
0.134716033936	1.09269344807	0.0325549840927	-0.0299818515778	1.54455471039	-0.202648282051
0.132700920105	1.09687721729	0.0327181816101	-0.0282287597656	1.54326796532	-0.202226877213
0.129503726959	1.10080420971	0.031797170639	-0.0273101329803	1.54149699211	-0.202005624771
0.126074552536	1.10370981693	0.0300031900406	-0.0275201797485	1.53908002377	-0.202308893204
0.125555515289	1.10319423676	0.0298038721085	-0.0284199714661	1.53679037094	-0.202409505844
0.125976324081	1.10193729401	0.029983997345	-0.0292208194733	1.5358659029	-0.202256202698
0.126853227615	1.10180425644	0.0303416252136	-0.0291242599487	1.53642475605	-0.20224905014
0.13108420372	1.10259234905	0.0319802761078	-0.0275692939758	1.5380218029	-0.201906442642
0.136049985886	1.10290586948	0.0336283445358	-0.0250914096832	1.54080224037	-0.201560258865
0.137388944626	1.10293281078	0.0342233181	-0.0213272571564	1.54416155815	-0.201064348221
0.13844704628	1.10225510597	0.0345208644867	-0.0156986713409	1.54634571075	-0.201018333435
0.139046669006	1.10237324238	0.0347986221313	-0.00879955291748	1.54664874077	-0.201377153397
0.140006780624	1.10341870785	0.0345848798752	-0.00216817855835	1.54536354542	-0.201994419098
0.141686201096	1.10420036316	0.0337369441986	0.00310134887695	1.54318666458	-0.202688455582
0.144212245941	1.10435712337	0.0329256057739	0.00554347038269	1.54132282734	-0.20271229744
0.146998405457	1.10408377647	0.0318840742111	0.00633406639099	1.54140388966	-0.202941417694
0.149343252182	1.1028188467	0.0320219993591	0.00732016563416	1.54234933853	-0.203608989716
0.14922451973	1.10264539719	0.0326834917068	0.00995469093323	1.54394185543	-0.204445362091
0.148096561432	1.1026597023	0.0334092378616	0.0145261287689	1.54563045502	-0.205575346947
0.147515058517	1.10259389877	0.0339010953903	0.0206372737885	1.5462975502	-0.20688867569
0.147181987762	1.10189163685	0.0343973636627	0.0276095867157	1.54632902145	-0.208503603935
0.147567987442	1.10140311718	0.0347940921783	0.0344893932343	1.5455596447	-0.210046052933
0.148291349411	1.10117220879	0.0353167057037	0.0409624576569	1.54473245144	-0.211443305016
0.149103403091	1.10069978237	0.035707950592	0.0455422401428	1.54425835609	-0.212423801422
0.150344848633	1.10028982162	0.0356462001801	0.047593832016	1.54425442219	-0.213024377823
0.151630163193	1.10033738613	0.0353126525879	0.0468497276306	1.54501271248	-0.213572502136
0.152686357498	1.10096549988	0.035071849823	0.0435705184937	1.54606950283	-0.21381020546
0.152678489685	1.1014778614	0.0346531867981	0.0386686325073	1.54868066311	-0.213369607925
0.153038978577	1.10142052174	0.0341498851776	0.0313725471497	1.55184102058	-0.212181091309
0.152266263962	1.09841537476	0.0343190431595	0.0219879150391	1.55471122265	-0.210857868195
0.150326967239	1.09710144997	0.0337282419205	0.0107595920563	1.55801737309	-0.20967912674
0.149635791779	1.09441173077	0.0325204133987	-0.00158452987671	1.56029641628	-0.209030747414
0.14790725708	1.09193348885	0.031298160553	-0.0115776062012	1.5605199337	-0.209450483322
0.147091627121	1.09312868118	0.030019402504	-0.0193858146667	1.55985414982	-0.210020184517
0.146001815796	1.09468412399	0.0299509763718	-0.0261287689209	1.55869626999	-0.210606098175
0.141877412796	1.0965321064	0.030409693718	-0.0318698883057	1.55731117725	-0.211074352264
0.136471271515	1.0999339819	0.0303256511688	-0.0359969139099	1.55585205555	-0.211032390594
0.133605718613	1.10138368607	0.0297908782959	-0.0368082523346	1.5558180809	-0.211003780365
0.134126186371	1.10004174709	0.0294163227081	-0.0370454788208	1.55568826199	-0.210721254349
0.135190248489	1.10054278374	0.0295464992523	-0.0374183654785	1.55504393578	-0.210820436478
0.134976625443	1.10088300705	0.0303049087524	-0.037234544754	1.55480480194	-0.210747241974
0.13319849968	1.10150790215	0.0307395458221	-0.0362753868103	1.55389130116	-0.211487531662
0.131725549698	1.10336363316	0.0314724445343	-0.0335097312927	1.55316412449	-0.211932659149
0.131172180176	1.10519492626	0.032105922699	-0.0318601131439	1.55242621899	-0.212260484695
0.130379676819	1.10392975807	0.0320262908936	-0.0313539505005	1.55219697952	-0.213098526001
0.129435062408	1.1020270586	0.0316796302795	-0.0314159393311	1.55301344395	-0.213567733765
0.129330873489	1.10199522972	0.0311427116394	-0.0311434268951	1.55413734913	-0.214172244072
0.131981611252	1.10163748264	0.0308899879456	-0.0311930179596	1.55501842499	-0.214443683624
0.133672475815	1.10056710243	0.030445933342	-0.0314967632294	1.55360984802	-0.215049743652
0.134395360947	1.10177016258	0.0292181968689	-0.0321292877197	1.55109488964	-0.215187549591
0.134474277496	1.10268509388	0.027943611145	-0.0328547954559	1.54856050014	-0.21563076973
0.134263277054	1.10259735584	0.0262942314148	-0.0329194068909	1.54807507992	-0.216121912003
0.134014606476	1.10162556171	0.0256719589233	-0.0317106246948	1.54833877087	-0.217076539993
0.132968664169	1.10285580158	0.0252077579498	-0.0304601192474	1.54868233204	-0.218560218811
0.133132696152	1.1036670208	0.0251266956329	-0.0299062728882	1.54821133614	-0.220067977905
0.132246494293	1.10443627834	0.0247917175293	-0.0307221412659	1.54704082012	-0.221197843552
0.131076335907	1.10519623756	0.0241831541061	-0.0324201583862	1.54581975937	-0.222252845764
0.130358219147	1.10501456261	0.0237928628922	-0.0347149372101	1.5463758707	-0.223896980286
0.129508018494	1.10499691963	0.0228408575058	-0.0380094051361	1.5471303463	-0.224940419197
0.128462076187	1.10537540913	0.0223217010498	-0.0397238731384	1.54745352268	-0.226762533188
0.128401279449	1.10666847229	0.0215315818787	-0.0404438972473	1.54770278931	-0.228213787079
0.127922534943	1.10734367371	0.020614862442	-0.0406136512756	1.54826366901	-0.228736400604
0.128323793411	1.10620975494	0.0184524059296	-0.0388450622559	1.55050110817	-0.227836608887
0.128898143768	1.1031999588	0.0171737670898	-0.0342817306519	1.55154252052	-0.22640812397
0.130584478378	1.10192513466	0.0159959793091	-0.0280067920685	1.55161511898	-0.22466468811
0.132688045502	1.10094034672	0.0154736042023	-0.0206279754639	1.55116510391	-0.223469018936
0.134636640549	1.09964716434	0.0155222415924	-0.0131039619446	1.55118632317	-0.222747325897
0.136775016785	1.09763622284	0.015588760376	-0.00662136077881	1.5515627861	-0.222651958466
0.140702486038	1.09543657303	0.0152444839478	-0.00204801559448	1.5526266098	-0.221590042114
0.145978689194	1.09365928173	0.0141921043396	-0.00187373161316	1.55287909508	-0.219444394112
0.149388551712	1.09619414806	0.0133919715881	-0.0051896572113	1.55254900455	-0.217146277428
0.153962373734	1.1026699543	0.0131039619446	-0.0103938579559	1.55303370953	-0.214999198914
0.159343481064	1.11159527302	0.0124099254608	-0.0151591300964	1.55397498608	-0.213105201721
0.166317462921	1.1204072237	0.008296251297	-0.0181303024292	1.55462098122	-0.212001800537
0.179366350174	1.12578129768	-0.000243306159973	-0.0197715759277	1.55532801151	-0.211227416992
0.200240850449	1.12672793865	-0.011407494545	-0.0204894542694	1.55585587025	-0.210339665413
0.225057840347	1.12559628487	-0.0226802825928	-0.0201063156128	1.55616509914	-0.208911180496
0.247330188751	1.12942922115	-0.0307915210724	-0.0188293457031	1.55541455746	-0.207518815994
0.273889303207	1.13956856728	-0.0378577709198	-0.017023563385	1.55463564396	-0.206251740456
0.293198108673	1.1539978981	-0.0435969829559	-0.0158834457397	1.55470132828	-0.206016540527
0.303915500641	1.16243577003	-0.0467420816422	-0.0148501396179	1.55465710163	-0.206457138062
0.303525686264	1.16446995735	-0.0459721088409	-0.0141181945801	1.55497229099	-0.207283258438
0.297303438187	1.16164696217	-0.0418672561646	-0.0126440525055	1.55593502522	-0.208035707474
0.290227174759	1.15798842907	-0.0365831851959	-0.0100622177124	1.5565404892	-0.208945155144
0.283528327942	1.15664494038	-0.031439781189	-0.00529527664185	1.55621671677	-0.210326313972
0.277031183243	1.15508723259	-0.0274488925934	0.00121831893921	1.5554381609	-0.211746692657
0.27104139328	1.15230453014	-0.0253894329071	0.00791335105896	1.5544270277	-0.213617324829
0.265571594238	1.14889526367	-0.024076461792	0.013726234436	1.55342447758	-0.215257406235
0.261700153351	1.14662909508	-0.0232565402985	0.0187318325043	1.55197679996	-0.216722249985
0.259114265442	1.14535224438	-0.0228612422943	0.0228550434113	1.55039298534	-0.218201875687
0.257294893265	1.14496052265	-0.0218665599823	0.0254938602448	1.54959821701	-0.219349145889
0.256509542465	1.1446917057	-0.0211915969849	0.0261688232422	1.55030500889	-0.219739198685
0.250072002411	1.14435875416	-0.0186463594437	0.0244841575623	1.55124020576	-0.219175577164
0.236330986023	1.14187896252	-0.0144307613373	0.0212936401367	1.55164849758	-0.218112707138
0.228735685349	1.13631129265	-0.0122194290161	0.0169811248779	1.55217826366	-0.216745376587
0.223977088928	1.13362503052	-0.0120869874954	0.0123364925385	1.55272459984	-0.215306282043
0.219019889832	1.13240492344	-0.0113434791565	0.00767230987549	1.55352187157	-0.213415384293
0.212237358093	1.13156795502	-0.00890052318573	0.00251364707947	1.55419158936	-0.210789322853
0.206436634064	1.13134586811	-0.00672805309296	-0.00348162651062	1.55428779125	-0.208123922348
0.201908111572	1.13338649273	-0.00414288043976	-0.00933980941772	1.55378711224	-0.205538153648
0.199398040771	1.13751196861	-0.00187873840332	-0.013876914978	1.55298542976	-0.203317523003
0.189048528671	1.139062047	0.00180983543396	-0.0171825885773	1.55253875256	-0.201433181763
0.182915449142	1.14025449753	0.00409686565399	-0.0202922821045	1.55181729794	-0.200623035431
0.180343151093	1.14194703102	0.00530767440796	-0.0234198570251	1.55144953728	-0.200377941132
0.179684638977	1.14243268967	0.00543570518494	-0.0267150402069	1.55217063427	-0.200894474983
0.180119752884	1.14169156551	0.00498569011688	-0.0300641059875	1.55296099186	-0.201952934265
0.180952072144	1.14160525799	0.00458979606628	-0.033383846283	1.55313384533	-0.202954649925
0.183238983154	1.14241242409	0.00332093238831	-0.0365662574768	1.55323207378	-0.204354763031
0.184660196304	1.14203798771	0.00277435779572	-0.0392606258392	1.55311584473	-0.205745458603
0.183989048004	1.14085292816	0.0024516582489	-0.0420603752136	1.5529512167	-0.207361221313
0.182647228241	1.14043951035	0.0020923614502	-0.0446155071259	1.55322682858	-0.208878755569
0.181806087494	1.14074087143	0.00150489807129	-0.0466685295105	1.55313229561	-0.210196137428
0.18227481842	1.14123904705	0.00121104717255	-0.0475821495056	1.55141925812	-0.211953878403
0.182615756989	1.14332842827	0.000969648361206	-0.0472309589386	1.54762732983	-0.214387059212
0.180530786514	1.1480910778	0.00203251838684	-0.0464811325073	1.54377830029	-0.216895103455
0.176785230637	1.15511643887	0.0032674074173	-0.0462262630463	1.54000294209	-0.219762086868
0.173939228058	1.16284441948	0.00477743148804	-0.045459985733	1.53752028942	-0.222059488297
0.171561717987	1.16993522644	0.00529146194458	-0.0444357395172	1.53700685501	-0.223968267441
0.167608261108	1.1729747057	0.00583004951477	-0.0439889431	1.53673410416	-0.225578069687
0.164710521698	1.174036026	0.00670480728149	-0.0433487892151	1.53607559204	-0.226986765862
0.165674448013	1.17559123039	0.00605082511902	-0.0426368713379	1.53652465343	-0.228323459625
0.166649580002	1.17597579956	0.00551700592041	-0.0424675941467	1.5376213789	-0.229628324509
0.166308403015	1.17299520969	0.00575160980225	-0.0426905155182	1.538438797	-0.230266571045
0.164080619812	1.17070305347	0.00582730770111	-0.0422520637512	1.53897690773	-0.230667829514
0.165297985077	1.17013180256	0.00518155097961	-0.0412840843201	1.53946721554	-0.230994939804
0.169674396515	1.16976463795	0.00390076637268	-0.0407156944275	1.53992629051	-0.231086492538
0.175598621368	1.16872048378	0.00202655792236	-0.040415763855	1.54057621956	-0.230707764626
0.179523468018	1.16674435139	0.000101566314697	-0.0407865047455	1.54116344452	-0.229681611061
0.179941415787	1.16662192345	-0.000957012176514	-0.0416226387024	1.54082477093	-0.228305101395
0.175185203552	1.16965126991	-0.000690698623657	-0.0427956581116	1.53949451447	-0.226843953133
0.168653964996	1.17447566986	-0.000552296638489	-0.0442807674408	1.53847074509	-0.225522279739
0.165103912354	1.17823076248	-0.000573635101318	-0.0457808971405	1.53820204735	-0.224763631821
0.161201715469	1.18103778362	-0.000615000724792	-0.0463948249817	1.53807330132	-0.224396348
0.156447172165	1.18112456799	-0.000497102737427	-0.0462267398834	1.53826224804	-0.224115133286
0.153597831726	1.18019044399	-0.000442743301392	-0.0446336269379	1.53873646259	-0.223611831665
0.153466939926	1.18056118488	0.000361442565918	-0.0422575473785	1.53897380829	-0.223082661629
0.154006481171	1.18103790283	0.000766634941101	-0.0399484634399	1.53902971745	-0.222343206406
0.156969070435	1.17979252338	0.00175201892853	-0.0376853942871	1.53898370266	-0.221383571625
0.15904378891	1.17691755295	0.00259447097778	-0.0357794761658	1.53925597668	-0.220447897911
0.160330057144	1.17389261723	0.00395894050598	-0.0332798957825	1.54043233395	-0.219293355942
0.162364006042	1.17232012749	0.00494885444641	-0.0302541255951	1.54232490063	-0.218306660652
0.163311004639	1.17154502869	0.00528597831726	-0.0271193981171	1.54468417168	-0.217620849609
0.164355516434	1.17041909695	0.00577139854431	-0.024507522583	1.54682016373	-0.217133879662
0.164805173874	1.17022848129	0.00546550750732	-0.0232665538788	1.54831600189	-0.217037558556
0.166980266571	1.16605818272	0.00633955001831	-0.0238320827484	1.54889595509	-0.216811060905
0.164611816406	1.16469681263	0.00693082809448	-0.0248429775238	1.54922103882	-0.216561079025
0.162989139557	1.16490185261	0.00795722007751	-0.0264093875885	1.54851901531	-0.216118693352
0.161364555359	1.16668856144	0.00909399986267	-0.027724981308	1.54769945145	-0.215940952301
0.1595287323	1.16821837425	0.00972390174866	-0.0277621746063	1.54712116718	-0.216009140015
0.159794330597	1.16960227489	0.0101147890091	-0.026825428009	1.54652810097	-0.215814352036
0.158486366272	1.17046248913	0.0104801654816	-0.0257029533386	1.54552507401	-0.215338468552
0.15923166275	1.17119109631	0.0107405185699	-0.0256359577179	1.54488134384	-0.214673519135
0.163531064987	1.17180097103	0.0107640028	-0.0268120765686	1.54524588585	-0.214106678963
0.172747850418	1.17140865326	0.00990843772888	-0.0273141860962	1.54688608646	-0.213851928711
0.181427001953	1.17020177841	0.00858867168427	-0.0262010097504	1.54936718941	-0.213924884796
0.18580698967	1.17105746269	0.00784742832184	-0.023209810257	1.55110549927	-0.214499950409
0.18682384491	1.17206048965	0.00729417800903	-0.0186791419983	1.55232298374	-0.21518945694
0.18607544899	1.1704788208	0.00659322738647	-0.0135400295258	1.55292975903	-0.216274738312
0.185599327087	1.16775405407	0.0062210559845	-0.00931119918823	1.55331993103	-0.217121005058
0.185762405396	1.16722881794	0.00590467453003	-0.00610756874084	1.55380821228	-0.21741771698
0.186160564423	1.1683037281	0.00540399551392	-0.00433707237244	1.55420184135	-0.217651486397
0.186701774597	1.16772663593	0.00424087047577	-0.0038366317749	1.55466508865	-0.217665910721
0.188899040222	1.16185033321	0.00343823432922	-0.00379872322083	1.55564033985	-0.21692109108
0.188139677048	1.15513908863	0.00290417671204	-0.00385022163391	1.55694997311	-0.216086268425
0.18487739563	1.15112912655	0.00339305400848	-0.0044903755188	1.55807554722	-0.214753389359
0.180555105209	1.1477240324	0.00380349159241	-0.00608468055725	1.55927431583	-0.213384389877
0.175065517426	1.14307796955	0.00524687767029	-0.0081512928009	1.55971252918	-0.211910486221
0.171473741531	1.141679883	0.00708103179932	-0.0101690292358	1.56002604961	-0.210067987442
0.16458940506	1.14177763462	0.00938892364502	-0.0124895572662	1.5602864027	-0.208179473877
0.162762880325	1.13944911957	0.0103516578674	-0.0150241851807	1.56021642685	-0.206332921982
0.161626338959	1.13926839828	0.00965857505798	-0.0174462795258	1.56028926373	-0.204462170601
0.159873723984	1.13947844505	0.00810790061951	-0.0197505950928	1.56011009216	-0.202976703644
0.156158685684	1.13598167896	0.00702846050262	-0.0220363140106	1.56000828743	-0.202188968658
0.152925014496	1.13146555424	0.00585007667542	-0.0242993831635	1.55976378918	-0.201717972755
0.150964736938	1.12714493275	0.00556063652039	-0.0265254974365	1.55927467346	-0.201296806335
0.149571418762	1.12557291985	0.00567066669464	-0.0282597541809	1.55866658688	-0.200734376907
0.151675462723	1.12622535229	0.00601446628571	-0.0296869277954	1.55809164047	-0.200030565262
0.159711837769	1.12385320663	0.00781011581421	-0.0310587882996	1.55722427368	-0.199433803558
0.168603658676	1.11776661873	0.00904846191406	-0.0323209762573	1.5567419529	-0.198822855949
0.16672372818	1.11495709419	0.00893580913544	-0.0328934192657	1.55652558804	-0.198241949081
0.167827367783	1.11547648907	0.00877547264099	-0.032098531723	1.55599844456	-0.198167681694
0.170907258987	1.11782956123	0.00916862487793	-0.0305001735687	1.55576002598	-0.198699474335
0.17747426033	1.11939823627	0.00823402404785	-0.0289850234985	1.55625700951	-0.199572086334
0.186335802078	1.11854910851	0.00556886196136	-0.027405500412	1.55644571781	-0.20116353035
0.193655252457	1.11621236801	0.00249409675598	-0.025153875351	1.55686712265	-0.202800273895
0.200551986694	1.11390042305	-0.000304698944092	-0.0225074291229	1.55715942383	-0.20414185524
0.206909179688	1.11342597008	-0.00332641601562	-0.0196578502655	1.55737841129	-0.204718351364
0.215213298798	1.11287820339	-0.00749540328979	-0.0169949531555	1.5570782423	-0.204802513123
0.224314212799	1.11004269123	-0.0115764141083	-0.0146684646606	1.55690181255	-0.204369664192
0.22877240181	1.10926425457	-0.0126349925995	-0.0131978988647	1.55651700497	-0.203615188599
0.228204727173	1.1113256216	-0.0112276077271	-0.0122668743134	1.55614125729	-0.203051328659
0.226101160049	1.11168050766	-0.00904130935669	-0.0120105743408	1.55622506142	-0.202694177628
0.223770618439	1.11150312424	-0.00725960731506	-0.0120053291321	1.55637729168	-0.202723503113
0.218842983246	1.11138820648	-0.00477635860443	-0.0119411945343	1.55652451515	-0.202712774277
0.214375019073	1.11135005951	-0.00316774845123	-0.0120487213135	1.55653703213	-0.202863454819
0.211302757263	1.11103773117	-0.00195670127869	-0.0114970207214	1.55637347698	-0.203141212463
0.208627223969	1.1116976738	-0.000611424446106	-0.0101928710938	1.55602133274	-0.203249454498
0.206778764725	1.11180102825	5.37633895874e-05	-0.00830960273743	1.55572986603	-0.203052997589
0.20606303215	1.1115026474	0.000271320343018	-0.00718283653259	1.55562329292	-0.202438354492
0.205656528473	1.11040759087	-1.26361846924e-05	-0.00685334205627	1.5555434227	-0.202208995819
0.205168008804	1.11018776894	0.00011682510376	-0.00686359405518	1.55552363396	-0.202305316925
0.2047560215	1.11093533039	0.000290155410767	-0.00714635848999	1.55538737774	-0.202647447586
0.20171713829	1.11044478416	0.00121808052063	-0.00770688056946	1.55534303188	-0.203553199768
0.197212219238	1.10989129543	0.0017454624176	-0.00822782516479	1.55540108681	-0.204673528671
0.192883968353	1.10907828808	0.00217914581299	-0.0088632106781	1.555519104	-0.205650568008
0.191842794418	1.10845124722	0.00142216682434	-0.00903391838074	1.55544531345	-0.206836700439
0.19272518158	1.10906028748	0.000419855117798	-0.00818037986755	1.5553021431	-0.208047866821
0.194141626358	1.11063420773	-0.000670194625854	-0.00690078735352	1.55518305302	-0.209127306938
0.195009946823	1.11137902737	-0.00153315067291	-0.00641083717346	1.55480766296	-0.209462165833
0.195289850235	1.11158668995	-0.0028041601181	-0.00660181045532	1.55412268639	-0.209605455399
0.194895982742	1.11165165901	-0.00417971611023	-0.00720596313477	1.55368936062	-0.209956169128
0.194492101669	1.11191236973	-0.00522804260254	-0.00793647766113	1.55333161354	-0.210750341415
0.194863796234	1.11297118664	-0.00598251819611	-0.00848317146301	1.5529512167	-0.2120616436
0.194444417953	1.11395907402	-0.00661420822144	-0.00876688957214	1.55331218243	-0.21371281147
0.193196773529	1.11455893517	-0.0070983171463	-0.00870609283447	1.5534362793	-0.215327501297
0.191094636917	1.11521494389	-0.00743365287781	-0.00821089744568	1.55370652676	-0.216934680939
0.188496589661	1.11565196514	-0.00722992420197	-0.00754618644714	1.55356383324	-0.218180894852
0.185959339142	1.11620342731	-0.00700294971466	-0.00588154792786	1.55321967602	-0.218747615814
0.183310270309	1.1159774065	-0.00666880607605	-0.0027437210083	1.55188953876	-0.219145655632
0.179771900177	1.11610925198	-0.00597786903381	0.00112557411194	1.5500882864	-0.219866752625
0.175906658173	1.11624872684	-0.00464248657227	0.00578474998474	1.54821133614	-0.22073507309
0.173179626465	1.11759650707	-0.00309753417969	0.00911808013916	1.54762077332	-0.221207261086
0.173501014709	1.11800026894	-0.00208222866058	0.0101792812347	1.54826116562	-0.220418572426
0.175215482712	1.1167652607	-0.00176334381104	0.00922656059265	1.54890036583	-0.218717217445
0.17754983902	1.11646461487	-0.00124311447144	0.00756812095642	1.5501768589	-0.216668844223
0.179897785187	1.11647200584	-0.000347256660461	0.00544857978821	1.55202054977	-0.214529514313
0.182683944702	1.11582684517	0.000770807266235	0.00306034088135	1.55406582355	-0.212269425392
0.185614585876	1.11465442181	0.00139665603638	-0.000232219696045	1.55594170094	-0.210394978523
0.188311576843	1.11419677734	0.00254726409912	-0.00437641143799	1.55786323547	-0.208898305893
0.191177129745	1.11376285553	0.00334143638611	-0.00923442840576	1.55966389179	-0.207507133484
0.194256544113	1.11223161221	0.00423574447632	-0.0145480632782	1.56067681313	-0.20651447773
0.197169303894	1.11098337173	0.00474464893341	-0.0205998420715	1.56065368652	-0.205824136734
0.19996380806	1.1107032299	0.00598275661469	-0.0265045166016	1.56016039848	-0.205191016197
0.202315092087	1.11078476906	0.00703120231628	-0.0314075946808	1.56017208099	-0.205143690109
