0.107293367386	1.25740528107	-0.083945274353	-0.0786104202271	1.57955765724	-0.248385667801
0.107023715973	1.25763869286	-0.084326505661	-0.0787177085876	1.57936275005	-0.249639511108
0.106024265289	1.25751173496	-0.0846477746964	-0.0790114402771	1.57933342457	-0.250547885895
0.105134010315	1.25724065304	-0.0843199491501	-0.0794172286987	1.57936990261	-0.25131893158
0.10319018364	1.25470364094	-0.0780178308487	-0.0798711776733	1.57861852646	-0.251801490784
0.0979804992676	1.24008011818	-0.0565555095673	-0.0807855129242	1.57584440708	-0.251883029938
0.0948801040649	1.2206594944	-0.0384402275085	-0.0818688869476	1.57229876518	-0.251281261444
0.090615272522	1.19286561012	-0.0218433141708	-0.0829296112061	1.56872677803	-0.250395894051
0.0843994617462	1.15998899937	-0.0131525993347	-0.0844988822937	1.5653924942	-0.249727487564
0.0839827060699	1.13193225861	-0.00984156131744	-0.0860373973846	1.56134307384	-0.249097824097
0.0882227420807	1.12207376957	-0.0105427503586	-0.0874259471893	1.5568447113	-0.24844455719
0.093163728714	1.12412750721	-0.0119593143463	-0.0880784988403	1.5521774292	-0.248308897018
0.0959229469299	1.13017594814	-0.0130559206009	-0.0878503322601	1.54747653008	-0.248531341553
0.0980322360992	1.1403875351	-0.0147807598114	-0.0869162082672	1.54347479343	-0.248350977898
0.0975747108459	1.14578938484	-0.017388343811	-0.0854825973511	1.53971660137	-0.248571634293
0.0990271568298	1.14641094208	-0.0178642272949	-0.0838122367859	1.53761458397	-0.249085187912
0.0996730327606	1.14324629307	-0.0190620422363	-0.0828747749329	1.53729784489	-0.250029325485
0.0966324806213	1.14075267315	-0.022408246994	-0.0823738574982	1.53774547577	-0.251136064529
0.0883836746216	1.13940763474	-0.0293002128601	-0.0825431346893	1.53854608536	-0.252279520035
0.0755922794342	1.13909697533	-0.040167093277	-0.0830979347229	1.53863453865	-0.25345826149
0.0705726146698	1.14224052429	-0.048412322998	-0.0842111110687	1.53854465485	-0.254982829094
0.0656814575195	1.14315092564	-0.0578742027283	-0.0849306583405	1.53875637054	-0.256642580032
0.0606718063354	1.14958405495	-0.070111989975	-0.0850431919098	1.53946602345	-0.258002281189
0.0572855472565	1.15809726715	-0.0833790302277	-0.083877325058	1.5400698185	-0.258453607559
0.056054353714	1.15861439705	-0.091187953949	-0.0819211006165	1.54008710384	-0.25826382637
0.0584151744843	1.15866184235	-0.0906381607056	-0.0792288780212	1.53913784027	-0.257301807404
0.0630557537079	1.16695165634	-0.0830976963043	-0.0763902664185	1.53958880901	-0.254849433899
0.0639901161194	1.17499244213	-0.077397942543	-0.0743217468262	1.54136359692	-0.251831293106
0.0634865760803	1.17707753181	-0.0774104595184	-0.0736026763916	1.54401695728	-0.248808383942
0.0650866031647	1.17505860329	-0.0761625766754	-0.0731854438782	1.54739069939	-0.246126890182
0.0639500617981	1.16955947876	-0.077840089798	-0.0729310512543	1.54922759533	-0.244194149971
0.0656909942627	1.16190803051	-0.0747489929199	-0.072692155838	1.54944324493	-0.243054866791
0.0656235218048	1.15704834461	-0.0718915462494	-0.0710833072662	1.54739463329	-0.24113368988
0.0630912780762	1.15443611145	-0.0720618963242	-0.0687432289124	1.542121768	-0.239249706268
0.062837600708	1.15483796597	-0.0713174343109	-0.0664532184601	1.53424024582	-0.238791942596
0.0656566619873	1.15787124634	-0.0688037872314	-0.0644524097443	1.52642989159	-0.23953795433
0.0687594413757	1.16323137283	-0.0674074888229	-0.0625665187836	1.52171087265	-0.240581989288
0.072173833847	1.16839563847	-0.0652768611908	-0.0603315830231	1.51943027973	-0.241774916649
0.0762183666229	1.17447924614	-0.0628967285156	-0.0575387477875	1.51675391197	-0.243102788925
0.081728219986	1.18024599552	-0.0601873397827	-0.0555715560913	1.51438570023	-0.244577050209
0.0849304199219	1.18251037598	-0.0601061582565	-0.0543105602264	1.51420164108	-0.245321273804
0.0965962409973	1.18092179298	-0.0550591945648	-0.053108215332	1.51601314545	-0.245462298393
0.114015340805	1.18188917637	-0.0505063533783	-0.0519752502441	1.51673901081	-0.244992256165
0.127140045166	1.17959272861	-0.0496104955673	-0.0510895252228	1.51707863808	-0.244835138321
0.132436752319	1.17747426033	-0.0506309270859	-0.0507752895355	1.51879715919	-0.24456346035
0.13774061203	1.17518913746	-0.0501902103424	-0.0505719184875	1.52116322517	-0.244074106216
0.137420892715	1.17462146282	-0.049985408783	-0.0504956245422	1.5232642889	-0.243211507797
0.135884046555	1.17641782761	-0.0485856533051	-0.0508594512939	1.52423012257	-0.242788314819
0.13289141655	1.17716014385	-0.0461806058884	-0.0515739917755	1.52586293221	-0.241975545883
0.129077672958	1.17644166946	-0.04436647892	-0.0527670383453	1.52780163288	-0.24108338356
0.124268054962	1.17711901665	-0.0444149971008	-0.0541114807129	1.52985262871	-0.240118741989
0.115549325943	1.18017792702	-0.0477824211121	-0.055802822113	1.53104197979	-0.239908576012
0.101717472076	1.18779361248	-0.0578746795654	-0.0571837425232	1.52993106842	-0.240803956985
0.0897500514984	1.20099306107	-0.0685222148895	-0.059308052063	1.52803087234	-0.242247581482
0.082023859024	1.20758366585	-0.0729587078094	-0.062381029129	1.52737426758	-0.243595838547
0.0807859897614	1.20891952515	-0.0718531608582	-0.065619468689	1.52915990353	-0.244272708893
0.0809545516968	1.20585536957	-0.0704951286316	-0.0682573318481	1.53232491016	-0.244086742401
0.0827252864838	1.20131778717	-0.0683879852295	-0.0689101219177	1.53700768948	-0.242862224579
0.0839595794678	1.19894731045	-0.0676063299179	-0.068651676178	1.54073965549	-0.242481708527
0.0833671092987	1.20026230812	-0.0681250095367	-0.0688598155975	1.54268324375	-0.242737293243
0.0821413993835	1.20295810699	-0.0717961788177	-0.070068359375	1.54211831093	-0.243762969971
0.0832877159119	1.20849180222	-0.0749779939651	-0.0702698230743	1.53978347778	-0.244047403336
0.088143825531	1.21697938442	-0.0782753229141	-0.0693974494934	1.53742420673	-0.24437379837
0.094268321991	1.22374165058	-0.0826354026794	-0.067911863327	1.5367821455	-0.244337916374
0.0978252887726	1.22351050377	-0.0879135131836	-0.0660839080811	1.53734922409	-0.243418335915
0.0968353748322	1.21500217915	-0.0912337303162	-0.0640306472778	1.53877258301	-0.242558240891
0.101769924164	1.19708275795	-0.0841763019562	-0.0623879432678	1.53964698315	-0.241427898407
0.129946708679	1.17106568813	-0.0713999271393	-0.0608167648315	1.53935885429	-0.240549087524
0.163842201233	1.15371286869	-0.0653465986252	-0.0589232444763	1.53786122799	-0.240111589432
0.177781105042	1.15250396729	-0.064891576767	-0.0573487281799	1.53540372849	-0.240083217621
0.176153421402	1.15601480007	-0.0662002563477	-0.0581290721893	1.53199934959	-0.241493701935
0.166224241257	1.15835893154	-0.0671865940094	-0.0612907409668	1.52951204777	-0.244097232819
0.154085636139	1.15981149673	-0.0684955120087	-0.0659935474396	1.52838993073	-0.247611999512
0.141626834869	1.15902304649	-0.070739030838	-0.0709850788116	1.52948284149	-0.251508712769
0.132024288177	1.15726470947	-0.0725357532501	-0.075199842453	1.53117406368	-0.254675865173
0.126641988754	1.15875792503	-0.0744247436523	-0.0778250694275	1.53288733959	-0.256818056107
0.125633955002	1.16448688507	-0.0772639513016	-0.0788977146149	1.53438580036	-0.257596969604
0.124015569687	1.17096269131	-0.0816254615784	-0.0793352127075	1.53443336487	-0.257557272911
0.122761726379	1.17698013783	-0.0861551761627	-0.0789332389832	1.53419280052	-0.256784439087
0.123185157776	1.17718982697	-0.0885539054871	-0.0780498981476	1.53385078907	-0.255761623383
0.125506401062	1.1660759449	-0.0878643989563	-0.0769228935242	1.53411757946	-0.254541158676
0.129199266434	1.15551567078	-0.085728764534	-0.0755240917206	1.53439593315	-0.252974510193
0.140116214752	1.15181028843	-0.0841879844666	-0.0742812156677	1.53449273109	-0.251078367233
0.150889873505	1.15361154079	-0.0839097499847	-0.0722198486328	1.53409135342	-0.249053835869
0.15932226181	1.15526068211	-0.0859612226486	-0.0691726207733	1.53410983086	-0.246749043465
0.172404527664	1.15547406673	-0.0914676189423	-0.0650720596313	1.53491795063	-0.245062351227
0.197066783905	1.15597033501	-0.0987169742584	-0.061488866806	1.53658640385	-0.243538856506
0.225507259369	1.16410827637	-0.110038161278	-0.0594506263733	1.5383862257	-0.24183511734
0.23544049263	1.17314016819	-0.121638894081	-0.0593419075012	1.5386608839	-0.239319443703
0.221637248993	1.17532324791	-0.130251407623	-0.0608756542206	1.53715455532	-0.237083911896
0.197793245316	1.17696607113	-0.136937975883	-0.062881231308	1.53573930264	-0.234950065613
0.166258811951	1.17509829998	-0.141626834869	-0.0655176639557	1.53567779064	-0.23301076889
0.130083799362	1.16488111019	-0.143891572952	-0.0678753852844	1.53610515594	-0.231759905815
0.0983986854553	1.14850604534	-0.139801621437	-0.0691797733307	1.53697371483	-0.231285691261
0.0837972164154	1.14114177227	-0.127425551414	-0.0702893733978	1.53758847713	-0.23129093647
0.0977039337158	1.13748252392	-0.105191111565	-0.0706913471222	1.53650820255	-0.231871366501
0.129039049149	1.13671219349	-0.082231760025	-0.0702788829803	1.53419864178	-0.232028961182
0.174339771271	1.13320577145	-0.0697765350342	-0.0695538520813	1.53338861465	-0.230647444725
0.201101064682	1.13077914715	-0.0708565711975	-0.0703566074371	1.53283715248	-0.228887319565
0.201070547104	1.12897348404	-0.0778164863586	-0.0713424682617	1.53170645237	-0.228253602982
0.185717344284	1.12730288506	-0.0865993499756	-0.0717358589172	1.53020060062	-0.2283847332
0.172116041183	1.13050889969	-0.0950536727905	-0.0715162754059	1.52822482586	-0.228896141052
0.165785312653	1.13745820522	-0.0985071659088	-0.0709648132324	1.52596378326	-0.230383634567
0.158835172653	1.1441668272	-0.0989470481873	-0.0711495876312	1.52260971069	-0.232833981514
0.151483297348	1.14553070068	-0.0976662635803	-0.0721795558929	1.52105820179	-0.234424829483
0.145901679993	1.1471850872	-0.0954165458679	-0.073543548584	1.5193836689	-0.23679959774
0.138307571411	1.14943194389	-0.0948276519775	-0.0733726024628	1.51834738255	-0.23973608017
0.136780023575	1.15343701839	-0.0938286781311	-0.0723226070404	1.51787304878	-0.243115663528
0.143117904663	1.16160047054	-0.0956220626831	-0.0712642669678	1.51830708981	-0.245673656464
0.145159006119	1.16963779926	-0.0997730493546	-0.0717415809631	1.51856291294	-0.247277736664
0.148002147675	1.17345917225	-0.104555368423	-0.0730373859406	1.51853358746	-0.248417139053
0.149231910706	1.17459118366	-0.108725070953	-0.0747106075287	1.51892697811	-0.248775482178
0.149736642838	1.17766821384	-0.112257003784	-0.0761575698853	1.51905822754	-0.249079585075
0.153700113297	1.18142664433	-0.115596413612	-0.0761158466339	1.5189293623	-0.249320030212
0.161309480667	1.1804369688	-0.117645978928	-0.074907541275	1.51930177212	-0.249310255051
0.169229507446	1.17724096775	-0.119696855545	-0.0733046531677	1.51982438564	-0.249313235283
0.175288677216	1.17760944366	-0.120990276337	-0.0715088844299	1.51970720291	-0.24934720993
0.177576541901	1.17852151394	-0.120638251305	-0.0699305534363	1.51926910877	-0.249445080757
0.180514812469	1.18027377129	-0.121330976486	-0.0684368610382	1.51897466183	-0.249555110931
0.180344104767	1.18015325069	-0.120310306549	-0.0679180622101	1.51963675022	-0.24918627739
0.171301603317	1.17975628376	-0.11625289917	-0.0681138038635	1.52070510387	-0.247980356216
0.154228687286	1.17823529243	-0.111249923706	-0.0696642398834	1.51965713501	-0.246142268181
0.141108751297	1.17437791824	-0.106250524521	-0.0723044872284	1.51514852047	-0.245226144791
0.134693145752	1.17548882961	-0.10224032402	-0.0743198394775	1.51105213165	-0.244704246521
0.130474567413	1.18033134937	-0.100017905235	-0.0747077465057	1.51009964943	-0.244029760361
0.126991033554	1.18699860573	-0.0998494625092	-0.0743837356567	1.51027691364	-0.242624759674
0.122662305832	1.19100177288	-0.0999979972839	-0.0752246379852	1.51069509983	-0.241141080856
0.111142158508	1.192532897	-0.0989127159119	-0.077269077301	1.51189041138	-0.240080356598
0.102528810501	1.19313526154	-0.0974442958832	-0.0797228813171	1.51210868359	-0.240576386452
0.0964341163635	1.18922698498	-0.0960981845856	-0.082512140274	1.5110476017	-0.242308855057
0.0976979732513	1.18289637566	-0.0949399471283	-0.0846991539001	1.51074790955	-0.243487596512
0.0980978012085	1.1810567379	-0.0949819087982	-0.0848603248596	1.51229345798	-0.243481397629
0.0983648300171	1.1815404892	-0.0941418409348	-0.0828189849854	1.51358389854	-0.2443754673
0.0971918106079	1.18273830414	-0.0921804904938	-0.0814077854156	1.51438343525	-0.24521791935
0.0959594249725	1.18509876728	-0.0913619995117	-0.0801138877869	1.51472628117	-0.246357917786
0.0967926979065	1.18448972702	-0.0901725292206	-0.0794882774353	1.51544225216	-0.247320652008
0.096706867218	1.18482422829	-0.0893820524216	-0.0800151824951	1.51795351505	-0.247119903564
0.0968489646912	1.18421792984	-0.0888279676437	-0.0804398059845	1.52094638348	-0.246119022369
0.0962162017822	1.18265151978	-0.0878577232361	-0.0799193382263	1.52246236801	-0.245701313019
0.0958926677704	1.18284249306	-0.0873439311981	-0.0795900821686	1.52405190468	-0.245247483253
0.0943930149078	1.18364620209	-0.0871752500534	-0.0800647735596	1.52473080158	-0.244449853897
0.0943439006805	1.1829982996	-0.0872368812561	-0.0800178050995	1.52493655682	-0.243858337402
0.0959451198578	1.18030798435	-0.0863757133484	-0.0801677703857	1.52606642246	-0.242251396179
0.0969476699829	1.17826879025	-0.0852792263031	-0.0805680751801	1.52573442459	-0.240769147873
0.0982370376587	1.1796605587	-0.0844175815582	-0.0801267623901	1.52411282063	-0.239986658096
0.0989055633545	1.18285167217	-0.0841381549835	-0.0799314975739	1.52454090118	-0.238512992859
0.0965690612793	1.1906529665	-0.0865794420242	-0.0807085037231	1.52576339245	-0.237172842026
0.0946609973907	1.20022320747	-0.0900418758392	-0.0814189910889	1.52656269073	-0.235194206238
0.0943281650543	1.20315515995	-0.0911759138107	-0.0819916725159	1.52706944942	-0.232866287231
0.0950782299042	1.19976174831	-0.0921521186829	-0.0814306735992	1.52615475655	-0.231379508972
0.0929799079895	1.20188224316	-0.0974758863449	-0.0801312923431	1.52413153648	-0.230405569077
0.0921349525452	1.20897686481	-0.103398919106	-0.0776648521423	1.52140665054	-0.230427503586
0.0947437286377	1.21548044682	-0.107054233551	-0.0747008323669	1.51944446564	-0.231104135513
0.0992333889008	1.21937000751	-0.109555959702	-0.0712895393372	1.5192027092	-0.231948971748
0.104663610458	1.22484397888	-0.114692211151	-0.0688018798828	1.51977622509	-0.232739210129
0.108672618866	1.23355984688	-0.121216773987	-0.0679526329041	1.520206213	-0.233704566956
0.108515739441	1.24086642265	-0.127737283707	-0.068151473999	1.52063369751	-0.234710335732
0.102519989014	1.25296425819	-0.137022018433	-0.0688090324402	1.52110171318	-0.235385894775
0.0982327461243	1.25863683224	-0.14512348175	-0.0705013275146	1.52124905586	-0.235248923302
0.0930354595184	1.25122976303	-0.146808862686	-0.0724282264709	1.52111709118	-0.234975576401
0.0926241874695	1.21972763538	-0.13768029213	-0.0741572380066	1.52147495747	-0.234768152237
0.110612154007	1.17828691006	-0.122774720192	-0.0764725208282	1.52164077759	-0.234954953194
0.138134479523	1.13663911819	-0.116359949112	-0.0790283679962	1.52220702171	-0.234704852104
0.144156217575	1.11804640293	-0.121071815491	-0.0808935165405	1.52297949791	-0.233317613602
0.1315305233	1.10906970501	-0.128013968468	-0.0821344852448	1.52356350422	-0.23130607605
0.115289449692	1.09984028339	-0.133229374886	-0.0823669433594	1.52338206768	-0.229412555695
0.107022047043	1.09954476357	-0.137910842896	-0.0822191238403	1.52262926102	-0.228523254395
0.103941917419	1.11011075974	-0.141502141953	-0.0818920135498	1.52211987972	-0.227981567383
0.112063646317	1.12644553185	-0.141127347946	-0.0816833972931	1.52232015133	-0.226907253265
0.121438980103	1.14516985416	-0.134819030762	-0.081419467926	1.5225263834	-0.225744009018
0.124651193619	1.15578460693	-0.129861831665	-0.0810244083405	1.52213430405	-0.225094079971
0.125001430511	1.1590590477	-0.12914276123	-0.080292224884	1.52225792408	-0.224939584732
0.133124828339	1.15473151207	-0.128220081329	-0.076975107193	1.52425074577	-0.225863695145
0.139352798462	1.15018486977	-0.127113461494	-0.0710341930389	1.52777302265	-0.227769136429
0.141672611237	1.14820408821	-0.126745939255	-0.066100358963	1.53341972828	-0.229145050049
0.152048110962	1.14237868786	-0.125299096107	-0.0613794326782	1.54124832153	-0.230436563492
0.181777477264	1.13853955269	-0.124317765236	-0.0558788776398	1.54901123047	-0.23254609108
0.240416526794	1.14001715183	-0.126989126205	-0.050591468811	1.55595505238	-0.235231637955
0.309304475784	1.15828311443	-0.134847164154	-0.0458252429962	1.56125879288	-0.237721681595
0.371269226074	1.18346774578	-0.146505355835	-0.0420703887939	1.56370413303	-0.239698648453
0.385911464691	1.19527506828	-0.150383710861	-0.0408143997192	1.56298530102	-0.238739013672
0.36039686203	1.1824272871	-0.142939090729	-0.0424771308899	1.55967259407	-0.236022949219
0.308193445206	1.15602302551	-0.128873348236	-0.0467562675476	1.55550146103	-0.233361124992
0.241854667664	1.12681090832	-0.11416220665	-0.052702665329	1.55195307732	-0.232563614845
0.1804292202	1.10440599918	-0.103955507278	-0.0592246055603	1.54912960529	-0.232924938202
0.143026590347	1.09460127354	-0.0969681739807	-0.0645077228546	1.54667437077	-0.233699798584
0.118288993835	1.09830415249	-0.0931951999664	-0.0683257579803	1.54378557205	-0.235426902771
0.105647563934	1.10688316822	-0.0942053794861	-0.0704095363617	1.5417702198	-0.237102270126
0.101595640182	1.11261594296	-0.0967663526535	-0.071905374527	1.53963589668	-0.238808274269
0.103126764297	1.11910903454	-0.0978717803955	-0.0728430747986	1.53774118423	-0.240542292595
0.105906963348	1.12672626972	-0.0988900661469	-0.0733671188354	1.53596925735	-0.242530226707
0.106609344482	1.13238024712	-0.102391719818	-0.0737335681915	1.53438305855	-0.245549082756
0.102012395859	1.1391094923	-0.109957575798	-0.0738451480865	1.53365540504	-0.248188495636
0.0910589694977	1.14553105831	-0.124221801758	-0.0738632678986	1.5339653492	-0.249538183212
0.0815510749817	1.15272009373	-0.136530637741	-0.0730030536652	1.5334802866	-0.249584913254
0.0781285762787	1.1605540514	-0.143891572952	-0.0719301700592	1.53291273117	-0.24875497818
0.0752937793732	1.17133128643	-0.150339484215	-0.0711371898651	1.53347742558	-0.246928691864
0.0707607269287	1.17065167427	-0.157870650291	-0.0705683231354	1.53384804726	-0.244688034058
0.0755863189697	1.15359985828	-0.14746260643	-0.0707080364227	1.5337574482	-0.24294924736
0.088978767395	1.14024555683	-0.13171005249	-0.0714831352234	1.53335654736	-0.241480112076
0.0999445915222	1.13588929176	-0.122405767441	-0.0728578567505	1.53341543674	-0.240423560143
0.0958645343781	1.14773261547	-0.128732919693	-0.073668718338	1.53368878365	-0.239301919937
0.0874400138855	1.15006422997	-0.138666152954	-0.0735919475555	1.53328680992	-0.238931417465
0.0861954689026	1.14471161366	-0.139572262764	-0.0726561546326	1.53167390823	-0.239691019058
0.09024310112	1.13603436947	-0.136019229889	-0.0717341899872	1.53088533878	-0.240629196167
0.0959551334381	1.13383114338	-0.130645513535	-0.0709004402161	1.53188812733	-0.240627408028
0.0968337059021	1.14136922359	-0.129228234291	-0.0703563690186	1.53199827671	-0.240177154541
0.0934772491455	1.14061057568	-0.136993408203	-0.070093870163	1.53180611134	-0.239796280861
0.098423242569	1.11101210117	-0.146757483482	-0.0705263614655	1.53181695938	-0.239863395691
0.101445913315	1.09464108944	-0.152428984642	-0.0713369846344	1.53175771236	-0.239772677422
0.101915359497	1.11449241638	-0.133031129837	-0.0723094940186	1.53166544437	-0.239135026932
0.101533174515	1.15137755871	-0.118082523346	-0.0729930400848	1.53154814243	-0.238221645355
0.106575012207	1.16015172005	-0.111966371536	-0.0741679668427	1.53152298927	-0.237922310829
0.118583679199	1.15475928783	-0.105033993721	-0.0759260654449	1.53132760525	-0.238030552864
0.115152597427	1.15791714191	-0.106758356094	-0.077889919281	1.53134691715	-0.238237142563
0.104717969894	1.17066371441	-0.112570524216	-0.0805330276489	1.53181731701	-0.23838019371
0.0868752002716	1.18946969509	-0.124764800072	-0.083854675293	1.53224050999	-0.23849272728
0.0697786808014	1.21009504795	-0.137829303741	-0.0869472026825	1.5324600935	-0.238890647888
0.0551071166992	1.20360147953	-0.144505262375	-0.0892374515533	1.53283464909	-0.239828586578
0.0511238574982	1.17647266388	-0.140120029449	-0.0902743339539	1.5328720808	-0.240350842476
0.0524289608002	1.17202842236	-0.139097571373	-0.0906963348389	1.53263521194	-0.240355968475
0.0611591339111	1.18473613262	-0.129876375198	-0.091162443161	1.53226578236	-0.239650726318
0.0812120437622	1.18675708771	-0.114611625671	-0.0912766456604	1.53206253052	-0.23907160759
0.0871794223785	1.1899766922	-0.110943317413	-0.091080904007	1.5319596529	-0.238522291183
0.0814664363861	1.17062783241	-0.115387916565	-0.090407371521	1.53159308434	-0.238261580467
0.0775265693665	1.15265011787	-0.123802542686	-0.0893797874451	1.53142809868	-0.237972021103
0.0805575847626	1.16126966476	-0.116876363754	-0.088659286499	1.53122913837	-0.237515687943
0.0926554203033	1.16617596149	-0.108406305313	-0.0881958007812	1.53112876415	-0.23696064949
0.113404273987	1.16399109364	-0.0999654531479	-0.0858318805695	1.53287553787	-0.236156702042
0.153515100479	1.1525541544	-0.0887839794159	-0.08131980896	1.5367385149	-0.235342144966
0.190613269806	1.14238488674	-0.0847203731537	-0.0747878551483	1.54186606407	-0.23456120491
0.21262216568	1.14515841007	-0.0834932327271	-0.0677473545074	1.5477514267	-0.234717130661
0.223461389542	1.16088497639	-0.0842244625092	-0.0607926845551	1.5538738966	-0.235292077065
0.232232809067	1.18859314919	-0.0907077789307	-0.0551867485046	1.5604506731	-0.236201763153
0.227904319763	1.21264028549	-0.0964884757996	-0.0505530834198	1.56673765182	-0.237148880959
0.225688457489	1.21926295757	-0.0975924730301	-0.0466456413269	1.57277619839	-0.239827394485
0.224234342575	1.21730804443	-0.0946654081345	-0.0430636405945	1.57811224461	-0.243338108063
0.225944519043	1.22150063515	-0.0936088562012	-0.0394313335419	1.58190262318	-0.247447967529
0.217970609665	1.22273230553	-0.0856935977936	-0.0365965366364	1.58289837837	-0.249486207962
0.213016748428	1.22482120991	-0.0824658870697	-0.035028219223	1.58087062836	-0.248291969299
0.213640451431	1.21625208855	-0.0778963565826	-0.0344150066376	1.57826566696	-0.246225953102
0.221376657486	1.19932448864	-0.0728626251221	-0.0347235202789	1.57604968548	-0.243541955948
0.221273183823	1.18552160263	-0.0707420110703	-0.0353202819824	1.57447683811	-0.241348981857
0.216406822205	1.17785620689	-0.0693558454514	-0.0347630977631	1.57235217094	-0.239178419113
0.210744857788	1.1745620966	-0.0677844285965	-0.0342812538147	1.56848108768	-0.237371921539
0.202444553375	1.16876733303	-0.0649604797363	-0.0343413352966	1.56483376026	-0.23646736145
0.189995527267	1.16212463379	-0.0628528594971	-0.0360667705536	1.56027722359	-0.236185073853
0.173196792603	1.15989410877	-0.0629198551178	-0.040815114975	1.55601418018	-0.235707998276
0.16361784935	1.15806460381	-0.0622761249542	-0.0484185218811	1.55309391022	-0.234768390656
0.158146381378	1.15310716629	-0.060889840126	-0.0586960315704	1.5510853529	-0.234782457352
0.151031255722	1.15049421787	-0.060732126236	-0.0665678977966	1.54978489876	-0.236372113228
0.143187522888	1.14987444878	-0.060999751091	-0.0708789825439	1.54802107811	-0.2389087677
0.135686397552	1.15206634998	-0.0598015785217	-0.0725305080414	1.54624259472	-0.240524530411
0.129603147507	1.15665102005	-0.0579825639725	-0.0727534294128	1.54364013672	-0.241833806038
0.125411272049	1.15922772884	-0.0561621189117	-0.0726962089539	1.54045832157	-0.243019580841
0.122681617737	1.15988516808	-0.0564727783203	-0.0727412700653	1.53884768486	-0.243804812431
0.119789123535	1.15962219238	-0.0606378316879	-0.0738382339478	1.53924691677	-0.243914008141
0.112218141556	1.16141700745	-0.0695523023605	-0.0749654769897	1.54009258747	-0.243894100189
0.101139783859	1.15881729126	-0.0814363956451	-0.075092792511	1.54022240639	-0.244131803513
0.0964353084564	1.15420925617	-0.087963104248	-0.0727927684784	1.53885602951	-0.244725227356
0.0969712734222	1.15487885475	-0.0903272628784	-0.0688800811768	1.5373595953	-0.244483351707
0.0964818000793	1.14780783653	-0.0981407165527	-0.0651972293854	1.53627455235	-0.244314908981
0.0993347167969	1.14096450806	-0.106688022614	-0.0621325969696	1.53707206249	-0.244111776352
0.101747512817	1.13710474968	-0.116066932678	-0.0599846839905	1.53764665127	-0.244005441666
0.111474275589	1.13548529148	-0.10839176178	-0.0589108467102	1.53754734993	-0.243901133537
0.129959344864	1.13213992119	-0.0941400527954	-0.0580551624298	1.5370054245	-0.244006156921
0.137956619263	1.12205088139	-0.0977284908295	-0.0571820735931	1.53561675549	-0.244372367859
0.142056465149	1.1105992794	-0.102854728699	-0.0561060905457	1.53488886356	-0.24515914917
0.144875049591	1.10995018482	-0.0995051860809	-0.0554630756378	1.53504276276	-0.245920181274
0.146008491516	1.10584008694	-0.102074384689	-0.0554554462433	1.53481781483	-0.24649643898
0.156347036362	1.09506595135	-0.102128386497	-0.0562024116516	1.53441989422	-0.247599601746
0.162765741348	1.08988070488	-0.101448535919	-0.0571262836456	1.53502869606	-0.248529672623
0.15719461441	1.11848056316	-0.0920618772507	-0.0581991672516	1.53519761562	-0.24894952774
0.158772706985	1.14563548565	-0.083145737648	-0.0591530799866	1.53493368626	-0.249096155167
0.157006502151	1.15907979012	-0.0821405649185	-0.0606350898743	1.53486669064	-0.24928355217
0.154715299606	1.16487264633	-0.0844714641571	-0.0624651908875	1.53526520729	-0.249442100525
0.145711183548	1.17239916325	-0.0918712615967	-0.0644998550415	1.53555440903	-0.249327898026
0.136183023453	1.18145608902	-0.0991302728653	-0.0668411254883	1.5357105732	-0.249874830246
0.122676134109	1.19305813313	-0.108997821808	-0.0695338249207	1.53644895554	-0.250897407532
0.109941005707	1.20008480549	-0.120399713516	-0.0724153518677	1.53760576248	-0.252202749252
0.100910425186	1.20312702656	-0.130528688431	-0.074601650238	1.53891253471	-0.253620386124
0.0972244739532	1.20151209831	-0.138209581375	-0.076277256012	1.53932750225	-0.255191683769
0.0993318557739	1.19415223598	-0.139862179756	-0.0765624046326	1.53959715366	-0.255540013313
0.106435060501	1.18718850613	-0.133628249168	-0.0761790275574	1.5400853157	-0.255304336548
0.114753723145	1.18531286716	-0.121467351913	-0.0758800506592	1.54072391987	-0.254704236984
0.121375083923	1.18241071701	-0.111142873764	-0.0751221179962	1.54083144665	-0.253989934921
0.128512859344	1.17491388321	-0.104065418243	-0.0742087364197	1.54111170769	-0.253532648087
0.13924741745	1.17376458645	-0.0959656238556	-0.0732219219208	1.54146194458	-0.252042531967
0.144052028656	1.17434954643	-0.0927178859711	-0.0719785690308	1.54100477695	-0.250148773193
0.13644194603	1.1594786644	-0.0962131023407	-0.0709521770477	1.54039382935	-0.248100161552
0.128813266754	1.15020692348	-0.103823900223	-0.0701804161072	1.53990232944	-0.246361732483
0.131062507629	1.1641677618	-0.10061788559	-0.0696568489075	1.5391575098	-0.244222402573
0.134651184082	1.16214883327	-0.0986086130142	-0.0696520805359	1.53841543198	-0.242077589035
0.131997108459	1.15408682823	-0.101472258568	-0.0695331096649	1.53800010681	-0.240409612656
0.122666597366	1.15519285202	-0.107961654663	-0.0698041915894	1.53789317608	-0.239152193069
0.104374885559	1.16569268703	-0.123190522194	-0.0704534053802	1.53731322289	-0.238210439682
0.0930738449097	1.17733895779	-0.131603479385	-0.0714497566223	1.53708457947	-0.236969590187
0.0891346931458	1.18469715118	-0.129581928253	-0.0725092887878	1.5370824337	-0.235582113266
0.0845456123352	1.19878792763	-0.127655863762	-0.0730707645416	1.53696095943	-0.234253644943
0.0876262187958	1.21782422066	-0.127073287964	-0.073447227478	1.53677272797	-0.232839465141
0.0868678092957	1.21464002132	-0.122444391251	-0.0739200115204	1.53660428524	-0.23156452179
0.080988407135	1.18612420559	-0.118189334869	-0.0742366313934	1.53665482998	-0.230542302132
0.0813660621643	1.169916749	-0.115189909935	-0.0745105743408	1.53658246994	-0.229780912399
0.0893332958221	1.18464851379	-0.107062935829	-0.0748863220215	1.53636097908	-0.229034900665
0.0998244285583	1.18695664406	-0.0991649627686	-0.075713634491	1.53599178791	-0.228301763535
0.0955691337585	1.1830701828	-0.102436065674	-0.0762996673584	1.53601098061	-0.227887511253
0.0830256938934	1.17355072498	-0.108803272247	-0.0762593746185	1.53610217571	-0.226968288422
0.0772185325623	1.17476284504	-0.11003279686	-0.0760724544525	1.5362855196	-0.225702643394
0.0820376873016	1.19210267067	-0.10400390625	-0.0763008594513	1.53570663929	-0.224902153015
0.0884475708008	1.19658529758	-0.0994389057159	-0.076863527298	1.53520870209	-0.224472284317
0.0864152908325	1.18989753723	-0.101100921631	-0.0773801803589	1.53465771675	-0.223955273628
0.0827724933624	1.18937957287	-0.103078126907	-0.0777111053467	1.5336587429	-0.224120020866
0.0790641307831	1.19302892685	-0.10326230526	-0.0771284103394	1.53125810623	-0.225588440895
0.0790710449219	1.19524157047	-0.0999494791031	-0.0750203132629	1.52804541588	-0.227827310562
0.0831990242004	1.19482314587	-0.0951874256134	-0.0711054801941	1.52592122555	-0.229702711105
0.091249704361	1.19403076172	-0.0899614095688	-0.0669198036194	1.52587544918	-0.231324672699
0.0986695289612	1.19135606289	-0.0857474803925	-0.0645608901978	1.52470803261	-0.232921123505
0.102836847305	1.19256818295	-0.0837597846985	-0.0633165836334	1.52367281914	-0.234900474548
0.103625535965	1.19883513451	-0.0828578472137	-0.0629251003265	1.52406334877	-0.23614346981
0.115427494049	1.20702695847	-0.0773310661316	-0.0632100105286	1.5268663168	-0.236188530922
0.152986764908	1.1973644495	-0.0652236938477	-0.0622818470001	1.53351354599	-0.235771894455
0.196181297302	1.17803859711	-0.0589904785156	-0.0590744018555	1.54269170761	-0.235664606094
0.223995447159	1.16941618919	-0.0608713626862	-0.0538716316223	1.55104064941	-0.236896753311
0.237444400787	1.1696741581	-0.0663475990295	-0.048122882843	1.55774128437	-0.239236235619
0.239083766937	1.17277145386	-0.0716686248779	-0.042938709259	1.56360852718	-0.242440700531
0.240855693817	1.18139362335	-0.0760462284088	-0.0391972064972	1.56849420071	-0.246332883835
0.251801013947	1.19877934456	-0.0818238258362	-0.0375764369965	1.57131779194	-0.249377012253
0.264688014984	1.22535479069	-0.0953319072723	-0.0375299453735	1.57192921638	-0.251419305801
0.272015094757	1.24468135834	-0.109922409058	-0.0371270179749	1.57138848305	-0.252129077911
0.270421743393	1.24520504475	-0.114578485489	-0.0368754863739	1.5702445507	-0.251349687576
0.249956846237	1.22722256184	-0.110944509506	-0.0372521877289	1.56826257706	-0.248467206955
0.22908949852	1.20676422119	-0.111099720001	-0.0394830703735	1.56558978558	-0.243765115738
0.203902482986	1.18613886833	-0.103253364563	-0.0432641506195	1.56240808964	-0.239410400391
0.188180685043	1.16776478291	-0.093181848526	-0.048853635788	1.55900275707	-0.235910534859
0.178349494934	1.15912878513	-0.084947347641	-0.0555984973907	1.55664741993	-0.233305096626
0.166753292084	1.15296006203	-0.0763945579529	-0.0613021850586	1.55377542973	-0.232506990433
0.158666610718	1.15540599823	-0.0681841373444	-0.0650596618652	1.55016052723	-0.233773469925
0.14973282814	1.16701602936	-0.0605638027191	-0.0673391819	1.54534220695	-0.23658323288
0.141139268875	1.17575132847	-0.0535495281219	-0.0690484046936	1.53887748718	-0.240440607071
0.134955644608	1.18306577206	-0.0489704608917	-0.0701887607574	1.53352344036	-0.243606209755
0.127503633499	1.18960928917	-0.050591468811	-0.0706286430359	1.53149473667	-0.245903491974
