0.0	-0.0	139.379959106	-109.007202148	84.9272766113	-177.817718506
0.0	-0.0	139.631072998	-109.144927979	84.8231506348	-177.63130188
0.0	-0.0	139.795730591	-109.23260498	84.5885162354	-177.59437561
0.0	-0.0	139.845504761	-108.885292053	84.2848739624	-177.552627563
0.0	-0.0	140.050186157	-108.410972595	83.9390258789	-177.199081421
0.0	-0.0	140.145812988	-108.237419128	83.7260513306	-176.842056274
0.0	-0.0	140.464172363	-108.444824219	83.7936019897	-176.905807495
0.0	-0.0	140.187545776	-108.609428406	83.8252334595	-176.566040039
0.0	-0.0	134.54876709	-109.126144409	83.8347320557	-176.215286255
0.0	-0.0	114.806037903	-109.704452515	84.275894165	-176.041915894
0.0	-0.0	89.838973999	-110.7631073	85.3108215332	-175.862197876
0.0	-0.0	81.1868362427	-112.423660278	86.6037597656	-175.652282715
0.0	-0.0	78.3886032104	-113.524391174	87.2392120361	-175.276428223
0.0	-0.0	78.0587615967	-113.98474884	88.1611022949	-175.183013916
0.0	-0.0	78.8884658813	-114.667892456	89.9393844604	-175.082519531
0.0	-0.0	83.1726837158	63.9193305969	86.6467819214	4.64984083176
0.0	-0.0	84.2994232178	62.0929603577	82.4841995239	4.04584789276
0.0	-0.0	85.391456604	60.2488937378	78.1489334106	3.4530005455
0.0	-0.0	86.0254821777	58.8341751099	73.9350967407	2.76031947136
0.0	-0.0	89.9917221069	57.2265090942	69.7729568481	1.60306680202
0.0	-0.0	93.1374282837	55.3223609924	65.5664367676	0.833869457245
0.0	-0.0	95.0261459351	52.2330360413	60.0196533203	0.214046210051
0.0	-0.0	96.0648880005	49.2972984314	52.8934135437	-0.350449502468
0.0	-0.0	96.1791229248	46.5979919434	45.4948158264	-0.475803285837
0.0	-0.0	96.2181167603	44.292098999	38.6705513	-0.368757724762
0.0	-0.0	98.5917358398	42.663520813	34.0409927368	0.284147232771
0.0	-0.0	113.12286377	41.5314598083	32.1916618347	0.521185159683
0.0	-0.0	127.782539368	40.8363037109	31.6607227325	1.14552497864
0.0	-0.0	132.363021851	40.3187713623	33.1101799011	1.31957113743
0.0	-0.0	126.721321106	40.2868690491	36.9676132202	1.29312753677
0.0	-0.0	88.3914031982	40.8098220825	41.0808601379	1.22206091881
0.0	-0.0	70.3664474487	40.5123977661	43.015171051	1.18256878853
0.0	-0.0	61.2343330383	39.3066596985	43.146697998	1.57274580002
0.0	-0.0	71.0352401733	37.8514213562	42.853302002	2.16945171356
0.0	-0.0	86.6613693237	36.8814277649	42.6498947144	2.41545653343
0.0	-0.0	118.709625244	36.5569267273	42.757106781	2.25876379013
0.0	-0.0	154.918960571	36.83618927	43.8302688599	2.10565328598
0.0	-0.0	-175.558517456	37.4709854126	44.9817695618	2.04785346985
0.0	-0.0	-171.204421997	37.9003715515	46.4015159607	2.19039034843
0.0	-0.0	132.496856689	39.0383834839	48.7118759155	1.30461871624
0.0	-0.0	52.2605438232	40.2399940491	50.7608833313	0.750854551792
0.0	-0.0	46.2926025391	41.5344429016	52.0436325073	-0.15341950953
0.0	-0.0	81.0726547241	41.4517860413	52.3247718811	-0.29265409708
0.0	-0.0	118.999176025	39.900188446	51.459602356	0.0972649753094
0.0	-0.0	128.145751953	37.2719688416	48.8749961853	1.16571450233
0.0	-0.0	130.025878906	33.7767486572	44.8845977783	2.33470535278
0.0	-0.0	129.716766357	29.7518692017	39.6148757935	3.27567052841
0.0	-0.0	129.56137085	27.3275947571	33.1849403381	3.15142583847
0.0	-0.0	129.274154663	26.7957000732	27.1368961334	2.36892080307
0.0	-0.0	128.661026001	28.4535694122	25.9113178253	1.64931380749
0.0	-0.0	128.845336914	30.338218689	27.5112838745	0.852388441563
0.0	-0.0	130.978530884	31.7208118439	30.1011772156	0.182727888227
0.0	-0.0	132.902603149	32.1580276489	32.7892227173	-0.0914513766766
0.0	-0.0	145.245437622	32.5194206238	35.7816352844	0.136049106717
0.0	-0.0	161.819168091	33.0603637695	39.2883987427	0.0244379714131
0.0	-0.0	174.240631104	33.5816612244	43.0772438049	-0.162576004863
0.0	-0.0	-174.02456665	33.6521835327	47.0210151672	0.023997835815
0.0	-0.0	-172.488174438	33.7532348633	50.5958709717	0.907847225666
0.0	-0.0	-174.41619873	34.0672988892	53.0967483521	1.56462526321
0.0	-0.0	-175.911026001	34.5937995911	54.8977050781	1.18349206448
0.0	-0.0	171.853485107	34.9598922729	56.3167877197	0.750829458237
0.0	-0.0	134.529541016	34.3433799744	57.2874183655	1.07619464397
0.0	-0.0	83.0110321045	33.0192337036	56.8394012451	1.63916230202
0.0	-0.0	75.1523513794	31.9726352692	56.4396476746	1.77064013481
0.0	-0.0	73.0942840576	31.3017177582	56.0804862976	2.21296691895
0.0	-0.0	73.5042495728	30.7894020081	55.77110672	2.47138810158
0.0	-0.0	74.7992477417	30.4750881195	54.9510383606	2.47222232819
0.0	-0.0	74.5777893066	30.4717788696	54.3992004395	2.44995069504
0.0	-0.0	74.1765289307	30.5680961609	54.374080658	2.33266663551
0.0	-0.0	73.8840103149	31.0588569641	55.3707122803	1.75724720955
0.0	-0.0	73.7173461914	34.1084976196	57.1087188721	-0.639451384544
0.0	-0.0	73.6151428223	40.1784324646	58.3158607483	-4.21135139465
0.0	-0.0	73.189704895	47.7507133484	57.9854393005	-7.63167762756
0.0	-0.0	72.7728424072	54.8471069336	56.2269935608	-10.3296985626
0.0	-0.0	72.4971847534	58.4696578979	54.0867118835	-11.5969905853
0.0	-0.0	72.3933792114	56.1508865356	50.0642967224	-11.433921814
0.0	-0.0	72.0326004028	51.5371856689	43.5362968445	-10.6777267456
0.0	-0.0	71.6590576172	47.3158149719	37.2676849365	-10.3850250244
0.0	-0.0	71.5619125366	43.7945518494	31.1307563782	-10.2089853287
0.0	-0.0	71.3154067993	40.3715019226	25.8317642212	-9.78096103668
0.0	-0.0	70.8558807373	35.5680961609	21.4611339569	-8.59978485107
0.0	-0.0	70.6437072754	30.2217597961	17.4921226501	-6.84709978104
