0.0860764980316	1.18271481991	-0.0289039611816	-0.0872404575348	1.57498979568	-0.267629146576
0.0857665538788	1.18664348125	-0.0324178934097	-0.0868651866913	1.57604002953	-0.267717123032
0.0858511924744	1.1882147789	-0.0330994129181	-0.086855173111	1.5765004158	-0.267637968063
0.0866723060608	1.18900251389	-0.032653093338	-0.0871713161469	1.57632958889	-0.266976237297
0.0875909328461	1.1885612011	-0.0327540636063	-0.0871293544769	1.57608020306	-0.266052484512
0.0891172885895	1.18572878838	-0.0286372900009	-0.0865931510925	1.57595121861	-0.265137195587
0.0917694568634	1.18092679977	-0.0220510959625	-0.0849041938782	1.5765119791	-0.263762950897
0.0939967632294	1.1759750843	-0.0173460245132	-0.0820751190186	1.57910776138	-0.261508464813
0.0971982479095	1.16809689999	-0.0121576786041	-0.0786035060883	1.58267402649	-0.260021448135
0.104838132858	1.16559267044	-0.00881254673004	-0.0746765136719	1.58606314659	-0.258861541748
0.115029096603	1.16633880138	-0.00677609443665	-0.071037530899	1.58794891834	-0.257947683334
0.123972415924	1.16705262661	-0.00575113296509	-0.0681738853455	1.58866095543	-0.256898283958
