0.0	-0.0	145.009307861	71.7167282104	82.4565963745	1.77046918869
0.0	-0.0	144.594985962	71.1519012451	82.3544616699	2.47298741341
0.0	-0.0	144.053833008	71.2319641113	82.2505264282	2.32253909111
0.0	-0.0	143.501358032	71.4777832031	82.2017211914	2.26910328865
0.0	-0.0	139.424072266	71.91796875	82.255859375	2.47895956039
0.0	-0.0	128.90826416	73.9646072388	83.7504959106	2.40475082397
0.0	-0.0	116.029983521	77.8221282959	87.1854782104	1.41507673264
0.0	-0.0	104.920265198	78.8037185669	88.444229126	1.68373966217
0.0	-0.0	94.8098373413	79.5534820557	89.4815597534	1.73971140385
0.0	-0.0	85.5852890015	-100.796966553	88.6292114258	-177.685348511
0.0	-0.0	75.7706375122	-97.318031311	84.9468841553	171.877166748
0.0	-0.0	65.193977356	-96.0131835938	82.1778640747	166.550628662
0.0	-0.0	55.5283508301	-95.1334381104	79.3238830566	157.999862671
0.0	-0.0	48.1025314331	-91.7742538452	74.2040023804	146.449279785
0.0	-0.0	42.7874641418	-85.1483078003	67.5926055908	128.280487061
0.0	-0.0	38.8063774109	-75.9853973389	59.3223075867	110.861106873
0.0	-0.0	35.5345077515	-67.1764221191	52.8080978394	100.337974548
0.0	-0.0	33.0846748352	-60.2496070862	48.8156051636	99.7947845459
0.0	-0.0	31.3874835968	-58.1919631958	51.2255706787	106.222747803
0.0	-0.0	31.1409111023	-56.9431915283	52.8882102966	108.687782288
0.0	-0.0	29.67527771	-56.7986335754	56.4840354919	117.112518311
0.0	-0.0	27.781999588	-59.2985305786	62.6005477905	127.700035095
0.0	-0.0	26.5352306366	-64.44947052	69.5743865967	139.321029663
0.0	-0.0	25.7751216888	-68.7930755615	73.1002578735	145.58795166
0.0	-0.0	24.7035083771	-73.3964691162	76.1987228394	151.459152222
0.0	-0.0	23.642282486	-79.5548629761	80.3552703857	160.618392944
0.0	-0.0	22.7171382904	-85.799949646	83.786605835	168.61769104
0.0	-0.0	22.2396526337	-89.4996948242	85.0461425781	173.198562622
0.0	-0.0	23.3309192657	-90.2061920166	83.3216018677	171.534362793
0.0	-0.0	23.2429714203	-90.290763855	81.93724823	171.447372437
0.0	-0.0	23.6636104584	-90.7777099609	82.1142959595	171.727249146
0.0	-0.0	23.1151504517	-90.8485870361	82.7331619263	171.65234375
0.0	-0.0	23.1844806671	-90.5853652954	83.354850769	171.33215332
0.0	-0.0	23.4069862366	-90.0419692993	83.5288162231	171.252456665
0.0	-0.0	23.4222049713	-89.1593551636	83.4581222534	171.486968994
0.0	-0.0	23.7848587036	-88.1638336182	83.8565216064	171.977920532
0.0	-0.0	23.7359409332	-88.3052139282	85.6146392822	174.296310425
0.0	-0.0	24.2745933533	-88.9654541016	87.5132217407	176.670059204
0.0	-0.0	24.6055107117	-89.6654205322	88.9420013428	178.728652954
0.0	-0.0	24.7979812622	-89.9490966797	89.4286270142	179.346710205
0.0	-0.0	23.9949245453	-90.033164978	89.667640686	-179.811416626
0.0	-0.0	23.0905475616	89.5558853149	89.6194152832	1.28832876682
0.0	-0.0	22.1874465942	89.9515609741	89.8073196411	0.758287012577
0.0	-0.0	21.9654693604	-89.6014556885	89.9491577148	-179.601852417
0.0	-0.0	22.7836589813	-89.4900817871	89.9190673828	-179.627441406
0.0	-0.0	23.3401947021	-89.332321167	89.7058105469	-179.689956665
0.0	-0.0	23.5690059662	-89.3306655884	89.3023223877	-179.737060547
0.0	-0.0	24.5355987549	-89.5265731812	89.0077896118	-179.875686646
0.0	-0.0	18.9856414795	-89.970413208	88.613067627	-179.59236145
0.0	-0.0	6.28686094284	-90.3597259521	88.4186859131	-178.968963623
0.0	0.0	-8.28338623047	-90.457824707	88.1684951782	-178.659881592
0.0	0.0	-21.0021495819	-90.7987670898	87.7851867676	-178.524368286
0.0	0.0	-30.1396350861	-90.9767150879	87.7504653931	-178.610534668
0.0	0.0	-33.7724113464	-91.2056350708	87.7625274658	-178.907531738
0.0	0.0	-35.0875205994	-91.0225524902	87.3291625977	-178.888061523
0.0	0.0	-33.4311256409	-90.9311599731	87.2541122437	-178.858673096
0.0	0.0	-27.9191970825	-90.7649383545	87.5345306396	-179.1849823
0.0	0.0	-19.3887004852	-90.726776123	87.2462234497	-179.340026855
0.0	0.0	-10.2654914856	-89.9414825439	86.5021972656	179.181335449
0.0	0.0	-3.06144404411	-90.0494155884	86.1470184326	179.391983032
0.0	-0.0	0.71023440361	-89.9104995728	85.7975997925	179.638275146
0.0	-0.0	2.66011190414	-89.6676940918	85.9815216064	179.644561768
0.0	-0.0	3.45410847664	-89.7923431396	86.8554534912	179.869628906
0.0	-0.0	3.53095412254	-91.5310821533	87.8763504028	-176.761520386
0.0	-0.0	5.3396897316	-94.9883041382	89.5482559204	-171.685134888
0.0	-0.0	5.77799081802	82.2375793457	88.2020645142	13.4007196426
0.0	-0.0	5.53787612915	80.5878677368	86.3517074585	16.78399086
0.0	-0.0	5.33550357819	80.6900024414	86.0900192261	16.2582321167
0.0	-0.0	5.46961688995	81.305480957	86.8493499756	15.1979017258
0.0	-0.0	6.19741249084	81.8897781372	86.5717697144	13.7322463989
0.0	-0.0	6.85367679596	83.6020965576	86.2275543213	10.5637178421
0.0	-0.0	7.66450119019	84.7252502441	85.8951416016	7.80610179901
0.0	-0.0	8.31423950195	86.1992416382	85.7109146118	2.96515154839
0.0	-0.0	8.86456108093	85.6965866089	84.5738449097	3.19952869415
0.0	-0.0	9.57782840729	84.8866271973	82.6259078979	3.10759878159
0.0	-0.0	9.81439304352	84.1222076416	81.1185455322	2.94482851028
0.0	-0.0	9.53649520874	84.2158432007	79.321434021	2.20638751984
0.0	-0.0	9.28231716156	84.8972320557	78.5467529297	-0.252788484097
0.0	-0.0	9.39879989624	86.3494033813	78.2632446289	-4.39804840088
0.0	-0.0	9.95808029175	86.5120544434	75.1729278564	-4.75048160553
0.0	-0.0	10.295009613	85.9063720703	68.682182312	-2.37937498093
0.0	-0.0	10.7115154266	82.5572357178	58.7617874146	4.21712112427
0.0	-0.0	11.2893180847	79.7271270752	53.6520080566	9.23186779022
0.0	-0.0	11.7637777328	79.7074203491	49.0903549194	10.7827939987
0.0	-0.0	11.96966362	79.978843689	48.6281242371	10.3048887253
0.0	-0.0	12.6320152283	79.5854873657	48.427646637	11.7238016129
0.0	-0.0	13.2942886353	79.5556869507	48.679233551	12.7518978119
0.0	-0.0	13.6003046036	78.1674957275	48.6801261902	17.0762367249
0.0	-0.0	13.9898204803	77.6126403809	47.6131362915	20.1757354736
0.0	-0.0	14.0385742188	80.0348815918	43.6064605713	20.2203063965
0.0	-0.0	14.1976528168	81.1073684692	38.8030090332	20.3653774261
0.0	-0.0	14.074177742	82.1433410645	36.9210586548	19.2541351318
0.0	-0.0	13.8146438599	81.7960662842	36.5560379028	19.0074234009
0.0	-0.0	13.8693685532	81.5590209961	36.4852828979	19.3289203644
0.0	-0.0	13.9011325836	81.6296005249	37.1639099121	19.6449737549
0.0	-0.0	14.7341403961	81.435333252	37.5169181824	19.591545105
0.0	-0.0	15.9201498032	81.2529296875	38.442035675	19.772190094
0.0	-0.0	18.4719772339	80.9415054321	38.7371673584	19.8691310883
0.0	-0.0	23.738483429	81.0225448608	39.1771965027	19.7010326385
0.0	-0.0	31.6321029663	80.6584854126	39.7486991882	19.9971027374
0.0	-0.0	39.6145896912	80.5505752563	40.9375724792	19.8605651855
0.0	-0.0	44.4612045288	79.5000076294	41.2734146118	20.2880916595
0.0	-0.0	44.7282180786	78.576461792	41.3972358704	20.6325893402
0.0	-0.0	42.1306304932	78.0364837646	41.7514076233	20.8405189514
0.0	-0.0	39.991153717	77.6825332642	42.0230789185	20.8991661072
0.0	-0.0	37.2957420349	77.7563858032	42.3040466309	20.7715740204
0.0	-0.0	35.6341056824	77.2007751465	42.2534446716	21.3594989777
0.0	-0.0	34.247882843	76.9120864868	42.441204071	21.4978466034
0.0	-0.0	34.2289466858	77.0093154907	42.7569999695	21.3584079742
0.0	-0.0	33.7333374023	77.0603256226	42.8943138123	21.3231430054
0.0	-0.0	31.887260437	77.2306594849	42.8945541382	21.6610336304
0.0	-0.0	22.3988800049	76.978553772	43.4865493774	22.0109024048
0.0	-0.0	5.80841732025	76.3960266113	43.3527832031	22.7048301697
0.0	0.0	-11.3393697739	76.4780349731	42.7788887024	22.8254985809
0.0	0.0	-27.5642566681	76.730506897	42.8831520081	22.6967430115
0.0	0.0	-41.5582084656	77.0236816406	42.9112319946	22.6958675385
0.0	0.0	-50.8568382263	77.7036437988	42.4150733948	22.2171440125
0.0	0.0	-57.7100524902	77.6465454102	41.6480674744	22.4772815704
0.0	0.0	-63.3429679871	77.8696670532	41.4541320801	22.4799041748
0.0	0.0	-66.5000534058	77.7361831665	41.4947052002	22.5072193146
0.0	0.0	-64.4844360352	78.3046951294	41.5634880066	22.0651264191
0.0	0.0	-57.7707252502	79.2606735229	41.9354171753	21.5787029266
0.0	0.0	-46.2782974243	80.0614776611	41.8268318176	20.7169189453
0.0	0.0	-31.3130207062	80.5838394165	41.6174545288	19.9201316833
0.0	0.0	-14.0392084122	80.7942047119	41.4832611084	19.1527633667
0.0	-0.0	3.46378040314	80.8764038086	41.874961853	18.6546363831
0.0	-0.0	18.6980876923	80.8188095093	41.9476852417	18.6183452606
0.0	-0.0	29.8592967987	81.0949783325	41.5398292542	18.4946422577
0.0	-0.0	37.1586036682	80.6273727417	41.570602417	18.6317005157
0.0	-0.0	51.669380188	81.2080917358	41.2979545593	17.8235397339
0.0	-0.0	67.1335144043	82.1084671021	41.768409729	16.87682724
0.0	-0.0	74.6957015991	82.1950378418	42.1579437256	16.9786987305
0.0	-0.0	68.3849945068	82.1775741577	42.2119293213	17.7702083588
0.0	-0.0	57.4976768494	82.4907684326	41.3425750732	17.7320957184
0.0	-0.0	49.3323707581	82.0978088379	41.6525802612	18.1047496796
0.0	-0.0	44.5519714355	82.8919372559	42.3565597534	17.1420650482
0.0	-0.0	41.6012954712	85.0438232422	42.5939559937	14.9426794052
0.0	-0.0	39.5553894043	85.8366699219	42.4714279175	15.2729644775
0.0	-0.0	37.7083473206	86.2181015015	42.4943122864	15.6557350159
0.0	-0.0	35.5186843872	86.6721496582	43.0943260193	15.8398561478
0.0	-0.0	33.5403823853	87.1990661621	43.1470565796	15.9285612106
0.0	-0.0	32.2826309204	87.617401123	42.7999000549	16.0771961212
0.0	-0.0	31.0414104462	88.2545089722	42.7517547607	16.1611595154
0.0	-0.0	30.0452041626	89.4866256714	43.1597328186	15.4899539948
0.0	-0.0	30.7732143402	89.8566894531	43.0733451843	15.4949674606
0.0	-0.0	31.4263095856	90.158744812	43.467590332	15.161195755
0.0	-0.0	31.8960895538	89.4121170044	43.8208808899	15.3317222595
0.0	-0.0	32.567024231	88.4669570923	44.2563095093	15.6328735352
0.0	-0.0	33.3397140503	87.4608612061	45.031036377	15.9988183975
0.0	-0.0	33.9150543213	86.3347854614	45.1910400391	16.7938079834
0.0	-0.0	34.8380393982	85.279800415	45.3145294189	17.4724979401
0.0	-0.0	35.4265098572	84.4348297119	45.8535423279	18.8902053833
0.0	-0.0	35.3198623657	83.9630508423	46.4004554749	20.2647609711
0.0	-0.0	35.2155799866	83.500617981	46.4083442688	21.3753871918
0.0	-0.0	34.712348938	82.8461532593	47.0423469543	22.6459064484
0.0	-0.0	34.7467918396	81.7192306519	47.718547821	24.3017597198
0.0	-0.0	35.0343551636	81.2870483398	48.4437942505	24.9821166992
0.0	-0.0	35.4931640625	80.9677734375	48.9829368591	25.141626358
0.0	-0.0	37.1829910278	80.724357605	48.852394104	25.0191192627
0.0	-0.0	38.7425384521	81.3474655151	49.2936859131	24.4390983582
0.0	-0.0	39.6021652222	81.9321212769	49.0056724548	23.7733631134
0.0	-0.0	39.2963829041	82.2965621948	48.8418884277	23.5854797363
0.0	-0.0	38.9091262817	82.8242340088	48.6827278137	23.463218689
0.0	-0.0	38.5059700012	83.4976501465	48.4775810242	23.4470367432
0.0	-0.0	38.0143699646	83.7982635498	48.4747047424	23.6903877258
0.0	-0.0	38.7134895325	83.4465484619	48.2524261475	24.3037548065
0.0	-0.0	43.6435470581	83.1019363403	48.4496421814	24.4955024719
0.0	-0.0	51.4316062927	82.6739883423	48.8431358337	24.9030590057
0.0	-0.0	62.4343986511	82.2780914307	49.258014679	25.1953659058
0.0	-0.0	77.9525299072	82.0823516846	49.4844589233	24.8971214294
0.0	-0.0	94.8847503662	82.2672576904	49.6369667053	23.8462314606
0.0	-0.0	107.270210266	81.8811721802	50.0435829163	23.479516983
0.0	-0.0	107.882713318	81.3547973633	49.9296188354	23.6204547882
0.0	-0.0	96.4847335815	80.6056213379	49.5739936829	24.159116745
0.0	-0.0	79.0401535034	80.4939804077	49.8710708618	24.1765518188
0.0	-0.0	59.4720153809	80.2964019775	50.7132530212	24.3710861206
0.0	-0.0	42.4571838379	79.5175857544	51.4488830566	24.8307571411
0.0	-0.0	27.8696842194	79.8807525635	52.024181366	24.1380138397
0.0	-0.0	11.6782369614	79.4778594971	52.1945381165	24.6582584381
0.0	0.0	-4.96956539154	78.8815231323	51.3999977112	25.6099300385
0.0	0.0	-19.2819786072	79.0866394043	51.0794944763	26.039981842
0.0	0.0	-24.6598033905	79.164642334	51.0345306396	26.1720790863
0.0	0.0	-22.6563587189	80.3458251953	51.2427520752	25.1738700867
0.0	0.0	-20.6221981049	82.3067245483	52.1068305969	21.8860435486
0.0	0.0	-18.2564868927	83.3278121948	53.2935638428	19.2941074371
0.0	0.0	-16.4009094238	85.2221298218	53.343624115	16.2927341461
0.0	0.0	-14.3523960114	86.528968811	51.708065033	15.5807409286
0.0	0.0	-12.5220775604	88.2742538452	51.186668396	14.729224205
0.0	0.0	-10.2630500793	88.6736297607	51.6849517822	14.7411298752
0.0	0.0	-6.74343252182	88.9227600098	51.8486442566	14.849978447
0.0	0.0	-3.88888144493	89.5120697021	51.7894439697	14.8716773987
0.0	0.0	-2.06874012947	89.10521698	51.5700836182	15.3771057129
0.0	0.0	-1.70961391926	88.233505249	51.796875	15.6954402924
0.0	0.0	-1.8064507246	87.3582992554	52.149772644	16.0624961853
0.0	0.0	-2.36791992188	86.743309021	52.2742538452	16.3583869934
0.0	0.0	-3.297270298	86.8471069336	52.1761283875	16.7248573303
0.0	0.0	-3.25207138062	85.9268188477	50.6640625	17.9334335327
0.0	0.0	-2.64770388603	83.9748077393	48.9782142639	20.8924789429
0.0	0.0	-1.81099891663	83.2197875977	48.868019104	21.7902412415
0.0	0.0	-1.01297867298	83.0042724609	49.2140045166	22.1705684662
0.0	0.0	-1.09307992458	83.3579330444	49.2507629395	22.1213436127
0.0	0.0	-0.739864826202	83.2660446167	48.8375816345	22.1686420441
0.0	0.0	-0.907447695732	83.4727096558	48.971660614	22.2103996277
0.0	0.0	-1.0584679842	83.3862991333	49.0979537964	22.4732189178
0.0	0.0	-0.713900387287	83.1008758545	49.4059257507	23.3504829407
0.0	0.0	-0.440274775028	82.6499252319	50.8925514221	23.5358276367
0.0	-0.0	0.562806665897	81.41456604	52.2855148315	24.1606826782
0.0	-0.0	1.45295095444	79.9354705811	54.4927635193	24.0214347839
0.0	-0.0	2.28386807442	80.2983474731	57.7398376465	17.6426753998
0.0	-0.0	2.77801370621	79.7773132324	60.7840270996	12.3537378311
0.0	-0.0	3.17036557198	78.962020874	62.9140472412	10.6460733414
0.0	-0.0	3.56431603432	78.0673141479	64.3969802856	10.506360054
0.0	-0.0	3.95287942886	77.4347076416	64.7021102905	13.1340646744
0.0	-0.0	4.37019824982	77.1540985107	64.6832733154	14.1506032944
0.0	-0.0	5.00387620926	76.9407119751	64.6270065308	15.0863513947
0.0	-0.0	6.23940706253	75.674659729	63.9606285095	18.6161956787
0.0	-0.0	7.44799947739	75.3310394287	60.6679878235	21.3035583496
0.0	-0.0	8.32793998718	77.7572479248	55.5704345703	19.7346801758
0.0	-0.0	8.08722496033	79.4612503052	51.7227058411	18.3130321503
0.0	-0.0	7.70076608658	81.3307342529	47.653049469	18.4926013947
0.0	-0.0	7.42227983475	82.5146484375	43.5607795715	18.1769275665
0.0	-0.0	7.09167909622	82.0735168457	44.2162094116	18.2887039185
0.0	-0.0	7.63699531555	81.6347198486	45.1400909424	18.8858013153
0.0	-0.0	8.54771327972	82.0521392822	45.6003990173	19.041135788
0.0	-0.0	9.07273674011	82.6736221313	45.5817108154	19.3820037842
0.0	-0.0	9.66680622101	83.0483856201	45.5211868286	19.3638954163
0.0	-0.0	10.9909477234	82.8382263184	45.7559432983	19.5156822205
0.0	-0.0	16.9866294861	82.7171096802	46.0862884521	19.5118026733
0.0	-0.0	25.7849388123	82.5008087158	46.7830352783	19.4454345703
0.0	-0.0	35.1106719971	82.5391082764	47.2215690613	19.4688835144
0.0	-0.0	41.4328422546	82.2070922852	47.1028594971	19.5483951569
0.0	-0.0	42.7380180359	82.1877822876	46.4518928528	19.6745185852
0.0	-0.0	39.6092758179	82.7034378052	45.9889907837	19.6977062225
0.0	-0.0	34.1644592285	83.5037155151	46.0069694519	19.588186264
0.0	-0.0	30.8236885071	84.4592285156	46.4246406555	19.2615947723
0.0	-0.0	28.62774086	84.8702163696	47.0886993408	19.4585380554
0.0	-0.0	28.5282230377	85.1465072632	47.8362960815	19.421333313
0.0	-0.0	28.7897434235	85.3170471191	48.3188209534	19.2930393219
0.0	-0.0	28.7176322937	84.8034362793	48.3729858398	19.4205322266
0.0	-0.0	26.888917923	84.3705673218	48.1939888	19.0999546051
0.0	-0.0	23.4699440002	84.4023361206	48.2494010925	15.7643489838
0.0	-0.0	17.7471752167	89.6522216797	51.225063324	2.48782896996
0.0	-0.0	10.3191757202	92.6398696899	54.9278068542	-4.59709215164
0.0	-0.0	6.30813980103	93.9122467041	56.9825057983	-6.93660163879
0.0	-0.0	7.2152094841	93.6521682739	57.7390403748	-6.26642274857
0.0	-0.0	11.9096651077	92.6429290771	58.3828163147	-4.2051858902
0.0	-0.0	18.4685935974	91.2185821533	58.9599380493	-2.25464868546
0.0	-0.0	24.5883388519	89.6992034912	59.530506134	0.178932875395
0.0	-0.0	32.5421485901	88.2587814331	59.2309455872	1.23758685589
0.0	-0.0	42.6337966919	87.4467315674	59.5721359253	1.58051991463
0.0	-0.0	57.1000213623	87.2412414551	60.0167427063	1.2578099966
0.0	-0.0	73.6921234131	87.2463684082	60.450252533	0.93716186285
0.0	-0.0	91.7104721069	87.9022216797	60.9320678711	0.414503931999
0.0	-0.0	107.416770935	88.9076766968	60.8172225952	-0.169180542231
0.0	-0.0	120.545654297	89.7915267944	60.7309837341	-0.876034319401
0.0	-0.0	126.609687805	90.2830047607	60.562374115	-0.730038821697
0.0	-0.0	121.639923096	90.0284881592	59.9268836975	-0.084008321166
0.0	-0.0	108.279380798	90.7220001221	59.8173484802	0.0193194951862
0.0	-0.0	90.0493392944	90.7710571289	60.000869751	0.503552019596
0.0	-0.0	72.6533355713	90.8356628418	60.7210845947	1.02007830143
0.0	-0.0	55.9147338867	91.2911758423	61.0809555054	1.55595731735
0.0	-0.0	40.1243286133	91.6527252197	60.8395957947	2.26428413391
0.0	-0.0	25.3379364014	91.8410797119	60.3614692688	2.61565494537
0.0	-0.0	6.51265954971	91.5696029663	60.1564292908	3.13809728622
0.0	0.0	-12.3833885193	91.1265182495	59.7272872925	3.45159363747
0.0	0.0	-27.3866958618	91.1147460938	59.6473007202	3.44276452065
0.0	0.0	-35.4776763916	91.3508071899	59.8125953674	3.22886967659
0.0	0.0	-36.9855575562	91.4125518799	59.8233451843	3.01066017151
0.0	0.0	-33.2035293579	91.3497924805	60.0127601624	2.73702430725
0.0	0.0	-26.4571628571	91.022644043	59.9866447449	2.74374771118
0.0	0.0	-18.5052871704	90.4093780518	60.108165741	2.80089354515
0.0	0.0	-11.8957567215	89.4144744873	60.2913208008	2.89065337181
0.0	0.0	-6.74654817581	88.2082901001	60.0751838684	3.1010620594
0.0	0.0	-0.501987934113	87.4608306885	59.3219299316	3.35939669609
0.0	-0.0	6.07379865646	87.3031616211	59.5091781616	3.32780957222
0.0	-0.0	14.4189596176	87.3997344971	59.9596443176	3.3065340519
0.0	-0.0	25.8091239929	87.8260192871	60.2264060974	3.22482466698
0.0	-0.0	36.4389152527	88.4259643555	60.674243927	3.03646087646
0.0	-0.0	50.4338150024	89.1805648804	60.9685707092	2.72454857826
0.0	-0.0	65.1548538208	89.3721466064	61.4211044312	2.62397265434
0.0	-0.0	74.9376220703	89.1308746338	61.1424789429	2.90801143646
0.0	-0.0	81.8950424194	89.1457290649	60.8943939209	2.70995569229
0.0	-0.0	85.8347396851	89.1903533936	60.994682312	2.78630518913
0.0	-0.0	86.3924255371	89.1145095825	61.3793907166	3.01450109482
0.0	-0.0	85.4499206543	89.2602996826	61.1957321167	3.0396065712
0.0	-0.0	83.154083252	89.2681121826	61.3851852417	3.30471563339
0.0	-0.0	82.1928405762	89.1353530884	61.8971443176	3.27252817154
0.0	-0.0	80.61668396	88.7659072876	62.2891769409	2.8626127243
0.0	-0.0	76.3670425415	87.442741394	62.450756073	0.547875881195
0.0	-0.0	72.3468551636	84.9413986206	61.3679389954	-5.36301279068
0.0	-0.0	67.8407897949	86.7020645142	65.6422195435	-30.4289093018
0.0	-0.0	63.1144104004	87.5165939331	72.5883865356	-59.1121406555
0.0	-0.0	58.1941184998	84.6975708008	73.3552246094	-65.6432647705
0.0	-0.0	53.7087974548	84.2439117432	73.7071228027	-64.5882263184
0.0	-0.0	49.1649971008	87.7537231445	77.9488372803	-60.2490386963
0.0	-0.0	48.3102493286	90.4435195923	82.750328064	-44.7762718201
0.0	-0.0	50.2486038208	87.618598938	83.8941192627	-24.9557609558
0.0	-0.0	51.0019378662	85.1556243896	84.2581176758	-16.9024734497
0.0	-0.0	50.6695747375	80.214012146	82.5615997314	-2.86425852776
0.0	-0.0	49.7340965271	70.6197662354	78.7519989014	14.396812439
0.0	-0.0	48.9547805786	65.0925979614	75.6025695801	21.9644107819
0.0	-0.0	47.5557899475	62.9129486084	73.3187026978	26.6003932953
0.0	-0.0	46.1431045532	61.3674201965	70.7964324951	30.0992622375
0.0	-0.0	43.2868614197	59.8414993286	69.28099823	33.2583389282
0.0	-0.0	40.0941619873	56.4622879028	67.0461349487	38.7816963196
0.0	-0.0	37.1154632568	49.8509025574	64.2763290405	48.4323272705
0.0	-0.0	34.701210022	44.813117981	61.801410675	53.9508895874
0.0	-0.0	34.268901825	44.1992492676	60.6200790405	50.5989074707
0.0	-0.0	33.6012802124	45.7425422668	60.2462844849	44.908416748
0.0	-0.0	32.5449028015	45.8540840149	60.5596427917	45.3556137085
0.0	-0.0	32.544467926	46.6434402466	60.3578796387	45.260269165
0.0	-0.0	32.4531364441	47.2551612854	59.513092041	45.2354125977
0.0	-0.0	32.697429657	47.3385391235	58.6283035278	45.3115615845
0.0	-0.0	32.8516807556	47.2299766541	59.2696838379	45.275302887
0.0	-0.0	33.304775238	46.7491416931	59.3711662292	45.4032325745
0.0	-0.0	33.6218185425	46.4701805115	58.7849006653	45.33568573
0.0	-0.0	33.4954452515	46.1267242432	57.6870117188	45.3218955994
0.0	-0.0	33.7471885681	46.2888717651	55.5262527466	43.6804122925
0.0	-0.0	33.8964958191	46.069103241	52.5826454163	42.0747528076
0.0	-0.0	33.6574325562	45.6797981262	50.3334503174	42.0323219299
0.0	-0.0	33.2936248779	45.56690979	49.9526290894	42.2128715515
0.0	-0.0	32.0438041687	45.7694511414	49.22813797	42.4028053284
0.0	-0.0	30.3256225586	46.06042099	47.8416481018	42.5144920349
0.0	-0.0	28.565530777	46.4268074036	45.9368896484	42.704750061
0.0	-0.0	27.2709236145	46.9590835571	44.0321388245	42.9207496643
0.0	-0.0	25.7002334595	47.4703407288	41.1694908142	43.3179512024
0.0	-0.0	24.0440711975	48.0765419006	37.1567649841	44.4033737183
0.0	-0.0	21.897649765	49.1951789856	31.8353023529	45.1771240234
0.0	-0.0	19.8002548218	50.5894584656	27.3363552094	45.8345222473
0.0	-0.0	18.1728420258	51.5354499817	25.7642803192	45.9792251587
0.0	-0.0	16.5999469757	51.8069152832	26.1204109192	46.1451911926
0.0	-0.0	14.5562429428	52.3410377502	25.0503425598	47.0609893799
0.0	-0.0	11.9789571762	55.3209877014	22.991601944	46.1131286621
0.0	-0.0	8.80447387695	58.7127723694	20.8003139496	44.6097335815
0.0	-0.0	6.12708044052	61.8981933594	20.3811721802	42.0846214294
0.0	-0.0	3.02482533455	62.8526954651	20.9132652283	41.3987312317
0.0	0.0	-0.392839312553	63.0676269531	21.2465820312	41.2604064941
0.0	0.0	-4.73658704758	64.3226165771	20.7411136627	40.3577766418
0.0	0.0	-10.0037136078	66.3999404907	19.85272789	38.7297210693
0.0	0.0	-13.3108692169	68.4540557861	18.8473587036	37.7760314941
0.0	0.0	-16.0808029175	70.5197296143	18.6688652039	36.3532180786
0.0	0.0	-17.8690776825	71.7486343384	18.6246623993	35.49634552
0.0	0.0	-17.7245330811	72.069984436	18.701417923	34.962436676
0.0	0.0	-15.9619131088	71.6225204468	18.5261669159	34.9112701416
0.0	0.0	-12.4904403687	70.839515686	17.7235717773	34.7586021423
0.0	0.0	-9.4262342453	72.1590881348	18.4735012054	29.7617111206
0.0	0.0	-6.8447842598	79.8597183228	21.4746246338	12.9821014404
0.0	0.0	-6.13848209381	83.4706573486	23.6877708435	7.95750284195
0.0	0.0	-5.35103940964	83.6728134155	24.7512950897	8.61103439331
0.0	0.0	-4.31047010422	84.355255127	25.3980121613	8.54988765717
0.0	0.0	-0.43633595109	84.6965026855	26.2393188477	8.21476554871
0.0	-0.0	7.77241182327	84.5577011108	27.7284622192	7.8990149498
0.0	-0.0	18.6653633118	84.8347244263	28.4577445984	7.85879421234
0.0	-0.0	30.7556781769	84.5464477539	28.499671936	8.49157524109
0.0	-0.0	41.4326133728	84.3849487305	28.4305038452	9.55320262909
0.0	-0.0	48.0966033936	84.7078781128	28.2725067139	9.71464443207
0.0	-0.0	49.0099143982	85.0932922363	27.5560512543	10.1894397736
0.0	-0.0	47.932182312	85.711807251	27.309431076	10.6531114578
0.0	-0.0	45.6675338745	87.0234832764	27.3705482483	10.5829658508
0.0	-0.0	43.3425827026	86.7551651001	26.8428840637	11.2786188126
0.0	-0.0	40.1266975403	86.2640533447	26.2140712738	11.9119386673
0.0	-0.0	36.5353240967	85.3308868408	25.2205677032	13.4653244019
0.0	-0.0	32.1709098816	84.4341049194	23.5591259003	14.6659164429
0.0	-0.0	26.6244392395	83.6494216919	23.1028461456	13.6516208649
0.0	-0.0	23.2027645111	82.2544021606	23.3995361328	12.8439512253
0.0	-0.0	26.3824043274	81.4015655518	23.6557102203	13.3870315552
0.0	-0.0	31.1324958801	81.5007476807	23.8981628418	13.1286821365
0.0	-0.0	33.6370620728	81.2175445557	24.1394367218	13.4299440384
0.0	-0.0	35.2738418579	80.4529495239	24.0822677612	13.4590816498
0.0	-0.0	36.5309295654	79.2581329346	24.8881454468	12.9174776077
0.0	-0.0	37.8859062195	79.9705505371	27.8034076691	8.00557041168
0.0	-0.0	42.4645576477	78.2125549316	28.3515949249	9.39107704163
0.0	-0.0	49.6260185242	77.4892120361	28.7737407684	9.64921855927
0.0	-0.0	57.6298141479	76.8163986206	28.9917182922	10.0086641312
0.0	-0.0	63.3546066284	76.7838821411	29.0487422943	9.69177818298
0.0	-0.0	63.349773407	76.33959198	28.3002338409	9.91451644897
0.0	-0.0	61.6148719788	75.9701843262	27.5344600677	10.2539968491
0.0	-0.0	59.8405189514	75.4856338501	25.3887901306	12.502576828
0.0	-0.0	57.6414680481	78.9696578979	25.2220916748	12.3696784973
0.0	-0.0	55.5308837891	83.6890487671	26.5220298767	11.2326717377
0.0	-0.0	54.5571708679	87.2322921753	27.0668678284	10.4131565094
0.0	-0.0	52.9097671509	88.2327041626	27.2045497894	11.3052997589
0.0	-0.0	51.1922492981	88.8282318115	26.605890274	12.3422613144
0.0	-0.0	49.7430152893	89.414894104	25.8182525635	12.9020786285
0.0	-0.0	49.0571479797	90.0395965576	23.7932662964	14.5804100037
0.0	-0.0	48.6543540955	91.148147583	21.6955814362	16.3608474731
0.0	-0.0	50.4535369873	92.7749099731	20.2503242493	17.8323707581
0.0	-0.0	53.4231491089	95.3167724609	20.2367706299	18.617931366
0.0	-0.0	57.6349945068	97.1109008789	20.0010528564	19.8316879272
0.0	-0.0	60.2669906616	97.68359375	20.2993240356	21.0985240936
0.0	-0.0	60.2208061218	97.5563049316	20.1847400665	21.8541355133
0.0	-0.0	58.9581794739	96.8770980835	22.2241306305	16.9428539276
0.0	-0.0	57.0876121521	94.5246505737	25.2859096527	7.00913381577
