-71.2258834839	-55.3274879456	143.349731445	3.34825468063	0.346603274345	-5.63939380646
-71.2044906616	-55.4415016174	143.221328735	3.24801921844	0.337700128555	-5.67742204666
-70.9025497437	-55.5589027405	142.931884766	3.23605704308	0.470920234919	-5.75903606415
-71.2349243164	-55.4817581177	143.179595947	3.24605870247	0.458113223314	-5.69103431702
-71.3097915649	-55.3911552429	143.031387329	3.17600131035	0.453179448843	-5.73414754868
-71.2969818115	-55.2775993347	142.821609497	3.14268064499	0.527604818344	-5.70114660263
-71.1994018555	-55.1660232544	142.524856567	3.09363007545	0.606338858604	-5.6010890007
-71.0986099243	-55.1025238037	142.296127319	3.00191020966	0.61905670166	-5.53907728195
-70.7346572876	-55.0276069641	141.82510376	3.01245164871	0.602712273598	-5.56962871552
-70.8333892822	-55.0625228882	141.860336304	3.05375742912	0.626012563705	-5.51904773712
-70.2518997192	-54.954208374	141.169891357	3.00334119797	0.671920597553	-5.51300144196
-66.104927063	-54.2835578918	135.73739624	2.84759640694	0.829212844372	-5.44044780731
-56.1471138	-52.203414917	119.343994141	2.38817930222	1.10570061207	-5.32099628448
-41.5552520752	-43.619682312	91.1590499878	1.55935096741	1.49894487858	-5.04827547073
-36.2832145691	-34.5065383911	75.5924682617	0.622030735016	1.80118894577	-4.89298772812
-35.9554023743	-28.4525241852	68.2778320312	-0.233287274837	1.94370782375	-4.6738152504
-39.4038887024	-23.9736766815	67.3350906372	-1.09657657146	1.81332325935	-4.46311044693
-42.0030555725	-23.7679538727	66.3748855591	-2.24303603172	1.0398734808	-4.20783376694
-44.1578330994	-24.1054916382	65.9785461426	-3.81806898117	0.147191494703	-4.004134655
-45.6666488647	-24.8877182007	66.0128173828	-5.1584148407	-0.0651468187571	-3.81501746178
