0.0	-0.0	143.158996582	58.2304382324	85.8651351929	-11.6946048737
0.0	-0.0	142.294540405	58.4838027954	86.3943023682	-11.5860548019
0.0	-0.0	142.825698853	58.8152999878	86.4442749023	-11.517039299
0.0	-0.0	140.949981689	58.4843940735	86.2205123901	-11.5090703964
0.0	-0.0	118.810569763	57.3523521423	84.5136184692	-11.064997673
0.0	-0.0	94.247253418	55.402961731	83.6815795898	-11.9602594376
0.0	-0.0	77.5847625732	51.816078186	84.9305648804	-12.221622467
0.0	-0.0	74.8296813965	47.2180747986	85.642364502	-13.1227693558
0.0	-0.0	78.3985443115	42.34400177	85.1274642944	-13.4973945618
0.0	-0.0	77.7140808105	36.3524055481	84.7419204712	-13.3885917664
0.0	-0.0	78.0195541382	31.2701702118	84.4739608765	-12.2876300812
0.0	-0.0	77.7164382935	28.2052211761	84.8751525879	-11.5773925781
0.0	-0.0	77.6529312134	27.2239894867	85.4524078369	-10.8824415207
0.0	-0.0	76.9849243164	27.7337837219	85.9911346436	-10.2086629868
0.0	-0.0	75.763633728	29.3157424927	86.3898010254	-10.0839967728
0.0	-0.0	78.5765991211	31.0850868225	86.4891891479	-10.4998502731
