-39.9461517334	-75.9190216064	143.247589111	4.54553508759	0.189391940832	-4.25694322586
-40.4851226807	-75.6319046021	143.594146729	4.49388122559	0.245734214783	-4.16921615601
-40.6440429688	-75.3070449829	143.604400635	4.43045043945	0.283388674259	-4.15757274628
-40.9026260376	-75.1663360596	143.725311279	4.3857011795	0.318962901831	-4.28421974182
-35.0654716492	-73.0290908813	137.58253479	3.81533527374	0.29629856348	-4.07579040527
-16.6304893494	-61.2882728577	113.150558472	1.51045715809	-0.694986104965	-3.88138890266
-5.77845907211	-38.9571380615	89.7683334351	-1.85741090775	-2.04594302177	-3.5091817379
-7.73762750626	-26.5800933838	81.4666137695	-5.49754428864	-3.01959204674	-3.38911175728
-15.1361894608	-23.5549812317	85.1426544189	-9.33573722839	-4.3441567421	-2.86024045944
-19.8088989258	-25.8302822113	87.9115753174	-13.0249977112	-6.05401182175	-2.39756369591
-22.7242946625	-28.882516861	89.79347229	-15.9044075012	-8.26179504395	-1.32537209988
-23.1997795105	-30.6622829437	89.5685043335	-17.7790966034	-10.2113332748	-0.604985713959
