-0.0765609741211	1.1554608345	0.194583892822	-0.133742809296	1.57640194893	-0.0127545595169
-0.0762152671814	1.1557071209	0.194426059723	-0.133197784424	1.57641243935	-0.0129101276398
-0.0755999088287	1.15630888939	0.194623827934	-0.132940292358	1.57623159885	-0.0132749080658
-0.0760426521301	1.15669417381	0.193793416023	-0.132875442505	1.57619404793	-0.0141882896423
-0.076530456543	1.1567414999	0.193306803703	-0.132761240005	1.57627367973	-0.0147217512131
-0.0770657062531	1.15651154518	0.192952275276	-0.132794380188	1.57621049881	-0.0148062705994
-0.0775737762451	1.15644514561	0.192848443985	-0.132860898972	1.57610988617	-0.0151686668396
-0.077698469162	1.15641951561	0.192577004433	-0.132931232452	1.57611596584	-0.0155603885651
-0.0776591300964	1.15655446053	0.193022727966	-0.133031845093	1.57623791695	-0.015682220459
-0.0777003765106	1.15691268444	0.192722797394	-0.133049488068	1.57619822025	-0.0160782337189
-0.077730178833	1.15719616413	0.193425893784	-0.133157253265	1.57615911961	-0.0162715911865
-0.0779979228973	1.15606796741	0.199224233627	-0.133530378342	1.57595598698	-0.0159623622894
-0.0786633491516	1.15188038349	0.212475299835	-0.134356737137	1.57563626766	-0.0153684616089
-0.0815863609314	1.13870334625	0.236226081848	-0.135859966278	1.57508432865	-0.014493227005
-0.087898015976	1.12056553364	0.251978397369	-0.137761831284	1.57471168041	-0.0138764381409
-0.0983803272247	1.10369479656	0.259685397148	-0.139963388443	1.57453477383	-0.0131685733795
-0.114200115204	1.09051012993	0.259589195251	-0.14185500145	1.57523584366	-0.0128141641617
-0.128716945648	1.08805835247	0.255228757858	-0.144131183624	1.57674002647	-0.0125427246094
-0.140322685242	1.08905446529	0.250174403191	-0.147017240524	1.57804059982	-0.0124590396881
-0.147250175476	1.09124493599	0.245891571045	-0.150055170059	1.57829475403	-0.0120828151703
