-47.4580993652	-56.5059585571	136.32963562	7.54872465134	4.37575960159	1.06810414791
-47.0691795349	-57.1238365173	136.076370239	7.58032894135	4.36260700226	0.997029542923
-47.4008102417	-57.1162109375	136.212265015	7.57803344727	4.40653038025	0.930680453777
-47.7901268005	-56.8597946167	136.398773193	7.50970220566	4.44473981857	0.887079596519
-47.690700531	-56.4243469238	136.049453735	7.13942241669	4.66026735306	0.7983096838
-47.0130310059	-54.3300094604	133.212890625	6.17112970352	5.7737326622	0.96491587162
-47.0365600586	-48.0192222595	125.663124084	4.67520999908	7.64245176315	1.34149742126
-46.1842002869	-38.5911064148	115.05241394	2.94907927513	9.50295066833	1.62922334671
-47.0246620178	-31.545085907	112.874198914	1.37153971195	11.1624212265	1.87994587421
-46.7570304871	-25.4234008789	109.565139771	0.00191608222667	12.8162441254	2.38842797279
-47.1896972656	-16.616853714	106.722061157	-1.3400529623	14.6974248886	2.96374869347
-49.874912262	-6.64479875565	105.466430664	-2.70315885544	16.5623188019	3.4722237587
-53.399471283	2.56849765778	104.011421204	-3.96623182297	18.0229473114	3.81996846199
-54.583026886	8.85709953308	99.8222579956	-4.86685276031	19.0536994934	4.04378795624
-51.0241203308	11.4402446747	83.677772522	-5.43807220459	19.864944458	4.41139650345
-43.3275718689	12.933257103	62.2507362366	-5.85050439835	20.4839744568	4.58476829529
-42.7805595398	12.5388298035	53.8210830688	-6.30158424377	21.0125923157	4.82792568207
-42.3033256531	11.9572029114	54.0477790833	-6.70676374435	21.5598678589	4.88815164566
-42.1733093262	12.3052253723	55.6101074219	-7.21607923508	22.0087909698	5.02222967148
-41.7428588867	11.8226013184	56.6083335876	-7.69209051132	22.5332813263	5.16904830933
-40.9113540649	11.2098379135	58.7166557312	-8.00192928314	23.0558319092	5.25203180313
-39.9318084717	10.9153280258	62.8933830261	-7.91959857941	23.537103653	5.21970653534
-38.420249939	10.5045061111	63.6847991943	-7.29120731354	24.1151275635	5.30959606171
-37.2210273743	10.0319890976	64.0900268555	-6.38117694855	24.8678379059	5.34504127502
-36.4928321838	9.27701854706	64.4956054688	-5.17996644974	26.1686439514	5.55026626587
-35.3674697876	8.73267745972	65.1519241333	-3.80475831032	27.6830806732	5.66955757141
-33.7972984314	7.18707323074	66.3681259155	-2.47168827057	28.7181396484	5.82033729553
-30.6588554382	4.42618370056	61.2264442444	-1.85323619843	28.4213485718	5.70509004593
-28.4162960052	4.36048793793	51.2015571594	-2.10780525208	27.9207572937	5.57468128204
-30.0188865662	4.39449501038	48.3228683472	-2.67671060562	27.5033550262	5.36003351212
-30.1280345917	4.16038894653	48.6669616699	-3.0344543457	26.9394721985	5.45819091797
-29.3301048279	4.36837148666	49.118812561	-3.28753328323	26.5397853851	5.64689970016
-28.8936405182	4.53747224808	49.4328613281	-3.52805542946	26.3767433167	5.76827192307
-29.2030105591	4.40426015854	50.0767745972	-3.56786727905	26.5262107849	5.79691123962
-29.9184322357	4.39825773239	53.366268158	-3.45536851883	26.7973022461	5.76501846313
-31.5422058105	2.4476544857	62.9188117981	-3.05818343163	26.9143390656	5.64417552948
-31.5070457458	-0.433118104935	65.4499282837	-2.66339564323	26.7593288422	5.66559696198
-30.1559562683	0.94970369339	63.4359359741	-2.46334886551	26.8831176758	5.70669412613
-26.7404937744	2.66292095184	50.7489318848	-2.45174145699	27.0539646149	5.79698801041
-22.6153697968	3.58177542686	27.392408371	-2.63214945793	26.994682312	5.81642818451
-22.4150829315	3.55116486549	16.4590454102	-2.84058380127	26.8644676208	5.82856178284
-22.4330368042	2.18400454521	13.0557785034	-2.93916463852	26.8105335236	5.86025381088
-22.4077129364	0.736355245113	16.8978919983	-2.93561053276	26.6433963776	6.01851606369
-23.1654911041	-0.0942967906594	22.0867671967	-3.12228059769	26.3497047424	6.08362817764
-23.5428390503	-0.611839532852	27.4010486603	-3.52524876595	25.9631061554	6.03697443008
-24.1838912964	-1.13150274754	30.4685764313	-3.81374287605	25.7295780182	6.06667137146
-24.2204475403	-1.03907179832	30.8135738373	-4.13637542725	25.458486557	6.23482894897
-23.8600902557	-1.1372743845	31.0900211334	-4.69892120361	25.1749229431	6.31599569321
-23.7517337799	-1.66997790337	32.1999168396	-5.4742398262	24.8976650238	6.15562057495
-24.1233482361	-2.67054796219	34.9883880615	-6.33506584167	24.4365692139	5.9657869339
-23.8974246979	-3.76035428047	41.3314628601	-6.36306428909	23.8383560181	5.69471168518
-24.1502170563	-5.11356449127	48.9166221619	-5.64341402054	23.0810089111	5.5276222229
-24.4173316956	-6.78299570084	51.7475776672	-5.23108434677	22.7549991608	5.4491944313
-25.0954551697	-8.00542831421	54.0207672119	-5.19163227081	23.323348999	5.05696105957
-25.555305481	-9.01298999786	55.974647522	-5.06092834473	22.5831680298	4.53475809097
-25.3867359161	-9.31034660339	55.9225883484	-5.08483457565	20.7259674072	4.16297388077
-25.4570217133	-9.47836780548	55.9767608643	-5.04699420929	18.8113975525	4.11463880539
-25.7004718781	-9.93266677856	56.2611160278	-5.07240819931	17.1423912048	4.33933448792
-25.9158382416	-10.4113645554	56.706489563	-5.44798660278	15.9370183945	4.37069034576
-26.1665344238	-11.2749786377	57.4844284058	-5.85553693771	15.5358114243	4.24822330475
-28.2024478912	-12.3437719345	63.3117332458	-5.99145460129	15.6264810562	4.12971258163
-32.1112861633	-11.6342773438	69.0206604004	-6.20009326935	16.521900177	3.98680281639
-34.6160774231	-9.71227550507	65.14112854	-6.77267313004	18.4668254852	3.70968437195
-36.6219711304	-8.92303752899	63.5717391968	-7.31719207764	20.5613861084	3.67598462105
-36.9899101257	-9.35995578766	63.6919174194	-7.73541307449	21.7715244293	3.75829195976
-36.5056266785	-9.25780010223	63.4225616455	-7.99836111069	22.4730606079	4.03819799423
-36.2808074951	-9.36403942108	63.3370513916	-8.13544845581	23.3647155762	4.24365139008
-36.3857078552	-8.92812538147	64.4426040649	-8.05502223969	24.1272850037	4.08856773376
-36.5267562866	-6.53585863113	67.1699295044	-7.49855089188	24.0819625854	4.12032079697
-36.8315162659	-5.76166009903	70.3094329834	-6.93026685715	23.7454833984	4.28389358521
-36.9297637939	-5.15868711472	70.4992446899	-6.81499195099	23.834318161	4.31402873993
-36.9074630737	-4.50671720505	70.6189346313	-6.46323204041	24.0703086853	4.22881555557
-36.618812561	-4.46472167969	70.4951934814	-6.07945966721	24.4275093079	4.21944093704
-36.2801094055	-4.32443332672	70.2537918091	-5.6984705925	25.823802948	4.15420484543
-35.9795913696	-4.33423995972	70.2518310547	-5.28138017654	27.457157135	4.09865045547
-36.021396637	-4.46300601959	70.3985824585	-4.45499324799	28.6431045532	4.1416683197
-35.8264465332	-4.627846241	70.617477417	-3.03173947334	29.3045921326	4.25968265533
-35.2710647583	-4.55573654175	70.6941680908	-0.838643193245	29.8249282837	4.4547624588
-35.2491188049	-4.36323404312	72.8126983643	0.491721600294	29.7809581757	4.44960260391
-35.5899124146	-3.93602085114	79.8805847168	0.551741600037	29.3325023651	4.16315793991
-37.5197143555	-5.18920230865	91.2099380493	-0.0142292277887	28.7095069885	4.06554174423
-39.1312446594	-5.87531852722	101.439987183	-0.528568685055	28.1451263428	4.02778911591
-39.0850944519	-7.30458593369	103.169311523	-0.828357815742	27.4456119537	4.105884552
-37.5281219482	-8.24855136871	93.3717269897	-1.04102754593	26.9161014557	4.22176980972
-35.8078308105	-7.64274072647	79.541053772	-1.33139967918	26.3257789612	4.4327044487
-35.9421043396	-4.03349924088	69.1935653687	-1.8218896389	25.4964637756	4.58587837219
-37.2715759277	-2.44076943398	64.7982635498	-2.387809515	24.3203639984	4.80020570755
-38.3367996216	-0.96454834938	63.4513244629	-2.97135567665	22.9523735046	5.336186409
-39.3965415955	-0.114842109382	63.8974189758	-3.62368488312	21.7220458984	5.97298383713
-40.2055702209	0.23369884491	65.0855941772	-4.29538917542	20.8175487518	6.62773990631
-39.3937568665	0.128264591098	67.0084915161	-4.77240848541	20.0417690277	6.83895158768
-39.2576179504	-0.755397081375	70.1190032959	-5.09171056747	19.4135246277	7.0317440033
-40.1692276001	-2.86481428146	81.9755249023	-5.29061603546	19.0735607147	7.18785572052
-41.2823524475	-6.77505016327	93.0416259766	-5.42525100708	19.0894260406	7.2378988266
-41.2995567322	-10.8894367218	101.521560669	-5.32205438614	19.2541942596	7.21923971176
-39.1498374939	-11.3697309494	98.2091903687	-5.19632387161	19.6303958893	7.33673858643
-34.4461669922	-5.56586170197	75.1052703857	-5.19584083557	20.1075649261	7.51318883896
-32.8847465515	0.162751108408	50.6722679138	-5.42441129684	20.5447025299	7.5995926857
-29.8640060425	2.64166760445	33.5544815063	-5.38362026215	21.1094245911	7.81259870529
-27.1064052582	3.17100310326	23.6631984711	-5.41727352142	21.5439720154	7.93210124969
-28.5729122162	4.04088115692	19.8519687653	-5.58316135406	21.9973716736	7.86574983597
-29.4376392365	5.22954797745	24.0368652344	-5.74840831757	22.4954032898	7.97802066803
-29.3498363495	6.33364915848	26.1336612701	-6.31510877609	22.8025093079	7.94305610657
-29.4636306763	6.38042068481	27.1035804749	-6.89891672134	22.8740272522	7.7328081131
-28.9902648926	6.13580322266	27.7098827362	-7.0748925209	22.6634960175	7.44028759003
-28.6783809662	5.47633981705	27.8844604492	-7.44142580032	22.0818786621	7.65753221512
-28.4860839844	5.11836767197	28.0394363403	-8.38455295563	21.3501358032	7.67980098724
-28.5822410583	4.75532341003	28.2154712677	-10.0294389725	20.6863536835	7.40257167816
-28.806892395	4.30008029938	28.3334293365	-11.7566699982	20.2507514954	7.08436012268
-28.8308506012	3.89290690422	28.3314990997	-13.2777929306	19.9302444458	6.95171689987
-28.7950611115	3.91426897049	29.0050106049	-14.1767635345	19.9833641052	6.81738519669
-28.8506851196	3.86762094498	30.1485671997	-14.0922966003	20.1664428711	7.01824092865
-29.0265464783	3.81272530556	31.9068889618	-13.3878259659	20.4491138458	7.31733322144
-29.5904064178	4.54927539825	38.3269615173	-12.484333992	20.7556743622	7.63111209869
-30.3865661621	4.33268547058	42.0529251099	-12.0910549164	20.7797966003	7.83837127686
-29.4117679596	4.68653726578	44.7680091858	-12.0064744949	21.0688495636	7.82118606567
-27.4585952759	3.27552628517	36.2647132874	-11.8505277634	21.2340679169	8.00569915771
-26.7919540405	-3.83451271057	23.708190918	-11.7618045807	21.3646068573	8.1342420578
-27.6258468628	-8.98284912109	15.2738218307	-11.768989563	21.5795307159	8.33920383453
-28.1373004913	-11.4666728973	13.0186452866	-11.7605514526	21.8057231903	8.17439079285
-27.8181800842	-11.1860027313	13.2373199463	-11.371966362	22.1199092865	8.05225467682
-27.706401825	-10.5622491837	14.9428853989	-10.9191017151	22.1357517242	8.13847732544
-27.5487747192	-10.3405780792	15.4804906845	-10.8116397858	21.711107254	8.0332736969
-27.3436927795	-9.81129837036	15.571141243	-10.246301651	20.959394455	7.38341188431
-27.4604892731	-9.52144241333	15.952796936	-8.37019920349	20.2381038666	6.60929822922
-27.4436855316	-9.89679431915	16.1974315643	-6.28385782242	19.714641571	6.36035394669
-27.1477451324	-10.1092615128	16.2670135498	-5.25385093689	19.3246192932	6.25331687927
-27.3118801117	-10.3207187653	16.6242675781	-5.46819734573	18.604642868	6.0202331543
-28.0047359467	-10.4414272308	17.268032074	-6.00950098038	17.9653244019	5.63029623032
-28.4457855225	-10.6226577759	17.9918785095	-6.10602664948	17.4863204956	5.19183826447
-28.8221416473	-10.9112167358	18.292591095	-6.17153501511	17.523859024	4.46097564697
-29.260351181	-10.9463071823	18.9146442413	-6.54035377502	18.5813846588	3.7370288372
-29.4549617767	-11.0989341736	18.9483375549	-7.00599527359	19.4221496582	3.58371663094
-29.4121417999	-10.7923765182	18.8751029968	-7.92471265793	19.4006404877	3.5188498497
-29.263792038	-10.5513343811	18.7224636078	-9.30004405975	18.5452709198	3.42521262169
-29.6143569946	-10.8200778961	19.4965686798	-10.6019039154	17.7236804962	3.31576132774
-31.3353729248	-11.2408771515	28.2036113739	-11.2379112244	17.5982284546	3.36285352707
-34.4454956055	-10.2336053848	41.5506210327	-11.1026659012	17.5567054749	3.50467967987
-35.4397621155	-9.0260887146	54.3368110657	-10.6176376343	17.6919841766	3.65919971466
-36.563659668	-7.76643514633	67.3496932983	-9.93336486816	17.9604969025	3.84136629105
-38.8258666992	-6.72852897644	80.5383453369	-9.28548908234	18.2056713104	3.98300933838
-39.985332489	-7.70542049408	90.669593811	-8.7683095932	18.7917289734	4.20347595215
-41.2597885132	-9.9039888382	99.8207092285	-8.56363868713	19.2007656097	4.35931444168
-42.3581542969	-11.5319480896	108.641777039	-8.38083457947	19.7195739746	4.23827219009
-38.1590766907	-14.1799039841	98.6006469727	-8.1680059433	19.6167259216	4.2730178833
-32.3960418701	-13.6381111145	75.0340194702	-8.01759815216	19.6477394104	4.1524643898
-33.3652992249	-11.8291072845	67.5541610718	-8.09397697449	19.3346939087	4.24715089798
-34.7977142334	-9.76777648926	69.4095840454	-7.96882677078	19.6746768951	4.22090864182
-36.5904006958	-9.88946056366	73.6141052246	-7.95925283432	20.001909256	4.40385341644
-39.6129760742	-11.5459480286	81.6377410889	-8.05128669739	20.0403594971	4.12382698059
-43.4199142456	-14.2695541382	96.3100128174	-7.80501270294	19.9776916504	4.16525268555
-43.5869140625	-17.7653999329	104.583007812	-7.64545345306	19.9862728119	4.28293228149
-44.8051261902	-16.4882526398	112.505493164	-7.63863277435	20.1629486084	4.40818548203
-43.9964370728	-9.83351802826	107.999946594	-7.55663537979	20.5853214264	4.44247102737
-46.3814582825	-1.94221496582	101.819580078	-7.2727689743	21.0194301605	4.4960308075
-49.2527694702	5.14119291306	97.0755004883	-6.97875452042	21.336063385	4.64585351944
-51.8917198181	11.6603078842	95.4083786011	-6.85584068298	21.6073589325	4.97883272171
-51.73645401	12.5835933685	95.3053512573	-6.87775707245	21.7912998199	5.25050497055
-44.9828224182	6.74281740189	82.5814743042	-6.92863750458	21.8349189758	5.33854961395
-33.6997718811	-2.60857772827	53.1737136841	-6.82941389084	21.7092132568	5.50181293488
-28.6830768585	-6.68051290512	39.0346374512	-6.86623811722	21.6847915649	5.75278186798
-30.283039093	-7.89536809921	40.474067688	-6.99651384354	21.7070426941	5.72789001465
-30.8465480804	-8.04483318329	42.3857917786	-7.05455827713	21.8496761322	5.83852291107
-30.941204071	-7.99038028717	43.2361602783	-7.08836841583	22.1781902313	5.82082748413
-31.3535671234	-8.10772895813	44.0184783936	-6.86510515213	22.4386539459	5.91267538071
-31.7240924835	-7.91608428955	44.581451416	-6.43195056915	22.8496990204	6.01775932312
-31.7754745483	-8.06213092804	44.8698158264	-5.65150976181	23.2256660461	5.95511198044
-31.9138870239	-8.33908176422	45.2816314697	-4.86166954041	23.0911026001	5.90079784393
-32.401222229	-8.96273326874	45.8278198242	-4.35123109818	23.5356025696	5.80143260956
-32.470905304	-9.41813373566	46.3974151611	-4.50446844101	24.916431427	5.41448450089
-32.5414772034	-10.0800542831	46.5523033142	-4.92943048477	25.9779090881	5.16873502731
-32.6862487793	-10.463388443	46.7793388367	-5.33370065689	26.1561145782	5.11987018585
-32.7202949524	-10.4119138718	47.0866355896	-5.43494462967	26.0790328979	5.2342133522
-32.6565742493	-10.3550958633	47.0384750366	-5.26449108124	25.9772109985	5.36614179611
-32.7813529968	-10.2836380005	47.1884117126	-5.35850334167	25.9919242859	5.48146009445
-32.8918800354	-10.4974107742	47.3021507263	-5.51135635376	25.9134063721	5.51647853851
-33.3500480652	-10.2878141403	47.9487800598	-5.50852251053	25.716506958	5.46051359177
-34.5035018921	-10.4928646088	48.7227478027	-5.43666124344	25.742105484	5.42979431152
-37.0951957703	-11.0737524033	51.1890258789	-5.33939838409	25.9172382355	5.56595993042
-39.2835502625	-10.1979808807	53.5042572021	-5.30391693115	26.0545063019	5.59285783768
-40.4817314148	-8.01397132874	57.0840492249	-5.08774614334	26.1789302826	5.75172901154
-40.9465293884	-4.5633149147	60.9634132385	-4.98363637924	26.3664455414	5.87914085388
-41.1926078796	-2.66677093506	63.4789352417	-5.03702068329	26.4327011108	5.9718580246
-41.0713539124	-1.40450012684	65.1908035278	-5.08143997192	26.5385017395	5.99358797073
-41.2943344116	-1.45079302788	65.3100891113	-5.00265789032	26.4882717133	6.07731866837
-41.2521324158	-2.96468925476	61.2328834534	-4.83744668961	26.1405353546	6.09325027466
-40.2591629028	-2.41951560974	56.4955406189	-4.38172960281	25.6451721191	6.10022115707
-40.7809448242	2.30481243134	61.6527938843	-3.80343818665	25.4210414886	6.24643659592
-40.4104270935	4.81216144562	66.7522201538	-3.34082007408	25.2143383026	6.49097776413
-40.297794342	6.7902803421	70.3348922729	-3.1685025692	25.2458248138	6.47341012955
-40.0060462952	8.35952377319	74.2736129761	-3.01963162422	25.7570648193	6.66581726074
-39.2036857605	7.36008691788	79.9790802002	-2.92249917984	26.2753562927	6.94449424744
-36.7123031616	2.49112033844	82.9655990601	-3.17425012589	26.5345897675	6.97900915146
-30.8508739471	-4.18992805481	63.921245575	-3.52209186554	26.8108444214	6.69849395752
-21.4292564392	-13.9272451401	35.3130950928	-3.61737179756	26.8807888031	6.5482378006
-23.5719738007	-16.6115398407	33.8586463928	-3.26170945168	26.3706665039	5.84487819672
-25.1156921387	-16.568069458	35.2688941956	-1.92589008808	25.6364059448	5.38589096069
-28.3222122192	-15.7269954681	37.887714386	-1.08188700676	24.2667217255	5.22681379318
-30.1400337219	-15.2306566238	39.6988716125	-0.799662411213	22.129201889	5.01566648483
-30.5486850739	-15.1021738052	40.8828659058	-0.494124233723	20.9689788818	4.66567897797
-30.8599586487	-15.5949831009	41.9054260254	0.124389126897	20.4364719391	4.5046081543
-30.9896144867	-16.1494846344	42.5548400879	1.03337049484	20.0611228943	4.52998781204
-31.2374153137	-16.2722511292	42.774433136	2.33697772026	19.6590366364	4.74667596817
-32.4080429077	-16.1561203003	43.4009933472	2.53689289093	19.6262626648	4.83411884308
-34.8081169128	-15.9106378555	46.8127098083	1.40888667107	20.0641727448	4.9692196846
-39.2408027649	-14.6643819809	61.5359115601	0.247521698475	20.4368495941	4.83022356033
-44.6262245178	-11.2119483948	80.6956100464	-0.285193681717	20.4500331879	4.78249406815
-47.5287818909	-9.82057094574	92.8467178345	-0.403630197048	20.4693565369	4.91335439682
-48.5823554993	-9.38639831543	103.010482788	-0.536955952644	20.7562179565	4.88683605194
-50.3341827393	-11.6797704697	111.09172821	-0.690388202667	21.4985866547	4.67161512375
-51.2800598145	-13.7134075165	121.194221497	-0.326500535011	21.6587238312	4.30565023422
-51.2359046936	-18.7912540436	127.352455139	0.0767062976956	20.45977211	3.56874966621
-51.7166137695	-21.9274806976	132.995941162	0.155297964811	18.256313324	3.11906385422
-51.7516593933	-26.0574417114	135.306976318	0.144338905811	14.5331478119	2.81885480881
-51.8493156433	-28.5569763184	136.620483398	0.085875056684	10.3778219223	2.54345703125
-53.350856781	-28.9111995697	140.095214844	-0.39968085289	8.17492198944	2.33012151718
-57.2173957825	-28.5050182343	146.795928955	-1.47003388405	8.43762683868	2.96052408218
-60.4792327881	-26.1722888947	153.836914062	-3.31605505943	10.0560178757	4.18478155136
-61.0147857666	-24.4057598114	155.810180664	-5.89002990723	12.5646066666	5.45859670639
-60.6624450684	-24.034576416	153.175445557	-8.37585067749	14.7439918518	5.97314882278
-59.221031189	-22.9248714447	148.542953491	-10.5364265442	16.3677368164	6.33224964142
-58.1821517944	-20.027173996	146.300506592	-11.7934770584	18.0046005249	6.7407989502
-58.3748092651	-18.1236190796	143.259963989	-11.8729715347	19.5007858276	7.16632843018
-59.3762931824	-16.0567817688	142.690444946	-11.3522958755	21.4004364014	7.59534311295
-59.9248733521	-14.5869092941	141.169067383	-10.4346818924	23.4194068909	7.7791762352
-57.5577926636	-15.1579694748	134.062332153	-9.54615974426	24.0442771912	7.89761066437
-48.7973442078	-23.0079994202	106.815216064	-9.07347583771	23.4867153168	7.95836591721
-33.2857971191	-22.458814621	66.0465393066	-9.06012153625	23.0512905121	8.0164680481
-35.7779998779	-17.873878479	62.1190414429	-9.48817062378	22.9485778809	8.16662120819
-36.4444122314	-14.9249534607	59.1447715759	-9.48577976227	22.9759063721	8.09121131897
-35.4602813721	-10.6292562485	54.9764328003	-8.96180343628	23.2063426971	8.06399345398
-35.6546974182	-7.09015274048	53.8782081604	-8.04831886292	23.2842216492	7.78495025635
-36.3755455017	-4.30307197571	57.0422439575	-6.6273355484	23.2580032349	7.56445837021
-36.7999076843	-3.86455798149	59.7464599609	-5.27605199814	23.2711963654	7.4272313118
-37.1286697388	-4.05676174164	62.2537002563	-4.29914140701	23.5291404724	7.22470092773
-38.9560050964	-4.4599943161	64.391494751	-3.8480629921	23.65076828	6.85993719101
-42.8683738708	-3.64703798294	68.5791244507	-3.84948396683	23.9497032166	6.46852350235
-47.6495170593	-1.78575754166	73.1194381714	-3.8780040741	24.4808387756	6.30311822891
-49.4154968262	2.34003639221	74.2015914917	-4.04246377945	24.4487609863	6.18675279617
-48.4291343689	3.68768596649	68.7549285889	-4.04427909851	24.2591686249	6.02607822418
-44.840473175	-0.270517617464	55.6973648071	-4.10341072083	24.0318489075	6.08708667755
-41.8792686462	-3.19108963013	45.9947624207	-4.52533149719	24.0035533905	6.31009817123
-41.4555511475	-2.52806091309	45.3265457153	-5.08386611938	24.0287876129	6.49228000641
-40.2628135681	-1.88453888893	45.546459198	-5.44397830963	23.9046573639	6.50957107544
-38.7829437256	-1.01565515995	45.6961975098	-5.63054227829	23.8741970062	6.58508253098
-37.6523513794	-0.505724191666	45.3368453979	-5.54550981522	24.0298690796	6.64450454712
-37.3111305237	0.765161633492	46.9254989624	-4.87686538696	23.9633426666	6.48897361755
-37.4607582092	2.11872935295	48.9983558655	-3.08954977989	24.0105018616	6.24728012085
-38.0100593567	2.767111063	50.4581718445	-0.521748900414	25.2506713867	6.55107736588
-38.9822998047	2.55839848518	52.1254653931	1.39816939831	27.5629920959	6.37140130997
-40.1139373779	1.48952364922	53.1944084167	2.23176026344	29.3546180725	5.84432506561
-41.6193809509	1.06137239933	54.4941711426	2.27474427223	30.4594116211	5.40289211273
-42.5956459045	1.01658523083	55.4454154968	1.97020971775	30.8345317841	5.15837001801
-43.0581703186	1.01297259331	56.3927001953	1.68584644794	31.1092166901	4.89326715469
-43.5862083435	0.530137598515	56.8556518555	1.46403408051	31.155248642	4.80633831024
