0.0888180732727	1.21647059917	-0.0696201324463	-0.0615155696869	1.57505905628	-0.258661985397
0.0871613025665	1.2165337801	-0.0703591108322	-0.0612578392029	1.57528138161	-0.259420514107
0.0855319499969	1.21647334099	-0.0707941055298	-0.0612959861755	1.5753698349	-0.260238647461
0.0854709148407	1.21496701241	-0.0673590898514	-0.0618560314178	1.57515251637	-0.260748386383
0.0864191055298	1.2082375288	-0.0541759729385	-0.0634272098541	1.57478284836	-0.260866641998
0.0861880779266	1.19818985462	-0.0398156642914	-0.066365480423	1.57405757904	-0.260614514351
0.081262588501	1.18828320503	-0.0325522422791	-0.0703551769257	1.57304418087	-0.259913921356
0.0757277011871	1.18528926373	-0.0325092077255	-0.0750079154968	1.57133424282	-0.259208202362
0.0730032920837	1.18666446209	-0.0332760810852	-0.0801827907562	1.56874084473	-0.25870513916
0.0718033313751	1.1880890131	-0.0339758396149	-0.0848546028137	1.5656028986	-0.258361101151
0.0706791877747	1.19030892849	-0.0355172157288	-0.0893471240997	1.56190085411	-0.257627129555
0.0693488121033	1.19227743149	-0.037794470787	-0.0924601554871	1.55826210976	-0.257001876831
0.0685515403748	1.19454097748	-0.0395189523697	-0.0952346324921	1.55529880524	-0.255972862244
0.0677947998047	1.19576990604	-0.0408831834793	-0.0984001159668	1.55266284943	-0.255246400833
0.0673441886902	1.19699215889	-0.0417711734772	-0.10254406929	1.55020427704	-0.254865884781
0.0663356781006	1.19735407829	-0.041419506073	-0.106675624847	1.54870808125	-0.254281044006
0.0630071163177	1.19642388821	-0.0399549007416	-0.110035896301	1.54788160324	-0.253746628761
0.0536193847656	1.18797051907	-0.032621383667	-0.112312316895	1.54793024063	-0.252912282944
0.0494871139526	1.17737805843	-0.025047659874	-0.113985300064	1.5479927063	-0.252464652061
