0.0	-0.0	147.836135864	58.7726707458	89.6525344849	-15.7841730118
0.0	-0.0	147.315307617	59.2720680237	88.9924621582	-15.8878927231
0.0	-0.0	147.38961792	58.8433113098	89.2574386597	-15.6916131973
0.0	-0.0	145.81552124	58.8554954529	89.7923126221	-15.7128810883
0.0	-0.0	125.994506836	-119.242881775	88.8490066528	163.892028809
0.0	-0.0	94.5046920776	-114.600234985	87.5980987549	163.233795166
0.0	-0.0	79.6046295166	-108.263809204	87.0513763428	162.345901489
0.0	-0.0	77.178527832	-100.745147705	86.8200149536	162.155929565
