0.0040180683136	1.21075153351	0.321824908257	-0.111895561218	1.58339905739	0.0559940338135
0.00919985771179	1.21198546886	0.318439245224	-0.104798793793	1.5819081068	0.0541100502014
0.0138154029846	1.21108388901	0.317640185356	-0.0987973213196	1.58103358746	0.0519225597382
0.0175564289093	1.20887303352	0.317891120911	-0.0933332443237	1.58012056351	0.049772143364
0.0203096866608	1.20740449429	0.317157149315	-0.0886006355286	1.57794308662	0.0475430488586
0.0220863819122	1.20499849319	0.318564414978	-0.0851929187775	1.57594347	0.0458146333694
0.0245759487152	1.20463597775	0.320568084717	-0.0824208259583	1.5749143362	0.0454242229462
0.0283365249634	1.20618128777	0.325747013092	-0.0814213752747	1.57407677174	0.0467895269394
0.028749704361	1.20102858543	0.335716485977	-0.0835974216461	1.57298052311	0.0492069721222
0.0255613327026	1.19153106213	0.343717336655	-0.0870332717896	1.5724298954	0.0521252155304
0.0171775817871	1.18581020832	0.345801830292	-0.091050863266	1.57167255878	0.0553079843521
0.00534152984619	1.18259525299	0.346570491791	-0.0949349403381	1.57048285007	0.0592494010925
-0.00588035583496	1.1800994873	0.349041700363	-0.0979053974152	1.56948804855	0.0644373893738
-0.0119414329529	1.17921113968	0.354870557785	-0.100097894669	1.56959676743	0.0710620880127
-0.0155792236328	1.17860889435	0.361981153488	-0.101784467697	1.57045602798	0.0781153440475
-0.0179936885834	1.17732727528	0.367138504982	-0.103837251663	1.57257556915	0.0851521492004
-0.017077922821	1.1785389185	0.373492956161	-0.108149528503	1.57469439507	0.0918033123016
-0.0181894302368	1.17941772938	0.378514051437	-0.114013671875	1.57626235485	0.0979113578796
-0.0192792415619	1.18268632889	0.381916880608	-0.120660543442	1.57760024071	0.102664709091
-0.020721912384	1.18564641476	0.385515213013	-0.127535581589	1.57875847816	0.106829166412
-0.0226469039917	1.18783652782	0.389656066895	-0.133839845657	1.57880914211	0.111175656319
-0.0266053676605	1.18542432785	0.393488287926	-0.140122175217	1.577029109	0.114892482758
-0.03142619133	1.17761099339	0.397364974022	-0.14644575119	1.57541620731	0.117077827454
-0.0416686534882	1.17287516594	0.395168185234	-0.153062582016	1.57494723797	0.116954088211
-0.0525915622711	1.17755198479	0.3889503479	-0.158593416214	1.57553935051	0.11478972435
-0.0569319725037	1.19093358517	0.382680177689	-0.161717176437	1.57592916489	0.111532211304
