Participant: 7811

Trial	Condition	Time
0		2			13.2603
1		5			1.4987
2		4			0.7768
3		5			1.9204
4		4			0.8988
5		2			57.8642
6		1			8.9174
7		2			5.5192
8		1			4.5864
9		6			5.6411
10		4			2.776
11		5			1.7208
12		2			3.9642
13		4			0.9986
14		4			1.4427
15		6			2.2954
16		1			2.9757
17		4			0.9433
18		1			1.7208
19		1			1.5651
20		4			0.9987
21		3			3.1311
22		3			2.3203
23		0			1.3543
24		0			1.9983
25		4			1.5985
26		4			1.11
27		3			1.8874
28		0			1.9873
29		6			1.2656
30		4			0.9879
31		1			4.0532
32		3			2.1649
33		1			1.11
34		6			2.1536
35		2			3.2199
36		0			1.5985
37		5			7.1182
38		1			1.0765
39		5			2.043
40		4			0.9878
41		4			0.7393
42		4			0.932
43		2			12.3273
44		3			3.6424
45		2			5.9964
46		1			1.3764
47		6			1.1429
48		1			0.8767
49		0			3.1311
