0.226062297821	1.10743296146	0.231467604637	0.0117292404175	1.50709438324	-0.0426383018494
0.223117113113	1.1080429554	0.232701778412	0.0108399391174	1.50718176365	-0.0422041416168
0.219314813614	1.10821247101	0.233049511909	0.00827622413635	1.5068384409	-0.0417885780334
0.211927175522	1.10634052753	0.232465863228	0.00261354446411	1.50462162495	-0.0406963825226
0.201801538467	1.1029907465	0.230949282646	-0.00352191925049	1.50107431412	-0.039858341217
0.200380325317	1.09959721565	0.231419324875	-0.00700378417969	1.49894297123	-0.0388081073761
0.196510791779	1.09503567219	0.232244491577	-0.00791788101196	1.49834144115	-0.0370017290115
0.185858249664	1.09150159359	0.231251478195	-0.00848007202148	1.49744391441	-0.034730553627
0.177580356598	1.08723294735	0.229703903198	-0.00949287414551	1.49631738663	-0.0322839021683
0.174589395523	1.08205986023	0.22840821743	-0.011430978775	1.49532866478	-0.0306353569031
0.172390937805	1.07489824295	0.227183938026	-0.0134263038635	1.49549520016	-0.0292329788208
0.17311668396	1.07187616825	0.226597547531	-0.0136482715607	1.49487626553	-0.028733253479
0.169290542603	1.07325279713	0.225199699402	-0.0134375095367	1.49441516399	-0.0287263393402
0.166971683502	1.07503390312	0.224491834641	-0.0133635997772	1.4941971302	-0.0294589996338
0.168528079987	1.07500958443	0.223530292511	-0.01398396492	1.49440050125	-0.031579375267
0.171789884567	1.07510721684	0.223036646843	-0.0145108699799	1.49510467052	-0.0347476005554
0.173609733582	1.07470631599	0.221909761429	-0.0145604610443	1.49526274204	-0.0380363464355
0.175697565079	1.07448971272	0.221033215523	-0.0154941082001	1.49664413929	-0.0402555465698
0.177988767624	1.07599484921	0.21976685524	-0.0165791511536	1.49983167648	-0.0414123535156
0.184619426727	1.08206236362	0.220079541206	-0.0172438621521	1.50281476974	-0.0427440404892
0.187981843948	1.08596682549	0.220813035965	-0.0166280269623	1.5020275116	-0.0452332496643
0.187295675278	1.08091723919	0.219739675522	-0.0161685943604	1.50039482117	-0.0472364425659
0.188339233398	1.06886982918	0.217697381973	-0.0161430835724	1.49964606762	-0.0485322475433
0.187486886978	1.06149435043	0.214837789536	-0.0162272453308	1.49913239479	-0.0487060546875
0.185688972473	1.06377351284	0.212759494781	-0.0163490772247	1.49906253815	-0.0489356517792
0.182976961136	1.07016146183	0.212212324142	-0.0167977809906	1.49948823452	-0.0496249198914
0.182109117508	1.07239186764	0.212546825409	-0.0174865722656	1.50028860569	-0.0505734682083
0.18163728714	1.07172513008	0.212535619736	-0.0183088779449	1.50056624413	-0.0514402389526
0.181146383286	1.0713647604	0.212523460388	-0.0185840129852	1.50015878677	-0.0516451597214
0.180295467377	1.0729392767	0.21263051033	-0.0179913043976	1.49974560738	-0.0512187480927
0.179673910141	1.07541465759	0.213071346283	-0.0173487663269	1.50029528141	-0.0505274534225
0.179656982422	1.07434856892	0.21252822876	-0.0169985294342	1.5001527071	-0.049770116806
0.182384967804	1.0734525919	0.21232843399	-0.016802072525	1.50029456615	-0.0488456487656
0.18609046936	1.06782281399	0.212293863297	-0.0162930488586	1.50001657009	-0.0481526851654
0.190845966339	1.06336045265	0.212728500366	-0.0161888599396	1.49971938133	-0.0466877222061
0.194199323654	1.06153357029	0.213906049728	-0.0164179801941	1.49994826317	-0.045086145401
0.19695854187	1.0618275404	0.215360403061	-0.0164239406586	1.49993681908	-0.0438449382782
0.197355747223	1.05375409126	0.217319726944	-0.0160665512085	1.49964988232	-0.0431573390961
0.198748350143	1.03153729439	0.218841075897	-0.0160734653473	1.49966001511	-0.0433127880096
0.20120549202	1.01302433014	0.217103362083	-0.0162091255188	1.50003361702	-0.043270945549
0.201982498169	1.00746107101	0.215482950211	-0.0161833763123	1.49994635582	-0.043185710907
0.204638004303	1.01475429535	0.216502547264	-0.0156676769257	1.50010251999	-0.0421034097672
0.207620382309	1.02209925652	0.217865228653	-0.0149438381195	1.50023806095	-0.041156411171
0.211155891418	1.02700090408	0.219434380531	-0.014098405838	1.50056445599	-0.0403281450272
0.215753316879	1.02657842636	0.219784021378	-0.0137009620667	1.50040996075	-0.0400762557983
0.218929052353	1.02292346954	0.21985912323	-0.0130321979523	1.5004042387	-0.0396432876587
0.222567558289	1.01857638359	0.219627380371	-0.0122168064117	1.50020933151	-0.0393520593643
0.225246191025	1.01384449005	0.21980214119	-0.0115430355072	1.4996972084	-0.0388927459717
0.228338956833	1.01104855537	0.219737648964	-0.0107758045197	1.49895572662	-0.0383851528168
0.2285592556	1.01165819168	0.220020532608	-0.0100440979004	1.49893081188	-0.0381656885147
0.224707126617	1.0127966404	0.220333337784	-0.00953888893127	1.4991941452	-0.0379700660706
0.221695184708	1.01374936104	0.221512794495	-0.0094141960144	1.49931955338	-0.0382661819458
0.220018625259	1.01401257515	0.222697377205	-0.00971055030823	1.49976372719	-0.0382397174835
0.216604709625	1.01519775391	0.223280549049	-0.00991988182068	1.50094544888	-0.0377836227417
0.212629795074	1.01812243462	0.22441136837	-0.00982427597046	1.50308001041	-0.0375311374664
0.208293199539	1.02175188065	0.225799441338	-0.00818061828613	1.50584936142	-0.0376770496368
0.205623865128	1.02597618103	0.228009819984	-0.00526285171509	1.50736856461	-0.0376658439636
0.204061508179	1.02848124504	0.229873657227	-0.00161409378052	1.507417202	-0.037238240242
0.203833818436	1.02730607986	0.230543851852	0.00275850296021	1.50708448887	-0.0369045734406
0.206018686295	1.02569842339	0.230874061584	0.00758290290833	1.50739598274	-0.0363292694092
0.209872961044	1.02478003502	0.230657100677	0.011402130127	1.50751662254	-0.0364480018616
0.215070486069	1.02493524551	0.230054616928	0.0153787136078	1.50776839256	-0.0367352962494
0.218335390091	1.02520680428	0.229733228683	0.0171096324921	1.50755918026	-0.0369122028351
0.220865249634	1.02573394775	0.229597449303	0.0168364048004	1.50710630417	-0.0365262031555
0.223820924759	1.0267636776	0.229583263397	0.0168826580048	1.50677883625	-0.0359902381897
0.224566698074	1.02939248085	0.230237960815	0.0176088809967	1.5066767931	-0.0356556177139
0.22344994545	1.03385448456	0.232025504112	0.0183887481689	1.50674474239	-0.0353087186813
0.220284223557	1.03915119171	0.233970046043	0.0188899040222	1.50672113895	-0.0349864959717
0.218348741531	1.04532051086	0.23498404026	0.0193378925323	1.50706672668	-0.0349210500717
0.217150449753	1.05256724358	0.234997034073	0.0195803642273	1.50757944584	-0.0353960990906
0.214668035507	1.0586438179	0.235186457634	0.0196416378021	1.50790941715	-0.0364031791687
0.2119140625	1.05983376503	0.235176920891	0.0197429656982	1.50834953785	-0.0377113819122
0.210119247437	1.06166863441	0.234467744827	0.0200703144073	1.50920462608	-0.0391405820847
0.209438085556	1.06367743015	0.234300374985	0.0199718475342	1.50966954231	-0.0403047800064
0.209973096848	1.06561231613	0.235021471977	0.0195734500885	1.51072645187	-0.041285276413
0.209469795227	1.06623029709	0.235304713249	0.0193660259247	1.51190650463	-0.0423674583435
0.209699392319	1.06747448444	0.235436916351	0.0195624828339	1.51300346851	-0.043243765831
0.210052013397	1.06905424595	0.235605955124	0.0196285247803	1.51288473606	-0.0433366298676
0.210064888	1.06854450703	0.235433340073	0.019608259201	1.51262259483	-0.0429000854492
0.21001958847	1.06628704071	0.23511993885	0.0193166732788	1.51246464252	-0.0423473119736
0.209092617035	1.06257379055	0.234860539436	0.0188784599304	1.51194727421	-0.0415049791336
0.211135387421	1.05990886688	0.234436273575	0.0185575485229	1.51132309437	-0.0408846139908
0.212177038193	1.05897879601	0.23430788517	0.0184707641602	1.51087009907	-0.0400474071503
0.21058011055	1.05667662621	0.233959913254	0.0184607505798	1.51069664955	-0.0395196676254
0.209463596344	1.05332803726	0.23325753212	0.0183863639832	1.51039934158	-0.0388352870941
0.209058523178	1.05308485031	0.232615709305	0.0181469917297	1.51030957699	-0.038138628006
0.211162567139	1.0588054657	0.232478499413	0.0177669525146	1.51010918617	-0.0378150939941
0.207943201065	1.06656002998	0.232496738434	0.0173482894897	1.5098181963	-0.0376408100128
0.20547914505	1.07403075695	0.233207345009	0.0166809558868	1.50984477997	-0.0378720760345
0.198160886765	1.08519029617	0.227491140366	0.0160028934479	1.50998055935	-0.0378577709198
0.18524980545	1.08260130882	0.220319867134	0.0152487754822	1.50943863392	-0.0374484062195
0.176754236221	1.07190597057	0.217268109322	0.0145072937012	1.50921046734	-0.0367450714111
0.174523353577	1.05983829498	0.222340106964	0.0135524272919	1.50877869129	-0.0361343622208
0.167029619217	1.0543217659	0.220352053642	0.0127687454224	1.5086274147	-0.0357980728149
0.174329519272	1.05670189857	0.22261095047	0.0120344161987	1.5085670948	-0.0355470180511
0.173465251923	1.05979895592	0.222752094269	0.0115239620209	1.50830483437	-0.0355726480484
0.17488861084	1.0662624836	0.222543716431	0.0111725330353	1.50846385956	-0.0356116294861
0.175984621048	1.06758642197	0.224047541618	0.0109522342682	1.50829672813	-0.0357580184937
0.178054332733	1.06892228127	0.225320458412	0.0106654167175	1.50801932812	-0.0361359119415
0.17795085907	1.06957042217	0.224718093872	0.0102586746216	1.5082013607	-0.0366334915161
0.181754112244	1.0700109005	0.225680828094	0.0106062889099	1.50806427002	-0.0370481014252
0.185177326202	1.06411623955	0.226707816124	0.0107133388519	1.50819921494	-0.0374413728714
0.188706636429	1.06002545357	0.225652813911	0.0105683803558	1.50831091404	-0.0373140573502
0.195406675339	1.05894684792	0.226694583893	0.010865688324	1.50759720802	-0.0363944768906
0.201318025589	1.06563222408	0.226919174194	0.0113945007324	1.50724291801	-0.035835981369
0.198842048645	1.07025206089	0.226808190346	0.0117437839508	1.50739741325	-0.0355882644653
0.195477962494	1.06696999073	0.227626800537	0.0120606422424	1.50737679005	-0.035623550415
0.197006940842	1.06249320507	0.228846907616	0.0118720531464	1.50729906559	-0.0355083942413
0.204096794128	1.05616259575	0.230913043022	0.0111780166626	1.50732707977	-0.0351974964142
0.212901830673	1.04680323601	0.232892751694	0.0108480453491	1.50715112686	-0.0345184803009
0.221543073654	1.03521108627	0.233452796936	0.0105757713318	1.50690603256	-0.0338269472122
0.228658914566	1.02373456955	0.232637882233	0.0103423595428	1.50684380531	-0.0331320762634
0.230162143707	1.01502585411	0.230861186981	0.0101165771484	1.50666487217	-0.0329368114471
0.226981163025	1.01415061951	0.229648590088	0.0100874900818	1.50656270981	-0.0328667163849
0.221757411957	1.01900029182	0.229249954224	0.010199546814	1.50654482841	-0.0329439640045
0.221182107925	1.02516651154	0.228519439697	0.0102384090424	1.50645816326	-0.0335626602173
0.222433328629	1.02692008018	0.227140188217	0.00992798805237	1.50674033165	-0.0341432094574
0.221287727356	1.0304646492	0.22384083271	0.00955295562744	1.50667798519	-0.0347352027893
0.220225334167	1.02908062935	0.222044825554	0.00971746444702	1.50658035278	-0.0354294776917
0.220792531967	1.02959108353	0.221257448196	0.00996375083923	1.50684559345	-0.03599858284
0.222622871399	1.0300860405	0.221684217453	0.0105302333832	1.50693178177	-0.0367929935455
0.226744651794	1.032995224	0.222530126572	0.0108246803284	1.50673151016	-0.0379120111465
0.228562116623	1.03229522705	0.222020864487	0.011244058609	1.50663197041	-0.03928399086
0.229996204376	1.03066515923	0.221171855927	0.0117580890656	1.50635707378	-0.0403573513031
0.229654073715	1.03326630592	0.221947431564	0.0122218132019	1.50618648529	-0.0411719083786
0.226682186127	1.04057598114	0.223800778389	0.0119433403015	1.50603866577	-0.0417029857635
0.222271442413	1.05127549171	0.22546339035	0.0113120079041	1.50598239899	-0.0423762798309
0.217727661133	1.0591275692	0.226899266243	0.0102596282959	1.50656545162	-0.0433725118637
0.217767000198	1.06077075005	0.229475259781	0.00898623466492	1.50696575642	-0.0443336963654
0.21719789505	1.03681945801	0.232941150665	0.00792860984802	1.50666749477	-0.0448042154312
0.21474480629	1.01525998116	0.22959446907	0.00686311721802	1.50551223755	-0.0449945926666
0.216883659363	0.989228010178	0.223335981369	0.00543785095215	1.50494408607	-0.0450208187103
0.220435142517	0.979185581207	0.217574715614	0.00468993186951	1.50458204746	-0.0453431606293
0.218367576599	0.981009483337	0.214950799942	0.00459766387939	1.5046107769	-0.0455151796341
0.218238353729	0.982664108276	0.215114235878	0.00484848022461	1.50412535667	-0.0460112094879
0.215316295624	0.984583377838	0.215327262878	0.0048520565033	1.50435733795	-0.0464752912521
0.214605569839	0.98640871048	0.216300010681	0.00434589385986	1.50408816338	-0.0470026731491
0.214209794998	0.985043525696	0.216493844986	0.00373101234436	1.50384950638	-0.0478847026825
0.213087081909	0.98033285141	0.214406967163	0.00265192985535	1.50406694412	-0.048971414566
0.212551593781	0.976126670837	0.212802529335	0.00157475471497	1.50437557697	-0.0495347976685
0.211966276169	0.974275112152	0.209948539734	0.00102090835571	1.50417768955	-0.050258398056
0.211514234543	0.974340200424	0.207796096802	0.000969409942627	1.50427508354	-0.0508868694305
0.210839509964	0.98056602478	0.206596851349	0.0014500617981	1.50454735756	-0.0514497756958
0.217048168182	0.995497703552	0.207661628723	0.00238990783691	1.50517463684	-0.0513126850128
0.221366882324	1.01667833328	0.210509300232	0.00423240661621	1.50581753254	-0.0507929325104
0.224214553833	1.03232955933	0.212304234505	0.00608396530151	1.50599694252	-0.050460100174
0.222434043884	1.04297637939	0.213197946548	0.00794410705566	1.50608479977	-0.0503342151642
0.22065114975	1.04977321625	0.212887167931	0.00969433784485	1.50597262383	-0.0501198768616
0.219918489456	1.05838441849	0.21203315258	0.0113840103149	1.50548398495	-0.0498394966125
0.218654870987	1.06694722176	0.212478160858	0.0124406814575	1.50529825687	-0.0496642589569
0.221608161926	1.06774163246	0.213523387909	0.0134136676788	1.50504148006	-0.049947977066
0.223271131516	1.0706448555	0.213615298271	0.014062166214	1.50557887554	-0.0494602918625
0.217662811279	1.07041788101	0.212424039841	0.0145347118378	1.50559234619	-0.0483000278473
0.209205627441	1.05958223343	0.210258245468	0.0150458812714	1.50520145893	-0.047557592392
0.199558973312	1.03300666809	0.206499099731	0.015456199646	1.505204916	-0.0473856925964
0.191756725311	1.0103290081	0.200946092606	0.0157279968262	1.50584256649	-0.047128200531
0.18740940094	0.99970293045	0.197335243225	0.0164625644684	1.50567388535	-0.0474526882172
0.187767744064	0.998050928116	0.19599545002	0.0172960758209	1.50594270229	-0.0474501848221
0.192449092865	0.99968624115	0.196499109268	0.0177011489868	1.50634658337	-0.0475915670395
0.197101593018	1.00408864021	0.198776721954	0.017627954483	1.50642549992	-0.0477145910263
0.201370239258	1.00684905052	0.200729608536	0.0171432495117	1.50662899017	-0.048122882843
0.206401109695	1.00660657883	0.202799797058	0.0167498588562	1.50719749928	-0.0484524965286
0.211705684662	1.00667262077	0.203922271729	0.0160591602325	1.5077123642	-0.0482223033905
0.216077327728	1.00576543808	0.20453107357	0.0159349441528	1.50725972652	-0.0474863052368
0.218120574951	1.01035404205	0.205950498581	0.0159621238708	1.50662946701	-0.0467245578766
0.212861299515	1.01501178741	0.207491159439	0.016330242157	1.50665938854	-0.0460603237152
0.211771726608	1.02273106575	0.209999799728	0.0165011882782	1.5065318346	-0.0454494953156
0.208376646042	1.04359984398	0.209565639496	0.0166411399841	1.5062841177	-0.045262336731
0.204953193665	1.07960093021	0.200498580933	0.0166368484497	1.50667119026	-0.0453822612762
0.20229268074	1.10320878029	0.191584944725	0.0165920257568	1.50692653656	-0.0457773208618
0.201483249664	1.12048947811	0.18307697773	0.0162224769592	1.5069848299	-0.0462775230408
0.202024459839	1.12982571125	0.176983594894	0.0149347782135	1.50722467899	-0.046795129776
0.20246386528	1.13075053692	0.178050875664	0.0137405395508	1.50714874268	-0.0475339889526
0.202169179916	1.13167119026	0.181352496147	0.0130088329315	1.50692975521	-0.0477573871613
0.19868516922	1.13314318657	0.188653349876	0.0121605396271	1.50606656075	-0.0482133626938
0.195442199707	1.13550388813	0.192300438881	0.0113520622253	1.50541329384	-0.0491602420807
0.191883563995	1.1347938776	0.195401668549	0.0105793476105	1.50526940823	-0.0500376224518
0.188581466675	1.13334333897	0.194904327393	0.00967168807983	1.50537502766	-0.0512073040009
0.188020944595	1.1316473484	0.19403219223	0.00885796546936	1.50544571877	-0.0521646738052
0.18708896637	1.12971365452	0.19310426712	0.00834226608276	1.50553953648	-0.0525214672089
0.189390420914	1.13127231598	0.189488172531	0.00800704956055	1.5054308176	-0.0526044368744
0.193018913269	1.13193571568	0.186851859093	0.00759649276733	1.50508034229	-0.0526343584061
0.198580503464	1.13127052784	0.18817460537	0.00740385055542	1.50506997108	-0.0532349348068
0.199861764908	1.12979722023	0.189537763596	0.00721025466919	1.50537693501	-0.0538005828857
0.19614648819	1.1204417944	0.196128726006	0.00728631019592	1.50506949425	-0.0546966791153
0.194991827011	1.11042141914	0.201530456543	0.0074782371521	1.50482404232	-0.0553556680679
0.192398548126	1.10523366928	0.202822327614	0.00743293762207	1.5052011013	-0.0558154582977
0.186319828033	1.10407102108	0.201917409897	0.00717067718506	1.50532305241	-0.0556535720825
0.184693336487	1.10626232624	0.20176589489	0.00675249099731	1.50474178791	-0.0552207231522
0.185035943985	1.11231148243	0.201061725616	0.0063750743866	1.5045068264	-0.0549857616425
0.187116622925	1.11756753922	0.20023560524	0.00582361221313	1.50486028194	-0.0554903745651
0.187597751617	1.12442660332	0.196703910828	0.00525546073914	1.50515329838	-0.0556535720825
0.188581943512	1.1290653944	0.194412589073	0.00497245788574	1.50541424751	-0.0556352138519
0.187727212906	1.13396275043	0.192336916924	0.00466394424438	1.50551903248	-0.0549762248993
0.186913967133	1.13893592358	0.191145896912	0.00441360473633	1.50538706779	-0.0547859668732
0.18340420723	1.14186823368	0.191276192665	0.00339365005493	1.50542294979	-0.0546814203262
0.178970575333	1.14025211334	0.193725347519	0.00215101242065	1.50557219982	-0.0547354221344
0.174829006195	1.13718795776	0.196592450142	0.00146341323853	1.50549280643	-0.0543130636215
0.168501615524	1.12635409832	0.202149629593	0.000915765762329	1.50539720058	-0.0533437728882
0.165700435638	1.10870552063	0.209034204483	0.000549793243408	1.50538861752	-0.051616191864
0.16529917717	1.09057486057	0.212003946304	0.000368356704712	1.50499331951	-0.0496474504471
0.166511774063	1.07470905781	0.21219086647	0.000552415847778	1.50468873978	-0.0477097034454
0.168329715729	1.0676766634	0.211551308632	0.000935077667236	1.50446462631	-0.0458347797394
0.168618440628	1.06634104252	0.211804389954	0.00138711929321	1.50422608852	-0.0438998937607
0.170150279999	1.07348775864	0.213181853294	0.00184273719788	1.50405430794	-0.0424723625183
0.171061038971	1.08664298058	0.214151620865	0.00224566459656	1.50406324863	-0.041245341301
0.170372009277	1.103951931	0.212199807167	0.00286793708801	1.5038882494	-0.04017162323
0.168070316315	1.12135779858	0.205511689186	0.00350618362427	1.50365149975	-0.0397238731384
0.169934511185	1.14269053936	0.194333672523	0.00437951087952	1.50389659405	-0.0392293930054
0.171483039856	1.15789091587	0.184993028641	0.00514578819275	1.50384259224	-0.0388774871826
0.169204711914	1.16511464119	0.178896307945	0.00565409660339	1.50368070602	-0.0389924049377
0.160689115524	1.16616010666	0.173677325249	0.00582671165466	1.50356626511	-0.0391004085541
0.150268316269	1.15966308117	0.17026412487	0.00464940071106	1.50301599503	-0.0399168729782
0.137722253799	1.14922320843	0.166664958	0.00185632705688	1.50201690197	-0.0407663583755
0.133780241013	1.14245009422	0.166384577751	-0.00127935409546	1.50211596489	-0.0422937870026
0.1352186203	1.14234900475	0.16776061058	-0.00263404846191	1.50617015362	-0.0436606407166
0.137985229492	1.14476644993	0.169677972794	0.000510931015015	1.51453566551	-0.0451918840408
0.139488458633	1.14745879173	0.172154903412	0.00604057312012	1.51960027218	-0.0471578836441
0.140874862671	1.14866256714	0.17403793335	0.01167345047	1.52017593384	-0.0496772527695
0.147984266281	1.14580106735	0.179817080498	0.0164291858673	1.5196659565	-0.052442908287
0.155209064484	1.1458684206	0.180976390839	0.0198087692261	1.51954448223	-0.054599404335
0.156846284866	1.14659070969	0.179581165314	0.0217533111572	1.52011728287	-0.0561181306839
0.157787322998	1.14278328419	0.182251811028	0.0212004184723	1.52077353001	-0.0573744773865
0.158016681671	1.13536584377	0.189074277878	0.0190825462341	1.52073311806	-0.0573165416718
0.15417098999	1.1222114563	0.195519328117	0.0172784328461	1.52001452446	-0.0567960739136
0.153284072876	1.11541485786	0.197107315063	0.0159895420074	1.51965939999	-0.0562193393707
0.151528120041	1.10413432121	0.20190513134	0.0152928829193	1.51926040649	-0.0553586483002
0.149706125259	1.07946765423	0.20801115036	0.0153143405914	1.51854610443	-0.0547722578049
0.149480819702	1.06717717648	0.208759188652	0.014919757843	1.51834404469	-0.0541291236877
0.147831916809	1.06666994095	0.207780838013	0.0147004127502	1.51801538467	-0.0529501438141
0.147816181183	1.06665241718	0.208306670189	0.014652967453	1.51730382442	-0.0521249771118
0.150089025497	1.06761527061	0.209662437439	0.0146064758301	1.51668679714	-0.0518546104431
0.150815248489	1.0569601059	0.20980656147	0.0144691467285	1.51649522781	-0.0523225069046
0.153252840042	1.0421462059	0.209703922272	0.0144107341766	1.51667380333	-0.052939414978
0.157870054245	1.03482198715	0.209198832512	0.0141849517822	1.51650667191	-0.0530219078064
0.163634300232	1.02901768684	0.208801388741	0.0143258571625	1.51565384865	-0.0534100532532
0.16525053978	1.02357673645	0.207039117813	0.0142617225647	1.51548957825	-0.0537600517273
0.165041446686	1.01946043968	0.204236745834	0.0145363807678	1.51538610458	-0.0541253089905
0.163007259369	1.01460766792	0.201362133026	0.014817237854	1.51483404636	-0.0547988414764
0.160981893539	1.010846138	0.19858443737	0.0143353939056	1.51435625553	-0.0555858612061
0.157794952393	1.00769805908	0.195566177368	0.0136387348175	1.51405894756	-0.0565367937088
0.156216144562	1.00971412659	0.195262312889	0.0131237506866	1.51399683952	-0.0580067634583
0.157323598862	1.01125788689	0.195852398872	0.0127236843109	1.51370608807	-0.0598415136337
0.158217430115	1.01283860207	0.196179032326	0.0119638442993	1.51342356205	-0.0618088245392
0.158969163895	1.01272392273	0.196018695831	0.0120484828949	1.51349055767	-0.0635876655579
0.162436485291	1.01508498192	0.19809615612	0.0125308036804	1.51302719116	-0.0646475553513
0.165549278259	1.01699233055	0.200298309326	0.0132110118866	1.51181983948	-0.0652809143066
0.1655189991	1.01516866684	0.200182914734	0.0133755207062	1.5103815794	-0.0653464794159
0.16471529007	1.00809788704	0.197523832321	0.0131661891937	1.51054608822	-0.0653792619705
0.165434598923	1.00190234184	0.195989727974	0.0127296447754	1.51077902317	-0.0653607845306
0.164644479752	0.999941110611	0.194635868073	0.0128638744354	1.51054191589	-0.0650260448456
0.165641784668	0.999356269836	0.194434642792	0.0133638381958	1.51033914089	-0.064115524292
0.168245792389	0.999433994293	0.194970846176	0.0141055583954	1.51025855541	-0.0630943775177
0.169107437134	0.997088909149	0.193939685822	0.0144608020782	1.5099555254	-0.0622050762177
0.170946121216	1.00117182732	0.195667743683	0.014493227005	1.50994539261	-0.0612494945526
0.169028043747	1.00722289085	0.198080301285	0.0146036148071	1.50977480412	-0.060248374939
0.165918111801	1.01240777969	0.199286699295	0.0144500732422	1.50950276852	-0.0595363378525
0.165245294571	1.01114606857	0.198870062828	0.0141265392303	1.50947523117	-0.0592576265335
0.163244962692	0.999272346497	0.194228172302	0.0137069225311	1.50951206684	-0.0588822364807
0.161283493042	0.984032154083	0.186840891838	0.0131046772003	1.50946867466	-0.0582284927368
0.161054372787	0.971873283386	0.180807709694	0.0129051208496	1.5092741251	-0.0571110248566
0.163090229034	0.9637196064	0.178231477737	0.0128235816956	1.50903105736	-0.055473446846
0.163915157318	0.965773105621	0.179521679878	0.012654542923	1.50845754147	-0.0540456771851
0.161414146423	0.974645376205	0.183406591415	0.0124106407166	1.50816762447	-0.0529959201813
0.15992474556	0.979830980301	0.187367081642	0.0118918418884	1.50811421871	-0.0522539615631
0.160704851151	0.984341621399	0.191025137901	0.0108578205109	1.5080845356	-0.0520396232605
0.160774469376	0.982071638107	0.19081568718	0.0102717876434	1.50810980797	-0.0521032810211
0.160836696625	0.974460124969	0.18808567524	0.00982332229614	1.50812280178	-0.0520119667053
0.15965628624	0.97572517395	0.188057422638	0.00896286964417	1.50773346424	-0.0510704517365
0.159162759781	0.978242635727	0.188990950584	0.00799584388733	1.50696098804	-0.0497725009918
0.161444187164	0.979263305664	0.190804123878	0.00775933265686	1.50682067871	-0.048534154892
0.163075685501	0.980320215225	0.192631959915	0.00774097442627	1.50634682178	-0.0475125312805
0.162803649902	0.982083082199	0.194387197495	0.00740432739258	1.50525462627	-0.0462448596954
0.161769151688	0.982973575592	0.195046186447	0.00613832473755	1.50472450256	-0.0452032089233
0.163189649582	0.983960151672	0.196970701218	0.00468516349792	1.50472998619	-0.0439342260361
0.164547681808	0.984287023544	0.198647618294	0.00399017333984	1.50554525852	-0.0424575805664
0.166071414948	0.986515045166	0.200505137444	0.00398206710815	1.50750815868	-0.0411660671234
0.164979219437	0.988870859146	0.201688051224	0.00376987457275	1.50768518448	-0.0405049324036
0.16380238533	0.989901542664	0.202230453491	0.00414443016052	1.50769257545	-0.0401532649994
0.162448406219	0.989253520966	0.202212929726	0.00525641441345	1.50842821598	-0.0399680137634
0.161269426346	0.990531206131	0.202959775925	0.00706100463867	1.50882709026	-0.0401787757874
0.159222126007	0.99118065834	0.203786611557	0.00895977020264	1.5083540678	-0.0403153896332
0.157876968384	0.99317741394	0.204627513885	0.0115356445312	1.50737833977	-0.0406169891357
0.157499074936	0.994626998901	0.205272912979	0.013236284256	1.50502479076	-0.0412350893021
0.156549930573	0.997797012329	0.205264806747	0.0138876438141	1.50116598606	-0.0418391227722
0.155941724777	1.00083374977	0.205469846725	0.0153229236603	1.50043535233	-0.0417926311493
0.156702280045	1.00393033028	0.206251621246	0.0167236328125	1.50116527081	-0.041332244873
0.159139156342	1.01095795631	0.207817554474	0.0171687602997	1.50131607056	-0.0407338142395
0.161367177963	1.01888632774	0.209179997444	0.0160202980042	1.50115680695	-0.0409893989563
0.160668373108	1.01798987389	0.209109425545	0.014997959137	1.50183200836	-0.0419661998749
0.159485340118	1.01732158661	0.208735466003	0.0142056941986	1.50261676311	-0.0428833961487
0.155793428421	1.01298952103	0.206277966499	0.0138072967529	1.50281751156	-0.0437326431274
0.14830493927	1.01414299011	0.204488873482	0.014012336731	1.50299823284	-0.0436060428619
0.133276462555	1.02109622955	0.198356151581	0.0141906738281	1.50306928158	-0.0435013771057
0.123700857162	1.03052759171	0.195394635201	0.0148675441742	1.50306665897	-0.0436015129089
0.127864837646	1.03045272827	0.199113130569	0.0157122612	1.50312483311	-0.0439720153809
0.132758617401	1.03252339363	0.200942635536	0.0165777206421	1.50332343578	-0.0443321466446
0.133720159531	1.03825807571	0.200137972832	0.016900062561	1.50346946716	-0.0445255041122
0.134954690933	1.0444726944	0.201055288315	0.0170273780823	1.50347971916	-0.0442407131195
0.139194726944	1.05892777443	0.203158140182	0.0174317359924	1.50343084335	-0.0437066555023
0.148137569427	1.08537864685	0.203444719315	0.017829656601	1.50316286087	-0.0430407524109
0.152413845062	1.08195567131	0.206205129623	0.0190742015839	1.50320959091	-0.042481303215
0.154443979263	1.09292411804	0.202179789543	0.0207092761993	1.50356376171	-0.0415053367615
0.160781383514	1.12438774109	0.190536975861	0.0221951007843	1.50350785255	-0.0399975776672
0.163177251816	1.14168286324	0.186007976532	0.0231704711914	1.50385212898	-0.0390243530273
0.169151306152	1.15225827694	0.182925105095	0.0229752063751	1.50504016876	-0.0381433963776
0.180907726288	1.16447257996	0.17477285862	0.0222406387329	1.50527799129	-0.0371999740601
0.175756931305	1.16787874699	0.170341730118	0.0217680931091	1.50552904606	-0.0364935398102
0.174076795578	1.16922557354	0.171901941299	0.0220675468445	1.50577378273	-0.0359321832657
0.156850576401	1.16218698025	0.175906777382	0.0228543281555	1.50600135326	-0.0355573892593
0.14172077179	1.14095759392	0.188661932945	0.0233404636383	1.50602626801	-0.0350320339203
0.133059501648	1.10288655758	0.201795935631	0.0230302810669	1.5064561367	-0.0349398851395
0.135446071625	1.06535184383	0.206621527672	0.0225172042847	1.50648236275	-0.0344194173813
0.133910417557	1.05451345444	0.203445672989	0.0222182273865	1.50593149662	-0.0331387519836
0.131968975067	1.04347586632	0.201400637627	0.022399187088	1.50523197651	-0.0317929983139
0.133151054382	1.03248548508	0.201755046844	0.0224919319153	1.50484156609	-0.0303806066513
0.135607242584	1.03435206413	0.204517245293	0.022629737854	1.5047608614	-0.0288989543915
0.135348796844	1.03657436371	0.205634832382	0.0237967967987	1.50447940826	-0.0280635356903
0.13504576683	1.03679990768	0.207173585892	0.0255365371704	1.50459718704	-0.0272827148438
0.134712696075	1.03732872009	0.207870125771	0.0259945392609	1.50444185734	-0.0273275375366
0.135560750961	1.03722548485	0.208829283714	0.0269496440887	1.50448346138	-0.0271978378296
0.137627124786	1.0377933979	0.209733247757	0.027645111084	1.50342440605	-0.0280054807663
0.141335248947	1.03773736954	0.21050465107	0.0287485122681	1.50255322456	-0.0286794900894
0.143563270569	1.03779673576	0.210220217705	0.0312669277191	1.50211000443	-0.0292971134186
0.143832683563	1.03945970535	0.209750413895	0.0339138507843	1.50217866898	-0.0298476219177
0.144933462143	1.04121828079	0.209774136543	0.0351626873016	1.50195765495	-0.0304131507874
0.147865772247	1.04346704483	0.210173845291	0.0344986915588	1.50230896473	-0.030791759491
0.152338027954	1.04309773445	0.210260152817	0.0329995155334	1.50363945961	-0.0314180850983
0.157307863235	1.04215717316	0.210087895393	0.0326743125916	1.50565683842	-0.0322587490082
0.159893751144	1.04153490067	0.209024071693	0.0313558578491	1.50592362881	-0.0335803031921
0.161359548569	1.04260826111	0.208601713181	0.0312602519989	1.50637829304	-0.0342215299606
0.164792299271	1.04223299026	0.20860016346	0.0313537120819	1.50717258453	-0.0345361232758
0.169230937958	1.04081988335	0.208452224731	0.0306243896484	1.50738036633	-0.0345947742462
0.171286344528	1.04182457924	0.208547830582	0.0302276611328	1.50714111328	-0.0342419147491
0.170848369598	1.04174494743	0.208782076836	0.0308628082275	1.50742506981	-0.0334820747375
0.169619321823	1.03984284401	0.20959341526	0.0323026180267	1.50798034668	-0.0328075885773
0.168639659882	1.03727197647	0.210297584534	0.0353765487671	1.51002013683	-0.0323784351349
0.167271137238	1.03661561012	0.211575031281	0.0391583442688	1.51146376133	-0.0324784517288
0.163198471069	1.03909087181	0.212740063667	0.0434839725494	1.51124250889	-0.0324697494507
0.159957885742	1.04172849655	0.214512586594	0.0465424060822	1.51056683064	-0.0325827598572
0.159270763397	1.04165005684	0.215525150299	0.0478734970093	1.51066660881	-0.0322059392929
0.160059213638	1.039270401	0.215158462524	0.0471608638763	1.51041781902	-0.0312905311584
0.16054725647	1.03145623207	0.213856697083	0.0446603298187	1.50970447063	-0.0298501253128
0.161913394928	1.02596092224	0.213280797005	0.0416145324707	1.50940024853	-0.0284614562988
0.161654949188	1.01566004753	0.213222503662	0.0388932228088	1.5089892149	-0.0275444984436
0.155813932419	1.00735735893	0.210585236549	0.0366992950439	1.50875222683	-0.0271356105804
0.14924454689	1.00395917892	0.207597970963	0.0351703166962	1.50871300697	-0.0269101858139
0.143041610718	1.00064063072	0.205086350441	0.0343341827393	1.50841617584	-0.0271713733673
0.137356281281	0.99306178093	0.202362298965	0.0337989330292	1.50818061829	-0.0273051261902
0.134080410004	0.984184741974	0.200319647789	0.0331835746765	1.50777304173	-0.0273289680481
0.132306814194	0.977077007294	0.198967456818	0.0328040122986	1.50730824471	-0.0274662971497
0.133509397507	0.969345808029	0.199103832245	0.0333704948425	1.50703382492	-0.0276618003845
0.135802984238	0.964682579041	0.198575496674	0.0339603424072	1.50696277618	-0.0277341604233
0.138003826141	0.965328931808	0.198177456856	0.0342321395874	1.5068641901	-0.0278215408325
0.14103269577	0.963485002518	0.197959542274	0.0346009731293	1.50684905052	-0.0279996395111
0.14219379425	0.963160276413	0.19669675827	0.0348427295685	1.50673341751	-0.028059720993
0.142790794373	0.96338391304	0.195094347	0.0349519252777	1.50676774979	-0.0282557010651
0.145259141922	0.963277101517	0.194755673409	0.035311460495	1.50698435307	-0.0286101102829
0.148640632629	0.963110685349	0.194964647293	0.036101102829	1.50683677197	-0.0294727087021
0.151854515076	0.962000608444	0.195063948631	0.036821603775	1.50695300102	-0.0303553342819
0.154823303223	0.960727930069	0.194622159004	0.0372793674469	1.50713217258	-0.0312201976776
0.157001972198	0.958861112595	0.193351149559	0.0375218391418	1.50724291801	-0.0319285392761
0.157534122467	0.957400083542	0.191892266273	0.0378892421722	1.50710201263	-0.0322480201721
0.157474040985	0.955999851227	0.19019639492	0.0384089946747	1.50657463074	-0.0327198505402
0.157297611237	0.955120801926	0.18905043602	0.0393381118774	1.50568449497	-0.0334949493408
0.157074928284	0.955600976944	0.189080238342	0.0403866767883	1.50485467911	-0.0339176654816
0.157156705856	0.956586837769	0.189243555069	0.0397336483002	1.50354099274	-0.0342689752579
0.157649278641	0.957981348038	0.189786434174	0.0389976501465	1.50240445137	-0.0344052314758
0.158360958099	0.95752286911	0.18962597847	0.0397188663483	1.50263404846	-0.0341801643372
0.158626556396	0.95707988739	0.189662694931	0.0400087833405	1.50259423256	-0.033567905426
0.159241437912	0.958010435104	0.190377831459	0.0392858982086	1.50308156013	-0.0330054759979
0.161160945892	0.957766532898	0.191495537758	0.0372400283813	1.50369787216	-0.0321077108383
0.162720441818	0.957751512527	0.191944241524	0.0357809066772	1.50297725201	-0.0315093994141
0.163078784943	0.959299087524	0.192998051643	0.0356330871582	1.50192534924	-0.0311689376831
0.163684129715	0.96019244194	0.193946123123	0.0342092514038	1.50067102909	-0.0312597751617
0.166574239731	0.960938215256	0.194118022919	0.0303425788879	1.49805319309	-0.0313254594803
0.170878410339	0.962857484818	0.194715619087	0.0269505977631	1.49610924721	-0.0312979221344
0.174115657806	0.966885566711	0.196133255959	0.0246624946594	1.49634003639	-0.0311897993088
0.174911499023	0.967798233032	0.197594642639	0.0235872268677	1.49676835537	-0.0308147668839
0.173350572586	0.968427658081	0.197878956795	0.0234529972076	1.49699699879	-0.0305020809174
0.171532392502	0.970514297485	0.199177265167	0.0234639644623	1.49760663509	-0.0298149585724
0.174205541611	0.971528768539	0.200506567955	0.0237605571747	1.49791944027	-0.0294518470764
0.17503118515	0.972333431244	0.200967669487	0.0242133140564	1.49802458286	-0.0292356014252
0.174243927002	0.972792625427	0.201539874077	0.024979352951	1.49862444401	-0.028927564621
0.172557592392	0.972747325897	0.20125579834	0.025089263916	1.49865531921	-0.0284804105759
0.174216032028	0.971302032471	0.201788067818	0.0254287719727	1.49784982204	-0.0282807350159
0.176454782486	0.970592498779	0.203159689903	0.0263502597809	1.49710941315	-0.0277826786041
0.178639888763	0.970499515533	0.204231977463	0.0256276130676	1.49743962288	-0.0267267227173
0.180370569229	0.96929693222	0.204757213593	0.02397108078	1.49745845795	-0.0255934000015
0.183793067932	0.969024419785	0.205460190773	0.0228633880615	1.49754393101	-0.0248001813889
0.184486865997	0.969474077225	0.205391407013	0.0220012664795	1.49737942219	-0.0243623256683
0.185623645782	0.971376657486	0.206626534462	0.0215857028961	1.49663519859	-0.0243330001831
0.186497449875	0.972876310349	0.207381606102	0.0214366912842	1.49507832527	-0.0249607563019
0.187605142593	0.974055528641	0.207978248596	0.0215561389923	1.49315011501	-0.0259439945221
0.187212944031	0.975756168365	0.207370042801	0.0215153694153	1.49193286896	-0.0265011787415
0.184482574463	0.975878238678	0.206572175026	0.0218896865845	1.49030995369	-0.027645111084
0.180316448212	0.976983070374	0.2068618536	0.0219879150391	1.48883605003	-0.0284745693207
0.17867064476	0.976768732071	0.20766723156	0.0217206478119	1.49003481865	-0.029021024704
0.177634954453	0.974514722824	0.206207036972	0.0212190151215	1.49192082882	-0.029895067215
0.17947936058	0.97368144989	0.205312371254	0.0205383300781	1.49364686012	-0.030106306076
0.181756258011	0.974166631699	0.204968810081	0.020081281662	1.49524950981	-0.0305507183075
0.183758735657	0.974383592606	0.205119967461	0.0200023651123	1.49681150913	-0.0305786132812
0.185066461563	0.974211215973	0.204681396484	0.0192773342133	1.49800622463	-0.0305314064026
0.186021566391	0.975080728531	0.203668951988	0.018482208252	1.49876821041	-0.0310332775116
0.187505722046	0.975572347641	0.202768325806	0.0176408290863	1.4990042448	-0.0319020748138
0.189682483673	0.977360248566	0.201925754547	0.0167469978333	1.49878144264	-0.0326280593872
0.19083070755	0.978842496872	0.200456023216	0.0156235694885	1.49881291389	-0.0334768295288
0.189067602158	0.978467226028	0.196464538574	0.0142328739166	1.49960803986	-0.0342307090759
0.191911935806	0.977454423904	0.194601774216	0.0135152339935	1.49994492531	-0.0353574752808
0.194360733032	0.97908115387	0.194730520248	0.013475894928	1.499958992	-0.0364538431168
0.196650505066	0.98152256012	0.195794701576	0.0137259960175	1.50047791004	-0.0380147695541
0.198945045471	0.978071451187	0.195511579514	0.0140664577484	1.50104129314	-0.0396605730057
0.197243928909	0.971735954285	0.192563056946	0.0144121646881	1.5013628006	-0.0413236618042
0.195587158203	0.964035272598	0.188044786453	0.0142204761505	1.5015103817	-0.0424488782883
0.190586328506	0.961191415787	0.183797359467	0.0136897563934	1.50156486034	-0.0435781478882
0.187907934189	0.962105512619	0.182032108307	0.0133249759674	1.50207269192	-0.0449044704437
0.186377048492	0.959498167038	0.180988788605	0.012745141983	1.501958251	-0.0460035800934
0.184011220932	0.957116127014	0.178532242775	0.0125722885132	1.50085008144	-0.0468444824219
0.182479381561	0.953034162521	0.175660610199	0.0130753517151	1.4998241663	-0.0472776889801
0.182292222977	0.947181224823	0.172095894814	0.0136477947235	1.49918496609	-0.047819852829
0.180556774139	0.945415258408	0.168995261192	0.0139014720917	1.4987334013	-0.0481770038605
0.180426597595	0.940227031708	0.166297912598	0.0139079093933	1.49820280075	-0.048273563385
0.180543661118	0.934479475021	0.162702322006	0.014057636261	1.49757230282	-0.0485002994537
0.179724693298	0.932320594788	0.160190224648	0.0138709545135	1.49782645702	-0.0489438772202
0.180957078934	0.931243181229	0.159044981003	0.0135447978973	1.49783945084	-0.0494616031647
0.181231737137	0.932453632355	0.158423423767	0.0127902030945	1.49740409851	-0.0499370098114
0.182529211044	0.932830572128	0.158295869827	0.011677980423	1.49672651291	-0.0505018234253
0.183232545853	0.932044506073	0.15771651268	0.0109896659851	1.49562430382	-0.0516383647919
0.181926488876	0.93154168129	0.157177805901	0.0109548568726	1.4931538105	-0.0528078079224
0.181250333786	0.930387735367	0.156612038612	0.0109438896179	1.49095499516	-0.0528036355972
0.181567192078	0.928503274918	0.155260920525	0.0118932723999	1.49100542068	-0.0523164272308
0.18287229538	0.92785525322	0.15442609787	0.0125389099121	1.49108111858	-0.0519201755524
0.184438467026	0.928223371506	0.154300332069	0.012425661087	1.49098443985	-0.0517817735672
0.185284614563	0.928730726242	0.154706001282	0.0123579502106	1.49124348164	-0.0518802404404
0.185065746307	0.92812204361	0.15431201458	0.0124380588531	1.49167716503	-0.0519380569458
0.184814929962	0.926929950714	0.153891086578	0.0129501819611	1.49183106422	-0.0518454313278
0.184327840805	0.926153182983	0.153639554977	0.0133934020996	1.49134087563	-0.0512635707855
0.18473649025	0.925267457962	0.15326833725	0.0129764080048	1.49084043503	-0.0505945682526
0.186727762222	0.924486160278	0.153332948685	0.0123264789581	1.49021077156	-0.0500273704529
0.190033435822	0.925441026688	0.154304265976	0.010936498642	1.48942351341	-0.0494792461395
0.1941447258	0.927661895752	0.155247211456	0.00826025009155	1.48799216747	-0.0498504638672
0.198689460754	0.929524898529	0.156028747559	0.00548505783081	1.48753499985	-0.050329208374
0.201345443726	0.930237770081	0.156384587288	0.00370264053345	1.48760771751	-0.0504375696182
0.20116186142	0.929921865463	0.156428217888	0.00335621833801	1.48774456978	-0.0497319698334
0.199284791946	0.928955793381	0.155656814575	0.00432419776917	1.48780167103	-0.0485193729401
0.200899839401	0.928866863251	0.156204223633	0.00639820098877	1.4875715971	-0.0475096702576
0.201198339462	0.930619716644	0.15765440464	0.00852799415588	1.48765134811	-0.0469747781754
0.199438095093	0.930995941162	0.158976554871	0.0107481479645	1.48803794384	-0.0464948415756
0.197568893433	0.930299520493	0.159667491913	0.0127220153809	1.48823094368	-0.0460327863693
0.197757720947	0.927928686142	0.159126758575	0.0143177509308	1.48808085918	-0.0456043481827
0.198272943497	0.924595594406	0.158729195595	0.0157434940338	1.48851311207	-0.044771194458
0.197012424469	0.917531251907	0.155284643173	0.0166490077972	1.48881363869	-0.0437777042389
0.190545320511	0.905581474304	0.149770379066	0.0170018672943	1.48860287666	-0.0430781841278
0.171483755112	0.890778541565	0.137365818024	0.0172429084778	1.48859214783	-0.0426280498505
0.155565023422	0.877113342285	0.126510858536	0.017430305481	1.48895275593	-0.0423138141632
