0.0	-0.0	132.268569946	-130.927459717	84.2414245605	164.176559448
0.0	-0.0	131.668289185	-130.71913147	84.5862579346	164.158050537
0.0	-0.0	128.877120972	-130.780319214	84.2841796875	164.320373535
0.0	-0.0	119.159950256	-130.984786987	82.2365951538	164.858474731
0.0	-0.0	99.4946289062	-131.222747803	77.4930343628	165.041091919
0.0	-0.0	84.3470611572	-129.788894653	69.9983291626	165.267425537
0.0	-0.0	76.2674560547	-127.894493103	63.3569526672	165.602035522
0.0	-0.0	73.7651596069	-125.81652832	58.1127929688	165.155258179
0.0	-0.0	70.7407455444	-122.507301331	53.834072113	164.661102295
0.0	-0.0	71.4804916382	-119.222091675	49.6517715454	163.708343506
0.0	-0.0	76.6622314453	-116.29776001	45.7721481323	163.111068726
0.0	-0.0	79.1785354614	-113.96005249	42.4603309631	162.849578857
0.0	-0.0	83.4348831177	-112.096191406	39.4943885803	162.487304688
0.0	-0.0	83.5804672241	-110.751426697	37.9414367676	161.669921875
0.0	-0.0	83.0784988403	-109.81212616	37.2183914185	161.148590088
0.0	-0.0	78.3521652222	-109.351577759	36.7304992676	161.136276245
0.0	-0.0	76.8530731201	-109.683387756	36.5724868774	161.119003296
0.0	-0.0	76.9978179932	-110.211486816	36.4704170227	161.29548645
0.0	-0.0	78.5002441406	-110.243621826	36.0589408875	161.775054932
0.0	-0.0	79.4916763306	-109.966209412	35.8548240662	161.654632568
0.0	-0.0	78.3276901245	-109.422447205	35.8311424255	161.530563354
0.0	-0.0	74.1531829834	-109.345443726	35.649143219	161.610427856
