0.237663030624	1.26982212067	0.182824134827	0.0175988674164	1.54215443134	-0.0734715461731
0.238052845001	1.26920628548	0.183454990387	0.0173301696777	1.54217016697	-0.0729298591614
0.23838186264	1.26978313923	0.183481097221	0.0173673629761	1.54197454453	-0.0728421211243
0.238782405853	1.27028357983	0.183434486389	0.0175137519836	1.54244828224	-0.0732637643814
0.234367847443	1.27088701725	0.183227777481	0.0177233219147	1.54386997223	-0.07404255867
0.230145692825	1.26855778694	0.184424757957	0.0175440311432	1.54613423347	-0.0750966072083
0.222745418549	1.26597058773	0.184324026108	0.0169615745544	1.54888951778	-0.0765347480774
0.213721513748	1.26584732533	0.182789802551	0.0169563293457	1.55151450634	-0.0780375003815
0.208782672882	1.26866316795	0.179642796516	0.0182514190674	1.55395042896	-0.0797832012177
0.205477952957	1.26953351498	0.179140090942	0.0203747749329	1.55650687218	-0.0814731121063
0.204573869705	1.26940310001	0.179048061371	0.0225956439972	1.55823993683	-0.0818074941635
0.206727027893	1.27113640308	0.177260875702	0.0248756408691	1.55882036686	-0.0810416936874
0.206511259079	1.27127981186	0.179293274879	0.0261285305023	1.5591968298	-0.0800051689148
0.204912424088	1.27113544941	0.180109143257	0.025731086731	1.55985939503	-0.0797688961029
0.203489303589	1.27151846886	0.180975437164	0.0241549015045	1.56036841869	-0.0800366401672
0.20165514946	1.27246057987	0.181638598442	0.0228221416473	1.56040048599	-0.0803962945938
0.200227022171	1.27370035648	0.181568145752	0.0221979618073	1.56058108807	-0.0811389684677
0.198822021484	1.27548289299	0.180920958519	0.0217273235321	1.56075417995	-0.0819735527039
0.19815659523	1.27692520618	0.18005657196	0.0213775634766	1.56061983109	-0.0826270580292
0.197495698929	1.27782678604	0.179177522659	0.0210790634155	1.56052160263	-0.0823905467987
0.198786497116	1.27809929848	0.178133010864	0.0207641124725	1.5602492094	-0.081892490387
0.200881719589	1.27703940868	0.179222106934	0.0208022594452	1.55994439125	-0.0811159610748
0.207368612289	1.27707743645	0.181214690208	0.0209374427795	1.55974340439	-0.0809931755066
0.217659235001	1.27820718288	0.180878400803	0.0215084552765	1.55970561504	-0.0810676813126
0.224306821823	1.27753078938	0.179888248444	0.0221502780914	1.55980992317	-0.0817577838898
0.226727962494	1.27600049973	0.179058074951	0.0227911472321	1.55996489525	-0.082478761673
0.225062131882	1.27488434315	0.178098797798	0.0236480236053	1.56055760384	-0.0833379030228
0.223636388779	1.27404713631	0.177714943886	0.024304151535	1.56174862385	-0.0853118896484
0.223696947098	1.27323567867	0.177714347839	0.0252063274384	1.56211590767	-0.0866388082504
0.223094940186	1.27386534214	0.176505327225	0.0254578590393	1.56231403351	-0.0867757797241
0.222579240799	1.27413642406	0.174448847771	0.0261340141296	1.56451940536	-0.0884838104248
0.222499132156	1.27133822441	0.174859523773	0.027147769928	1.56599414349	-0.0911186933517
0.223238229752	1.27114677429	0.174586415291	0.0281291007996	1.56527006626	-0.0914354324341
0.225188970566	1.27204883099	0.173608064651	0.0284729003906	1.56524014473	-0.0918928384781
0.229450702667	1.27200222015	0.172504067421	0.0285906791687	1.56597340107	-0.0934276580811
0.231868743896	1.272367239	0.170392513275	0.0287442207336	1.56570637226	-0.0938897132874
0.231706619263	1.27359640598	0.169279336929	0.0286626815796	1.56511366367	-0.0934073925018
0.22979092598	1.27283716202	0.171079516411	0.0282711982727	1.56495141983	-0.0932185649872
0.22631072998	1.27059102058	0.174361228943	0.0281701087952	1.56473600864	-0.0929926633835
0.22328209877	1.26953828335	0.176460623741	0.0282106399536	1.56457746029	-0.0926625728607
0.221948862076	1.26999902725	0.178218483925	0.0282056331635	1.56431794167	-0.0921740531921
0.221095085144	1.27025163174	0.180545330048	0.0283856391907	1.56425011158	-0.0919098854065
0.219040155411	1.27036869526	0.181640386581	0.0283253192902	1.56436157227	-0.091615319252
0.217087030411	1.27004182339	0.182415366173	0.0283102989197	1.56436061859	-0.0914371013641
0.216345787048	1.27012181282	0.182883739471	0.0281898975372	1.56501531601	-0.0920321941376
0.215741872787	1.27038764954	0.183422088623	0.0283195972443	1.56602716446	-0.0927692651749
0.214970111847	1.27097392082	0.183442115784	0.0283555984497	1.56721639633	-0.09401679039
0.213758707047	1.27112805843	0.183329343796	0.0289449691772	1.56799185276	-0.0954110622406
0.212037563324	1.27184033394	0.183342695236	0.0304062366486	1.5685377121	-0.0964370965958
0.210371732712	1.2726675272	0.182698726654	0.0313341617584	1.56891286373	-0.0973678827286
0.210140943527	1.27261471748	0.182519674301	0.0321869850159	1.56885874271	-0.0975741147995
0.208755970001	1.27311575413	0.182107806206	0.033522605896	1.56836926937	-0.0965859889984
0.204367876053	1.27176201344	0.183202028275	0.03302526474	1.56806027889	-0.0953887701035
0.202880382538	1.2713842392	0.183812975883	0.0320026874542	1.56812214851	-0.0951569080353
0.202484846115	1.27207624912	0.18397808075	0.0319452285767	1.56798028946	-0.0946824550629
0.201601028442	1.27297103405	0.183626055717	0.0319759845734	1.56782734394	-0.094456076622
0.199488401413	1.2723236084	0.184970140457	0.031690120697	1.56782209873	-0.0939784049988
0.197608709335	1.27157878876	0.185194134712	0.0315368175507	1.56764805317	-0.0936250686646
0.196560382843	1.27174830437	0.186129808426	0.0312929153442	1.56737065315	-0.0928164720535
0.195316076279	1.27249884605	0.185781478882	0.0313568115234	1.56705987453	-0.0919677019119
0.194230794907	1.27180302143	0.18624818325	0.0310130119324	1.56658017635	-0.0906894207001
0.193656206131	1.27209568024	0.184766530991	0.029993057251	1.56543397903	-0.0872776508331
0.194541931152	1.27133393288	0.184244275093	0.0293548107147	1.56558454037	-0.0848714113235
0.195738554001	1.26958155632	0.184671163559	0.027795791626	1.56588053703	-0.0833897590637
0.194598197937	1.26839649677	0.183387994766	0.0262396335602	1.56452798843	-0.0791320800781
0.193556308746	1.26799738407	0.181794643402	0.0268909931183	1.56252753735	-0.0730911493301
0.193840742111	1.26692998409	0.182329654694	0.0273101329803	1.56115102768	-0.0693824291229
0.193614006042	1.26577472687	0.182764530182	0.0261631011963	1.55919766426	-0.0643858909607
0.193177938461	1.26486384869	0.182416081429	0.0247387886047	1.55850541592	-0.0617072582245
0.194729566574	1.26500213146	0.183376431465	0.0240020751953	1.55970799923	-0.0626249313354
0.194153785706	1.26626157761	0.183009028435	0.0233438014984	1.56111812592	-0.064786195755
0.193326473236	1.26687061787	0.183131098747	0.0223345756531	1.56236946583	-0.0668921470642
0.191532850266	1.26598238945	0.183633923531	0.0211663246155	1.56421089172	-0.0699815750122
0.190074205399	1.26616251469	0.183580160141	0.0210754871368	1.56457412243	-0.0714975595474
0.189227581024	1.26737475395	0.183345675468	0.0213279724121	1.56404662132	-0.0713181495667
0.190848827362	1.26708495617	0.183364987373	0.022659778595	1.56376814842	-0.0709428787231
0.191262483597	1.26583003998	0.182907342911	0.0232770442963	1.56414413452	-0.0712752342224
0.191407680511	1.26461052895	0.180766701698	0.0232195854187	1.56456875801	-0.0719131231308
0.19269657135	1.26482772827	0.179346561432	0.0232167243958	1.56448304653	-0.0725004673004
0.194390773773	1.26585936546	0.178755164146	0.023726940155	1.56443679333	-0.0732431411743
0.196871757507	1.26660513878	0.18101477623	0.0239100456238	1.56433534622	-0.0733675956726
0.196838378906	1.26751422882	0.182254910469	0.0235402584076	1.56432116032	-0.0735087394714
0.196221590042	1.26698040962	0.186129808426	0.0235412120819	1.56436765194	-0.0741267204285
0.194897413254	1.26552426815	0.190406799316	0.0236880779266	1.56445920467	-0.074958562851
0.193079948425	1.26458907127	0.193511724472	0.0236749649048	1.5645595789	-0.0753266811371
0.189409255981	1.26364815235	0.196397662163	0.0241394042969	1.56448328495	-0.0756932497025
