0.185428857803	1.26880335808	0.16923558712	0.00279235839844	1.54424512386	-0.0945791006088
0.185537815094	1.26733744144	0.169950127602	0.00204753875732	1.54410648346	-0.0930466651917
0.1848320961	1.26664662361	0.170040130615	0.000735521316528	1.54399311543	-0.0919770002365
0.183038473129	1.26557481289	0.172161102295	-0.000371932983398	1.54420053959	-0.091562628746
0.179491043091	1.26303064823	0.174821972847	-0.00193619728088	1.54460060596	-0.0907624959946
0.173632621765	1.25960171223	0.178340673447	-0.00426721572876	1.54441952705	-0.0891196727753
0.169539213181	1.25714254379	0.180154681206	-0.00817799568176	1.54437160492	-0.0865821838379
0.16742515564	1.25590062141	0.180805444717	-0.0113258361816	1.5437349081	-0.084197640419
0.166295528412	1.25604569912	0.180669546127	-0.0116009712219	1.54311406612	-0.0824046134949
0.166975736618	1.25768351555	0.17811524868	-0.0109195709229	1.54277813435	-0.0815618038177
0.165995597839	1.25707519054	0.176569461823	-0.0110216140747	1.54216861725	-0.0817387104034
0.166228055954	1.2562469244	0.175356388092	-0.0115435123444	1.54172086716	-0.0824813842773
0.166769504547	1.25705015659	0.173107266426	-0.0120000839233	1.54169297218	-0.0836391448975
0.164830207825	1.25771570206	0.171945214272	-0.0116832256317	1.54151499271	-0.0849649906158
0.160418987274	1.25650024414	0.172129392624	-0.0105268955231	1.5411053896	-0.0863820314407
0.157014369965	1.25522124767	0.171865820885	-0.010055065155	1.54025387764	-0.0874046087265
0.155495643616	1.25458681583	0.17148733139	-0.00948572158813	1.53982186317	-0.0886764526367
0.154348611832	1.25440132618	0.171223640442	-0.00852656364441	1.53999710083	-0.090619802475
0.152025699615	1.25415635109	0.171054601669	-0.00816297531128	1.54026532173	-0.092583656311
0.149866819382	1.25413119793	0.171054720879	-0.00910639762878	1.54037904739	-0.0944571495056
0.14889383316	1.2557131052	0.170407533646	-0.0107970237732	1.54005682468	-0.0959711074829
0.14769744873	1.25648546219	0.170075654984	-0.0115957260132	1.53984487057	-0.0967869758606
0.147914409637	1.25657880306	0.169977426529	-0.0113139152527	1.53987598419	-0.097293138504
0.145399332047	1.25417208672	0.170933365822	-0.0116543769836	1.53976917267	-0.0974063873291
0.14235329628	1.25267338753	0.169835925102	-0.0122065544128	1.53971731663	-0.0971109867096
0.142536640167	1.25415813923	0.168368816376	-0.0118482112885	1.53952336311	-0.0969905853271
0.143706798553	1.25546073914	0.16789150238	-0.0109755992889	1.5395399332	-0.0968999862671
