-6.82370138168	-76.68359375	139.224884033	4.52895450592	2.42495751381	-5.43048048019
-7.51344871521	-76.7679138184	139.654785156	4.28950548172	2.37106323242	-5.33824825287
-1.09542870522	-76.1787109375	130.248672485	4.0333404541	2.20623517036	-5.27504777908
2.85478973389	-75.0450820923	120.115615845	1.95860469341	2.19621062279	-5.12922859192
0.276918947697	-70.9417266846	107.01247406	-1.92757558823	2.52307391167	-4.56307268143
-5.66482114792	-68.8143615723	108.212402344	-6.37044429779	2.65609717369	-4.28805208206
-9.0953207016	-69.3293228149	109.147605896	-10.8532876968	2.68909740448	-4.12337827682
-12.9517669678	-69.9929351807	108.67641449	-14.9197807312	2.54086446762	-4.05386209488
-14.0291528702	-70.1067047119	100.873672485	-18.4910869598	2.18896126747	-3.90471339226
-20.340221405	-69.3107528687	104.75605011	-21.2588768005	1.80626404285	-3.80181717873
-21.2111606598	-69.1345062256	103.045951843	-23.0882453918	1.32649552822	-3.81470274925
-17.9675445557	-68.6756362915	91.7870101929	-24.5981349945	0.808345496655	-3.79653453827
-16.1184082031	-67.6249542236	81.9074554443	-25.7245998383	0.65160548687	-3.70263457298
-14.923251152	-68.6533126831	80.5127868652	-25.9038887024	1.27130627632	-3.498016119
-14.2007961273	-68.8137283325	79.9218673706	-25.7372837067	1.54349660873	-3.45976471901
-13.5580339432	-68.7447280884	77.7268600464	-25.9670734406	1.39025723934	-3.4695994854
-10.1755037308	-68.9748535156	70.9946212769	-26.4245300293	1.29992198944	-3.4418861866
-10.080830574	-69.5762863159	69.0444564819	-27.2739276886	1.14293634892	-3.44167542458
