0.220559120178	1.25411248207	0.332018494606	0.0444386005402	1.53428721428	0.0327178239822
0.21945142746	1.25398612022	0.33257484436	0.0461850166321	1.53427505493	0.0328636169434
0.216770887375	1.25351798534	0.332868933678	0.0464951992035	1.53407621384	0.0337264537811
0.217154979706	1.2537728548	0.332432627678	0.0462131500244	1.53389012814	0.0345823764801
0.216128587723	1.25430870056	0.332196950912	0.045759677887	1.53393816948	0.0354685783386
0.214838266373	1.25363337994	0.333432555199	0.0453188419342	1.53389906883	0.036208152771
0.213012695312	1.25299036503	0.334734678268	0.0447182655334	1.53374862671	0.0370018482208
0.212316989899	1.25233197212	0.335345029831	0.0439367294312	1.53373682499	0.0374417304993
0.211862564087	1.25164055824	0.336306929588	0.0430943965912	1.53384566307	0.0379506349564
0.211191892624	1.25157511234	0.336888074875	0.0426909923553	1.53355562687	0.0389022827148
0.210069656372	1.25094389915	0.337401032448	0.0421373844147	1.53333950043	0.0401412248611
0.209587335587	1.24988734722	0.338042140007	0.0414323806763	1.53296065331	0.0410294532776
0.209684610367	1.24962604046	0.33791744709	0.0406301021576	1.53293502331	0.0413591861725
0.20943069458	1.24955868721	0.337805390358	0.0400159358978	1.53312289715	0.0413336753845
0.208719491959	1.24953305721	0.33803153038	0.039580821991	1.53324496746	0.0411646366119
0.208513975143	1.24998795986	0.337827920914	0.0394616127014	1.53328371048	0.0409626960754
0.2082695961	1.24987959862	0.337731361389	0.0392758846283	1.5333571434	0.0411016941071
0.208148241043	1.24944794178	0.337488651276	0.0388617515564	1.53310143948	0.0415216684341
0.208424806595	1.24934375286	0.337190151215	0.0387561321259	1.53298795223	0.0417363643646
0.208637237549	1.24940359592	0.336924791336	0.0391707420349	1.53299510479	0.0417430400848
0.204416036606	1.25092971325	0.336125254631	0.0408658981323	1.53275442123	0.0416858196259
0.198351621628	1.25373756886	0.333392977715	0.0440797805786	1.53232336044	0.0413691997528
0.191577911377	1.25459265709	0.333371162415	0.0483047962189	1.53190922737	0.0408101081848
0.191152095795	1.25546300411	0.333164691925	0.0520503520966	1.5311344862	0.0401538610458
0.190928220749	1.25724625587	0.332833170891	0.0552356243134	1.53075373173	0.0393030643463
0.190366983414	1.25870847702	0.331441760063	0.0572745800018	1.53083884716	0.0385712385178
