0.0	-0.0	142.665405273	-117.54434967	84.576965332	170.429229736
0.0	-0.0	139.57371521	-117.684761047	83.7338180542	170.559539795
0.0	-0.0	126.350975037	-117.891487122	79.8024139404	171.771514893
0.0	-0.0	120.56690979	-117.601303101	75.8096389771	173.092025757
0.0	-0.0	111.112419128	-115.78125	75.4547348022	173.57270813
0.0	-0.0	97.7729187012	-111.225204468	77.0570449829	173.348937988
0.0	-0.0	92.8432388306	-106.113891602	80.4536361694	173.25479126
0.0	-0.0	89.3856506348	-101.615180969	85.4550247192	172.585922241
0.0	-0.0	92.9281616211	-98.1341934204	89.5629425049	171.883239746
0.0	-0.0	93.1971969604	85.7306289673	86.0939788818	-9.1947517395
0.0	-0.0	93.9771575928	91.5338592529	81.0350341797	-10.2501649857
0.0	-0.0	95.5494995117	98.7420043945	76.2427978516	-11.6980257034
0.0	-0.0	96.2612915039	103.967712402	73.2312164307	-13.5824222565
0.0	-0.0	96.3151245117	105.932723999	71.8618927002	-14.4283399582
0.0	-0.0	97.3647842407	105.970306396	71.0138778687	-14.1381006241
0.0	-0.0	97.9231491089	103.810951233	70.4065856934	-13.4411678314
0.0	-0.0	99.5683822632	101.633743286	70.080329895	-12.5853281021
0.0	-0.0	100.428657532	101.186897278	68.4683151245	-12.8502178192
0.0	-0.0	100.592819214	101.46762085	67.4763717651	-13.1804599762
0.0	-0.0	101.069282532	102.207023621	67.0322341919	-14.0082855225
0.0	-0.0	102.024459839	102.921867371	65.8778152466	-13.5697364807
