0.221427679062	1.27400290966	0.173250317574	0.0167605876923	1.53901207447	-0.0852560997009
0.220519781113	1.27411580086	0.173872947693	0.0170836448669	1.53926157951	-0.0855524539948
0.216422796249	1.27274429798	0.175528526306	0.0164771080017	1.53862273693	-0.0854723453522
0.214525938034	1.26452338696	0.184176921844	0.015566110611	1.53707242012	-0.0849740505219
0.215659141541	1.26006710529	0.186367154121	0.014622926712	1.53489530087	-0.084543466568
0.214026689529	1.25997531414	0.18697977066	0.0163886547089	1.53402864933	-0.0838474035263
0.209513664246	1.26096177101	0.187114596367	0.0192723274231	1.53478324413	-0.0834560394287
0.20251083374	1.26287972927	0.186171293259	0.0208423137665	1.53557610512	-0.0837210416794
0.198474407196	1.26370227337	0.186558008194	0.0217161178589	1.5364882946	-0.0843690633774
0.198452234268	1.26396465302	0.186550498009	0.0242214202881	1.53764462471	-0.0852916240692
