-2.37981128693	-77.5463867188	140.464019775	4.95838785172	2.17752313614	-4.17593336105
-2.82195091248	-77.5132522583	140.603668213	4.95330667496	2.18991374969	-4.09830856323
-2.61985397339	-77.5658187866	138.686950684	4.60858297348	2.1263525486	-4.0267868042
7.4290394783	-76.0163345337	120.844413757	3.30315089226	2.41403603554	-3.68213295937
9.17493152618	-75.1668777466	114.539390564	2.08995652199	1.6162391901	-3.16578364372
20.9445133209	-76.7108535767	94.8112564087	1.95712602139	-0.0811107382178	-2.93361592293
25.6664066315	-74.3955535889	81.005317688	2.21302270889	-2.31657338142	-3.06056809425
23.2005596161	-75.7707061768	80.6784439087	2.17947030067	-4.34314632416	-3.21111798286
23.0602836609	-76.7015457153	77.0843276978	1.86650681496	-6.72008609772	-3.39025568962
22.8685035706	-78.974937439	75.8230209351	1.55098330975	-9.90350437164	-3.40122818947
18.1395664215	-80.1259002686	80.5199890137	1.74939107895	-13.1518669128	-3.6560819149
18.6405315399	-79.3975448608	80.2528915405	2.52616977692	-15.1539125443	-4.23684215546
18.7109565735	-79.3809967041	81.7841796875	4.04202318192	-16.1461677551	-5.20684814453
17.4579734802	-79.5438995361	83.7370681763	6.34758758545	-17.0170021057	-6.56153583527
17.1106987	-79.9890518188	85.0853881836	8.70276165009	-18.4020347595	-7.7057094574
16.0368404388	-79.7652664185	86.9618530273	9.95997428894	-19.6388244629	-8.53361988068
14.9651689529	-79.8632507324	88.2595977783	10.1307764053	-19.7007904053	-8.71211910248
13.3857307434	-80.7483139038	90.5099716187	10.5284204483	-19.5884361267	-8.75265598297
9.53696155548	-81.0984039307	94.8491210938	11.8773193359	-19.9827384949	-8.80548858643
8.22581386566	-81.0267410278	96.3435211182	13.6972389221	-20.6421737671	-9.1054019928
6.83801794052	-80.5080108643	97.6854400635	14.5169010162	-20.8070526123	-9.1456489563
14.49650383	-77.76121521	86.7062149048	14.1360082626	-19.8311328888	-8.89885902405
20.1306419373	-78.6371002197	87.3831710815	13.5893535614	-19.4609470367	-8.59370422363
27.0687789917	-78.6476516724	84.3685302734	13.4055042267	-19.4303741455	-8.50165939331
29.0082359314	-79.125579834	83.738571167	13.1974534988	-19.4072990417	-8.3388671875
25.828125	-80.472618103	88.6515350342	12.9770965576	-19.44556427	-8.2578792572
21.584197998	-81.1995315552	93.6738510132	12.8320808411	-19.4460926056	-8.13219070435
17.1402568817	-83.4259338379	98.3109817505	12.6419382095	-19.5371608734	-8.02299213409
24.7248954773	-85.5999832153	89.9017181396	12.4896001816	-19.485956192	-8.01272964478
32.8504638672	-85.3795318604	80.325881958	12.2716655731	-19.4033985138	-7.84263515472
25.947429657	-85.1660232544	86.1487350464	11.228764534	-18.5029125214	-7.12733364105
18.1136665344	-84.7030410767	92.7528762817	9.75648117065	-17.9261226654	-6.19667577744
15.4265298843	-84.374420166	94.2546539307	9.07451915741	-17.5920791626	-5.41708183289
25.7442932129	-85.1247024536	84.2030792236	9.19316673279	-17.3270454407	-5.37441015244
37.1374588013	-86.8384094238	75.0620117188	9.39838981628	-17.5506019592	-5.52574157715
