-2.33440732956	-67.76512146	130.509399414	-3.1889538765	2.53545999527	-9.59081077576
0.0145458374172	-66.9007263184	125.509170532	-3.3245344162	2.63190698624	-9.33732414246
5.08469295502	-60.134059906	107.395782471	-3.08521914482	2.88843178749	-8.32436180115
14.0440702438	-54.8409729004	85.4288253784	-2.69305419922	3.45532059669	-7.13289022446
18.1092147827	-49.8164825439	67.3761672974	-2.06784892082	4.01896476746	-6.6266541481
17.8079853058	-50.5717926025	67.7720870972	0.279416233301	4.70496273041	-6.38782262802
15.4981660843	-53.3287506104	78.4400939941	3.10617470741	5.37137556076	-6.28351974487
9.45516109467	-57.4659233093	96.6482009888	5.44501972198	5.28928184509	-6.1782708168
4.85982704163	-61.4013633728	103.15146637	7.15345430374	4.6257557869	-5.84883880615
16.5541877747	-57.8158340454	69.4980621338	8.91509532928	4.33667182922	-5.24016714096
26.7293796539	-53.901966095	41.4005699158	10.6485948563	4.40816640854	-5.19365167618
23.4248180389	-56.0504798889	44.4280471802	12.0802135468	4.16528701782	-5.31590509415
19.2560577393	-57.4672012329	47.8661346436	12.6377134323	3.10798048973	-5.38302755356
14.9911565781	-58.8698539734	52.0016326904	11.5265817642	2.02052521706	-5.13266134262
