-2.98714017868	-77.1301956177	128.505279541	2.55994105339	1.5241984129	-5.35245132446
-3.25222158432	-77.4438171387	128.38949585	2.39613652229	1.55218338966	-5.32777786255
0.0905406400561	-77.0215301514	123.228462219	2.27677869797	1.40974140167	-5.27863168716
7.08078527451	-75.546585083	107.601081848	1.9659974575	1.11843562126	-5.10303258896
12.8779678345	-72.5748977661	87.9417724609	0.652896285057	0.768828988075	-5.07169628143
17.0795154572	-68.9017944336	69.7702636719	-1.61542725563	0.753538370132	-4.66611719131
16.0806102753	-66.2748794556	60.4625930786	-3.40429830551	1.02574753761	-4.12582683563
9.68464756012	-67.7021636963	63.9398498535	-4.6646194458	1.27311909199	-3.86319518089
3.91280174255	-69.184425354	67.513633728	-5.84316825867	0.972263455391	-3.80862832069
