-20.0532894135	-59.1268692017	132.961898804	3.00795435905	1.16406536102	-3.09214663506
-19.8721008301	-59.2313041687	132.516265869	2.95721411705	1.13430440426	-3.09821295738
-19.8019123077	-59.2320747375	132.361022949	2.98539185524	1.11004161835	-3.14119958878
-19.4928035736	-59.5770492554	131.315841675	3.19351625443	1.06929790974	-3.22048401833
-12.7719373703	-61.191986084	115.901443481	3.58013033867	0.97268396616	-3.41877388954
-10.058177948	-60.9149589539	104.845542908	3.98776364326	0.824764668941	-3.51933526993
-8.9214553833	-60.4093933105	97.0778656006	4.34729146957	0.287380933762	-3.26634812355
-6.894115448	-58.2327690125	88.6817016602	5.0522518158	-0.54043507576	-3.08059287071
-2.32975506783	-56.8642349243	78.4434127808	6.88306236267	-1.49578809738	-2.98266243935
-5.03566122055	-57.0392303467	82.0205535889	9.4684753418	-2.6469604969	-2.97751021385
-5.99251413345	-57.2643852234	83.2145614624	11.9947128296	-4.01073789597	-3.19347548485
-6.59663820267	-57.3058052063	84.2308578491	14.7621603012	-5.33428525925	-3.72665190697
-6.87669563293	-57.4403877258	85.0503921509	17.6249332428	-6.07259654999	-4.6693816185
-7.08522701263	-57.7348556519	85.7233963013	19.819437027	-6.43703222275	-5.5650177002
-7.63072776794	-58.0749969482	86.7216796875	20.6111660004	-6.90482902527	-5.98241519928
-8.45004463196	-58.5602302551	88.3979568481	19.881067276	-7.18566703796	-5.78279972076
-9.66080856323	-58.6276931763	90.3481521606	18.3784275055	-7.07363176346	-5.12651014328
-10.6213512421	-58.7068214417	91.1215667725	17.0176239014	-6.77025365829	-4.72347593307
-11.0536985397	-58.7756004333	91.5740127563	16.4127521515	-6.74351644516	-4.60773849487
-12.0286407471	-58.2648582458	93.0217437744	16.2734832764	-7.12713623047	-4.62691450119
-12.2780227661	-58.6579818726	94.2649688721	16.2268562317	-7.44735527039	-4.68659067154
-12.6976861954	-59.1089248657	96.8746414185	16.2534217834	-7.65132665634	-4.75850534439
