7.27063417435	-0.872213363647	-4.1165895462	10.3877677917	2.12987041473	32.7711448669
7.29255104065	-0.873043060303	-4.13656520844	10.2590332031	2.14861702919	32.4665145874
7.46575641632	-1.04697847366	-3.83426618576	9.58407783508	2.19619417191	30.6789150238
8.51573181152	-0.358549505472	-3.8382024765	9.04438018799	3.53019785881	27.7955989838
10.4945487976	4.35569763184	-5.02524518967	9.29149436951	5.80340003967	25.3771018982
10.8655099869	8.03231430054	-5.32800149918	9.9615688324	7.832508564	24.1462135315
11.9635658264	10.4581537247	-3.78766083717	10.9123497009	9.64049243927	23.4765338898
13.7301969528	11.3937149048	-2.88023114204	12.0173845291	12.112569809	21.7063884735
14.1356649399	11.6260929108	-2.63624882698	13.6038064957	14.516705513	19.8619632721
14.4314079285	12.4081907272	-2.48963928223	15.0927762985	16.685546875	17.91655159
13.8122282028	13.7837028503	-1.88465070724	16.4587783813	18.5489177704	16.3941688538
13.6157569885	14.2784175873	-1.24636971951	17.5298023224	20.208694458	15.1653366089
13.4222631454	15.1482496262	-1.05137133598	18.1128044128	21.9203586578	13.7724714279
13.1528186798	15.9269075394	-0.7282102108	18.6778888702	23.6518669128	12.3007526398
12.0704221725	17.6426582336	-0.868860423565	19.4324836731	24.6044654846	11.4776420593
10.8179225922	19.7960281372	-0.709469497204	19.6570224762	24.3234920502	11.3451452255
11.2650690079	20.8488826752	-0.407659053802	19.2309246063	23.8124351501	11.679186821
10.8100090027	21.3886985779	-0.55419677496	18.8702850342	23.6041812897	12.2362289429
10.7777318954	21.0403270721	-0.164761975408	18.665473938	23.2142543793	12.6487159729
11.1735725403	20.284324646	0.310530185699	18.4602508545	22.9686794281	13.1229476929
12.0362205505	18.7720775604	1.70794355869	18.2579803467	22.8472614288	13.2397785187
14.2147092819	17.1862640381	1.19826281071	18.264919281	22.7624111176	13.1391534805
16.7791233063	16.3901691437	0.980449318886	18.3253269196	22.9566326141	13.0966053009
17.8793010712	15.8496437073	-1.08807218075	18.3461971283	23.0482635498	13.2540798187
19.9526824951	12.7630367279	-1.53200042248	18.231803894	23.0327072144	13.2342977524
21.5830574036	9.54548454285	-0.727890372276	18.2200489044	23.1290359497	13.3405666351
21.6214179993	7.08391571045	-0.368075996637	18.1791706085	23.2002277374	13.3132944107
20.8291664124	4.5973238945	0.12023435533	18.210943222	23.0611820221	13.2896385193
19.7853622437	2.48860812187	1.80649769306	18.2029075623	23.1205883026	13.3542528152
19.6908874512	4.15438508987	0.69893682003	17.9913330078	23.3070926666	13.4146766663
19.8136310577	7.34325027466	-1.6483477354	18.0368843079	23.3584785461	13.6560239792
20.0009536743	13.2857761383	-4.65164470673	18.2588596344	23.5032081604	13.9440507889
19.1815052032	21.981508255	-9.44378948212	18.4939689636	23.5738658905	13.7862539291
16.9481315613	24.4016304016	-9.0074968338	18.7654647827	23.3451099396	13.9218482971
