-3.16651511192	-34.344455719	134.125946045	2.85056066513	0.610787570477	-2.87719130516
-3.21075224876	-34.3029212952	133.863311768	2.95521235466	0.901006817818	-2.89896702766
-3.0364522934	-34.2915344238	133.406906128	2.91677999496	0.99502581358	-2.88945627213
-2.82267570496	-34.2687187195	132.503433228	2.93500852585	0.983378589153	-2.93632221222
-2.41299462318	-34.0353546143	132.075241089	3.11777234077	1.63973176479	-3.03213024139
-1.18550407887	-32.8567123413	130.39515686	3.3618516922	2.57953667641	-3.16579604149
2.60759806633	-31.5113582611	121.9034729	3.50036263466	3.10916042328	-3.24697041512
3.79883599281	-30.8078136444	117.492294312	3.6273651123	4.0384016037	-3.23162984848
5.38759994507	-30.0628147125	113.501777649	3.79113149643	5.86557149887	-3.46263980865
6.31734132767	-28.998008728	110.968261719	4.21792793274	8.44556713104	-3.65700030327
9.73143577576	-26.9611434937	105.595230103	4.6878361702	10.8951940536	-3.69400691986
15.9318647385	-22.7375278473	88.7131576538	4.95051193237	12.0374650955	-3.5712993145
21.9268665314	-18.3198432922	74.2671737671	4.79853153229	12.8029994965	-3.65218877792
25.7881774902	-15.357665062	65.6832275391	4.8873295784	13.3730707169	-3.43866062164
28.8729553223	-12.619342804	59.8066253662	4.89202594757	13.9501209259	-3.43121361732
31.6944313049	-10.7423305511	55.7554359436	4.85774517059	14.1926841736	-3.52272605896
34.1302108765	-6.86957502365	49.5119438171	5.15984249115	14.6714916229	-3.59176230431
34.9648399353	-3.53325653076	45.8991622925	5.5829167366	15.2720823288	-3.65688848495
35.5128135681	-1.80481636524	43.8544998169	5.76593589783	15.5444040298	-3.66966199875
35.9422454834	-0.0891797617078	42.2343101501	5.69117307663	15.6402788162	-3.59536981583
36.4895133972	2.02426314354	40.5017089844	5.68009328842	15.7532110214	-3.57322955132
35.9698600769	2.77273821831	40.6093139648	5.74808835983	15.9886312485	-3.5029873848
35.5995254517	3.17651700974	39.9426269531	5.66239738464	16.0283565521	-3.32828521729
35.6975593567	1.98070502281	40.8139801025	5.38506174088	15.8150987625	-3.21419382095
34.8448600769	1.67455947399	40.7868995667	5.28669261932	16.1323261261	-2.88061189651
34.3518867493	2.70604753494	39.778377533	5.13626861572	16.2490386963	-2.76795506477
34.398891449	2.74131464958	39.9159088135	4.94703626633	16.3759231567	-2.76679635048
34.9543533325	2.54900074005	40.1653289795	4.9617228508	16.3386211395	-2.67179822922
35.0435028076	1.73129248619	40.3965568542	5.23734951019	16.0663433075	-2.57301259041
35.2698440552	0.768200099468	41.0813407898	5.5076789856	14.8850698471	-2.68185758591
35.8853988647	0.409789800644	41.2818717957	5.6478433609	14.1394081116	-2.6095957756
36.2259559631	0.217633098364	41.9770812988	5.38892030716	13.7834434509	-2.39857721329
35.5152282715	-0.146114394069	43.4127616882	4.90659046173	13.6011219025	-2.20499610901
35.2928009033	-1.7449054718	46.3584098816	4.83948230743	13.5959882736	-2.10314369202
33.6652030945	-4.67163944244	49.5561752319	4.95242261887	13.832034111	-2.14924311638
31.8055362701	-7.83439493179	54.1725387573	5.13847303391	14.1117839813	-1.95305716991
29.1949462891	-11.01653862	59.7229156494	5.32530260086	14.5697202682	-1.93051862717
23.4922046661	-13.0950145721	69.3634872437	5.73579740524	15.2254600525	-2.1149585247
21.80078125	-14.6445655823	79.0762023926	6.08664035797	15.7855806351	-2.35555458069
19.6282958984	-17.5480995178	89.1366043091	6.33437395096	15.9611158371	-2.57788681984
21.2545909882	-18.7525157928	96.7309188843	6.94859266281	16.264169693	-2.75545239449
26.1426811218	-19.1173992157	86.4964447021	7.35359764099	16.3541526794	-2.80242657661
31.8342990875	-17.013999939	69.9158782959	7.38478279114	16.2719230652	-3.01635527611
37.4854393005	-10.9163198471	55.7540168762	7.2264714241	16.9619941711	-3.54264426231
35.0891952515	-7.36301755905	50.4950942993	6.94509220123	18.4315395355	-3.73417830467
34.6291465759	-7.46409416199	51.9966964722	6.7592048645	20.6481952667	-4.1138458252
35.6056594849	-8.12063598633	53.2006187439	7.04467535019	21.3161506653	-4.41778564453
35.9305114746	-9.08394622803	54.3490409851	7.8671412468	21.77368927	-4.88508224487
36.6652107239	-10.2389230728	54.9949111938	9.40469837189	21.3509998322	-6.31245613098
37.5902442932	-11.0064907074	55.0966339111	12.1937866211	19.884147644	-8.29317188263
38.0463027954	-11.4630451202	54.9260902405	14.9015312195	17.8421459198	-9.64174365997
37.6421089172	-11.6049633026	54.622215271	15.3224372864	15.906908989	-10.1601810455
36.6465263367	-11.7491693497	54.0882072449	13.7315530777	15.0599536896	-10.0703248978
35.6900596619	-12.0832939148	54.1011695862	11.8530483246	14.6230039597	-9.66663265228
34.8287696838	-12.207613945	54.1893577576	9.90992736816	14.2421798706	-8.73690032959
34.2846603394	-12.6764822006	54.5315475464	7.79571485519	14.0243721008	-7.57559585571
34.1679992676	-12.8520898819	54.4736557007	6.31436347961	14.1168231964	-6.68975830078
34.5150489807	-13.1863632202	54.5571556091	6.34298944473	14.2005567551	-6.30438566208
34.8884963989	-13.302646637	54.6481132507	7.17514562607	14.5953435898	-6.43950414658
35.2363090515	-13.103471756	54.5378417969	7.30297708511	15.1033287048	-6.3933506012
35.2639884949	-13.4556035995	54.4147834778	6.68201589584	14.6118898392	-5.7672533989
35.0613822937	-13.4106407166	54.7203330994	5.9280128479	14.3655538559	-5.1559715271
35.1289749146	-13.406042099	54.7077598572	5.47948408127	14.587562561	-4.68978309631
35.3486824036	-13.5176801682	54.6376533508	5.41222000122	15.721575737	-4.66202831268
36.4754333496	-14.6379804611	56.9222564697	5.84990644455	16.2359905243	-4.65775203705
37.65234375	-14.1151704788	56.1605110168	6.00520801544	16.0501403809	-4.86485671997
38.4713287354	-13.1245965958	54.5677757263	6.19538784027	16.1734981537	-4.93707609177
38.9691238403	-13.1113300323	53.121509552	6.42728662491	15.2420759201	-4.94465446472
38.9125022888	-13.0974349976	53.1403617859	6.27931213379	15.3381481171	-4.94369411469
39.6310272217	-12.5173616409	52.8890457153	5.94237136841	15.805765152	-4.81718873978
39.5986213684	-12.3401527405	52.6122703552	5.93476390839	15.8657503128	-4.81136894226
39.6530609131	-11.8570785522	52.0790023804	6.18304014206	15.6973705292	-4.83708620071
39.5501480103	-11.6847200394	51.9232177734	6.39001226425	15.9010467529	-4.88475561142
