4.91087388992	-78.8988418579	135.940078735	4.9435300827	2.302921772	-3.19405579567
4.09055995941	-78.7401046753	136.372314453	4.75032567978	2.07302093506	-3.07541275024
3.14473104477	-78.7445068359	136.702774048	4.41877937317	1.90406060219	-2.8797044754
3.09186172485	-78.7731246948	136.173065186	4.02316188812	1.84276163578	-2.68578386307
0.140003159642	-78.5009613037	137.761444092	3.74894595146	1.68282389641	-2.47729492188
0.0522504523396	-79.0895767212	134.328536987	3.69256711006	1.20039224625	-2.35568213463
11.3635091782	-79.9915618896	114.985099792	4.1861538887	-0.640787005424	-2.39507293701
23.3958148956	-77.0614242554	92.4658889771	4.83752202988	-3.01031208038	-2.61456274986
18.963180542	-75.943901062	91.3209991455	5.11309194565	-4.77148962021	-2.8271689415
14.1879615784	-75.1285476685	92.2382278442	4.92875814438	-7.09064102173	-3.0641720295
16.9024658203	-76.693687439	88.7703170776	4.89637804031	-10.237827301	-3.36795186996
26.222120285	-78.3831100464	76.746635437	5.44040155411	-11.9155778885	-3.82355713844
37.9978294373	-79.7204742432	64.4447479248	6.63592529297	-14.0719985962	-4.58087253571
47.5828895569	-80.9247436523	54.2363128662	8.13120651245	-15.0970659256	-5.40100479126
42.0068626404	-81.59034729	58.6477241516	8.14081192017	-15.1007232666	-5.3564863205
33.3918418884	-81.1544189453	64.9686584473	7.30473089218	-15.1755113602	-4.87552404404
28.6193561554	-81.7480316162	69.6690368652	6.19502925873	-14.7527933121	-3.97814869881
26.4531364441	-81.974861145	71.5403671265	5.82287454605	-14.7637968063	-3.75878930092
28.831161499	-82.8409500122	69.7066574097	5.9870724678	-14.9871902466	-3.9151301384
34.7321548462	-83.0678863525	63.4400901794	6.187687397	-14.8757286072	-4.11917448044
57.4620323181	-82.1233673096	40.1243743896	6.42809581757	-14.7673196793	-4.22120332718
49.5604629517	-80.5257644653	44.621723175	6.41997289658	-14.5221824646	-4.17542219162
47.993812561	-79.3566741943	43.7187767029	6.23787355423	-14.2143440247	-4.00304317474
43.0760536194	-79.42918396	46.7043304443	6.16381120682	-13.9268360138	-3.8997926712
34.3625679016	-78.1100845337	50.1798629761	5.94376516342	-13.5599355698	-3.74215865135
30.5261421204	-77.7127456665	51.656867981	5.59063196182	-13.2722949982	-3.42834067345
28.8946323395	-77.7686767578	52.1930465698	5.37204837799	-13.2643537521	-3.40093421936
27.02252388	-77.899017334	53.8768920898	5.19620752335	-13.2118139267	-3.33672809601
20.2154636383	-78.8555831909	63.1780700684	4.92055845261	-13.1470842361	-3.17175102234
4.91684150696	-78.5900268555	85.0952606201	4.79293584824	-13.1217393875	-3.14285540581
-2.50391364098	-77.0203475952	100.516098022	4.83873462677	-12.8868770599	-3.08632183075
-6.20797109604	-74.571434021	109.478004456	4.81481313705	-12.561208725	-3.00075507164
-0.324801594019	-73.8852386475	103.522361755	4.8129696846	-12.2892827988	-2.92663383484
-0.199088603258	-74.5097198486	102.264724731	4.81277036667	-12.1584224701	-2.84849143028
12.3856363297	-73.9465026855	85.7533798218	4.8746471405	-12.1248435974	-2.93829274178
19.8896007538	-72.5351867676	76.6471099854	5.19148778915	-12.9047870636	-3.1991713047
18.6326255798	-72.3472290039	77.9811248779	5.26264572144	-14.1635847092	-3.41351938248
20.5025081635	-71.8336105347	74.3403625488	5.15257406235	-15.4367437363	-3.56110954285
24.433927536	-70.6356735229	68.929473877	5.19146823883	-16.798789978	-3.94194984436
24.0517921448	-70.8871994019	69.5175628662	5.77466678619	-17.7270641327	-4.41612863541
24.4822540283	-71.8084182739	69.3372802734	6.91557168961	-18.4204998016	-5.22748708725
