0.0	-0.0	137.872146606	-121.316879272	84.7458648682	169.82258606
0.0	-0.0	136.410705566	-122.263832092	84.8520736694	170.104492188
0.0	-0.0	134.555511475	-122.554466248	84.9308776855	170.287628174
0.0	-0.0	129.298324585	-121.000030518	85.878364563	170.737136841
0.0	-0.0	114.495689392	-118.952392578	86.0870285034	170.428817749
0.0	-0.0	93.1191864014	-117.552642822	85.4733352661	170.482849121
0.0	-0.0	77.3549957275	-116.576072693	86.5692596436	171.568771362
0.0	-0.0	70.0114517212	-116.626144409	89.1154251099	172.686126709
0.0	-0.0	65.6633758545	62.3754119873	88.9627380371	-6.8630156517
0.0	-0.0	51.7955284119	63.1973609924	87.686416626	-6.6350440979
0.0	-0.0	46.2345466614	66.1034317017	86.6843338013	-7.200507164
0.0	-0.0	36.5570983887	68.0254745483	86.9172592163	-7.48889636993
0.0	-0.0	44.1509094238	68.3470687866	86.4772720337	-7.34100103378
0.0	-0.0	51.0124282837	67.8130569458	83.3779144287	-6.55587816238
0.0	-0.0	51.9755706787	66.9886932373	77.7264099121	-6.32595300674
0.0	-0.0	54.9837493896	67.613822937	72.6781005859	-7.02403593063
0.0	-0.0	54.6241416931	69.7322463989	70.22265625	-8.21312904358
0.0	-0.0	57.6137008667	71.778175354	70.5041046143	-8.66940689087
0.0	-0.0	57.7832107544	72.1839904785	70.4935150146	-7.33679962158
0.0	-0.0	58.9496078491	72.0602645874	68.7051086426	-5.89666318893
0.0	-0.0	59.8816413879	73.230682373	70.4902877808	-5.27905702591
0.0	-0.0	61.056640625	77.2740097046	72.4412841797	-2.9205827713
0.0	-0.0	62.2336235046	80.823425293	73.8312225342	5.9805059433
0.0	-0.0	61.9897994995	82.3524703979	72.9123153687	18.8456478119
0.0	-0.0	61.8385429382	84.739364624	71.8954544067	27.7502841949
0.0	-0.0	61.5441246033	87.2176971436	71.3333587646	31.7002716064
0.0	-0.0	61.6794013977	88.3901062012	72.0995254517	33.0956459045
0.0	-0.0	61.4827270508	87.1174545288	72.4796447754	33.7940635681
0.0	-0.0	61.1371383667	85.5163650513	73.5144348145	33.102973938
0.0	-0.0	61.065738678	83.7834777832	75.4557723999	30.15558815
0.0	-0.0	61.2578811646	82.1026229858	76.19581604	24.2825698853
0.0	-0.0	60.994594574	82.6654510498	75.6875305176	17.6386394501
0.0	-0.0	61.1377105713	85.4551620483	75.115196228	10.1274423599
0.0	-0.0	61.1391372681	90.027671814	74.4152526855	2.06311607361
0.0	-0.0	61.0600318909	95.5109786987	72.8581771851	-6.003054142
0.0	-0.0	61.3638076782	100.533668518	69.7276382446	-12.4260053635
0.0	-0.0	61.1736412048	102.926963806	66.8767623901	-16.1255664825
0.0	-0.0	60.768573761	102.130592346	66.2241134644	-15.8564910889
0.0	-0.0	60.8565177917	99.6786880493	66.8692092896	-14.5456695557
0.0	-0.0	61.1889152527	97.4067230225	68.0483779907	-12.8274784088
0.0	-0.0	61.4572525024	95.2123794556	68.6138153076	-11.408829689
0.0	-0.0	61.730796814	92.8676986694	67.4699707031	-10.4180727005
0.0	-0.0	61.9823493958	91.0636062622	66.0625762939	-10.2520656586
0.0	-0.0	62.3218994141	90.6499786377	64.6427383423	-10.5250072479
0.0	-0.0	63.1833305359	90.6077423096	63.6981887817	-10.6188030243
0.0	-0.0	64.081817627	90.4302368164	64.388092041	-10.9014453888
0.0	-0.0	63.823261261	90.8228683472	65.5830993652	-11.0837020874
0.0	-0.0	64.1608657837	90.0267105103	65.839012146	-9.82245826721
0.0	-0.0	64.4654922485	88.2798614502	65.7146987915	-8.57372665405
0.0	-0.0	67.7898101807	87.8651275635	65.6516342163	-8.17114830017
0.0	-0.0	70.6444854736	88.3432540894	65.9233932495	-7.90288209915
0.0	-0.0	72.9856796265	88.9088439941	65.9604721069	-8.21245574951
0.0	-0.0	77.6449966431	89.5961837769	65.6934661865	-8.81585693359
0.0	-0.0	82.3162536621	90.1902389526	65.4250030518	-9.19892215729
0.0	-0.0	84.8844909668	90.7274856567	65.3654708862	-9.42753219604
0.0	-0.0	85.4854812622	91.8277053833	65.1912002563	-10.2306594849
