-36.3469047546	-73.0265731812	139.415634155	6.02353525162	1.52955794334	-2.46975398064
-36.7222595215	-73.1258239746	139.793685913	6.22320652008	1.51653683186	-2.59196925163
-35.242855072	-73.142616272	137.084747314	6.37743997574	1.53429722786	-2.50341463089
-31.4411869049	-72.7146987915	129.975021362	6.12412834167	1.54676926136	-2.46605467796
-28.1988964081	-70.7443771362	121.265457153	5.62904167175	2.16020059586	-2.16969633102
-22.44871521	-65.6604766846	108.582977295	4.66883802414	3.97799563408	-1.58948040009
-17.3158054352	-63.466129303	99.2445297241	3.64863467216	7.11309909821	-1.14372766018
-14.3542871475	-63.8227806091	94.2899703979	3.04319739342	9.96218490601	-0.778987944126
-14.9782781601	-64.7428131104	95.3765792847	3.08782196045	12.7045116425	-0.622079730034
-15.399723053	-66.0843811035	96.1601867676	3.77199602127	15.1366329193	-0.439135819674
-14.3371648788	-68.201675415	95.3943481445	4.9413690567	16.6815052032	-0.502041697502
-10.6858263016	-69.3625030518	91.0664138794	6.17423391342	18.076467514	-0.705637156963
-7.7414431572	-70.0802307129	87.8176727295	7.1118273735	19.255903244	-0.976785123348
-5.36206769943	-70.2964019775	84.2722625732	7.72325181961	20.6686573029	-1.09309589863
-6.0018453598	-70.5097808838	85.153175354	8.09533214569	21.7476844788	-1.25597953796
-6.3474521637	-70.4362182617	85.6111602783	8.44603347778	23.4139537811	-1.80074596405
-5.66023111343	-71.4017410278	85.2443847656	9.31663322449	24.563911438	-2.51484560966
-3.22473669052	-72.781829834	83.1983718872	10.8171949387	24.3562545776	-3.36461353302
-1.63303613663	-72.8864364624	82.3029556274	12.8041610718	24.1626110077	-4.65136194229
-1.98903346062	-72.7465820312	82.9996871948	14.3502998352	24.4685554504	-5.33596467972
-0.91644269228	-72.8874588013	82.1861038208	14.1981334686	24.4364528656	-5.75834274292
-1.24659729004	-72.1596984863	82.0802459717	12.8647279739	24.3090648651	-5.98163127899
-0.923979699612	-72.0246047974	81.3919143677	10.8237428665	24.0904865265	-6.22205781937
-1.13947582245	-72.0663604736	81.5412826538	8.78206920624	23.8824234009	-6.54705381393
-1.76012158394	-71.8302841187	81.9997329712	7.21132993698	23.6925106049	-6.96038484573
-3.34802961349	-71.7833786011	83.6729431152	5.94408130646	23.6220798492	-7.24094057083
-3.69123363495	-71.9057159424	84.5852584839	4.90762758255	23.5663356781	-7.49007081985
-3.82302284241	-71.7977294922	85.2302780151	3.9104206562	23.5134773254	-7.65716457367
-4.30795669556	-71.6584777832	85.9963912964	3.00803685188	23.5089683533	-7.65150737762
-3.76946377754	-71.6343383789	85.5933303833	2.25275826454	23.2951068878	-7.72196388245
-4.3318567276	-71.5385665894	86.3266601562	1.57842373848	23.1269779205	-7.87499809265
-4.78195142746	-71.7905731201	86.9002380371	1.11580145359	23.137468338	-7.8477306366
