0.0	-0.0	141.807067871	-133.697814941	84.132484436	167.104278564
0.0	-0.0	141.821380615	-132.196731567	84.2870330811	167.093612671
0.0	-0.0	140.670135498	-131.420394897	84.0854263306	166.513153076
0.0	-0.0	140.881866455	-131.44203186	84.4073410034	166.820388794
0.0	-0.0	141.966842651	-133.656417847	84.5045166016	167.762359619
0.0	-0.0	135.138046265	-139.601608276	83.7330856323	168.935424805
0.0	-0.0	125.55871582	-149.38949585	82.26537323	170.886123657
0.0	-0.0	123.202667236	-161.519805908	81.3465042114	173.67729187
0.0	-0.0	121.234275818	-173.805496216	80.9923171997	175.33493042
0.0	-0.0	115.163124084	176.098922729	80.5525054932	177.144744873
0.0	-0.0	102.999649048	168.510467529	80.473526001	178.160339355
0.0	-0.0	84.2927093506	164.17401123	81.3068237305	178.586334229
0.0	-0.0	66.0044937134	160.590362549	83.3932800293	178.43006897
0.0	-0.0	54.1633834839	154.772857666	85.2157287598	178.280639648
0.0	-0.0	52.9398460388	148.442962646	85.2479934692	179.05418396
0.0	-0.0	53.3188781738	146.123001099	84.5289916992	-179.716262817
0.0	-0.0	53.8098678589	147.352478027	85.1516952515	179.714111328
0.0	-0.0	52.5027275085	150.227096558	87.5472717285	178.16595459
0.0	-0.0	55.3457832336	151.544937134	89.4974594116	177.323364258
0.0	-0.0	56.6263504028	-29.4454593658	89.4667129517	-2.71475338936
0.0	-0.0	57.9435195923	-30.7736320496	89.2540359497	-2.85566949844
0.0	-0.0	56.5132064819	-33.4465751648	89.4016723633	-2.99816560745
