0.195411682129	1.26279735565	0.323829293251	0.0378615856171	1.53397750854	0.0356450080872
0.195754051208	1.26235830784	0.32385289669	0.0383441448212	1.53363120556	0.0363562107086
0.19664812088	1.26231813431	0.323462486267	0.0385768413544	1.53329920769	0.0367232561111
0.194971084595	1.2626696825	0.323815703392	0.0382483005524	1.53338694572	0.0363773107529
0.188213586807	1.26076090336	0.328336596489	0.037202835083	1.53346765041	0.0358729362488
0.178864002228	1.2579613924	0.332711696625	0.0359354019165	1.53366732597	0.035534620285
0.173133134842	1.25811481476	0.333660125732	0.0343701839447	1.53374743462	0.0349168777466
0.166922092438	1.25865089893	0.335399508476	0.0328464508057	1.53421831131	0.0344407558441
0.161571264267	1.25822758675	0.337824702263	0.0316014289856	1.53464412689	0.0339760780334
0.160694599152	1.25831377506	0.338814735413	0.0309000015259	1.534522295	0.0334274768829
0.157430171967	1.25745308399	0.341672420502	0.0304665565491	1.53466558456	0.0329630374908
0.149762153625	1.2558465004	0.343548178673	0.0297348499298	1.53475689888	0.032844543457
0.141756534576	1.25125515461	0.346049666405	0.029289484024	1.53438055515	0.0332152843475
0.144459009171	1.24606084824	0.348185658455	0.0292150974274	1.53328943253	0.0341898202896
0.150102376938	1.23401176929	0.357507705688	0.0292015075684	1.53156673908	0.0359781980515
0.158874511719	1.2232530117	0.362407207489	0.0301640033722	1.52762401104	0.0384908914566
0.165874242783	1.20622801781	0.367841482162	0.0322852134705	1.52128458023	0.0415811538696
0.170890331268	1.17687475681	0.377291202545	0.0345673561096	1.51478362083	0.0453667640686
0.179110765457	1.14961874485	0.383057117462	0.0358304977417	1.50951647758	0.0494168996811
0.183703422546	1.13053846359	0.385291814804	0.0364933013916	1.50534462929	0.0527584552765
0.189182043076	1.12597215176	0.385046958923	0.0365433692932	1.50289070606	0.0553750991821
0.197447538376	1.12727510929	0.384221076965	0.037248134613	1.50163972378	0.0563796758652
0.210616111755	1.13292241096	0.380724668503	0.0388991832733	1.50085306168	0.0563921928406
0.222100257874	1.14681231976	0.370490789413	0.0418701171875	1.50089275837	0.0557700395584
0.230175971985	1.16139996052	0.360281705856	0.0467405319214	1.5011177063	0.054988861084
0.233872652054	1.17238867283	0.353863239288	0.0521621704102	1.50168943405	0.052891254425
