0.231258392334	1.25344908237	0.26909673214	0.041027545929	1.53004407883	-0.0021870136261
0.23197388649	1.2540012598	0.268573760986	0.0411586761475	1.52991902828	-0.00285267829895
0.231794834137	1.25416731834	0.268591165543	0.0412962436676	1.52992343903	-0.00294971466064
0.231530189514	1.25383234024	0.26834666729	0.0416152477264	1.52988493443	-0.00299406051636
0.232313871384	1.25369226933	0.268396139145	0.0416653156281	1.52980899811	-0.00285708904266
0.232294797897	1.25393807888	0.268517136574	0.0414881706238	1.52979207039	-0.00237584114075
0.231163024902	1.25351214409	0.269447684288	0.0415072441101	1.5296421051	-0.00115299224854
0.226685523987	1.25172758102	0.274178028107	0.0417912006378	1.52927422523	0.000717163085938
0.218150138855	1.24527287483	0.284483909607	0.0437541007996	1.5287142992	0.00247883796692
0.212664365768	1.24367046356	0.289442062378	0.0463643074036	1.52846109867	0.00485873222351
0.202105760574	1.24887728691	0.289741873741	0.0485076904297	1.52832567692	0.00734710693359
0.189744234085	1.25519692898	0.28832256794	0.0497851371765	1.52820110321	0.00977694988251
0.183417797089	1.25981462002	0.287821650505	0.0497014522552	1.52883553505	0.0115339756012
0.178957223892	1.26268720627	0.288148164749	0.0489037036896	1.53036248684	0.0138046741486
0.178172111511	1.26454520226	0.289113044739	0.0485532283783	1.53049409389	0.0163757801056
0.177713871002	1.26591217518	0.290510177612	0.0497546195984	1.53007304668	0.0185774564743
0.179388523102	1.26703190804	0.29198050499	0.0515570640564	1.53048455715	0.0204081535339
0.183602809906	1.26884353161	0.292176485062	0.0531270503998	1.53137135506	0.0217950344086
0.184849500656	1.27008724213	0.292163610458	0.0529975891113	1.53138780594	0.0234240293503
0.183487176895	1.27045536041	0.291900396347	0.0519394874573	1.53123986721	0.0255489349365
0.181208133698	1.27041232586	0.292060375214	0.0505950450897	1.53155970573	0.0272300243378
