-9.14413356781	-81.4647216797	141.885528564	3.97188401222	1.89846098423	-4.84090471268
-5.2162361145	-81.3113174438	137.2915802	3.84328460693	1.88114202023	-4.70547389984
-5.26213550568	-81.028175354	136.704498291	3.20940589905	1.96443796158	-4.52946567535
-1.54033207893	-80.9339141846	132.055679321	2.66320157051	1.79443979263	-4.38649749756
12.583281517	-79.7338409424	109.429962158	1.83627128601	1.15869629383	-4.31751012802
22.021528244	-71.8092803955	75.3321685791	-0.532543599606	-0.672993600368	-4.45061540604
15.0553340912	-62.316204071	59.0701370239	-3.86339497566	-3.1324236393	-4.52068328857
9.70383834839	-62.8998184204	59.0323295593	-7.84356546402	-5.98235607147	-4.39458179474
6.35175561905	-64.9458618164	60.7961616516	-12.1126356125	-9.79598712921	-4.40367841721
3.74731326103	-66.1674728394	63.0941123962	-14.7846841812	-13.2931528091	-4.28087568283
0.261134386063	-66.9842605591	66.888710022	-15.6812915802	-15.603354454	-4.3454990387
-1.18928027153	-67.2781600952	67.5564193726	-15.6053686142	-17.267868042	-4.60711860657
