0.0	-0.0	128.646087646	77.8062362671	88.7461090088	13.0082149506
0.0	-0.0	129.00769043	78.1418762207	89.1102981567	12.428185463
0.0	-0.0	126.880172729	78.6495666504	89.4837722778	12.3821868896
0.0	-0.0	125.243522644	-101.578994751	89.3826293945	-167.697418213
0.0	-0.0	122.013816833	-102.54599762	86.1042175293	-168.600463867
0.0	-0.0	117.899749756	-101.475387573	86.2458343506	-168.553649902
0.0	-0.0	112.893280029	-101.230194092	86.602973938	-168.465744019
0.0	-0.0	106.974960327	-100.391830444	84.7704315186	-170.73034668
0.0	-0.0	100.366676331	-100.772094727	77.2785415649	-174.61416626
0.0	-0.0	96.3406982422	-101.098136902	69.0533905029	-172.287918091
0.0	-0.0	95.7599182129	-102.519691467	60.2966003418	-172.882369995
0.0	-0.0	96.9296035767	-104.777534485	56.400100708	-171.896133423
0.0	-0.0	99.7988967896	-105.054115295	56.025428772	-172.019958496
0.0	-0.0	105.300567627	-104.91733551	57.4475250244	-171.876190186
0.0	-0.0	109.719276428	-105.376930237	58.9145698547	-169.986450195
0.0	-0.0	111.740219116	-107.939460754	55.9784011841	-167.802993774
0.0	-0.0	112.891113281	-111.518539429	52.9805717468	-162.635986328
0.0	-0.0	113.031799316	-116.510650635	49.6891059875	-156.298568726
0.0	-0.0	112.761405945	-119.781776428	49.563495636	-152.895004272
0.0	-0.0	111.929656982	-119.009399414	51.5220947266	-153.022094727
0.0	-0.0	111.677986145	-117.506103516	53.4885101318	-152.597854614
0.0	-0.0	111.473503113	-116.948410034	55.9780006409	-152.093032837
0.0	-0.0	111.271400452	-115.100357056	60.6590576172	-152.82699585
0.0	-0.0	110.924682617	-112.062133789	68.4168777466	-157.353408813
0.0	-0.0	111.401298523	-110.91217804	73.2867050171	-159.435791016
0.0	-0.0	112.126060486	-109.864761353	76.5751647949	-158.202026367
0.0	-0.0	113.407096863	-110.286109924	79.7547454834	-156.361755371
0.0	-0.0	113.181121826	-110.898918152	80.6806869507	-155.534790039
0.0	-0.0	112.617004395	-111.833389282	82.6237640381	-154.782485962
0.0	-0.0	112.845558167	-113.482711792	84.9158782959	-154.067977905
0.0	-0.0	112.840682983	-115.744422913	86.5240859985	-152.165817261
0.0	-0.0	112.834579468	-119.428138733	88.4107284546	-148.145278931
0.0	-0.0	113.051841736	-122.871536255	88.1001739502	-145.205230713
0.0	-0.0	113.210708618	-126.035682678	88.3405761719	-142.702438354
0.0	-0.0	113.203887939	-128.41947937	88.8611450195	-141.472442627
0.0	-0.0	113.418510437	-130.847290039	89.6973876953	-139.781219482
0.0	-0.0	113.160644531	-131.67565918	89.6043014526	-140.024963379
0.0	-0.0	113.702674866	-132.00944519	89.4774475098	-139.888931274
0.0	-0.0	113.752151489	-132.11100769	89.5125198364	-139.687515259
0.0	-0.0	113.70942688	-132.005157471	89.9136962891	-139.71572876
0.0	-0.0	113.768234253	-132.274230957	89.9484100342	-139.571014404
0.0	-0.0	113.970481873	-132.80921936	89.9399032593	-139.295806885
0.0	-0.0	113.207763672	-133.14805603	89.7283782959	-137.743789673
0.0	-0.0	114.831558228	-133.582366943	89.6402893066	-136.5440979
0.0	-0.0	115.24797821	-134.295440674	89.8341369629	-135.994781494
0.0	-0.0	114.194343567	-134.261932373	89.8998947144	-135.677474976
0.0	-0.0	114.309753418	-134.742248535	89.8672790527	-135.585037231
0.0	-0.0	114.707641602	-135.152862549	89.7809677124	-135.325073242
0.0	-0.0	114.01739502	-134.984970093	89.6954727173	-135.065475464
0.0	-0.0	114.481178284	44.8169555664	89.9666061401	45.1508216858
0.0	-0.0	114.157966614	43.772102356	89.5936431885	50.3957176208
0.0	-0.0	113.428421021	43.1616134644	89.7978057861	54.0818443298
0.0	-0.0	112.974647522	-137.147323608	89.6177368164	-121.211509705
0.0	-0.0	112.402496338	-135.761169434	89.1139755249	-116.983093262
0.0	-0.0	111.743583679	-134.226928711	89.4510192871	-105.84790802
0.0	-0.0	111.575874329	46.644115448	89.7234115601	83.0457611084
0.0	-0.0	111.129150391	46.7514572144	89.4131088257	83.3447418213
0.0	-0.0	110.486335754	44.5581893921	87.5861129761	84.4962310791
0.0	-0.0	109.753242493	44.156791687	87.7013092041	83.6339645386
0.0	-0.0	103.066726685	44.4697151184	87.5989685059	83.4292984009
0.0	-0.0	90.4150161743	46.0273704529	88.2696304321	79.7160491943
0.0	-0.0	71.5609359741	46.7305335999	88.0455474854	78.0220870972
0.0	-0.0	53.2844924927	53.7711486816	88.7976150513	66.5135192871
0.0	-0.0	38.0754814148	-112.524612427	84.4734268188	-142.319824219
0.0	-0.0	28.0990600586	-106.514167786	79.5615386963	-161.162658691
0.0	-0.0	23.6240406036	-104.806755066	75.6238937378	-172.062484741
0.0	-0.0	23.7533588409	-101.708114624	65.8113174438	-172.105331421
0.0	-0.0	22.8655223846	-103.227027893	44.9928703308	-174.293014526
0.0	-0.0	22.4248828888	-104.537063599	40.3842086792	-171.122543335
0.0	-0.0	22.0069122314	-107.343002319	38.1716690063	-170.632034302
0.0	-0.0	21.9922428131	-114.142784119	36.3042526245	-164.295166016
0.0	-0.0	26.3189430237	-123.649673462	34.8650894165	-154.592681885
0.0	-0.0	33.0309448242	-125.562278748	35.8122634888	-150.484130859
0.0	-0.0	37.442615509	-125.524520874	37.1468238831	-148.164932251
0.0	-0.0	39.2672042847	-124.185348511	42.8350486755	-140.192901611
0.0	-0.0	41.7013549805	-125.818954468	50.0645141602	-131.303833008
0.0	-0.0	42.5984077454	-124.497528076	52.2405471802	-137.349319458
0.0	-0.0	43.1680030823	-127.222572327	48.7409896851	-134.984237671
0.0	-0.0	44.4190063477	-127.272346497	45.3495979309	-125.819587708
0.0	-0.0	45.7650642395	-130.161117554	40.6972694397	-119.22164917
0.0	-0.0	46.338104248	-131.655426025	51.0248794556	-121.059585571
0.0	-0.0	46.5966148376	-126.986885071	59.2761077881	-131.174819946
0.0	-0.0	45.7784957886	-122.258056641	65.0741882324	-143.459030151
0.0	-0.0	45.3314857483	-113.524833679	60.5261688232	-168.754470825
0.0	-0.0	42.0528907776	-103.969833374	42.7731018066	158.198532104
0.0	-0.0	39.5964508057	-105.54095459	28.2046070099	137.968566895
0.0	-0.0	39.4642410278	-106.90813446	25.9055633545	130.740600586
0.0	-0.0	38.3250198364	-110.715744019	26.7961101532	128.517105103
0.0	-0.0	38.4483718872	-113.994041443	28.0099849701	131.339950562
0.0	-0.0	39.6454696655	-111.70450592	29.3797988892	141.664260864
0.0	-0.0	40.0507202148	-109.36794281	28.7537002563	142.225921631
0.0	-0.0	40.6890411377	-113.51864624	24.4611568451	127.725463867
0.0	-0.0	40.813835144	-115.764968872	24.0562343597	128.32623291
0.0	-0.0	40.7806129456	-113.654251099	27.0729923248	147.182373047
0.0	-0.0	41.8465118408	-115.483642578	32.745136261	168.32572937
0.0	-0.0	41.9956283569	-118.735687256	33.0701332092	173.696868896
0.0	-0.0	42.02967453	-118.158569336	34.4134407043	178.858123779
0.0	-0.0	42.489074707	-119.8465271	36.4243850708	-175.641906738
0.0	-0.0	42.5256614685	-124.466079712	36.1598091125	-174.440444946
0.0	-0.0	43.6389083862	-126.206306458	36.0115890503	-168.320739746
0.0	-0.0	43.9061431885	-124.229202271	39.037109375	-159.778839111
0.0	-0.0	44.0502166748	-123.134681702	39.5036239624	-154.628585815
0.0	-0.0	44.3652534485	-124.51890564	38.2766723633	-154.773468018
0.0	-0.0	44.8582801819	-126.809265137	36.7539138794	-152.068267822
0.0	-0.0	45.1923828125	-128.493606567	34.6960639954	-148.652130127
0.0	-0.0	45.6616516113	-129.985183716	33.0382614136	-145.6927948
0.0	-0.0	46.0577163696	-131.762664795	31.3116436005	-141.794006348
0.0	-0.0	45.8617248535	-134.393295288	29.7776546478	-138.615707397
0.0	-0.0	46.2083740234	-137.208908081	28.198091507	-133.647598267
0.0	-0.0	46.2062988281	-138.083236694	28.152135849	-127.481582642
0.0	-0.0	46.585395813	-140.74647522	28.2209434509	-117.892227173
0.0	-0.0	46.8772964478	-139.903671265	27.8575649261	-107.357833862
0.0	-0.0	46.7126235962	-135.495727539	27.5547447205	-94.8004684448
0.0	-0.0	46.6410446167	-130.967041016	27.9096069336	-89.8266525269
0.0	-0.0	46.5919113159	-129.06211853	27.141992569	-96.5656280518
0.0	-0.0	46.9563026428	-131.733963013	28.9477443695	-105.569969177
0.0	-0.0	46.8106994629	-138.039306641	33.2557029724	-123.196769714
0.0	-0.0	46.8386726379	-141.428115845	43.059513092	-147.703948975
0.0	-0.0	46.6672286987	-138.09916687	54.1689567566	-161.177520752
0.0	-0.0	46.7161026001	-129.052307129	60.58568573	-173.706390381
0.0	-0.0	46.5633354187	-119.78086853	61.836265564	173.760787964
0.0	-0.0	46.6089019775	-113.0128479	59.3157424927	162.909942627
0.0	-0.0	46.8792762756	-106.426826477	54.2970848083	148.054321289
0.0	-0.0	47.0268173218	-102.510253906	46.7306594849	133.342514038
0.0	-0.0	47.1829147339	-103.612228394	36.2625312805	119.853927612
0.0	-0.0	47.3242530823	-108.772422791	29.8726882935	114.480361938
0.0	-0.0	47.7295837402	-115.736450195	24.7570915222	113.308258057
0.0	-0.0	47.6290359497	-120.680892944	21.7629451752	111.057189941
0.0	-0.0	47.455165863	-128.009918213	16.4489631653	104.046035767
0.0	-0.0	47.2370834351	-135.189407349	11.648774147	98.8760223389
0.0	-0.0	47.0448036194	-136.782745361	10.9837875366	109.008750916
0.0	-0.0	46.3561019897	-135.820419312	14.9648714066	125.009223938
0.0	-0.0	46.3084602356	-135.944702148	19.8989868164	132.839859009
0.0	-0.0	45.9899368286	-137.857452393	33.7786521912	130.670822144
0.0	-0.0	45.9943008423	-145.122192383	43.6392326355	139.482528687
0.0	-0.0	46.2423210144	-148.442276001	37.5397109985	171.544845581
0.0	-0.0	46.2409744263	-138.262496948	23.0071735382	-143.858901978
0.0	-0.0	46.9384346008	-125.795265198	21.2346305847	-121.565597534
0.0	-0.0	47.0021247864	-113.876541138	24.5994434357	-97.4670639038
0.0	-0.0	46.8808670044	-107.905014038	33.3470458984	-87.3051147461
0.0	-0.0	46.684753418	-102.050605774	46.9336967468	-92.0947113037
0.0	-0.0	46.4167900085	-99.7404937744	58.2284507751	-108.215621948
0.0	-0.0	46.0625	-98.4431304932	59.3816490173	-127.212745667
0.0	-0.0	45.8179588318	-103.220726013	48.5799369812	-124.177810669
0.0	-0.0	45.7874336243	-110.294937134	45.742225647	-126.728134155
0.0	-0.0	45.5251045227	-118.851272583	50.6494102478	-134.239624023
0.0	-0.0	45.879070282	-130.704711914	63.4977989197	-156.086883545
0.0	-0.0	45.4633026123	-136.256439209	86.9037704468	-174.384796143
0.0	-0.0	46.0537757874	42.5743293762	73.0360412598	-2.89629077911
0.0	-0.0	46.4445724487	52.2328453064	54.5890960693	-4.80652427673
0.0	-0.0	46.716583252	65.1394042969	48.4052009583	-0.931498169899
0.0	-0.0	46.7238883972	77.1485519409	45.536075592	1.00437343121
0.0	-0.0	47.180355072	94.3947372437	54.6130065918	-3.63478970528
0.0	-0.0	47.0138015747	113.935508728	79.3611679077	-16.2543010712
0.0	-0.0	47.4389457703	-55.323802948	73.5109710693	161.806884766
0.0	-0.0	47.2717247009	-55.5761566162	45.0154800415	161.687942505
0.0	-0.0	47.1446495056	-65.4786529541	24.2378768921	150.600845337
0.0	-0.0	47.4323654175	-84.4213256836	11.1066474915	130.668823242
0.0	-0.0	47.3597679138	-99.0093612671	11.1050758362	120.081802368
0.0	-0.0	47.7615013123	-109.07258606	11.8425579071	114.854011536
0.0	-0.0	48.3893928528	-118.916999817	13.9646730423	109.37663269
0.0	-0.0	48.488407135	-127.079185486	13.6620826721	98.9753189087
0.0	-0.0	48.2842063904	-139.344482422	13.7524843216	79.2689819336
0.0	-0.0	48.4332847595	-142.324325562	17.6127033234	70.2949447632
0.0	-0.0	47.8640480042	-142.565368652	21.4315719604	75.0975341797
0.0	-0.0	47.9032096863	-138.556396484	19.4173202515	97.9027557373
0.0	-0.0	47.9558105469	-125.062255859	14.9502391815	128.030776978
0.0	-0.0	47.9340362549	-108.885253906	16.9814167023	156.156814575
0.0	-0.0	47.5594100952	-90.6625823975	29.0050640106	-168.503875732
0.0	-0.0	47.5906600952	-82.1202545166	40.4063949585	-153.823394775
0.0	-0.0	47.1546630859	-77.8052597046	60.4010810852	-131.665328979
0.0	-0.0	46.325050354	-80.003112793	81.9742584229	-120.834236145
0.0	-0.0	44.4297180176	92.8800048828	78.4624710083	60.1656684875
0.0	-0.0	41.3697013855	88.7687759399	73.9446182251	45.2078285217
0.0	-0.0	34.8102912903	75.6589584351	71.3227920532	45.6559410095
0.0	-0.0	26.991361618	66.3543777466	66.8671569824	45.5851745605
0.0	-0.0	20.7692127228	51.4908676147	60.4633178711	57.34375
0.0	-0.0	18.5706062317	27.3846645355	61.9195594788	75.3912277222
0.0	-0.0	18.4232501984	17.0018825531	75.9413223267	88.3957290649
0.0	-0.0	18.2906589508	17.7928333282	80.877281189	88.720954895
0.0	-0.0	18.0355606079	13.1364870071	81.7436981201	93.6581420898
0.0	-0.0	18.8512077332	20.0374774933	79.2353363037	85.4320755005
0.0	-0.0	19.806344986	32.2125434875	75.6212768555	62.6888084412
0.0	-0.0	21.0674877167	36.5303611755	75.9051589966	49.7085494995
0.0	-0.0	23.205329895	32.7773323059	79.0523834229	61.460723877
0.0	-0.0	24.677110672	35.4191207886	88.9756774902	62.5444297791
0.0	-0.0	25.0983428955	-137.719528198	81.4180603027	-122.43497467
0.0	-0.0	25.6716079712	-125.481575012	61.6080703735	-137.179199219
0.0	-0.0	26.7798690796	-121.609825134	46.5823783875	-130.356048584
0.0	-0.0	27.2088680267	-123.699958801	35.2261924744	-118.041877747
0.0	-0.0	27.6868553162	-126.750091553	30.1792259216	-119.541275024
0.0	-0.0	28.390422821	-129.114379883	30.1598167419	-117.187080383
0.0	-0.0	29.137304306	-129.349914551	33.8609428406	-118.027297974
0.0	-0.0	30.8543777466	-132.975585938	32.1899909973	-117.746017456
0.0	-0.0	31.9946193695	-133.605957031	29.3604602814	-116.93787384
0.0	-0.0	31.3638706207	-129.776519775	27.7943687439	-111.212562561
0.0	-0.0	31.4140148163	-130.659500122	23.0076255798	-109.672569275
0.0	-0.0	31.9640693665	-129.886047363	21.9475364685	-113.388877869
0.0	-0.0	31.4426441193	-133.148956299	32.2735824585	-127.58883667
0.0	-0.0	31.764585495	-128.496795654	45.0953788757	-149.40927124
0.0	-0.0	31.1192932129	-113.478233337	43.5157012939	-176.818756104
0.0	-0.0	31.1478652954	-107.106216431	29.5102500916	172.01651001
0.0	-0.0	31.2195911407	-111.121955872	19.8520774841	-168.082717896
0.0	-0.0	31.8389091492	-104.42086792	10.2122325897	-153.874267578
0.0	-0.0	30.9049892426	-106.405166626	6.42708063126	-165.276382446
0.0	-0.0	30.616355896	-105.568870544	11.5411014557	-153.414428711
0.0	-0.0	29.9282016754	-101.066452026	10.1788196564	-133.80027771
0.0	-0.0	29.6312141418	-109.77696228	9.6498632431	-120.325378418
0.0	-0.0	28.9728813171	-106.343727112	-5.67549705505	-102.181640625
0.0	-0.0	28.0611152649	-96.9006958008	-13.0001630783	-97.6050338745
0.0	-0.0	28.3830490112	-93.1331558228	-22.1228809357	-90.956703186
0.0	-0.0	27.7494392395	-96.6174163818	-23.5399265289	-79.2476730347
0.0	-0.0	26.6136932373	-105.648071289	-22.0692481995	-68.7241287231
0.0	-0.0	26.2960205078	-100.959510803	-21.6409416199	-70.9928436279
0.0	-0.0	25.2833080292	-101.869064331	-19.5769119263	-72.00050354
0.0	-0.0	25.0480384827	-103.545326233	-18.8366699219	-74.3469848633
0.0	-0.0	24.823392868	-105.059020996	-17.6610565186	-75.5878372192
0.0	-0.0	24.5559425354	-106.933380127	-17.0082149506	-76.7501068115
0.0	-0.0	24.1888313293	-106.567901611	-15.4640865326	-76.7290344238
0.0	-0.0	23.6242237091	-106.685638428	-9.6654586792	-81.7665481567
0.0	-0.0	21.4233875275	-102.861473083	9.61311817169	-104.083427429
0.0	-0.0	20.1696739197	-100.871803284	38.1823272705	-124.8282547
0.0	-0.0	17.6643466949	-97.9948272705	67.8191757202	-144.556030273
0.0	-0.0	14.8435926437	87.1803741455	74.986831665	11.8423557281
0.0	-0.0	13.009054184	85.1569442749	36.4997634888	6.8350815773
0.0	-0.0	12.5253858566	90.9931182861	10.0859451294	-7.41039228439
0.0	-0.0	12.8595838547	101.649597168	-3.3785867691	-21.6665897369
0.0	-0.0	13.3691539764	106.757835388	-10.01811409	-27.4782962799
0.0	-0.0	13.1056814194	104.392868042	-14.5215291977	-23.3270359039
0.0	-0.0	13.1767787933	103.948539734	-12.3360748291	-24.0808506012
0.0	-0.0	13.4394798279	100.388656616	-11.7547225952	-21.2984313965
0.0	-0.0	12.9105730057	105.149902344	1.43508255482	-44.6906967163
0.0	-0.0	13.829287529	110.373825073	5.43926334381	-52.6292495728
0.0	-0.0	13.4469356537	118.921813965	10.184882164	-64.7060241699
0.0	-0.0	13.2262630463	131.487045288	24.8763160706	-81.1279602051
0.0	-0.0	13.1457910538	137.058624268	50.3007583618	-93.1409072876
0.0	-0.0	13.6871805191	134.226928711	82.3555984497	-102.801307678
0.0	-0.0	13.7022037506	-53.7364616394	80.6805267334	77.0418243408
0.0	-0.0	14.5055465698	-68.2662200928	71.0932998657	71.4181060791
0.0	-0.0	14.5961151123	-84.1324234009	66.0973815918	57.4528198242
0.0	-0.0	14.1315526962	-100.342834473	66.157989502	39.3067398071
0.0	-0.0	13.7604312897	-107.492279053	75.9864196777	36.7052688599
0.0	-0.0	13.4046592712	-105.771484375	88.1864318848	39.5753364563
0.0	-0.0	13.4004888535	73.9038162231	85.0123901367	-137.262115479
0.0	-0.0	14.9829120636	76.6373062134	78.6102905273	-118.121040344
0.0	-0.0	16.1488723755	82.1425018311	70.458366394	-87.5625686646
0.0	-0.0	17.4180927277	88.3315124512	59.8330001831	-62.173122406
0.0	-0.0	18.2622261047	88.272567749	57.2423782349	-58.3169212341
0.0	-0.0	17.767490387	84.8252944946	55.128036499	-53.0853805542
0.0	-0.0	18.3635349274	81.1113128662	48.7779464722	-36.9636650085
0.0	-0.0	18.0910263062	73.7657623291	37.6326522827	-4.24061107635
0.0	-0.0	17.8121643066	68.3255996704	30.9606971741	22.3214302063
0.0	-0.0	17.6454105377	67.7898864746	30.9197368622	31.7157745361
0.0	-0.0	17.7559261322	62.1094741821	29.5604114532	47.5512313843
0.0	-0.0	17.5998859406	57.7908058167	27.4817676544	65.2252655029
0.0	-0.0	18.3255004883	52.3739242554	25.6146411896	82.013420105
0.0	-0.0	18.0200881958	53.3436355591	25.1964626312	84.9324111938
0.0	-0.0	18.3501148224	52.7371330261	23.2374343872	88.401473999
0.0	-0.0	20.4935340881	54.2757873535	22.3273983002	85.7215576172
0.0	-0.0	30.3321876526	52.4723625183	21.7567214966	87.4918518066
0.0	-0.0	38.6245918274	51.3784065247	21.2334442139	87.7047653198
0.0	-0.0	42.6035728455	50.0347900391	20.5674362183	88.6072006226
0.0	-0.0	47.7983627319	49.3046798706	19.6004333496	89.4430541992
0.0	-0.0	55.0787658691	48.853313446	18.0407791138	90.5888061523
0.0	-0.0	60.7609863281	48.1923713684	16.575422287	91.6832733154
0.0	-0.0	63.1853179932	47.6339797974	15.9554786682	92.3617553711
0.0	-0.0	64.2199020386	47.8860778809	15.9416589737	92.4749908447
0.0	-0.0	66.5283279419	47.861076355	15.7082595825	92.8187789917
0.0	-0.0	70.1089553833	47.976020813	15.6140766144	92.698600769
0.0	-0.0	73.5627212524	48.2558174133	15.5347213745	92.3469924927
0.0	-0.0	76.2991867065	48.3081130981	15.434223175	92.4140701294
0.0	-0.0	78.5306549072	47.8023948669	14.7652015686	92.7793273926
0.0	-0.0	81.6591110229	47.1328048706	14.3578395844	93.1855010986
0.0	-0.0	85.3833389282	47.1192512512	14.1330881119	93.3923339844
0.0	-0.0	87.5866394043	47.0153083801	14.0018997192	93.3769836426
0.0	-0.0	87.6474761963	46.9309959412	13.8009624481	93.611907959
0.0	-0.0	88.1173629761	46.4246635437	13.7191781998	94.0016784668
0.0	-0.0	89.3260345459	46.5181388855	13.0872840881	94.0907669067
0.0	-0.0	90.5886764526	46.6794395447	12.8757610321	94.2121582031
0.0	-0.0	91.4409179688	46.9323577881	12.9321308136	94.3576507568
0.0	-0.0	91.8675231934	46.5552253723	13.3030414581	94.4279327393
0.0	-0.0	91.922958374	46.6804428101	13.4039545059	93.7376861572
0.0	-0.0	92.0433425903	47.2404518127	13.8063354492	91.9731140137
0.0	-0.0	92.6343383789	46.7897567749	13.6673212051	91.9440917969
0.0	-0.0	93.3125610352	46.0622940063	13.638425827	92.3605880737
0.0	-0.0	93.9831924438	45.619228363	12.9460468292	92.570274353
0.0	-0.0	96.6817779541	44.7939376831	12.5154027939	93.0384597778
0.0	-0.0	99.6124267578	44.2883720398	12.4972171783	93.0121231079
0.0	-0.0	99.9486923218	45.0177497864	13.0957641602	92.2308959961
0.0	-0.0	100.036972046	45.5585517883	13.3309421539	91.0211486816
0.0	-0.0	99.418510437	46.0110549927	14.191567421	90.3203811646
0.0	-0.0	98.5180282593	47.5885047913	17.6697025299	90.5382995605
0.0	-0.0	97.6277999878	48.328994751	19.303686142	89.8471679688
0.0	-0.0	97.0241470337	50.8450698853	22.969367981	87.8381500244
0.0	-0.0	96.2713775635	51.8057899475	25.5252056122	90.8417663574
0.0	-0.0	96.3168563843	49.8154945374	25.2561187744	95.85206604
0.0	-0.0	96.3540420532	48.0432243347	24.6398925781	98.4440078735
0.0	-0.0	96.5655136108	46.0954704285	24.4500427246	100.244613647
0.0	-0.0	96.2575759888	44.5345077515	24.8191871643	101.701667786
0.0	-0.0	96.229637146	43.5617980957	24.8417301178	101.226417542
0.0	-0.0	95.8128204346	42.452003479	24.4949703217	101.612968445
0.0	-0.0	95.8647766113	40.6842155457	25.0823001862	103.428848267
0.0	-0.0	95.6646194458	40.7086296082	25.509223938	103.167793274
0.0	-0.0	95.5577011108	44.6387672424	24.7818565369	98.2940826416
0.0	-0.0	94.8289031982	45.385181427	23.5187683105	96.3946685791
0.0	-0.0	94.0492706299	44.0898590088	22.9225959778	96.8567276001
0.0	-0.0	90.8259887695	43.1454696655	22.3938598633	97.5662994385
0.0	-0.0	84.3618469238	40.6843147278	21.0120029449	99.095413208
0.0	-0.0	76.6644592285	43.2423973083	21.2230930328	87.9476242065
0.0	-0.0	69.9425201416	42.6553726196	21.4615383148	82.4444198608
0.0	-0.0	65.2597808838	42.5683097839	21.4623165131	80.6199264526
0.0	-0.0	64.5576400757	42.9712486267	20.7828063965	80.2154922485
0.0	-0.0	67.4519805908	43.479637146	20.2090148926	80.0287780762
0.0	-0.0	69.5600204468	44.4914894104	20.2970027924	78.4164886475
0.0	-0.0	68.2854995728	46.1038818359	20.6888122559	73.9102554321
0.0	-0.0	67.2119674683	49.3282470703	22.5497131348	65.7462387085
0.0	-0.0	67.3035507202	48.6091156006	22.9213962555	66.8876037598
0.0	-0.0	67.2410812378	49.0413208008	22.7969112396	66.5970611572
0.0	-0.0	67.6192855835	49.8137283325	22.8443756104	65.6538238525
0.0	-0.0	68.8930740356	51.1563224792	24.0790119171	62.2740325928
0.0	-0.0	69.8773880005	52.0995521545	26.472776413	59.9394073486
0.0	-0.0	70.3137435913	51.3247528076	27.0788078308	61.0729103088
0.0	-0.0	70.7272644043	51.6390533447	27.2023677826	60.5454597473
0.0	-0.0	70.7113265991	52.5390319824	27.1776599884	58.8033370972
0.0	-0.0	70.8963851929	52.286403656	27.3504829407	59.8055648804
0.0	-0.0	71.5248947144	51.1649932861	26.3496799469	65.7374267578
0.0	-0.0	71.6266403198	51.8049163818	26.1058883667	65.6344528198
0.0	-0.0	71.7216720581	51.3403587341	25.4814834595	66.9945373535
0.0	-0.0	72.0937042236	48.9979324341	24.3174228668	73.0038909912
0.0	-0.0	72.2616043091	46.8110618591	22.2527313232	80.1122970581
0.0	-0.0	72.5552825928	44.927482605	20.8104171753	85.5616912842
0.0	-0.0	72.9390563965	42.3572616577	19.8773841858	88.9364395142
0.0	-0.0	73.0375671387	39.8437995911	18.6363830566	92.204208374
0.0	-0.0	72.7961044312	37.5396995544	17.4164218903	96.0261230469
0.0	-0.0	72.4800186157	36.5658798218	16.5970745087	97.7035903931
0.0	-0.0	72.1309585571	37.3007659912	16.2125701904	96.6781387329
0.0	-0.0	72.084236145	38.9710998535	17.1952991486	93.6294403076
0.0	-0.0	71.5272674561	39.2705078125	17.6064071655	92.2461929321
0.0	-0.0	70.9207000732	39.2929229736	17.5995235443	91.8878631592
0.0	-0.0	70.2911605835	39.6905899048	17.6021652222	91.6676559448
0.0	-0.0	69.625793457	39.9058799744	17.5353298187	90.9644165039
0.0	-0.0	68.653427124	41.1338920593	17.8533935547	89.2413711548
0.0	-0.0	68.4975357056	45.3661499023	19.38813591	82.1549301147
0.0	-0.0	68.922744751	45.020362854	19.362455368	82.5700378418
0.0	-0.0	69.3422927856	44.7476119995	19.5163211823	83.359046936
0.0	-0.0	70.6320495605	44.2149848938	19.5178394318	84.0523452759
0.0	-0.0	73.6657180786	43.7210769653	19.0773773193	84.5811004639
0.0	-0.0	75.6441268921	43.5426750183	19.0076618195	85.1908035278
0.0	-0.0	77.2895507812	42.9891815186	18.8162002563	85.8823165894
0.0	-0.0	79.5777130127	43.0794334412	18.5231647491	85.8425140381
0.0	-0.0	81.9094009399	45.6003570557	19.2893924713	82.8912887573
0.0	-0.0	84.1135101318	46.1510658264	19.8236846924	82.1852416992
0.0	-0.0	86.7777557373	44.5984649658	20.0409584045	83.8479766846
0.0	-0.0	90.2000656128	44.6872749329	19.9091701508	83.6449584961
0.0	-0.0	93.28465271	44.0651893616	19.5114841461	84.6319274902
0.0	-0.0	96.2360229492	43.3647918701	19.3321781158	85.1151504517
0.0	-0.0	99.0889968872	42.6824836731	18.8344306946	85.7920913696
0.0	-0.0	101.927764893	41.9510192871	18.145149231	86.9310150146
0.0	-0.0	101.479156494	42.7735290527	18.5764083862	85.1636123657
0.0	-0.0	100.426361084	42.9206466675	19.1321792603	84.5194854736
0.0	-0.0	100.227828979	44.9330062866	20.0999832153	80.3609237671
0.0	-0.0	99.8630523682	47.3480987549	21.6276283264	75.1268310547
0.0	-0.0	100.52394104	45.3038864136	21.0853919983	76.5481262207
0.0	-0.0	101.686935425	44.3310966492	21.121969223	77.3738098145
0.0	-0.0	102.034477234	43.3754119873	21.0194168091	78.3872375488
0.0	-0.0	103.495956421	43.0668411255	20.312538147	78.6137695312
0.0	-0.0	104.534873962	42.2444000244	20.8303756714	79.130355835
0.0	-0.0	104.536720276	42.1593437195	20.5868206024	79.4206619263
0.0	-0.0	104.978858948	41.8732376099	20.2929668427	79.4136199951
0.0	-0.0	104.849822998	41.3873138428	20.0423088074	79.3994750977
0.0	-0.0	104.608070374	41.2859535217	19.6042022705	79.1613998413
0.0	-0.0	103.861206055	41.7285614014	19.8039302826	78.5317306519
0.0	-0.0	104.377166748	41.7504310608	19.8186149597	79.1373748779
0.0	-0.0	104.637695312	42.165435791	19.7710514069	79.7071304321
0.0	-0.0	104.367385864	41.7516059875	19.2839031219	82.7340393066
0.0	-0.0	103.761383057	39.1342430115	18.4424667358	87.0500030518
0.0	-0.0	102.617103577	37.5189971924	17.2436161041	88.9622268677
0.0	-0.0	101.806137085	37.676651001	16.994802475	88.237411499
0.0	-0.0	100.696212769	41.5853843689	18.2275772095	82.4981384277
0.0	-0.0	96.2319412231	44.6425094604	19.6868305206	75.7208023071
0.0	-0.0	86.3974380493	44.5390739441	20.9946746826	73.2189102173
0.0	-0.0	74.5335235596	44.0639839172	21.1945762634	72.8729705811
0.0	-0.0	66.4870834351	43.1999816895	21.1099700928	72.3930587769
0.0	-0.0	61.6104812622	43.3667488098	20.9226989746	67.8890380859
0.0	-0.0	62.3169174194	44.4805335999	20.8585014343	62.800945282
0.0	-0.0	63.4007911682	45.5123252869	21.8468322754	58.4714775085
0.0	-0.0	63.515586853	44.5908737183	22.9996204376	58.8910865784
0.0	-0.0	61.6413917542	42.7165870667	23.6521244049	59.8751716614
0.0	-0.0	59.1499710083	42.2245140076	23.2961292267	60.3494186401
0.0	-0.0	56.4440574646	39.9563674927	23.924036026	61.1455459595
0.0	-0.0	54.8632316589	38.7795143127	22.75664711	60.7658843994
0.0	-0.0	55.4039878845	38.8347625732	21.9841823578	58.1216773987
0.0	-0.0	58.3265419006	37.5443000793	21.689617157	60.180355072
0.0	-0.0	61.453414917	37.0904197693	21.7972431183	62.6535491943
0.0	-0.0	62.3838615417	36.9629592896	21.9534244537	63.9010353088
0.0	-0.0	63.2306518555	36.5667114258	21.8135452271	64.7944793701
0.0	-0.0	64.0575180054	35.2246322632	21.48620224	65.4393997192
0.0	-0.0	64.6963882446	33.7859344482	20.5107536316	66.5553359985
0.0	-0.0	65.4451141357	33.7239303589	19.0043029785	66.1403884888
0.0	-0.0	65.3203430176	33.985622406	19.0398330688	65.7398529053
0.0	-0.0	65.0813446045	35.8304977417	19.245973587	64.8912277222
0.0	-0.0	64.1452178955	36.9395370483	19.4487323761	66.4344711304
0.0	-0.0	63.8230171204	38.628578186	19.3988933563	65.5567932129
0.0	-0.0	63.7253761292	39.4183807373	19.1107063293	65.196182251
0.0	-0.0	63.2590255737	39.9763755798	18.4841995239	65.2206954956
0.0	-0.0	62.8757705688	40.5034942627	18.3806209564	64.9782485962
0.0	-0.0	62.4750328064	40.2547492981	18.2973194122	64.8789138794
0.0	-0.0	62.1396522522	39.5915260315	18.0842895508	64.750617981
0.0	-0.0	62.9882392883	39.2176322937	18.0221786499	64.7587127686
0.0	-0.0	63.3068809509	39.1178970337	17.8064746857	65.0290603638
0.0	-0.0	63.5700302124	38.8490943909	17.7466506958	65.1947402954
0.0	-0.0	64.2061386108	39.0289878845	17.3929920197	64.7296524048
0.0	-0.0	64.2979354858	38.0844192505	17.1785182953	64.8592529297
0.0	-0.0	64.8064117432	37.8499794006	16.9498977661	64.7097244263
0.0	-0.0	66.1727371216	37.3688011169	16.5905780792	64.7601089478
0.0	-0.0	67.2627716064	38.4682693481	15.777264595	64.1982040405
0.0	-0.0	73.6765594482	39.1074256897	14.8738555908	62.8228988647
0.0	-0.0	93.4200744629	39.7092208862	14.5204334259	62.2910842896
0.0	-0.0	107.433502197	39.7242507935	14.4510965347	62.8484420776
0.0	-0.0	115.412918091	40.7440109253	14.1525259018	63.0796165466
0.0	-0.0	117.530189514	40.5357170105	13.5974559784	63.7039680481
0.0	-0.0	117.080413818	41.2860565186	13.0241937637	63.3806686401
0.0	-0.0	113.685760498	41.7945709229	13.8993864059	63.1130752563
0.0	-0.0	112.047080994	40.9478569031	14.5044956207	63.4174118042
0.0	-0.0	109.830940247	40.556728363	14.3678627014	63.6180915833
0.0	-0.0	107.300682068	40.2658119202	14.0003461838	63.6627159119
0.0	-0.0	106.140464783	39.7025909424	14.2054290771	63.8054389954
0.0	-0.0	105.615921021	38.4464454651	14.6780052185	65.6555328369
0.0	-0.0	104.915725708	38.9617195129	14.3742818832	70.4250488281
0.0	-0.0	104.097297668	39.2523651123	14.537940979	70.772819519
0.0	-0.0	104.198257446	37.7299613953	13.6106109619	77.520904541
0.0	-0.0	103.755004883	36.9404067993	11.9437236786	81.6301879883
0.0	-0.0	103.110466003	33.9169960022	11.1419610977	87.3669967651
0.0	-0.0	103.212364197	30.481798172	10.4098291397	90.6475372314
0.0	-0.0	103.651344299	29.4987239838	10.0959234238	90.9917984009
0.0	-0.0	104.058006287	31.0824832916	10.3671121597	88.8777008057
0.0	-0.0	105.808769226	31.4153213501	10.8091201782	87.9185256958
0.0	-0.0	107.028320312	31.1323070526	10.9856901169	87.7518768311
0.0	-0.0	105.334228516	31.7972335815	11.4749917984	85.9392929077
0.0	-0.0	104.270645142	32.3690719604	11.3398447037	84.4964675903
0.0	-0.0	103.836044312	32.8640785217	11.7938308716	83.7316665649
0.0	-0.0	103.519622803	32.5376625061	11.8367567062	83.8506317139
0.0	-0.0	102.851119995	32.4791183472	11.7901010513	83.5213623047
0.0	-0.0	101.470397949	32.9692306519	12.2218542099	82.472694397
0.0	-0.0	101.351173401	34.5607948303	13.4419641495	79.9469985962
0.0	-0.0	101.036895752	35.3101882935	14.6209640503	78.8633499146
0.0	-0.0	101.278968811	35.721912384	14.8186798096	78.1239089966
0.0	-0.0	101.254379272	36.4453201294	15.4704294205	77.3613128662
0.0	-0.0	101.52898407	36.3339538574	16.6871566772	76.5377426147
0.0	-0.0	101.10308075	38.4917488098	18.2604351044	74.1480178833
0.0	-0.0	100.688941956	38.3253250122	19.3643493652	73.3389053345
0.0	-0.0	100.826721191	38.5345878601	19.945810318	72.5684356689
0.0	-0.0	100.601768494	40.1669883728	20.9851531982	70.1741867065
0.0	-0.0	100.379890442	41.096157074	21.8162536621	68.9134979248
0.0	-0.0	100.260848999	43.2786102295	23.2616443634	67.1915588379
0.0	-0.0	100.409866333	47.9485435486	25.477809906	65.231842041
0.0	-0.0	100.036392212	50.6475372314	26.459569931	64.0701065063
0.0	-0.0	100.536766052	50.2605476379	27.0739650726	64.2200469971
0.0	-0.0	100.510177612	51.5527801514	28.1821956635	63.9721870422
0.0	-0.0	100.546157837	53.9240608215	30.0168895721	64.0539550781
0.0	-0.0	100.648803711	54.8940963745	30.792175293	63.7198028564
0.0	-0.0	100.545028687	55.5531921387	32.1397171021	64.3406295776
0.0	-0.0	100.432022095	56.1639976501	34.7070999146	64.2899017334
0.0	-0.0	101.40234375	55.8670425415	37.1300315857	65.7389831543
0.0	-0.0	101.711341858	56.4502754211	39.1128730774	66.6906280518
0.0	-0.0	101.593452454	56.7127761841	40.2579917908	70.0967636108
0.0	-0.0	101.59161377	55.1304130554	38.5806388855	70.2737121582
0.0	-0.0	101.861282349	52.7532081604	36.6442489624	70.8638839722
0.0	-0.0	107.230834961	47.7177658081	34.9315185547	75.6046829224
0.0	-0.0	112.651771545	44.1831474304	33.3668785095	76.5416946411
0.0	-0.0	117.967750549	43.0240821838	31.482591629	77.7795944214
0.0	-0.0	118.411354065	43.4375762939	31.1889438629	76.0048828125
0.0	-0.0	112.665420532	42.9818611145	30.9412765503	75.9233093262
0.0	-0.0	100.132843018	42.246307373	30.9424495697	75.9240875244
0.0	-0.0	85.8964157104	41.3145751953	31.2348518372	76.1091842651
0.0	-0.0	74.3826980591	40.5001373291	29.6527690887	75.9716644287
0.0	-0.0	70.8369522095	39.3002319336	28.8392486572	76.3682403564
0.0	-0.0	72.012298584	39.2501182556	28.6420459747	75.1126785278
0.0	-0.0	73.5612487793	38.407245636	28.2846298218	75.6182861328
0.0	-0.0	74.3870697021	37.597038269	28.1178665161	77.0770950317
0.0	-0.0	75.5187072754	36.1977043152	27.0774002075	79.4879074097
0.0	-0.0	77.5451660156	34.7674446106	25.5326004028	81.8027496338
0.0	-0.0	79.6582717896	32.2612419128	24.3056926727	86.6109771729
0.0	-0.0	80.5055923462	32.6099281311	24.2918720245	87.2214508057
0.0	-0.0	80.5434799194	29.3930568695	22.6425304413	92.7062988281
0.0	-0.0	80.5317001343	26.145488739	20.7956237793	99.7780990601
0.0	-0.0	80.8656997681	27.7721557617	19.6534347534	97.5766601562
0.0	-0.0	79.4849624634	32.4081573486	20.7296695709	89.2614135742
0.0	-0.0	76.4219818115	36.8973121643	22.565820694	77.6325912476
0.0	-0.0	73.8280792236	36.6888961792	23.7993984222	75.3637008667
0.0	-0.0	71.7006072998	42.5099754333	27.880903244	60.4423179626
0.0	-0.0	71.3920440674	47.306060791	36.7804031372	41.4290428162
0.0	-0.0	71.6736679077	50.8268318176	38.175239563	34.3423423767
0.0	-0.0	72.3580169678	52.2315826416	37.2327804565	31.1586284637
0.0	-0.0	72.6858215332	53.548614502	36.6129379272	29.6186256409
0.0	-0.0	73.3058013916	56.2140960693	38.0942878723	19.9714450836
0.0	-0.0	73.6664733887	54.8214645386	39.5938911438	19.4050006866
0.0	-0.0	74.489112854	55.4916191101	39.8897399902	16.9942169189
0.0	-0.0	74.98046875	57.6258659363	41.9496116638	4.76214456558
0.0	-0.0	75.3929748535	58.2963027954	46.1845932007	-14.116897583
0.0	-0.0	75.04712677	57.8639945984	49.7627754211	-22.031999588
0.0	-0.0	74.7523040771	57.5953674316	50.1913146973	-19.4497337341
0.0	-0.0	74.7248535156	56.0843162537	51.4255065918	-17.4009437561
0.0	-0.0	74.5587387085	56.8322219849	56.9714813232	-19.3409061432
0.0	-0.0	74.8651199341	58.995136261	62.735874176	-25.4950866699
0.0	-0.0	73.0771636963	60.1016120911	66.8127822876	-32.6447792053
0.0	-0.0	69.6524734497	60.9761123657	72.0503768921	-47.4217147827
0.0	-0.0	67.3412246704	60.7693862915	78.7897567749	-60.3520431519
0.0	-0.0	66.9138870239	61.370300293	79.8562088013	-62.313129425
0.0	-0.0	65.5990219116	63.4723892212	78.4051208496	-59.3570594788
0.0	-0.0	65.3289489746	65.015411377	77.6028823853	-56.5325241089
0.0	-0.0	65.5411071777	64.9326553345	77.2891540527	-57.8245429993
0.0	-0.0	64.4096374512	66.4056167603	76.474609375	-57.8306274414
0.0	-0.0	62.9375152588	68.256729126	75.4169006348	-56.998336792
0.0	-0.0	60.4083061218	68.423324585	73.955039978	-57.0695838928
0.0	-0.0	61.0953712463	70.1123962402	78.9809036255	-67.0722808838
0.0	-0.0	65.2664871216	69.8138809204	86.5656585693	-73.7142181396
0.0	-0.0	69.8135070801	-108.860984802	89.138961792	102.894721985
0.0	-0.0	73.9723434448	-110.142822266	87.2504577637	104.095672607
0.0	-0.0	78.2057113647	-114.391143799	79.2526473999	105.20476532
0.0	-0.0	80.4870605469	-112.284828186	77.3204193115	107.933761597
0.0	-0.0	81.5455474854	-112.899467468	77.3001022339	108.670913696
0.0	-0.0	78.9769821167	-116.611351013	77.7661437988	113.764686584
0.0	-0.0	73.105506897	-116.097366333	80.3624191284	121.242698669
0.0	-0.0	63.2164039612	-116.275245667	85.2552947998	132.972045898
0.0	-0.0	52.3064422607	65.6655578613	85.8277816772	-25.3359088898
0.0	-0.0	42.1060371399	67.6075057983	73.806098938	3.69208812714
0.0	-0.0	37.8981971741	65.9739837646	65.4878234863	23.0388011932
0.0	-0.0	35.9676055908	63.964630127	60.6345291138	27.8536567688
0.0	-0.0	36.1809425354	58.9832649231	50.0011940002	41.3714637756
0.0	-0.0	37.3266639709	55.117641449	45.2022514343	48.0338478088
0.0	-0.0	38.296131134	50.5800666809	41.5710220337	57.7582626343
0.0	-0.0	40.6898841858	47.0044288635	39.0486297607	61.1046600342
0.0	-0.0	42.1540489197	41.2234077454	35.3589935303	67.3899688721
0.0	-0.0	43.7822990417	40.8296813965	34.5651130676	64.0150146484
0.0	-0.0	44.9337310791	40.938495636	34.9905891418	62.1119194031
0.0	-0.0	45.2803993225	38.9633522034	34.3224601746	65.9941329956
0.0	-0.0	44.7964553833	39.0355834961	34.682762146	72.2659606934
0.0	-0.0	43.3577308655	41.0247573853	34.5847320557	71.4594345093
0.0	-0.0	41.8445281982	45.5933418274	39.6874732971	66.6144943237
0.0	-0.0	40.8307228088	56.5423355103	51.0693511963	51.2832946777
0.0	-0.0	40.5622062683	59.9815330505	63.9967765808	44.1602325439
0.0	-0.0	40.3081665039	60.6113586426	72.4075622559	40.3595046997
0.0	-0.0	39.8889160156	60.7880020142	76.4680557251	37.720954895
0.0	-0.0	39.3292350769	60.289440155	80.0373306274	33.1669464111
0.0	-0.0	39.0731086731	60.2927360535	86.2106399536	12.8792257309
0.0	-0.0	38.9106025696	61.1066932678	86.111869812	-14.6663961411
0.0	-0.0	39.0996932983	60.9996414185	79.4124526978	-33.6354293823
0.0	-0.0	38.2549743652	60.3961639404	73.9444122314	-26.1271800995
0.0	-0.0	37.9442634583	-112.928504944	88.1156463623	150.409942627
0.0	-0.0	37.3809242249	-109.657524109	82.1800689697	155.853149414
0.0	-0.0	35.4163818359	-111.423042297	81.8276824951	169.014923096
0.0	-0.0	33.7438621521	-111.99533844	78.3079452515	160.641281128
0.0	-0.0	32.2069129944	-114.1459198	82.039024353	147.287216187
0.0	-0.0	31.331237793	59.4332237244	79.9261474609	-21.442565918
0.0	-0.0	30.988653183	49.4290351868	70.047706604	-1.4126868248
0.0	-0.0	29.9725036621	37.9159011841	74.3416290283	29.3616256714
0.0	-0.0	30.7696151733	30.4131603241	79.4160003662	58.477973938
0.0	-0.0	31.5367450714	25.745349884	77.149055481	72.2062606812
0.0	-0.0	31.5686397552	36.3913421631	85.1058044434	63.3806838989
0.0	-0.0	31.5440616608	37.0110588074	86.8524246216	72.1042327881
0.0	-0.0	33.0855560303	29.5316123962	79.8444442749	77.0592041016
0.0	-0.0	33.0980377197	33.8620262146	76.7950210571	64.2328720093
0.0	-0.0	33.6263580322	38.3578605652	76.1349563599	50.9744300842
0.0	-0.0	33.7579154968	40.8760643005	76.4190673828	50.1204414368
0.0	-0.0	33.601650238	40.4764175415	79.3449935913	51.541305542
0.0	-0.0	34.4091300964	40.8882255554	83.8197860718	56.4357337952
0.0	-0.0	34.4001312256	39.4030418396	85.6091690063	69.704208374
0.0	-0.0	35.9777450562	38.5754470825	88.5394668579	83.6407852173
0.0	-0.0	36.5766067505	37.4182662964	89.9351501465	92.4842758179
0.0	-0.0	37.4440956116	38.3415908813	88.6943511963	97.1960983276
0.0	-0.0	38.4688606262	38.4647026062	82.7941894531	95.719291687
0.0	-0.0	41.6752700806	46.4330673218	78.6285247803	57.1269989014
0.0	-0.0	42.4017410278	53.1933097839	77.2358779907	26.153799057
0.0	-0.0	41.3881607056	61.2725601196	81.926612854	-5.42558813095
0.0	-0.0	41.2562789917	-114.257423401	87.1561813354	147.099685669
0.0	-0.0	40.6352310181	-111.785751343	79.6652984619	127.493499756
0.0	-0.0	40.2029838562	-113.016723633	76.0213165283	116.132537842
0.0	-0.0	40.1085319519	-112.652542114	74.5883407593	111.354537964
0.0	-0.0	39.878490448	-112.783164978	73.93775177	113.220840454
0.0	-0.0	40.737361908	-111.897789001	78.3315582275	145.584472656
0.0	-0.0	41.1279907227	-115.128715515	83.815246582	-169.184906006
0.0	-0.0	41.3770141602	-119.806137085	86.3853988647	-140.083267212
0.0	-0.0	41.7410850525	-123.563919067	89.5346450806	-121.925430298
0.0	-0.0	42.2211647034	54.3394775391	87.0519638062	68.7918701172
0.0	-0.0	42.6627388	48.1845207214	82.0555801392	83.7582855225
0.0	-0.0	42.9179992676	40.2989006042	80.0329818726	104.816665649
0.0	-0.0	42.7393188477	32.4525909424	82.8800125122	131.853225708
0.0	-0.0	42.9360351562	28.3389530182	85.9987640381	149.034744263
0.0	-0.0	43.4396591187	23.7976551056	88.3863372803	166.821685791
0.0	-0.0	43.2744522095	23.5859184265	86.5075302124	171.165130615
0.0	-0.0	43.4437408447	23.0839557648	83.9126358032	169.006454468
0.0	-0.0	43.5736732483	21.3826465607	82.9159164429	170.488845825
0.0	-0.0	43.0064620972	18.9204883575	81.6059417725	172.777557373
0.0	-0.0	43.1276741028	24.9173336029	82.4992446899	152.477203369
0.0	-0.0	42.4715690613	38.7523880005	81.9216156006	102.75353241
0.0	-0.0	40.8152999878	45.877620697	83.1155090332	79.7470855713
0.0	-0.0	39.6286621094	-132.231552124	84.7273788452	-115.928314209
0.0	-0.0	39.4242935181	-130.235717773	64.0637664795	-128.22277832
0.0	-0.0	38.8326072693	-125.784370422	51.4856910706	-137.331726074
0.0	-0.0	39.2121391296	-122.622947693	43.5725975037	-139.480072021
0.0	-0.0	39.2765884399	-131.322998047	25.52759552	-130.159561157
0.0	-0.0	39.7308578491	-130.804229736	17.0825195312	-122.432014465
0.0	-0.0	40.4207458496	-129.840698242	18.5843791962	-120.653686523
0.0	-0.0	39.9729309082	-130.589355469	28.8320941925	-129.545593262
0.0	-0.0	39.7100639343	-130.79838562	37.6824913025	-138.552032471
0.0	-0.0	37.4783630371	-129.851623535	51.1807327271	-143.20149231
0.0	-0.0	29.6584510803	-129.046737671	73.4566040039	-149.479354858
0.0	-0.0	19.4668102264	-128.354507446	84.241569519	-151.799499512
0.0	-0.0	11.9782571793	-127.948387146	89.6459274292	-152.425552368
0.0	-0.0	1.65332198143	52.0686721802	88.8540649414	28.4461746216
0.0	0.0	-4.78944683075	52.5508079529	87.7630004883	27.9233970642
0.0	0.0	-14.6421012878	53.2492904663	86.8475418091	26.6191425323
0.0	0.0	-35.5300674438	53.1628875732	85.5709457397	26.82447052
0.0	0.0	-51.6048164368	53.6862297058	84.7340011597	27.5795574188
0.0	0.0	-57.1674308777	54.5797462463	82.830116272	26.3098716736
0.0	0.0	-56.1379470825	55.7736740112	79.9098510742	24.0052146912
0.0	0.0	-57.3376693726	60.9596824646	77.9836883545	18.4735660553
0.0	0.0	-60.4866409302	61.9956092834	80.5466537476	18.1274795532
0.0	0.0	-61.5273780823	62.8876075745	83.573348999	17.0603199005
0.0	0.0	-63.8620872498	61.1291465759	84.535369873	20.5976467133
0.0	0.0	-72.4385147095	62.4547424316	83.494644165	21.1408176422
0.0	0.0	-89.6130981445	63.2062339783	82.9657897949	22.2579021454
0.0	0.0	-104.191101074	64.1701812744	82.3131256104	20.8161048889
0.0	0.0	-105.403266907	71.1014099121	85.5878601074	-2.19404292107
0.0	0.0	-103.148223877	-103.796508789	82.0149383545	145.240402222
0.0	0.0	-101.020935059	-100.97492981	66.2432327271	120.498596191
0.0	0.0	-98.7752838135	-104.010887146	65.3972396851	121.21018219
0.0	0.0	-98.1355514526	-106.418533325	68.2533187866	128.438674927
0.0	0.0	-96.8440170288	-109.388298035	66.1140975952	115.763961792
0.0	0.0	-95.0906295776	-111.587875366	65.8105621338	110.154251099
0.0	0.0	-88.7104873657	-112.155303955	62.9521179199	102.720275879
0.0	0.0	-78.8793716431	-111.139854431	66.4884185791	106.496360779
0.0	0.0	-51.1279945374	-110.787689209	74.0407485962	124.084716797
0.0	0.0	-21.0603046417	-110.738136292	75.0417251587	121.687721252
0.0	0.0	-8.26919746399	-111.846748352	78.4132843018	123.917579651
0.0	0.0	-2.32661032677	-109.762794495	80.0500640869	132.825012207
0.0	0.0	-0.191546946764	-108.930786133	79.5829162598	136.786102295
0.0	0.0	-0.684557020664	-107.506874084	75.3157348633	139.449310303
0.0	0.0	-3.02366733551	-105.505393982	71.0958404541	146.767532349
0.0	0.0	-4.41171741486	-104.154022217	57.4160919189	141.744033813
0.0	0.0	-7.06751918793	-100.946556091	55.4517745972	152.167953491
0.0	0.0	-8.84238910675	-103.06791687	53.1759757996	162.664138794
0.0	0.0	-10.2292413712	-107.891769409	49.5237884521	165.405715942
0.0	0.0	-10.2191028595	-109.918006897	46.1052703857	162.974578857
0.0	0.0	-10.1443948746	-109.963905334	43.8843460083	164.620239258
0.0	0.0	-10.304268837	-112.584266663	41.5281219482	155.565704346
0.0	0.0	-10.4585857391	-114.317634583	39.6761360168	143.50138855
0.0	0.0	-10.6823072433	-117.323776245	37.4747314453	126.060722351
0.0	0.0	-10.52364254	-119.03553772	35.9202346802	100.618087769
0.0	0.0	-10.4719781876	-119.606231689	39.0897407532	84.1281738281
0.0	0.0	-10.7813091278	-120.103721619	40.3320007324	80.5493087769
0.0	0.0	-12.6864156723	-121.139656067	41.631980896	79.1985168457
0.0	0.0	-14.0849399567	-121.39957428	40.6130523682	80.3720474243
0.0	0.0	-14.8285837173	-120.608093262	37.8564300537	82.9908676147
0.0	0.0	-14.9411859512	-119.662521362	34.1725120544	80.8459701538
0.0	0.0	-15.0893421173	-116.9270401	32.4307136536	89.5212020874
0.0	0.0	-14.8888034821	-114.920326233	41.0516204834	124.108390808
0.0	0.0	-14.1618356705	-118.967407227	47.9608726501	158.703094482
0.0	0.0	-13.4136705399	-122.895401001	51.0604515076	-169.42250061
0.0	0.0	-12.3033189774	-127.240394592	51.63256073	-132.758102417
0.0	0.0	-11.5383701324	-128.515075684	48.6375694275	-115.07421875
0.0	0.0	-11.3780498505	-129.258621216	46.6177787781	-119.077362061
0.0	0.0	-11.5985488892	-129.512084961	46.9561653137	-121.392082214
0.0	0.0	-11.9039840698	-131.038787842	48.0311851501	-123.239547729
0.0	0.0	-12.3331155777	-131.945175171	46.9351768494	-128.957015991
0.0	0.0	-12.1930561066	-132.618881226	44.7140617371	-133.840286255
0.0	0.0	-12.6094112396	-132.273345947	39.7957458496	-134.158203125
0.0	0.0	-12.4537324905	-134.740982056	36.3752174377	-133.013748169
0.0	0.0	-12.1054525375	-136.683486938	36.2461013794	-132.506271362
0.0	0.0	-12.537812233	-138.657424927	36.3256187439	-131.667922974
0.0	0.0	-12.0899715424	-139.898086548	36.6387786865	-128.703903198
0.0	0.0	-11.8654499054	-140.034698486	37.3432044983	-124.746665955
0.0	0.0	-12.0924720764	-138.834899902	38.3028488159	-122.890617371
0.0	0.0	-14.6915998459	-138.814727783	38.8081970215	-124.110580444
0.0	0.0	-17.2387199402	-139.451431274	39.6329994202	-125.516319275
0.0	0.0	-21.5709781647	-140.263168335	39.7986335754	-125.758872986
0.0	0.0	-27.2246074677	-140.128448486	40.4015274048	-126.295722961
0.0	0.0	-31.0276012421	-139.939056396	40.6538581848	-126.414421082
0.0	0.0	-30.5292167664	-139.905654907	41.1158485413	-126.520874023
0.0	0.0	-28.0901527405	-139.871002197	41.6355323792	-126.608291626
0.0	0.0	-20.4964256287	-139.890380859	42.466217041	-126.97731781
0.0	0.0	-8.79432010651	-139.277740479	42.4840431213	-128.384109497
0.0	0.0	-0.523284375668	-140.790313721	38.9632759094	-129.509536743
0.0	-0.0	6.50452280045	-140.851119995	40.1510848999	-129.777359009
0.0	-0.0	14.2971162796	-141.876159668	40.999458313	-130.773208618
0.0	-0.0	28.5730075836	-141.377792358	41.8879890442	-130.248687744
0.0	-0.0	44.0163383484	-141.298156738	42.2738265991	-130.290298462
0.0	-0.0	48.4497795105	-141.287597656	42.4927215576	-129.625579834
0.0	-0.0	45.3965492249	-140.630279541	43.1062583923	-128.956176758
0.0	-0.0	37.1204414368	-139.573013306	43.8086929321	-127.756797791
0.0	-0.0	25.4321994781	-140.423095703	43.7506484985	-126.516082764
0.0	-0.0	19.0028362274	-140.547103882	43.8510894775	-127.480201721
0.0	-0.0	18.8123760223	-141.102081299	43.5118026733	-130.630554199
0.0	-0.0	18.711063385	-140.303390503	38.6203460693	-138.456069946
0.0	-0.0	18.2363090515	-131.354415894	29.4023342133	-146.368515015
0.0	-0.0	17.5550174713	-134.626480103	18.1427536011	-153.768173218
0.0	-0.0	17.2252216339	-135.410354614	8.85141372681	-148.021057129
0.0	-0.0	14.9903802872	-134.873428345	3.36051654816	-149.509918213
0.0	-0.0	14.6261854172	-134.493484497	1.53955984116	-147.385101318
0.0	-0.0	14.3417863846	-135.885498047	3.48452568054	-149.406570435
0.0	-0.0	11.4742383957	-135.905075073	6.13259029388	-147.730117798
0.0	-0.0	8.67212677002	-136.315567017	6.39220476151	-146.56010437
0.0	-0.0	3.32457661629	-138.401855469	7.62985038757	-147.059188843
0.0	0.0	-6.90414333344	-139.403396606	8.64120864868	-147.226531982
0.0	0.0	-16.2359924316	-140.199066162	10.0857944489	-147.146484375
0.0	0.0	-18.5510368347	-140.071228027	11.4518566132	-148.060012817
0.0	0.0	-15.9277744293	-140.137756348	11.1652355194	-148.249130249
0.0	0.0	-12.3985929489	-140.479705811	11.3049840927	-147.955917358
0.0	0.0	-6.0448641777	-140.046875	11.9725914001	-147.371200562
0.0	-0.0	1.70129406452	-140.516723633	12.4486026764	-148.12663269
0.0	-0.0	10.7712860107	-140.740524292	12.6013650894	-148.636352539
0.0	-0.0	19.1652069092	-141.623703003	12.6712226868	-149.865402222
0.0	-0.0	27.9218406677	-141.869506836	12.93105793	-150.355880737
0.0	-0.0	32.648311615	-141.657897949	13.6794300079	-150.204849243
0.0	-0.0	31.2902584076	-140.078796387	14.6171731949	-147.437561035
0.0	-0.0	30.5189304352	-139.017730713	14.7644472122	-144.722351074
0.0	-0.0	30.9799842834	-137.977584839	14.5588006973	-141.34487915
0.0	-0.0	31.0942382812	-135.776916504	12.9912471771	-135.694549561
0.0	-0.0	30.7896137238	-132.549499512	10.410651207	-128.593933105
0.0	-0.0	30.6419010162	-130.899337769	11.2075424194	-126.500404358
0.0	-0.0	29.6750526428	-131.371994019	13.4713544846	-126.715400696
0.0	-0.0	32.2884521484	-133.876586914	15.545873642	-125.129875183
0.0	-0.0	34.4019317627	-135.501922607	16.8240642548	-121.916702271
0.0	-0.0	33.8733711243	-133.402801514	17.983921051	-123.339057922
0.0	-0.0	33.7440872192	-132.972885132	20.0011234283	-128.140884399
0.0	-0.0	33.612991333	-132.420303345	19.4282493591	-130.437774658
0.0	-0.0	33.1768913269	-132.262283325	18.6001434326	-130.37046814
0.0	-0.0	33.6128578186	-132.235046387	16.0751304626	-130.040969849
0.0	-0.0	33.5534057617	-132.179244995	14.0547084808	-130.133270264
0.0	-0.0	33.4618606567	-131.09979248	12.5520935059	-130.021957397
0.0	-0.0	33.4740638733	-129.697128296	12.8484163284	-130.559326172
0.0	-0.0	33.2583198547	-130.422836304	20.9425163269	-133.668518066
0.0	-0.0	32.0232963562	-130.718933105	39.2202415466	-136.470581055
0.0	-0.0	32.1367340088	-128.340545654	56.3955574036	-135.588592529
0.0	-0.0	30.813129425	-125.319633484	63.8375816345	-136.552703857
0.0	-0.0	29.1157836914	-124.038070679	68.303565979	-141.310470581
0.0	-0.0	27.4711837769	-122.12512207	54.0802879333	-143.338638306
0.0	-0.0	25.8961486816	-118.730476379	29.952589035	-138.746170044
0.0	-0.0	25.3281078339	-113.582717896	25.4452877045	-131.946640015
0.0	-0.0	23.4927921295	-114.423988342	22.1297931671	-131.25831604
0.0	-0.0	23.3923416138	-113.798454285	23.911611557	-129.73727417
0.0	-0.0	24.2351608276	-114.645446777	26.2929706573	-130.802505493
0.0	-0.0	23.2396335602	-115.334869385	25.642572403	-131.192306519
0.0	-0.0	23.8344364166	-115.980964661	34.4093666077	-136.859725952
0.0	-0.0	22.8459625244	-121.151252747	82.7253417969	-155.55670166
0.0	-0.0	19.1702671051	59.5982284546	70.8047790527	19.9293708801
0.0	-0.0	16.2759742737	62.2396812439	50.7597923279	11.1867465973
0.0	-0.0	13.5335702896	67.1664657593	24.1977310181	-1.30875301361
0.0	-0.0	9.9509935379	64.2907714844	-2.92596435547	5.72065114975
0.0	-0.0	8.10954189301	72.4041824341	-20.736656189	-2.49125909805
0.0	-0.0	7.90151882172	85.9216766357	-34.3084564209	-16.2622127533
0.0	-0.0	6.71304798126	83.8413925171	-40.0086517334	-13.8328876495
0.0	-0.0	6.52085447311	92.5932312012	-39.5103302002	-23.3818664551
0.0	-0.0	6.55427646637	95.9136123657	-30.9395942688	-33.7376403809
0.0	-0.0	7.48366689682	96.3887863159	-21.7151126862	-40.8225708008
0.0	-0.0	7.6197271347	100.194328308	-12.5289001465	-47.4577827454
0.0	-0.0	7.60236644745	99.5762786865	-3.40817928314	-50.6921768188
0.0	-0.0	8.12976646423	98.1187896729	2.80619120598	-49.6488723755
0.0	-0.0	7.39749574661	95.7021560669	2.74583435059	-42.1389045715
0.0	-0.0	5.64201068878	89.6695327759	-1.31566560268	-26.4347229004
0.0	-0.0	2.26181793213	81.4099121094	-1.36224400997	-16.8988113403
0.0	-0.0	4.42796516418	81.8591766357	4.91931390762	-20.5448055267
0.0	-0.0	6.09853219986	84.2666854858	9.42247009277	-21.8039722443
0.0	-0.0	0.537366628647	91.332244873	21.6782073975	-32.9136657715
0.0	-0.0	0.1195923388	89.1951751709	33.6076278687	-30.2896366119
0.0	-0.0	1.32582986355	79.482131958	41.9674110413	-27.970199585
0.0	-0.0	2.64318418503	66.603805542	45.9528274536	-14.0691690445
0.0	-0.0	2.8111770153	63.2367973328	47.1997184753	-6.11196517944
0.0	-0.0	2.35957551003	63.9896774292	56.0857391357	-3.42915892601
0.0	-0.0	3.33487439156	64.9175262451	56.0258712769	-3.67409229279
0.0	-0.0	2.81714987755	66.3015060425	53.8486328125	-4.77282094955
0.0	-0.0	1.30100286007	69.1100006104	50.4922599792	-6.46205425262
0.0	-0.0	0.371103942394	71.573348999	48.3036575317	-7.51478147507
0.0	-0.0	0.575324892998	73.3397216797	45.9658126831	-7.7537689209
0.0	0.0	-0.119923427701	77.4239044189	41.1795349121	-11.2100772858
0.0	-0.0	0.156983658671	69.9424057007	59.2826042175	1.11090326309
0.0	-0.0	0.489005893469	68.6470489502	73.0871963501	17.5888118744
0.0	-0.0	2.25794005394	66.2276306152	79.7929916382	22.533000946
0.0	-0.0	4.63658094406	70.135345459	84.8525772095	20.8256263733
0.0	-0.0	6.67456865311	77.2286605835	89.7585220337	8.14815044403
0.0	-0.0	8.03660964966	-107.226745605	86.1635055542	-167.68170166
0.0	-0.0	7.52931642532	-111.785842896	86.9295349121	-154.759811401
0.0	-0.0	7.34613084793	-112.381492615	88.3070373535	-148.403366089
0.0	-0.0	7.82516384125	-113.646110535	88.2492141724	-139.310562134
0.0	-0.0	7.89065361023	-114.675552368	88.9610290527	-128.923950195
0.0	-0.0	7.30382680893	64.2466964722	89.9931869507	55.4274902344
0.0	-0.0	7.01085710526	61.3306045532	87.9699172974	61.2507781982
0.0	-0.0	6.96334505081	59.6070289612	85.3759231567	64.0412902832
0.0	-0.0	7.82205724716	58.3532562256	81.3941192627	64.4206542969
0.0	-0.0	9.64190387726	56.9638023376	79.1385879517	62.7972869873
0.0	-0.0	10.9860782623	56.1567687988	78.1989593506	62.0437278748
0.0	-0.0	10.8100500107	55.8841781616	77.178565979	59.8886604309
0.0	-0.0	11.3052377701	61.3062171936	86.1307525635	51.8827972412
0.0	-0.0	10.9378404617	-117.239151001	83.873588562	-135.136611938
0.0	-0.0	10.874332428	-118.746940613	73.1331253052	-134.288299561
0.0	-0.0	10.7846441269	-122.715431213	60.320602417	-133.187011719
0.0	-0.0	10.6787424088	-122.608291626	58.424331665	-135.768768311
0.0	-0.0	10.5109624863	-121.480659485	58.0642662048	-134.818649292
0.0	-0.0	12.7695322037	-121.061431885	58.9188156128	-134.284698486
0.0	-0.0	20.8351650238	-122.165855408	59.1680259705	-134.113967896
0.0	-0.0	29.9210166931	-122.425254822	60.5594329834	-133.597503662
0.0	-0.0	39.4141120911	-123.332054138	62.1786231995	-133.539031982
0.0	-0.0	44.9229431152	-124.125137329	64.5116958618	-134.097366333
0.0	-0.0	43.0702476501	-123.744758606	66.1812057495	-133.096786499
0.0	-0.0	35.3735313416	-125.224594116	68.1167526245	-132.186096191
0.0	-0.0	23.5080032349	-130.378219604	69.933631897	-125.887901306
0.0	-0.0	16.1420536041	-130.862503052	69.230430603	-124.812110901
0.0	-0.0	13.0792551041	-128.126083374	68.8078994751	-131.787399292
0.0	-0.0	8.56356620789	-121.339126587	73.7928619385	-164.064254761
0.0	-0.0	3.81549453735	-117.391311646	70.5302200317	151.321563721
0.0	-0.0	1.88334059715	-114.203414917	65.9513549805	135.749710083
0.0	-0.0	0.927976071835	-115.776473999	59.8418121338	127.76852417
0.0	-0.0	0.442777603865	-118.330627441	56.852481842	121.663108826
0.0	0.0	-6.95481967926	-118.963821411	56.000579834	122.253067017
0.0	0.0	-3.69514346123	-119.895645142	54.6903419495	122.424613953
0.0	0.0	-2.73744273186	-123.734527588	60.679145813	154.216751099
0.0	0.0	-1.51216232777	-131.546859741	64.8190383911	-156.575561523
0.0	-0.0	0.0112548628822	-136.89112854	61.2385826111	-131.153457642
0.0	-0.0	0.415534794331	-134.420410156	60.2645187378	-113.651802063
0.0	-0.0	1.26283693314	-133.23046875	60.9092330933	-100.185882568
0.0	-0.0	1.97535097599	-134.162338257	59.3108634949	-83.3177490234
0.0	-0.0	4.19808959961	-137.01739502	58.3773612976	-66.3345718384
0.0	-0.0	5.17911100388	-142.067657471	61.9990959167	-51.174331665
0.0	-0.0	5.73823451996	-146.344802856	66.9702911377	-52.5324935913
0.0	-0.0	5.68137025833	-152.63394165	68.33203125	-43.7879676819
0.0	-0.0	6.24379444122	-169.556335449	66.2415390015	-26.9634799957
0.0	-0.0	6.59395265579	-172.974533081	48.5591011047	-23.9862270355
0.0	-0.0	6.43064498901	-166.261825562	45.5267448425	-36.103187561
0.0	-0.0	6.78624010086	-153.729675293	59.96692276	-66.1654281616
0.0	-0.0	6.94628238678	-157.154953003	68.8405914307	-69.7109298706
0.0	-0.0	7.33540964127	-160.4662323	79.650932312	-66.9776077271
0.0	-0.0	7.58667898178	15.9941978455	86.0861968994	107.985969543
0.0	-0.0	8.10251235962	14.9861974716	66.2500228882	103.697380066
0.0	-0.0	7.94897317886	14.1991376877	45.8608665466	98.4028015137
0.0	-0.0	8.17717266083	12.5505905151	29.9241580963	99.2320251465
0.0	-0.0	8.43689537048	12.683216095	11.245177269	97.1537017822
0.0	-0.0	8.53661346436	13.2609033585	-5.97263383865	95.5760803223
0.0	-0.0	8.51040935516	19.5772361755	-22.1833953857	86.8783187866
0.0	-0.0	8.38768291473	25.6242675781	-36.5013198853	78.0060119629
0.0	-0.0	8.9138841629	32.0996131897	-46.6750106812	69.1349258423
0.0	-0.0	9.8915271759	43.1250534058	-53.9663887024	56.7674255371
0.0	-0.0	10.3321752548	72.1549301147	-60.734790802	25.339673996
0.0	-0.0	10.6039628983	109.804985046	-65.8349227905	-13.5450134277
0.0	-0.0	10.8091878891	145.543258667	-68.936668396	-50.6799621582
0.0	-0.0	11.1099977493	158.863143921	-71.1054077148	-64.7847213745
0.0	-0.0	11.5870895386	145.88583374	-74.2461242676	-50.9855041504
0.0	-0.0	13.3634128571	120.26663208	-76.0161437988	-25.3957710266
0.0	-0.0	14.449508667	113.181243896	-76.0910415649	-19.0396614075
0.0	-0.0	17.8259868622	104.419532776	-75.0241012573	-10.991985321
0.0	-0.0	22.5452804565	102.569709778	-74.1204223633	-9.18953990936
0.0	-0.0	26.2542362213	99.7560272217	-74.9401702881	-5.73772001266
0.0	-0.0	28.4038391113	108.366874695	-73.6121520996	-14.4517498016
0.0	-0.0	27.6539230347	113.96194458	-74.052116394	-20.2823238373
0.0	-0.0	17.8878059387	120.868148804	-73.9755935669	-26.8872203827
0.0	-0.0	9.28486537933	125.721755981	-70.855506897	-32.2267112732
0.0	-0.0	3.43263363838	128.597824097	-69.840713501	-35.8271102905
0.0	-0.0	2.98404216766	119.411064148	-69.7896118164	-27.6163520813
0.0	-0.0	2.61144638062	117.400428772	-69.2470855713	-25.4622459412
0.0	0.0	-8.04171657562	117.574691772	-69.1774520874	-25.0457878113
0.0	0.0	-35.9068717957	115.866325378	-68.7794036865	-23.0061283112
0.0	0.0	-71.1793746948	119.150047302	-68.4975357056	-26.4618244171
0.0	0.0	-116.08467865	120.20464325	-67.976020813	-27.931936264
0.0	-0.0	-126.594650269	128.79675293	-68.6339111328	-36.7403450012
0.0	-0.0	-125.354621887	132.625152588	-66.9420394897	-41.3592414856
0.0	-0.0	-127.301696777	135.214935303	-67.877204895	-43.1619758606
0.0	-0.0	-125.553833008	132.543457031	-67.2002944946	-39.6773490906
0.0	-0.0	-124.803253174	130.2762146	-66.9396972656	-37.3246688843
0.0	-0.0	-125.224029541	130.590667725	-67.1260223389	-37.5228996277
0.0	-0.0	-125.799545288	131.07182312	-66.694694519	-38.0633926392
0.0	-0.0	-125.348327637	131.745254517	-66.1433563232	-38.7501182556
0.0	0.0	-118.651832581	130.861236572	-66.8357086182	-38.1586532593
0.0	0.0	-103.109703064	127.622016907	-67.670425415	-35.022693634
0.0	0.0	-89.4779434204	123.811019897	-67.1445617676	-31.535785675
0.0	0.0	-83.9172668457	121.065261841	-66.9465637207	-29.0794754028
0.0	0.0	-80.159324646	119.293174744	-66.381729126	-27.2006874084
0.0	0.0	-78.2193450928	118.740867615	-65.9509124756	-26.3913497925
0.0	0.0	-75.3086776733	117.046310425	-65.7077026367	-24.8315296173
0.0	0.0	-69.5032730103	116.8307724	-66.1650695801	-24.8055973053
0.0	0.0	-59.8914642334	111.320846558	-66.6397323608	-20.2332019806
0.0	0.0	-53.0749435425	110.343933105	-66.8265228271	-19.8760070801
0.0	0.0	-46.0182189941	109.696159363	-66.8404083252	-19.4284095764
0.0	0.0	-31.3411502838	112.651489258	-67.2386474609	-22.5873146057
0.0	0.0	-12.3711147308	114.826675415	-67.4775390625	-24.4592876434
0.0	-0.0	16.3003044128	118.554672241	-66.3106307983	-27.8478107452
0.0	-0.0	46.3563995361	116.922447205	-65.7311401367	-25.7612094879
0.0	-0.0	61.3995246887	116.957260132	-64.497467041	-25.2397441864
0.0	-0.0	89.2730789185	126.723991394	-64.2843093872	-35.0175437927
0.0	-0.0	90.4225234985	123.072807312	-61.7501068115	-32.9598350525
0.0	-0.0	78.6563644409	123.025001526	-63.1480903625	-32.3404159546
0.0	-0.0	72.8061141968	114.071716309	-62.4031562805	-23.3373413086
0.0	-0.0	70.3540878296	108.551078796	-61.3621368408	-17.7524814606
0.0	-0.0	66.1012802124	104.842803955	-60.2573738098	-13.9758548737
0.0	-0.0	62.1841850281	90.9748687744	-59.0371398926	-0.0480859614909
0.0	-0.0	60.6769714355	78.5871505737	-56.3625259399	13.3486204147
0.0	-0.0	59.3356285095	60.9222793579	-49.1198883057	32.6560821533
0.0	-0.0	59.3718643188	39.7785682678	-38.5159873962	58.5380744934
0.0	-0.0	60.1552200317	21.2350978851	-26.6256275177	82.0911102295
0.0	-0.0	61.6166191101	14.2423505783	-18.8912887573	90.6893692017
0.0	-0.0	62.6690750122	8.47501373291	-15.4536314011	99.7744674683
0.0	-0.0	64.308883667	8.31544017792	-15.8513021469	99.3781585693
0.0	-0.0	67.8654327393	7.01429462433	-17.6873016357	100.858856201
0.0	-0.0	68.0146560669	6.57459163666	-17.0430393219	100.474655151
0.0	-0.0	67.7707214355	6.293405056	-17.3158435822	100.51726532
0.0	-0.0	67.3743057251	6.28780460358	-17.2816181183	100.062133789
0.0	-0.0	67.9769134521	5.8845949173	-17.4430904388	101.347389221
0.0	-0.0	69.9894866943	6.3062748909	-17.9735031128	100.900856018
0.0	-0.0	70.3969497681	5.53330421448	-17.524766922	101.30393219
0.0	-0.0	71.3234405518	3.36629056931	-17.4761066437	103.861946106
0.0	-0.0	72.7852096558	-0.335799813271	-16.6239452362	109.20879364
0.0	-0.0	73.7219314575	-0.113385222852	-17.0751724243	108.773658752
0.0	-0.0	74.2309799194	-0.277134478092	-17.2203063965	109.166404724
0.0	-0.0	74.4630203247	-1.49759709835	-17.0723648071	109.788238525
0.0	-0.0	75.1750717163	-3.22481632233	-16.9794082642	111.386329651
0.0	-0.0	75.3686599731	-5.25386142731	-17.6797351837	113.471870422
0.0	-0.0	75.5497741699	-5.97099590302	-17.9293842316	113.819961548
0.0	-0.0	75.3575897217	-5.72900819778	-18.0300235748	113.461410522
0.0	-0.0	75.0302352905	-4.59234571457	-18.168598175	112.11907196
0.0	-0.0	75.3498764038	-4.64056396484	-18.2981491089	112.150497437
0.0	-0.0	75.9346542358	-6.25669050217	-19.4641895294	113.387710571
0.0	-0.0	76.7775344849	-7.89392900467	-20.0495300293	115.091423035
0.0	-0.0	77.4359893799	-7.96334838867	-20.2232894897	115.188964844
0.0	-0.0	78.0855331421	-7.7838344574	-20.1537017822	114.893112183
0.0	-0.0	77.8867492676	-7.3591375351	-20.2577133179	114.343391418
0.0	-0.0	78.4532318115	-8.87267398834	-20.6016578674	115.590644836
0.0	-0.0	79.2800750732	-9.70610046387	-20.7734298706	116.428977966
0.0	-0.0	80.3041534424	-9.52479839325	-21.0196743011	116.001525879
0.0	-0.0	80.9966583252	-9.36597919464	-20.7132053375	115.713272095
0.0	-0.0	81.3366012573	-9.7689781189	-20.7691802979	116.236991882
0.0	-0.0	80.9721832275	-9.25791549683	-20.4852981567	115.362243652
0.0	-0.0	81.3289108276	-9.09726715088	-21.267906189	114.159576416
0.0	-0.0	81.0810852051	-10.3699827194	-22.2177257538	115.0965271
0.0	-0.0	80.845489502	-10.2802419662	-24.578918457	114.336700439
0.0	-0.0	80.6629562378	-10.7475509644	-26.4874267578	113.938804626
