-0.279192358255	-75.1881256104	132.393341064	1.89772379398	1.10025811195	-5.21056985855
0.95316272974	-74.9987182617	130.395370483	1.9531056881	1.12215530872	-5.35007715225
7.3110666275	-73.1333236694	116.321586609	1.82164943218	1.46697247028	-5.30310487747
11.7039575577	-67.4334335327	103.413017273	1.57424807549	2.67094922066	-5.04257965088
20.1271095276	-64.8353805542	87.2261123657	1.87580037117	3.70072174072	-4.97151184082
23.7636680603	-63.5478744507	77.637046814	3.32856488228	4.32547855377	-5.3844628334
21.4101219177	-64.0280456543	78.4537277222	5.73482322693	4.19537210464	-5.65357637405
17.3505573273	-64.4716339111	76.5977706909	7.63447237015	3.69266533852	-5.8347530365
16.2298851013	-64.3983917236	74.1641921997	9.04093647003	2.99901294708	-6.05251502991
16.9038143158	-64.6542129517	73.8489608765	11.0246343613	2.3004128933	-6.16227149963
