0.167774677277	1.27425169945	0.145696163177	0.00656867027283	1.5377099514	-0.0903276205063
0.168244838715	1.27446126938	0.145507574081	0.0072979927063	1.53757619858	-0.0907521247864
0.166783332825	1.27331221104	0.146452188492	0.0067925453186	1.5377010107	-0.0910581350327
0.163350105286	1.27021980286	0.148853063583	0.00509738922119	1.53762197495	-0.0908099412918
0.159384012222	1.26812052727	0.149052500725	0.00153040885925	1.53767740726	-0.0909378528595
0.156441688538	1.26675617695	0.149505615234	-0.00281953811646	1.53822493553	-0.0912692546844
0.155199289322	1.26622259617	0.149609565735	-0.00731325149536	1.53894007206	-0.0923161506653
0.15188741684	1.2654312849	0.149357438087	-0.0109672546387	1.54020297527	-0.0938351154327
0.147704124451	1.26408421993	0.148045897484	-0.0143480300903	1.54153859615	-0.0960067510605
0.145907878876	1.26535737514	0.146312355995	-0.0173344612122	1.54332637787	-0.0979537963867
0.14430475235	1.26693844795	0.144733309746	-0.0193963050842	1.54546272755	-0.100181341171
0.144470453262	1.26857793331	0.143999099731	-0.0204348564148	1.54774522781	-0.102489948273
0.144159317017	1.26939797401	0.144077539444	-0.0205643177032	1.55013012886	-0.104603052139
0.142921447754	1.26941883564	0.144258260727	-0.0203969478607	1.55192601681	-0.106820821762
0.140045881271	1.26932811737	0.14348256588	-0.0200955867767	1.55285167694	-0.108970522881
0.14064002037	1.26954293251	0.143603205681	-0.0200614929199	1.55286586285	-0.110577821732
0.141710758209	1.26976966858	0.143247365952	-0.0198447704315	1.55280137062	-0.112016201019
0.142566919327	1.27011215687	0.142839312553	-0.0195496082306	1.55244314671	-0.112833857536
0.143030881882	1.27037763596	0.142025589943	-0.0197377204895	1.55214834213	-0.114266395569
