0.0	-0.0	131.210372925	-125.944572449	87.3673782349	166.791473389
0.0	-0.0	127.338523865	-126.694297791	87.009147644	166.770599365
0.0	-0.0	127.854393005	-127.511306763	87.0847015381	166.700637817
0.0	-0.0	120.669494629	-127.490264893	86.7805175781	166.631637573
0.0	-0.0	116.771362305	-125.487991333	86.2454452515	166.53163147
0.0	-0.0	96.2235946655	-120.467765808	85.7426376343	165.579803467
0.0	-0.0	72.5855178833	-114.936408997	84.8972625732	163.90675354
0.0	-0.0	58.6522254944	-109.100624084	84.6424026489	162.795135498
0.0	-0.0	53.0565910339	-105.89805603	85.5750045776	164.112487793
0.0	-0.0	56.9131546021	-104.891036987	86.9915390015	164.999862671
0.0	-0.0	64.6174240112	-104.885063171	87.2832870483	164.574539185
0.0	-0.0	68.467880249	-103.829856873	87.269493103	163.895080566
