-4.13315868378	-72.8669204712	147.167556763	3.22086763382	-0.267400205135	-4.35846710205
-3.30096578598	-72.9146652222	146.12071228	3.44648241997	-0.331624060869	-4.46626567841
-2.53498077393	-72.9210510254	145.341262817	3.67553806305	-0.264945030212	-4.50610303879
-1.38297379017	-73.0272674561	144.145812988	3.69609761238	-0.235879465938	-4.48274850845
-0.836499333382	-73.1798400879	143.395462036	3.66039156914	-0.207971379161	-4.47304010391
2.62492823601	-74.4725265503	134.030288696	3.69529747963	-0.217814832926	-4.36702919006
6.06549453735	-74.4750213623	123.496658325	3.54845809937	-0.58514291048	-4.33063745499
10.8774681091	-76.0024490356	114.763458252	3.70964121819	-1.74811029434	-4.28543233871
19.8509311676	-79.6509628296	99.9281539917	3.95932984352	-3.1807103157	-4.3145275116
35.4907226562	-82.4508590698	77.7833557129	4.27940273285	-4.65226697922	-4.30497217178
51.7317123413	-82.3680038452	53.6781158447	4.41309547424	-5.64744234085	-4.32428264618
51.8004074097	-83.5380401611	45.7362976074	4.37747383118	-6.63512992859	-4.26662254333
52.7598991394	-85.3930358887	37.8823928833	3.93166565895	-7.5736322403	-4.05412340164
58.8949127197	-87.4251861572	28.2541542053	3.20965480804	-7.67176055908	-3.84338521957
33.6059684753	-87.2598571777	50.5906600952	2.63262319565	-7.40820837021	-3.55610013008
20.4851665497	-86.8426513672	64.2369842529	2.47553277016	-7.38593578339	-3.47631454468
25.1977214813	-87.4323959351	59.6154403687	2.43858385086	-7.39563369751	-3.30187869072
38.4366874695	-87.8265228271	45.9234733582	2.41014695168	-7.17605733871	-3.25922369957
27.3584537506	-86.4300537109	56.0386161804	2.54349946976	-7.0762295723	-3.27338767052
17.2294464111	-82.1168746948	65.3701553345	2.72735238075	-6.9982252121	-3.36739969254
25.6133918762	-80.7381973267	58.8051948547	2.74758386612	-6.96149969101	-3.40167713165
26.8026809692	-79.6546020508	56.7137145996	2.66245079041	-6.78640270233	-3.41027331352
23.9651012421	-78.0109176636	56.7900657654	2.57127308846	-6.48366165161	-3.24846291542
18.8815021515	-74.1657180786	58.3555793762	2.38236427307	-6.35648155212	-3.16148972511
16.4715003967	-71.3439102173	59.7203292847	2.33877301216	-6.29839706421	-3.14741826057
16.1653881073	-67.5623626709	56.7757759094	2.51937437057	-6.02156591415	-3.10768866539
16.427192688	-63.9087753296	53.3062133789	2.69608783722	-5.94167089462	-3.12078142166
19.7974014282	-63.1916465759	49.2307128906	2.67392659187	-6.32383298874	-3.11846160889
19.8017120361	-63.4810905457	51.0333595276	2.43076610565	-7.12662363052	-3.05247926712
20.6207695007	-62.8257141113	50.4435501099	1.82100117207	-8.88735103607	-2.91109895706
19.7092952728	-63.5058479309	52.579750061	1.64756250381	-10.835855484	-3.17320775986
20.1110363007	-63.9001617432	52.0551109314	2.17960524559	-13.37129879	-3.60280036926
19.1150550842	-63.9453735352	53.6078910828	2.96305513382	-15.0672578812	-4.15714359283
18.3085842133	-64.3160400391	54.9715690613	3.70451545715	-16.2551422119	-4.52493667603
17.7915401459	-64.2347106934	55.7830467224	4.67617464066	-18.3768806458	-5.11588668823
