0.0	-0.0	138.143234253	-125.064231873	86.633605957	168.608779907
0.0	-0.0	138.37121582	-124.824172974	87.0503921509	168.35874939
0.0	-0.0	137.221237183	-124.735839844	87.2736968994	168.705627441
0.0	-0.0	131.261688232	-124.558822632	87.7948379517	168.692687988
0.0	-0.0	120.09324646	-123.195053101	88.9413986206	168.490722656
0.0	-0.0	104.439750671	59.4947624207	89.067565918	-11.6254701614
0.0	-0.0	100.730606079	62.7479362488	86.1671295166	-12.3502340317
0.0	-0.0	97.4343643188	66.6648483276	82.6560897827	-13.9145107269
0.0	-0.0	95.5760192871	71.5594329834	79.3960952759	-15.2004890442
0.0	-0.0	93.0090255737	76.6279220581	76.3137512207	-16.2666873932
0.0	-0.0	92.7253799438	81.5667648315	73.8286132812	-17.4632606506
0.0	-0.0	93.8081665039	86.9373474121	70.7989883423	-18.9458465576
