0.0	-0.0	139.46434021	52.331817627	89.2325744629	-12.4635705948
0.0	-0.0	136.239837646	54.155166626	89.2552108765	-13.2786808014
0.0	-0.0	135.815795898	55.3298950195	89.367515564	-13.8263788223
0.0	-0.0	135.910842896	55.1950416565	89.9781417847	-13.4844360352
0.0	-0.0	135.374954224	-126.163009644	88.9123840332	166.853302002
0.0	-0.0	134.339294434	-129.468414307	85.5237731934	168.419464111
0.0	-0.0	135.05619812	-134.827148438	80.4663619995	170.77645874
0.0	-0.0	131.835784912	-139.712768555	73.4661407471	172.942474365
0.0	-0.0	128.719665527	-142.528518677	66.8121337891	174.440612793
0.0	-0.0	131.011642456	-144.839370728	59.6309890747	176.56199646
0.0	-0.0	130.58366394	-146.794998169	52.0321159363	177.837173462
0.0	-0.0	130.887054443	-148.490875244	44.2068786621	179.693695068
0.0	-0.0	129.226272583	-149.95880127	38.2197494507	-178.76902771
0.0	-0.0	117.23903656	-150.97114563	36.0451164246	-177.953735352
0.0	-0.0	114.563117981	-151.211425781	34.9836921692	-177.480773926
0.0	-0.0	114.034614563	-151.69519043	33.476600647	-177.203079224
0.0	-0.0	116.343780518	-152.7371521	32.0082969666	-176.993728638
0.0	-0.0	119.242385864	-153.692886353	31.2193775177	-176.577636719
0.0	-0.0	117.543960571	-153.449569702	31.0376720428	-176.696899414
0.0	-0.0	109.489074707	-152.638961792	30.9644031525	-176.855575562
0.0	-0.0	99.1399230957	-151.922225952	31.1914634705	-177.225906372
0.0	-0.0	88.2112884521	-151.767745972	31.7357387543	-177.622528076
0.0	-0.0	81.4472351074	-152.224685669	31.798992157	-177.481643677
0.0	-0.0	78.9963989258	-153.066848755	31.1325531006	-177.856948853
0.0	-0.0	78.9354019165	-152.881057739	30.8482055664	-177.782592773
0.0	-0.0	77.4440460205	-152.500106812	30.1436958313	-177.925506592
0.0	-0.0	71.2743682861	-151.754211426	29.7223014832	-177.689727783
0.0	-0.0	66.4658737183	-152.016448975	29.1827430725	-177.662109375
0.0	-0.0	67.337890625	-153.17855835	27.6802253723	-176.553375244
0.0	-0.0	66.7048339844	-157.258758545	26.2986946106	-176.144180298
0.0	-0.0	68.4471893311	-160.310974121	23.8589515686	-175.32572937
