0.0	-0.0	140.648727417	-126.458946228	89.1499099731	164.730895996
0.0	-0.0	138.780288696	-125.840034485	89.0436477661	164.672637939
0.0	-0.0	137.451980591	-125.80431366	89.0342025757	164.556381226
0.0	-0.0	122.303443909	-125.783836365	89.5662155151	164.684844971
0.0	-0.0	97.5121459961	54.6400489807	86.817565918	-15.1084957123
0.0	-0.0	80.0826873779	55.1871643066	80.599822998	-14.5106315613
0.0	-0.0	61.5422172546	54.4215965271	74.730430603	-13.8844137192
0.0	-0.0	66.8562469482	53.4453811646	66.0311279297	-14.2499580383
0.0	-0.0	73.0950164795	53.31016922	56.9621047974	-15.794960022
0.0	-0.0	80.1675262451	54.6850624084	50.2214851379	-17.1263217926
0.0	-0.0	80.5257415771	57.9010009766	45.6546516418	-18.8302707672
0.0	-0.0	81.7232589722	62.4429244995	39.0351791382	-20.6389579773
0.0	-0.0	83.3336715698	65.9067993164	33.7547264099	-21.7358474731
0.0	-0.0	86.0524215698	71.2608795166	30.665222168	-23.3326644897
0.0	-0.0	84.313041687	77.7910385132	30.2448539734	-25.7997016907
0.0	-0.0	82.3010940552	80.5642623901	30.9293231964	-27.8705463409
0.0	-0.0	88.124961853	78.9807891846	31.1029777527	-27.3369178772
0.0	-0.0	81.3341217041	77.0826263428	31.0201702118	-26.4222564697
0.0	-0.0	81.0475082397	77.570930481	30.8953266144	-26.3563709259
0.0	-0.0	81.7263717651	77.6067199707	31.4693717957	-26.3126430511
0.0	-0.0	83.424079895	77.033821106	31.677406311	-25.7366523743
0.0	-0.0	87.1669311523	75.1125869751	33.0256462097	-24.0735187531
0.0	-0.0	92.6407012939	74.2828369141	34.4911079407	-22.9235973358
0.0	-0.0	91.4416732788	74.3112945557	34.9774856567	-22.751241684
0.0	-0.0	86.5471801758	73.7721557617	35.0516586304	-22.7918224335
0.0	-0.0	85.8711776733	73.3807067871	34.8977661133	-23.278421402
0.0	-0.0	85.8074798584	73.2317657471	34.2266921997	-23.2898902893
0.0	-0.0	85.4664306641	73.1884307861	33.8102531433	-23.0383682251
0.0	-0.0	84.1140594482	73.911315918	33.0435180664	-23.2421150208
