0.0	-0.0	139.362289429	-119.657325745	84.8067092896	168.299484253
0.0	-0.0	139.802703857	-119.791175842	84.4777526855	168.469451904
0.0	-0.0	139.640182495	-120.031806946	84.899559021	168.453521729
0.0	-0.0	138.577804565	-121.267883301	84.7209396362	168.249542236
0.0	-0.0	137.175308228	-126.173706055	83.1194458008	169.230361938
0.0	-0.0	137.574111938	-135.401123047	80.0480194092	170.959655762
0.0	-0.0	137.70362854	-146.622192383	75.2656402588	173.200424194
0.0	-0.0	138.405105591	-156.028091431	68.4688339233	176.301147461
0.0	-0.0	138.678405762	-161.362182617	61.5212936401	179.064041138
0.0	-0.0	137.986419678	-163.444290161	56.4126167297	-179.391708374
0.0	-0.0	128.125991821	-162.855392456	53.7903709412	-179.1302948
0.0	-0.0	116.480110168	-161.504272461	53.2290802002	-179.096435547
0.0	-0.0	116.88167572	-160.797210693	52.7675628662	-179.151031494
0.0	-0.0	117.379997253	-161.0184021	51.8624420166	-179.144958496
0.0	-0.0	115.481231689	-162.216705322	50.2754096985	-178.784362793
0.0	-0.0	115.799942017	-164.600769043	48.2547912598	-178.326889038
0.0	-0.0	116.591941833	-166.471359253	45.3454284668	-178.066696167
0.0	-0.0	117.01499176	-166.915985107	42.3511581421	-177.474014282
0.0	-0.0	117.111251831	-166.993728638	38.8856163025	-176.457260132
0.0	-0.0	116.839645386	-167.139480591	35.6675834656	-175.190353394
0.0	-0.0	109.599075317	-167.066848755	33.6266288757	-173.98651123
