0.0	-0.0	132.919143677	74.7258834839	73.1797866821	11.2807512283
0.0	-0.0	132.898010254	75.0734405518	72.8334884644	11.6650047302
0.0	-0.0	131.581634521	73.3619155884	72.7618408203	12.1203374863
0.0	-0.0	127.52104187	67.8838882446	73.5861206055	11.7397403717
0.0	-0.0	123.071289062	66.4743118286	73.3532104492	11.2005853653
0.0	-0.0	123.85370636	66.8989868164	70.8508834839	7.62298297882
0.0	-0.0	124.283103943	65.6676330566	66.2183761597	-7.08498716354
0.0	-0.0	120.354644775	66.1441345215	58.2652664185	-13.1584634781
0.0	-0.0	110.127670288	67.5355300903	51.4498291016	-10.9257564545
0.0	-0.0	96.9878768921	68.3258285522	46.868888855	-10.5771131516
0.0	-0.0	80.5362625122	71.0665359497	38.8524627686	-12.2201519012
0.0	-0.0	65.1743621826	73.1988677979	31.665555954	-14.8900346756
0.0	-0.0	55.3769302368	75.6325149536	27.7949924469	-16.4323101044
0.0	-0.0	51.1878395081	77.4262008667	26.7368659973	-17.3647632599
0.0	-0.0	50.3429756165	78.1765975952	26.2958030701	-17.3467521667
0.0	-0.0	50.7354774475	78.8245544434	25.8621139526	-18.7314567566
0.0	-0.0	48.8555717468	79.2868423462	25.3046455383	-18.5093784332
0.0	-0.0	46.8177223206	81.10206604	26.1597270966	-20.7312870026
0.0	-0.0	46.9863166809	84.0723419189	28.6312084198	-25.9962539673
0.0	-0.0	46.6359977722	86.9296340942	28.0955753326	-27.3908691406
0.0	-0.0	45.5948829651	87.6527175903	27.589099884	-28.0506515503
0.0	-0.0	44.9458999634	90.1572570801	26.2678928375	-30.1751937866
0.0	-0.0	44.9243927002	94.3853149414	25.1997680664	-34.1984024048
0.0	-0.0	44.60414505	97.5900344849	25.4311161041	-36.4857025146
0.0	-0.0	44.6040916443	98.3563995361	26.3944168091	-37.1098136902
0.0	-0.0	44.8674468994	96.6847381592	29.5424823761	-35.6620178223
0.0	-0.0	45.1875991821	96.2971878052	31.7013320923	-31.8434963226
0.0	-0.0	45.4671211243	96.8046951294	29.427646637	-32.0568275452
0.0	-0.0	45.6453704834	95.7229766846	27.7529945374	-31.5251293182
0.0	-0.0	45.3915596008	97.548210144	20.7305049896	-32.3883781433
0.0	-0.0	45.1867866516	100.124809265	10.8332986832	-37.6421775818
0.0	-0.0	45.1277122498	104.320487976	-2.48918128014	-37.3281555176
0.0	-0.0	44.7442321777	110.039161682	-10.810716629	-43.3867721558
0.0	-0.0	45.2311668396	118.20149231	-18.3472747803	-52.1191139221
0.0	-0.0	45.2743339539	125.774391174	-24.6992740631	-60.0225105286
0.0	-0.0	45.3504753113	132.771499634	-30.2600154877	-65.9656677246
0.0	-0.0	45.0561103821	136.1224823	-32.524684906	-69.5214157104
0.0	-0.0	44.8743133545	137.946517944	-37.6445922852	-72.2227401733
0.0	-0.0	45.1429748535	140.949295044	-41.8793792725	-77.5662841797
0.0	-0.0	45.4236907959	157.300262451	-47.5486450195	-93.0953826904
0.0	-0.0	45.6848602295	147.966918945	-46.1659240723	-86.1486663818
0.0	-0.0	45.608165741	138.252441406	-46.3223457336	-75.0792541504
0.0	-0.0	45.6676864624	135.078857422	-46.840927124	-72.9900131226
0.0	-0.0	46.3328170776	132.990432739	-46.7739906311	-70.5056304932
0.0	-0.0	46.9736289978	135.281845093	-46.8940925598	-72.1392822266
0.0	-0.0	46.6222724915	131.254211426	-43.776309967	-67.9771118164
0.0	-0.0	46.8052558899	120.675621033	-38.7519378662	-54.7574691772
0.0	-0.0	47.0217018127	113.280776978	-36.5120811462	-47.5776901245
0.0	-0.0	47.0779953003	108.999526978	-35.7693977356	-43.5600891113
0.0	-0.0	47.6918983459	105.245681763	-34.1025733948	-39.7010993958
0.0	-0.0	47.5970497131	102.112266541	-31.6243171692	-36.3747215271
0.0	-0.0	47.4700279236	99.0852127075	-27.5102119446	-32.3647956848
0.0	-0.0	49.6067390442	96.6350250244	-22.8873748779	-29.4129905701
0.0	-0.0	54.4611778259	92.5943832397	-19.0419101715	-25.8452568054
0.0	-0.0	59.0565452576	90.9117126465	-19.4082641602	-24.0616722107
0.0	-0.0	73.1951522827	89.4497833252	-20.391998291	-22.7443637848
0.0	-0.0	95.4638824463	90.6982345581	-19.975194931	-23.9894371033
0.0	-0.0	121.300712585	91.694190979	-18.3891010284	-24.8150653839
0.0	-0.0	123.610206604	88.0529785156	-17.405008316	-22.2746238708
0.0	-0.0	115.110267639	89.6915664673	-17.6041030884	-23.7561454773
0.0	-0.0	112.50868988	89.136756897	-14.6836547852	-25.9912986755
0.0	-0.0	111.309135437	81.5214767456	-8.14151096344	-20.4964256287
0.0	-0.0	107.356719971	74.0748748779	-4.46120500565	-12.5339317322
0.0	-0.0	105.119354248	59.1304016113	8.89804077148	4.69068431854
0.0	-0.0	104.705253601	48.5731773376	35.6916389465	20.8779468536
0.0	-0.0	104.544563293	45.975856781	51.6524429321	26.7543239594
0.0	-0.0	104.080093384	44.9668540955	56.3356552124	28.9147357941
0.0	-0.0	103.9504776	38.2398719788	53.0901985168	36.518989563
0.0	-0.0	103.695022583	30.2261276245	43.7389564514	40.6999664307
0.0	-0.0	102.729164124	23.2775764465	38.1492996216	40.3014373779
0.0	-0.0	101.6745224	16.625957489	34.741104126	38.6025390625
0.0	-0.0	91.3994674683	14.6658916473	31.5513076782	34.3134117126
0.0	-0.0	76.9625473022	14.2242574692	29.2122020721	26.542842865
0.0	-0.0	68.414680481	10.9304971695	26.8051052094	32.5160217285
0.0	-0.0	58.1518630981	12.0783672333	23.985168457	33.7551231384
0.0	-0.0	44.063949585	17.6067714691	20.2968292236	27.5626220703
0.0	-0.0	34.3054275513	20.6473083496	19.3024749756	26.0297527313
0.0	-0.0	32.9575157166	20.9837379456	18.3387756348	23.0024242401
0.0	-0.0	33.3003082275	15.7184076309	19.045343399	29.4894924164
0.0	-0.0	30.5841445923	19.2913856506	17.1048126221	27.2596950531
0.0	-0.0	27.1751213074	21.7736530304	16.7064819336	25.4254837036
0.0	-0.0	26.3648586273	21.4644966125	18.0082702637	26.4931411743
0.0	-0.0	26.7925434113	18.6285457611	21.1449604034	29.8642597198
0.0	-0.0	27.1801662445	21.8473167419	33.0923194885	28.8677387238
0.0	-0.0	28.3207550049	21.5560951233	46.8964157104	33.1844177246
0.0	-0.0	29.8717594147	23.3381977081	54.8067741394	24.7869873047
0.0	-0.0	30.4071769714	22.0435562134	52.0434341431	25.3062038422
0.0	-0.0	31.3798828125	21.7185726166	45.66563797	19.6518630981
0.0	-0.0	32.4194755554	18.9648933411	41.075756073	23.0913562775
0.0	-0.0	33.3792381287	22.1874217987	36.9018554688	19.4878807068
0.0	-0.0	33.5307846069	22.9560661316	38.9618644714	19.4737071991
0.0	-0.0	33.9365577698	24.8135738373	48.8271980286	22.2457065582
0.0	-0.0	34.0216827393	30.3427715302	60.9358024597	20.719619751
0.0	-0.0	33.591594696	34.632194519	68.4051513672	22.0989189148
0.0	-0.0	33.5457420349	36.5333213806	73.4552459717	20.5727310181
0.0	-0.0	33.6118621826	36.091758728	77.2656936646	22.0802898407
0.0	-0.0	34.0585289001	35.1376037598	80.5826721191	22.1322288513
0.0	-0.0	37.2524490356	34.3176498413	81.6811065674	22.378200531
0.0	-0.0	38.7544059753	34.105430603	82.0740203857	22.9116439819
0.0	-0.0	40.0547790527	34.0397834778	82.9480819702	25.6273937225
0.0	-0.0	41.5435256958	32.354598999	82.7440490723	27.8127479553
0.0	-0.0	44.0995483398	28.5440979004	81.1383743286	32.4119720459
0.0	-0.0	52.1611633301	27.0553684235	78.6989212036	31.7616691589
0.0	-0.0	60.9612579346	24.6588306427	75.6277999878	32.3784065247
0.0	-0.0	67.9304275513	26.4025382996	72.5323104858	30.5222187042
0.0	-0.0	66.2227935791	29.119430542	83.6300201416	39.5335922241
0.0	-0.0	65.57447052	-147.261535645	87.2014770508	-135.940536499
0.0	-0.0	65.993057251	-145.746200562	82.2139892578	-129.777648926
0.0	-0.0	64.999382019	-146.35559082	78.9713134766	-130.264694214
0.0	-0.0	64.1245346069	-148.029525757	73.3715820312	-125.808013916
0.0	-0.0	64.1291275024	-149.19934082	73.524597168	-130.770797729
0.0	-0.0	62.4013557434	-150.847244263	83.3280029297	-141.73538208
0.0	-0.0	53.5914001465	25.8258056641	82.4822692871	29.0417690277
0.0	-0.0	37.1458053589	29.4318885803	61.2306518555	18.4754142761
0.0	-0.0	22.560049057	37.9578323364	32.1807556152	4.29199314117
0.0	-0.0	11.9568710327	62.9159507751	2.18186354637	-28.5689983368
0.0	-0.0	5.80627822876	110.813514709	-15.55671978	-80.293510437
0.0	-0.0	1.76899313927	146.273834229	0.409248530865	-116.630310059
0.0	0.0	-1.24331271648	147.148681641	14.841383934	-117.524230957
0.0	0.0	-4.92095804214	144.432144165	10.8616714478	-107.895797729
0.0	0.0	-9.14637851715	142.526367188	9.82049274445	-106.635551453
0.0	0.0	-15.348118782	142.787216187	6.29696512222	-107.209259033
0.0	0.0	-21.6855754852	142.165679932	1.42596507072	-109.141906738
0.0	0.0	-25.8226242065	140.272323608	-1.15319740772	-110.200927734
0.0	0.0	-28.0649185181	136.556381226	-5.31404256821	-108.179779053
0.0	0.0	-31.4832763672	131.864822388	-9.89676189423	-108.761688232
0.0	0.0	-37.5170783997	126.108184814	-10.4270248413	-113.18927002
0.0	0.0	-46.6278877258	124.533065796	-10.9852962494	-110.414161682
0.0	0.0	-55.0425796509	124.500915527	-10.416053772	-108.774131775
0.0	0.0	-66.951171875	123.661460876	-10.7242279053	-107.470001221
0.0	0.0	-74.2382736206	123.404960632	-11.5198717117	-106.944923401
0.0	0.0	-80.6563415527	122.164970398	-13.4601373672	-107.537162781
0.0	0.0	-84.3701248169	116.466362	-16.1059341431	-104.535202026
0.0	0.0	-83.5121994019	116.349555969	-15.8834705353	-103.022705078
0.0	0.0	-82.2320251465	115.227638245	-14.6897144318	-96.667755127
0.0	0.0	-81.1506958008	100.320091248	-8.874168396	-71.2998809814
0.0	0.0	-80.2722320557	77.7640533447	1.00482690334	-43.405632019
0.0	0.0	-78.9592666626	56.5732345581	3.6312725544	-24.0718021393
0.0	0.0	-77.5736999512	52.1341629028	-2.58200073242	-21.3005256653
0.0	0.0	-76.9324645996	71.1298065186	-21.5788192749	-39.2991409302
0.0	0.0	-76.6987228394	96.7141036987	-34.1103477478	-58.1500205994
0.0	0.0	-76.3676071167	125.378311157	-42.143573761	-82.9110336304
0.0	0.0	-76.0789718628	145.440704346	-47.3271636963	-97.2602844238
0.0	0.0	-75.0228118896	155.521209717	-50.5114173889	-102.993850708
0.0	0.0	-74.2024917603	146.274887085	-48.7922019958	-92.7933883667
0.0	0.0	-74.1087646484	128.506896973	-46.5718040466	-77.0438613892
0.0	0.0	-73.115447998	93.2418441772	-37.9106903076	-37.1113090515
0.0	0.0	-72.1858520508	67.9792251587	-4.56958723068	-7.45317697525
0.0	0.0	-71.1852874756	51.5378761292	39.375377655	11.9893684387
0.0	0.0	-69.8183822632	44.8594741821	64.595741272	11.4913377762
0.0	0.0	-68.4112701416	42.9233894348	74.9349594116	10.8804616928
0.0	0.0	-68.93334198	-142.75479126	87.4188766479	-163.217590332
0.0	0.0	-68.9712142944	-147.749130249	65.3675003052	-155.563644409
0.0	0.0	-68.4495773315	-149.01449585	55.078868866	-154.250747681
0.0	0.0	-69.1444778442	-158.876495361	46.621471405	-160.745956421
0.0	0.0	-69.2374267578	-168.194702148	47.2596702576	-169.230056763
0.0	0.0	-70.0882720947	-172.942977905	49.48620224	-174.705169678
0.0	0.0	-72.0430297852	-170.795471191	51.2529296875	-171.745407104
0.0	0.0	-73.0920791626	-169.492446899	53.0793228149	-169.468261719
0.0	0.0	-72.8659286499	-170.369842529	64.8367767334	-174.021896362
0.0	0.0	-73.4402923584	178.885314941	75.8017349243	-174.671676636
0.0	0.0	-73.1992797852	168.57144165	78.3268890381	178.58555603
0.0	0.0	-73.2786178589	163.278045654	75.6197814941	175.855651855
0.0	0.0	-72.9036712646	153.865875244	78.3157577515	169.55128479
0.0	0.0	-72.6557922363	142.951248169	87.2113723755	161.207092285
0.0	0.0	-72.7185516357	-51.5548553467	85.315071106	-17.278678894
0.0	0.0	-72.281578064	-51.7444152832	75.2254867554	-16.8300743103
0.0	0.0	-71.9216842651	-47.017906189	60.9498634338	-17.0886993408
0.0	0.0	-71.6808166504	-47.0206756592	50.4789924622	-19.9401302338
0.0	0.0	-71.0865631104	-42.6293640137	37.6331176758	-14.5861082077
0.0	0.0	-70.8385314941	-31.4940128326	25.6197414398	-7.29840278625
0.0	0.0	-70.8241043091	-12.9820337296	8.55016422272	-9.31096458435
0.0	0.0	-70.6573486328	12.8553752899	-3.72144341469	-14.5123529434
0.0	0.0	-70.0286560059	38.2960510254	-0.151359915733	-20.8108215332
0.0	0.0	-69.1980743408	50.6678237915	11.8239526749	-16.0543327332
0.0	0.0	-68.7819824219	62.4172401428	22.6411361694	-15.8679609299
0.0	0.0	-68.9188537598	72.2141876221	36.6191329956	-18.2713832855
0.0	0.0	-69.3818817139	78.8650283813	53.7374916077	-21.336561203
0.0	0.0	-70.1470031738	83.7372512817	70.3409957886	-25.8470230103
0.0	0.0	-72.0914382935	82.1697311401	85.8712615967	-29.4152774811
0.0	0.0	-73.1932144165	-103.067962646	79.008430481	154.582397461
0.0	0.0	-73.8823471069	-112.485366821	68.2352828979	157.773681641
0.0	0.0	-74.5612869263	-121.881835938	60.387348175	159.687637329
0.0	0.0	-74.4360351562	-129.1275177	56.9747581482	163.658355713
0.0	0.0	-73.9950180054	-140.966308594	62.6390037537	173.209762573
0.0	0.0	-69.1620101929	-138.875762939	73.2136459351	176.721969604
0.0	0.0	-44.4024085999	-135.832595825	74.3448562622	-179.963745117
0.0	0.0	-25.0766582489	-136.015533447	74.9615249634	-175.565093994
0.0	0.0	-14.6526412964	-135.085983276	76.4779281616	-176.362045288
0.0	0.0	-2.04387807846	-134.369796753	77.6777496338	-176.696792603
0.0	-0.0	5.01004457474	-133.608108521	79.2038269043	-176.592407227
0.0	-0.0	11.78307724	-133.117446899	80.1509246826	-175.389801025
0.0	-0.0	11.384018898	-133.197235107	81.6325073242	-174.978729248
0.0	-0.0	3.0521774292	-130.784286499	85.7126235962	-175.622116089
0.0	0.0	-0.752943336964	51.0846748352	89.8977050781	7.6974401474
0.0	-0.0	1.67365074158	52.7471656799	73.4848632812	7.76012992859
0.0	-0.0	1.9300673008	54.9791297913	55.7790870667	5.05325222015
0.0	0.0	-0.118531174958	58.301109314	61.2781906128	4.10745620728
0.0	0.0	-3.08518218994	56.2973022461	65.4120407104	8.85071849823
0.0	0.0	-4.56405353546	56.4824371338	58.5404548645	6.40345430374
0.0	0.0	-5.6289305687	54.7044639587	50.1487236023	5.97339439392
0.0	0.0	-6.36121273041	59.0493354797	46.3529396057	0.72206890583
0.0	0.0	-2.29464864731	56.5451927185	45.7382698059	4.08043718338
0.0	-0.0	0.00381782231852	58.1909446716	47.9337387085	2.42076277733
0.0	0.0	-0.116011306643	62.2408866882	47.3994789124	-4.17520236969
0.0	-0.0	0.720618903637	58.6542396545	43.4668922424	1.18067097664
0.0	-0.0	0.30810046196	55.9022064209	37.4182891846	5.07808160782
0.0	-0.0	0.535759925842	52.8081016541	19.4840545654	-2.27138018608
0.0	-0.0	1.85980832577	56.0572547913	2.43467760086	-6.8415389061
0.0	-0.0	1.61300671101	56.6944999695	-5.7458190918	-6.94480466843
0.0	-0.0	0.89236587286	56.8770675659	-7.87671756744	-5.41475725174
0.0	-0.0	1.74118030071	58.6584472656	-7.67367553711	-5.56335163116
0.0	-0.0	1.13623118401	59.0428962708	-6.86395311356	-5.89712238312
0.0	0.0	-1.77460646629	61.7892684937	4.29782104492	-8.27783107758
0.0	0.0	-2.88144254684	66.5460357666	18.3338546753	-9.82759189606
0.0	0.0	-2.01188707352	68.1536407471	29.2430610657	-6.27182912827
0.0	0.0	-0.919972479343	66.0946731567	39.0791015625	-3.20488595963
0.0	0.0	-1.31027543545	63.2096672058	52.2941360474	0.864992916584
0.0	0.0	-2.02673172951	59.8728065491	69.0344848633	5.21039438248
0.0	0.0	-1.99691402912	57.7435112	84.1948623657	10.7446832657
0.0	0.0	-2.21512246132	-126.260864258	83.9014434814	-165.560272217
0.0	0.0	-1.62651491165	-132.806289673	74.6596450806	-164.842071533
0.0	0.0	-0.603201508522	-138.000335693	71.6334533691	-163.937759399
0.0	0.0	-0.0736852511764	-144.522903442	72.8932876587	-165.775558472
0.0	0.0	-0.745418190956	-152.522171021	74.2091064453	-170.810302734
0.0	0.0	-3.01245331764	-159.145751953	76.2151947021	-173.310791016
0.0	0.0	-5.39636278152	-159.132080078	79.6904067993	-172.787475586
0.0	0.0	-7.72464418411	-157.570922852	80.7269058228	-172.524200439
0.0	0.0	-11.3330001831	-156.746643066	81.87109375	-172.787033081
0.0	0.0	-17.8044719696	-156.923736572	82.5819320679	-172.484466553
0.0	0.0	-26.3521938324	-156.58052063	83.5777664185	-172.478652954
0.0	0.0	-34.1837425232	-156.186218262	84.4605407715	-172.348587036
0.0	0.0	-44.0808486938	-156.067825317	85.2353973389	-171.937866211
0.0	0.0	-49.2871284485	-155.802154541	86.0081481934	-172.089416504
0.0	0.0	-48.0904884338	-155.437698364	88.6127166748	-170.749450684
0.0	0.0	-42.3674659729	28.3102169037	82.3809051514	13.2893390656
0.0	0.0	-32.6389541626	34.7124176025	65.0763320923	15.0787096024
0.0	0.0	-27.8303718567	32.2381439209	64.1668014526	16.5023078918
0.0	0.0	-26.0044612885	22.3317070007	74.1198654175	29.4028434753
0.0	0.0	-24.2377510071	26.1828365326	84.7041397095	16.0127258301
0.0	0.0	-23.7292900085	-161.664276123	73.2140884399	-158.939376831
0.0	0.0	-22.6132125854	-164.717208862	60.1638526917	-167.89553833
0.0	0.0	-21.7904090881	-168.820709229	54.7475700378	-166.62979126
0.0	0.0	-21.5570373535	-171.854888916	56.3765678406	-174.889312744
0.0	0.0	-22.7161006927	-174.484130859	56.7716445923	-174.59362793
0.0	0.0	-25.9948310852	-176.739700317	59.9847297668	-177.353561401
0.0	0.0	-33.425201416	-178.156539917	64.0952529907	-176.152145386
0.0	0.0	-37.8674659729	175.909683228	70.9179840088	-178.868667603
0.0	0.0	-38.3687400818	165.99206543	78.3030319214	-178.814163208
0.0	0.0	-37.4942169189	147.908737183	89.7822570801	-175.930679321
0.0	0.0	-35.5450248718	-50.5549163818	70.3262786865	5.52184343338
0.0	0.0	-34.689239502	-56.2397079468	63.0079650879	2.64968919754
0.0	0.0	-34.5126914978	-63.3942680359	67.6936645508	1.85711288452
0.0	0.0	-33.5100250244	-69.5812072754	73.0611419678	-4.40750360489
0.0	0.0	-33.0226249695	-74.9365921021	78.3289871216	-8.18393135071
0.0	0.0	-32.7469673157	-81.6411209106	83.3392410278	-11.4453611374
0.0	0.0	-35.4644927979	-82.8843917847	84.2225265503	-14.0188713074
0.0	0.0	-48.910736084	-84.725440979	84.6513671875	-15.9613857269
0.0	0.0	-63.2989616394	-83.760093689	83.1041488647	-14.4653329849
0.0	0.0	-74.5879440308	-82.1240386963	80.0858459473	-16.0493164062
0.0	0.0	-84.1845169067	-83.3672866821	77.8837966919	-18.3733692169
0.0	0.0	-87.2130508423	-83.1362533569	76.2589111328	-18.5714683533
0.0	0.0	-84.9335174561	-77.9660110474	73.8228225708	-14.2734575272
0.0	0.0	-81.813835144	-68.4075927734	65.1682128906	-10.813533783
0.0	0.0	-77.4761505127	-62.4295730591	59.3478393555	-8.79765510559
0.0	0.0	-70.9417953491	-68.044128418	63.5979499817	-8.19783115387
0.0	0.0	-62.8308906555	-72.8438568115	78.7654190063	-8.30559921265
0.0	0.0	-58.2041740417	92.858291626	77.9864807129	175.318359375
0.0	0.0	-54.9638748169	86.8563461304	55.1416015625	-178.051513672
0.0	0.0	-51.4025344849	90.8654098511	33.6797103882	-168.720062256
0.0	0.0	-48.8959121704	95.0659866333	24.9201030731	-165.291259766
0.0	0.0	-46.7723999023	96.7139358521	29.0757274628	-166.6353302
0.0	0.0	-45.7406463623	95.78099823	36.7728996277	-167.606750488
0.0	0.0	-46.3515663147	97.2121505737	39.6578102112	-164.743621826
0.0	0.0	-49.1718635559	98.7979125977	40.4488258362	-163.93132019
0.0	0.0	-56.6953735352	99.933883667	40.0607032776	-163.875946045
