-2.149923563	-47.7702789307	130.968338013	3.83046913147	2.34495544434	-2.36449289322
-1.70028471947	-48.1418266296	130.227233887	3.92006134987	2.40181136131	-2.40166735649
-1.87356245518	-47.8773460388	130.131271362	3.8433880806	2.31230902672	-2.46068549156
-1.43943011761	-48.0762901306	129.267440796	3.62236213684	2.10635638237	-2.4182741642
-1.8197273016	-47.9320831299	129.212799072	3.46466898918	1.86004781723	-2.37427306175
-1.5180631876	-48.0125770569	128.271636963	3.27177929878	1.85175848007	-2.29751610756
-1.50936877728	-48.1422958374	127.902008057	3.09219694138	1.88807702065	-2.35241580009
-1.36680197716	-47.9926719666	126.546424866	3.02732229233	1.89606249332	-2.29163813591
-1.33399748802	-46.6855583191	122.04322052	2.56298756599	2.03110194206	-2.29465937614
-4.23015403748	-44.1652183533	117.947158813	1.72181403637	2.16100907326	-2.26399278641
-6.27106380463	-42.5427436829	115.335777283	0.449475646019	2.42113947868	-2.3635699749
-9.49729633331	-41.3214187622	116.711013794	-1.31390404701	2.71772432327	-2.39143371582
-10.9216585159	-40.1765861511	114.047698975	-2.78593611717	3.00169825554	-2.31514763832
-13.1883964539	-39.0467262268	114.730995178	-3.85428833961	3.17548465729	-2.21925282478
-16.1571311951	-37.6527748108	115.370178223	-4.81011104584	3.2731924057	-2.03096842766
-20.6003932953	-37.6403503418	115.837463379	-5.47427415848	3.29604506493	-1.89141047001
-26.6599941254	-37.5588111877	114.858970642	-5.4107375145	3.23194169998	-1.91062629223
-32.122718811	-37.2149581909	115.746307373	-5.2035036087	3.31832265854	-2.24100279808
-34.5103149414	-35.2087898254	116.211517334	-5.67853832245	3.46709680557	-2.40499806404
-29.7194709778	-34.7422904968	115.468185425	-5.62941884995	3.63007521629	-2.2480905056
-27.4459171295	-34.4499359131	115.096755981	-6.20416307449	3.59753680229	-2.36255073547
-27.0761585236	-35.6603736877	115.798233032	-7.92696475983	3.70827889442	-1.70296084881
-26.8218860626	-35.4950790405	115.444396973	-9.28388977051	3.9958255291	0.21763330698
-26.7180500031	-35.1011123657	115.343284607	-11.0191669464	3.96294116974	2.45025348663
-26.6864528656	-34.7864608765	115.67716217	-13.5792741776	3.85670423508	3.75354170799
-27.0810184479	-34.7155570984	115.615272522	-16.1316280365	3.59634113312	3.97778081894
-27.331073761	-34.6612968445	115.533370972	-17.0821342468	3.06225967407	3.4265704155
-27.4172859192	-34.7320137024	115.118133545	-16.7093067169	2.17390704155	2.89955711365
-27.6042575836	-34.3119049072	114.82975769	-16.7628765106	0.695388972759	2.33753871918
-27.8908958435	-33.9096755981	114.861175537	-17.3808040619	0.0365991741419	1.74698770046
-27.8514347076	-33.8160438538	114.750015259	-18.6897029877	0.192164167762	1.44537591934
-28.0444068909	-33.5220413208	114.206161499	-20.2555713654	0.381809592247	1.46040308475
-28.3209285736	-34.02318573	113.304428101	-20.6101455688	0.297827869654	1.65048909187
-31.1661911011	-32.8180084229	124.352416992	-20.1194610596	0.406673520803	1.75390863419
-25.1733379364	-35.3748016357	107.579826355	-19.318572998	0.367825806141	1.24974179268
-16.862443924	-33.712020874	88.9285125732	-18.936964035	0.249959766865	0.970705688
-15.298995018	-32.891544342	87.8221664429	-18.7810611725	0.189245343208	0.905144512653
-16.9938278198	-33.1972351074	88.6686477661	-18.8319854736	0.267939567566	0.846174895763
-19.2091007233	-33.234577179	88.8976364136	-18.933549881	0.192769706249	0.878240644932
-20.6410655975	-32.9359779358	88.7824783325	-18.8982887268	0.0380444973707	0.94304305315
-22.4629611969	-32.8103408813	88.5458602905	-18.8424015045	-0.0883675217628	0.905384242535
-24.6831436157	-32.3093223572	88.8629608154	-18.7406330109	-0.100445009768	0.859990417957
-23.8406429291	-32.034160614	89.5073623657	-18.5942974091	-0.235979318619	0.842737138271
-20.6903438568	-31.6531085968	87.7632904053	-18.5532798767	-0.339628189802	0.691239833832
-17.3886852264	-31.4297790527	84.0544128418	-18.4672145844	-0.268405497074	0.702392160892
-18.0349464417	-31.5270252228	85.6724777222	-18.3830661774	0.0515064373612	0.698477745056
-19.5432243347	-31.8210353851	86.6073303223	-18.2223205566	0.237722992897	0.765211999416
-19.2418327332	-31.8263473511	88.5574188232	-18.0860080719	0.267865240574	0.675100326538
-19.154499054	-31.8510227203	88.0635757446	-18.1354522705	-0.089895516634	0.650235950947
-19.6520576477	-32.0452537537	88.2966308594	-18.128742218	-0.396005958319	0.575521528721
-19.2475318909	-32.5900611877	87.9203491211	-20.3726100922	-0.471871227026	0.382182836533
-19.2072963715	-32.6913223267	87.7078170776	-24.2893981934	0.00199536420405	0.744578659534
-19.4877796173	-32.7758522034	87.8230514526	-27.0225067139	0.0444188378751	1.27786457539
-19.3490982056	-32.8610076904	87.8489837646	-26.6381511688	-0.384484946728	1.49089670181
-19.1081581116	-32.9334793091	87.9462509155	-24.9094181061	-0.891070187092	0.956507027149
-19.03474617	-32.9155921936	88.0582351685	-23.3012771606	-0.804584801197	0.403413385153
-18.7908935547	-33.0407142639	87.9374847412	-22.682592392	-0.505306661129	0.321120887995
-18.7752952576	-33.0039825439	88.0543670654	-22.775182724	-0.516014158726	0.469874829054
-18.8626079559	-32.9868278503	88.0351791382	-23.1389751434	-1.55959999561	0.482655435801
-18.6874485016	-32.6518669128	88.1826019287	-22.8000183105	-1.50034880638	0.245258957148
-18.7867298126	-32.4647903442	88.2331771851	-22.2798538208	-0.256483137608	-0.0662483870983
-18.799123764	-32.0354423523	88.4663162231	-22.6544303894	0.786731779575	0.221812218428
-18.7806949615	-31.6219997406	88.675239563	-22.9263534546	1.03962171078	0.454751372337
-18.6492347717	-31.4722328186	88.7072982788	-22.6991901398	1.09255945683	0.723352313042
-16.6225376129	-31.1333961487	87.2240905762	-22.6005077362	1.35408949852	0.673857629299
-13.7577791214	-30.8902816772	84.8428726196	-22.5704860687	1.20722448826	0.598798334599
