0.253077983856	1.27762460709	0.286290049553	0.0433280467987	1.53149545193	0.0411682128906
0.252681970596	1.27781355381	0.285905003548	0.0443067550659	1.53134846687	0.0414438247681
0.253996610641	1.27704739571	0.28534579277	0.0454123020172	1.53097319603	0.0418065786362
0.255904912949	1.27587616444	0.284557938576	0.0462965965271	1.53092062473	0.0423300266266
0.255961894989	1.27582347393	0.284625291824	0.0460820198059	1.53143298626	0.0427858829498
0.250532150269	1.27726018429	0.28414773941	0.0434579849243	1.53246295452	0.0433506965637
0.242350101471	1.27958858013	0.284408688545	0.0395424365997	1.53403007984	0.0434911251068
0.235186815262	1.28236174583	0.282851457596	0.0360684394836	1.53637158871	0.0430736541748
0.222848892212	1.281863451	0.286026954651	0.0329492092133	1.53857386112	0.0421862602234
0.204476833344	1.2836098671	0.285221457481	0.0297994613647	1.54100811481	0.0408519506454
0.185029983521	1.28988778591	0.277766823769	0.027156829834	1.54308342934	0.0393085479736
0.166941642761	1.29584205151	0.269238591194	0.0254755020142	1.54535317421	0.0376145839691
0.153879404068	1.29677689075	0.266331195831	0.0235450267792	1.5471405983	0.036064863205
0.145485162735	1.29740810394	0.265429854393	0.020712852478	1.54909539223	0.0343580245972
0.139451742172	1.29665207863	0.264068841934	0.0173573493958	1.55112671852	0.0317778587341
0.133503913879	1.29434013367	0.263943910599	0.0148048400879	1.55340731144	0.0288155078888
0.13156080246	1.29238283634	0.264487862587	0.0146813392639	1.55549097061	0.0255982875824
0.132905244827	1.29143536091	0.266119718552	0.0168344974518	1.55692780018	0.0231237411499
0.134564399719	1.2906370163	0.267685174942	0.0188105106354	1.55722725391	0.0213670730591
0.135993719101	1.29006373882	0.268293023109	0.0191338062286	1.5570141077	0.0205514431
0.136930704117	1.28935623169	0.26835668087	0.0183570384979	1.5567908287	0.0193363428116
0.137448072433	1.28844642639	0.269761443138	0.0174832344055	1.55649971962	0.018156170845
0.136513233185	1.28842175007	0.271684646606	0.017404794693	1.5567009449	0.0172145366669
0.138089179993	1.28964495659	0.273566126823	0.0176649093628	1.55706036091	0.0166598558426
0.138874530792	1.29143893719	0.27302980423	0.0176186561584	1.55721330643	0.0163819789886
0.138251781464	1.29216563702	0.272785305977	0.0175359249115	1.55706191063	0.0162024497986
0.137387752533	1.2920883894	0.273205757141	0.0175268650055	1.55715942383	0.0162734985352
0.140762090683	1.29338204861	0.273595571518	0.0178155899048	1.55726861954	0.0166296958923
0.14356637001	1.29412221909	0.274577260017	0.0181577205658	1.5572142601	0.0175476074219
0.144483566284	1.29495286942	0.274615049362	0.0183892250061	1.55693864822	0.0186839103699
0.143379926682	1.29359507561	0.275791168213	0.018609046936	1.55692505836	0.0191552639008
0.143139600754	1.29266083241	0.276109933853	0.0196530818939	1.55738425255	0.0185363292694
0.144390583038	1.29178464413	0.276940345764	0.0221359729767	1.55876994133	0.0164341926575
