5.63644886017	-61.9363822937	130.035247803	1.4619448185	0.738661944866	-3.77156686783
4.87139558792	-61.6620521545	130.282897949	1.51557648182	0.809356272221	-3.71037340164
4.84480381012	-61.2758598328	128.026748657	1.40217626095	0.951341092587	-3.68707084656
4.26621294022	-58.3898887634	122.337898254	1.01582098007	1.66355013847	-3.49071931839
-1.12077283859	-51.0185279846	121.055503845	-0.0953079387546	3.12402439117	-2.98912358284
-4.20593976974	-47.7588043213	122.131507874	-1.59908246994	5.07291889191	-2.51333236694
-5.74229478836	-44.0037269592	121.988739014	-2.90907430649	7.45826148987	-2.24708819389
-7.06983566284	-34.6983337402	115.129318237	-4.01265859604	10.3970909119	-1.81376039982
-4.62408876419	-29.6307544708	105.237205505	-4.76313352585	12.7305612564	-1.59767127037
-0.757960915565	-26.5492935181	95.2093582153	-5.32491254807	14.4218063354	-1.20369386673
1.7065500021	-22.3758964539	85.3345565796	-5.94378376007	15.96849823	-0.930132567883
3.36132383347	-17.923833847	75.7782516479	-6.3144402504	17.2983760834	-0.57510972023
2.16129374504	-17.4093151093	75.6979370117	-6.70350933075	18.5862026215	-0.255780637264
1.04229450226	-17.138130188	75.534286499	-6.96940088272	19.4012622833	-0.0348313823342
1.66405344009	-17.314496994	75.4872589111	-6.89346218109	20.3868122101	0.223196253181
1.73958086967	-17.6684684753	75.5224456787	-6.75760602951	20.8920822144	0.322386413813
1.68366754055	-18.1065120697	75.5437927246	-6.70038843155	21.4161930084	0.338584423065
1.16084420681	-18.0673694611	75.6956863403	-6.82445240021	22.6120090485	0.477125704288
