0.232717752457	1.22539436817	0.325510978699	0.0507342815399	1.5321034193	0.019430398941
0.231456041336	1.22639513016	0.325361728668	0.0508058071136	1.53215110302	0.0195994377136
0.231043100357	1.2264213562	0.326002001762	0.0506021976471	1.53237450123	0.0201259851456
0.229949951172	1.22602200508	0.327153682709	0.0498039722443	1.53220415115	0.021018743515
0.22839474678	1.22611427307	0.326954960823	0.0490140914917	1.53206121922	0.0217088460922
0.227604866028	1.22610604763	0.327477216721	0.0486621856689	1.5321559906	0.0221600532532
0.225956439972	1.22761917114	0.326991796494	0.048440694809	1.53203225136	0.0224244594574
0.217272758484	1.23276996613	0.325373768806	0.0486786365509	1.53193092346	0.0229849815369
0.20338344574	1.23678648472	0.32398045063	0.0497982501984	1.53144872189	0.023442029953
0.191328525543	1.24201512337	0.318868160248	0.0514230728149	1.53124058247	0.0237648487091
0.181332349777	1.2465108633	0.315448880196	0.05340051651	1.53091013432	0.0238635540009
0.17529463768	1.25177693367	0.31263923645	0.0552628040314	1.53057539463	0.0239493846893
0.169032812119	1.25596678257	0.310285210609	0.0570797920227	1.53054797649	0.0239012241364
0.162243127823	1.25863718987	0.307934761047	0.0578725337982	1.53041553497	0.0233392715454
0.157824754715	1.26170921326	0.306435585022	0.0573525428772	1.53068816662	0.023421049118
0.156036615372	1.26749277115	0.304602622986	0.0560507774353	1.53123605251	0.023656129837
0.154857158661	1.27523851395	0.302442193031	0.0550565719604	1.53169882298	0.024462223053
0.154551506042	1.28125548363	0.300465941429	0.0545268058777	1.53138279915	0.0252072811127
0.156005859375	1.28085231781	0.301103115082	0.0544936656952	1.53116202354	0.0261082649231
0.161893606186	1.27927088737	0.303928732872	0.0551221370697	1.53082251549	0.0266927480698
0.167742729187	1.28091371059	0.307230830193	0.0560014247894	1.5303747654	0.0270991325378
0.170999288559	1.2819879055	0.311375617981	0.0564558506012	1.53008186817	0.0273311138153
0.17548584938	1.28473067284	0.313023686409	0.0556457042694	1.53017771244	0.0273947715759
0.174626588821	1.28923368454	0.311561942101	0.0542423725128	1.53041934967	0.0280419588089
0.171182632446	1.29134654999	0.308425545692	0.0530107021332	1.53012001514	0.0285547971725
0.168128013611	1.29166328907	0.306211709976	0.0520770549774	1.53101062775	0.0290179252625
0.167680501938	1.29008853436	0.307517409325	0.0510144233704	1.5349200964	0.0285958051682
0.168483734131	1.28784894943	0.308560013771	0.0497677326202	1.53877782822	0.0274004936218
0.169117927551	1.2876278162	0.309162020683	0.0505676269531	1.53788089752	0.0275694131851
