-33.1861190796	-67.262588501	138.145019531	3.54749178886	2.9204146862	-3.73254084587
-33.5598220825	-67.1095733643	136.439453125	3.35178685188	3.05658483505	-3.62751913071
-25.6413192749	-64.99634552	120.076141357	3.07911252975	3.40835475922	-3.60369253159
-22.3898258209	-60.154548645	107.026817322	2.69302034378	4.53117322922	-3.40100502968
-21.1622467041	-57.9286956787	104.349327087	2.35476922989	5.91980075836	-3.25162339211
-19.205909729	-57.9088058472	99.9008026123	2.29252028465	7.46334123611	-3.06840896606
-18.5836620331	-58.3218193054	98.9181137085	2.46123218536	9.63498687744	-2.97154164314
-18.9042053223	-58.6826286316	99.038230896	2.93662238121	11.5715112686	-3.02631878853
-18.4874420166	-59.0678062439	99.1131286621	3.63880777359	12.7178163528	-3.60662817955
-18.788433075	-59.2528915405	99.588104248	4.84441518784	13.3662929535	-4.5131072998
-18.7136096954	-59.398765564	99.5419845581	6.11479043961	14.2330141068	-5.29738903046
-18.5268497467	-59.0088157654	99.0879898071	6.89405107498	15.6268501282	-5.87416553497
-18.6687736511	-58.986240387	99.124786377	7.38406085968	17.2804908752	-6.12758016586
-18.5278625488	-58.2155990601	98.4678726196	7.75529527664	19.0199203491	-6.02938365936
-18.309305191	-58.4584159851	98.4266586304	8.07188892365	20.2923851013	-6.24283742905
-18.150478363	-58.4180526733	98.2544403076	8.54134082794	21.7441616058	-6.45151472092
-18.1090526581	-58.2465667725	98.0911636353	8.97922515869	23.4520893097	-6.62747621536
-17.4830970764	-58.5528640747	97.6165771484	9.16260910034	24.5195827484	-6.7579703331
-17.4499263763	-58.7818031311	97.6394958496	9.11112594604	25.3396453857	-6.79991912842
-17.4580039978	-58.7177009583	97.7555923462	9.12494182587	25.9151096344	-6.72113370895
-17.0561885834	-58.9666938782	97.5849456787	9.16731357574	26.1049213409	-6.75154399872
-16.8542881012	-59.0126686096	97.7647857666	9.42495250702	26.1836204529	-6.89953613281
-16.9771900177	-59.2365150452	98.056930542	9.66739940643	26.0211048126	-7.00433444977
-19.3775558472	-59.0819702148	103.31703186	9.68346595764	25.7992763519	-7.06584072113
-17.4994716644	-59.1839103699	99.6625442505	9.67728996277	25.841588974	-6.9856171608
-16.7797470093	-58.2323417664	97.6489257812	9.69269561768	25.9106960297	-6.8271150589
-14.676571846	-57.4520301819	93.0743789673	9.59059619904	25.8442382812	-6.8087849617
-13.6958208084	-55.5346794128	89.6524047852	9.53803634644	25.8512935638	-6.75496864319
-13.7208862305	-54.6411933899	88.5498275757	9.45585155487	25.7996368408	-6.61743402481
-12.9772005081	-54.2120742798	86.7258682251	9.17179298401	25.7479915619	-6.55019664764
-13.3131256104	-53.7671966553	86.402885437	8.8412733078	25.6655597687	-6.48279666901
-13.2559309006	-53.8398704529	85.6954116821	8.60223293304	25.6239719391	-6.37321233749
-12.4892654419	-54.1345787048	83.8052749634	8.34711074829	25.5098285675	-6.34953212738
-12.1941633224	-54.3468894958	83.6894073486	7.38522577286	25.3050994873	-6.58069944382
-11.8690290451	-53.9002456665	83.5014038086	4.38026428223	24.6067867279	-7.18082714081
-11.2955799103	-53.759185791	82.8986358643	1.45873749256	23.7894458771	-7.79474401474
-11.2758512497	-53.8545188904	82.8459625244	0.45638102293	23.456281662	-8.13162994385
-11.9140968323	-53.9668922424	83.2040786743	-0.0398051440716	23.1419067383	-8.55298042297
-12.3276987076	-53.8961219788	83.2233047485	-1.2542924881	22.5463733673	-9.3628911972
-12.527340889	-53.7739372253	83.2113876343	-3.34644699097	21.7926673889	-10.4495325089
-12.4901762009	-53.7812995911	82.9892425537	-4.96999597549	21.160610199	-11.1457099915
-12.6791791916	-53.7366828918	83.0872039795	-5.13756513596	20.8569278717	-11.1634197235
-12.9087247849	-53.793586731	83.4073257446	-4.38532590866	20.8913459778	-10.8988800049
-13.1854505539	-53.8483123779	83.7853927612	-3.81492304802	20.9294185638	-10.6927900314
-13.4560060501	-53.6736183167	83.8405075073	-3.74724531174	21.1090145111	-10.6646137238
-13.744430542	-53.5409584045	83.9178543091	-3.93695688248	21.1471557617	-10.6817045212
-13.3821725845	-53.7011375427	83.2137451172	-4.20680332184	20.9400348663	-10.900850296
-12.8807821274	-53.8242950439	81.9038009644	-4.26491975784	20.7693443298	-11.1280908585
-11.8849039078	-53.8177871704	79.9882507324	-4.20617675781	20.885099411	-11.1613054276
-11.93887043	-53.9821662903	80.1169433594	-4.15732097626	21.0306148529	-11.1601982117
-12.2480134964	-54.036529541	80.0116119385	-3.99664878845	21.047164917	-11.0065402985
-12.4338674545	-54.2489700317	77.0247497559	-3.92661190033	21.0220146179	-10.818312645
-11.5008745193	-54.314617157	73.5657577515	-3.77539110184	20.9719676971	-10.6309900284
-11.567234993	-54.5634269714	75.0119018555	-3.73409032822	20.8663864136	-10.5250225067
-14.0212221146	-54.8374214172	83.0392990112	-3.68891716003	20.8627319336	-10.3968114853
-14.6579837799	-54.9053611755	87.9548721313	-3.69064664841	20.9453582764	-10.3582220078
-14.2627420425	-54.9035415649	88.1704025269	-3.67638850212	20.9524765015	-10.4210472107
-15.3296508789	-54.4278450012	91.3390808105	-3.64727067947	20.9844684601	-10.4924812317
-15.1282510757	-54.4083786011	91.6030349731	-3.63260746002	21.3364543915	-10.5310277939
