0.225151062012	1.2764787674	0.181428194046	0.00691032409668	1.53985333443	-0.0792669057846
0.224575519562	1.27644789219	0.181710004807	0.00645446777344	1.53986728191	-0.0791764259338
0.223250150681	1.27536511421	0.182831048965	0.00592541694641	1.53945684433	-0.0787768363953
0.219948291779	1.27037262917	0.18720304966	0.00479245185852	1.53822624683	-0.0778305530548
0.215863227844	1.25981020927	0.197288870811	0.00233769416809	1.53343033791	-0.076951622963
0.216504335403	1.24998402596	0.204196453094	0.000128269195557	1.52900505066	-0.0752809047699
0.212293624878	1.24105727673	0.209659695625	-0.00228476524353	1.52572083473	-0.0731909275055
0.206908226013	1.23441684246	0.213137745857	-0.00487351417542	1.52362251282	-0.0716507434845
0.202908992767	1.23265457153	0.214135408401	-0.00732326507568	1.52116930485	-0.070675611496
0.201242446899	1.23191380501	0.21483695507	-0.00984716415405	1.51758468151	-0.0700466632843
0.19944858551	1.23105466366	0.215696811676	-0.0124650001526	1.5136603117	-0.0691756010056
0.199791431427	1.22933852673	0.215596675873	-0.0136916637421	1.5109089613	-0.0682151317596
0.20032119751	1.22756123543	0.215969324112	-0.0137639045715	1.51015663147	-0.066935300827
0.199763774872	1.22641277313	0.215211868286	-0.0149493217468	1.50882458687	-0.0660924911499
