3.1234793663	-75.9005203247	141.112716675	3.20889616013	-0.392167985439	-3.16351270676
3.21185469627	-76.1985549927	140.54637146	3.05169081688	0.131334260106	-3.13286447525
1.85472106934	-76.1102600098	141.856506348	3.21516275406	0.232420563698	-3.06227350235
3.93228840828	-75.8551025391	139.297363281	3.1784954071	0.215541630983	-3.04739189148
4.97370100021	-75.6096115112	137.99597168	3.05571818352	0.0727392211556	-3.05733060837
5.2059545517	-75.6399154663	137.357788086	2.97901463509	-0.0846869647503	-2.96853351593
5.28644371033	-75.5973815918	137.034576416	3.07223391533	-0.176463380456	-3.10048675537
6.56915903091	-74.1380767822	131.668579102	3.08353590965	-0.0969576016068	-3.14495635033
10.8044147491	-65.9191741943	115.111206055	1.87633752823	0.0292374510318	-2.83215332031
13.1949882507	-59.0085716248	104.422515869	-0.732822239399	0.365905970335	-2.20979166031
14.477637291	-54.6309051514	97.6558151245	-3.0535402298	1.16664922237	-1.69512438774
11.4150285721	-51.5349082947	96.4111251831	-5.37425756454	1.78752708435	-1.24123978615
8.81000137329	-48.4309921265	94.5764083862	-7.95214414597	2.30297827721	-0.841665267944
5.18600559235	-45.6606330872	92.6611251831	-10.8967046738	2.73026537895	-0.425037384033
2.20223641396	-44.8485183716	90.6676483154	-14.2189655304	3.12175011635	-0.168651074171
0.126258701086	-44.3663635254	89.9912109375	-17.0278778076	3.31711483002	-0.0406188182533
-0.296476334333	-44.0354270935	88.1286697388	-18.8843479156	3.48303890228	0.0895132273436
-1.03796350956	-44.6364974976	88.188369751	-20.0395069122	3.41172242165	0.0858856067061
-2.27710270882	-44.9106903076	88.3374099731	-20.4038677216	3.22309613228	0.107361219823
-2.72501778603	-45.0963058472	87.0690917969	-20.391160965	2.92756676674	-0.0390129126608
-3.16742992401	-44.7143173218	83.5912475586	-20.572719574	2.54016566277	-0.0555334761739
-3.36710119247	-43.9988975525	80.735824585	-21.1367855072	2.16489028931	-0.0655106157064
-4.29189586639	-44.1004676819	81.3383560181	-21.8155155182	1.97141158581	-0.24268758297
-4.58630371094	-44.1955680847	81.6088790894	-23.1424331665	1.85646498203	-0.741722285748
