-33.5729560852	-63.9041557312	134.744354248	2.67413187027	-0.716607749462	-4.41118097305
-33.0789222717	-63.7934341431	133.151473999	3.04095625877	-0.52890175581	-4.33985424042
-32.2193374634	-63.5105247498	127.032806396	2.61614537239	-0.150357142091	-4.21973085403
-23.1507358551	-62.0637664795	105.574310303	0.582732439041	0.858652889729	-4.02825307846
-15.1309490204	-59.6202812195	89.1538314819	-2.96609282494	3.0728533268	-4.24063539505
-17.0243873596	-59.1074562073	89.6806869507	-6.3921995163	6.06179332733	-4.44680070877
-16.0528469086	-59.6779098511	86.3808746338	-9.0806055069	9.35682296753	-4.14449882507
-15.8322887421	-59.4833908081	85.4531021118	-11.3458251953	11.9440069199	-3.83139872551
-15.381444931	-59.2921295166	85.0360946655	-13.0777702332	13.1358661652	-3.42565917969
-14.9547166824	-58.9840507507	84.4855499268	-14.5748195648	13.3834953308	-3.26105713844
-14.7393131256	-59.3230247498	83.9435424805	-15.7028560638	13.3168287277	-3.22387051582
-15.6364154816	-59.6597061157	84.5928955078	-16.3772621155	12.9384307861	-2.9827709198
-15.7640533447	-59.786277771	84.6021575928	-16.9974308014	12.6614933014	-2.91789126396
-15.5147924423	-59.7182769775	84.297492981	-18.046672821	12.4986553192	-3.05558466911
-15.2727298737	-59.51354599	84.006980896	-18.9345741272	12.4551019669	-3.08234095573
-14.8661708832	-59.9170913696	83.6487808228	-19.454498291	12.5279407501	-3.10862493515
-14.8458871841	-60.4801826477	83.6872558594	-19.8416862488	12.5109395981	-3.21845293045
-14.439748764	-60.6867141724	83.4226226807	-20.2175884247	12.3706350327	-3.53651428223
-14.5518884659	-60.9697227478	83.6932067871	-20.4632339478	11.7212057114	-3.67643070221
-12.7911567688	-61.1754302979	79.439163208	-20.687915802	10.7805776596	-3.76767039299
-11.0871868134	-60.5548629761	76.5102539062	-20.8327026367	9.88171005249	-3.8839802742
-10.145524025	-59.7735176086	74.3322982788	-20.8495082855	9.74368953705	-4.0301027298
-10.5570192337	-58.5804519653	74.6011047363	-20.5971183777	10.3008108139	-4.03325414658
-11.223947525	-59.1700553894	77.5559158325	-20.1192703247	10.7058668137	-4.11859989166
-11.0704011917	-59.4148635864	77.5624084473	-19.7737503052	10.948433876	-3.97777986526
-9.73924636841	-59.3021812439	74.6971817017	-19.6905193329	11.0559139252	-3.88926815987
-9.55373764038	-58.7734909058	72.0411529541	-19.6084480286	11.1821708679	-3.79055738449
-6.48706626892	-57.8542671204	63.1158599854	-19.6506156921	11.1823921204	-3.76098704338
-6.80841255188	-57.5952758789	62.4263839722	-19.70703125	11.0430488586	-3.69483995438
-6.65119743347	-58.3041496277	63.2026329041	-19.7403678894	10.9317092896	-3.72650504112
-7.2906332016	-59.0238418579	66.0794067383	-19.6461029053	11.0525112152	-3.77262806892
-10.8347301483	-60.1134147644	75.1132049561	-19.5611858368	11.1057395935	-3.8539955616
-13.5283269882	-60.4557113647	82.457824707	-19.4499130249	11.1138868332	-3.90802264214
-14.6054468155	-60.6664237976	85.6765441895	-19.3219432831	11.1686019897	-3.94601130486
-16.9900169373	-60.6289558411	90.6809539795	-19.2225723267	11.3457765579	-3.96830391884
-19.832857132	-60.6883811951	96.1808395386	-19.1928691864	11.5497770309	-4.07740259171
