0.207832098007	1.2867923975	0.295374155045	0.0442714691162	1.53149926662	0.0280547142029
0.20780134201	1.28661644459	0.295994281769	0.0444645881653	1.53149068356	0.0281738042831
0.207717180252	1.28607189655	0.295917749405	0.0443375110626	1.53121912479	0.028408408165
0.207494020462	1.28567111492	0.295978307724	0.0441761016846	1.53129017353	0.0284650325775
0.206783771515	1.28600847721	0.295947194099	0.0441963672638	1.53127682209	0.0282981395721
0.206824541092	1.2866165638	0.296045064926	0.0441567897797	1.53135073185	0.0281155109406
0.207166910172	1.28705382347	0.295697808266	0.0440928936005	1.53149485588	0.0277810096741
0.204758405685	1.28998804092	0.296936511993	0.0440335273743	1.53172802925	0.027414560318
0.194960355759	1.2957470417	0.303280591965	0.0441701412201	1.53299403191	0.0272033214569
0.188675642014	1.30064475536	0.300524115562	0.0442702770233	1.53540980816	0.0263948440552
0.179626226425	1.30232846737	0.302373290062	0.0434339046478	1.5373724699	0.0257954597473
0.16631436348	1.30690228939	0.296889781952	0.041841506958	1.53921020031	0.0254993438721
0.153316736221	1.31080579758	0.289802074432	0.0406160354614	1.54244101048	0.0248095989227
0.14488863945	1.31442415714	0.286350727081	0.0403072834015	1.54623317719	0.0236115455627
0.141948699951	1.3157787323	0.285717964172	0.0409345626831	1.55050480366	0.0223537683487
0.145816087723	1.31609690189	0.287007689476	0.0419793128967	1.55376088619	0.0205571651459
0.151440143585	1.31636846066	0.288748025894	0.0426704883575	1.55522537231	0.0196015834808
0.152690887451	1.31650662422	0.288935542107	0.0425288677216	1.55642712116	0.0189813375473
0.149975776672	1.31475579739	0.288876891136	0.041675567627	1.55669951439	0.0190653800964
0.147305488586	1.31435966492	0.288719058037	0.0407702922821	1.55619227886	0.0198016166687
0.145956277847	1.31428980827	0.288909673691	0.0402348041534	1.55573356152	0.0205051898956
0.144140481949	1.31425523758	0.289078712463	0.039656162262	1.55593526363	0.0201947689056
0.141651391983	1.31360185146	0.289057254791	0.0392000675201	1.55440366268	0.0203753709793
0.141672849655	1.3140848875	0.286148071289	0.0397007465363	1.55167865753	0.0214797258377
0.143248319626	1.3160378933	0.281970620155	0.0408928394318	1.55111730099	0.0207732915878
0.143239974976	1.31667709351	0.279042959213	0.0420649051666	1.55166316032	0.0192542076111
0.143228054047	1.31607377529	0.276999115944	0.0429258346558	1.55147838593	0.0179047584534
0.143314838409	1.31586146355	0.276794195175	0.0431976318359	1.55114400387	0.0166498422623
0.144289255142	1.31655406952	0.277779459953	0.0429284572601	1.55109989643	0.0154364109039
0.144769191742	1.31638789177	0.278951883316	0.0424711704254	1.55094075203	0.014493227005
0.146357059479	1.31605815887	0.280157566071	0.0420320034027	1.55087196827	0.0136559009552
0.146349191666	1.31506800652	0.282643675804	0.0416831970215	1.55065381527	0.0126378536224
0.146622657776	1.31450641155	0.28307056427	0.0415456295013	1.55063009262	0.0113508701324
0.147953271866	1.3154540062	0.281720995903	0.0418565273285	1.55077624321	0.00984537601471
0.14749288559	1.31683969498	0.27957212925	0.0423684120178	1.55107390881	0.007892370224
0.148706197739	1.31875646114	0.278190732002	0.0434155464172	1.55297756195	0.0050505399704
0.15048122406	1.31888151169	0.279851675034	0.0444204807281	1.55629086494	5.1736831665e-05
0.150195360184	1.31881654263	0.280394077301	0.0452997684479	1.55776441097	-0.00366544723511
0.149056434631	1.31989240646	0.278962612152	0.046727180481	1.55784475803	-0.00623869895935
