0.144327402115	1.20055818558	0.226895332336	-0.00543022155762	1.47809183598	-0.0200208425522
0.143726348877	1.20078730583	0.226841211319	-0.00579190254211	1.47826755047	-0.0205616950989
0.142912864685	1.20145499706	0.227000832558	-0.00626611709595	1.47867226601	-0.0206830501556
0.142169952393	1.20178365707	0.226925730705	-0.00685811042786	1.47946178913	-0.021058678627
0.14128947258	1.20079278946	0.227129459381	-0.00770330429077	1.4819880724	-0.0215249061584
0.139421463013	1.20019996166	0.22679579258	-0.00913453102112	1.48573338985	-0.0225973129272
0.137862443924	1.20098304749	0.226426005363	-0.0105230808258	1.49130773544	-0.02410197258
0.134835243225	1.20453560352	0.225223779678	-0.0107045173645	1.49974894524	-0.026750087738
0.129979133606	1.20832479	0.224081277847	-0.0112285614014	1.50944316387	-0.0313568115234
0.126785993576	1.20838356018	0.225492477417	-0.0116453170776	1.51904463768	-0.0367474555969
0.124145030975	1.20817923546	0.226198911667	-0.0103797912598	1.52699029446	-0.0428433418274
0.120409011841	1.20966339111	0.22666156292	-0.00745606422424	1.53565752506	-0.0479950904846
0.116024255753	1.2109130621	0.226139545441	-0.00559401512146	1.54308784008	-0.05382335186
0.114022016525	1.21195554733	0.225383996964	-0.00545907020569	1.54793000221	-0.0588085651398
0.11475110054	1.21161043644	0.225779294968	-0.00625991821289	1.55150735378	-0.0638036727905
0.11474275589	1.21149456501	0.226100087166	-0.00671315193176	1.55560553074	-0.0699441432953
0.114387512207	1.21231532097	0.225645780563	-0.00773739814758	1.55747294426	-0.0752937793732
0.114465236664	1.21401000023	0.225008249283	-0.0077338218689	1.55679750443	-0.0778940916061
0.114440917969	1.21734261513	0.222849369049	-0.00616312026978	1.55634093285	-0.0796790122986
0.113183259964	1.2210777998	0.219804525375	-0.00456476211548	1.55658710003	-0.0806412696838
0.113748788834	1.22294330597	0.217383742332	-0.00338554382324	1.55638957024	-0.0806920528412
0.114184617996	1.22378742695	0.214896559715	-0.00171875953674	1.5563198328	-0.0804860591888
0.113702297211	1.22447025776	0.212703108788	0.000373125076294	1.55654323101	-0.0812509059906
0.114282608032	1.22470641136	0.211701750755	0.00282907485962	1.55692648888	-0.082405090332
0.115343332291	1.22413063049	0.210987210274	0.00491499900818	1.55664432049	-0.0833897590637
0.115977048874	1.22559213638	0.209720015526	0.0063853263855	1.5561337471	-0.0841410160065
0.11619591713	1.22620725632	0.208799600601	0.00692248344421	1.5558308363	-0.0850160121918
0.116602659225	1.22642123699	0.208159208298	0.0069305896759	1.55553781986	-0.085161447525
0.118002891541	1.22664248943	0.20777618885	0.00729870796204	1.55526161194	-0.0845664739609
0.120099544525	1.22616231441	0.208118677139	0.00698661804199	1.55485653877	-0.0839068889618
0.120274305344	1.2245118618	0.208834052086	0.00645112991333	1.55465054512	-0.0833683013916
0.118590831757	1.22472500801	0.208151578903	0.00545001029968	1.55391156673	-0.0825877189636
0.116755008698	1.22501921654	0.208169579506	0.00366902351379	1.55107939243	-0.0817682743073
0.116470813751	1.22709155083	0.207889080048	0.000808238983154	1.54889273643	-0.0809803009033
0.117338895798	1.2283602953	0.207845449448	-0.00277638435364	1.54698050022	-0.0803565979004
0.11669754982	1.228115201	0.207294464111	-0.00442218780518	1.54619956017	-0.0799869298935
0.116384506226	1.22839128971	0.207083702087	-0.00535821914673	1.54585492611	-0.0800542831421
0.117070436478	1.22840285301	0.207009196281	-0.00662350654602	1.54582870007	-0.0804133415222
0.116771936417	1.2268383503	0.20755815506	-0.00695109367371	1.54605960846	-0.0813200473785
0.116243362427	1.22759366035	0.207250356674	-0.00690627098083	1.54594671726	-0.0825924873352
0.116011619568	1.23003602028	0.206050157547	-0.00601005554199	1.54581665993	-0.0840854644775
0.116560459137	1.2313811779	0.205517649651	-0.00455689430237	1.54619312286	-0.0855445861816
0.117046117783	1.23110067844	0.204921245575	-0.003005027771	1.54704415798	-0.08666908741
0.117101669312	1.23045349121	0.204322099686	-0.00122976303101	1.54813182354	-0.0883731842041
0.11776471138	1.22973835468	0.203947782516	0.000195264816284	1.54930150509	-0.0909993648529
0.118221282959	1.22918987274	0.203077554703	0.0016770362854	1.55038833618	-0.0945645570755
0.117409706116	1.2303340435	0.201560735703	0.00363349914551	1.5512509346	-0.0982336997986
0.116375923157	1.23547875881	0.197715997696	0.00452971458435	1.55130147934	-0.101537227631
0.116015434265	1.24091863632	0.193872332573	0.00402069091797	1.55092787743	-0.103696584702
0.115780830383	1.24158549309	0.192283153534	0.0037853717804	1.55047297478	-0.104842185974
0.117097139359	1.24083995819	0.191943645477	0.00418496131897	1.55021381378	-0.104828357697
0.119474172592	1.24045336246	0.191093683243	0.00539875030518	1.55007493496	-0.104357242584
0.120902061462	1.24242794514	0.18839430809	0.00636911392212	1.54989004135	-0.103869318962
0.12256860733	1.24262976646	0.187310099602	0.0074737071991	1.54969537258	-0.103702425957
0.123548984528	1.24156486988	0.18700492382	0.00891423225403	1.54924321175	-0.10341835022
0.123758554459	1.240909338	0.186180472374	0.0101659297943	1.54933154583	-0.103106975555
