0.252481460571	0.994876623154	0.214231014252	-0.0100169181824	1.51956176758	-0.0665771961212
0.251230716705	0.995059251785	0.214465498924	-0.0104668140411	1.51939082146	-0.066837310791
0.250400066376	0.994456529617	0.214834928513	-0.0102903842926	1.51980924606	-0.0665485858917
0.251050710678	0.993615150452	0.214747428894	-0.00855326652527	1.51985418797	-0.06520652771
0.250367879868	0.993707418442	0.214367032051	-0.00571966171265	1.52038538456	-0.0636010169983
0.246786355972	0.995734453201	0.215047597885	-0.00190567970276	1.52100241184	-0.0616340637207
0.243896007538	1.00015521049	0.21580016613	0.00165700912476	1.52161240578	-0.0598493814468
0.242417573929	1.00390410423	0.215459942818	0.005366563797	1.52259325981	-0.0583319664001
0.241489648819	1.00402951241	0.214738368988	0.0102603435516	1.52365374565	-0.0568073987961
0.240431070328	1.00577926636	0.214747071266	0.0158145427704	1.52436745167	-0.0555200576782
0.238414525986	1.008466959	0.21585047245	0.0211420059204	1.52470469475	-0.0542449951172
0.236297130585	1.01053380966	0.216487646103	0.0259289741516	1.52504038811	-0.0532126426697
0.235619068146	1.0119998455	0.216648340225	0.0303156375885	1.52522683144	-0.0525419712067
0.236962556839	1.01319432259	0.21665418148	0.034327507019	1.52489042282	-0.0520271062851
0.237922906876	1.01332187653	0.216914176941	0.0375504493713	1.52477967739	-0.0522513389587
0.238920450211	1.01351594925	0.217697262764	0.0399370193481	1.52476000786	-0.0525856018066
0.239777565002	1.01400780678	0.217617154121	0.0415832996368	1.52467346191	-0.052889585495
0.241760492325	1.0138630867	0.217371821404	0.0428812503815	1.52427995205	-0.0533466339111
0.243364810944	1.01410603523	0.217416167259	0.0445516109467	1.52394855022	-0.0539700984955
0.24445271492	1.01507616043	0.217780590057	0.0464160442352	1.52386546135	-0.054906129837
