-13.3979845047	-74.1132202148	138.689193726	4.89277982712	0.531493663788	-3.07179641724
-14.1037654877	-74.0674667358	139.03918457	4.8716802597	0.588531494141	-3.03430080414
-13.6741399765	-74.304069519	138.281616211	4.88395309448	0.51902192831	-3.10150194168
-13.5470895767	-74.2331161499	137.981124878	4.88004112244	0.506801068783	-3.03653359413
-13.6137914658	-74.2390594482	135.690124512	3.72994303703	0.76873332262	-2.58315563202
-14.5250501633	-72.1584777832	128.072372437	-0.178731620312	1.60590302944	-1.77412188053
-13.542596817	-70.0233535767	117.547660828	-4.5610666275	2.29897332191	-1.38656461239
-17.644990921	-69.6465072632	118.10874176	-8.67679977417	2.84186553955	-1.19658124447
-18.8369636536	-69.7465744019	114.564193726	-12.6284456253	3.26478266716	-1.22945654392
-19.3061599731	-69.8260498047	110.26209259	-16.6517829895	3.38140535355	-1.12865829468
-18.1931171417	-70.3182983398	105.213111877	-19.8895568848	3.30748224258	-0.966776847839
-18.3761920929	-70.5927352905	103.674560547	-21.8201179504	3.08772540092	-0.629385888577
-16.5662574768	-71.0782928467	100.247657776	-22.4501457214	2.54128432274	-0.658418238163
-9.34277534485	-71.0853805542	91.057510376	-22.2839603424	2.14568328857	-0.983129858971
-1.06470489502	-71.9107055664	80.4524002075	-22.0159130096	2.05100679398	-1.23262643814
0.321135520935	-71.1139068604	76.492401123	-22.1497631073	2.36800479889	-1.28015851974
-3.50499773026	-70.9315261841	79.1574325562	-22.3318042755	2.54397583008	-0.98268777132
-4.44497728348	-71.4957733154	78.8576049805	-22.5681419373	2.52740573883	-0.885357558727
-2.4279024601	-72.2247848511	74.0924530029	-22.5562400818	2.21845364571	-1.03416526318
-0.52006393671	-72.0116577148	69.1992797852	-22.5881958008	1.99020600319	-1.12172102928
-0.289468050003	-72.2520675659	66.2353515625	-23.0413970947	1.64437675476	-1.04957389832
-2.92117404938	-72.0685348511	67.576965332	-23.9012107849	1.42301487923	-1.0747166872
