0.0	-0.0	146.151245117	-122.458175659	87.4746627808	171.061859131
0.0	-0.0	145.385665894	-122.187110901	87.709564209	171.019744873
0.0	-0.0	140.443206787	-121.396354675	87.9155883789	170.864120483
0.0	-0.0	129.888412476	-118.500221252	84.3400192261	170.874420166
0.0	-0.0	108.592514038	-112.486312866	79.4255828857	170.596405029
0.0	-0.0	101.763679504	-106.365356445	77.0654220581	170.004730225
0.0	-0.0	102.513877869	-101.438705444	74.7428436279	169.213912964
0.0	-0.0	100.532913208	-96.5157852173	70.6036682129	168.440856934
0.0	-0.0	97.8855667114	-91.8633575439	67.2135314941	167.41242981
0.0	-0.0	96.8962478638	-88.0999603271	64.6817855835	166.823043823
0.0	-0.0	94.8469161987	-85.5116500854	62.705581665	166.548324585
