0.0	-0.0	136.127822876	53.7589645386	85.1678771973	-12.8265037537
0.0	-0.0	135.216964722	54.1802024841	85.1078109741	-12.9811344147
0.0	-0.0	135.162017822	53.7076454163	85.2394256592	-12.927611351
0.0	-0.0	134.025665283	53.2034835815	85.8848266602	-12.1519908905
0.0	-0.0	134.085388184	52.5671577454	86.7266998291	-11.4414300919
0.0	-0.0	133.547653198	51.9125480652	86.7310333252	-11.0610246658
0.0	-0.0	131.784622192	51.2148017883	86.3841094971	-10.7456302643
0.0	-0.0	129.559387207	49.4738883972	86.5033721924	-10.2688179016
0.0	-0.0	125.868614197	44.9071807861	87.1182250977	-9.57656764984
0.0	-0.0	121.863769531	37.346496582	88.2332839966	-8.62901592255
0.0	-0.0	117.977226257	29.0280399323	89.1258850098	-7.50464820862
0.0	-0.0	110.30871582	19.9508228302	89.5819854736	-6.91833162308
0.0	-0.0	102.649383545	11.2805166245	89.8176040649	-6.36727809906
0.0	-0.0	95.7201156616	-176.367095947	89.4495849609	174.204528809
0.0	-0.0	90.6661148071	177.780151367	88.7584762573	174.716156006
0.0	-0.0	88.2827835083	173.290130615	88.4986190796	174.6925354
0.0	-0.0	85.1380996704	167.828231812	88.8906326294	173.74206543
0.0	-0.0	84.0391845703	161.738143921	89.0525360107	172.340667725
0.0	-0.0	81.2676086426	155.446289062	89.2095031738	170.856399536
0.0	-0.0	80.2265625	149.686920166	88.6649475098	169.606460571
