5.68486738205	-67.441734314	136.059341431	2.95930242538	-1.62005722523	-4.27887010574
6.63747167587	-67.149269104	135.149795532	3.03772330284	-1.6365288496	-4.30257225037
6.07429409027	-66.7453155518	135.012481689	2.88025712967	-1.57050156593	-4.2851190567
6.25224018097	-66.5016708374	133.864578247	2.70950174332	-1.31336557865	-4.00549077988
5.47295475006	-66.587059021	134.11781311	2.49317836761	-1.10000455379	-3.78752446175
5.02830505371	-66.3897628784	133.361251831	2.29576849937	-1.09972250462	-3.67926049232
3.30836439133	-65.3169174194	131.068649292	2.0315926075	-1.18353521824	-3.57444524765
0.239097833633	-63.4852027893	129.094741821	1.38415682316	-1.16405117512	-3.41860198975
-2.61613607407	-60.106918335	125.408348083	-0.285723358393	-0.932657241821	-3.16122579575
-6.41377401352	-55.4280014038	121.769966125	-2.84844589233	-0.552558600903	-2.84694623947
-7.84241247177	-53.707118988	117.284957886	-5.64797925949	-0.263838410378	-2.45909929276
-9.67832660675	-51.3080253601	109.281776428	-8.69271564484	-0.12066436559	-2.28154468536
-12.1432409286	-49.1523208618	101.95790863	-11.5541028976	-0.0345456339419	-2.10077381134
-14.0489606857	-46.934425354	95.4670791626	-14.0416660309	0.211325600743	-1.90947306156
-15.3834438324	-46.6936302185	90.2605133057	-15.9091300964	0.427799761295	-1.7474514246
-18.182062149	-47.0486717224	88.0015029907	-17.4123973846	0.505122542381	-1.78884553909
-21.4969959259	-48.0244445801	84.7616424561	-19.2759819031	0.340186178684	-2.13152551651
-23.3110847473	-48.0376358032	83.9533004761	-21.3174343109	0.326195418835	-2.62616109848
-24.252620697	-48.3963508606	80.9158477783	-23.3939247131	0.247039675713	-3.09745979309
-27.0365982056	-47.9400634766	80.5305404663	-25.3114814758	0.476490706205	-3.51088809967
