0.0	-0.0	129.95324707	-130.572418213	87.8252105713	168.654815674
0.0	-0.0	130.407592773	-130.466629028	87.6056442261	168.808944702
0.0	-0.0	128.466567993	-130.722610474	87.3277206421	168.909561157
0.0	-0.0	123.007637024	-131.722045898	85.2746200562	169.428787231
0.0	-0.0	120.767921448	-134.807723999	81.2746047974	170.879150391
0.0	-0.0	122.327705383	-139.331680298	75.3745040894	172.322143555
0.0	-0.0	122.022529602	-143.310379028	68.6196517944	173.113998413
0.0	-0.0	116.471488953	-146.709777832	59.8122215271	174.429626465
0.0	-0.0	105.858139038	-149.08946228	52.4654083252	175.092300415
0.0	-0.0	96.3973999023	-150.783935547	47.3037414551	176.284378052
0.0	-0.0	86.6081161499	-152.647689819	42.573097229	177.112915039
0.0	-0.0	76.2266998291	-153.81048584	38.5716171265	178.214248657
0.0	-0.0	76.054725647	-154.988235474	34.5694007874	179.136810303
0.0	-0.0	75.3928833008	-155.888656616	32.130065918	179.802459717
0.0	-0.0	75.4259109497	-155.739852905	29.1198654175	-179.437164307
0.0	-0.0	75.516998291	-155.302444458	27.5011940002	-179.027801514
0.0	-0.0	75.5466461182	-155.08706665	25.9487419128	-179.008666992
0.0	-0.0	75.6734771729	-155.427459717	22.7335033417	-178.701187134
