0.0	-0.0	128.760955811	-124.001556396	84.4303588867	164.862915039
0.0	-0.0	127.511993408	-123.898956299	84.5289001465	164.749069214
0.0	-0.0	123.858947754	-124.043479919	84.3536376953	164.831420898
0.0	-0.0	117.151512146	-124.286979675	84.2027359009	164.990310669
0.0	-0.0	115.969917297	-124.872467041	84.6770172119	165.247039795
0.0	-0.0	108.680862427	-126.325241089	85.0020828247	165.954879761
0.0	-0.0	79.0355529785	-130.328643799	85.824432373	166.25730896
0.0	-0.0	59.4923286438	-134.307830811	87.2061309814	166.164123535
0.0	-0.0	58.2274551392	40.3120384216	89.2853088379	-14.4100704193
0.0	-0.0	61.665813446	31.722650528	83.3961257935	-16.3868789673
0.0	-0.0	60.586315155	23.779045105	75.8380813599	-18.6471595764
0.0	-0.0	50.8161697388	19.1006984711	68.2522506714	-20.0686340332
0.0	-0.0	56.8066482544	15.2744474411	61.6140174866	-20.922454834
0.0	-0.0	58.7222633362	7.39663410187	59.5512924194	-20.7984275818
0.0	-0.0	65.255859375	-1.57471191883	57.2791366577	-20.245595932
0.0	-0.0	66.0143051147	-5.2703871727	49.9003944397	-21.1020793915
0.0	-0.0	63.90990448	-5.52435445786	43.2414245605	-21.9106140137
0.0	-0.0	64.6931381226	-7.94811105728	39.2614936829	-21.0943870544
0.0	-0.0	64.7301025391	-13.4606342316	35.9051170349	-20.4402561188
0.0	-0.0	63.487537384	-14.6188926697	34.9498672485	-19.9973678589
0.0	-0.0	63.2498588562	-13.2921857834	34.5398864746	-20.0571594238
