0.17295050621	1.28431427479	0.13972234726	0.0150074958801	1.5397349596	-0.088805437088
0.171895742416	1.28431928158	0.139333963394	0.0144124031067	1.53977704048	-0.0891202688217
0.17054605484	1.28397989273	0.138868808746	0.0135583877563	1.53934967518	-0.0894371271133
0.16698050499	1.28106737137	0.141342401505	0.0122854709625	1.53871357441	-0.0890632867813
0.159541606903	1.27417516708	0.147173881531	0.00971102714539	1.53735435009	-0.0875515937805
0.156585454941	1.2698456049	0.149982213974	0.00607562065125	1.53532755375	-0.0864182710648
0.155152797699	1.27071762085	0.150154352188	0.0022406578064	1.5331619978	-0.0851409435272
0.154098987579	1.27181565762	0.150162339211	-0.00142979621887	1.53071403503	-0.0838788747787
0.152372837067	1.27223646641	0.149948954582	-0.00487351417542	1.52779650688	-0.0823929309845
0.150669574738	1.27235078812	0.150145530701	-0.00833630561829	1.52533781528	-0.080580830574
0.150507211685	1.27311301231	0.15019595623	-0.0110521316528	1.52278518677	-0.0788912773132
0.150547266006	1.27416849136	0.149805426598	-0.0140526294708	1.52076435089	-0.0772284269333
0.150048494339	1.2748734951	0.149458050728	-0.0170996189117	1.51854848862	-0.0757374763489
0.149396419525	1.2758384943	0.148779630661	-0.0197107791901	1.51664447784	-0.0741263628006
0.147596120834	1.27618539333	0.148478031158	-0.0210473537445	1.51554572582	-0.0726065635681
0.147144079208	1.2754099369	0.148726224899	-0.0213415622711	1.51505744457	-0.0714859962463
0.148706197739	1.27456212044	0.149944067001	-0.0211760997772	1.51508295536	-0.070455789566
0.148994207382	1.27360987663	0.150621175766	-0.0206680297852	1.51514041424	-0.0695326328278
