0.0	-0.0	137.209823608	-117.858825684	74.4732437134	169.513427734
0.0	-0.0	136.620346069	-117.791427612	76.1137313843	169.628204346
0.0	-0.0	133.225906372	-118.62361908	76.7226867676	169.969024658
0.0	-0.0	128.137557983	-119.246734619	75.3562240601	170.888778687
0.0	-0.0	125.976882935	-120.093818665	74.8328552246	171.824401855
0.0	-0.0	122.388969421	-124.797592163	77.4066390991	173.91545105
0.0	-0.0	116.067710876	-131.785995483	79.4771957397	176.112289429
0.0	-0.0	105.361000061	-134.561706543	80.0605010986	176.80279541
0.0	-0.0	103.210227966	-134.871261597	80.9034423828	177.748275757
