0.216282606125	1.19302201271	0.369177222252	0.0269737243652	1.53211963177	0.0180689096451
0.214625120163	1.192502141	0.369859695435	0.0276501178741	1.53192257881	0.0182962417603
0.213642835617	1.19265115261	0.370078802109	0.0273413658142	1.53227829933	0.0181646347046
0.212408781052	1.19211530685	0.370610237122	0.0264637470245	1.53245818615	0.0180585384369
0.210500478745	1.19169151783	0.3710283041	0.0254271030426	1.53230631351	0.0181504487991
0.209273338318	1.1925971508	0.370988488197	0.0248126983643	1.53226780891	0.0183010101318
0.209691286087	1.19708383083	0.369770050049	0.0246224403381	1.53242647648	0.0181877613068
0.214120388031	1.20471799374	0.368149399757	0.0248050689697	1.53275930882	0.0177601575851
0.218127965927	1.21018970013	0.367154479027	0.0250670909882	1.53422605991	0.0171434879303
0.219712734222	1.21182191372	0.366818070412	0.0251197814941	1.53634774685	0.0170270204544
0.224123001099	1.21570730209	0.366139769554	0.0241568088531	1.53729951382	0.0177369117737
0.231029033661	1.21914112568	0.366181135178	0.0229434967041	1.53701066971	0.0192867517471
0.234872341156	1.22184026241	0.366663455963	0.0216135978699	1.53682374954	0.0202380418777
0.231632471085	1.23024630547	0.366754174232	0.0205583572388	1.53684389591	0.0204969644547
0.225355625153	1.24139940739	0.363275170326	0.0199677944183	1.53677177429	0.020486831665
0.220986843109	1.25261580944	0.359024763107	0.0200333595276	1.53672552109	0.020378112793
0.219680786133	1.25913846493	0.355938673019	0.0202572345734	1.53739511967	0.0200927257538
0.220747947693	1.25871038437	0.356603622437	0.0204362869263	1.5364934206	0.0199663639069
0.224164485931	1.25618386269	0.357420921326	0.0206356048584	1.53639411926	0.0198731422424
0.226788520813	1.24885606766	0.361153125763	0.0209171772003	1.5363702774	0.0196027755737
0.230935096741	1.2414431572	0.364880919456	0.0209631919861	1.53603315353	0.0196869373322
0.235369920731	1.23314964771	0.369881868362	0.0207448005676	1.53537797928	0.0201642513275
0.238612651825	1.22754466534	0.372758984566	0.0206928253174	1.53636074066	0.0204095840454
0.234260797501	1.22911763191	0.371958017349	0.0205206871033	1.53921031952	0.0203409194946
0.232053995132	1.22820055485	0.372580766678	0.0200581550598	1.54339337349	0.0196731090546
0.231609344482	1.22588610649	0.373553276062	0.0204212665558	1.54894995689	0.018470287323
0.228947877884	1.22291278839	0.37475836277	0.0220201015472	1.55349504948	0.0170142650604
0.227424621582	1.22129845619	0.375707507133	0.0247025489807	1.55638432503	0.0155272483826
0.226263046265	1.22155869007	0.376432776451	0.0276045799255	1.55891275406	0.0133762359619
