19.6554355621	5.96594715118	6.19246053696	1.95363152027	2.04035568237	33.0448684692
19.5286464691	5.98908138275	6.20964860916	1.84208285809	2.11612772942	32.9066200256
19.6660327911	6.15806770325	6.16073179245	1.83876430988	2.3281056881	31.9747638702
20.7555713654	6.55440664291	5.82896566391	2.88754534721	2.78450703621	30.8471164703
21.497631073	7.09270954132	4.31743335724	4.55485153198	3.0761487484	29.4031085968
20.8336791992	6.6193318367	4.22181177139	6.98387002945	3.29380774498	28.072019577
20.4432735443	4.59195327759	4.06879901886	9.29187774658	3.26353359222	26.9308261871
20.7295665741	2.20476269722	4.65652179718	11.3902168274	3.06762766838	25.5692615509
20.5854263306	2.84737443924	2.52918362617	13.7815628052	3.03598642349	23.5975589752
20.5367622375	2.59371209145	0.917736947536	16.1110897064	3.30980825424	21.4597034454
19.9632320404	1.54255974293	0.745135843754	18.0555667877	3.78320813179	19.6068267822
19.4418106079	0.698681533337	0.0786866396666	19.7298698425	4.106528759	18.131061554
19.3755702972	0.133200645447	-0.91928178072	21.3199157715	4.30280780792	17.2419338226
20.1377944946	-0.27493211627	-1.447940588	22.5569210052	4.70884037018	16.5257701874
20.622220993	-0.316171169281	-1.54901611805	23.3391265869	5.05333948135	15.9079561234
20.9588699341	-0.312403708696	-1.57300388813	23.9084854126	5.23954200745	15.5717887878
20.8798599243	-0.578582525253	-1.21828067303	24.1998767853	5.35638666153	15.3755292892
21.1613235474	-0.527137160301	-1.01576638222	24.2787036896	5.67964506149	15.1393537521
21.3476028442	-0.542162060738	-0.879230976105	24.6312103271	5.99654006958	14.974562645
21.5201034546	-0.612647593021	-0.879869878292	25.1836605072	6.17590427399	14.6462955475
