0.0	-0.0	129.448791504	-125.692016602	84.9277648926	169.315353394
0.0	-0.0	129.238265991	-125.925506592	84.7640762329	169.471633911
0.0	-0.0	128.524810791	-126.137077332	85.080619812	169.854141235
0.0	-0.0	127.571746826	-126.248756409	84.5509338379	170.301101685
0.0	-0.0	120.608909607	-126.171607971	84.8671875	170.479766846
0.0	-0.0	108.39957428	-125.532249451	86.7665634155	170.297622681
0.0	-0.0	107.460777283	55.0558776855	88.9132003784	-9.63403511047
0.0	-0.0	105.841827393	55.9778709412	80.724067688	-10.0669546127
0.0	-0.0	96.7273025513	56.9982872009	75.8498764038	-10.84603405
0.0	-0.0	83.154510498	58.7147445679	75.3017501831	-11.4415950775
0.0	-0.0	76.0352325439	60.9043731689	69.9908599854	-11.9585790634
0.0	-0.0	78.0734100342	62.6164398193	61.3106498718	-11.9982767105
0.0	-0.0	77.6509628296	63.3285369873	55.6976928711	-12.4884557724
0.0	-0.0	70.7551956177	64.0976257324	55.5584106445	-13.4609289169
0.0	-0.0	64.4886322021	64.8619766235	56.0556144714	-14.0030755997
0.0	-0.0	62.7837219238	64.2371826172	56.482383728	-13.568362236
0.0	-0.0	62.012462616	63.2186088562	57.0653343201	-13.2164154053
0.0	-0.0	63.5459213257	62.3695487976	57.8562927246	-12.5683221817
0.0	-0.0	67.2537078857	62.1250534058	58.820930481	-12.4358196259
0.0	-0.0	70.0993499756	62.3729171753	59.9646606445	-12.6358003616
0.0	-0.0	74.352645874	62.3173332214	60.5802078247	-12.5538740158
0.0	-0.0	81.931968689	61.7037506104	61.1727828979	-12.0840969086
0.0	-0.0	83.3528289795	61.7915267944	62.1641616821	-11.9792079926
0.0	-0.0	80.6563644409	61.8289413452	62.3962478638	-11.4501810074
0.0	-0.0	69.4183807373	61.4985809326	62.1425018311	-11.2311210632
0.0	-0.0	56.2862091064	61.6067085266	61.8396110535	-11.1093330383
0.0	-0.0	49.0148735046	61.4153251648	61.8049240112	-11.1896343231
0.0	-0.0	43.4356575012	60.9793395996	62.2006645203	-11.3241443634
0.0	-0.0	45.7386436462	60.9837417603	62.5939025879	-11.2904176712
0.0	-0.0	49.5670623779	60.2488899231	62.4983901978	-10.9118852615
0.0	-0.0	52.4586906433	59.309551239	60.272354126	-10.3307752609
0.0	-0.0	52.2851867676	58.7106742859	55.1852493286	-10.2903652191
0.0	-0.0	53.6330299377	59.1405754089	49.3288383484	-10.5936460495
0.0	-0.0	53.666721344	59.5563240051	45.9569473267	-11.0976829529
0.0	-0.0	54.0881576538	60.0469055176	42.5547561646	-11.6193971634
0.0	-0.0	54.5785865784	60.306438446	38.801158905	-12.1148366928
0.0	-0.0	55.2373046875	61.4097671509	33.3433074951	-13.2867193222
