1.80308496952	-78.020652771	140.775390625	3.1313419342	0.784315228462	-4.05407619476
1.23283720016	-77.8229064941	141.319976807	3.25302481651	1.02012193203	-4.00522613525
2.4693479538	-77.8355026245	139.772323608	3.25294756889	1.21350896358	-4.02142858505
2.85894846916	-77.7410964966	138.261260986	3.11736249924	1.15786683559	-3.95810699463
4.25686597824	-74.6413192749	129.917358398	2.67889499664	1.09364926815	-3.86063170433
2.53423643112	-72.1470870972	126.028022766	2.32230687141	1.04598915577	-3.69001269341
1.29686057568	-71.8200912476	125.378623962	1.71184778214	0.969121992588	-3.48640871048
-0.925437450409	-71.1332778931	126.036590576	1.03344404697	0.75607997179	-3.37541866302
-3.24548506737	-69.8717575073	126.739830017	0.680118918419	0.474681913853	-3.21963644028
-2.01274037361	-69.6409301758	124.949516296	0.613278329372	0.520026922226	-3.09232139587
-3.21872425079	-68.1552734375	124.41885376	0.477043747902	0.415862232447	-3.07445955276
-5.0382976532	-66.1741333008	120.915557861	0.222834482789	0.362135708332	-3.01521134377
-6.61537265778	-63.0290031433	118.779800415	0.140555202961	0.568372011185	-2.84388518333
-8.63101005554	-60.8625221252	128.760513306	0.269408345222	1.10185837746	-2.84857130051
-16.4560680389	-53.385761261	147.779037476	0.370909750462	2.12062001228	-2.93217229843
-14.9874486923	-50.2315368652	147.271362305	1.14483809471	4.38110160828	-2.87672996521
-7.56783628464	-47.2487297058	134.227706909	2.55967926979	7.92402076721	-2.7051718235
1.79607582092	-38.5998153687	112.7681427	4.08919382095	11.5289058685	-2.41997718811
13.8027038574	-27.3114032745	83.8941955566	5.30175209045	14.3139333725	-1.98959469795
18.7769966125	-17.2689399719	67.0107955933	5.86325645447	16.4563217163	-1.68075335026
22.2383365631	-15.1211223602	63.2090110779	5.72803068161	17.710609436	-1.68640851974
25.676366806	-15.4668903351	63.4566650391	5.72138929367	18.2975578308	-1.86942636967
31.2075023651	-18.3723564148	66.6929473877	6.20997047424	18.6737995148	-2.06521892548
36.6230659485	-23.0603256226	67.6914672852	7.25513410568	18.6109886169	-2.320322752
39.767375946	-27.6674728394	67.6458282471	9.15824127197	18.4956951141	-2.80982780457
40.2031173706	-31.2286090851	69.1784973145	11.5963745117	18.3299217224	-3.10189819336
