7.75451993942	-10.378528595	-2.68751335144	13.1883153915	5.05323839188	33.6164741516
7.27877378464	-10.0198078156	-3.84507632256	11.75801754	3.26580762863	31.7643642426
6.59510660172	-9.87775993347	-3.93733525276	11.2875051498	2.07066369057	31.2434616089
6.43918561935	-10.0869598389	-3.76502537727	11.639787674	2.13879609108	31.4954013824
6.57010030746	-10.3428554535	-3.90444302559	11.973074913	2.96081733704	31.9127388
6.61978340149	-10.2192182541	-3.80196595192	12.1955823898	3.32110571861	32.0954208374
6.70817136765	-9.94682407379	-3.86871814728	12.4154224396	3.40157604218	32.0792541504
6.70094966888	-9.94607257843	-3.71978783607	12.5062656403	3.57447862625	31.966960907
6.28212881088	-9.54907608032	-4.43127202988	12.1036672592	3.58218502998	31.5149593353
4.98954057693	-8.9022026062	-7.51113080978	10.2560806274	4.58866930008	30.178188324
0.925719797611	-6.40589809418	-11.41381073	6.11448717117	7.51120281219	27.9627990723
-1.17863929272	-0.912473618984	-10.9753799438	1.4778482914	12.1380310059	25.9266433716
-3.98049473763	4.57033538818	-13.3577795029	-2.02039337158	17.08228302	23.9109172821
-5.14887475967	7.38693094254	-14.7160158157	-4.47426939011	20.6708545685	22.3738880157
-4.82939910889	9.96111679077	-16.9684505463	-5.59539556503	22.0872917175	22.144493103
-3.61268544197	9.6649684906	-15.6548662186	-5.44661998749	22.115688324	22.6511287689
-4.27043390274	6.85450220108	-10.3153486252	-5.34863185883	22.1344509125	23.169084549
-8.29670810699	2.08344125748	-0.516186356544	-5.9549870491	22.6134414673	23.4225673676
-10.5833454132	-0.67357480526	5.95527553558	-6.84176445007	23.1512680054	23.033367157
-9.93559932709	-2.99745535851	15.7824058533	-7.5565237999	23.5103569031	22.5379390717
-10.7989759445	-3.70663332939	21.8742275238	-7.60411071777	23.6975669861	22.5651721954
-10.7992506027	-4.6694726944	28.5259723663	-7.51743602753	23.6539459229	22.3963298798
-10.1657390594	-4.91227483749	32.9135360718	-7.27432727814	23.6765174866	22.37474823
-7.99250793457	-6.53013372421	35.4098129272	-7.212059021	23.6937847137	22.2650909424
-6.91540670395	-6.26670122147	27.283246994	-6.86939191818	23.8985176086	22.229681015
-6.85714864731	-6.34220457077	22.9237747192	-6.36896419525	24.0648384094	22.2692317963
-4.61789703369	-4.68365812302	16.2315540314	-6.17414951324	23.9857749939	22.4308338165
-2.50046372414	-3.69265818596	12.1876277924	-6.05364847183	24.0259742737	22.4094085693
-1.94240260124	-5.9315943718	18.4007720947	-6.00547885895	24.0329704285	22.701593399
-2.07249617577	-5.65771627426	19.7179374695	-6.09472846985	23.9191951752	22.5667572021
-2.4566822052	-6.41504335403	19.8226318359	-6.20662069321	23.0253238678	22.6743679047
-3.51214385033	-6.65929174423	18.5518455505	-5.78062486649	21.1770362854	24.1302280426
-4.10104560852	-7.00407028198	18.6598777771	-5.19419527054	19.6362457275	24.7844257355
-3.46474575996	-8.0610294342	19.597360611	-4.51444864273	18.6810932159	25.1412982941
-3.75484681129	-9.02037906647	20.80427742	-3.65481519699	17.6066856384	26.8172340393
-4.50812721252	-9.52580833435	23.0485630035	-2.82812166214	16.0218372345	29.8135147095
-4.3024725914	-11.0648775101	27.4191741943	-2.40186429024	14.7507820129	31.6091060638
-3.91216778755	-11.14016819	27.229265213	-2.2039604187	14.3598127365	32.0143852234
-4.58767700195	-10.6535949707	25.2113113403	-2.24535727501	14.8171644211	31.7731800079
-4.57928657532	-9.71889972687	22.6175098419	-2.28167843819	15.0617570877	31.6895637512
-5.0116686821	-8.96975708008	22.8385982513	-2.12262010574	15.1894626617	31.5948429108
-3.41378235817	-5.08298635483	21.0431632996	-1.99657392502	15.4149971008	31.4865169525
-1.78510057926	-0.582742214203	9.82479095459	-2.23549318314	15.5112228394	31.3982467651
-0.974125742912	1.17650282383	0.664054572582	-2.06911349297	15.8252620697	31.1593856812
-0.413624793291	3.55461788177	-10.0998497009	-1.93630731106	16.0187206268	30.7585811615
1.7819507122	10.8653078079	-17.5069179535	-1.76610040665	16.3932151794	30.2808761597
3.19351220131	16.0949802399	-19.5330257416	-1.81466269493	16.5125694275	30.0506668091
4.51971244812	20.9051361084	-20.8436565399	-2.16852855682	16.7746944427	29.8404216766
5.96741247177	26.489112854	-23.8341770172	-2.45635533333	17.100818634	29.5370521545
6.18435621262	30.4750213623	-27.6594867706	-2.35897922516	17.3313617706	29.3588809967
4.94457387924	32.9194221497	-31.1551380157	-2.1326186657	17.530620575	29.0646915436
4.09678220749	32.266620636	-29.9565391541	-2.10528087616	17.6699390411	28.9928264618
4.02569675446	29.3089790344	-26.0437774658	-2.47929549217	17.7952976227	28.8893127441
2.8001139164	26.8182010651	-20.9032554626	-2.78309774399	18.1160392761	28.6321754456
0.130912125111	23.0622959137	-12.3289213181	-2.83432722092	18.1032752991	28.7672958374
-1.61208212376	20.2263717651	-4.09376573563	-3.030626297	18.2364997864	28.7185516357
-1.45499634743	16.5956344604	6.88934326172	-3.06206250191	18.3077812195	28.5254173279
-3.30921959877	14.2915744781	14.5802650452	-2.99909067154	18.2079391479	28.6301860809
-4.35533905029	9.13752937317	28.5939064026	-2.94623494148	18.2377719879	28.5875358582
-5.53567123413	1.66663169861	40.4288063049	-2.77682757378	18.2438983917	28.4524040222
-6.05851888657	-4.92713022232	42.7996864319	-2.74831390381	17.9072685242	28.1604652405
-8.99943447113	-11.6335573196	49.1546897888	-2.66432976723	17.6878604889	27.9861907959
-14.9596509933	-17.1647434235	62.4060058594	-2.78861927986	17.5210781097	27.8624362946
-19.1434936523	-21.1597671509	71.3948974609	-2.92729902267	17.5129032135	27.7484397888
-16.8984527588	-20.672039032	67.8871612549	-3.00846195221	17.4299411774	27.7933998108
-13.6951932907	-19.9747962952	57.2480812073	-3.18256306648	17.4746074677	27.6428833008
-11.5018014908	-18.1480407715	45.7733459473	-2.9490685463	17.3230571747	27.6040630341
-7.74161720276	-13.5658903122	28.6663646698	-2.80128884315	17.2726020813	27.4963607788
-3.49859499931	-6.05919265747	8.59550094604	-2.73305249214	17.1219215393	27.3769950867
0.530057370663	3.47880792618	-4.51632833481	-2.56138467789	17.0742206573	27.2985610962
2.99522638321	6.58161592484	-9.32567119598	-2.4468858242	17.212305069	27.0764217377
4.98216772079	10.5786743164	-15.7006921768	-2.24800157547	17.2167110443	27.4760723114
6.95532035828	10.5868349075	-14.6363744736	-2.37142801285	17.3129024506	27.1983795166
8.83450317383	10.1504716873	-13.0838479996	-2.41771578789	17.6496448517	27.0653400421
9.39316368103	11.1885433197	-12.093252182	-2.42381691933	17.7811374664	26.8901462555
9.33016014099	12.711728096	-14.2752981186	-2.43746638298	18.0172023773	26.8304958344
9.2943687439	14.7642230988	-16.0295639038	-2.54183983803	18.3272018433	26.7427463531
9.62515068054	15.2209634781	-15.3518886566	-2.57076478004	18.4270172119	26.7094955444
10.9648761749	17.9993610382	-15.4715995789	-2.58819961548	18.500371933	26.6012420654
11.3394851685	19.0349140167	-17.2797813416	-2.63662600517	18.4221096039	26.6922950745
11.0713682175	18.3083190918	-18.1710681915	-2.60553121567	18.3217716217	26.4748916626
10.4505968094	17.4263687134	-17.8950386047	-2.27877283096	18.329044342	26.6000461578
10.1956748962	13.5091161728	-9.76824855804	-2.36500740051	18.2540969849	26.5402069092
10.5158853531	10.179980278	-1.48183631897	-2.42570114136	18.1342887878	26.62840271
10.804019928	6.51357364655	2.71013522148	-2.58582925797	18.0046730042	26.5795154572
9.49364280701	4.05471277237	5.39301395416	-2.5844502449	18.0485591888	26.4868717194
7.24082660675	-1.62202847004	10.4523200989	-2.33015465736	18.0436630249	26.4318733215
5.37436199188	-6.43848419189	15.298743248	-2.1561665535	17.8902511597	26.5337123871
4.80371618271	-7.65214490891	16.7082214355	-2.29175186157	17.6847419739	26.4506092072
3.35518407822	-9.90403938293	21.4536552429	-2.37927675247	17.5415592194	26.4344406128
0.575901448727	-12.8142557144	30.9491672516	-2.35901236534	17.4197444916	26.4063282013
-1.86791956425	-14.8758401871	39.1002159119	-2.42773556709	17.4023151398	26.3412837982
-2.58271074295	-15.1157398224	43.1620063782	-2.25785064697	17.4165744781	26.3363075256
-3.45645952225	-15.7737388611	46.9530105591	-2.149985075	17.597202301	26.3715610504
-3.77093720436	-16.2952156067	48.1792144775	-2.07870316505	17.7125301361	26.3008136749
-4.16280937195	-17.1565532684	48.3232116699	-1.97610509396	17.7012729645	26.1720561981
-4.39937639236	-16.9853286743	46.3554496765	-1.92882978916	17.860086441	26.1564655304
-4.82991790771	-16.8547172546	45.3364372253	-1.97086548805	17.8103351593	26.0750846863
-5.32702255249	-17.6466159821	47.7960891724	-2.05197548866	17.8047618866	26.0461788177
-5.04477310181	-17.908493042	48.0196380615	-2.2284078598	17.8456287384	26.024263382
-3.41962075233	-16.0722179413	42.8926048279	-2.31969833374	17.7867774963	25.9401397705
-1.55440044403	-13.2497415543	33.8637275696	-2.64496397972	16.8202819824	25.1866912842
-0.736330986023	-10.8048820496	27.1484718323	-3.3428196907	13.7838659286	22.5709285736
-0.285767108202	-9.37174987793	22.845911026	-3.94780063629	10.8817873001	19.1978473663
1.14265465736	-6.66715431213	12.6956148148	-3.95849871635	9.15477561951	15.5286579132
1.57656943798	-4.89423799515	3.20325136185	-3.55400300026	8.18718910217	12.0511350632
1.40186369419	-4.59978294373	-1.39778077602	-3.12019705772	7.52561473846	9.36104869843
1.70698046684	-6.09219121933	-1.96413755417	-2.7602558136	7.44584131241	8.70170783997
2.03560733795	-6.52463817596	-2.87465691566	-2.44938755035	8.17704677582	9.18812561035
2.79308581352	-5.71757221222	-4.36885881424	-2.26191115379	8.7681016922	9.32747554779
4.6389040947	-3.27655291557	-7.85983848572	-1.95050287247	9.04851722717	9.53183555603
6.57330846786	1.04805064201	-13.1181840897	-1.67684221268	9.24767589569	9.72119617462
7.51278400421	5.90453958511	-16.267742157	-1.48761510849	9.5861082077	9.71794128418
7.2355055809	6.52060842514	-13.9991941452	-1.37329292297	9.63828086853	9.74023628235
6.58693122864	5.57056045532	-6.76684427261	-1.31731331348	9.7295627594	9.80152416229
5.69582796097	4.45598649979	4.11916303635	-1.34240794182	10.1124591827	9.90998363495
4.62993907928	3.03438973427	12.3493337631	-1.41985106468	10.552277565	9.92108535767
3.53732776642	-0.268760234118	20.9864559174	-1.45675420761	11.0901107788	10.0260877609
2.77580618858	-2.2563560009	23.5898513794	-1.28615891933	11.6078224182	10.1510877609
0.610348880291	-6.37228488922	29.5625171661	-0.989292681217	12.133266449	10.2439870834
-3.71273946762	-9.73960590363	40.8900756836	-0.772675395012	12.4888887405	10.4967279434
-2.87408781052	-9.06139373779	41.198425293	-0.854103028774	12.667222023	10.703537941
-1.87479841709	-6.99003791809	36.0984077454	-0.931916952133	12.8162164688	10.7633743286
1.01255583763	-0.828440070152	24.1289100647	-0.883558630943	13.0779676437	10.8865976334
3.76364850998	9.81692790985	13.6764669418	-0.82890611887	13.4169492722	10.9135084152
5.64954948425	14.8175010681	13.0117263794	-0.777566611767	13.5747003555	10.9564571381
6.83218955994	16.6879043579	14.8085231781	-0.859201848507	13.7336549759	11.0411634445
6.86308383942	18.2668571472	16.4138336182	-0.859717905521	14.04109478	10.9951705933
6.70136022568	19.458114624	19.5709819794	-0.632837116718	14.3678255081	10.9953660965
7.37438392639	19.4293174744	21.5873641968	-0.487448483706	14.7391891479	11.2054033279
7.12679004669	21.3654098511	17.3114910126	-0.59693223238	14.8596248627	11.2659778595
7.16604995728	23.3789157867	14.748049736	-0.4760620296	14.8903331757	11.3776264191
7.62905454636	23.3893680573	14.0369215012	-0.479067832232	14.6836881638	11.5237483978
6.84718990326	16.9372406006	11.7782001495	-0.655237853527	14.5319719315	11.427652359
4.18929767609	1.76068460941	21.0517921448	-0.73973184824	14.3985996246	11.1081295013
0.362848430872	-10.6644859314	34.4475822449	-0.679924845695	14.4615306854	10.8594112396
-11.7526826859	-13.704993248	44.7862854004	-0.453144341707	14.5833311081	10.7306785583
-16.8404426575	-6.04659461975	47.4825973511	-0.41891258955	14.8475570679	10.3156938553
-20.939655304	2.4229362011	52.4512443542	-0.309755474329	14.6725893021	9.99789810181
-8.72050952911	3.54122591019	37.1917381287	-0.404921889305	14.4003782272	9.89358043671
2.71030855179	-7.25550270081	15.2911558151	-0.749865472317	14.3157148361	9.82551765442
11.8106031418	-21.3721370697	2.1685385704	-1.09861445427	14.3089094162	9.48611927032
7.4193110466	-31.0718803406	12.969742775	-1.41970610619	14.5729856491	9.34955120087
7.82487630844	-33.8435211182	16.6754932404	-1.43296051025	14.9470500946	9.79784011841
-0.716403067112	-32.6618270874	36.2307319641	-1.67969107628	15.2246522903	10.0178337097
-3.93934011459	-31.1827220917	47.4890632629	-1.75161886215	15.5474157333	10.1495733261
-0.670677959919	-28.2240219116	47.761264801	-1.50955450535	16.1265869141	10.2297611237
-3.3267185688	-27.9911460876	55.5389671326	-1.26049458981	16.8034648895	10.3844213486
-1.63994455338	-28.3015155792	53.5809516907	-0.935851037502	17.3158016205	10.712100029
-2.06197214127	-28.6844139099	54.27293396	-0.8380240798	17.498796463	11.2324781418
0.724660098553	-28.5231285095	46.7679595947	-0.998215734959	17.5501232147	11.4254484177
7.33719062805	-27.1032218933	30.6204776764	-1.2950168848	17.6461372375	11.7105493546
5.72448444366	-27.4777526855	31.1717224121	-1.45058059692	17.7581443787	11.9426593781
4.48275089264	-27.1996803284	32.452331543	-1.52087414265	17.6127891541	12.5112323761
1.22858762741	-27.1909751892	42.0690155029	-1.78139543533	17.687877655	12.7703866959
3.05911970139	-26.7276821136	39.0980110168	-1.80245900154	17.7589168549	12.9991102219
3.34133887291	-26.4747390747	36.7818870544	-1.57436430454	17.5658397675	13.2025127411
2.7900249958	-26.3820514679	37.822265625	-1.56557250023	17.5323486328	13.277015686
1.94947481155	-26.3714962006	40.9141197205	-1.59177303314	17.4574832916	13.2322511673
1.4639942646	-26.2797355652	42.931854248	-1.47818887234	17.2603530884	13.3652467728
0.829244792461	-26.6895904541	43.8308982849	-1.62466645241	17.0475349426	13.3506298065
0.252616971731	-27.4511699677	44.4036827087	-1.68703889847	16.904964447	13.2784795761
-0.0130053721368	-27.9495792389	45.0276947021	-1.55355525017	16.7475185394	13.1564359665
-0.87962025404	-28.5813007355	47.217918396	-1.43211746216	16.6250019073	13.0862932205
-1.27591323853	-29.0302886963	49.7140617371	-1.3853020668	16.611410141	12.9603214264
-2.00448846817	-29.7579231262	53.0741233826	-1.04603683949	16.6607379913	12.96804142
-3.78254818916	-30.0774097443	57.9789123535	-0.798694252968	16.823261261	12.9189138412
-4.41897344589	-30.0340328217	59.3183898926	-0.0887391418219	16.8247642517	13.7018928528
-3.94350790977	-30.040304184	58.5144691467	0.840450108051	16.3525886536	14.978187561
-2.99270176888	-30.1488246918	55.6813850403	1.34566390514	16.0326881409	15.1905822754
-0.837060153484	-30.1739273071	50.9574928284	1.93931412697	15.6913614273	15.2699050903
0.460358828306	-29.5339813232	47.7861213684	3.11400127411	15.693775177	15.8144788742
0.698827624321	-29.7282314301	47.9748001099	4.28988647461	15.4752435684	16.1248321533
2.23200201988	-29.4946517944	47.2267189026	5.44753408432	15.3728122711	16.2644863129
4.28621387482	-29.8934497833	44.2654304504	5.79785728455	15.663561821	15.9961423874
7.42666292191	-29.002872467	35.7476158142	5.57563304901	15.8378334045	15.7306175232
7.83872032166	-28.6777458191	34.3107910156	5.34051990509	15.8605718613	15.4630146027
9.05434131622	-27.8791599274	31.4989070892	5.41612100601	15.9689321518	15.550239563
10.0328197479	-26.840133667	30.1711730957	5.21676826477	16.1144599915	15.4887266159
11.8549404144	-25.3550834656	29.5791778564	5.00074338913	16.2471065521	15.5133485794
13.0928859711	-23.4100475311	31.6823825836	4.82663726807	16.4643039703	15.4925069809
13.7655668259	-21.7110214233	32.6864395142	4.75054883957	16.565322876	15.600651741
13.8247556686	-20.6633071899	36.1095428467	4.84387207031	16.6251277924	15.5974206924
14.4003791809	-19.0015163422	37.6353302002	4.99502801895	16.7528686523	15.7834711075
13.7721118927	-18.8672637939	39.7480163574	4.92806196213	16.878988266	15.7039175034
13.1257038116	-18.1714324951	40.7961578369	4.966817379	16.9430084229	15.9083366394
11.7969436646	-18.4950904846	44.0088195801	4.88681411743	17.0995788574	16.0086097717
11.0933475494	-19.13164711	45.4355735779	4.81202745438	17.2651863098	16.0497150421
9.76429843903	-19.9708538055	48.9767112732	4.92623138428	17.1920146942	16.1492862701
9.56768608093	-20.5467834473	50.32995224	5.0017580986	17.0121860504	16.8175506592
8.60031700134	-21.5212554932	52.4101448059	5.16926813126	17.1030063629	17.3784198761
8.8054151535	-22.2127113342	52.0397529602	6.23943281174	17.2118587494	18.9711818695
8.3526506424	-23.0593204498	51.8751068115	8.44875431061	16.9509925842	22.1270675659
7.2971830368	-24.1387710571	52.3172035217	10.478518486	16.6547336578	24.8118019104
6.71513223648	-25.3434638977	52.6881637573	11.9393987656	16.4574642181	25.976518631
6.72428035736	-26.500005722	51.2261428833	12.8647356033	16.5799255371	26.4614810944
7.1706533432	-26.5910434723	45.1867332458	12.6210861206	17.1025524139	26.500919342
8.14639568329	-26.2810459137	41.1365776062	12.0040864944	17.5328388214	26.4750041962
7.03744029999	-26.537481308	44.4789199829	11.6042995453	18.0050735474	26.533000946
5.31672954559	-27.3431453705	49.1905403137	11.2973337173	18.32072258	26.4933834076
4.09262561798	-28.0568408966	51.7930183411	11.1720428467	18.5730037689	26.5008029938
3.3407702446	-28.3300304413	51.2299079895	11.1554918289	18.9053478241	26.4854717255
4.80243968964	-27.4966201782	44.7973937988	11.0580034256	19.0216007233	26.4655361176
5.89223670959	-26.0491008759	37.1415328979	10.6100635529	18.8416099548	26.0340385437
7.31743907928	-23.6724567413	29.1550979614	9.95158863068	18.6780071259	25.3684139252
8.22202301025	-21.7875843048	24.2575149536	9.53170776367	18.6807460785	25.3014469147
10.0303010941	-18.1852226257	16.1736698151	9.36552524567	18.7395038605	25.2670345306
12.7755947113	-12.1507368088	2.69532012939	9.37044429779	18.7171154022	25.2813339233
13.1579875946	-8.98509883881	-4.86435317993	9.27126216888	18.6873989105	25.2671585083
12.5294485092	-7.47560787201	-8.805103302	9.09268569946	18.7132968903	25.1194324493
12.3750333786	-8.70451927185	-4.19653367996	8.93387413025	18.7867946625	25.1028060913
12.3807706833	-9.25671863556	-1.10014605522	8.79315471649	18.7910804749	25.1014270782
12.1306114197	-10.5046195984	0.985478997231	8.72874546051	18.6860198975	24.9580516815
12.1280813217	-10.8064575195	1.09685015678	8.76237773895	18.6106052399	24.9954509735
11.1762609482	-11.4666805267	3.01550197601	8.73178577423	18.3446731567	25.1046047211
10.9377746582	-11.387922287	2.82844567299	8.52228164673	18.1533164978	25.1281337738
10.9777116776	-11.5148038864	3.20783877373	8.24459457397	17.8461971283	25.0253868103
11.071097374	-11.857881546	3.08455991745	6.95024061203	16.4822750092	24.6972064972
11.2640600204	-11.9305267334	3.56675648689	4.52251911163	14.8708562851	22.4059505463
11.7534351349	-12.1124687195	3.66411161423	2.37448859215	13.9716644287	18.8454666138
11.6527147293	-12.15736866	3.47952079773	0.954744815826	12.8538017273	15.7138538361
11.5461559296	-12.4496765137	2.94634366035	-0.230102717876	11.719833374	14.1992549896
12.1363935471	-12.5325746536	2.41738581657	-1.32320964336	11.7630262375	11.6459732056
12.3896780014	-13.0387020111	1.70122897625	-1.23950397968	13.2447385788	7.15275382996
12.3536291122	-13.4856519699	0.595263838768	-0.462151348591	14.6669244766	2.41373944283
11.9942617416	-13.3892889023	-0.430534213781	0.765949726105	15.8469343185	-0.321055144072
11.9820384979	-13.2120132446	-1.06127941608	1.70770847797	16.4665431976	0.0888404250145
12.3009595871	-12.5789585114	-1.8184479475	1.73063004017	17.0322532654	0.548452734947
13.1314601898	-11.4633731842	-1.96740424633	1.47255635262	17.8378353119	0.697337508202
14.3020439148	-10.3614454269	-3.02478265762	1.2767585516	18.7414646149	0.531192839146
16.0130691528	-8.46513462067	-8.59639167786	0.758228838444	19.5113353729	-1.19034254551
16.3688850403	-7.98470020294	-12.7692317963	-0.0402647294104	19.6885871887	-3.21563673019
15.397362709	-8.87527084351	-16.6872348785	-0.323716014624	19.3747940063	-4.14938735962
14.0270872116	-10.3053617477	-15.9759874344	0.0603196360171	19.0350208282	-3.84901976585
11.8197994232	-13.5215616226	-10.5589580536	1.16847681999	18.1516876221	-3.18630695343
11.4108362198	-14.0634346008	-8.48137664795	2.55728006363	16.7232017517	-1.88040530682
11.6021432877	-13.8840208054	-7.61268281937	3.49938130379	15.0826015472	0.00263247499242
11.5339078903	-13.8284883499	-6.64344978333	3.79720783234	14.3718681335	1.24324178696
11.2186555862	-14.144613266	-4.59140777588	3.40955615044	13.8378124237	1.7653260231
10.8584804535	-13.9850578308	-4.58554267883	3.54649186134	13.4975376129	1.90375363827
11.0455608368	-14.3896312714	-4.51143693924	3.5184969902	12.8603591919	1.63806736469
11.0311985016	-15.179227829	-4.41817522049	2.99408245087	11.8235187531	0.637065947056
10.7120037079	-15.2585573196	-4.08965349197	2.43177318573	8.11296463013	-1.15012419224
10.268866539	-14.9709444046	-4.11009597778	2.34634685516	3.33465528488	-1.33951103687
10.6762523651	-14.9777441025	-4.28311777115	1.85647082329	3.30867767334	-0.545766413212
11.0927324295	-15.2077255249	-4.36559438705	1.48676228523	3.9461452961	-1.62480974197
11.8666887283	-15.1629247665	-4.71723794937	0.924005329609	3.43087124825	-4.71290159225
12.0682096481	-15.0564317703	-4.65745306015	0.237552687526	2.83741188049	-9.02515792847
12.062628746	-14.8454084396	-4.28613090515	0.102906674147	1.96173906326	-15.2472448349
12.3713092804	-14.8935985565	-4.44459962845	1.21801757812	1.01614105701	-20.3900203705
12.5529279709	-14.9584312439	-4.64553928375	2.27139806747	0.841763973236	-24.1195144653
12.6352586746	-15.2970981598	-4.7892203331	1.98725390434	1.37272036076	-26.8225650787
12.5999755859	-15.7469387054	-5.47174882889	0.21141281724	2.46500277519	-29.208688736
11.8649950027	-17.2147293091	-7.78362751007	-0.749965548515	3.57659173012	-29.8773231506
10.0793981552	-20.8744087219	-8.0890378952	-0.761533141136	4.46579933167	-29.3299922943
7.05462789536	-28.553396225	-2.01407575607	-0.870068788528	5.40470647812	-28.5886058807
6.41708183289	-31.8763885498	-2.77145838737	-0.990280985832	5.91297626495	-28.2218437195
7.7465262413	-34.0361747742	-4.93100452423	-0.896820366383	5.85178756714	-28.1113071442
12.3847522736	-28.9275608063	-17.9188327789	-0.896076798439	5.5644865036	-28.4749774933
14.5713977814	-25.0048179626	-29.7504024506	-0.821417272091	5.63114452362	-28.8679695129
16.0090427399	-20.7582492828	-40.226184845	-0.790503025055	5.96141386032	-29.2977027893
16.9199409485	-20.7015018463	-42.5727462769	-0.830617666245	6.24763679504	-29.4896125793
17.0186653137	-23.7249603271	-43.2436790466	-0.930459678173	6.62038135529	-29.7137889862
15.0650482178	-25.8188514709	-51.9528388977	-0.86056882143	6.67738866806	-29.9715938568
13.4646406174	-25.4179019928	-62.7335968018	-0.693988144398	6.91400671005	-30.2423248291
14.1136875153	-24.034362793	-70.0130386353	-0.599119246006	7.19648504257	-30.4263038635
15.3870801926	-22.5032081604	-73.5445404053	-0.532208442688	7.34801149368	-30.4772777557
17.3397579193	-20.0127830505	-77.455696106	-0.596485078335	7.68349885941	-30.3124313354
19.931268692	-19.3129329681	-79.4246368408	-0.611973583698	7.91994428635	-30.2217178345
21.9679584503	-18.8126964569	-79.9945068359	-0.414230823517	7.98633337021	-30.2193470001
21.7244319916	-17.0794658661	-79.3824310303	-0.0689199566841	7.96231985092	-30.0923233032
21.2487983704	-14.5266008377	-74.5909805298	-0.13682256639	8.09798908234	-29.8347740173
21.2559452057	-14.320315361	-68.7815322876	-0.486332386732	8.93032455444	-29.4713516235
21.8970394135	-14.5887994766	-63.6875953674	-0.570789813995	10.8430900574	-27.951417923
22.0153999329	-15.9984769821	-60.3568878174	-0.636317849159	12.8040790558	-25.9432239532
22.6212615967	-17.5255794525	-57.158039093	-0.81035387516	14.5948181152	-24.4432868958
22.8511600494	-18.8775100708	-56.362537384	-1.07896995544	15.3996019363	-23.1633739471
22.6820907593	-20.2886314392	-54.3029708862	-1.4602612257	15.638092041	-21.9453449249
22.4518737793	-22.1367435455	-49.9551544189	-1.88439774513	15.9489879608	-21.0522041321
22.0527839661	-23.8371067047	-46.74766922	-1.99189686775	16.1440925598	-20.2367248535
21.2739429474	-25.1428508759	-42.4577064514	-2.02440190315	16.3699188232	-20.1725025177
20.6937923431	-27.3231449127	-37.6548194885	-2.02089142799	16.3848438263	-20.3788433075
20.1936950684	-30.9180831909	-32.024684906	-1.82356536388	16.3831138611	-20.3140125275
19.1667366028	-31.0601043701	-30.7194194794	-1.65174114704	16.4160804749	-20.3112564087
18.7025260925	-31.7486801147	-28.8732013702	-1.5091779232	16.3769683838	-20.1589241028
18.3311386108	-31.7652549744	-26.7072906494	-1.23658359051	16.3710746765	-19.8403968811
17.6939029694	-33.3169403076	-23.6468086243	-0.859669446945	16.1841278076	-19.5328521729
17.5062923431	-33.645198822	-22.8293762207	-0.255188971758	15.9842262268	-18.8807525635
17.0443534851	-33.820892334	-22.2989139557	0.612142682076	15.4012117386	-17.6031761169
16.3158359528	-33.8849258423	-21.4673175812	0.969626128674	14.7544126511	-16.7772331238
16.686882019	-33.4353904724	-21.8202457428	0.484624743462	14.173406601	-17.1893444061
16.9626159668	-33.0943717957	-21.825056076	0.0397505015135	14.3380756378	-17.9176998138
16.6444683075	-32.589931488	-19.7130146027	0.0205930452794	15.1199541092	-18.5226840973
15.8367452621	-32.2424049377	-15.6125211716	0.188819825649	15.7508859634	-18.5906124115
13.7913980484	-34.4266624451	-5.38164710999	0.220050022006	16.2067756653	-18.3092517853
13.2210235596	-34.4855461121	-3.66968369484	0.0375832617283	16.3486251831	-18.114610672
12.8591861725	-33.4714813232	-4.99995422363	0.0576675981283	16.260761261	-17.9687824249
13.3816318512	-31.4430789948	-9.77211952209	-0.00464083999395	16.1025524139	-17.9590435028
13.4274978638	-28.9501628876	-15.2738075256	-0.166823670268	16.1959438324	-18.066493988
13.375620842	-28.0554485321	-18.4295520782	-0.31072345376	16.2183036804	-18.1323223114
13.417755127	-27.4984302521	-22.1649436951	-0.535820364952	16.2872829437	-18.3437175751
14.2871274948	-24.9740982056	-30.119562149	-0.440187841654	16.3003540039	-18.5670471191
15.4547863007	-20.0826091766	-42.8125953674	-0.127908021212	16.4095211029	-18.7321910858
16.1415119171	-17.9616394043	-49.0461349487	0.0279551986605	16.8887958527	-19.2253322601
16.4201507568	-17.2712535858	-49.7879562378	0.11287740618	17.1550254822	-19.6685943604
16.9422988892	-15.648888588	-52.4928092957	0.127150923014	17.2178993225	-19.8211288452
16.9951457977	-14.8008060455	-56.3388061523	-0.0481343753636	17.2160129547	-19.9400959015
16.8124294281	-14.267323494	-60.3079948425	0.0187873244286	17.3358078003	-19.996055603
16.5143108368	-12.4768943787	-66.0192947388	0.0672196894884	17.5201568604	-19.9917907715
16.5797481537	-9.99122714996	-70.9017028809	0.106515102088	17.6286277771	-19.9110221863
17.465057373	-8.44585704803	-72.5442962646	0.0122715560719	17.6311664581	-19.730638504
18.2375488281	-7.54962921143	-72.2029800415	-0.169154256582	17.4449119568	-19.7536869049
18.5994338989	-7.24913597107	-71.8829269409	-0.14402090013	17.3397884369	-19.8535919189
18.7955970764	-7.32612276077	-71.4945983887	0.0348572805524	17.590877533	-19.904706955
18.9438056946	-7.44694423676	-70.9258346558	-0.0115972869098	18.1784210205	-20.0176086426
19.3981685638	-7.35235643387	-71.4286117554	-0.0945534482598	18.3879165649	-20.6924133301
19.7027397156	-7.31516981125	-71.5253829956	-0.981183171272	18.7541255951	-21.8449363708
20.0172481537	-7.54601383209	-71.8339920044	-1.96755754948	19.7934589386	-23.267698288
20.4075031281	-7.39390611649	-72.1321182251	-2.20858430862	21.1837444305	-24.8762645721
20.7716312408	-7.22130775452	-72.7854690552	-2.44422698021	23.3718204498	-25.822303772
21.4628105164	-7.13303899765	-73.1224517822	-2.47100806236	25.1284503937	-25.8309383392
22.2336063385	-6.93088960648	-73.6385498047	-2.64011073112	26.7383937836	-25.8341770172
23.0610599518	-5.65446662903	-75.2055358887	-2.55422401428	28.1698188782	-25.7623825073
23.6073970795	-2.78457260132	-75.8177947998	-2.36676025391	29.0518722534	-25.2654685974
23.6439933777	-1.81640839577	-69.6232528687	-2.42236757278	29.3036270142	-24.8811016083
22.8954544067	-2.55466914177	-60.8799552917	-2.31787109375	29.3954257965	-24.4864330292
21.0142765045	-0.582576751709	-42.4646034241	-2.07557988167	29.564907074	-24.1293048859
19.4917144775	4.7569231987	-25.9893512726	-1.84622776508	29.6135883331	-23.8098545074
19.8381004333	7.76873445511	-19.8829402924	-1.90505385399	29.6316680908	-23.6628799438
19.0256290436	7.9196562767	-17.0613136292	-2.02490830421	29.6658802032	-23.6413440704
17.5140724182	5.84311103821	-11.2713031769	-1.82164204121	29.7168865204	-23.4412784576
13.8503303528	5.9591178894	-6.92683315277	-1.66440856457	29.5848941803	-23.1112174988
11.6253318787	8.07736587524	-4.34476184845	-1.48718976974	29.4778575897	-22.8818778992
9.41468906403	14.6022167206	-8.71002960205	-1.31133556366	29.3813705444	-22.2916183472
9.0998210907	18.5787448883	-9.81377029419	-1.3314640522	29.1320457458	-21.9378681183
8.6155424118	20.6497917175	-8.92867279053	-1.52070343494	28.9899368286	-21.7346630096
8.10974597931	19.7081680298	-8.34128856659	-1.67190992832	29.0766506195	-21.565656662
7.48352861404	19.8200798035	-8.76609039307	-1.76638329029	28.9923400879	-21.5021896362
6.97498130798	19.3071670532	-8.30349159241	-1.64534831047	28.8241977692	-21.6228408813
8.33352375031	13.8893718719	-3.68500971794	-1.29848563671	28.6298027039	-21.328710556
8.81130027771	8.73654842377	-0.92002171278	-1.23922085762	28.4300460815	-21.2366771698
9.09345149994	3.99780774117	3.48422884941	-1.06040942669	27.8131446838	-20.9373893738
11.0442962646	1.10394155979	0.746711015701	-0.206561714411	26.4578266144	-19.7014007568
12.5198068619	-3.68259906769	-1.16700959206	1.67986667156	24.0869312286	-17.039604187
13.4802904129	-10.9639225006	-2.49621748924	4.02009630203	21.2836513519	-13.6144018173
14.0508852005	-19.2479476929	-1.71590042114	6.23547554016	17.9903964996	-9.91434669495
14.0730676651	-26.6182231903	-0.860680162907	8.33843040466	13.7302131653	-5.20376586914
13.906006813	-32.6471138	0.490271627903	9.24283599854	9.81531333923	-1.2362651825
13.424990654	-37.242061615	-0.16858266294	8.93284130096	6.7647190094	2.06894469261
12.1848974228	-40.4390449524	-0.429189503193	7.33827209473	3.86075735092	5.15749931335
11.7098779678	-42.6684150696	-1.13132989407	4.64217424393	1.4484705925	7.78635549545
11.1465864182	-44.6708869934	-1.13264238834	1.64204287529	-1.09846878052	10.5240364075
10.1663446426	-45.0562553406	-0.489256024361	-1.764290452	-1.97738289833	12.745429039
8.70095443726	-42.8323898315	-0.859542131424	-4.21945476532	1.71020650864	13.8449850082
6.74630451202	-37.2434844971	1.04254889488	-4.98399400711	5.72289323807	14.6813926697
5.15855836868	-31.2361831665	-0.206102535129	-5.51705932617	7.58411121368	15.2109680176
4.25766849518	-30.0816135406	1.22333276272	-5.93819761276	10.9864635468	15.7854785919
5.1914935112	-29.590587616	0.075759999454	-6.28069210052	14.0327796936	15.9554948807
5.98397397995	-31.9113922119	-0.698226630688	-6.5470199585	14.728187561	16.4659729004
5.04637241364	-34.386932373	0.130073487759	-6.50174379349	13.9438514709	16.8311958313
4.53378677368	-38.9650421143	2.64735746384	-6.36182975769	12.4713001251	16.7343826294
5.59017038345	-37.1021308899	4.02780580521	-6.55363798141	12.3202266693	16.7744083405
8.20680522919	-27.4242649078	0.871842384338	-6.83840322495	12.8632287979	16.4605426788
7.92260456085	-21.9098834991	-0.849832117558	-7.01053619385	13.2018537521	16.6462440491
8.09811592102	-19.7297973633	-2.14734721184	-7.24821662903	13.225353241	16.8058681488
7.79067850113	-24.0942363739	0.0365541651845	-7.2188577652	13.3340826035	16.9022102356
6.75362539291	-25.9400024414	1.20556223392	-7.01906633377	13.4981966019	17.1047554016
6.43077468872	-21.4699726105	0.0342171378434	-6.99338197708	13.9416065216	17.1115818024
5.20785045624	-17.2141704559	1.39281988144	-6.94279146194	15.4935321808	17.2800884247
4.47728061676	-12.2758169174	1.44339394569	-6.31377124786	17.9417095184	18.3776378632
3.54989314079	-9.84783744812	1.87011384964	-5.70414686203	20.8974018097	20.7850723267
2.99736428261	-8.76502799988	2.42051243782	-6.03224039078	22.8566188812	21.150888443
3.21788668633	-8.11944580078	4.31327581406	-6.31176662445	24.4109611511	21.0864372253
3.64249014854	-8.14190578461	3.54655170441	-6.174659729	25.2609004974	21.5602645874
3.76139235497	-9.53003120422	1.94748139381	-6.18091440201	25.6401348114	21.6692676544
3.51707053185	-11.5989561081	2.43075585365	-6.66904401779	25.8970146179	21.5181388855
1.29615724087	-17.0577487946	6.76916885376	-7.34004831314	25.8937129974	21.3966636658
0.458354979753	-17.8472995758	7.48146867752	-8.13318729401	26.2947711945	21.1037044525
-1.22354161739	-18.5498352051	8.37041568756	-8.56379032135	26.3311634064	21.2758102417
-1.29889154434	-20.7884368896	8.81448078156	-8.74516868591	26.8131046295	21.9570426941
-5.19621562958	-25.589225769	10.3408470154	-8.90824127197	27.2550811768	22.7182197571
-7.3886680603	-25.4077301025	9.98272609711	-9.19829177856	27.1709156036	23.0775699615
-5.76472330093	-23.1250324249	7.89273023605	-9.74944782257	27.3144702911	23.2538394928
-8.97860622406	-26.9013080597	12.410484314	-10.0010700226	27.2917423248	23.6636714935
-11.5904245377	-28.1072978973	17.8817901611	-10.2449378967	27.3909053802	23.648443222
-13.1344032288	-26.5263767242	22.7417640686	-10.1553421021	27.5773639679	23.8892936707
-12.8885507584	-24.1641960144	27.7827014923	-10.2498416901	27.7605934143	23.9498386383
-11.2285861969	-22.8161411285	32.9215164185	-10.5404806137	27.8222904205	23.7385616302
-10.9023838043	-23.2492218018	39.233089447	-10.6030416489	27.8143596649	23.5059108734
-11.8363637924	-25.0308055878	42.6344184875	-10.357793808	27.7183799744	23.4223403931
-15.3578195572	-27.7299633026	45.0663032532	-10.1081609726	27.1456680298	23.4985179901
-19.2897319794	-31.163936615	46.5892448425	-10.1030282974	26.0482177734	23.7352218628
-21.802690506	-34.27576828	46.4295539856	-10.53723526	24.8938331604	23.9112300873
-22.3492107391	-35.6664009094	44.8758354187	-10.9831676483	24.5955181122	23.9233169556
-23.6538181305	-37.1736412048	45.0194854736	-11.1717100143	24.7226810455	23.8479404449
-27.227766037	-40.0077133179	50.1801261902	-11.2128267288	25.0023155212	23.7343711853
-28.1775798798	-42.5755996704	51.9641914368	-11.2047672272	25.1963024139	23.5928459167
-28.5896549225	-42.2104568481	53.4065742493	-11.0427055359	25.2343730927	23.5912342072
-29.85912323	-41.7229385376	57.2402381897	-10.9372262955	24.975976944	24.0053005219
-30.3121070862	-42.1329116821	59.253616333	-11.3010206223	24.3492164612	24.7172355652
-34.8224487305	-43.914276123	65.2024383545	-12.2008581161	22.9415645599	25.8024330139
-38.7400779724	-45.5320510864	68.9267959595	-13.4996967316	21.1525249481	26.6983833313
-40.1299591064	-46.9682350159	68.3204040527	-14.9135732651	20.0455322266	26.5848960876
-43.1260910034	-47.8533287048	68.0008926392	-17.3380565643	19.3091697693	25.8679943085
-47.664680481	-48.7236022949	68.9700546265	-21.8213748932	18.9738407135	23.8864612579
-50.2720451355	-48.5843467712	69.5314407349	-24.7787876129	19.5155754089	22.7337760925
-51.8625106812	-49.7010574341	69.5366592407	-25.4842376709	19.6402320862	23.0954113007
-56.4596366882	-49.2037811279	73.3182907104	-25.2913513184	19.5722408295	23.6613864899
-60.4404258728	-49.9870300293	76.3403015137	-25.4187526703	19.5803337097	24.1557178497
-61.6151351929	-51.17918396	77.2668228149	-26.1749248505	19.4496231079	24.0684318542
-64.9440460205	-52.5374832153	80.2179336548	-27.5852642059	19.7179584503	23.1937141418
-66.8330230713	-52.6326522827	81.4368972778	-29.4028759003	20.5478420258	22.4079227448
-67.8050003052	-52.3226699829	81.431854248	-30.6352310181	20.9630393982	22.8677463531
-68.8102645874	-52.0200004578	81.4981536865	-30.5828475952	20.9809474945	24.2196998596
-69.2783279419	-51.7122650146	81.1731414795	-31.0653381348	20.8150806427	25.444940567
-70.1775741577	-50.8055610657	80.9363327026	-32.4561882019	21.4722881317	26.5202713013
-71.3391113281	-49.8015899658	81.7649078369	-33.6849632263	22.8717384338	26.9263572693
-60.6968917847	-49.4749946594	66.3467254639	-33.7171669006	23.6741275787	27.0281486511
-54.1390533447	-51.4181289673	55.4149513245	-32.9283447266	23.7485866547	27.1986865997
-55.6213188171	-50.7285041809	56.9756736755	-32.6202850342	23.9909496307	27.1516075134
-55.9715766907	-51.0313911438	58.5741958618	-32.3113555908	23.9829120636	27.0184421539
-57.9529953003	-51.5605163574	62.0560569763	-32.0585861206	23.9265136719	26.7727336884
-61.4591140747	-51.9902839661	67.7278900146	-31.8966197968	23.9204387665	26.4990386963
-61.3689155579	-52.3081512451	68.1192626953	-31.7229042053	23.8926563263	26.2630958557
-61.6096496582	-52.2663803101	71.0834121704	-31.5170478821	23.9034175873	26.1140499115
-63.8691215515	-49.0915374756	79.1195983887	-31.3201389313	23.8723888397	25.9942798615
-61.7889556885	-46.3811340332	82.2581634521	-31.128660202	23.8153476715	25.708158493
-58.8116836548	-44.1110649109	84.6891860962	-30.9552001953	23.7100982666	25.4346599579
-54.0393218994	-42.8282394409	86.1702728271	-30.6298122406	23.6956806183	25.4547901154
-50.0934715271	-42.9085540771	85.1825256348	-30.086145401	23.5782852173	24.9697418213
-47.1838302612	-43.9675483704	82.5680465698	-29.51912117	23.5605258942	24.3747520447
-40.9245986938	-46.2744827271	68.3874282837	-28.6928157806	23.6015720367	23.2537498474
-16.2946567535	-46.6777763367	32.0691452026	-26.9539871216	22.8566246033	19.8204994202
5.46198987961	-37.3206176758	-1.25801801682	-24.7570114136	21.2269020081	14.9422073364
13.2470331192	-29.0598907471	-15.843290329	-21.4339256287	19.0816955566	8.96231651306
15.5342302322	-27.5208587646	-16.8723964691	-17.5364685059	16.6431694031	3.82578873634
17.9059047699	-27.1103019714	-18.8324184418	-11.0876197815	14.8546228409	1.27526736259
19.7453765869	-27.7122802734	-17.798160553	-6.33999872208	13.1742553711	-0.556223273277
20.7341327667	-27.0221347809	-19.3842086792	-2.14709758759	10.5292854309	-2.27697014809
22.7368164062	-26.2447605133	-20.5980186462	0.128745004535	7.04146623611	-3.61567854881
26.0199432373	-20.0256500244	-27.4686851501	2.02689623833	3.29027318954	-4.79212474823
30.0380096436	-12.8650054932	-31.2504558563	5.08110427856	1.78749859333	-6.62305116653
29.9265918732	-13.3899259567	-29.0274982452	6.30179595947	1.92583572865	-8.47691917419
29.5102596283	-15.5493116379	-27.513835907	5.68424367905	2.25092411041	-8.1949596405
29.1678237915	-17.7272548676	-26.000087738	4.49511909485	1.3535181284	-8.08699893951
29.0202693939	-12.1962795258	-31.758972168	3.87394285202	1.23982441425	-7.43575525284
31.3668079376	-8.98372936249	-33.1842498779	3.26922392845	0.294524133205	-6.8423242569
34.4099807739	0.631153047085	-38.3385772705	2.66138648987	-0.159461975098	-6.608730793
36.5467376709	4.15939235687	-31.5889835358	1.49728989601	-0.476574450731	-6.2184419632
33.4278373718	2.75167775154	-31.2071342468	-0.901511788368	0.114532858133	-4.7156457901
29.3243503571	-0.217967629433	-36.0286407471	-2.23867702484	0.588886678219	-3.92190241814
25.963842392	3.03052806854	-45.4400177002	-2.23682236671	2.16005516052	-3.03453922272
26.551153183	2.88671970367	-51.7813262939	-1.82983660698	1.15182888508	-2.28756451607
30.139705658	5.92050361633	-55.2231903076	-2.29435658455	1.15927731991	-2.6145606041
29.2846889496	4.16233682632	-57.3774681091	-4.44743013382	1.68266355991	-3.96967554092
25.6991024017	0.775401473045	-60.7949142456	-6.85563182831	2.49886965752	-3.85920786858
22.7616977692	-1.57589185238	-64.5108337402	-9.48922252655	3.00247120857	-3.54367041588
23.7441635132	-3.28090834618	-64.0760269165	-13.0177211761	4.34103965759	-2.65659928322
22.4427661896	-4.59846639633	-63.5866088867	-14.9264259338	6.19012260437	-1.73117017746
22.5599651337	-4.21027374268	-66.4096298218	-14.1475830078	6.48205041885	-1.59959483147
22.5552597046	-1.67245411873	-66.2243881226	-12.1395540237	6.60927438736	-2.10709738731
24.8637542725	1.90772390366	-63.2137145996	-10.1315517426	6.90630817413	-2.44756293297
25.8652210236	0.203105539083	-55.999835968	-8.17973995209	6.70157051086	-2.62899184227
26.777015686	-8.78609848022	-49.268119812	-6.51473808289	5.68104696274	-3.17563343048
27.3966445923	-18.7784805298	-35.8799819946	-4.30171298981	4.24130105972	-3.47943282127
29.4728164673	-24.3642940521	-19.7419929504	-1.77111840248	4.00317525864	-3.49984335899
31.6866703033	-27.204454422	-12.1179475784	0.714895248413	3.54735684395	-3.57879924774
31.5721797943	-30.5160331726	-5.35969257355	3.28397202492	1.48607552052	-3.6376709938
31.0058994293	-35.8875694275	3.05393242836	4.81686925888	-1.76087892056	-4.17159557343
33.0915718079	-39.4460525513	8.10136222839	5.58829498291	-4.92934560776	-4.24139022827
33.9880752563	-38.7796020508	6.09413290024	6.08549690247	-8.35323619843	-3.5457482338
33.0039978027	-38.0405883789	7.06864690781	6.46141052246	-11.1165790558	-3.03373241425
30.0267105103	-40.1938400269	13.9820642471	6.47475862503	-11.6248083115	-2.78503012657
32.4928512573	-42.6596260071	9.1970243454	6.64984607697	-12.797917366	-2.75575780869
38.1540374756	-39.6635704041	-3.25798726082	6.7432384491	-14.3748025894	-3.32299232483
40.510848999	-33.6676979065	-14.5602359772	6.42633676529	-15.0753974915	-4.05326557159
39.5926551819	-32.6728439331	-16.0971794128	5.53111696243	-13.8085069656	-4.0860414505
38.4753913879	-31.679069519	-16.5188922882	4.579641819	-13.059220314	-3.89337038994
37.6501502991	-31.8789482117	-17.329492569	4.1002202034	-12.5314531326	-3.56062340736
37.6827964783	-31.7760334015	-17.3880386353	4.08962154388	-12.8925418854	-3.10421538353
38.5039367676	-31.8942947388	-16.8450717926	4.38411426544	-12.8719730377	-2.94149112701
40.7230186462	-30.1533107758	-16.5300998688	4.94810247421	-12.1734685898	-3.27924060822
40.8256988525	-23.0310306549	-23.5427742004	5.27547740936	-11.8477983475	-3.93879342079
38.4676132202	-14.5857248306	-32.1681442261	5.29426240921	-11.2458734512	-5.1051940918
33.5460357666	-4.61420965195	-40.6434555054	4.60456037521	-7.19725370407	-5.55953931808
28.2738857269	3.53500533104	-46.6877632141	3.95427942276	-2.39496088028	-5.81259441376
20.8729343414	12.6410913467	-54.5992355347	4.06921386719	1.25176167488	-6.00168418884
17.758808136	16.4787597656	-57.9712371826	4.23950576782	3.10606384277	-5.97314310074
15.3640413284	18.5169296265	-53.4781494141	4.32941627502	4.22096252441	-5.81145048141
17.1335887909	17.1306037903	-46.5408592224	4.36784362793	5.05752134323	-5.56771945953
18.4277420044	13.6676216125	-43.5052566528	4.28684949875	5.90037441254	-5.09991598129
18.7730197906	12.1169347763	-44.9746589661	4.31178283691	6.40985250473	-4.84326648712
19.4745941162	10.9088115692	-43.3133087158	4.85326719284	7.24050712585	-4.74453496933
19.5888824463	10.0150995255	-41.8574562073	5.04448461533	8.00984859467	-4.51822900772
20.4600887299	9.25363063812	-40.7377624512	4.29595375061	8.49598789215	-4.53192806244
23.3976516724	8.81828308105	-41.4189376831	4.28961324692	8.57759284973	-4.43918323517
25.5454082489	12.4916591644	-49.1880836487	5.04008960724	8.64787769318	-4.29025220871
25.3954429626	11.9268684387	-51.6854553223	6.10962724686	8.60711669922	-4.13619089127
26.7329158783	9.49023246765	-46.603187561	5.95012235641	8.72366809845	-4.14475345612
28.7777080536	2.90070223808	-34.4179267883	4.99352502823	8.68095111847	-3.96478486061
28.2100963593	-6.55467653275	-17.9741630554	4.32220458984	8.7798910141	-3.42509078979
25.7762508392	-15.8811607361	1.23067331314	3.93988418579	9.06999588013	-2.98818922043
23.4658260345	-19.0824642181	11.776268959	3.82163190842	9.03979110718	-2.704672575
20.2618923187	-23.1649017334	25.0652809143	3.86486291885	8.9017829895	-2.53155422211
18.294708252	-23.8259143829	32.1336326599	3.83476257324	8.83725357056	-2.35399341583
17.0637073517	-23.7871685028	36.2642631531	3.70686030388	8.82840633392	-2.41890931129
15.4672307968	-23.5904407501	40.4593009949	3.57629489899	8.98303031921	-2.42605781555
13.1630334854	-24.4990825653	47.3381233215	3.36838245392	9.31660556793	-2.45317864418
11.4445438385	-25.4597434998	52.8942146301	3.01335549355	9.62111663818	-2.36596822739
10.6181631088	-25.9805088043	55.1626243591	2.40628647804	10.1927499771	-2.22893595695
10.3679647446	-26.8049716949	55.8369140625	1.85799777508	11.1293258667	-1.8964959383
11.2186641693	-27.6693248749	54.5415649414	1.73387944698	11.4627456665	-1.59991049767
10.3751773834	-27.8062782288	54.7393188477	1.76813483238	11.4970731735	-1.32228267193
10.2591609955	-27.9034576416	54.1917076111	2.27623057365	10.7268629074	0.710564613342
10.2832098007	-27.9600067139	53.2107505798	3.45624065399	10.5956583023	6.94408655167
10.3577260971	-28.2526302338	52.3343811035	5.02500534058	11.4739198685	12.1894702911
9.61621189117	-29.4113826752	52.6439476013	6.61070203781	12.5737752914	15.3306131363
9.086186409	-30.3492298126	52.5891304016	7.53871107101	12.9362688065	17.2425403595
8.77743911743	-31.2477035522	52.7412071228	7.72760868073	13.0527181625	18.1988811493
8.62420272827	-31.8476829529	52.6816673279	7.90871143341	13.1779212952	18.6275424957
8.14999389648	-32.4176902771	52.680721283	8.02890110016	13.3569173813	18.6302909851
7.12470293045	-33.0151023865	53.1877250671	8.44528484344	13.2895231247	18.7383460999
6.56625270844	-33.7407226562	53.1240692139	10.1184864044	12.9705324173	19.0732650757
5.67983722687	-34.0507698059	53.2543678284	11.8657073975	12.9390268326	19.2158603668
4.99227714539	-34.4189834595	53.7256469727	12.3161439896	13.1016778946	19.2522296906
4.52250337601	-34.9183082581	54.3760757446	11.7416677475	13.0401525497	19.3788948059
4.58030939102	-34.7091407776	54.4182472229	11.1758403778	13.1306276321	19.6622238159
4.99296522141	-34.6536445618	53.4636802673	10.6964054108	12.9703617096	20.2943611145
4.76290988922	-34.5408325195	53.3498916626	9.82267951965	12.5865240097	20.7896156311
3.90371322632	-34.8528785706	53.7171516418	9.13264560699	12.0708827972	21.2727069855
2.60543012619	-35.3327713013	54.2391395569	9.17385959625	11.2672615051	22.2367076874
1.85028648376	-36.0757026672	54.4145393372	9.05435752869	10.4762535095	23.1223278046
3.49831676483	-35.3796806335	50.6830406189	8.47255706787	10.8624248505	23.2838363647
3.86814141273	-35.1966819763	48.6917304993	7.7673034668	11.2854309082	23.1326828003
6.57299470901	-33.1839828491	41.9744606018	7.32081508636	11.2351827621	22.9236755371
9.17299842834	-29.9515628815	31.6162242889	6.96740245819	11.1941070557	22.7090091705
9.62617778778	-27.431596756	25.4097251892	6.72716712952	11.3128671646	22.9144191742
9.16151237488	-26.0541381836	23.6644268036	6.47825622559	11.7135219574	23.3023319244
8.76929664612	-24.7044258118	21.2419662476	6.07891464233	12.4969749451	24.2779483795
8.79840755463	-22.1886177063	17.2197284698	5.53812837601	13.1185150146	25.0387630463
8.00199317932	-21.9388542175	16.7332134247	4.86270236969	13.5208110809	25.8184204102
7.60026216507	-21.2220306396	14.4453639984	4.20522880554	13.8277750015	26.1948871613
7.66286325455	-20.2139472961	10.9421100616	3.85247206688	13.7636089325	26.3507556915
7.97609758377	-19.2728691101	7.4896273613	3.82571387291	13.4254331589	26.6717338562
7.61961841583	-18.7903060913	6.93061161041	3.57125353813	13.196310997	27.2833137512
7.56717729568	-18.866519928	7.06944274902	2.68641543388	12.8957462311	27.6011562347
7.61426067352	-19.2540550232	7.12206363678	1.78135335445	12.550122261	28.5708236694
7.67950725555	-20.3537502289	7.29161214828	0.77150708437	12.8362751007	29.3457641602
7.48102712631	-20.9349250793	7.62179422379	-0.0833982899785	12.9840536118	29.5397548676
7.29830312729	-20.5027542114	7.36751747131	-0.157603383064	12.8710737228	30.2159385681
6.78677797318	-20.3534984589	7.81642198563	-0.223010271788	12.9974918365	31.0266361237
6.66994428635	-21.2641468048	10.2946920395	-0.482556134462	13.3651132584	31.6633243561
5.96729040146	-22.6116981506	12.8807573318	-0.683996617794	13.7787666321	32.0333213806
6.42851829529	-21.7155799866	9.95164871216	-0.936345398426	13.9400901794	31.9877204895
7.29774904251	-18.2768497467	3.59454274178	-0.91819268465	13.9833402634	31.950553894
6.55568218231	-17.0341701508	2.3607647419	-1.73985338211	13.0177373886	31.4731197357
6.40654182434	-17.5564689636	2.78120613098	-2.65663576126	12.308754921	31.1132907867
5.55565929413	-18.2307052612	3.52404904366	-2.66374897957	13.4382648468	31.2813682556
5.75345945358	-18.9443073273	2.03660511971	-2.52577972412	13.8353147507	31.5250778198
4.80315876007	-19.9652481079	4.19075536728	-2.81913876534	13.7511520386	31.5071754456
3.3435485363	-21.6633739471	7.20349311829	-3.03310275078	13.7662878036	31.3179893494
3.05181264877	-21.3970165253	8.64032649994	-3.04220175743	13.5738077164	31.2534370422
3.26719021797	-21.560710907	9.54521942139	-3.20900821686	13.6415281296	31.0067043304
4.53744649887	-19.1916942596	2.650411129	-3.13078641891	13.9413385391	31.470998764
5.3930182457	-13.4915075302	-10.4070148468	-3.19295597076	14.0316267014	31.4661884308
4.8774561882	-11.6476707458	-13.6119298935	-3.31778669357	14.455124855	30.9126625061
4.87252759933	-10.8793897629	-12.9995212555	-3.22178053856	14.6807165146	30.8882083893
5.1777472496	-11.5657014847	-10.6491308212	-3.28207468987	14.7383289337	30.7293243408
5.35294485092	-11.9846115112	-9.92245864868	-3.4679517746	15.0157518387	30.4437923431
5.66609477997	-12.6572799683	-8.71708679199	-3.44291472435	15.3644475937	30.3366680145
5.60208749771	-13.3157529831	-7.27419042587	-4.07548904419	15.0640296936	28.8593463898
6.29557514191	-13.1831026077	-7.08874130249	-5.35617589951	13.8707666397	24.8351554871
6.96916294098	-13.5969238281	-7.18393087387	-6.32508802414	12.4570446014	23.9322090149
7.26441431046	-13.934214592	-7.67569589615	-6.08063316345	10.940366745	27.664024353
7.79888391495	-13.4893188477	-7.84257316589	-5.25820922852	10.0036525726	31.6583557129
8.03516578674	-13.5988960266	-7.70319509506	-4.57453584671	9.45997524261	33.4042015076
7.96091794968	-14.2075195312	-7.69079971313	-3.56900262833	9.41860103607	35.7790336609
7.87886190414	-14.4453811646	-7.01267910004	-3.40457081795	9.79071140289	36.2129631042
8.03579235077	-15.0132255554	-5.05999994278	-3.65078496933	10.1926851273	35.914264679
7.02562999725	-17.5331859589	3.36355257034	-4.01568889618	10.4931926727	35.0347557068
4.3733959198	-21.2498550415	19.5774383545	-4.53901767731	10.9888114929	33.5348587036
1.48883533478	-23.8067245483	29.6252231598	-5.13900232315	11.6158218384	31.9108181
-4.19763660431	-27.6663856506	44.4095687866	-5.24983263016	12.1979694366	31.2275981903
-4.4515376091	-28.3650112152	43.3438072205	-5.04816150665	12.6192893982	30.8752403259
-5.97608613968	-28.6702041626	44.7394828796	-4.65993595123	12.7923021317	30.6894226074
-2.9069378376	-27.1979427338	36.4468231201	-4.70874834061	12.4689569473	30.1918315887
-1.48275089264	-23.8493309021	27.0058994293	-5.23757410049	11.0672550201	26.4051589966
-1.59097242355	-23.5784568787	24.6998348236	-5.46295595169	8.23084354401	21.630241394
-1.74377262592	-23.2146968842	23.4057750702	-4.46734380722	5.73631286621	15.5314941406
-1.41682112217	-23.1995849609	22.4041156769	-3.51790308952	6.35456037521	11.001955986
-1.23553013802	-23.8576583862	21.4875488281	-3.31726288795	8.12673568726	9.01745891571
-1.18448638916	-24.2951183319	21.863576889	-3.34316778183	8.66243362427	9.26123809814
-0.725463211536	-23.9297561646	23.1246986389	-3.12834119797	9.27743339539	10.5774202347
1.35910451412	-22.663640976	18.1833972931	-3.08155488968	10.1901683807	11.2039833069
2.94929122925	-19.7895507812	9.80299568176	-2.87184762955	10.8713245392	11.4911994934
3.67859649658	-16.4046421051	1.1163264513	-2.76405644417	11.450003624	12.3739442825
2.4686384201	-16.2280979156	-0.282863944769	-3.0974855423	11.4920701981	13.1079444885
2.13718676567	-19.1100254059	5.19421958923	-3.46300816536	11.3620729446	13.504576683
2.30843544006	-22.7721176147	12.9367351532	-3.70180702209	11.3916921616	13.9098892212
1.27886009216	-25.2890510559	20.5595912933	-3.94540476799	11.4897823334	14.2535114288
0.582653641701	-26.5433044434	25.6737575531	-4.0308804512	11.4332752228	14.3948192596
-0.863109350204	-28.6250038147	35.3839111328	-3.9066529274	11.5884714127	14.4028692245
-1.63694691658	-30.4444637299	42.0907325745	-3.68123245239	11.9698982239	14.5010147095
-1.3755222559	-31.8130817413	44.5574493408	-3.45620656013	12.324804306	14.3345880508
-1.31879019737	-32.8618659973	44.7706489563	-3.21159410477	12.4311027527	14.1882162094
-1.88819420338	-33.9905471802	46.0642166138	-3.20534944534	12.5588941574	14.0830392838
-3.11459803581	-34.9300079346	49.581741333	-3.14082455635	12.8290042877	13.9593553543
-2.48025131226	-35.3093414307	50.1411743164	-2.80485320091	13.1737279892	13.8951044083
-1.68966984749	-35.199131012	49.2168617249	-2.515594244	13.3770675659	13.7846651077
0.923008680344	-33.921131134	43.3722839355	-2.17993354797	13.4059820175	13.5713376999
3.36913824081	-32.8571968079	39.2689628601	-1.56633198261	13.3159036636	13.4041109085
2.8296713829	-32.672580719	40.7307243347	-1.26265358925	13.5360975266	13.4412660599
-0.0467891953886	-33.7719535828	47.339756012	-1.3666986227	13.6727228165	13.7171154022
-0.387110441923	-33.7447929382	48.6761856079	-1.40520620346	13.8147382736	13.7821140289
-1.6857354641	-34.4487800598	51.9999313354	-1.4110108614	13.965628624	13.9337301254
-3.77407002449	-35.3545074463	57.6065635681	-1.43183946609	14.0319309235	13.9403648376
-4.70197343826	-35.951423645	60.9211082458	-1.35604572296	14.0681276321	13.8847942352
-4.02770996094	-35.9759712219	59.5928497314	-1.21257352829	14.0615253448	13.8710765839
-2.98543381691	-35.8077278137	56.4482650757	-1.20018088818	14.1354017258	13.9048881531
-2.03914117813	-35.4974479675	54.5863342285	-1.14740157127	14.2680521011	13.9354658127
0.52862817049	-34.1344947815	48.3278846741	-1.01000058651	14.4222402573	14.0061388016
4.02195835114	-31.6850624084	39.6165046692	-0.894160687923	14.3797035217	13.9562520981
6.20163154602	-28.9217357635	33.3356246948	-0.869197487831	14.4390935898	13.8798761368
6.46616697311	-28.1056957245	32.2129745483	-0.910815894604	14.4692783356	13.9026927948
5.96638727188	-28.4522399902	32.65026474	-0.913912594318	14.455994606	13.9275474548
4.90794038773	-28.6687412262	35.5782089233	-0.743180751801	14.5329875946	13.9748306274
4.85623788834	-28.37849617	37.5824356079	-0.698365569115	14.6307325363	14.1412181854
5.77690505981	-28.3439941406	36.5345191956	-0.453289270401	14.684969902	14.2807722092
6.04218959808	-28.3390483856	35.5614967346	0.0170915387571	14.6230344772	14.6766719818
5.83256435394	-28.5769424438	35.9222412109	0.739464879036	14.4248971939	15.1210575104
5.67558240891	-28.9910984039	36.4834518433	2.7514603138	13.8329401016	16.7473773956
5.48755455017	-29.5070724487	36.55727005	4.73328351974	13.4956731796	17.6871757507
4.89170980453	-29.9449634552	37.0423660278	6.88886594772	13.1196155548	18.6984939575
4.64722537994	-30.5457725525	37.8158187866	9.14264774323	12.5820798874	19.6787891388
4.82962608337	-30.6124992371	38.1391906738	10.0486049652	12.7345848083	19.9991149902
4.25307941437	-30.9236278534	40.1934318542	9.66863250732	13.0276727676	19.9899864197
4.43005752563	-31.2242412567	41.8272247314	9.43052482605	13.0106086731	20.2311782837
4.66523504257	-31.0108394623	42.4952316284	9.51249313354	13.0163993835	20.3044528961
4.02741575241	-31.5867500305	46.2470855713	9.53513145447	13.1020727158	20.5425643921
3.37141799927	-32.5456237793	50.581451416	9.28534317017	13.2225646973	20.5659942627
3.20748925209	-33.3784828186	52.9562110901	9.28898429871	13.4358873367	20.5138568878
2.73909592628	-34.1460876465	55.0360565186	9.56044960022	13.8070411682	20.5059013367
1.89712274075	-34.5457382202	56.3881874084	9.61188602448	13.8460159302	20.5644931793
0.998964488506	-34.549030304	56.9270782471	9.3657989502	13.9504718781	20.5396938324
-0.244834914804	-34.7727775574	57.5317878723	9.07809829712	13.8602437973	20.6393966675
-0.422785192728	-35.0732574463	57.3217506409	8.68945217133	13.8050279617	20.6071739197
-4.03720855713	-36.1732711792	65.77394104	8.55502319336	13.6474781036	20.625541687
-2.62214589119	-36.2299766541	62.2508544922	8.23922157288	13.5388822556	20.5661182404
-1.07489562035	-35.6457138062	57.4908714294	7.76244211197	13.3983078003	20.2101249695
4.83867502213	-32.4936408997	40.0927505493	6.40063667297	13.3250217438	17.3581752777
7.83541870117	-27.6302070618	22.6202735901	3.79809427261	13.3887300491	10.9638462067
9.48346710205	-26.6334152222	12.9822015762	0.458734929562	12.6477651596	3.32960748672
10.5756435394	-27.7176589966	6.7116894722	-1.03260099888	11.4835443497	-1.35380935669
15.0291337967	-25.0760879517	1.43930506706	0.356551527977	10.5756959915	-2.59958600998
14.7875471115	-21.9456939697	-0.941060423851	3.11750411987	8.80047988892	-3.32226157188
14.8731374741	-11.3166465759	0.493915945292	6.43692111969	6.38920354843	-2.67233419418
33.2971801758	6.80013561249	-16.0116863251	9.76048660278	5.06899785995	-1.45112133026
40.7967033386	13.4189167023	-5.59309768677	12.1921434402	5.94318723679	-0.725599050522
21.5917739868	1.53545641899	49.5678482056	13.0487613678	7.65972185135	-0.197932332754
-3.14090561867	9.44945812225	100.94581604	12.4546775818	8.33363437653	0.0679278597236
8.93351554871	8.08751869202	84.097618103	10.9080219269	8.21153831482	0.573786079884
51.2436981201	13.242067337	29.2489528656	8.44674396515	7.27039384842	0.119963243604
54.0973739624	10.608830452	8.37087726593	6.70981121063	5.3757314682	-0.566150188446
51.0086784363	-4.29439544678	-10.2590808868	6.12420129776	3.93784475327	-0.863804221153
45.042339325	-20.8929252625	-13.0596075058	6.12578439713	0.0649955794215	-1.65668654442
40.1465377808	-36.8684387207	-5.03282642365	6.17691802979	-3.60665440559	-1.84107232094
42.2830429077	-45.867603302	-7.55380153656	5.9332742691	-2.62273716927	-1.4730014801
46.4608764648	-53.0665473938	-8.93497085571	4.94804334641	-1.43816494942	-0.980390906334
50.4568710327	-59.1829032898	-12.7462425232	3.42924547195	-1.77149605751	-0.721814453602
56.2155380249	-63.30260849	-18.9149169922	2.72399544716	-1.13179278374	-0.7263058424
50.1353263855	-68.8303527832	-12.1172323227	2.80962276459	0.100816555321	-1.28241956234
57.818069458	-61.4980010986	-27.7600402832	3.46162796021	-0.0642537549138	-2.67223834991
59.6233024597	-53.2184371948	-33.1543540955	3.87556004524	-1.05595374107	-3.75129580498
59.2641601562	-55.8506774902	-30.9268684387	3.46810913086	-0.405100136995	-2.8828754425
56.1467018127	-58.6060218811	-28.3159255981	2.13322043419	0.590209543705	-2.1561627388
55.2532806396	-56.368927002	-31.573972702	1.70115506649	1.15543437004	-1.41939723492
54.8292884827	-50.8967475891	-35.7254447937	1.635430336	1.61591517925	-0.654613494873
53.7270545959	-49.9429283142	-36.69688797	1.13536727428	0.404672294855	-0.684016227722
52.0310935974	-48.029586792	-36.048576355	0.568710446358	-0.540816068649	-0.134812921286
50.3654289246	-50.4359054565	-27.9570884705	0.0401546657085	0.907391369343	0.222319424152
45.5767211914	-54.5575256348	-8.62351322174	0.39593309164	2.8297317028	0.676790058613
46.9671859741	-56.0481300354	-1.54930579662	1.10145151615	5.17496013641	1.61250281334
47.5118675232	-55.7776184082	-1.65300619602	1.50350689888	6.02126073837	2.21904993057
47.2846374512	-55.743347168	-0.699356377125	1.65415513515	5.32768964767	2.23432803154
47.4621429443	-55.9757118225	0.318322777748	1.93084788322	3.70474600792	2.19212436676
46.4694404602	-56.1842308044	1.31469357014	2.46061873436	3.05983304977	2.14450883865
47.9929733276	-56.091255188	-0.873258113861	3.14134073257	2.59759545326	1.71264898777
47.9753952026	-53.8464508057	-0.653438746929	3.83214640617	1.42914438248	1.22650504112
51.5166702271	-48.5957565308	-7.38065910339	4.64985799789	1.44202613831	0.355802059174
51.8620986938	-46.5758590698	-8.3834438324	5.245262146	2.21107411385	-0.181749612093
49.3567123413	-50.2914772034	3.04898118973	5.27527999878	3.59990215302	-0.132151991129
45.8731689453	-53.4326705933	14.1977710724	5.3403506279	4.6371884346	0.102234631777
43.1283607483	-54.851940155	21.2996292114	5.45473241806	5.29920530319	0.523030161858
42.4110336304	-52.8002929688	22.3282642365	5.46774864197	5.43616342545	0.755044817924
42.6379051208	-50.0545310974	21.9699783325	5.47996234894	5.54396820068	0.895370602608
42.527797699	-46.3795661926	20.8769359589	5.69865179062	5.85939216614	1.22656798363
40.2011413574	-45.5551948547	23.3735141754	5.95671653748	6.52608680725	1.3689789772
40.0188293457	-45.063457489	22.5881118774	7.37816429138	7.38758707047	3.23021030426
39.5115737915	-44.9009284973	22.2856655121	8.92788314819	8.09757423401	5.48967981339
39.8819046021	-45.1233940125	21.8912067413	10.8339729309	8.35101795197	8.94939804077
40.2018623352	-45.2613945007	21.5587596893	12.8421382904	8.50165367126	11.9999895096
40.1817741394	-45.353313446	21.6919879913	14.0824670792	9.26665687561	14.0887298584
39.7887229919	-44.5462722778	21.8732414246	14.642416954	11.9310712814	14.716837883
38.2172775269	-43.4607276917	22.9269256592	14.8465557098	14.4966716766	14.804813385
35.4502601624	-42.360660553	25.0920848846	14.8366804123	15.6413583755	15.540307045
31.9137878418	-41.6270523071	29.5925045013	14.6628818512	16.5694217682	16.2059955597
29.7800102234	-40.3786735535	32.5076370239	14.5276107788	17.3739681244	16.4985141754
27.5448894501	-39.8342399597	35.1308097839	14.3308544159	17.9393672943	16.8039970398
26.2939453125	-40.1515464783	37.4368743896	13.9942369461	18.3182277679	17.0836677551
24.9776115417	-40.5043296814	38.7118606567	13.7744255066	18.6676101685	17.2236995697
23.2206306458	-41.0390396118	41.3412818909	13.5260906219	19.0257778168	17.6001930237
21.2633342743	-41.5615730286	43.946937561	12.7410430908	19.4504489899	17.8306179047
20.5876674652	-41.8190116882	44.5931587219	11.428650856	19.9209861755	17.8951187134
19.7705554962	-41.8589820862	45.2945022583	10.1880636215	19.9958305359	17.8110122681
18.1508197784	-41.7297210693	46.4098320007	9.10576629639	20.0547409058	17.7007255554
16.4107780457	-41.7205238342	48.3461952209	8.37199783325	20.2672634125	17.7679424286
15.4198741913	-41.8879928589	49.2226257324	7.92840862274	20.4137973785	17.7190265656
14.4177541733	-42.0569496155	50.1817703247	7.77269935608	20.3389644623	17.7782115936
12.5501699448	-42.2987327576	52.0858230591	7.3651471138	20.2122402191	17.9201412201
11.7268686295	-42.5103378296	52.4123077393	6.71627235413	20.1948928833	17.8621788025
10.449763298	-43.4088783264	52.9660720825	5.40756893158	20.0030059814	17.5434513092
8.87702941895	-43.9052009583	53.3317871094	3.64302444458	19.924249649	17.0259170532
7.22237682343	-44.2849998474	53.7550239563	2.37620401382	19.905172348	16.7917804718
6.21709632874	-44.6018180847	53.0669593811	1.82981050014	19.7276573181	16.974105835
5.16019773483	-44.978717804	53.1374549866	1.30177843571	19.597782135	16.9206542969
4.83199167252	-45.2323799133	51.3498458862	0.610782146454	19.5188999176	16.8695983887
3.10546159744	-45.2672958374	53.344379425	0.231789767742	19.368719101	16.8686389923
1.91216528416	-45.3500862122	55.3511924744	0.342213690281	19.4411354065	17.0012683868
2.1795091629	-45.7693252563	55.0302085876	0.580062866211	19.4439640045	17.0408172607
1.68604552746	-46.1344909668	55.536403656	0.621260344982	19.3197040558	17.2120113373
1.15177118778	-46.3396148682	55.5856399536	0.140923991799	19.2122612	17.3434505463
0.746404707432	-46.5969657898	54.0410308838	-0.212278470397	19.1239452362	17.3192920685
2.12125062943	-46.080406189	50.7549781799	-0.112763382494	19.0276584625	17.3094806671
1.85461902618	-46.2684631348	50.9841995239	-0.077897131443	19.1409416199	17.2691783905
1.34900081158	-46.2826766968	51.1092185974	-0.587514162064	19.2147541046	17.2985248566
1.19330883026	-46.375377655	51.2076454163	-1.32638931274	19.3003368378	17.1362609863
1.52243220806	-46.4138221741	50.9911613464	-2.48760223389	19.4126186371	16.1318206787
1.54860079288	-46.2627830505	50.8217468262	-4.29856824875	19.5379714966	14.586388588
1.69472205639	-46.3957901001	50.6865959167	-5.70412969589	19.8547000885	13.2611579895
1.99783480167	-46.5761528015	50.5042228699	-6.05980634689	20.4309101105	12.8795890808
2.40185928345	-46.1264801025	49.643573761	-5.65050840378	21.2603435516	12.9232769012
5.1695227623	-45.3974075317	43.6623535156	-5.0061340332	21.7685279846	13.3176870346
7.97945165634	-43.2639389038	35.9447784424	-5.07977247238	21.3220024109	13.422876358
10.1689119339	-40.6694831848	27.5122356415	-5.21634674072	20.9035491943	13.653968811
9.27480792999	-41.0004463196	29.1232433319	-5.27332735062	20.8701152802	13.7841110229
6.45534896851	-41.9864616394	36.6962509155	-5.23588752747	20.900144577	13.8526983261
4.99241256714	-41.8564491272	40.9326057434	-5.08439922333	20.9964294434	13.8817310333
3.41973423958	-42.178314209	45.3344154358	-5.02441072464	21.2463226318	14.0972642899
1.51773607731	-42.4960250854	49.1747207642	-4.99988985062	21.3569393158	14.0248432159
0.279675960541	-42.7677612305	51.658416748	-4.77650499344	21.4346847534	13.9873199463
