15.4805488586	-32.8831596375	5.42738246918	18.0378303528	10.2781248093	34.2148323059
15.498000145	-32.9403762817	5.48625516891	17.9672241211	10.2578678131	34.2079849243
15.3395032883	-32.8597335815	5.41801834106	17.8142528534	10.1503190994	34.1977119446
15.3410482407	-32.8024139404	5.16102266312	17.7155818939	10.0973958969	34.1667366028
15.2541570663	-32.7420120239	5.04120588303	17.5816268921	10.0233983994	34.0949935913
15.5202484131	-32.4907836914	4.61914157867	17.1673336029	9.84078407288	33.520160675
15.58091259	-32.1982803345	4.18826770782	16.8030529022	9.59195327759	32.7458152771
15.6737794876	-32.2128448486	3.72389578819	16.7111091614	9.25455951691	32.2842712402
15.5553388596	-32.7389068604	3.02217912674	16.6384162903	8.79657840729	31.700548172
15.4887218475	-32.961101532	3.96562743187	16.5134105682	8.07617473602	30.6087875366
15.4534139633	-33.1684646606	4.9255027771	16.4961662292	7.02817821503	29.2183170319
15.4327020645	-34.5007400513	7.988530159	17.0098819733	5.61211490631	27.1482391357
15.5441589355	-35.0809173584	8.47360897064	17.851348877	3.72854495049	24.9814033508
15.1475286484	-34.9999771118	8.6129655838	18.855632782	2.12047457695	22.4302215576
14.5797519684	-35.0460472107	8.46406745911	19.7062854767	0.757826507092	20.3605270386
14.5068836212	-35.223487854	8.39181900024	20.5601291656	-0.419732093811	18.8811149597
14.3903036118	-35.2978134155	8.43895435333	21.8716640472	-1.26878166199	17.7132835388
14.4236469269	-35.4740600586	8.31276035309	23.1355228424	-2.00886774063	16.5426826477
14.5409793854	-35.5068435669	8.2306060791	23.5407981873	-2.49119853973	15.5110378265
14.6898574829	-35.740032196	8.21323490143	22.8819084167	-2.82479524612	14.3848667145
14.7167453766	-35.6328659058	7.97864437103	22.4738368988	-3.1875629425	13.3465948105
14.5943126678	-35.5896835327	7.72161531448	22.2558231354	-3.29879641533	13.0997104645
14.3444700241	-35.7301864624	7.62970256805	21.8779411316	-2.93853116035	13.4785728455
14.4020614624	-35.1994514465	6.59888505936	21.2660179138	-2.14709806442	14.4311590195
14.3887062073	-35.0679626465	6.62198925018	21.0727748871	-1.78728175163	15.0671815872
14.3492078781	-35.2047691345	6.98255634308	21.2425804138	-1.38337039948	15.5035257339
14.4037122726	-35.570930481	7.70296955109	21.712387085	-0.986434936523	15.5922651291
14.3945388794	-36.3148269653	9.38660144806	22.086397171	-0.770629346371	15.7432699203
14.4522504807	-36.2646369934	8.97472476959	22.0844688416	-0.734190225601	15.7170286179
14.8171815872	-36.4018974304	8.61839294434	21.7770080566	-0.708582699299	15.8504114151
14.9115390778	-36.1834220886	8.50696182251	21.597448349	-0.507450938225	15.9936561584
14.6139669418	-36.180683136	8.78384208679	21.4123325348	-0.235415801406	16.0719776154
14.4151163101	-36.6919441223	10.3320827484	21.4504108429	-0.407281696796	16.0413608551
14.2403841019	-37.1751861572	11.3495903015	21.5796775818	-0.511774897575	16.1820373535
14.1087999344	-37.4429740906	11.9097776413	21.4673271179	-0.247551813722	16.2474403381
14.3703384399	-37.873500824	12.370018959	21.5185165405	-0.214646667242	16.2586021423
14.5564432144	-38.087436676	13.0340623856	21.711397171	0.0918709039688	16.4536819458
14.4273929596	-38.322769165	13.5797252655	21.7912788391	0.480860084295	16.690246582
14.689332962	-38.354057312	12.3464775085	21.670835495	0.652959048748	16.788936615
15.2918844223	-36.4141921997	6.28219652176	21.6321105957	0.637523531914	17.0588302612
15.0886392593	-35.3195724487	4.12038993835	21.443769455	-0.674351871014	16.6632328033
15.1300964355	-35.4129905701	4.65198898315	21.0761756897	-2.76060509682	16.2489681244
14.6473340988	-35.3304824829	5.12141942978	20.8194332123	-4.42441940308	16.6882686615
13.9459657669	-35.5659103394	5.14921140671	21.0812263489	-5.76694869995	18.2725219727
13.9369878769	-35.8439598083	5.04090547562	21.1122989655	-7.16854333878	20.8363265991
14.1598358154	-35.8673210144	4.95778608322	20.8793373108	-7.99034404755	23.0739612579
14.2800798416	-35.9803123474	4.81280994415	19.7333221436	-8.39151954651	25.2456569672
14.0719051361	-36.0014724731	5.09990930557	18.5312271118	-8.5615606308	26.4007415771
14.0824165344	-35.9984931946	5.17746686935	17.9357185364	-8.80689716339	26.913892746
13.8273658752	-36.2210197449	5.55113172531	17.9410438538	-8.83532142639	26.8742275238
13.3129453659	-36.132434845	5.9293923378	18.0289936066	-9.14525794983	26.7884864807
13.0176095963	-35.9917602539	6.31707286835	18.0270500183	-9.36271190643	26.7136287689
12.9456768036	-36.6807060242	7.81567764282	18.0312538147	-9.74701404572	26.6000862122
12.9261798859	-37.5932350159	9.72233581543	18.1143112183	-9.65880012512	26.4135227203
12.9081029892	-37.8388786316	10.0014371872	18.303194046	-9.43175792694	26.0941352844
13.019493103	-37.8590011597	9.98223209381	18.4157180786	-9.22430801392	25.9599494934
13.319653511	-37.9572486877	10.0043210983	18.5620536804	-9.09266662598	25.6809158325
13.7452821732	-38.5556678772	11.0346517563	18.8488235474	-9.26007843018	25.1170120239
13.61714077	-38.8474082947	12.0794839859	18.8892421722	-9.51559448242	24.4780406952
13.7958755493	-38.6677360535	11.2543697357	18.7794246674	-9.48307800293	24.1523208618
14.095366478	-37.5798988342	7.82233333588	18.7561378479	-9.19073677063	24.0512695312
14.386256218	-34.7125816345	1.36759245396	18.7356071472	-9.05099201202	24.0492649078
14.4369316101	-33.1235237122	-1.54366099834	18.7721233368	-8.91633892059	23.9104766846
14.3914251328	-33.4622955322	-2.08702611923	18.8249645233	-8.8358039856	23.9540462494
14.3542966843	-33.3011703491	-5.52729797363	18.9632644653	-9.08338165283	23.6848506927
13.9354228973	-31.1535663605	-10.8921737671	19.5578689575	-9.23762321472	23.3390083313
14.0487709045	-31.8533592224	-11.627658844	20.0430660248	-9.33890342712	23.001127243
13.7016029358	-32.3944816589	-13.0168075562	20.0893344879	-9.40050411224	22.8858566284
12.9424600601	-32.0049743652	-16.4633045197	20.3154964447	-9.24424362183	22.7458934784
12.505572319	-32.277256012	-18.0807323456	20.6324100494	-9.09694480896	22.7220802307
11.8750238419	-32.4376602173	-18.1184272766	20.4755020142	-8.92694950104	22.8372249603
11.4526901245	-32.3623886108	-18.5286483765	20.3096485138	-8.65417766571	22.9512176514
11.2508859634	-31.9293804169	-20.4604873657	20.4590568542	-8.40350818634	22.9000263214
10.5295248032	-31.7429294586	-21.5740470886	20.5755805969	-8.230052948	22.9589881897
10.7969322205	-32.4799575806	-19.1129741669	20.4845275879	-8.13995552063	23.0615196228
12.0057210922	-34.4040298462	-14.9056425095	20.4119625092	-8.02714633942	23.2216854095
12.8546495438	-34.608581543	-14.4339036942	20.3318729401	-8.04981040955	23.2254619598
13.0800018311	-35.642780304	-12.445274353	20.5980815887	-7.95548820496	23.1347007751
13.4882507324	-36.9882354736	-9.6421251297	20.9941616058	-7.6716504097	22.894317627
13.3519239426	-37.7168731689	-8.64319133759	21.4030570984	-7.3951458931	22.7395896912
13.3730258942	-37.895690918	-8.33514690399	21.6905555725	-7.14668703079	22.2274913788
13.9424858093	-37.6127281189	-8.96029663086	21.5697288513	-6.60892295837	21.2423858643
13.7993488312	-37.6751441956	-8.94809246063	20.7073726654	-5.84049320221	19.8496017456
13.8105869293	-37.5719718933	-9.26436424255	20.192735672	-5.3257651329	18.7892971039
13.9691371918	-37.4577484131	-9.66977596283	20.1938171387	-5.09168863297	18.4824028015
13.7247190475	-37.6442489624	-9.40755367279	20.2001514435	-4.97697496414	18.6276531219
13.691078186	-37.4686126709	-9.06358909607	20.3358516693	-5.01918315887	19.169927597
13.7280063629	-37.5701522827	-8.64360523224	20.5034065247	-5.36920022964	20.3316879272
13.7387905121	-37.6233978271	-8.26769733429	20.6515579224	-5.25810623169	20.9654827118
13.6216897964	-37.5333786011	-8.01181221008	20.8299446106	-5.3122677803	21.1426525116
13.5231046677	-37.5153770447	-8.03595066071	20.7108154297	-5.34331130981	21.1685066223
13.3770141602	-37.4244308472	-7.97602987289	20.618976593	-5.40020036697	21.0726509094
13.0995206833	-37.1964416504	-8.06730937958	20.5284385681	-5.29993915558	21.0141143799
12.7477636337	-37.2969169617	-6.97060680389	20.3896751404	-5.16253328323	21.0117492676
12.5639076233	-37.9258537292	-3.56443071365	20.3874969482	-4.9707493782	21.0121936798
12.6092500687	-38.2098083496	-2.52735710144	20.4897689819	-4.91097259521	20.8946075439
12.2417993546	-37.8853111267	-1.79064333439	20.6093540192	-4.82055854797	20.952173233
12.5627059937	-37.8866233826	-1.61808609962	20.8141078949	-4.80591630936	20.9532566071
13.0132694244	-37.6312675476	-1.85392081738	20.986032486	-4.84982013702	21.0139312744
13.1186485291	-36.2139015198	-4.64090681076	21.0392742157	-4.6725525856	21.0357551575
13.2157392502	-34.1338882446	-8.06627082825	21.0602684021	-4.51672506332	21.0803318024
13.2438840866	-32.8717079163	-10.634973526	20.9553508759	-4.41651582718	21.091714859
12.7301034927	-30.60014534	-15.0594110489	20.8685398102	-4.29147434235	21.0808906555
12.3516435623	-30.7086410522	-16.0477981567	20.7738132477	-4.09660196304	21.1518173218
12.3573541641	-31.2518501282	-16.3844108582	20.6901626587	-4.0198597908	21.1356983185
12.5868854523	-31.1288356781	-16.9857749939	20.7101020813	-3.9659280777	21.1337814331
12.4394321442	-30.6430988312	-18.3657093048	20.7741241455	-3.76923084259	21.2084674835
11.9747962952	-29.4367103577	-20.5849113464	20.9480571747	-3.66394019127	21.2392158508
12.1209974289	-29.5157108307	-20.1774940491	20.9092502594	-3.55609250069	21.2272624969
12.2010221481	-29.506362915	-20.0496063232	20.8419418335	-3.51552271843	21.3967018127
11.9849700928	-29.445230484	-20.0589923859	20.8392620087	-3.48743891716	21.4960746765
11.0279836655	-27.8588848114	-23.4589576721	20.7991352081	-3.57292079926	21.4948139191
9.93776988983	-26.5721988678	-25.926897049	20.7198696136	-3.40757083893	21.3930015564
9.97931194305	-27.4067382812	-24.1410541534	20.6789398193	-3.43392825127	21.4501266479
10.4136285782	-27.6785354614	-23.7509613037	20.5517749786	-3.37254571915	21.5204906464
10.5566139221	-27.6770038605	-23.5894374847	20.7173500061	-3.33135938644	21.5396137238
10.3657083511	-27.7791042328	-23.1727180481	20.8060398102	-3.28370952606	21.6317024231
10.3725423813	-28.3208312988	-22.2751312256	20.5500640869	-3.20276856422	21.7177257538
10.3870239258	-28.2145290375	-22.3771743774	20.1092910767	-2.6181833744	22.0125255585
10.4148931503	-28.3523025513	-22.3420085907	20.6206150055	-1.91298806667	22.3064250946
10.3716821671	-28.4018325806	-22.1978397369	21.1282958984	-1.56775140762	23.1685276031
10.888584137	-28.3402042389	-22.1735992432	21.4014377594	-1.44562232494	24.0162525177
11.2701568604	-28.1510219574	-21.9837932587	21.7147159576	-1.15701758862	24.3754386902
11.1772022247	-28.3741703033	-21.9914493561	21.9532985687	-1.2766058445	25.0183544159
11.2711744308	-28.4464263916	-22.0309066772	22.12018013	-1.55472671986	25.7615661621
11.3756771088	-28.722902298	-22.0652256012	22.7073478699	-1.4070636034	26.3370361328
10.8349485397	-28.8873634338	-21.8951854706	23.4429969788	-1.32815313339	26.444562912
11.2291631699	-28.7209911346	-21.8910388947	23.5143623352	-1.20298588276	26.2428436279
11.4298934937	-28.658788681	-21.6303653717	23.3323345184	-1.04533576965	26.0094356537
11.5199279785	-29.0536499023	-21.0798568726	23.3179187775	-0.956274569035	25.8241844177
11.7944087982	-32.0680732727	-16.5066127777	23.4685897827	-1.34778761864	25.4937400818
11.0921630859	-31.9948616028	-16.7739467621	23.8415431976	-1.15521240234	25.0895500183
10.820857048	-32.0908737183	-16.0470466614	24.0400104523	-0.915500104427	24.8401012421
11.2846851349	-31.7728786469	-15.9802427292	23.8987026215	-0.937320113182	24.5694541931
11.4749851227	-31.3603744507	-14.7695531845	23.9040737152	-0.830071747303	24.556552887
11.6072978973	-31.6710624695	-14.2699203491	24.0091094971	-0.914285540581	24.46159935
11.9072742462	-31.8711528778	-13.693113327	24.3346366882	-0.981172204018	24.1479072571
12.0157575607	-32.2005233765	-13.1333332062	24.8162441254	-0.844891548157	23.7258033752
12.4827108383	-32.7634391785	-12.0133857727	25.1637554169	-0.580293238163	23.3579406738
12.4339637756	-32.9844703674	-11.6126241684	25.1202526093	-0.288793593645	23.1736660004
12.1783714294	-32.7186279297	-11.3131847382	24.9949531555	-0.201742947102	23.2073707581
11.7324943542	-32.4032745361	-10.7364053726	24.9514198303	-0.143535941839	23.372133255
11.3833656311	-32.9507141113	-9.65299797058	25.0515098572	-0.193249434233	23.2080802917
11.6907138824	-33.7058868408	-9.0100030899	25.3185806274	-0.325724840164	23.0269927979
11.369430542	-33.94921875	-9.28029727936	25.4831542969	-0.176063105464	22.9230327606
11.4775056839	-33.9573173523	-9.51428604126	25.4956607819	-0.160417869687	22.891872406
11.6375818253	-33.5063781738	-10.3698635101	25.3730697632	-0.0920704454184	22.8167095184
11.3037700653	-33.5634231567	-10.2318305969	25.3720474243	-0.016489000991	22.8640480042
11.0956916809	-33.6089248657	-10.0083627701	25.3380413055	-0.0160493254662	22.8836975098
11.0995073318	-33.124584198	-10.6688842773	25.3048381805	-0.0518883056939	22.9277896881
10.8502550125	-31.9344787598	-12.9748363495	25.2899112701	0.00512589607388	22.996137619
10.4068288803	-30.6378479004	-15.2690505981	25.2504558563	-0.0241093281657	22.988073349
10.5868320465	-30.1846294403	-16.4905090332	25.2452659607	0.0321446843445	22.9624156952
10.2447547913	-28.8918323517	-20.5889797211	25.2058906555	0.119034782052	22.9363994598
9.94934177399	-28.3591938019	-23.5221500397	25.1974868774	0.201026186347	22.8980636597
9.6417016983	-27.7321109772	-26.228723526	25.1722927094	0.211776584387	22.9148254395
9.14267635345	-26.650226593	-30.2260990143	25.0586795807	0.217425018549	23.0579414368
7.42298078537	-24.6425514221	-36.642665863	25.0565929413	0.372291684151	23.1441421509
5.41788053513	-22.9923038483	-40.9774284363	25.1485214233	0.391084671021	23.1176986694
4.59347391129	-21.8204021454	-42.9307441711	24.9741573334	0.315315574408	23.0619907379
5.07507896423	-21.8282051086	-43.9812202454	24.5556793213	0.46939304471	23.0356559753
4.82744789124	-20.6661434174	-48.1014213562	24.098493576	0.174865290523	23.0096702576
3.75113105774	-17.8006324768	-55.8975753784	23.8211631775	0.0915209576488	22.9074764252
4.4886803627	-17.3474063873	-55.50522995	23.5253505707	0.595312535763	22.8082141876
5.29113531113	-17.2819137573	-54.6353416443	23.3061408997	0.48898857832	22.8150444031
5.61641597748	-17.3065185547	-53.5228881836	22.8894710541	0.0475013777614	23.4530735016
5.98323869705	-17.5095996857	-52.0957145691	22.1334381104	-0.983470737934	22.7895393372
6.6509513855	-18.7646007538	-49.3232269287	21.5900039673	-2.5743124485	21.1035900116
6.19283866882	-18.7246704102	-48.5138893127	21.3151988983	-3.14195132256	19.7930374146
6.12124061584	-18.7201251984	-48.2816429138	21.3261699677	-3.57870006561	19.3369064331
5.93819093704	-18.9225063324	-48.0904197693	21.2240428925	-4.56824874878	18.9355220795
5.51941633224	-19.1496543884	-47.6146659851	20.9031791687	-5.95256853104	18.5093994141
5.30486631393	-19.3302688599	-47.0962333679	20.5364112854	-7.1101360321	18.324924469
5.40756988525	-19.7134857178	-46.805355072	20.3877487183	-7.31006288528	18.4679527283
5.84755134583	-21.5127544403	-42.9826927185	20.3628234863	-7.27646446228	18.4938983917
5.63510799408	-23.738079071	-32.9779472351	20.305267334	-7.34635639191	18.6584205627
5.54765844345	-27.5293140411	-19.1985321045	20.3650760651	-7.29785299301	18.7373123169
