0.0	-0.0	131.81741333	-124.187667847	86.2294998169	168.798858643
0.0	-0.0	131.863983154	-124.462120056	86.1008605957	168.855895996
0.0	-0.0	129.734436035	-124.578445435	85.8729171753	169.132827759
0.0	-0.0	118.183601379	-125.890075684	86.5128707886	169.212219238
0.0	-0.0	93.2229537964	48.1577453613	89.5512924194	-10.8720617294
0.0	-0.0	74.911857605	36.2992019653	82.7463226318	-10.5768947601
0.0	-0.0	70.8847198486	22.6147975922	76.0544586182	-9.82946014404
0.0	-0.0	70.0839385986	12.8041582108	67.4633636475	-10.4468355179
0.0	-0.0	74.0326385498	7.46264982224	55.8212928772	-12.4881973267
0.0	-0.0	72.1331939697	6.07594680786	48.6853370667	-11.9976568222
0.0	-0.0	66.6483154297	5.53205633163	44.7597312927	-11.7222833633
0.0	-0.0	68.3471069336	4.92958927155	41.757194519	-11.7729463577
0.0	-0.0	67.552154541	3.85234451294	39.8058853149	-10.5088281631
0.0	-0.0	67.5158157349	1.17509937286	37.4920043945	-9.17368125916
0.0	-0.0	68.5125427246	-2.61799669266	33.8699378967	-7.77542352676
