16.6935749054	-7.21799468994	0.690097630024	13.6295824051	6.59438896179	33.5992164612
16.8011741638	-7.16338300705	0.724231481552	13.5795650482	6.66584682465	33.6569900513
16.7118377686	-7.198366642	0.84082955122	13.2066078186	6.73822259903	33.5669059753
16.5527973175	-7.17549800873	0.775679767132	11.5237646103	7.38456678391	32.7015075684
16.3799362183	-7.10497236252	0.421457648277	7.10532808304	9.02051830292	31.10663414
16.0828075409	-7.05179166794	0.0709872320294	0.446179032326	11.4439067841	28.3316192627
15.9041261673	-6.84953451157	-1.51236820221	-6.28578853607	13.2288761139	24.975227356
14.8039007187	-6.9838309288	-2.39776301384	-10.8353824615	14.0783033371	22.4776153564
13.9317140579	-7.60204744339	-2.43944263458	-12.662604332	14.2994480133	21.7665023804
13.7191057205	-8.16515541077	-2.78491401672	-11.6904935837	14.055475235	22.5039825439
13.1326599121	-8.47167301178	-3.25151658058	-10.9442663193	13.7860174179	22.7041435242
13.3008127213	-8.65422344208	-3.20619678497	-11.1777667999	13.8469629288	22.5111999512
13.4138975143	-8.30412006378	-2.97073316574	-11.4497728348	13.7313146591	22.3331832886
13.4921255112	-7.73830604553	-3.20658516884	-11.5391550064	13.3994426727	22.3228645325
14.9743585587	-6.11460494995	-8.87073516846	-12.5798273087	13.7547998428	21.9507198334
14.4117031097	-5.14034509659	-12.739440918	-13.6926193237	14.1858530045	21.4565486908
13.7645101547	-5.72913455963	-11.608420372	-14.0954408646	14.3628015518	21.6615486145
13.0846986771	-6.66083145142	-8.08364391327	-13.884393692	14.425488472	21.4909496307
12.1772766113	-8.64570617676	0.525304853916	-13.6784086227	14.5709266663	21.1277828217
11.7303380966	-9.18805789948	3.55152869225	-13.6333208084	14.8354129791	21.4530467987
11.2611932755	-10.9642028809	9.39927196503	-13.5400514603	14.8692264557	21.8944778442
10.5343971252	-12.3540334702	13.1910858154	-13.5078649521	14.7937698364	21.893705368
8.82594871521	-14.778427124	20.8651065826	-13.5854568481	14.6213550568	21.786781311
8.67829322815	-15.1340246201	20.7169456482	-14.0554094315	14.7185935974	21.62433815
7.36006975174	-16.2025260925	22.6065158844	-14.4224843979	15.0002241135	21.3519020081
5.63840961456	-16.6960353851	23.3873348236	-14.7469596863	14.8270339966	21.3891201019
5.15694522858	-17.1516857147	24.7752780914	-14.8955335617	14.2965278625	21.5378189087
3.31265807152	-18.7887153625	29.7341136932	-15.3296051025	13.9485359192	21.8839130402
2.36994314194	-20.7215747833	31.8224124908	-15.743721962	13.8292589188	21.5528850555
2.59368538857	-21.4726390839	30.7456264496	-15.8143024445	13.3070354462	21.3226776123
4.12642383575	-20.6340007782	24.3589458466	-15.7985115051	12.7910327911	21.1346054077
4.37938737869	-19.0464553833	18.2816257477	-16.1248512268	12.4923067093	21.4411525726
3.39018774033	-18.9384899139	19.3980121613	-16.5014705658	12.465883255	21.4495716095
3.02630734444	-19.1764984131	21.0131893158	-16.3877010345	12.4829549789	21.6180667877
3.37972521782	-19.5287647247	22.0340671539	-16.346868515	12.55240345	21.6732883453
3.8624048233	-19.5038795471	21.5727920532	-16.3231067657	12.5150556564	21.4687595367
4.67777490616	-18.4229240417	18.7929954529	-16.1002750397	12.6471977234	21.3638401031
5.07395982742	-18.0452156067	18.5575122833	-15.8270616531	12.4917879105	21.3295650482
6.6767616272	-16.7945289612	14.5696544647	-15.7402105331	12.3670301437	21.1656970978
7.37739038467	-16.2559890747	12.2883329391	-15.6964874268	12.3933944702	21.1042041779
8.15170860291	-14.8444890976	9.03548431396	-15.6929216385	12.5690250397	21.0634040833
10.457531929	-8.56429290771	3.70182824135	-15.5606946945	13.0365610123	21.0343322754
12.0224838257	-4.65707874298	-0.220573797822	-15.5512161255	13.2559537888	21.0534324646
11.7134256363	-3.86356139183	-3.69979190826	-15.5909357071	13.3941717148	20.9040851593
11.7252731323	-4.62908697128	-3.36678314209	-15.2993879318	13.5641775131	20.7134895325
11.5237369537	-4.26691198349	-3.21427679062	-14.7193889618	13.8094797134	20.3469467163
11.84217453	-3.88950777054	-3.14210772514	-14.0467834473	14.0450878143	20.0719928741
12.6228017807	-2.61280465126	-4.72995853424	-13.4343318939	14.3177986145	20.1244354248
13.974896431	-0.133371055126	-11.7012062073	-13.1319503784	14.1986398697	20.3065433502
14.084610939	0.0612034089863	-13.3561162949	-13.1826143265	14.2796115875	20.1386070251
13.1130247116	-0.182085499167	-13.1053161621	-12.7886781693	14.3572864532	20.1188964844
11.5126895905	0.707382142544	-14.2190265656	-12.513753891	14.2193250656	20.3529834747
11.4015359879	1.46105015278	-13.4561300278	-12.7682981491	14.227771759	20.5396652222
10.6430273056	1.9853335619	-12.374920845	-13.0388889313	14.4745693207	20.5529575348
11.1062984467	3.01243829727	-9.8107843399	-13.0023775101	14.4830141068	20.4504184723
11.2927379608	1.74864792824	-6.41092061996	-13.167971611	14.3196344376	20.3610725403
10.7353153229	-0.0401917397976	-2.026304245	-13.2244062424	14.2639160156	20.1152858734
10.8328971863	-0.94121825695	-0.202178567648	-13.1821699142	14.1137247086	19.9568042755
10.6647987366	-0.715040504932	0.549402296543	-13.0479421616	13.8813314438	20.0165348053
11.2598018646	-0.213225930929	1.92588162422	-13.1606216431	13.6456041336	20.0154285431
11.715970993	-0.124106705189	2.67547178268	-13.2660989761	13.5972757339	19.7258892059
12.0034770966	-1.02018916607	5.04162979126	-13.1432857513	13.5755758286	19.4696979523
11.5367383957	-2.23558568954	9.01137447357	-13.075884819	13.5038471222	19.2678661346
11.311501503	-3.01741361618	11.4568729401	-13.2500219345	13.7322092056	19.2852153778
10.4690923691	-3.61394834518	14.6075897217	-13.3195848465	13.9631624222	19.3386936188
10.0454740524	-4.20487451553	17.218214035	-13.4147500992	14.0450115204	19.3096141815
9.68755912781	-4.85346698761	19.2729740143	-13.5123939514	13.9469394684	19.1804695129
9.19329166412	-5.41443681717	22.1376590729	-13.5115203857	13.9897737503	19.0391616821
8.97514629364	-5.55393123627	22.2142753601	-13.551897049	14.0210876465	18.9493026733
8.64185810089	-5.80581951141	23.2182540894	-13.5614080429	14.162322998	19.0574607849
8.27892684937	-6.39771556854	26.0261058807	-13.7864294052	14.1282844543	19.3540439606
8.0107088089	-7.17016172409	27.9632911682	-13.9868307114	13.982208252	19.3999290466
7.97187662125	-7.77023077011	28.5386810303	-14.064907074	13.8328018188	19.395734787
7.38980770111	-8.18770313263	29.2628955841	-14.0634889603	13.6313867569	19.2885417938
6.74298477173	-8.71412181854	30.1508693695	-14.2203397751	13.446767807	19.3262996674
6.10703802109	-9.46026515961	29.7180080414	-14.3671922684	13.3891057968	19.3482151031
5.35305118561	-10.219250679	30.1201705933	-14.4725589752	13.2901039124	19.631690979
4.34437608719	-10.8303432465	31.2967300415	-14.7370767593	13.1429262161	19.7628955841
4.25509643555	-11.0841655731	29.8797340393	-14.9334106445	13.0575370789	19.84790802
3.99326276779	-10.7703466415	28.6870517731	-14.9770212173	13.1629686356	19.9309921265
3.87668395042	-11.0965051651	28.7997436523	-15.5486221313	12.9647874832	20.5074768066
3.58469557762	-10.9890813828	28.7956352234	-16.7029705048	12.9450330734	20.885881424
3.72759699821	-10.9055519104	28.6579666138	-17.8458576202	12.6293716431	20.7036857605
3.60628628731	-10.8573884964	28.5888805389	-17.8432579041	12.6413288116	19.770488739
3.6805832386	-11.0376996994	28.423034668	-16.4773101807	12.4844169617	18.6653251648
3.72728919983	-11.2904853821	28.3837757111	-14.7746963501	11.9111642838	17.4560279846
3.90333461761	-11.291809082	28.3957157135	-13.4013624191	11.6087121964	15.7128429413
4.00508213043	-11.2569065094	28.3713989258	-12.6714391708	11.8168878555	13.8880491257
4.28266000748	-11.355465889	28.2164897919	-12.7566318512	12.0710849762	12.5129137039
4.48833179474	-11.3198165894	27.8745326996	-12.9246397018	12.1657505035	12.5231285095
4.76612663269	-11.1222352982	27.4513454437	-13.1293640137	12.0350580215	13.0403985977
5.28731155396	-10.9461746216	26.359413147	-13.437959671	11.9002513885	13.511548996
6.02872371674	-10.4486722946	23.7893409729	-13.5669841766	11.7703495026	13.6583194733
6.27011489868	-10.1713581085	21.0143299103	-13.4658546448	11.7265863419	13.6718273163
6.44134140015	-9.55903720856	17.7408504486	-13.4416637421	11.7765102386	13.8095188141
6.61999797821	-8.89503765106	15.3301897049	-13.5674734116	11.7851610184	13.987780571
6.91201305389	-7.61312580109	12.2900686264	-13.7161216736	11.9945144653	14.0915603638
7.1533870697	-5.91121816635	9.03169059753	-13.6939258575	12.1640281677	14.1715364456
6.87940216064	-5.66088056564	12.4982099533	-13.6962537766	12.2191152573	14.1552600861
6.01431846619	-5.57188463211	17.4853172302	-13.7163543701	12.3953609467	14.242225647
5.77857446671	-5.51353740692	17.364025116	-13.7038497925	12.4626216888	14.4138460159
5.5654668808	-5.77094221115	19.4548072815	-13.6312227249	12.4609298706	14.4571838379
4.87566995621	-5.99335813522	22.0823249817	-13.6146297455	12.6068439484	14.4198703766
4.50146770477	-6.56619977951	26.0412521362	-13.6216058731	12.5614995956	14.5352621078
4.30338573456	-6.65713882446	26.9773521423	-13.7521085739	12.6419229507	14.4282035828
3.92605018616	-7.03488111496	28.7040882111	-13.6704998016	12.7052841187	14.4045391083
3.81896114349	-7.60037612915	30.5451335907	-13.6879711151	12.6136188507	14.3983383179
3.61031651497	-8.41501426697	33.1925735474	-13.8124341965	12.5541210175	14.2970867157
3.19851398468	-9.04666900635	34.9759979248	-13.8066654205	12.5721607208	14.3256568909
3.06631064415	-9.57869529724	35.4364395142	-13.9476041794	12.5488519669	14.404923439
2.80839085579	-10.0014152527	35.7703514099	-13.9723615646	12.4984960556	14.3123350143
2.45969390869	-10.5975542068	37.0408782959	-13.8227577209	12.4239349365	14.4452724457
2.549254179	-11.3312864304	37.0954856873	-13.9534921646	12.4467887878	14.4200124741
2.99675393105	-12.0067329407	36.5038337708	-14.1253471375	12.281832695	14.4770526886
2.22016763687	-12.6541748047	37.1080551147	-14.1424198151	12.2705316544	14.5145301819
1.784714818	-13.2552223206	37.6500816345	-14.1563282013	12.4290132523	14.5293092728
1.53127396107	-13.4608268738	38.6530303955	-14.066283226	12.4232244492	14.5041017532
1.47497463226	-13.6148309708	38.9100418091	-13.9404773712	12.4100198746	14.7036037445
2.33712506294	-13.4067335129	37.3479919434	-13.9535446167	12.3941507339	14.6623830795
2.40590286255	-13.305603981	36.4223403931	-13.8276910782	12.264122963	14.697593689
2.45232391357	-13.2719907761	35.9432449341	-13.7417039871	12.2033548355	14.6462345123
2.42305064201	-13.3951740265	35.7982826233	-13.7536401749	12.1842670441	14.587105751
2.75138044357	-13.2731666565	34.3361549377	-13.6805706024	12.0618257523	14.5279016495
2.96960067749	-13.1491498947	32.6729621887	-13.716047287	12.0505189896	14.6557331085
3.42648601532	-12.8519668579	30.5993843079	-13.9233493805	11.9713430405	14.550485611
3.26826739311	-12.8164081573	30.2370758057	-13.946726799	11.9368391037	14.4211702347
4.08533477783	-12.160449028	27.0747947693	-13.9342403412	12.0005331039	14.4277830124
5.48540687561	-10.0315265656	21.1133003235	-13.9422502518	11.9234838486	14.4264564514
6.15928554535	-6.56849908829	15.5137224197	-13.7733078003	12.1607513428	14.3877677917
5.90893888474	-2.82700037956	8.61432552338	-13.637134552	12.3454828262	14.4804859161
4.00751495361	-1.99100983143	10.2540054321	-13.4340524673	12.4283437729	14.420083046
2.64226937294	-0.656117558479	9.88732528687	-13.2724924088	12.5507698059	14.9433279037
-0.129731357098	2.19395327568	9.10042285919	-13.4013004303	12.7185335159	15.1259260178
-0.467465221882	3.91492056847	8.97943496704	-13.5487880707	12.6837482452	14.994843483
-0.143186017871	4.95412635803	9.71663093567	-13.4096517563	13.0738925934	14.938621521
-0.745723485947	5.64909219742	8.82178688049	-13.3223104477	13.0845737457	14.8652296066
-1.32245492935	5.87519168854	8.66959953308	-13.2740726471	12.9763889313	14.9164409637
-1.72322785854	5.89712381363	9.55467891693	-13.1440105438	13.0364131927	14.9052200317
-2.48792624474	6.07126665115	12.2591342926	-13.1929521561	13.1311826706	14.8807029724
-2.18330597878	5.58045196533	14.7481231689	-13.4326658249	12.9681367874	14.8096084595
-3.2825345993	4.78327703476	19.5641555786	-13.5938301086	12.9289989471	14.7049350739
-3.44224452972	3.92256808281	23.1835861206	-13.6969585419	12.948179245	14.8115415573
-3.21919369698	3.02057290077	23.9747447968	-13.7842760086	12.876124382	14.7475805283
-3.53117537498	2.6466782093	24.5618438721	-13.8022375107	12.8035888672	14.7124376297
-3.83403015137	1.91259908676	24.7989082336	-13.9617700577	12.5277576447	14.9678821564
-3.84986901283	1.59207963943	25.9046707153	-14.1886167526	12.6750335693	14.8772878647
-3.7460501194	1.48154556751	27.6753177643	-14.1878938675	12.7018184662	15.0673131943
-4.0078701973	1.35373806953	28.8553733826	-14.3912620544	12.6033496857	15.1518802643
-3.94497823715	1.23223567009	29.3834609985	-14.4448003769	12.5085420609	15.1256475449
-4.36322164536	1.07858395576	30.0018157959	-14.2809486389	12.3931722641	14.9817209244
-4.83110141754	0.962812721729	30.8628139496	-14.1535215378	12.3222608566	15.0064029694
-5.07556581497	0.824166834354	31.5060596466	-14.2150068283	12.237449646	15.0615186691
-5.21573257446	0.574831724167	31.8755702972	-14.2489147186	12.1965475082	15.1957616806
-5.18043375015	0.458796083927	31.8743610382	-14.2836704254	12.157989502	15.2020177841
-5.17778301239	0.341588914394	32.1853408813	-14.2812976837	12.0050449371	15.2208623886
