0.0	-0.0	138.29208374	-114.999702454	86.3533477783	177.942398071
0.0	-0.0	137.548202515	-114.614768982	86.153213501	177.815109253
0.0	-0.0	136.712219238	-114.497253418	86.1935882568	177.828079224
0.0	-0.0	135.560668945	-114.002929688	86.2369766235	177.943252563
0.0	-0.0	132.745269775	-114.874633789	86.6561889648	178.387969971
0.0	-0.0	128.053451538	61.446144104	89.427734375	-0.866162002087
0.0	-0.0	120.629570007	57.0134658813	83.4532699585	0.440750330687
0.0	-0.0	110.797866821	52.5093688965	76.5695648193	2.81878352165
0.0	-0.0	97.5318374634	47.9208602905	72.7023391724	-0.674393117428
0.0	-0.0	83.061882019	47.3946838379	72.0645446777	-3.9295194149
0.0	-0.0	69.6524276733	40.0081520081	62.7596130371	-3.0046942234
0.0	-0.0	57.4967689514	35.3663444519	57.2148666382	-3.2894179821
0.0	-0.0	46.627456665	33.2265701294	55.6427650452	-3.85185980797
0.0	-0.0	41.2581558228	32.504486084	55.5128669739	-3.78797602654
0.0	-0.0	43.9776878357	33.2487792969	55.5963630676	-3.81227684021
0.0	-0.0	48.4373435974	34.3959617615	55.5019836426	-3.85189151764
0.0	-0.0	51.9000244141	33.9006958008	54.0273132324	-4.60235023499
0.0	-0.0	53.8508911133	30.0320491791	52.1991653442	-5.18889570236
0.0	-0.0	54.9491271973	25.5451946259	48.8127746582	-4.43872499466
0.0	-0.0	54.9062576294	22.3255615234	43.0206184387	-5.80823993683
0.0	-0.0	53.8147277832	19.7356376648	38.1822242737	-5.0378484726
0.0	-0.0	53.0732192993	19.1978988647	34.0239143372	-7.19492578506
0.0	-0.0	53.066368103	17.7909736633	32.7579307556	-5.72367715836
0.0	-0.0	53.2865791321	15.9928836823	32.7127571106	-3.41065692902
0.0	-0.0	54.1255912781	15.3820819855	31.668138504	-3.45641279221
0.0	-0.0	54.964389801	15.2710847855	31.279176712	-3.03998780251
0.0	-0.0	55.4548912048	14.8100061417	31.3860282898	-2.56052350998
0.0	-0.0	56.7328338623	14.7390832901	31.3552474976	-2.45871138573
0.0	-0.0	57.7255516052	15.000667572	31.1528968811	-3.01462244987
0.0	-0.0	57.9099388123	14.6247644424	31.1309375763	-2.92045640945
0.0	-0.0	58.1648025513	13.9667396545	30.569475174	-2.59432864189
0.0	-0.0	58.2314605713	13.8652639389	30.0227489471	-2.71241927147
0.0	-0.0	57.9374504089	13.6294307709	29.2038917542	-2.76279568672
0.0	-0.0	58.1975059509	13.1917591095	27.3844985962	-3.09364175797
0.0	-0.0	58.42735672	12.2665100098	25.7335357666	-3.96635365486
