-3.91306519508	-77.4579315186	128.574859619	3.67173886299	1.84479880333	-5.05471467972
-2.92285680771	-77.5147628784	127.28629303	3.70190095901	1.83443665504	-5.08879089355
-0.323152154684	-77.3447418213	123.357414246	3.63551473618	1.89539682865	-5.05220890045
3.5063560009	-76.6361312866	116.803985596	3.5550365448	1.92209517956	-4.99208402634
2.15543746948	-75.7548675537	115.932449341	3.34064054489	1.7601569891	-4.90547561646
4.36820793152	-75.4823226929	107.270599365	2.77813196182	1.63963639736	-4.66646242142
15.5453414917	-71.9624938965	76.2605285645	1.40498137474	1.36626899242	-4.58252429962
14.1697006226	-70.748626709	59.1522941589	0.0912223756313	0.863199591637	-4.61336326599
7.76970148087	-72.5684432983	58.5311393738	-1.84023427963	-0.407915681601	-4.85414934158
2.28402900696	-73.3133239746	61.5175971985	-4.75993061066	-2.46854686737	-5.56208324432
-0.935777962208	-74.3300247192	60.6770248413	-7.31997919083	-4.99995994568	-6.30051422119
2.73798799515	-73.9478683472	50.29504776	-8.77033424377	-7.53527736664	-6.73888874054
-4.55679607391	-73.0807952881	57.9545249939	-10.1277341843	-9.62891101837	-6.99164056778
-6.75062179565	-71.6149749756	59.0006980896	-12.913105011	-10.1396303177	-6.90615940094
-11.8346395493	-72.4122619629	65.6398162842	-15.7786531448	-11.0755729675	-6.76240921021
-12.6038913727	-72.6228179932	66.3421783447	-16.8007507324	-13.6678304672	-7.09037590027
-10.6389045715	-72.7840805054	63.4690589905	-16.8400497437	-15.7743110657	-7.28629302979
-12.2070446014	-72.2989273071	64.9627685547	-17.8400821686	-17.0958786011	-7.02307081223
-11.7311468124	-72.416809082	64.6286010742	-19.6360282898	-18.1233978271	-6.78546380997
-10.0109968185	-72.6308288574	63.3688697815	-19.8370094299	-18.3748149872	-6.68321037292
-9.98233699799	-72.5414962769	63.4378509521	-19.4342079163	-18.501750946	-6.65209007263
