0.0	-0.0	134.401794434	-130.569152832	84.3107223511	167.490188599
0.0	-0.0	134.238479614	-130.404922485	84.6689834595	167.680252075
0.0	-0.0	133.979629517	-130.679077148	84.4060134888	168.06262207
0.0	-0.0	134.079101562	-131.139602661	84.6331481934	168.30418396
0.0	-0.0	133.831344604	-131.339385986	84.7927322388	168.600097656
0.0	-0.0	133.738845825	-131.747116089	84.337310791	169.144454956
0.0	-0.0	133.402893066	-132.401153564	84.0252304077	169.186264038
0.0	-0.0	132.985214233	-132.448562622	84.4253158569	169.310836792
0.0	-0.0	132.585754395	-132.408004761	84.4408035278	169.40737915
0.0	-0.0	132.290374756	-132.413543701	84.3121795654	169.717407227
0.0	-0.0	131.954086304	-132.337524414	84.0983581543	169.704711914
0.0	-0.0	131.397216797	-132.078872681	83.3630142212	169.848022461
0.0	-0.0	130.151168823	-131.781387329	82.1259613037	169.499404907
0.0	-0.0	128.800323486	-131.009078979	80.6124572754	169.32144165
0.0	-0.0	127.110122681	-130.504684448	80.0787963867	169.033538818
0.0	-0.0	126.080184937	-130.409729004	78.6714553833	168.876983643
0.0	-0.0	124.507781982	-130.135009766	76.4518966675	168.868164062
0.0	-0.0	124.199653625	-129.455230713	72.3925628662	169.114822388
0.0	-0.0	123.631233215	-128.177276611	67.9305343628	169.458312988
0.0	-0.0	123.137489319	-125.31918335	61.8608665466	170.107543945
0.0	-0.0	122.55052948	-121.020812988	55.3963699341	170.356124878
0.0	-0.0	122.156608582	-116.453407288	50.0985717773	169.125137329
0.0	-0.0	120.62915802	-111.027015686	45.0988197327	167.909194946
0.0	-0.0	115.882263184	-105.300613403	40.3000907898	167.015182495
0.0	-0.0	103.663925171	-101.845649719	37.3991470337	166.143936157
0.0	-0.0	84.71925354	-101.14655304	35.6838798523	164.84085083
