0.1752409935	1.26142096519	0.163069486618	0.0118069648743	1.53960323334	-0.0875098705292
0.175552129745	1.26121866703	0.163091659546	0.0122051239014	1.5395989418	-0.0872268676758
0.175608873367	1.26119089127	0.163198947906	0.0124626159668	1.53958439827	-0.0870122909546
0.176072120667	1.26130414009	0.162580728531	0.012932062149	1.53969168663	-0.0869188308716
0.177480459213	1.26333117485	0.160968661308	0.0137236118317	1.5397824049	-0.0868375301361
0.17386841774	1.26234793663	0.160798072815	0.0140087604523	1.53999519348	-0.0872297286987
0.169570922852	1.26101195812	0.160875558853	0.0132346153259	1.54080867767	-0.0884168148041
0.166417360306	1.2582064867	0.16337621212	0.0125615596771	1.54181492329	-0.0902895927429
0.165019512177	1.25775802135	0.165502309799	0.0130116939545	1.54302692413	-0.0925769805908
0.160654783249	1.25834000111	0.165831208229	0.0142738819122	1.54444134235	-0.0954303741455
0.158618450165	1.26002395153	0.165125370026	0.0155186653137	1.54608571529	-0.0993988513947
0.15762090683	1.26131880283	0.164518475533	0.017196893692	1.54760038853	-0.103981018066
0.157279491425	1.26313304901	0.162806153297	0.0194339752197	1.54821324348	-0.108726263046
0.15668964386	1.26506531239	0.16118144989	0.0210683345795	1.54866302013	-0.113026857376
0.155680179596	1.26646733284	0.159469366074	0.0208337306976	1.54911732674	-0.116454124451
0.154407501221	1.26801943779	0.158156394958	0.0187039375305	1.54928684235	-0.118421316147
0.153038024902	1.26849246025	0.157146930695	0.015994310379	1.54917216301	-0.119035959244
0.150943517685	1.26916825771	0.156324505806	0.0139737129211	1.54889118671	-0.11868429184
0.149713754654	1.26915967464	0.156670570374	0.0132567882538	1.54909896851	-0.118375301361
0.149013280869	1.26781988144	0.157989501953	0.0131773948669	1.54969477654	-0.118446588516
0.149875879288	1.26892793179	0.157895088196	0.0135271549225	1.54997301102	-0.119216918945
0.151995420456	1.27006006241	0.157842278481	0.0143818855286	1.55022788048	-0.119752049446
