0.0	-0.0	138.308547974	57.5553474426	85.8860397339	-13.2281656265
0.0	-0.0	137.542175293	58.1118583679	86.4980239868	-13.0398664474
0.0	-0.0	130.914733887	58.1156272888	86.9138717651	-12.3935890198
0.0	-0.0	115.76348877	60.3914680481	85.0540542603	-11.8333492279
0.0	-0.0	98.572807312	62.8738288879	79.4337387085	-12.7189846039
0.0	-0.0	83.7009658813	63.1079139709	75.0376739502	-12.023314476
0.0	-0.0	70.9446411133	61.110370636	69.1359024048	-8.12719917297
0.0	-0.0	60.295173645	58.5792388916	64.3463439941	-5.22639083862
0.0	-0.0	51.6070709229	60.4219512939	67.7409286499	-9.22315692902
0.0	-0.0	46.1564712524	58.7429885864	67.5464324951	-8.19095611572
0.0	-0.0	42.9816322327	57.1420021057	62.4655761719	-7.92075061798
0.0	-0.0	42.1824569702	57.8869476318	53.0959701538	-1.12729072571
0.0	-0.0	41.4496803284	59.2562408447	47.1350021362	1.69868159294
0.0	-0.0	39.2142601013	60.1223373413	40.6621932983	2.21035957336
0.0	-0.0	37.7766304016	60.2956504822	35.2927513123	5.92246866226
0.0	-0.0	38.094909668	61.7484321594	36.1125679016	3.78751015663
0.0	-0.0	38.5861625671	63.7751274109	35.090007782	3.0455467701
0.0	-0.0	39.6446418762	64.7251663208	33.7164154053	3.83878993988
0.0	-0.0	40.4560585022	65.5905380249	30.869178772	5.79454898834
0.0	-0.0	40.7683792114	66.5603942871	39.6527557373	4.32368803024
0.0	-0.0	41.7587471008	66.1505203247	48.9295463562	4.47634410858
0.0	-0.0	43.3178977966	64.9150543213	47.556427002	5.87853145599
0.0	-0.0	43.5940628052	64.9010543823	47.4645385742	7.12570714951
0.0	-0.0	43.4679222107	66.275352478	46.0192527771	8.15853881836
0.0	-0.0	43.6268157959	65.644859314	44.5148925781	10.3086223602
0.0	-0.0	43.5842247009	64.7923583984	40.4082069397	11.922498703
0.0	-0.0	43.93201828	64.0510406494	37.6317405701	13.0432109833
0.0	-0.0	44.1492462158	64.9592208862	37.293586731	11.5301370621
0.0	-0.0	43.5238037109	66.1886138916	37.9300765991	10.3284568787
0.0	-0.0	43.828037262	67.471786499	39.6455421448	8.57022094727
0.0	-0.0	44.6755447388	67.2007675171	40.253200531	8.22120857239
0.0	-0.0	47.4559936523	67.7642211914	40.3926391602	8.22665882111
0.0	-0.0	48.5864715576	68.7360076904	40.8726654053	8.13057613373
0.0	-0.0	47.260974884	68.1875305176	42.1742134094	8.15935897827
0.0	-0.0	46.4840316772	67.6678771973	42.5863265991	7.54382991791
0.0	-0.0	48.8271217346	66.8416290283	43.4433097839	7.40154266357
0.0	-0.0	52.3464889526	66.5998764038	44.1336860657	7.86212587357
0.0	-0.0	55.9878158569	67.6170654297	44.7200813293	7.84440088272
0.0	-0.0	58.7907104492	67.8752670288	45.1881561279	7.62689876556
0.0	-0.0	56.8571128845	68.2959899902	45.5115356445	6.6133852005
0.0	-0.0	51.8280944824	67.9659500122	46.0484733582	6.68731832504
0.0	-0.0	48.8821525574	67.6907196045	46.1777038574	6.55712604523
0.0	-0.0	46.2558898926	67.599029541	46.266418457	7.41544628143
0.0	-0.0	43.9405212402	67.5906829834	47.2848243713	7.54874563217
0.0	-0.0	42.3877487183	66.4116210938	48.9841842651	8.28063869476
0.0	-0.0	42.1887130737	65.6186981201	48.6923294067	8.33181381226
0.0	-0.0	41.6748809814	65.9705352783	47.6595458984	8.40838813782
0.0	-0.0	40.0187797546	65.6826400757	47.4520835876	8.76627349854
0.0	-0.0	37.595375061	65.1942062378	47.976524353	8.92813014984
0.0	-0.0	34.7548866272	64.7744674683	48.1112670898	8.92081356049
0.0	-0.0	26.3454532623	64.3136138916	48.148475647	9.40554523468
0.0	-0.0	15.4629201889	63.9355278015	47.9807662964	9.61868190765
0.0	-0.0	5.77496194839	63.4135780334	47.5736885071	9.71338558197
0.0	-0.0	0.0906606540084	63.0669059753	47.3118438721	9.81435203552
0.0	-0.0	0.784191250801	62.8431854248	46.95545578	9.65174484253
0.0	-0.0	4.06035804749	63.1845054626	46.7779769897	9.72828197479
0.0	-0.0	6.9339966774	62.3805732727	46.1848716736	10.5676240921
0.0	-0.0	8.77329921722	61.6690559387	46.2443008423	10.1878919601
0.0	-0.0	9.56343364716	62.160900116	47.6582450867	8.37239170074
0.0	-0.0	19.0617446899	60.9951782227	48.9998550415	10.4820890427
0.0	-0.0	36.3303642273	58.9132919312	48.2739219666	21.3466472626
0.0	-0.0	53.3809280396	60.5537185669	48.8125610352	20.121263504
0.0	-0.0	60.0236320496	60.7009658813	47.8594970703	21.1934165955
0.0	-0.0	64.1022109985	59.6214179993	46.9774513245	24.8727054596
0.0	-0.0	68.4167251587	58.0286750793	46.6879615784	30.46717453
0.0	-0.0	70.2369766235	58.9554100037	48.3079719543	27.7693462372
0.0	-0.0	70.288482666	60.731464386	51.4248199463	15.6900444031
0.0	-0.0	70.7490386963	60.2863922119	58.5235481262	2.54539203644
0.0	-0.0	71.485458374	54.820350647	69.2791824341	-6.7200422287
0.0	-0.0	72.5301818848	48.941280365	81.0514144897	-9.14206981659
0.0	-0.0	72.1269073486	46.6653404236	84.2847290039	-8.9539937973
0.0	-0.0	72.3503494263	47.7252388	81.1122360229	-5.83706855774
0.0	-0.0	71.0058059692	48.9760971069	77.2459640503	-3.78150343895
0.0	-0.0	66.9164886475	49.6940536499	72.7657012939	-1.92333233356
0.0	-0.0	64.4707107544	50.1857147217	64.9721755981	3.91846585274
0.0	-0.0	64.3931274414	50.0179405212	57.103969574	9.54804515839
0.0	-0.0	64.5289611816	50.2007255554	47.5156440735	14.7004098892
0.0	-0.0	63.9211425781	51.7388153076	39.562713623	12.0789518356
0.0	-0.0	64.1466217041	50.6960792542	33.2471008301	12.9775037766
0.0	-0.0	64.7971343994	51.691444397	30.6276893616	14.3571939468
0.0	-0.0	64.5994415283	55.0192642212	33.4711914062	11.2248086929
0.0	-0.0	63.1843261719	61.824382782	44.8146629333	1.2149835825
0.0	-0.0	61.9369239807	64.1577606201	46.2731170654	-3.57973790169
0.0	-0.0	61.6378707886	62.427482605	45.3987693787	-0.736282587051
0.0	-0.0	61.5493087769	61.614692688	43.7805023193	2.02796506882
0.0	-0.0	60.4851036072	60.7103309631	40.3174171448	5.85401153564
0.0	-0.0	58.6377944946	61.3020935059	40.9858283997	2.72502470016
0.0	-0.0	58.8550567627	62.1384277344	39.5168914795	0.00926022976637
0.0	-0.0	58.2434043884	63.3833084106	42.9868965149	-2.5815320015
0.0	-0.0	57.0800590515	66.4745254517	46.6294670105	-7.73014163971
0.0	-0.0	55.9252204895	67.0098342896	42.6919288635	-5.64073562622
0.0	-0.0	55.6800460815	64.628944397	35.5379943848	-0.0498243272305
0.0	-0.0	55.9785842896	65.6159286499	33.3876266479	-1.55454826355
0.0	-0.0	55.827545166	65.2181854248	30.2967414856	0.57312554121
0.0	-0.0	55.7367591858	65.365524292	26.4772949219	1.75336933136
0.0	-0.0	55.4814758301	67.3834991455	23.1199188232	0.343487143517
0.0	-0.0	55.2384147644	72.6109848022	27.4382286072	-6.51559734344
0.0	-0.0	54.6455841064	73.9415359497	26.9915943146	-7.97563838959
