-5.43239164352	-53.8754119873	138.922180176	2.50093698502	-0.256296604872	-4.18084049225
-2.57771801949	-54.2137336731	135.887512207	3.11913108826	-0.260193198919	-4.45599651337
-2.73535346985	-53.796333313	135.856643677	3.46443128586	-0.194003924727	-4.62007761002
-3.05596923828	-54.1086883545	136.056686401	3.36893343925	0.0126939201728	-4.47957992554
-3.12070417404	-53.9473190308	135.369781494	2.86933302879	0.439392030239	-4.33941078186
-4.61091041565	-52.1239471436	134.553390503	1.67366409302	1.64770495892	-3.76985573769
-8.49198246002	-47.2093925476	134.863204956	-0.155823037028	3.43740034103	-2.97998428345
-8.96604442596	-42.2313613892	131.272277832	-1.70394790173	5.75234985352	-2.29869270325
-9.04693412781	-38.6305274963	128.711898804	-2.5970389843	8.01723480225	-1.78620326519
-11.9966945648	-35.4608268738	131.185821533	-3.35981225967	10.3967523575	-1.09952056408
-12.8685264587	-32.8270111084	130.658813477	-4.0005774498	12.9605569839	-0.66806012392
-13.2197732925	-31.8764247894	130.735641479	-4.55287790298	15.5243062973	-0.0232633408159
-13.3619375229	-29.1065273285	128.796417236	-5.031457901	17.4058685303	0.459110051394
-9.3567647934	-25.412979126	115.853218079	-5.35284280777	18.0197849274	0.694880843163
-8.50680541992	-20.8593235016	114.043144226	-5.39688539505	18.3894004822	0.854567587376
-8.92878246307	-12.9780378342	114.4192276	-5.60609149933	18.8992938995	0.918187558651
-10.4170227051	-4.49070501328	117.870437622	-5.95423030853	19.3517627716	1.02827680111
-11.95890522	0.228964969516	119.214630127	-6.24285697937	19.6259288788	1.13994765282
-11.6789627075	-2.12705755234	116.830818176	-6.11769533157	19.6569633484	1.10308051109
-9.88615131378	-8.63448905945	107.511009216	-5.85671520233	19.693271637	1.02412986755
-6.37955284119	-13.2690029144	98.6435241699	-5.61657762527	19.5851268768	0.923803687096
-2.48482990265	-14.7961158752	87.6619796753	-5.59424352646	19.4028625488	0.796760857105
-0.219835221767	-15.0176124573	80.8462371826	-5.78169536591	19.4161987305	0.844719350338
-0.323915034533	-14.8351783752	78.8297271729	-6.03469610214	19.6531429291	0.708145141602
-0.560156583786	-14.2474727631	78.8637771606	-5.95373153687	19.7222480774	0.73872333765
-0.140488699079	-12.2616939545	76.2786331177	-5.80016326904	19.9872722626	0.700504481792
0.942031681538	-10.112326622	70.8547973633	-5.58770132065	20.0827617645	0.792017400265
1.52146720886	-8.90027523041	66.4238586426	-5.68698644638	20.3116989136	0.804386436939
0.624371290207	-8.96263885498	67.1624984741	-6.16666603088	20.8182830811	1.18759214878
0.582467973232	-9.02152252197	67.0126495361	-7.56899404526	21.2955589294	1.28172707558
0.761079549789	-9.5350189209	68.2243270874	-8.49416923523	22.1877441406	1.5982683897
