6.32604694366	-2.03435850143	-6.57479095459	9.98546600342	3.65159296989	34.5554466248
6.58923721313	-1.71805930138	-6.52355289459	9.87103176117	3.69069194794	34.3172912598
6.61326360703	-1.57611656189	-6.15561962128	9.05350017548	3.55950403214	32.3478507996
7.84623432159	-2.77315497398	-5.94341516495	7.73662662506	2.49401807785	28.4652328491
9.02197170258	-5.54278469086	-6.35155725479	6.4117732048	0.858559846878	24.2208862305
8.97695922852	-7.75061607361	-5.95777750015	5.75731182098	-1.09865403175	20.5366573334
7.85516452789	-10.6483316422	-3.72589683533	5.63388061523	-3.01363563538	17.4208145142
6.79538631439	-12.8649988174	-2.75832152367	5.95882606506	-5.20323324203	14.8076152802
7.71407651901	-10.9854440689	-4.56794118881	7.16533088684	-7.22488355637	12.7241249084
6.78555011749	-11.1653194427	-4.29997873306	8.78413295746	-8.68794631958	11.4313249588
6.11449718475	-14.4133806229	-3.72690916061	9.45555591583	-10.1461830139	10.7063503265
6.49527215958	-19.0721988678	-0.0876271873713	9.26860141754	-10.4469804764	10.5237340927
7.30461025238	-21.6854400635	0.451594978571	9.23341274261	-10.0417098999	10.307477951
7.52369499207	-25.1122722626	1.54063975811	9.67422676086	-9.98791980743	9.74212265015
7.7946805954	-27.3030052185	2.69862508774	10.2270097733	-9.54983997345	9.44399547577
8.44669628143	-26.9767875671	1.96919023991	10.5944395065	-8.95669651031	9.54777526855
9.45390701294	-27.451833725	1.5372235775	10.9789762497	-8.60225009918	9.67975997925
9.90069007874	-28.2971038818	2.02137899399	11.1088829041	-8.28916549683	9.93514347076
10.3772382736	-29.3875656128	2.77737736702	11.070192337	-8.06814670563	10.1364345551
10.7686100006	-24.6032142639	2.07289004326	11.064412117	-7.82532215118	10.1969451904
10.5488233566	-20.5227203369	2.13026309013	11.3726072311	-7.52682685852	10.4891405106
9.92200374603	-21.2626228333	3.03354501724	11.5525608063	-7.83927822113	10.8710393906
10.0484142303	-21.2876663208	3.61090183258	11.7363061905	-8.53508281708	10.8904342651
10.6268634796	-22.1666984558	4.16662931442	11.646938324	-8.83917140961	10.866976738
10.2611179352	-22.8200206757	5.23946857452	11.5792045593	-8.70069503784	10.9090080261
9.83742237091	-25.0380973816	6.01743364334	11.521938324	-8.74247360229	10.8997650146
9.53631496429	-26.2148361206	6.39849567413	11.508638382	-8.66418457031	11.0004034042
9.97610092163	-26.3462657928	5.87964868546	11.5827198029	-8.50717735291	11.0377149582
10.6663799286	-25.9834041595	5.12021160126	11.799536705	-8.16068458557	10.8733263016
11.3012504578	-25.0299835205	4.09184932709	12.0490598679	-7.78095197678	10.9695281982
11.1033353806	-24.842042923	4.0791425705	12.2595529556	-7.79281568527	11.2294521332
11.4714069366	-24.7882804871	4.07088279724	12.7340078354	-8.73368453979	11.939291954
11.8588953018	-24.494802475	4.09427022934	13.5835046768	-10.7586622238	12.1109142303
11.5946311951	-23.9503040314	4.07435369492	14.0995597839	-11.5605773926	11.7772960663
11.2778606415	-23.6340904236	3.69793128967	14.0212888718	-10.9833574295	11.6291437149
10.8709917068	-23.1562767029	3.71189379692	13.6600399017	-10.6820287704	12.3136539459
10.8432121277	-22.8435955048	3.91334080696	13.3441877365	-10.7582597733	13.192442894
11.37504673	-22.6204891205	3.90212345123	13.0664405823	-10.6585264206	14.0788469315
11.4250030518	-22.3991203308	3.78581595421	12.8275547028	-10.1394691467	14.7168426514
11.6418132782	-22.2019081116	3.27720713615	11.7404108047	-9.37720298767	14.0653944016
11.4866046906	-21.9524555206	3.29958605766	9.93104457855	-8.41380882263	12.8663311005
11.3178033829	-21.8947601318	3.2943174839	7.58417415619	-7.84131717682	12.1413011551
11.3107557297	-21.829240799	3.76539993286	5.23958492279	-8.34427165985	11.494638443
11.215918541	-21.2874984741	3.85283565521	3.83416414261	-10.3517246246	10.918343544
10.6377134323	-20.4767017365	4.18095302582	3.49736261368	-11.6856079102	10.567029953
10.3058176041	-20.7118759155	4.17150020599	3.728921175	-11.6625967026	10.5462675095
10.5036916733	-21.1997642517	4.23281431198	4.06955718994	-11.4003562927	10.3876581192
10.2998600006	-21.2538814545	4.42042922974	4.24685573578	-11.4797067642	9.93334388733
10.1120491028	-20.9830322266	4.44396734238	3.97279620171	-11.2109107971	9.34903335571
9.86818695068	-20.9247760773	4.48213386536	3.18419981003	-10.6663303375	8.51617622375
9.65637302399	-20.9238109589	4.72834062576	2.07429933548	-9.95940208435	6.30025815964
9.43961429596	-21.0360927582	4.81429052353	0.571343421936	-8.79206848145	3.57610917091
9.19265270233	-21.204460144	4.8590760231	-1.30031967163	-7.48349142075	1.22474062443
8.98980236053	-21.3510799408	4.92992591858	-2.8368704319	-6.37179279327	-0.0398578830063
8.91487216949	-21.5422477722	4.84738779068	-3.93271255493	-5.73386621475	0.287418425083
9.06331634521	-21.6029453278	4.92517518997	-5.42427921295	-5.12655830383	1.09968078136
8.62997245789	-21.9339752197	5.2893280983	-7.26695156097	-4.26785945892	1.79913032055
8.37082958221	-21.8743896484	5.03891181946	-7.52103233337	-3.73105382919	2.21673798561
8.51440143585	-21.0374832153	4.17865657806	-6.86071920395	-3.29401612282	2.46838569641
7.8763718605	-20.4559307098	5.61556339264	-5.37152862549	-2.3652048111	5.27196788788
6.98917150497	-20.8591556549	10.875169754	-3.20838785172	-1.14296400547	9.59506702423
7.812541008	-20.7130184174	10.218211174	-0.508355975151	-0.35389700532	13.6606578827
7.78842926025	-21.154214859	10.7752447128	2.05991244316	-0.557454824448	15.1072397232
7.25348377228	-21.5775718689	12.5285844803	3.84690213203	-1.19630777836	16.164806366
6.47453641891	-21.6855545044	15.6825942993	4.99069261551	-1.76036965847	17.1909828186
7.01881694794	-20.7394313812	13.4652204514	5.27166986465	-1.38561117649	17.5708370209
8.02157592773	-18.9285087585	6.78737354279	5.00771141052	-0.927286028862	17.5712985992
7.30638170242	-15.2915220261	0.879078745842	4.93482685089	-0.685082376003	17.7019233704
4.54003810883	-9.68335151672	-3.57728981972	4.92761564255	-0.289740055799	17.895324707
1.76349592209	-4.20849561691	-4.84625291824	5.01816368103	0.252750277519	18.1471557617
0.943897902966	-2.92180395126	-4.35360574722	5.02529001236	0.156279429793	18.0249023438
1.4630689621	-4.40189266205	-3.05969834328	5.21683120728	-0.271911144257	18.0949020386
2.03146791458	-6.53941679001	-1.69790697098	5.37893819809	-0.97200012207	17.651266098
2.40137648582	-8.95904350281	-0.737680137157	6.12485074997	-1.92164134979	16.6264324188
2.67065000534	-12.9313659668	2.33382463455	6.55246448517	-2.41867876053	16.0928897858
2.45400571823	-17.0635852814	5.00032806396	6.45358371735	-2.17959666252	16.1033611298
2.72512221336	-21.5334892273	7.29416847229	6.29140043259	-2.10159039497	16.1207103729
3.31120443344	-25.5443572998	6.23478651047	6.12212753296	-2.18600797653	15.9713497162
2.85026073456	-28.5040111542	6.50454998016	6.01863384247	-2.45077848434	16.0625495911
3.44703626633	-29.8493709564	7.30134487152	6.38656282425	-2.57733249664	16.1945610046
5.36324739456	-27.6981430054	5.09014606476	7.20770072937	-2.40540909767	16.1229743958
8.58534908295	-22.1742534637	0.293221443892	7.87739753723	-2.73571705818	15.748468399
9.55689620972	-21.8776874542	-1.74060642719	8.24005317688	-3.51893854141	15.4759750366
8.72126483917	-22.4558238983	-0.214334845543	8.27352142334	-4.27005672455	15.4284572601
8.23473072052	-23.1693954468	1.150000453	8.11459350586	-4.60891151428	15.3743839264
7.93475484848	-24.8386631012	2.87577652931	8.28024578094	-4.51444196701	15.0794610977
8.02415466309	-24.8784942627	1.40621984005	8.94889259338	-4.31231784821	14.6281747818
8.83972263336	-24.9877758026	-0.501621186733	9.15172100067	-5.35242795944	14.711063385
9.1683921814	-23.1335544586	-1.54560267925	9.25521564484	-6.54935932159	14.516330719
10.7955732346	-21.8006725311	-3.77995896339	9.6954574585	-6.265812397	14.2426109314
10.9578275681	-24.0420742035	-2.60610842705	10.0238523483	-5.67862844467	13.9657793045
9.78746414185	-27.4926109314	-0.0192707329988	10.0942134857	-5.63838148117	13.9290800095
10.293179512	-28.5008792877	-0.635348081589	10.0791540146	-5.37115001678	14.018705368
10.1245145798	-30.0108737946	0.289569765329	10.2908391953	-5.02225589752	13.9463682175
10.2335739136	-31.9268760681	0.90345710516	10.5737371445	-4.88814353943	13.9332923889
11.4340591431	-33.481803894	-0.0596716329455	10.7982053757	-4.8842959404	13.8616437912
14.0116548538	-31.2570590973	-3.67774105072	10.9661245346	-4.67009067535	13.7952804565
14.4981660843	-31.4091072083	-4.21176815033	11.0831508636	-4.4769821167	13.6470785141
