0.0	-0.0	145.457885742	70.0928955078	89.0675201416	0.0651165172458
0.0	-0.0	143.887130737	69.532371521	89.018661499	-0.114870481193
0.0	-0.0	134.754592896	67.6041259766	87.6366119385	-0.546706199646
0.0	-0.0	117.469047546	56.642993927	85.4495697021	-0.912387907505
0.0	-0.0	97.4190368652	43.1754951477	85.6937255859	-8.35658931732
0.0	-0.0	75.5034866333	31.2161598206	84.758972168	-10.0450563431
0.0	-0.0	59.3592605591	22.3491420746	83.6898117065	-12.0029983521
0.0	-0.0	49.1898345947	16.1187705994	82.8959884644	-12.7852497101
0.0	-0.0	44.3460617065	13.0332689285	82.6846237183	-11.3445920944
0.0	-0.0	41.8165245056	14.8599739075	82.405960083	-10.9088363647
0.0	-0.0	42.2686805725	21.4126281738	84.1040802002	-5.75697660446
0.0	-0.0	43.9637451172	35.4742050171	88.2914123535	-6.19353532791
0.0	-0.0	44.8953857422	-138.039123535	87.8310165405	177.576797485
0.0	-0.0	46.0663070679	-133.911422729	84.8604278564	176.831863403
0.0	-0.0	47.0505142212	-136.68927002	86.7481002808	178.764328003
0.0	-0.0	47.9421043396	-142.195541382	89.3675460815	178.462661743
0.0	-0.0	50.9293403625	36.8432846069	89.6145935059	-1.06132638454
0.0	-0.0	52.9445343018	-144.547195435	89.5975036621	178.824264526
0.0	-0.0	52.8203620911	-147.792694092	88.5604019165	178.275604248
0.0	-0.0	52.1931610107	-153.69317627	88.283416748	179.406478882
0.0	-0.0	50.6016540527	-154.968566895	89.2436141968	179.770004272
0.0	-0.0	48.2311515808	-154.787246704	88.8713607788	179.934646606
0.0	-0.0	46.7610168457	-155.315795898	88.9442749023	179.766433716
0.0	-0.0	47.3268127441	-154.855987549	88.4518661499	179.510192871
0.0	-0.0	47.7415084839	-154.107192993	88.4554214478	-179.058578491
0.0	-0.0	47.765411377	-155.695724487	89.3898468018	-178.685546875
0.0	-0.0	47.9118766785	-158.86138916	89.8658218384	-177.916503906
0.0	-0.0	47.7286834717	-160.979812622	89.5269622803	-178.637069702
0.0	-0.0	47.3583297729	13.1997966766	89.768913269	1.75248968601
0.0	-0.0	46.9244270325	4.31578826904	87.893989563	-1.68117380142
0.0	-0.0	46.4305725098	-6.92428874969	87.1814727783	-5.87487983704
0.0	-0.0	45.1231918335	-16.8774108887	87.6416168213	-8.39614391327
0.0	-0.0	44.3263587952	-25.1627349854	88.7900314331	-7.93906068802
0.0	-0.0	44.4086265564	-33.4984550476	88.8125305176	-9.1182718277
0.0	-0.0	44.6485328674	-41.6545372009	88.6896438599	-8.96625804901
0.0	-0.0	44.5810241699	-43.2088088989	89.6210021973	-9.47754001617
0.0	-0.0	44.9335899353	-43.9291267395	89.4798812866	-8.04793071747
0.0	-0.0	44.8604202271	134.934143066	88.6072235107	171.775985718
0.0	-0.0	45.1321334839	131.4012146	85.6282196045	173.56022644
0.0	-0.0	45.5691680908	132.747558594	86.2794952393	173.739562988
0.0	-0.0	45.4924697876	134.2472229	87.986869812	174.007888794
0.0	-0.0	44.7375946045	134.629714966	89.4631271362	173.369674683
0.0	-0.0	44.2387542725	136.097473145	89.552444458	173.166625977
0.0	-0.0	43.9358863831	136.957138062	89.0753173828	173.551391602
0.0	-0.0	44.2034645081	138.514862061	89.7929229736	173.992858887
0.0	-0.0	43.9796981812	142.161499023	88.9521255493	174.681152344
0.0	-0.0	44.0526123047	146.337982178	88.8868713379	174.38873291
0.0	-0.0	45.1444168091	145.652984619	88.7853622437	174.895141602
0.0	-0.0	46.9861984253	144.192199707	89.2490081787	174.687088013
0.0	-0.0	50.5457077026	143.261947632	88.9697265625	174.964035034
