0.0	-0.0	133.189651489	-127.217414856	82.0159225464	169.881210327
0.0	-0.0	133.529266357	-127.328437805	81.7578887939	170.080108643
0.0	-0.0	133.619903564	-127.898216248	81.7492294312	170.240386963
0.0	-0.0	133.602493286	-128.3253479	82.0128173828	170.470108032
0.0	-0.0	132.923278809	-128.639053345	82.1665039062	170.866455078
0.0	-0.0	127.288253784	-129.010437012	82.7618942261	170.872436523
0.0	-0.0	111.734024048	-128.911712646	82.5352325439	171.02331543
0.0	-0.0	109.971450806	-129.453781128	83.7593612671	171.792175293
0.0	-0.0	101.016578674	-131.380828857	86.8893661499	172.574874878
0.0	-0.0	95.3008422852	-132.439880371	87.6631546021	172.892318726
0.0	-0.0	95.6688308716	-132.596832275	86.3649139404	172.995513916
0.0	-0.0	94.2285003662	-132.844116211	85.6660919189	172.844406128
0.0	-0.0	90.5571746826	-132.719039917	85.5913238525	172.96862793
0.0	-0.0	83.0986709595	-132.960037231	85.8729248047	172.926818848
0.0	-0.0	75.9831771851	-133.053115845	86.0656890869	173.014434814
0.0	-0.0	77.4929122925	-132.940216064	86.2073669434	172.838470459
0.0	-0.0	77.994468689	-133.077392578	86.4559631348	172.588745117
0.0	-0.0	78.3961105347	-133.900527954	86.5079116821	172.685699463
0.0	-0.0	78.586479187	-136.149780273	86.2055969238	173.688186646
0.0	-0.0	79.6191101074	-138.219619751	85.7413864136	174.085479736
0.0	-0.0	79.4960632324	-139.16973877	87.0520858765	174.30166626
0.0	-0.0	79.604347229	-140.892044067	89.1846847534	174.133056641
