0.0	-0.0	135.554412842	-126.649528503	85.0221633911	170.52961731
0.0	-0.0	135.081085205	-126.644638062	85.0842895508	170.248687744
0.0	-0.0	133.408615112	-126.650489807	85.5596160889	170.285644531
0.0	-0.0	125.552131653	-127.284927368	86.22605896	170.440567017
0.0	-0.0	116.481063843	-128.135467529	88.8000869751	170.703018188
0.0	-0.0	112.377624512	51.2638778687	86.4755249023	-9.13641262054
0.0	-0.0	111.525184631	50.8551025391	77.3935775757	-9.46354293823
0.0	-0.0	106.833343506	51.9110031128	66.3996047974	-10.7705106735
0.0	-0.0	104.178833008	56.5723152161	55.4521369934	-13.0327682495
0.0	-0.0	98.3187866211	61.0453834534	48.5612449646	-14.944196701
0.0	-0.0	86.0035018921	63.754234314	44.1640319824	-16.3517093658
0.0	-0.0	68.8808059692	66.4261322021	41.1195259094	-17.7270870209
0.0	-0.0	71.0370559692	67.8642044067	39.4093894958	-18.2193641663
0.0	-0.0	70.1212463379	67.1251449585	38.6659622192	-17.9680366516
0.0	-0.0	70.5185317993	66.7008590698	38.6848754883	-17.8006191254
0.0	-0.0	71.7865371704	66.750541687	37.9111251831	-17.7776985168
0.0	-0.0	73.0929412842	67.3696136475	35.6677207947	-18.053604126
