0.167436599731	1.2637706995	0.163079380989	0.00588488578796	1.54104650021	-0.0872081518173
0.16672205925	1.26269423962	0.164314985275	0.00605702400208	1.54113185406	-0.0861440896988
0.1671667099	1.26237213612	0.164935708046	0.00611972808838	1.54088950157	-0.0850892066956
0.167632102966	1.26251351833	0.165039658546	0.00628757476807	1.54042685032	-0.0840284824371
0.168021917343	1.26192164421	0.165896177292	0.00711870193481	1.53919136524	-0.0828386545181
0.168001413345	1.25988423824	0.167636632919	0.00836706161499	1.53818833828	-0.0818581581116
0.167036294937	1.25844478607	0.168538570404	0.00896000862122	1.53804016113	-0.0817023515701
0.16873383522	1.25657725334	0.171247124672	0.00955319404602	1.53790986538	-0.0822701454163
0.168719291687	1.25527310371	0.172505617142	0.0114750862122	1.53779911995	-0.0826299190521
0.167593479156	1.25619661808	0.172716736794	0.0132756233215	1.53684139252	-0.0831207036972
0.166607141495	1.25809979439	0.172365546227	0.0148019790649	1.53543758392	-0.0833684206009
0.165898323059	1.25959551334	0.171363592148	0.0164680480957	1.53345119953	-0.0830051898956
0.164898633957	1.2599670887	0.170255899429	0.0184102058411	1.53073501587	-0.0828149318695
0.163777351379	1.26002407074	0.169720649719	0.0199964046478	1.52866744995	-0.0820659399033
0.163066387177	1.25937712193	0.169271111488	0.020131111145	1.52694380283	-0.0807886123657
0.161797761917	1.25836741924	0.169154167175	0.0188245773315	1.52610993385	-0.0787198543549
0.160066843033	1.25715637207	0.169668912888	0.0173275470734	1.52505016327	-0.0761222839355
