-7.97411823273	-68.1630325317	131.963638306	2.13730096817	0.966595470905	-3.69625282288
-8.75690555573	-67.7736434937	132.1978302	2.01690506935	1.00641465187	-3.56914925575
-8.91597080231	-67.7486724854	131.593399048	1.87910354137	1.03387463093	-3.44642853737
-5.93483638763	-64.5258255005	125.002677917	1.76093292236	1.31002724171	-3.41707444191
-4.85733175278	-55.3969612122	114.619590759	1.90489685535	3.21547722816	-3.31787896156
-2.46296429634	-51.479549408	107.934036255	2.19485187531	5.74668312073	-3.13668942451
-0.311058104038	-50.8598518372	102.271583557	2.24248409271	7.51774835587	-3.11513710022
-0.96606951952	-49.9875679016	102.308769226	2.40640044212	9.23936462402	-3.26849126816
-0.693612277508	-50.0697746277	101.598731995	2.90397000313	11.4953184128	-3.26868319511
-0.635339021683	-50.7279815674	100.919174194	3.62112188339	14.3141736984	-3.47061824799
-0.878309607506	-51.2701683044	100.951782227	4.57924127579	16.7104454041	-3.81960821152
-0.86294478178	-51.8986206055	101.040779114	5.7483997345	18.3379878998	-4.00421333313
-0.148410826921	-51.9814567566	100.220611572	6.82096385956	20.2864112854	-4.02271604538
-0.0426761135459	-51.3049926758	99.4842529297	7.44873523712	23.742855072	-3.29709887505
0.0286744050682	-51.829875946	99.3611831665	7.33821868896	26.8563079834	-2.80325102806
0.300007909536	-52.3503761292	99.3903808594	7.83685684204	29.1238822937	-2.94832634926
0.365349560976	-52.5669746399	99.4919509888	8.97070980072	29.7869129181	-2.79906415939
0.364260882139	-52.2153625488	99.1379623413	9.70532226562	30.2861919403	-2.8657746315
0.996461570263	-52.5689277649	98.3475341797	9.88933467865	30.4685192108	-2.81645607948
3.17009472847	-52.452255249	94.5226898193	9.55852985382	29.8674697876	-3.00103640556
8.80479049683	-50.3443870544	80.4971847534	9.35894298553	29.3101806641	-2.7643032074
11.820476532	-49.1333885193	71.8256072998	9.02694797516	28.7355613708	-2.5326936245
13.751077652	-48.6593551636	67.1587677002	8.83954048157	28.4634037018	-2.50356554985
13.3675775528	-49.0071601868	67.8974075317	8.84387969971	28.2838592529	-2.46692204475
13.4356746674	-49.2761306763	67.8332595825	8.83406066895	27.789056778	-2.58364486694
13.184305191	-50.5490226746	68.4630889893	8.7975063324	26.6042060852	-2.91081142426
13.026717186	-50.8572616577	67.9802398682	8.85687065125	25.1334247589	-3.16142821312
12.7335100174	-50.8785247803	67.5678482056	8.73442077637	24.1682872772	-3.37047147751
12.4497613907	-50.7227363586	67.3151855469	8.40629291534	22.5662937164	-3.88596224785
10.2443380356	-52.4001159668	72.3609161377	8.25704669952	20.766292572	-4.44156312943
9.0349407196	-53.2859306335	74.8874816895	8.24180030823	19.7935237885	-4.56788635254
6.89647102356	-54.2291145325	79.8208999634	8.21133232117	19.3596439362	-4.46561717987
5.88633203506	-54.389541626	82.2392730713	8.14612770081	19.2001285553	-4.35723400116
4.63600158691	-54.7997207642	86.6537704468	8.23080444336	19.2692394257	-4.28378820419
1.75465011597	-55.0525131226	92.7745742798	8.30571460724	19.6216773987	-4.28788614273
0.362419962883	-53.3399925232	94.8134536743	8.50439453125	20.1360988617	-4.26600456238
0.221684664488	-52.4017791748	94.6304321289	8.65527820587	20.9874019623	-4.17343330383
-1.17024672031	-52.3202209473	96.5252990723	8.84617328644	21.7968540192	-3.99004793167
-2.01684260368	-52.7539749146	97.6047821045	9.04523468018	21.9385852814	-3.95661568642
-2.42846298218	-52.49243927	97.389175415	9.39806938171	22.0377006531	-3.85905456543
-3.72128176689	-51.1466560364	97.9231109619	9.40495014191	21.9170131683	-3.59499764442
-4.09711837769	-50.6012229919	97.8455123901	8.79267883301	21.6727485657	-2.95722842216
-4.7149066925	-49.4983520508	97.2546844482	7.85083389282	22.1482410431	-2.4195432663
-5.77219200134	-48.5620727539	97.5089187622	7.59588813782	22.526473999	-2.09559297562
-5.97048377991	-49.993976593	98.5195159912	7.7435503006	22.3702201843	-2.25176334381
-5.76897764206	-53.1267433167	100.886940002	8.00483131409	22.3589305878	-2.40237760544
-2.88972806931	-54.2348327637	96.0759429932	7.97491073608	22.0069789886	-2.38733863831
8.11835956573	-51.9610290527	68.9299468994	7.78889751434	21.9580059052	-2.27668190002
13.890704155	-48.0800857544	51.2310752869	7.78081560135	22.4732265472	-2.11236166954
12.8716268539	-48.8506774902	52.8924598694	7.49050521851	22.5532188416	-1.80055224895
13.0675868988	-48.9602661133	51.8700180054	6.94348526001	22.2393894196	-1.64892947674
11.1816053391	-48.4209671021	52.951751709	6.13525009155	21.6938552856	-1.51717698574
7.53653144836	-47.7965812683	54.4815444946	5.10281181335	20.7690963745	-1.04978013039
6.46635150909	-49.0286598206	58.0190048218	4.06410503387	20.5492687225	-1.01707053185
8.22991847992	-48.5694198608	55.6305961609	3.90340828896	20.8239822388	-0.915374159813
8.78644561768	-48.1406784058	56.1469078064	4.32745218277	20.8551979065	-0.737104594707
9.4380197525	-47.7262496948	55.8853759766	4.62269067764	20.9873409271	-0.950312018394
9.85741424561	-46.747303009	55.1770515442	4.78045511246	21.1102142334	-1.17226910591
9.62085914612	-45.8136978149	54.256980896	4.75175762177	21.1162185669	-1.24928045273
7.90058040619	-45.34141922	56.6342544556	4.53169155121	20.9213542938	-1.3929463625
7.45100927353	-44.2669334412	56.466342926	4.54426240921	21.2008895874	-1.21985113621
5.93418216705	-42.660369873	57.2366256714	4.47844696045	21.601934433	-1.17305994034
5.05725431442	-42.2362861633	60.0222892761	4.52964353561	21.5312328339	-1.14595770836
3.58021020889	-43.4569015503	66.4280471802	4.79013156891	21.6329212189	-1.16005969048
2.01681756973	-43.5794258118	71.3893127441	4.97978019714	21.8214797974	-1.10551941395
0.215949371457	-43.5306549072	76.5962600708	4.98650550842	21.6431217194	-1.13135874271
-0.302167087793	-43.2107696533	77.8598556519	4.93474912643	21.5371494293	-1.09988617897
-1.32433998585	-43.6813735962	80.8644485474	5.09260606766	21.6788425446	-1.11594188213
-5.22655153275	-44.8258323669	91.9089279175	5.23914957047	21.7045040131	-1.05809128284
-3.65364170074	-44.9926071167	88.7952728271	5.11819267273	21.7859668732	-0.979947030544
-4.3177819252	-44.5229568481	89.8492355347	5.25276041031	21.838060379	-0.83094638586
-4.19194793701	-44.0521202087	89.6733016968	5.25915241241	21.7387084961	-0.851613759995
-3.64012336731	-43.8167572021	88.3823547363	5.35534715652	21.709394455	-0.902001202106
-3.07517719269	-43.8121986389	87.4066162109	5.56304931641	22.2762680054	-0.79140996933
-3.1469540596	-43.9739456177	87.2015609741	5.64957094193	22.6140632629	-0.628432571888
-2.82790756226	-44.3479309082	86.8871459961	5.77927732468	22.5628452301	-0.595763325691
-2.8985080719	-44.759853363	86.7043304443	5.80455064774	22.3983669281	-0.694322526455
-2.82468032837	-44.7682952881	86.3089981079	5.80621862411	22.3113441467	-0.629341065884
-3.103723526	-44.8059959412	86.1462402344	5.61145496368	21.9567050934	-0.597520530224
-2.93974876404	-44.8269462585	85.7811965942	5.44464206696	20.9277935028	-0.665824353695
-2.62962126732	-44.8448257446	85.3687133789	5.13290548325	19.8250350952	-0.891750395298
-2.87379407883	-44.9348144531	85.2546005249	4.51323509216	17.6790714264	-1.35274553299
-3.02460837364	-45.0576705933	85.2286834717	3.95661139488	15.1117362976	-1.63709783554
-2.91554903984	-46.2956085205	85.5156478882	3.50893974304	12.8220376968	-1.89291501045
-3.34547400475	-48.4975090027	86.7347946167	3.48890209198	11.080031395	-2.01823592186
-3.47325944901	-50.8441429138	86.6613998413	3.55703902245	10.4018774033	-1.99806082249
-0.571097970009	-51.4882965088	77.8939361572	3.59534072876	10.1506195068	-1.92372536659
4.10948848724	-49.3199539185	64.1829910278	3.68712949753	10.4984798431	-1.73568570614
8.4022731781	-47.3879203796	51.1125602722	3.77251505852	11.0399961472	-1.50391840935
9.79235553741	-46.3247451782	47.5601997375	3.72920799255	11.4846467972	-1.24743783474
11.2885665894	-44.4935951233	41.8271446228	3.61789226532	11.7029476166	-1.15472090244
10.7308197021	-44.4091529846	42.5438079834	3.60214495659	11.7740888596	-1.24561679363
10.2058458328	-44.5807189941	45.0815315247	3.67358517647	11.7984457016	-1.29439711571
10.486618042	-43.9117393494	46.0301322937	3.70747971535	11.878036499	-1.31770932674
9.41698932648	-44.1603050232	50.6093444824	3.6697371006	12.1967849731	-1.30276370049
8.45683288574	-44.4734077454	54.416683197	3.76874017715	12.4243888855	-1.21315944195
7.1863617897	-44.9303321838	58.2901802063	3.89752817154	12.7240991592	-1.20224523544
4.76561450958	-45.294921875	63.6129989624	4.11980056763	12.8930196762	-1.21974050999
1.15731978416	-46.4332580566	73.438293457	4.41096591949	12.9997234344	-1.29625928402
-1.75519168377	-47.1350784302	81.0749359131	4.6606054306	13.1859903336	-1.22916078568
-3.97651815414	-47.3428688049	86.4530410767	4.80556964874	13.1992740631	-1.3118840456
-3.97847056389	-47.2743377686	85.7149734497	5.0267033577	13.1874628067	-1.18411624432
-4.45599126816	-47.3037147522	85.5688705444	4.73705673218	14.3859539032	-0.950781464577
-4.26023054123	-47.6507797241	84.6935043335	4.03494167328	16.7620697021	-0.418549895287
-4.67188119888	-48.0500411987	84.6969146729	3.41830086708	19.1231269836	-0.105109252036
-4.79635334015	-48.0760154724	84.6582260132	3.5512111187	20.0138149261	-0.0423837602139
-4.90757036209	-47.8936958313	84.8701400757	4.33049201965	21.2338695526	-0.632703244686
-5.01776075363	-48.0799446106	85.17628479	5.66154384613	23.6743335724	-1.26304638386
-4.62192296982	-48.3498764038	84.9348068237	7.15498113632	26.8104553223	-1.24622428417
-4.19672489166	-48.6973953247	84.7644500732	8.34106445312	27.8868732452	-1.38387739658
-3.25702381134	-48.706363678	84.230758667	9.74144172668	28.429151535	-1.84053421021
-2.98633313179	-48.88098526	84.0329208374	11.5432138443	29.257610321	-2.05278682709
-2.78354597092	-48.9566459656	83.8434906006	13.4351615906	30.5976905823	-2.15102100372
-2.49868035316	-49.0921478271	83.4347839355	14.9288625717	31.4504852295	-2.19671559334
-2.14451026917	-49.1236572266	82.8625869751	15.0544090271	31.1549987793	-2.47649073601
-2.45286393166	-48.7631874084	84.1416854858	14.3958568573	31.1983795166	-2.22539353371
-2.73140048981	-48.3601226807	83.6904754639	13.779624939	31.3654899597	-1.85972011089
-3.0686841011	-48.1240158081	83.5961608887	13.1430988312	31.3634300232	-1.70689690113
-3.63538742065	-47.8894233704	83.6615753174	12.7573537827	31.242685318	-1.66407382488
-4.70408058167	-47.24426651	84.9761199951	12.6119718552	31.1283607483	-1.31086397171
-5.70677757263	-46.5975532532	86.3963241577	12.5199022293	30.931022644	-0.650518357754
-7.6663312912	-45.4942092896	87.9267425537	12.477596283	30.8935565948	-0.013299674727
-9.13113689423	-46.0238990784	88.275718689	12.31645298	30.7322406769	0.12391718477
-6.71458053589	-47.9816856384	84.9964523315	12.3036413193	30.807767868	0.454066157341
-2.27125000954	-49.4938659668	80.1337127686	11.8760890961	30.9235458374	0.520494699478
-0.204424440861	-48.5198402405	77.3164520264	11.5228748322	30.8575153351	0.349663585424
2.1284840107	-47.1138114929	72.9584503174	11.3009567261	30.7107028961	0.310400664806
4.84374952316	-44.7741355896	67.9486083984	10.770067215	30.4809417725	0.233818635345
6.48310709	-40.3671760559	65.1841506958	10.5336236954	30.512796402	0.210099115968
7.91829586029	-39.7299575806	65.118850708	10.7259778976	30.5305919647	0.227783024311
9.94118213654	-38.2950439453	64.015335083	11.0962972641	30.5737934113	0.132760569453
10.3277273178	-37.7124214172	66.0362167358	11.8069734573	30.6369876862	0.0460327938199
10.6024160385	-38.2461967468	69.9317321777	13.5564804077	30.6750869751	0.165762245655
10.5639190674	-38.3140945435	70.7236175537	14.7053899765	30.7372684479	0.0523081868887
9.34731674194	-38.8570823669	72.6676254272	14.6548881531	30.6469631195	-0.297955989838
7.88482809067	-39.5768623352	75.2208480835	14.4202861786	30.4413166046	-0.418006122112
7.18840360641	-40.1027374268	74.7335662842	14.1261978149	30.0859909058	-0.0956635847688
6.46925592422	-40.6211662292	74.4675292969	13.0910587311	29.4733066559	0.36861744523
5.66220378876	-40.8998527527	74.3117675781	12.0032243729	28.9671268463	1.23133075237
5.26253271103	-41.271156311	73.8906173706	10.6048212051	28.6835174561	2.35239124298
4.67692565918	-41.3699645996	73.641708374	7.98125839233	28.5680351257	2.46195983887
3.51077151299	-41.1832389832	73.6130371094	4.30587053299	28.3209972382	0.968521773815
2.63096380234	-41.38331604	73.4858398438	0.99451738596	28.0873527527	-0.674507141113
1.5161857605	-41.5968170166	73.872253418	-1.62808704376	28.0527057648	-1.97359848022
0.302426964045	-41.7201766968	74.4703140259	-3.28708672523	27.9401073456	-2.8146777153
-0.0726773291826	-41.8534851074	74.5876617432	-2.53778243065	27.5978965759	-2.5388879776
-0.347236543894	-41.5413017273	74.9651184082	0.00339827453718	27.0707702637	-2.0400891304
-0.408423006535	-41.493938446	75.2589569092	2.32196640968	26.6870346069	-1.84206092358
-0.0130663653836	-41.8773269653	75.1022949219	4.50288009644	26.4749221802	-1.4070173502
0.176247507334	-42.1061782837	75.2074356079	5.89217042923	26.5059566498	-0.818772733212
0.345933288336	-42.3472518921	75.1235580444	6.46010541916	26.6807327271	-0.510647833347
0.382109880447	-42.6063652039	75.0095596313	6.7665772438	26.7525997162	-0.59358805418
0.263253450394	-43.1304397583	74.8421707153	6.79586696625	26.6760540009	-0.689843833447
-0.400017350912	-43.0277557373	75.4884872437	6.8839302063	26.7809200287	-0.77568924427
-0.523723006248	-43.0008087158	75.215057373	8.02491855621	27.1508598328	-0.650267004967
-0.83272331953	-43.185295105	75.2293014526	9.47501373291	27.6027183533	-0.600373208523
-0.989368319511	-43.6117286682	74.9697952271	10.8645334244	27.7747802734	-0.592076480389
-0.992685139179	-43.7273330688	74.6515045166	11.6170492172	28.0110874176	-0.679508388042
-0.944215416908	-44.0036811829	74.3145675659	11.457857132	27.8733406067	-0.814346253872
-0.525401294231	-44.1993179321	73.9400482178	10.7997865677	27.1927185059	-0.533633470535
-0.293746441603	-44.2796707153	73.4267654419	9.51674938202	25.9958877563	0.138179793954
-0.724216163158	-43.9785575867	73.0291290283	7.32661724091	25.3324565887	1.20782315731
-1.91709899902	-44.2767982483	73.0035858154	4.63720989227	24.9085330963	3.04339957237
-2.71650648117	-44.6137008667	73.1469726562	2.58254241943	24.5847797394	4.75553703308
-3.10358214378	-44.5950622559	73.3074035645	1.86447656155	24.1557178497	6.0566983223
-3.38594889641	-44.4633178711	73.4727249146	2.03499937057	23.6978092194	7.34882688522
-3.22273373604	-45.1730880737	73.4351501465	2.4396033287	23.4534759521	8.3538942337
-2.8346426487	-45.9582023621	73.9002151489	2.60333371162	23.1913700104	8.16847133636
-2.66918158531	-45.7409439087	73.6624679565	2.70328044891	23.0082530975	7.88394927979
-1.86000919342	-44.7044639587	72.1198577881	2.63051533699	22.5284461975	7.30470371246
-0.110406056046	-43.372718811	68.3906097412	3.55652236938	22.2874565125	6.63501501083
0.6348066926	-44.0608711243	67.6573410034	5.51223897934	22.2985458374	5.66715288162
1.32265043259	-45.6857719421	67.6455993652	7.51434612274	22.7821655273	4.11438655853
0.317933619022	-46.1523208618	69.2742843628	8.79580402374	23.5327014923	3.59790039062
0.139458358288	-46.1823272705	69.1962738037	8.86758995056	23.9002761841	3.52035808563
0.013740782626	-45.9711303711	69.2642211914	8.79214477539	24.5308513641	3.60855054855
0.278359353542	-46.188835144	69.4747772217	8.75806617737	24.6804676056	3.3769762516
0.0148443523794	-46.3405990601	69.7448959351	8.87357807159	24.6854190826	3.12052989006
-0.56063169241	-46.1778297424	71.1990356445	9.19866847992	25.2443637848	2.82631182671
-0.491667240858	-46.1891822815	71.6095199585	9.8985748291	27.2155475616	2.32743644714
-0.669165372849	-46.5170326233	72.112953186	10.791806221	28.8547115326	1.88405311108
-0.765656590462	-46.9771003723	72.2124710083	10.9273014069	28.4866676331	1.60909175873
-0.373224705458	-46.9705619812	71.7931137085	10.6203346252	28.0733089447	1.60126388073
-0.489551156759	-46.9524688721	73.7796859741	10.2999649048	27.9073143005	1.68285286427
-1.673422575	-47.4492301941	79.8613967896	10.192027092	27.8969173431	1.89708995819
-4.62702131271	-48.276309967	89.986038208	10.1056547165	28.0035743713	2.13609719276
-5.64843320847	-48.8141365051	94.512802124	10.2562675476	28.2027378082	2.20660614967
-4.22386360168	-48.8564376831	90.5660171509	10.4869203568	28.2297267914	2.41114258766
1.79619979858	-45.5853424072	71.3983306885	10.4662380219	28.2259788513	2.39780879021
11.3558807373	-38.7614212036	41.0303039551	10.4031362534	28.172952652	2.45282435417
14.4864149094	-35.9406394958	28.9434432983	10.3394880295	28.2706069946	2.6036760807
14.5220422745	-39.6072120667	34.3119735718	10.3184080124	28.3370914459	2.57431149483
15.9823551178	-41.3080368042	34.514339447	10.2054576874	27.7100811005	2.24149918556
14.9849367142	-42.4363441467	36.3434295654	10.0017271042	25.9473991394	1.63057005405
14.0951375961	-43.1604042053	39.3198738098	9.78864002228	23.9010829926	0.800568342209
14.0160493851	-42.6977386475	38.8114814758	9.60841178894	22.5260028839	0.291219592094
13.8301734924	-42.9510002136	39.0223579407	8.80648994446	21.0893955231	-0.254831820726
13.6906728745	-43.3939056396	39.121257782	7.6400141716	18.8118572235	-0.793737888336
13.5136756897	-43.9133071899	39.3903007507	6.12476158142	16.6296138763	-1.09399533272
13.2020664215	-44.9875411987	40.3885993958	4.39304065704	15.4894456863	-1.06819427013
12.514081955	-45.018081665	41.6652030945	3.56579899788	15.8906335831	-0.391098111868
11.5677108765	-44.2710762024	42.387512207	3.4528195858	16.4461402893	0.0549453236163
11.7013816833	-44.4612998962	43.2428016663	3.56482434273	16.6728038788	0.163280770183
11.5278329849	-45.4689750671	46.0288734436	3.91538691521	16.4675559998	0.288703411818
11.3069143295	-46.2309989929	48.9671478271	3.89368343353	15.9219303131	0.142177581787
10.3159074783	-46.6154251099	52.3124008179	3.9427652359	15.6908054352	-0.0217985883355
8.68279838562	-47.1732177734	56.5558204651	4.1914639473	15.5448179245	-0.0660973712802
5.8409075737	-47.6952781677	63.1062698364	4.30186891556	15.3677568436	-0.188641652465
3.57864952087	-48.0492095947	67.5190887451	4.51520299911	15.4277896881	-0.169744774699
1.66903269291	-47.0916633606	70.6485443115	4.78774690628	15.815325737	-0.0862238779664
-1.66874313354	-45.7198486328	73.1486129761	5.10872793198	16.1502590179	0.151921212673
-4.5479798317	-44.4236030579	75.6656188965	5.15980911255	16.3405704498	0.27466905117
-5.77581644058	-45.5198936462	79.993812561	5.14797401428	16.7415466309	0.486719697714
-10.2054300308	-47.432472229	90.2246398926	5.06648445129	16.794511795	0.414588302374
-7.378033638	-46.8045463562	83.9851913452	4.91785669327	16.9289836884	0.504249930382
-3.75033450127	-46.4503974915	77.5855331421	4.85628795624	17.1220493317	0.643535673618
0.58253210783	-44.6652946472	68.1953277588	4.8591966629	17.3549976349	0.654524326324
1.89316594601	-43.1955375671	65.271232605	4.96755647659	17.5525016785	0.63180154562
3.40939712524	-43.2804069519	62.3768119812	5.00471067429	17.7711544037	0.653517484665
4.50306749344	-43.5311813354	60.8037643433	4.96558713913	17.7833461761	0.625564515591
7.14907503128	-42.6767959595	57.337928772	4.89982032776	17.9638061523	0.704931676388
7.46248483658	-42.3543395996	56.7965049744	5.11203098297	17.2978420258	0.507644951344
7.48395347595	-43.03307724	57.3473396301	5.37894535065	17.328666687	0.759454548359
6.62839984894	-43.4428977966	58.438659668	5.25197076797	18.0810050964	0.867738306522
6.52592658997	-43.8884811401	58.7403640747	5.41759204865	18.7750797272	1.24263513088
6.0526008606	-43.7495536804	59.3324813843	5.14041852951	17.9993133545	1.01241934299
5.81251335144	-43.43176651	59.6182556152	3.76008629799	16.0455093384	-0.522224664688
4.84863376617	-42.8537483215	60.0762367249	2.29756331444	15.7540931702	-1.41650319099
3.67870497704	-42.8926353455	60.7897872925	1.82963454723	17.2994861603	-1.33577227592
2.19457387924	-43.889251709	63.3145141602	2.56458473206	17.6796302795	-1.09639489651
0.551740586758	-45.4087753296	68.9078445435	3.00927019119	18.0064411163	-0.895775437355
-3.62240719795	-47.6788864136	81.3515625	3.14890980721	18.251619339	-0.673738062382
-3.52982759476	-48.0215110779	80.9479522705	3.16522336006	18.5141162872	-0.440552473068
-4.44605827332	-48.0650482178	82.7442398071	3.25980782509	18.6529407501	-0.371791750193
-5.48353767395	-46.6398353577	83.021812439	3.34847569466	18.7284355164	-0.340187340975
-7.5216794014	-43.4823036194	82.4614639282	3.55209422112	18.7839488983	-0.418238818645
-9.30712985992	-41.6427116394	84.0699768066	3.78922867775	18.9296569824	-0.42111325264
-8.90974521637	-42.121887207	83.2070846558	3.8639061451	18.9435405731	-0.432056695223
-8.53754138947	-42.6726150513	82.7621078491	3.97515106201	18.831659317	-0.50272756815
-8.11851024628	-43.1573371887	82.1619796753	4.04312610626	18.6823253632	-0.470942735672
-7.96657037735	-43.1945533752	81.8967056274	3.93255138397	18.5796585083	-0.408790677786
-8.12481975555	-42.8926887512	81.6422271729	3.88862967491	18.9371490479	-0.347169667482
-8.035572052	-42.5751342773	81.5129623413	3.98997688293	19.9994182587	-0.0666354000568
-7.64732217789	-42.8837814331	81.1694717407	4.35059356689	20.4721126556	-0.0168905742466
-7.57476663589	-43.2304229736	81.3433456421	5.60826206207	22.1323604584	-0.788785457611
-8.34162807465	-44.0545349121	81.8040313721	7.64694356918	23.7456016541	-1.06999588013
-8.03858089447	-44.7704315186	81.7939529419	9.55466938019	25.607591629	-1.23062860966
-7.35495901108	-44.8116073608	81.2256546021	10.9873542786	27.1126899719	-0.816944897175
-7.03923654556	-44.7424888611	80.7973480225	10.7107410431	27.9706439972	-0.787818312645
-7.13386964798	-44.7228851318	80.606918335	10.5280790329	28.3624420166	-0.860305845737
-6.73591136932	-44.9394874573	80.1209030151	10.473531723	28.0046329498	-0.988580524921
-7.5239315033	-44.4370422363	80.3425064087	10.4533405304	28.2723617554	-0.634328424931
-7.9394903183	-43.7914810181	81.594909668	10.2621011734	28.7265949249	-0.194071754813
-7.72506141663	-42.6740379333	80.9455032349	9.58782672882	29.1175632477	0.0138530805707
-4.90128993988	-42.2780914307	75.4167480469	9.40298271179	29.2486457825	0.333713024855
0.536773979664	-40.523651123	64.4117202759	9.61899662018	29.1347522736	0.471438348293
6.48465156555	-37.8346557617	49.4346504211	9.94162940979	29.1082706451	0.554587483406
10.4775533676	-36.2483062744	39.0462226868	10.3157405853	29.1202869415	0.59359139204
10.3554935455	-38.3400764465	40.1255645752	10.4859514236	28.5454711914	0.430778801441
11.2396936417	-39.8135261536	39.2129135132	10.2525997162	27.1307888031	-0.121210835874
10.9009208679	-41.8438072205	40.0102996826	9.8353509903	24.5995998383	-0.603485226631
10.7917432785	-41.8300743103	40.5108947754	9.11571311951	22.3267192841	-1.27045929432
10.7817850113	-41.8566093445	40.5094032288	8.2337474823	20.6311683655	-1.90121841431
11.0893192291	-42.0607147217	39.961391449	7.04722929001	19.0967693329	-2.40397524834
11.0507974625	-41.7938995361	39.5331039429	4.63151407242	17.6678142548	-2.87007188797
11.3460550308	-41.5008888245	39.0901832581	0.696460604668	16.1769657135	-3.20548987389
11.6640224457	-41.7219734192	38.9499549866	-1.70280408859	15.4491119385	-3.25122213364
11.1736831665	-42.1955528259	39.5582580566	-1.97792601585	14.8774576187	-3.38711690903
9.35762882233	-43.8383598328	43.3228187561	-0.762275755405	14.4872407913	-3.43282294273
9.85482883453	-44.4690361023	43.7601394653	0.526711463928	14.5613336563	-3.2190682888
9.86314678192	-44.3605117798	44.2397575378	1.08459937572	14.6352453232	-3.0881998539
9.88205242157	-44.3160400391	44.4620246887	1.14896202087	14.721745491	-2.93583726883
8.89725017548	-44.5440635681	47.3695983887	1.38006782532	14.8496456146	-2.53504395485
7.65586328506	-44.8146247864	51.0044708252	1.69287240505	15.164317131	-1.8481849432
7.46651697159	-45.1523780823	53.6284179688	1.92890775204	15.9186258316	-1.26499271393
6.457239151	-45.9862937927	58.0992851257	2.04647135735	16.5827636719	-0.976423084736
3.56000804901	-46.9759521484	65.3002624512	2.19088578224	17.1763000488	-0.580140411854
-1.41744244099	-48.2210006714	74.5744400024	2.47168540955	17.4787330627	0.468048721552
-2.77003240585	-47.7448005676	78.19896698	2.75821590424	17.934135437	1.77432799339
-1.82129371166	-47.2614173889	77.4139862061	2.865265131	18.5853843689	2.38223481178
-0.71329253912	-47.1341018677	76.1390380859	2.99762749672	19.1637268066	1.6929807663
-0.332742482424	-47.1974449158	73.8681793213	3.65626645088	19.3955135345	1.22378635406
3.31251835823	-45.4838180542	60.2285118103	4.30517292023	19.576385498	0.70726108551
11.631983757	-39.4272117615	35.6342430115	4.76193523407	20.335477829	0.493175685406
10.9311075211	-38.5381317139	32.6623420715	4.96633768082	20.9689178467	0.596780002117
10.7006206512	-38.6255378723	32.5189399719	4.87703227997	21.0391769409	0.849183499813
10.2820739746	-38.3310585022	31.4086093903	4.31583309174	20.6887645721	1.07450759411
9.81019592285	-36.8629150391	29.211107254	3.53041315079	20.5201129913	1.30570578575
9.85727500916	-35.3975830078	28.3943595886	2.37045383453	20.3496513367	1.35578501225
10.4653129578	-35.0785827637	30.2192249298	1.45197355747	20.06590271	1.58247470856
10.5864982605	-34.3289146423	30.5647315979	1.03290128708	19.9581031799	1.66694009304
10.4786167145	-34.6313056946	32.8157234192	0.745790302753	19.9574012756	1.75186181068
10.1229705811	-34.3679237366	34.3745155334	0.556097447872	19.9168186188	1.76897442341
10.0943880081	-34.4297714233	36.6834335327	0.509695053101	19.8156051636	1.84592974186
9.4213104248	-35.7546653748	42.7874908447	0.728434622288	19.707201004	2.13346147537
8.59315872192	-37.8136749268	47.9789276123	0.733938276768	19.68658638	2.22032308578
8.45951652527	-38.7202606201	48.8382797241	0.801301658154	19.6305847168	2.19796609879
7.72698974609	-38.745426178	49.0312728882	0.893345117569	19.7644252777	2.26709890366
7.29061698914	-38.6458625793	49.5903129578	1.06073820591	19.9058895111	2.2611374855
7.32253313065	-38.8927116394	50.4853820801	1.13508582115	20.236000061	2.18909597397
7.36247014999	-39.0723457336	50.2377967834	1.11392199993	20.3738708496	2.12694621086
6.9103717804	-39.1466941833	50.2969169617	0.948488950729	20.2680034637	1.93923103809
6.41192150116	-39.3066749573	50.4382286072	1.00866854191	20.0450992584	1.68679761887
6.20945644379	-39.2571754456	50.3821716309	0.873100817204	19.678527832	1.01109945774
6.09908723831	-39.1246528625	50.2709693909	0.588918089867	18.5247688293	0.142649307847
5.96155357361	-38.6674880981	50.4086990356	0.261849194765	16.4335041046	-0.696543037891
5.74198818207	-38.7360839844	50.3046684265	0.109965659678	14.7484121323	-1.14302647114
5.55064916611	-38.8392906189	50.391998291	0.0896073579788	12.4715442657	-1.52468037605
4.96905565262	-39.15650177	50.4157562256	-0.0738406702876	10.7023525238	-1.73827147484
4.56005716324	-39.2584609985	50.4898834229	-0.253094285727	9.93055438995	-1.55465984344
4.61573123932	-39.234539032	50.4091033936	-0.392508804798	10.0900478363	-1.50435853004
4.54103851318	-38.912322998	50.8467178345	-0.0388903878629	9.36222934723	-1.59769082069
4.3708562851	-38.4072570801	51.0804862976	0.570187926292	7.68249082565	-1.5954028368
4.44254684448	-38.2229309082	51.21434021	1.12275111675	6.05730390549	-1.65937709808
4.39664268494	-38.4312171936	51.3876724243	1.44965350628	5.87904930115	-1.76929593086
4.11075353622	-38.7720985413	51.5786437988	1.9410752058	6.19854259491	-1.81794857979
3.79843211174	-39.0682182312	51.6281738281	2.57548141479	5.72755289078	-1.79685902596
3.90865397453	-39.0492477417	51.5666046143	3.08347892761	4.45157194138	-1.80973410606
3.68104100227	-39.0126342773	51.5717086792	3.37507867813	4.2154211998	-1.75036144257
3.72069501877	-39.7611999512	51.4481430054	3.35211110115	4.91003656387	-1.68730759621
3.77799606323	-40.493637085	51.3855171204	3.4250664711	6.2491850853	-1.36549460888
4.15475416183	-40.6535453796	51.1241607666	3.41776180267	7.31287622452	-1.08180296421
4.34731578827	-40.2771453857	51.1133003235	3.54817199707	8.71060466766	-0.685912668705
4.77777957916	-40.4987640381	50.6475334167	3.63124299049	10.0339374542	-0.244964525104
5.43654298782	-39.7596893311	50.2375221252	3.22232437134	11.4044084549	-0.664582252502
5.66822957993	-39.6429367065	49.9835853577	3.01073050499	17.3289890289	-0.638456821442
5.13852882385	-39.8082389832	50.1779060364	3.31981420517	20.5970401764	-0.175212219357
4.30109214783	-39.6001014709	50.7349967957	4.38714551926	21.9442329407	0.0585044957697
4.79445362091	-40.0128898621	50.1574211121	5.37024736404	21.6895294189	0.270194798708
4.83358573914	-40.111038208	49.8529663086	5.04743432999	21.754234314	0.0151288732886
4.23330307007	-40.8078269958	50.0984916687	4.47944259644	21.4155807495	0.0509729832411
4.51698827744	-40.7397155762	49.5259361267	4.00282287598	21.1162052155	0.00399022502825
3.95201873779	-40.7988090515	49.5592308044	3.44944262505	20.8069763184	-0.0733766555786
3.92617964745	-41.5152549744	49.7027130127	3.21348118782	20.6714820862	0.267059475183
3.67396974564	-41.7596740723	49.8654251099	2.76309347153	20.2223472595	0.554866790771
3.45905542374	-41.6307182312	49.8764038086	2.38775396347	19.571931839	0.674089312553
3.71551084518	-41.2655296326	49.8836326599	2.43730258942	18.7371768951	0.400335401297
4.78841781616	-41.9354133606	50.7697525024	2.50055837631	18.5674858093	0.176678031683
5.58001804352	-41.8107147217	50.7298164368	2.44674444199	19.5045986176	0.606054008007
5.57806777954	-41.0286064148	51.3205451965	2.3069601059	21.6604785919	1.10968363285
4.8746471405	-41.1992263794	55.5738296509	2.35283255577	23.2895126343	1.49584150314
4.53963708878	-41.3448143005	58.129360199	2.5945854187	24.9603271484	1.69371128082
4.38259124756	-41.0097885132	58.6756057739	2.83727264404	25.7198600769	1.55556082726
3.90629029274	-40.4526367188	60.6543884277	3.06846451759	26.233959198	1.33534753323
3.73102378845	-40.6236305237	61.8315429688	3.12071561813	26.8926067352	1.39623117447
3.48290371895	-43.9300498962	63.7299308777	3.32272410393	27.3254547119	1.40520381927
6.45715522766	-48.2035675049	60.1038780212	3.77935767174	27.4631996155	1.45059132576
9.50332546234	-50.6856842041	54.020866394	3.83529257774	26.7082805634	0.881162822247
16.5169525146	-55.4611091614	44.4527931213	3.98057174683	25.8785610199	0.530517578125
23.5142269135	-60.3949279785	37.0491867065	4.40974807739	25.9120063782	0.165258735418
30.0916213989	-64.056022644	29.3656959534	4.9470334053	25.9654045105	0.235810145736
35.8456344604	-67.3339691162	23.5888080597	4.56832408905	25.6517429352	0.193415790796
37.9243164062	-68.2289123535	20.5204334259	4.1775598526	25.082742691	0.327987313271
40.082611084	-69.5179672241	17.0801677704	3.57105898857	23.8629837036	0.448290586472
39.8300094604	-69.6366043091	17.0295467377	2.66376709938	21.6118774414	0.0872175619006
40.2289505005	-69.3219680786	15.6651115417	1.49704670906	17.0711097717	-1.07917225361
37.5150489807	-68.7894134521	17.8729114532	0.482560932636	13.6835756302	-2.01416134834
30.662065506	-66.3662643433	24.6152763367	0.233676284552	13.7718286514	-1.89056622982
25.6532402039	-63.6426849365	28.9658527374	0.692506611347	15.0216293335	-1.58999073505
26.0585956573	-65.4714431763	28.210269928	0.961535334587	15.1644687653	-1.51042985916
33.5452766418	-67.8586807251	20.8766555786	1.29949498177	14.2752304077	-1.51587152481
43.1869735718	-69.6931915283	13.5040493011	1.67331504822	13.4973144531	-1.62244534492
42.4491958618	-69.6680297852	14.7660694122	1.81210684776	13.1940460205	-1.52344226837
28.437702179	-66.7206573486	26.6701793671	1.85202682018	13.1425285339	-1.41165912151
15.5889453888	-61.3789291382	41.3977890015	1.96583688259	13.2486505508	-1.2795432806
14.272687912	-57.8441734314	42.8317222595	1.94983136654	13.4761552811	-1.2641671896
10.3026256561	-52.3398590088	47.76770401	1.88729703426	13.5658903122	-1.27804362774
5.51347446442	-46.9248924255	52.076210022	1.87603986263	13.7385978699	-1.16450619698
3.06473684311	-43.7246818542	55.3689193726	1.85994720459	13.8372850418	-1.1625777483
0.12845864892	-41.642742157	59.5658721924	2.17263936996	13.9137125015	-1.26309120655
-4.48146629333	-38.7273406982	67.1991043091	2.55572533607	13.9408893585	-1.33058965206
-5.31395435333	-37.9612045288	71.485168457	2.640635252	13.8838157654	-1.12071371078
-5.21053504944	-38.0908889771	72.6336135864	2.39151978493	14.0541200638	-1.03522086143
-5.59682226181	-37.6409301758	73.6532974243	2.50342464447	14.3562078476	-0.993931472301
-8.30637454987	-37.0028381348	82.1281814575	2.71548509598	14.755033493	-0.892725884914
-9.76749038696	-35.6810913086	85.6934356689	2.81746053696	15.1849126816	-0.849279522896
-10.5662250519	-35.4803504944	86.7251739502	2.96804881096	15.9966287613	-0.885245084763
-13.6133699417	-36.2786331177	90.1527175903	3.34247922897	16.7758693695	-0.871597230434
-16.4058227539	-36.1986503601	93.1897888184	3.57410240173	17.3469104767	-0.841196298599
-18.0104198456	-36.1516265869	96.1745834351	3.88713359833	18.3327674866	-0.730709016323
-20.8242034912	-35.7497177124	100.8800354	4.1959939003	18.806552887	-0.522719323635
-19.5797958374	-35.7873764038	97.5802764893	4.13223838806	18.8017501831	-0.527148783207
-12.0515813828	-37.8192749023	82.8925018311	4.15081644058	18.4166984558	-0.454145222902
-7.48304605484	-39.5771522522	71.3452224731	3.93858861923	18.3841819763	-0.423739880323
-7.18883895874	-40.6353759766	68.3709411621	3.8412091732	18.4427890778	-0.410653501749
-5.42160367966	-41.2384262085	63.4183158875	3.93084478378	18.3706474304	-0.288761287928
-3.87552142143	-40.7830810547	56.8457717896	3.73946094513	18.2321929932	-0.014588133432
-4.04339551926	-41.4951438904	56.1557350159	3.55119967461	18.0951938629	0.253151327372
-4.67954492569	-41.1493225098	55.5178871155	3.42888379097	17.8674583435	0.490528553724
-5.33965015411	-40.7317237854	55.6014175415	3.34583353996	17.7380180359	0.66522192955
-5.35744285583	-41.4026031494	56.1277198792	3.3662302494	17.7147064209	0.614063978195
-5.12415266037	-43.3253822327	56.5901947021	3.75902271271	17.9889945984	0.594881772995
-4.93594360352	-44.5019378662	56.4122123718	3.87785983086	18.2645530701	0.604801595211
-4.59008836746	-44.1230583191	56.2245979309	4.00289535522	20.0987758636	0.548622667789
-4.53420162201	-44.2743301392	56.1878242493	3.98689723015	20.6033306122	0.697748184204
-4.56476926804	-44.1126747131	56.043762207	3.74257612228	20.2343997955	0.552590429783
-4.46060609818	-44.0499649048	56.1293792725	3.40187478065	19.2416915894	0.189793080091
-4.4246878624	-43.5282325745	55.9628639221	2.51383376122	18.3592643738	-0.355332702398
-4.63286209106	-43.2279891968	55.8255081177	1.05100166798	18.8444671631	-1.10349583626
-4.72320222855	-43.6665267944	55.48204422	-0.620080828667	19.8866119385	-2.38604021072
-4.79460763931	-44.0887031555	55.3705863953	-0.533074676991	21.6197223663	-2.94056749344
-4.73656177521	-44.8815536499	55.0047149658	0.494309544563	22.7109222412	-2.42634773254
-4.43609142303	-44.7255401611	54.8476982117	0.571210324764	21.4948596954	-2.39865493774
-4.27448511124	-44.130191803	54.7898521423	0.336854100227	18.9554214478	-2.19814610481
-3.98003792763	-43.7631530762	54.6380157471	0.145831257105	16.8444080353	-2.12472867966
-4.31263065338	-44.4412727356	55.0145835876	-0.191874176264	15.6663513184	-2.23097968102
-4.37044095993	-45.0868339539	55.5404319763	-0.310870707035	15.6002845764	-2.18373560905
-5.19813919067	-45.8032302856	58.6494750977	-0.305885493755	15.2848291397	-1.88341116905
-8.13039112091	-46.8803329468	69.1315612793	-0.326802074909	15.1672735214	-1.6466807127
-8.77294063568	-46.4301795959	72.6676101685	-0.23804242909	15.391617775	-1.61795675755
-12.4612827301	-47.3166007996	82.1061019897	0.00628272583708	15.692653656	-1.44538843632
-18.7598686218	-47.7401924133	93.1991958618	0.435667663813	16.0292243958	-1.04021310806
-25.4857540131	-48.0774726868	103.922142029	0.832607865334	16.0646324158	-0.569257318974
-29.1654224396	-47.9973526001	108.547698975	1.78036999702	15.0279960632	0.52276545763
-25.80900383	-48.1096534729	103.509521484	2.41990041733	14.4506082535	1.18368077278
-20.4193477631	-48.7962722778	89.0569381714	2.73507928848	15.8668756485	1.29536557198
-9.77619361877	-48.3435173035	64.2893600464	2.75315070152	19.0786476135	1.09245967865
-4.24853038788	-46.0381240845	52.5641098022	2.23486018181	21.6537895203	0.59729719162
-5.68181848526	-45.9425392151	55.6048698425	1.48954844475	23.0198898315	0.228864818811
-5.7679028511	-45.9518470764	55.0124740601	1.42158770561	23.0785369873	0.354984045029
-6.89671564102	-46.093585968	56.5525474548	1.37760198116	22.948299408	0.241942375898
-7.70028591156	-45.8751220703	55.8292922974	1.19340825081	22.0783691406	-0.00465932907537
-8.50495243073	-45.0054397583	54.8577842712	1.3832821846	21.8078117371	-0.189046278596
-8.18021392822	-44.5708808899	53.6483955383	1.58124637604	22.0515651703	-0.088343732059
-7.32401037216	-43.4990119934	53.9159660339	1.44838857651	22.0746231079	-0.0653709322214
-5.93597078323	-42.7857208252	56.162853241	1.30915474892	22.5356960297	0.195806086063
-3.70167040825	-41.3330383301	53.1951026917	1.09573447704	22.3951034546	0.0850034728646
-2.40363812447	-40.8176040649	52.404712677	1.30178391933	21.6286735535	-0.0908284336329
-1.79945421219	-41.2837409973	52.4218902588	1.83496189117	21.3737983704	-0.133405044675
-1.43329274654	-41.6089744568	52.2248344421	1.74962246418	21.8034896851	-0.303011894226
-1.37884831429	-41.6637039185	51.9035987854	1.09062027931	22.4194049835	-0.433051556349
-2.94114422798	-41.4232597351	51.6685791016	0.485925853252	23.825460434	0.0370841026306
-4.00494623184	-40.9514770508	51.8560447693	-0.0238975659013	25.571269989	0.387295156717
-5.88015365601	-41.8778953552	53.9835090637	-0.184407815337	26.5628814697	0.476284056902
-6.68957853317	-43.2698402405	55.6181335449	-0.115812852979	26.396604538	0.515569448471
-4.77936935425	-44.2434463501	55.9385757446	0.233368650079	26.0021934509	0.0930420905352
-4.3440747261	-45.4448165894	57.9570655823	1.02412104607	25.5006408691	-0.141391545534
-4.75963401794	-45.9558067322	60.3961982727	1.38972306252	25.5935535431	-0.362605601549
-5.44077014923	-46.8557548523	62.5845031738	1.56659924984	25.5623035431	-0.421080440283
-5.79058504105	-48.2071762085	65.2776641846	1.80987608433	25.5897903442	-0.362150341272
-6.01645469666	-48.7405014038	66.3945159912	2.26158571243	25.3227729797	-0.448175013065
-6.4378695488	-49.2533569336	69.1052703857	2.90309619904	25.0558052063	-0.533636271954
-7.83057975769	-49.8797798157	73.1664810181	3.25217866898	24.8068161011	-0.50324267149
-8.24321460724	-50.0599136353	75.5272598267	3.41951179504	24.8525867462	-0.543001353741
-7.07665014267	-48.8943481445	74.8423080444	3.67107605934	25.067773819	-0.210859999061
-6.45228481293	-48.1731796265	74.2846984863	3.23403787613	24.9558258057	-0.868661224842
-6.23588228226	-47.8453330994	73.1385574341	-1.03434276581	24.6451416016	-4.99476861954
-6.57672357559	-47.948677063	72.1690216064	-5.85988998413	24.5265235901	-9.77196407318
-7.01079130173	-48.351020813	71.5200271606	-7.53240251541	24.8286705017	-12.7489061356
-7.38151407242	-48.5155677795	71.0680847168	-7.85287809372	24.3752727509	-13.9827022552
-7.34463119507	-48.4603004456	70.6744384766	-9.29224395752	23.1466197968	-15.4118738174
-7.38387918472	-48.4011421204	70.2771072388	-11.0954284668	22.0667514801	-16.6814250946
-7.23640823364	-48.3897285461	69.9534988403	-11.8718233109	21.703458786	-16.8137016296
-7.31296014786	-48.434463501	69.7526092529	-11.9592504501	21.9969596863	-15.7141876221
-7.69615697861	-48.475227356	69.8354797363	-11.7122917175	22.3616065979	-13.9740839005
-7.85289955139	-48.3847923279	69.8258056641	-11.4308567047	22.7314662933	-12.078742981
-8.63071250916	-48.1431999207	70.4990692139	-11.4532804489	22.6271095276	-10.7820205688
-8.95840072632	-48.124835968	70.7549819946	-11.3858890533	22.2891330719	-10.3677330017
-9.46186828613	-48.1283798218	70.9541549683	-11.1643886566	21.8153858185	-10.2832603455
-9.82007980347	-48.0954208374	71.014831543	-11.1663560867	20.9592723846	-10.5985622406
-10.1366825104	-48.0882797241	71.1104812622	-11.8925876617	20.0822200775	-11.130859375
-10.1752662659	-48.1954917908	70.7696075439	-13.1648035049	19.1583442688	-11.844622612
-10.6716661453	-48.0166893005	70.9496459961	-13.7312479019	18.7067642212	-12.1248922348
-10.2608938217	-47.9837341309	70.2296295166	-13.0942230225	18.9259757996	-11.8555459976
-6.30649423599	-46.5269889832	62.3204345703	-12.5129032135	19.3480567932	-11.5874652863
-4.74661779404	-46.3970451355	58.7870788574	-12.4434108734	19.4889278412	-10.972117424
-5.52619075775	-46.3115959167	60.0196533203	-12.4306354523	19.6846866608	-9.13469409943
-5.65532779694	-46.2719039917	60.1798820496	-12.6073646545	19.8938484192	-8.30311393738
-5.12916946411	-46.258769989	59.8577384949	-13.2799415588	19.6053524017	-9.44309616089
-5.66962909698	-46.2110824585	59.5856170654	-13.843670845	19.0326728821	-10.4657402039
-5.40479230881	-46.1779518127	59.169506073	-14.5399532318	18.7350902557	-10.8138303757
-5.08478307724	-46.2407035828	59.0562095642	-15.0521793365	19.1739387512	-10.3155241013
-5.20676231384	-46.3361320496	59.3776092529	-14.5476999283	19.3328533173	-9.10012435913
-5.04693412781	-46.4763641357	59.6484947205	-12.8254337311	19.594537735	-6.20353937149
-4.93495035172	-46.4062805176	59.9327926636	-11.0770711899	19.8938484192	-2.77119779587
-4.51483392715	-46.4278259277	60.1141433716	-9.9322052002	19.963596344	-0.5587272048
-5.62564563751	-47.2819633484	64.8130722046	-9.20276355743	19.8597431183	-0.33158442378
-5.39420509338	-47.9309043884	67.6844024658	-8.59331035614	19.8318595886	-0.528441786766
-5.03445291519	-47.3431015015	68.2421722412	-8.06069755554	19.7324180603	-0.671965122223
-6.0235490799	-45.4425582886	70.5412216187	-7.78090524673	19.7503681183	-1.1436624527
-6.61433553696	-44.0313606262	71.2732543945	-7.54144001007	20.1387214661	-1.30473554134
-7.19389247894	-43.7566642761	73.4589767456	-7.17475032806	20.5207290649	-1.38701498508
-4.71499919891	-45.0357170105	73.3194656372	-6.76178407669	20.8449840546	-1.40154659748
-2.09286212921	-45.8409729004	71.4707565308	-6.5743727684	21.1337127686	-1.55564069748
-2.03774118423	-47.0043334961	74.2454833984	-6.42384815216	21.1465206146	-1.86174690723
0.230269476771	-46.7615013123	69.7856369019	-6.26827573776	21.1628665924	-2.04712080956
6.31677913666	-47.7212715149	56.3069152832	-6.43649339676	21.264705658	-2.18768620491
16.1353416443	-44.7083053589	33.3682479858	-6.70561933517	21.3357315063	-2.28598380089
24.4414196014	-35.1922073364	14.5898456573	-6.70144224167	21.4532089233	-2.38806128502
26.1221523285	-32.4488067627	9.58937931061	-6.74355316162	21.5393619537	-2.48308777809
26.1606445312	-35.826084137	17.1469650269	-6.58492279053	21.620759964	-2.57228446007
25.7091579437	-36.0787963867	20.6660137177	-6.28651666641	21.6307983398	-2.64900493622
21.9060192108	-38.078086853	35.6957855225	-5.86285686493	21.82122612	-2.61577939987
18.3828220367	-39.0116386414	56.7294654846	-5.2182264328	22.0099582672	-2.59708881378
17.690071106	-33.0405426025	64.4578399658	-4.93648958206	21.6835403442	-2.10918498039
15.6404132843	-24.4611644745	72.326751709	-5.65605068207	21.8472957611	-2.10968732834
13.4798154831	-8.94075393677	76.9962539673	-5.89377498627	21.8794212341	-2.08191108704
11.6839923859	11.1223516464	77.2795410156	-6.1264257431	21.6872730255	-2.15328025818
11.8883924484	26.1811676025	74.3883895874	-6.62329244614	21.8594589233	-2.32467317581
10.7178030014	41.407459259	83.9624633789	-6.69708251953	21.9521789551	-2.27443122864
16.8963699341	52.5519752502	85.6829910278	-7.04100036621	21.8712425232	-2.53997755051
28.5974197388	55.6424026489	82.1415634155	-7.25251102448	22.3250408173	-2.72079777718
70.4843673706	52.5725898743	65.8580322266	-6.84864044189	22.7969913483	-2.85482597351
105.475738525	57.891078949	41.6855392456	-5.76359272003	23.3055744171	-2.90501880646
124.218406677	60.1267700195	47.6785736084	-4.73753786087	23.3544521332	-2.84419083595
110.863388062	62.669670105	45.3526535034	-4.40816307068	23.2527523041	-3.05393004417
68.4663391113	52.7582130432	85.7694854736	-4.71146392822	23.2361412048	-3.00674009323
40.7906455994	50.3824424744	115.437469482	-5.0524597168	23.3108177185	-2.76280212402
39.5726585388	47.9193992615	103.434104919	-5.28047275543	23.2249011993	-2.62398815155
51.9623603821	44.4073104858	61.9086074829	-5.34549236298	23.2701663971	-2.38235425949
50.807674408	34.5235862732	29.1920909882	-5.48255825043	23.0851249695	-2.19079661369
50.0420227051	22.7914886475	0.341359883547	-5.67260456085	23.1693687439	-2.35458874702
53.5426826477	-0.500880002975	-7.33699941635	-5.39696073532	23.0603618622	-2.46122407913
53.7832603455	-18.1896114349	-3.54803943634	-4.86987018585	22.8715610504	-2.56184625626
53.2196044922	-34.9142875671	3.33660173416	-4.78274583817	22.7863063812	-2.60161662102
49.4426994324	-45.6110877991	9.83437538147	-4.80706644058	22.6310005188	-2.58148980141
48.9426994324	-48.7970237732	4.30839157104	-4.81502771378	22.7021331787	-2.48627066612
46.3695983887	-48.2161064148	-11.3349933624	-5.1790471077	22.6575737	-2.52190446854
41.4421920776	-46.5525970459	-20.6707744598	-5.20981931686	22.6086788177	-2.61475276947
34.9496803284	-50.4228668213	-0.269433200359	-5.19909286499	22.5688095093	-2.43191146851
29.4350471497	-48.9114761353	12.3574342728	-5.58921146393	22.6354370117	-2.42021250725
26.8180522919	-45.7798843384	19.8557167053	-5.75835371017	22.8301105499	-2.42667198181
26.3714942932	-48.1010551453	28.5004615784	-5.45693254471	22.957359314	-2.50340485573
23.612455368	-50.1266174316	37.6141319275	-5.16092824936	22.9354496002	-2.75318384171
22.3665676117	-51.7351989746	42.4832992554	-4.75736141205	22.8942146301	-2.92078137398
22.0584945679	-51.832988739	43.4504547119	-4.4301276207	22.7667350769	-3.00498008728
19.4490451813	-54.0981407166	51.2253417969	-4.11723470688	22.4048252106	-3.10752415657
17.4080867767	-56.4050788879	57.6515693665	-3.45336484909	21.5032615662	-3.40659236908
16.6060848236	-56.4973068237	58.9038887024	-2.77231407166	20.8472690582	-3.86863183975
13.1831855774	-57.7369537354	65.2134475708	-2.09240317345	20.4240684509	-4.39628362656
10.8494281769	-59.0747642517	70.491897583	-1.42097663879	19.9494552612	-4.98805904388
11.2058677673	-59.3093566895	70.0379638672	-0.440443485975	19.6023082733	-5.910343647
11.0790042877	-59.5519065857	70.0575790405	0.702061474323	19.7070350647	-6.69716787338
11.7406282425	-59.3615150452	68.8173446655	1.39394235611	19.8489322662	-7.39239263535
12.7279453278	-59.0811500549	66.5014724731	1.29766392708	19.6463108063	-7.89765262604
12.2317495346	-58.6468544006	66.2726898193	0.156305328012	19.2918815613	-8.45071792603
12.3498296738	-58.5773353577	64.3836746216	-1.24066221714	18.8129005432	-8.66367721558
11.3032922745	-58.3413047791	64.0951309204	-1.9287083149	18.668176651	-8.50734615326
10.4949827194	-57.9013710022	62.9548149109	-2.43970704079	18.5307559967	-8.08084487915
9.49876499176	-58.6708068848	63.5364646912	-2.84064793587	18.3340091705	-7.60815095901
8.23016834259	-59.3117485046	65.1737289429	-2.99934649467	18.373966217	-7.11495733261
4.02112722397	-60.1480674744	74.8529510498	-3.10046267509	18.4732456207	-6.96653032303
5.42149114609	-60.3967666626	72.0812988281	-3.03232502937	18.9979457855	-7.00866174698
6.54898309708	-60.0384063721	70.8505859375	-2.53214287758	19.6447849274	-7.51066207886
7.86359834671	-59.5116081238	69.5241470337	-2.18534445763	19.9409103394	-8.18509864807
6.95371723175	-59.0561523438	70.978805542	-4.0151720047	19.9198665619	-9.22227287292
6.96696949005	-59.0306625366	71.2758636475	-7.15667486191	19.8440761566	-10.0203905106
7.53235721588	-58.8206634521	70.7546768188	-8.75342178345	19.8069324493	-10.8233642578
7.02919006348	-58.8817253113	70.9009475708	-9.3027381897	19.599899292	-12.208612442
6.48067140579	-58.6880187988	70.5379333496	-9.68315982819	19.4954509735	-13.7850389481
6.20200014114	-58.7777557373	70.3348693848	-9.71693992615	19.5607509613	-14.3004560471
6.34840774536	-58.7133636475	70.0910720825	-9.61068916321	19.7747039795	-13.9860143661
7.50892877579	-58.4363937378	68.5261611938	-9.72149562836	19.9553279877	-13.4913187027
7.47009325027	-57.9648666382	67.8100738525	-9.98114204407	20.0363903046	-12.2255821228
7.24514532089	-58.2297782898	68.0396347046	-9.94668674469	19.9061870575	-11.1926441193
9.16222953796	-57.4348945618	61.8975982666	-9.90635204315	19.9043579102	-11.0060806274
12.243268013	-55.0395050049	52.1556472778	-9.6352481842	19.9108314514	-10.9317970276
16.5349807739	-50.9075393677	40.5524406433	-9.5439414978	19.8898582458	-10.8403787613
15.2784786224	-51.0842475891	42.8771362305	-9.64841461182	19.7453098297	-10.837469101
14.7790327072	-50.9903869629	43.7998352051	-9.46993637085	19.9148025513	-10.7009105682
13.7093496323	-50.905708313	46.6523933411	-9.25883197784	20.0343837738	-10.5732145309
13.821313858	-50.8058166504	46.8113822937	-9.11897659302	20.1888790131	-10.4586486816
12.7178134918	-51.3634414673	50.6470832825	-9.10711860657	20.2936897278	-10.4188613892
12.4139270782	-51.9730949402	52.6054611206	-9.02659797668	20.4372501373	-10.3682584763
10.2212085724	-53.2576065063	58.9735488892	-8.90232563019	20.3351802826	-10.3274393082
6.25972175598	-54.8605499268	68.5935668945	-8.82213497162	20.2549514771	-10.1187448502
4.23386001587	-55.4973983765	73.1055374146	-8.84822940826	20.3484249115	-10.1299905777
4.1176776886	-55.5669403076	74.0347671509	-8.80239009857	20.2285785675	-10.278503418
1.72551226616	-56.0393371582	79.8155593872	-8.78228759766	20.1952190399	-10.4500818253
-2.2900018692	-56.6130485535	88.4401016235	-8.83159732819	20.2956409454	-10.4531316757
-4.37505292892	-57.0630493164	93.330581665	-8.86327266693	20.3233833313	-10.4178352356
-6.43755912781	-57.239730835	97.4424591064	-8.76929092407	20.5050849915	-10.3909511566
-7.70849943161	-57.5860023499	99.0386657715	-8.65970611572	20.8276672363	-10.3608427048
-8.49891281128	-57.601600647	100.379585266	-8.54006958008	21.2687797546	-10.3654584885
-8.8998708725	-57.5124053955	100.913330078	-8.27188301086	21.7841415405	-10.3632116318
-9.38726711273	-57.0020484924	101.854225159	-7.70958566666	22.5052242279	-10.3736972809
-9.32735347748	-57.2149925232	101.71131134	-7.0459227562	23.2306518555	-10.4185390472
-8.95672893524	-57.4633979797	101.330734253	-6.13150835037	23.7255134583	-10.4561424255
