0.256067991257	1.01510262489	0.19561290741	0.018723487854	1.5137526989	-0.0720734596252
0.253283023834	1.01490664482	0.196105599403	0.0176222324371	1.51350224018	-0.0706835985184
0.251723766327	1.0149743557	0.196387648582	0.0170361995697	1.51503503323	-0.068950176239
0.250133991241	1.01490092278	0.196537256241	0.0175261497498	1.51834058762	-0.0676606893539
0.245613574982	1.01300287247	0.197026133537	0.0178339481354	1.52066075802	-0.0662549734116
0.239323854446	1.01231861115	0.196665048599	0.0172832012177	1.52313876152	-0.0641260147095
0.232492446899	1.01255941391	0.196382761002	0.0151498317719	1.52480816841	-0.0620670318604
0.225302934647	1.012414217	0.196978807449	0.0127296447754	1.52562761307	-0.0605623722076
0.218722820282	1.01192998886	0.19763481617	0.00933957099915	1.5259860754	-0.0594267845154
0.215754270554	1.01249456406	0.198360323906	0.00523376464844	1.52608335018	-0.0595686435699
0.212888002396	1.01496911049	0.199090003967	0.00115966796875	1.52687323093	-0.0606670379639
0.209826946259	1.01732087135	0.199914574623	-0.000756025314331	1.52686393261	-0.0623230934143
0.207619428635	1.018658638	0.19942843914	-0.000770330429077	1.5262234211	-0.0635533332825
0.207987785339	1.01797175407	0.198667764664	0.000513792037964	1.52570545673	-0.0645716190338
0.210525989532	1.01603603363	0.197866916656	0.00253677368164	1.52592003345	-0.0655179023743
0.211679935455	1.01418566704	0.19747710228	0.00440692901611	1.52598392963	-0.0658901929855
0.208735704422	1.01531744003	0.196288466454	0.00565719604492	1.52615272999	-0.0663179159164
0.203756332397	1.01436400414	0.194932222366	0.00552225112915	1.52632069588	-0.0665378570557
0.201355457306	1.01201629639	0.193967342377	0.00554180145264	1.52600729465	-0.0660455226898
0.199522256851	1.01073670387	0.193118572235	0.00638031959534	1.52544486523	-0.0651714801788
