0.0	-0.0	135.213363647	-126.570549011	87.8828048706	166.352966309
0.0	-0.0	134.657897949	-126.435241699	87.6645889282	166.321014404
0.0	-0.0	131.143127441	-126.725654602	88.7217483521	166.667007446
0.0	-0.0	113.546974182	52.833114624	88.8415756226	-12.7019987106
0.0	-0.0	85.8081817627	51.432056427	80.3227996826	-12.9247779846
0.0	-0.0	72.8913116455	47.5069274902	73.8591995239	-12.6533098221
0.0	-0.0	76.325012207	44.0315628052	69.3317489624	-12.9456033707
0.0	-0.0	78.4628753662	42.363243103	60.0143928528	-15.5794639587
0.0	-0.0	80.199760437	41.5269088745	51.9351959229	-17.4312763214
0.0	-0.0	82.6407241821	42.5809211731	49.5344314575	-18.398059845
0.0	-0.0	83.5647659302	44.3415641785	43.1878318787	-19.4040851593
0.0	-0.0	85.5013656616	44.151134491	36.4972763062	-20.0851078033
0.0	-0.0	85.1567459106	42.2092971802	29.7413291931	-19.3556480408
0.0	-0.0	84.2367095947	42.2701454163	25.7944221497	-19.4408016205
