-8.07035636902	-53.1017951965	131.749160767	2.99772453308	-0.0574656240642	-4.45796442032
-7.92538547516	-52.9029464722	131.292541504	3.13460445404	-0.140884026885	-4.62565422058
-7.72454595566	-52.839302063	130.879577637	2.98254823685	-0.339600026608	-4.70081233978
-8.03430557251	-52.6897392273	130.961044312	2.84967374802	-0.266731768847	-4.53934621811
-8.1476984024	-52.6228561401	130.881698608	2.72529888153	-0.0776511579752	-4.47897291183
-8.7204618454	-52.523639679	131.260055542	2.57729816437	0.0322787463665	-4.32034778595
-8.3843755722	-52.5040473938	130.81098938	2.63286542892	-0.146318286657	-4.31680727005
-8.25622940063	-52.5599937439	130.70223999	2.88763141632	-0.272852361202	-4.39409017563
-7.85479784012	-52.4862060547	130.265731812	2.98964428902	-0.174204513431	-4.40132474899
-7.16314220428	-52.2349891663	128.350234985	2.82632756233	-0.0763159543276	-4.2292137146
-7.09095716476	-51.5755844116	127.478424072	2.54759931564	0.462418824434	-4.01698541641
-6.30325937271	-51.0483016968	124.270500183	2.04642558098	0.942884683609	-3.69269227982
-6.00488042831	-49.4222640991	121.320556641	0.914957225323	1.93175387383	-3.22835636139
-8.08867454529	-45.8472251892	121.3567276	-0.908507406712	4.33051967621	-2.28130698204
-10.0534238815	-40.6964302063	121.955940247	-2.45691299438	6.81303405762	-1.80105364323
-11.0317935944	-39.6711196899	122.773986816	-3.42478179932	9.28649997711	-1.53179037571
-12.4309835434	-37.9624862671	123.849510193	-4.07060194016	11.8949108124	-1.00648212433
-13.4306764603	-37.0116271973	123.750724792	-4.64590930939	14.415512085	-0.559765040874
-13.6022310257	-35.526058197	124.832122803	-4.71967506409	15.8286924362	-0.30989074707
-14.5094633102	-34.0771446228	126.507957458	-4.65251398087	16.2177143097	-0.419816762209
-12.6416416168	-33.3809318542	121.479278564	-4.560526371	16.2649440765	-0.471975892782
-12.4981136322	-32.2900657654	120.810722351	-4.58283472061	16.3684177399	-0.513924360275
-14.6692562103	-27.6773395538	121.508918762	-4.69325399399	16.5438842773	-0.496521860361
-18.780122757	-17.756444931	128.884185791	-4.76747179031	16.5764942169	-0.472937881947
-20.139591217	-10.1820240021	130.525665283	-4.9081492424	16.3994827271	-0.394602864981
-19.8411636353	-11.7629747391	128.451156616	-5.29805517197	16.1497535706	-0.45798048377
-18.1362266541	-17.4533119202	123.71698761	-5.24408483505	16.1973419189	-0.564015626907
-13.7910575867	-23.4737300873	114.584671021	-4.80552577972	16.1029090881	-0.666414260864
-7.52044630051	-25.6921062469	102.736801147	-4.44442081451	16.1917877197	-0.603071153164
-0.724638044834	-24.951789856	86.1415634155	-4.47749423981	15.9456300735	-0.510056555271
2.71359682083	-23.2848548889	76.575881958	-4.74690198898	15.8192081451	-0.453542947769
2.0363881588	-23.5838317871	76.7934799194	-4.93896532059	15.9064617157	-0.400973021984
1.33322823048	-21.8857688904	73.8867797852	-5.10795879364	16.0685958862	-0.243056103587
0.0798566788435	-19.7145786285	73.1602783203	-5.47558832169	16.7590847015	0.150242805481
-0.919170498848	-18.4580173492	73.6506576538	-6.52268838882	17.8670310974	0.55623871088
-0.841815710068	-18.9681358337	74.028503418	-7.97587919235	18.7707443237	0.891180753708
-0.838630080223	-19.4308280945	74.8780899048	-8.81278038025	19.5997486115	1.2084864378
-1.57498002052	-19.6926059723	75.6652145386	-8.59501647949	21.5860519409	1.53200113773
-2.06402373314	-20.3510456085	76.3406448364	-7.84125804901	23.423828125	1.7029967308
-2.18062114716	-20.7819004059	76.9246673584	-6.96709632874	24.5212841034	1.54531681538
-2.09303998947	-21.1125202179	77.5085754395	-6.14337968826	25.1147212982	1.01878583431
