0.0	-0.0	140.66267395	55.6153144836	86.5841369629	-13.5403156281
0.0	-0.0	141.195846558	55.8921585083	86.8897857666	-13.6422567368
0.0	-0.0	142.184936523	56.0622444153	86.7121505737	-13.6172990799
0.0	-0.0	140.434555054	55.7761192322	86.4683227539	-13.1252584457
0.0	-0.0	112.966423035	54.6592636108	86.5011520386	-12.476940155
0.0	-0.0	93.1769180298	49.6799888611	82.3554763794	-11.148557663
0.0	-0.0	87.282333374	42.6181297302	77.3675994873	-10.9904556274
0.0	-0.0	90.6306838989	35.2925224304	73.6108551025	-10.5441951752
0.0	-0.0	75.2181930542	27.1228084564	70.337020874	-10.2437782288
0.0	-0.0	65.8506317139	19.1094646454	64.5296020508	-10.077539444
0.0	-0.0	78.429901123	13.3285560608	56.3847351074	-11.1485900879
0.0	-0.0	78.9893722534	8.24270629883	50.6943435669	-11.7621011734
0.0	-0.0	74.660697937	4.93086862564	48.1780738831	-12.1320304871
0.0	-0.0	61.6843757629	4.27467107773	45.8037223816	-12.011961937
0.0	-0.0	56.8988952637	4.19523000717	41.6571159363	-12.1779689789
0.0	-0.0	57.1930389404	3.56627130508	38.7321968079	-12.5849523544
0.0	-0.0	60.8842048645	1.8381562233	37.763633728	-12.1583662033
0.0	-0.0	60.0910873413	-0.38248488307	37.507232666	-11.9024553299
0.0	-0.0	61.9154930115	-1.63175845146	36.5154037476	-11.2277135849
0.0	-0.0	62.0027580261	-1.53316497803	35.208278656	-11.4930343628
0.0	-0.0	54.7335281372	-1.10559117794	34.3986053467	-11.8284673691
0.0	-0.0	52.6857719421	-0.90020108223	34.5190734863	-12.0373010635
0.0	-0.0	51.9281578064	-0.849036991596	34.7317314148	-11.6632928848
0.0	-0.0	58.4189491272	-0.916540801525	34.891418457	-11.3797931671
0.0	-0.0	60.50522995	-1.35436582565	35.3843688965	-10.8094348907
0.0	-0.0	62.5106658936	-2.70287632942	35.4423561096	-9.80848026276
