-32.44896698	-1.8937112093	21.5246219635	4.7888250351	19.2089366913	-35.0715484619
-32.3643798828	-1.98159229755	21.4147396088	4.80857133865	19.1825962067	-35.1702384949
-32.2187728882	-1.9918358326	21.0568313599	5.38081932068	17.4629611969	-34.6196784973
-31.2642993927	-2.23917651176	20.6374912262	6.07378149033	10.2906332016	-34.2923240662
-27.9091186523	-8.14171695709	21.8922672272	6.04318904877	3.25027418137	-33.5541152954
-22.5556793213	-12.9731044769	19.43110466	5.84288215637	-1.7730178833	-31.7387142181
-18.5100765228	-20.1793174744	19.0165348053	5.99061203003	-4.22169494629	-30.3932228088
-17.8574123383	-24.288225174	19.5598163605	6.77918624878	-5.51042032242	-29.8811969757
-17.4315509796	-28.7691040039	21.8147621155	8.02321052551	-6.54044675827	-29.661315918
-17.6220149994	-31.475856781	24.5383434296	9.25866699219	-7.08767461777	-29.5719585419
-15.3768987656	-30.255191803	21.8083362579	10.6383914948	-7.86053705215	-29.5184230804
-14.3980798721	-27.5605373383	20.0663928986	13.4496841431	-7.94542741776	-27.556476593
-13.4928293228	-26.3858470917	19.2241230011	17.0146045685	-6.10047006607	-21.5400676727
-14.3603582382	-26.3208618164	20.1908760071	18.1650695801	-4.96921682358	-16.4420185089
-12.8186731339	-26.1594848633	19.6079273224	17.9517192841	-4.45689582825	-15.2453975677
-8.15902137756	-26.8672084808	17.7176361084	17.6933937073	-4.53958845139	-15.9729642868
