-0.261215686798	1.17361140251	0.115216732025	-0.0248649120331	1.71166312695	0.0389773845673
-0.262162923813	1.17580282688	0.113516330719	-0.0247573852539	1.71158957481	0.0376088619232
-0.26272892952	1.17641365528	0.112189769745	-0.0248670578003	1.71134185791	0.0367951393127
-0.262692213058	1.1752089262	0.110866546631	-0.024879693985	1.70988237858	0.037143945694
-0.263197898865	1.17295491695	0.107889652252	-0.0257730484009	1.70422828197	0.0398378372192
-0.263875722885	1.17213046551	0.10350728035	-0.0263333320618	1.69551980495	0.0430779457092
-0.263216495514	1.171636343	0.102044224739	-0.0246000289917	1.69056797028	0.0445866584778
-0.26261138916	1.17220592499	0.103287816048	-0.0230987071991	1.69206631184	0.0443898439407
-0.26315164566	1.17228078842	0.101937294006	-0.0246152877808	1.69473159313	0.0436496734619
-0.265263080597	1.16945588589	0.0943787097931	-0.030148267746	1.6939804554	0.0443422794342
-0.266829490662	1.16689145565	0.0855622291565	-0.0400412082672	1.69199955463	0.0465617179871
-0.269194602966	1.16365599632	0.076667547226	-0.0494780540466	1.68957042694	0.049590587616
-0.27228808403	1.15948832035	0.0705463886261	-0.0567960739136	1.68661308289	0.0526740550995
-0.274177789688	1.15721476078	0.0645879507065	-0.0624597072601	1.68315088749	0.0557070970535
-0.275264263153	1.157127738	0.0574769973755	-0.0683996677399	1.67891526222	0.0584011077881
