-72.2748031616	-18.7760829926	136.364959717	8.54558753967	3.77848386765	1.79522585869
-72.85887146	-18.6064453125	136.946868896	8.26824092865	3.77846574783	1.89641332626
-73.3318405151	-18.7232170105	137.308410645	7.938539505	3.64732408524	1.97035813332
-73.430809021	-18.7013874054	136.672943115	7.54306173325	3.35244369507	1.99832749367
-73.6187667847	-18.9878540039	133.787414551	7.15500450134	1.18661415577	2.02043128014
-73.326133728	-18.3573989868	129.317977905	6.89922618866	-1.98855745792	1.83385705948
-73.3442687988	-17.0854721069	123.480384827	6.90583753586	-5.80917978287	1.6831407547
-74.0314331055	-11.3491153717	107.284561157	6.81668615341	-8.95274925232	1.71323418617
-72.51978302	-3.72246718407	84.1168899536	6.53412008286	-10.7741231918	1.33732628822
-71.9318847656	1.82454943657	69.9622573853	6.80539369583	-11.4390420914	0.973716497421
-71.0766220093	7.41239404678	49.3264732361	7.20074987411	-11.5937480927	0.870893836021
-71.9097061157	8.00622940063	42.9851608276	7.12796354294	-12.0131158829	0.857913434505
-71.2751464844	6.75578212738	45.6169586182	6.30531597137	-13.0758991241	1.24247777462
-70.9293212891	7.00602960587	45.9111404419	4.71938085556	-14.6922578812	1.63122236729
-71.1152267456	8.20768928528	42.5303459167	4.10395908356	-16.2906970978	1.30276691914
-71.3704528809	9.57017230988	33.298740387	3.65345883369	-17.5659065247	0.347525060177
-71.3044967651	10.1329612732	27.0492095947	3.20695567131	-18.2142314911	-0.184235036373
-70.828414917	11.6541032791	22.0447406769	3.30175924301	-18.396686554	-0.274772197008
-70.80128479	13.0737056732	15.974067688	3.13853693008	-18.4749259949	-0.341772258282
-70.966835022	13.3349533081	13.0936603546	3.17408466339	-18.4879703522	-0.520509064198
-70.5060119629	10.9212350845	30.9358444214	3.23841619492	-18.3574771881	-0.501403808594
-69.0917663574	9.00793266296	47.5624313354	3.96242547035	-18.5320472717	-0.919266939163
-67.9715805054	7.07848644257	53.8039932251	6.84007310867	-19.3945045471	-2.50655388832
