-0.123001813889	1.05242681503	0.146213531494	0.0119771957397	1.68319654465	0.0263700485229
-0.123741865158	1.0522787571	0.145231723785	0.0115916728973	1.68338561058	0.0256969928741
-0.124745130539	1.05252695084	0.144564986229	0.0107545852661	1.68264806271	0.0258193016052
-0.126734733582	1.05145931244	0.142644882202	0.00866460800171	1.68087375164	0.0262876749039
-0.129244327545	1.05041360855	0.141100049019	0.00625705718994	1.68091166019	0.0265913009644
-0.131743431091	1.05128407478	0.140249013901	0.00347352027893	1.6861884594	0.0242147445679
-0.133829832077	1.04995059967	0.139773726463	-0.000860214233398	1.69910275936	0.0167751312256
-0.135567426682	1.04952764511	0.139753460884	-0.00570487976074	1.71158230305	0.00451719760895
-0.136313438416	1.05061769485	0.141731619835	-0.0094473361969	1.72032117844	-0.00904631614685
-0.13602232933	1.05056905746	0.142637252808	-0.0117032527924	1.72824585438	-0.0225641727448
-0.135342359543	1.0513625145	0.143560647964	-0.0126583576202	1.73496711254	-0.03644490242
-0.134763479233	1.05400705338	0.145653009415	-0.0133998394012	1.73883926868	-0.0496051311493
-0.134613990784	1.05977702141	0.149752140045	-0.0142772197723	1.74034678936	-0.0595688819885
-0.131765365601	1.06293106079	0.152194499969	-0.0152127742767	1.74034357071	-0.0659013986588
-0.129180192947	1.06283247471	0.151628732681	-0.0160489082336	1.7403690815	-0.0705263614655
-0.127455949783	1.06135380268	0.149962902069	-0.016857624054	1.7405102253	-0.0753571987152
-0.127295017242	1.05886244774	0.144885540009	-0.017614364624	1.74146401882	-0.0814930200577
-0.127848863602	1.05680203438	0.138961195946	-0.018975019455	1.74234950542	-0.0887405872345
-0.128312587738	1.05564284325	0.136310577393	-0.0196011066437	1.74295353889	-0.0967419147491
-0.128388166428	1.05553984642	0.134424805641	-0.0196568965912	1.74363982677	-0.105521440506
-0.129783630371	1.0576133728	0.132285356522	-0.0189430713654	1.74473905563	-0.116706728935
-0.129565954208	1.05911016464	0.131911277771	-0.0182976722717	1.74561667442	-0.130337953568
-0.128320217133	1.05916285515	0.131443023682	-0.018262386322	1.74589788914	-0.143835544586
-0.127288818359	1.05891776085	0.131363391876	-0.0179078578949	1.74544072151	-0.153095960617
-0.125274181366	1.05690407753	0.132292032242	-0.017067193985	1.74474608898	-0.156217813492
-0.123097658157	1.05659270287	0.133743882179	-0.0159075260162	1.74377453327	-0.155391216278
-0.123926401138	1.05438160896	0.131475090981	-0.0152304172516	1.74328303337	-0.151996612549
-0.125488996506	1.04940438271	0.127255916595	-0.0146701335907	1.74270892143	-0.146162867546
-0.126610994339	1.04478979111	0.124158382416	-0.0139582157135	1.74178779125	-0.138657808304
-0.127880573273	1.04224729538	0.122983455658	-0.0130786895752	1.74030673504	-0.131561040878
-0.128045558929	1.0405049324	0.124301433563	-0.0129632949829	1.73928999901	-0.125741004944
-0.127142190933	1.03987717628	0.126678943634	-0.0140364170074	1.7391525507	-0.121573209763
-0.128159284592	1.04006743431	0.128660678864	-0.0154695510864	1.73954713345	-0.118977308273
-0.127868890762	1.0409989357	0.131457328796	-0.0165364742279	1.74005627632	-0.117003917694
-0.126963853836	1.04327869415	0.135278463364	-0.0172033309937	1.74029505253	-0.114528059959
-0.125365257263	1.04847168922	0.140698075294	-0.0171599388123	1.74022316933	-0.111665129662
-0.127838373184	1.04525446892	0.135626673698	-0.0165855884552	1.74015903473	-0.108480930328
-0.130129337311	1.04152274132	0.130344629288	-0.0156750679016	1.73988485336	-0.105380654335
-0.131514549255	1.04113960266	0.129095315933	-0.0151283740997	1.73967564106	-0.10348200798
-0.131165266037	1.04146790504	0.131519675255	-0.0149936676025	1.73959875107	-0.102641224861
-0.131225347519	1.04033041	0.130606532097	-0.016054391861	1.74012577534	-0.102990627289
-0.13251209259	1.0391972065	0.127464413643	-0.0182936191559	1.74073183537	-0.104383468628
-0.133799791336	1.03893232346	0.125622987747	-0.0208745002747	1.74137103558	-0.106753110886
-0.13388299942	1.04136800766	0.127832531929	-0.0216517448425	1.74170613289	-0.109429121017
-0.133476257324	1.04415535927	0.129730820656	-0.0213751792908	1.74190855026	-0.112666368484
-0.13321352005	1.04353737831	0.128435373306	-0.0206527709961	1.74191200733	-0.115571260452
-0.132470846176	1.04383397102	0.128261566162	-0.0205891132355	1.74191272259	-0.118343949318
-0.131264448166	1.04481005669	0.129230976105	-0.0206663608551	1.74188196659	-0.120891571045
-0.130165576935	1.0452709198	0.129301548004	-0.0207982063293	1.74193108082	-0.123077869415
-0.131637096405	1.04344391823	0.126073360443	-0.0209453105927	1.74173676968	-0.123126149178
-0.13276052475	1.04329895973	0.124320030212	-0.0214693546295	1.74098205566	-0.120712518692
-0.133604764938	1.04208827019	0.12295460701	-0.0219025611877	1.74001061916	-0.116654276848
-0.134664297104	1.03929948807	0.120485305786	-0.0222480297089	1.73908507824	-0.111433267593
-0.135193109512	1.0381295681	0.119444727898	-0.0229442119598	1.73721504211	-0.105393648148
-0.134935617447	1.03859114647	0.120723247528	-0.0257377624512	1.73524963856	-0.0990505218506
-0.134039878845	1.03788566589	0.120752811432	-0.0306603908539	1.73394989967	-0.0940132141113
-0.132208824158	1.03646802902	0.120808124542	-0.0359218120575	1.73343455791	-0.0904047489166
-0.130952358246	1.03612852097	0.12154507637	-0.0404236316681	1.7337243557	-0.0878212451935
-0.128574848175	1.03519082069	0.123046159744	-0.042010307312	1.73439204693	-0.085408449173
-0.127378225327	1.03201937675	0.12282037735	-0.037891626358	1.73540937901	-0.0833668708801
-0.128853559494	1.03087759018	0.12232029438	-0.0293405056	1.73612570763	-0.0817279815674
-0.129747629166	1.03054738045	0.123544812202	-0.0180294513702	1.73594903946	-0.0818402767181
-0.129489898682	1.02934622765	0.125258922577	-0.00814700126648	1.73589468002	-0.08327460289
-0.129745006561	1.02948594093	0.126634955406	-0.00210380554199	1.73632478714	-0.0857776403427
-0.129225254059	1.02984452248	0.12827706337	-0.000521898269653	1.73701500893	-0.0871835947037
-0.129134178162	1.02948498726	0.12829208374	-0.00208806991577	1.73788249493	-0.0874338150024
-0.130012512207	1.02884221077	0.12722992897	-0.00671219825745	1.73863935471	-0.0871839523315
-0.131506204605	1.02858376503	0.125579476357	-0.0115764141083	1.73930478096	-0.08713722229
-0.132834196091	1.02826786041	0.124468564987	-0.0138065814972	1.73956680298	-0.0878744125366
-0.133762359619	1.02759599686	0.123871922493	-0.0100131034851	1.7390755415	-0.0894522666931
-0.133390665054	1.02781462669	0.124026536942	-0.00179076194763	1.73788940907	-0.0916994810104
-0.131352901459	1.02773880959	0.124720454216	0.00376129150391	1.73710775375	-0.0932544469833
-0.128528356552	1.02776479721	0.125838160515	0.00478720664978	1.73768830299	-0.0941336154938
-0.12717962265	1.02698516846	0.126196622849	0.00387740135193	1.73812270164	-0.0946090221405
-0.128663778305	1.02720713615	0.125525593758	0.00232887268066	1.73857724667	-0.0951957702637
-0.131112098694	1.0277068615	0.125216960907	0.00134897232056	1.7389485836	-0.0957725048065
-0.134572982788	1.02789187431	0.12309718132	0.000177383422852	1.73928010464	-0.0959889888763
-0.13748216629	1.02749586105	0.120598196983	-0.00158929824829	1.73959159851	-0.096314907074
-0.138944387436	1.02729058266	0.1195987463	-0.0039210319519	1.73991370201	-0.0968241691589
-0.139757156372	1.02686619759	0.118598222733	-0.00680804252625	1.74069941044	-0.0976195335388
-0.140582561493	1.0275747776	0.11865401268	-0.00890350341797	1.74125790596	-0.0983278751373
-0.141604661942	1.03010606766	0.120813369751	-0.00952506065369	1.74154257774	-0.0988221168518
-0.144132614136	1.03677940369	0.123385429382	-0.00966334342957	1.74157762527	-0.0988869667053
