-86.2359924316	-26.2049045563	147.673049927	10.9340677261	0.844852805138	1.26124072075
-86.3242721558	-26.1880283356	147.532058716	10.7380514145	0.792629241943	1.31742632389
-86.2680664062	-25.9816856384	146.698471069	10.6333885193	0.76442104578	1.35997211933
-86.1381149292	-25.7292118073	145.148757935	10.4857110977	0.6286714077	1.43380022049
-86.4373321533	-25.6866455078	145.522918701	10.3298654556	0.649897634983	1.50087189674
-86.4034805298	-25.0168380737	144.09286499	10.2777910233	0.883444130421	1.55283045769
-87.2479553223	-24.36211586	142.880889893	9.90459346771	1.18095648289	1.66055071354
-88.3396530151	-23.6733760834	139.632446289	8.47207450867	1.58968150616	1.86157298088
-89.5721817017	-22.6465263367	135.190216064	5.78891038895	2.27387475967	2.29492425919
-90.2605667114	-21.1394672394	125.584037781	3.20834827423	3.03262138367	2.62873363495
-90.0267105103	-18.7285003662	106.748451233	1.58309483528	4.01134157181	2.79730224609
-88.9197235107	-17.1270503998	95.3448104858	0.803861021996	4.90528821945	2.92331933975
-88.9010925293	-16.6579914093	92.083770752	0.13229984045	5.88837528229	3.26185703278
-90.827545166	-15.8013105392	90.7181549072	-1.91176092625	8.78151321411	3.50560164452
-93.1036071777	-14.397362709	88.2497177124	-5.67145586014	14.9019174576	2.7923951149
-94.4186248779	-11.9493484497	79.7896270752	-8.75842380524	20.8058242798	2.04079151154
