0.0	-0.0	141.774917603	-120.255020142	81.9393768311	178.189254761
0.0	-0.0	141.565673828	-120.113693237	82.4253768921	178.424118042
0.0	-0.0	141.542251587	-120.437736511	82.832649231	178.580032349
0.0	-0.0	141.566604614	-120.442741394	83.3195800781	178.514190674
0.0	-0.0	140.886489868	-119.901664734	86.5225372314	178.809463501
0.0	-0.0	140.053939819	60.9559555054	84.0295028687	-0.334043830633
0.0	-0.0	138.951889038	60.5282974243	71.643081665	1.58282601833
0.0	-0.0	135.365707397	58.6986541748	57.8526153564	2.93656396866
0.0	-0.0	120.018699646	58.4350776672	46.2775306702	2.5851085186
0.0	-0.0	82.1506271362	59.5574951172	39.3604621887	1.93591487408
0.0	-0.0	61.9659233093	58.9230232239	34.8612442017	2.43260502815
0.0	-0.0	55.8312149048	58.3409004211	32.3304634094	1.5661854744
0.0	-0.0	27.017824173	59.865234375	32.7945175171	0.48705419898
0.0	-0.0	2.98920726776	61.331401825	33.9946632385	-0.686183571815
0.0	-0.0	3.9125494957	62.097026825	35.0826530457	-1.38271188736
0.0	-0.0	5.68944263458	61.7782020569	36.4291229248	-1.0028399229
0.0	-0.0	5.87283945084	60.5526275635	37.8697738647	-0.675465941429
0.0	-0.0	19.1373596191	60.5784225464	39.2058792114	-0.793377697468
0.0	-0.0	40.9392738342	63.2411346436	38.93409729	-2.59340000153
0.0	-0.0	50.5677566528	70.2357559204	36.1538543701	-6.84427261353
