-0.217225313187	1.16527080536	0.136726379395	-0.0236446857452	1.70881867409	0.0279142856598
-0.217377185822	1.16476392746	0.136280655861	-0.0236859321594	1.7088944912	0.0281026363373
-0.217082023621	1.1651699543	0.135920405388	-0.023341178894	1.70925712585	0.0287597179413
-0.217049360275	1.16558873653	0.136301755905	-0.0230946540833	1.70997214317	0.029479265213
-0.21834897995	1.16710746288	0.136070728302	-0.0237007141113	1.71437442303	0.0285141468048
-0.221627473831	1.16636538506	0.135585665703	-0.0248515605927	1.72062075138	0.0251772403717
-0.222936153412	1.16397833824	0.134479284286	-0.0260996818542	1.72729766369	0.0196170806885
-0.224597215652	1.15454673767	0.129690408707	-0.0277698040009	1.73251521587	0.0128824710846
-0.224860429764	1.13882601261	0.126124620438	-0.0287666320801	1.7349871397	0.00728702545166
-0.224518299103	1.1235833168	0.121173620224	-0.0285003185272	1.73558402061	0.00420129299164
-0.225776672363	1.11851429939	0.114899277687	-0.0281023979187	1.73554885387	0.00267434120178
-0.227303028107	1.12176465988	0.113168954849	-0.0285425186157	1.73627221584	0.00120806694031
-0.228806018829	1.12468767166	0.11720085144	-0.03062915802	1.73785960674	-0.000800848007202
-0.230283975601	1.12489163876	0.117796421051	-0.0339727401733	1.7404563427	-0.00383925437927
-0.232440471649	1.12191843987	0.115062236786	-0.0349714756012	1.74231934547	-0.00843667984009
-0.233928442001	1.12139713764	0.113068580627	-0.0347504615784	1.74365866184	-0.0137519836426
-0.234681367874	1.12282574177	0.113115310669	-0.0342483520508	1.74425387383	-0.0184185504913
-0.234480142593	1.12124073505	0.114771366119	-0.0332386493683	1.7445589304	-0.021769285202
-0.233661174774	1.11925756931	0.114911794662	-0.032532453537	1.74448215961	-0.0243484973907
-0.233083486557	1.11928713322	0.113785743713	-0.0317165851593	1.7445795536	-0.0261161327362
-0.235239267349	1.11816751957	0.10944890976	-0.0313231945038	1.74450206757	-0.0273385047913
-0.236807823181	1.11587142944	0.109854102135	-0.0294456481934	1.74470746517	-0.02869784832
-0.237279176712	1.11907875538	0.114295244217	-0.0239629745483	1.74551022053	-0.0315380096436
