-71.793762207	-22.1583652496	138.926422119	9.83410358429	5.42294120789	0.54387152195
-72.09375	-22.2221508026	139.042739868	9.57987689972	5.46262454987	0.47790107131
-72.361869812	-22.3067703247	138.247207642	9.19028091431	5.94560003281	0.36047065258
-73.4789810181	-21.558423996	133.311645508	8.22587013245	8.40288257599	-0.183809861541
-76.3993606567	-20.0289306641	129.083984375	6.52727937698	12.5889863968	-0.571436524391
-78.157913208	-20.5268592834	125.12449646	5.88146162033	15.436668396	-0.609792292118
-77.460105896	-17.7362003326	98.9297103882	6.28778028488	18.1848392487	-1.3044667244
-73.6796188354	-14.7863683701	71.6242370605	8.11413574219	19.8764305115	-1.60205829144
-73.6263656616	-14.733923912	73.035194397	10.2750492096	21.0151462555	-1.6699950695
-71.7387008667	-13.9726858139	65.3954925537	11.8623170853	21.947555542	-1.92554032803
-69.7858276367	-12.499753952	54.8670310974	13.1225156784	22.4057559967	-2.13978934288
-68.4026412964	-11.8428201675	49.5867118835	14.2399730682	22.2478141785	-2.44915175438
-67.6878128052	-12.0024585724	48.464138031	15.0784072876	21.6810588837	-2.68468523026
-68.1975631714	-13.0045261383	52.2565116882	15.3065319061	21.5690841675	-3.25228261948
-68.6924133301	-13.9660797119	57.1329689026	15.1969985962	20.6194171906	-3.67748594284
