-0.0785295963287	1.07929027081	0.170358657837	0.108192443848	1.60170400143	-0.00187587738037
-0.0776786804199	1.08026266098	0.172677993774	0.107667207718	1.60246515274	0.000189185142517
-0.0754039287567	1.0779311657	0.175221085548	0.107373714447	1.60652339458	0.00284385681152
-0.0716316699982	1.07637119293	0.178957819939	0.10627579689	1.61533141136	0.00533318519592
-0.0674595832825	1.07389175892	0.182798743248	0.10197353363	1.62541663647	0.00794363021851
-0.0636012554169	1.06822061539	0.186617493629	0.0959730148315	1.63388872147	0.0108344554901
-0.0601241588593	1.06550264359	0.190892696381	0.0910739898682	1.64003074169	0.0138761997223
-0.0534191131592	1.06982910633	0.201611757278	0.0896635055542	1.64487946033	0.0166660547256
-0.0374858379364	1.09735846519	0.220504760742	0.0927970409393	1.65083098412	0.0175609588623
-0.0219266414642	1.14154064655	0.23277258873	0.0968163013458	1.65707075596	0.0162167549133
-0.00825381278992	1.17402458191	0.240040659904	0.100430488586	1.66246950626	0.0144340991974
0.00788354873657	1.1881506443	0.248373031616	0.104303121567	1.66520404816	0.0131421089172
0.0265791416168	1.18807566166	0.25828576088	0.109407901764	1.66610300541	0.0128421783447
