-0.0383989810944	1.10857784748	0.198641419411	0.141309022903	1.59516382217	0.0258979797363
-0.0394718647003	1.10907447338	0.197947263718	0.141227960587	1.59524190426	0.0249934196472
-0.0403580665588	1.11197805405	0.197360515594	0.141066551208	1.60066854954	0.0241985321045
-0.0379509925842	1.11826682091	0.199003696442	0.138589143753	1.62459123135	0.0213947296143
-0.0326037406921	1.12589371204	0.203513741493	0.129988431931	1.64849936962	0.0139979124069
-0.0282216072083	1.14194977283	0.205872535706	0.121960163116	1.65921366215	0.00597739219666
-0.022296667099	1.16542088985	0.207322716713	0.118298530579	1.66384375095	0.000267744064331
-0.00463199615479	1.18922913074	0.215898871422	0.120034694672	1.66515159607	-0.00427269935608
0.0182809829712	1.21011316776	0.227770328522	0.123504638672	1.66651082039	-0.00806593894958
0.0384588241577	1.22335159779	0.235418438911	0.12693810463	1.66760694981	-0.0106695890427
0.0487186908722	1.21983671188	0.240748643875	0.129187345505	1.66861474514	-0.0129158496857
