-73.1888580322	-60.3301734924	134.43649292	13.6324176788	18.7882823944	5.85806274414
-73.3097686768	-60.5743484497	134.478210449	13.8297100067	18.7056903839	5.72101211548
-73.5518264771	-60.4261703491	134.565063477	13.976685524	18.5992908478	5.82971525192
-72.3530960083	-60.612537384	132.171646118	13.8006191254	18.439748764	5.75045156479
-62.9380645752	-60.9231262207	111.026107788	13.180270195	18.4085521698	5.57952260971
-54.2637901306	-58.4374275208	86.9560089111	9.97989749908	18.7203960419	4.56720209122
-56.886920929	-56.811378479	87.1751556396	1.6814943552	18.8787288666	1.39714741707
-59.0031738281	-55.5704193115	87.2482833862	-6.6568365097	18.1843338013	-1.12930846214
-60.9640388489	-55.3304443359	86.7121505737	-12.6302843094	16.9414100647	-2.72850966454
-60.8648223877	-55.7892951965	80.4558029175	-17.6185379028	14.7678852081	-4.71233606339
-62.6831436157	-57.2265586853	78.547706604	-20.6829509735	11.5248041153	-6.68167877197
-61.2543144226	-58.8003120422	70.1494369507	-22.2509460449	8.32994270325	-8.42605400085
-63.7513237	-59.3245429993	65.2286453247	-23.3883323669	6.09664392471	-9.75051689148
-65.2419509888	-59.6933784485	57.38073349	-23.3684597015	5.93746757507	-10.4097995758
-61.1267471313	-59.3263130188	49.0885467529	-20.3217315674	7.131711483	-9.79402542114
-56.8974304199	-57.6443328857	47.6454734802	-14.9107866287	8.72653102875	-9.44036483765
-50.1684532166	-53.9157409668	42.3176002502	-8.1846780777	10.6400127411	-8.20951271057
-44.1468849182	-50.1526603699	41.8328399658	-0.945423543453	12.8414373398	-5.79981231689
-60.923915863	-49.2137794495	86.1026077271	1.71811211109	13.560002327	-4.32773733139
-76.3370056152	-45.5478820801	116.599906921	-0.734834134579	13.4758806229	-4.66099882126
-87.1323547363	-44.895401001	130.818832397	-4.8503818512	13.0320472717	-5.36973285675
-92.0017318726	-44.7194213867	133.994338989	-8.56008911133	12.3247051239	-5.69893884659
-94.3888549805	-45.4018554688	133.860916138	-11.2842998505	11.4052553177	-5.78578901291
-94.580909729	-46.2598609924	131.087005615	-12.5549983978	10.8410844803	-5.77883005142
-94.0072631836	-47.3644218445	126.868927002	-13.998128891	10.0806245804	-5.98389053345
-94.9477844238	-47.925113678	126.329902649	-21.1076278687	7.92189073563	-7.44594049454
-95.7090454102	-48.197769165	123.742095947	-33.0829277039	4.97609329224	-8.92840480804
-97.4169082642	-48.5026855469	121.36530304	-42.9616508484	2.67122983932	-9.18801593781
-95.9883575439	-50.1046867371	113.792877197	-46.435710907	1.85430431366	-9.14210987091
-84.1698150635	-53.5651664734	83.036529541	-44.9725456238	2.58372092247	-9.13619422913
-75.9144287109	-51.845916748	63.3870925903	-41.9122123718	3.49197602272	-8.87998104095
-76.6017379761	-50.4915657043	60.2162780762	-40.0179023743	4.07869100571	-8.86467170715
-76.2442016602	-49.3932304382	58.9030151367	-39.2495613098	4.10163354874	-8.94389915466
-73.3756561279	-48.9708518982	54.3000068665	-38.3027648926	4.01701116562	-8.87304115295
-69.5453948975	-49.398853302	49.6213645935	-36.8633155823	3.77757954597	-8.5953950882
-66.6947479248	-49.9230613708	47.3803329468	-35.1998214722	3.25275969505	-8.28201293945
-65.9377593994	-50.6117897034	48.2941551208	-33.9563446045	2.4749789238	-8.12756824493
-65.4594650269	-51.2731437683	48.3381958008	-33.4760093689	1.55500900745	-8.0393371582
-65.9758682251	-51.6530189514	49.0986366272	-33.3793678284	0.819002151489	-8.03075027466
-67.244140625	-51.6345710754	50.7396507263	-33.5180358887	0.38479629159	-8.02705001831
-67.8603363037	-51.4432678223	51.2051391602	-34.8081588745	-0.0691111907363	-8.1658782959
