-86.5262680054	-61.3235435486	137.538269043	5.05168819427	5.11623048782	-1.58270061016
-86.3829421997	-61.490650177	137.251022339	6.80340671539	5.30579566956	-1.90234982967
-85.7848892212	-61.2293777466	136.675430298	7.48965597153	4.96421289444	-2.11128759384
-84.032951355	-61.7308731079	133.678024292	7.07800769806	4.64951133728	-2.05249905586
-74.4104766846	-60.7487754822	109.711494446	5.3369717598	3.63511538506	-1.58716845512
-73.834274292	-60.461933136	101.781936646	2.59331297874	0.573486983776	-1.08207166195
-72.024055481	-61.2014350891	94.3537750244	-0.784471571445	-4.00684070587	-0.360776901245
-71.5518417358	-61.4471206665	91.0417938232	-5.08704090118	-8.03309440613	0.617585718632
-71.040763855	-61.6168441772	88.2096405029	-8.98433303833	-11.5810184479	1.32740676403
-64.2765274048	-61.8238105774	76.3418045044	-10.8739824295	-14.9847536087	1.31095898151
-57.2251815796	-61.0542945862	65.2917633057	-11.1220912933	-17.5082149506	1.0695707798
-54.5448989868	-60.5890388489	61.6965408325	-10.9575824738	-19.9964561462	0.969364702702
