-74.44190979	1.18824970722	141.744476318	9.54346847534	3.9519431591	-0.922816634178
-74.5947341919	1.56793820858	141.524368286	9.51043319702	3.9758079052	-1.05852806568
-74.6711349487	1.33167052269	141.533676147	9.46855735779	4.03759670258	-1.11323177814
-74.7920150757	1.32901978493	140.58493042	8.7692937851	4.65109348297	-1.01807415485
-74.9404525757	1.1511027813	138.994659424	5.95037555695	5.99490261078	-0.767351984978
-76.1455993652	1.236967206	137.60395813	1.58498466015	7.42185926437	-0.408769935369
-77.9531326294	1.63356375694	133.971633911	-2.80658984184	9.30311203003	-0.33071359992
-80.11328125	2.12425875664	128.14553833	-5.99909877777	10.7956113815	-0.158884644508
-81.2296905518	2.81835651398	119.212776184	-7.77929115295	11.7861709595	0.231332734227
-83.450012207	4.86344766617	117.007461548	-9.00677013397	12.4860897064	0.715345203876
-84.3907165527	5.61136484146	113.004463196	-10.4177093506	13.3059864044	1.15227365494
-84.692489624	6.52581357956	108.222007751	-12.1101827621	14.2665300369	1.61730563641
-84.6669006348	7.60435056686	102.481903076	-13.8598823547	15.0647506714	1.86219871044
