0.0	-0.0	-138.610778809	175.741043091	80.5263977051	-115.107528687
0.0	-0.0	-138.574401855	175.364028931	80.8253936768	-115.016387939
0.0	-0.0	-138.787704468	175.20916748	80.8600082397	-114.374137878
0.0	-0.0	-138.563293457	175.184143066	79.5634689331	-114.821495056
0.0	-0.0	-137.454849243	176.446456909	78.1967849731	-118.067062378
0.0	-0.0	-132.265029907	-179.835403442	72.9808120728	-128.973251343
0.0	-0.0	-124.846000671	-173.569000244	71.0042572021	-131.212524414
0.0	0.0	-117.346214294	-165.590484619	71.5175170898	-131.892120361
0.0	0.0	-110.27722168	-157.823379517	72.9710388184	-131.71875
0.0	0.0	-103.907928467	-150.365509033	74.223739624	-130.909347534
0.0	0.0	-99.0884857178	-140.754669189	77.2086181641	-130.039718628
0.0	0.0	-96.9634017944	-130.693740845	80.8394470215	-130.632720947
0.0	0.0	-96.4798202515	-119.947723389	84.6731948853	-132.025772095
0.0	0.0	-97.0795135498	-109.46383667	88.3704681396	-131.790206909
0.0	0.0	-97.9756469727	-104.762832642	89.8700256348	-132.983978271
0.0	0.0	-98.2302780151	-104.574928284	88.7123641968	-133.952484131
0.0	0.0	-98.6535873413	-108.791770935	86.4785995483	-134.576171875
0.0	0.0	-101.289886475	-112.179542542	85.8662872314	-133.290054321
0.0	0.0	-106.233757019	-114.031135559	85.7666778564	-133.308395386
0.0	0.0	-107.557907104	-115.641571045	86.0032272339	-132.915496826
0.0	0.0	-103.729141235	-117.563102722	85.5410995483	-132.934875488
0.0	0.0	-98.4934997559	-118.929748535	85.3266220093	-132.966705322
0.0	0.0	-90.5512695312	-119.784309387	85.7383956909	-132.293395996
0.0	0.0	-79.0973052979	-119.749275208	85.5991439819	-132.429519653
0.0	0.0	-67.2175827026	-118.962745667	86.0157623291	-131.529815674
0.0	0.0	-57.6732368469	-116.739242554	87.4571762085	-131.599853516
0.0	0.0	-54.2431411743	71.5959625244	88.6732788086	48.8768157959
0.0	0.0	-54.7890586853	83.4061126709	85.5501937866	47.9135360718
