0.0	-0.0	-143.027786255	173.692214966	78.5088577271	-110.123214722
0.0	-0.0	-142.212081909	173.785400391	78.5793685913	-109.94241333
0.0	-0.0	-142.177978516	173.81161499	78.530960083	-110.074333191
0.0	-0.0	-142.163131714	174.253417969	78.6806030273	-110.212715149
0.0	-0.0	-141.778274536	175.115615845	78.8776168823	-110.485954285
0.0	-0.0	-137.883834839	176.134353638	76.6814498901	-113.677978516
0.0	-0.0	-130.594818115	178.461959839	73.2941665649	-119.558105469
0.0	-0.0	-125.635818481	-177.474685669	73.4050445557	-122.65045166
0.0	0.0	-119.055290222	-167.981933594	72.3444442749	-127.798927307
0.0	0.0	-108.750328064	-155.089569092	70.8946838379	-131.644317627
0.0	0.0	-95.6521759033	-143.113021851	71.3082275391	-133.550415039
0.0	0.0	-82.116104126	-134.269744873	72.946723938	-133.609375
0.0	0.0	-67.4343795776	-126.903923035	73.8030319214	-133.905136108
0.0	0.0	-53.4527168274	-118.823936462	75.5158538818	-133.78729248
0.0	0.0	-41.358291626	-111.879211426	78.4121017456	-133.671447754
0.0	0.0	-34.1040611267	-104.780075073	83.4054870605	-134.045837402
0.0	0.0	-33.4333572388	-99.1247558594	89.9603347778	-132.111465454
0.0	0.0	-35.3527336121	84.7599716187	86.8716506958	46.864528656
0.0	0.0	-37.5159492493	-99.1230926514	88.6430664062	-135.419631958
0.0	0.0	-44.7674102783	-108.212249756	85.2204208374	-136.206832886
0.0	0.0	-56.5825157166	-115.137145996	85.2473678589	-134.330566406
0.0	0.0	-62.9741668701	-118.120376587	84.8148498535	-134.307952881
0.0	0.0	-65.9993972778	-120.141822815	84.8585205078	-134.087188721
0.0	0.0	-69.0018844604	-120.680648804	84.8982620239	-134.098922729
0.0	0.0	-72.5544281006	-116.583824158	86.8387527466	-135.230239868
