-0.217284440994	1.16729402542	0.130960822105	0.00662183761597	1.70487773418	0.0176693201065
-0.216909408569	1.16762208939	0.130204558372	0.00760960578918	1.70473361015	0.0178472995758
-0.217175960541	1.16814100742	0.128814697266	0.0086989402771	1.70367872715	0.0185898542404
-0.219601392746	1.16678404808	0.123067855835	0.00926876068115	1.69885599613	0.0211801528931
-0.225250005722	1.16317391396	0.109251022339	0.00918745994568	1.69008696079	0.0254542827606
-0.229676246643	1.16500735283	0.0961303710938	0.0107190608978	1.68379557133	0.0288474559784
-0.23050069809	1.17192578316	0.0893043279648	0.0143413543701	1.67778611183	0.0305812358856
-0.228204965591	1.17578017712	0.0960803031921	0.0203440189362	1.6738973856	0.0319118499756
-0.225351333618	1.17451834679	0.0994168519974	0.0264513492584	1.67116761208	0.0324350595474
-0.221354722977	1.1754014492	0.105404257774	0.0318286418915	1.66885602474	0.0332818031311
-0.21823143959	1.17524158955	0.111799240112	0.0366561412811	1.66760337353	0.0342767238617
-0.216360807419	1.17431092262	0.117166519165	0.0409512519836	1.66777813435	0.0345168113708
-0.213794231415	1.17520034313	0.120489358902	0.0440363883972	1.66916871071	0.0345702171326
-0.212428569794	1.17664754391	0.12104511261	0.0457320213318	1.66944277287	0.0345165729523
-0.211621761322	1.17780148983	0.120458126068	0.0464825630188	1.67143476009	0.0348083972931
