0.0	-0.0	144.012451172	66.4092636108	86.7683944702	-0.487570136786
0.0	-0.0	143.917953491	67.897567749	86.8467483521	-1.31334018707
0.0	-0.0	143.422363281	68.3308563232	87.0342788696	-2.41587734222
0.0	-0.0	143.393447876	67.284942627	87.8285827637	-2.59371399879
0.0	-0.0	136.401779175	-119.63772583	87.9340896606	178.904495239
0.0	-0.0	136.715408325	-134.070373535	79.4335250854	-179.51008606
0.0	-0.0	134.952178955	-148.505844116	71.2377700806	-176.581008911
0.0	-0.0	133.35723877	-158.160644531	63.1362419128	-174.41835022
0.0	-0.0	128.782897949	-163.443862915	57.6366577148	-172.554199219
0.0	-0.0	119.963546753	-166.905532837	54.0133361816	-170.889801025
0.0	-0.0	106.838645935	-169.415267944	51.9525604248	-169.355041504
0.0	-0.0	94.209236145	-171.357055664	50.4818687439	-168.413772583
0.0	-0.0	92.2022476196	-171.930648804	49.6210594177	-167.793106079
0.0	-0.0	86.9655685425	-171.093963623	48.8875923157	-167.508987427
0.0	-0.0	82.5796279907	-170.031082153	48.1854896545	-167.596405029
0.0	-0.0	84.296257019	-169.38444519	46.0058708191	-167.866119385
