0.0	-0.0	136.866653442	-108.102790833	68.1520462036	-178.37538147
0.0	-0.0	136.703216553	-108.115478516	68.0768814087	-178.498764038
0.0	-0.0	136.724945068	-108.094017029	68.0824356079	-178.53578186
0.0	-0.0	135.803665161	-107.758560181	68.0389709473	-178.389831543
0.0	-0.0	107.560012817	-103.742965698	67.9584884644	-177.746139526
0.0	-0.0	84.4128723145	-88.535774231	68.574432373	-174.78465271
0.0	-0.0	81.7163391113	-66.407333374	71.3799438477	-170.211105347
0.0	-0.0	82.8617248535	-48.0257835388	74.5105895996	-163.049667358
0.0	-0.0	84.2218551636	-39.8351020813	76.911857605	-155.516525269
0.0	-0.0	84.3235168457	-39.8173675537	75.770149231	-148.975585938
0.0	-0.0	85.2836151123	-43.0340538025	72.7235336304	-143.334396362
0.0	-0.0	83.7155151367	-44.0759315491	68.6946640015	-136.108627319
0.0	-0.0	82.7868652344	-41.829284668	65.0903930664	-127.716957092
0.0	-0.0	82.6331787109	-35.9604759216	62.9348678589	-120.772232056
0.0	-0.0	84.6553268433	-30.5323467255	60.9616508484	-117.568908691
0.0	-0.0	76.6628570557	-27.7992897034	59.0333328247	-118.669380188
