-75.2228622437	-24.6958847046	140.830230713	6.84491729736	3.27704739571	0.686917424202
-75.1203689575	-24.3917732239	140.48324585	7.16053056717	3.66408705711	0.635604023933
-74.9447402954	-24.2124958038	140.304885864	7.46010255814	3.7052936554	0.664179265499
-74.397102356	-24.3917942047	139.170684814	7.37590885162	3.35257911682	0.873091161251
-74.2935562134	-24.6051464081	138.235626221	7.29904556274	1.90670728683	1.00554788113
-74.6848526001	-24.0260467529	136.58392334	7.11705493927	-0.595070362091	1.39719569683
-73.818977356	-22.6730709076	127.828422546	6.78199720383	-2.97245454788	1.81911182404
-73.1126480103	-21.5608940125	125.305374146	6.51319980621	-5.60208892822	2.18454456329
-69.6592102051	-18.4745845795	109.927024841	6.14024209976	-7.86702489853	2.38780736923
-64.7699203491	-13.9162425995	87.111038208	6.19322347641	-9.70768547058	2.43341970444
-61.8769187927	-11.9026184082	76.0377960205	6.55874872208	-11.3272972107	2.34372162819
-60.5365219116	-7.58082771301	60.4220542908	6.50159835815	-12.8727588654	2.59654784203
-59.0804252625	0.253788501024	36.1115684509	5.9531712532	-14.5853948593	2.9518969059
-59.1304016113	7.02352762222	17.6746330261	5.0406165123	-15.6320447922	3.37556266785
-60.0096702576	9.19057750702	13.3388252258	4.34705066681	-16.0266056061	3.49107074738
-63.1194953918	13.3990879059	-1.28552877903	3.93772244453	-16.1506538391	3.56452298164
-66.0875854492	16.8933296204	-21.0616912842	3.62570142746	-16.1442108154	3.56414818764
-68.407333374	17.1524486542	-23.8540763855	3.33530020714	-16.3440742493	3.47378826141
-69.098991394	17.1534328461	-23.0130443573	2.68830442429	-16.4795742035	3.72422862053
-66.2015075684	15.1326093674	-1.4232198	1.06333065033	-16.5439281464	4.40785598755
-65.9896469116	18.5619220734	3.01530313492	-1.29967474937	-16.3949127197	5.0180311203
-69.4302597046	19.9318733215	-9.71322441101	-3.07504200935	-16.6379089355	5.36242771149
-73.9626922607	18.6142082214	-29.2398395538	-4.45579004288	-16.9249572754	5.32972860336
-76.1916503906	17.264383316	-41.1665115356	-5.82585096359	-17.1142864227	5.12247276306
-76.6254577637	17.1834831238	-45.8104400635	-6.02063131332	-16.9425697327	4.91368627548
-77.2024078369	16.0606384277	-53.6254806519	-5.69329118729	-16.6815338135	4.71045398712
-76.597869873	15.907623291	-55.8414764404	-5.35805416107	-16.6153450012	4.61232662201
-76.2991333008	16.3384780884	-54.7580490112	-5.61788606644	-16.8421020508	5.01702690125
-76.2168197632	16.90899086	-54.7064971924	-7.78716135025	-17.2224636078	6.65964126587
-76.2919006348	16.9029312134	-56.7469062805	-12.3364038467	-16.9064598083	8.58289432526
-76.2531433105	16.7001590729	-60.6351089478	-13.9490537643	-16.1726474762	8.56298446655
-75.7520675659	16.398273468	-63.2728691101	-11.7573785782	-15.7373752594	7.4317073822
-75.3263244629	15.6415338516	-64.4782409668	-8.11263942719	-16.0291671753	5.81035518646
-74.9551010132	15.8847131729	-63.3815765381	-4.40922307968	-16.4961872101	4.26299524307
-74.1851654053	16.8522758484	-59.2945022583	-1.62615048885	-16.9288825989	3.14717149734
-72.2110519409	20.3859138489	-49.4399452209	-1.04724931717	-17.8265266418	3.17585492134
-71.7586517334	19.4734973907	-43.69688797	-1.70127701759	-19.5656242371	3.49804782867
-64.3917312622	18.4172382355	-8.51423740387	-2.02691364288	-20.9592437744	3.31204366684
-54.0228652954	18.3821296692	22.6233692169	-1.08463573456	-20.5514297485	2.37728571892
-49.7927589417	10.2316598892	33.1185379028	0.867010116577	-19.5378932953	1.25473773479
-45.5830459595	5.48536014557	40.2853317261	3.58860898018	-18.8819389343	-0.279520601034
-44.6509552002	1.65689837933	48.3152198792	6.76751041412	-18.5920791626	-1.78533649445
-43.483127594	-3.53229880333	57.8741912842	9.58771896362	-18.1299037933	-2.6604809761
-43.5185089111	-6.33650779724	64.3185424805	11.1144485474	-17.6160316467	-2.99316954613
-43.5545692444	-7.50424814224	68.4302062988	11.2581377029	-17.6649990082	-2.66783094406
-44.1921234131	-9.69895458221	76.572479248	11.4008131027	-17.9567527771	-2.63697457314
-44.7721710205	-11.1558580399	79.7590560913	11.9571008682	-18.6047687531	-2.79278445244
-43.3534431458	-8.78369235992	75.3481063843	13.1226787567	-19.8899402618	-3.52742314339
