0.0	-0.0	145.5131073	-115.154624939	76.7987823486	177.074798584
0.0	-0.0	145.250076294	-115.283447266	77.0936431885	177.185592651
0.0	-0.0	143.820404053	-115.504142761	77.1521377563	177.172027588
0.0	-0.0	142.415802002	-115.827674866	76.9769668579	177.293884277
0.0	-0.0	135.195373535	-116.944602966	75.3382263184	177.588516235
0.0	-0.0	109.224090576	-121.716300964	69.3068237305	177.774047852
0.0	-0.0	96.7061843872	-130.428741455	60.3321266174	177.447677612
0.0	-0.0	92.6246185303	-140.665527344	53.4273033142	177.682266235
0.0	-0.0	83.9298095703	-151.412139893	47.0964851379	177.916442871
0.0	-0.0	75.5279312134	-160.938735962	39.2481193542	177.662841797
0.0	-0.0	69.1290130615	-167.365432739	32.1989936829	177.374450684
