-0.10076713562	1.13385605812	0.179941296577	0.00171089172363	1.698808074	0.0541541576385
-0.101019859314	1.13343608379	0.178552746773	0.00166797637939	1.69887590408	0.0529943704605
-0.101305007935	1.13293731213	0.177369594574	0.00139927864075	1.69887602329	0.0519466400146
-0.101810932159	1.13372766972	0.176284074783	0.000340938568115	1.69991314411	0.050125837326
-0.107090473175	1.13651371002	0.17467546463	-0.00426721572876	1.70282053947	0.0473778247833
-0.119535207748	1.14079976082	0.171440005302	-0.0124123096466	1.70644307137	0.0432522296906
-0.138225793839	1.1491484642	0.164741039276	-0.022088766098	1.70998644829	0.0377900600433
-0.161431789398	1.16675186157	0.151320338249	-0.0308492183685	1.71348881721	0.0312209129333
-0.185206413269	1.19285130501	0.13453233242	-0.0371775627136	1.71609592438	0.0240998268127
-0.205016374588	1.21874141693	0.118408441544	-0.0407631397247	1.71862149239	0.017365694046
-0.219400882721	1.24206984043	0.100467443466	-0.0424253940582	1.72216057777	0.010488986969
-0.227877140045	1.26076304913	0.0804443359375	-0.0431039333344	1.72620546818	0.00210249423981
-0.232748746872	1.26967990398	0.064263343811	-0.043340921402	1.7310025692	-0.0072979927063
-0.235959291458	1.27154028416	0.0524070262909	-0.0453104972839	1.73522627354	-0.0169132947922
-0.238744258881	1.27377331257	0.0428702831268	-0.0479385852814	1.73751342297	-0.0256408452988
-0.240338087082	1.27477419376	0.0359516143799	-0.0494463443756	1.73845303059	-0.032350063324
