-0.065908908844	1.09290325642	0.181591272354	0.103286743164	1.60216665268	-0.00723814964294
-0.0664784908295	1.09294104576	0.181213617325	0.104525566101	1.60252714157	-0.00663959980011
-0.0656533241272	1.0918623209	0.180970191956	0.105941057205	1.60284256935	-0.00579452514648
-0.0649583339691	1.09044957161	0.180304050446	0.107290506363	1.60346078873	-0.00509071350098
-0.0616068840027	1.08839297295	0.182346582413	0.111420869827	1.60724794865	-0.00441336631775
-0.0492467880249	1.08683669567	0.193555116653	0.119527339935	1.61346745491	-0.0050767660141
-0.0174913406372	1.08588063717	0.22101020813	0.129073143005	1.61936843395	-0.00730347633362
0.0184848308563	1.08899962902	0.244402885437	0.137907743454	1.62238609791	-0.0100255012512
0.0459864139557	1.094602108	0.257692098618	0.145936965942	1.62293815613	-0.0127359628677
0.0671639442444	1.10038387775	0.264615416527	0.151785135269	1.62285959721	-0.014707326889
