-0.0472946166992	1.1176469326	0.13932788372	0.0396764278412	1.6770182848	0.0170774459839
-0.047810792923	1.11773431301	0.13955450058	0.0391871929169	1.67727994919	0.0173482894897
-0.0471532344818	1.11780178547	0.139872312546	0.0392355918884	1.67702531815	0.0175697803497
-0.0458459854126	1.11736881733	0.140040874481	0.0398845672607	1.67695569992	0.0175048112869
-0.0455043315887	1.11757445335	0.139587521553	0.0411524772644	1.67693972588	0.017431139946
-0.0451512336731	1.11988985538	0.138394713402	0.0435059070587	1.67769765854	0.0164433717728
-0.0450043678284	1.12051308155	0.136825323105	0.0476772785187	1.68139314651	0.012716293335
-0.0449640750885	1.11788797379	0.135424733162	0.0533289909363	1.6863553524	0.00595140457153
-0.0441229343414	1.11646699905	0.134410262108	0.0591983795166	1.69085252285	-0.00312662124634
-0.0417087078094	1.11644530296	0.13522541523	0.0646388530731	1.69380569458	-0.0133028030396
-0.038952589035	1.11767160892	0.137749910355	0.0694334506989	1.69529008865	-0.0228004455566
-0.0362424850464	1.1190649271	0.140910863876	0.0726957321167	1.69574356079	-0.0298025608063
