0.0	-0.0	135.715835571	-104.697692871	73.9066619873	-176.366149902
0.0	-0.0	136.429168701	-105.508857727	73.4043197632	-176.081588745
0.0	-0.0	136.457748413	-106.668159485	72.8697357178	-175.696960449
0.0	-0.0	135.766403198	-108.174629211	72.6122894287	-175.28364563
0.0	-0.0	134.444595337	-112.636550903	73.3423080444	-174.567871094
0.0	-0.0	132.799255371	-120.091293335	74.7118148804	-174.005508423
0.0	-0.0	111.959411621	-127.266227722	74.426574707	-173.727050781
0.0	-0.0	60.6130409241	-131.015014648	73.3953781128	-173.469207764
0.0	-0.0	53.6919555664	-131.727111816	73.4268264771	-173.563644409
0.0	-0.0	47.8005065918	-131.80657959	73.8782577515	-173.197433472
0.0	-0.0	57.927482605	-131.602050781	77.3345718384	-172.469039917
0.0	-0.0	59.8774414062	-132.905288696	85.3645629883	-172.1902771
0.0	-0.0	59.85338974	44.3239822388	88.685874939	6.89111328125
0.0	-0.0	55.5323219299	41.4690132141	88.2333602905	6.78212308884
0.0	-0.0	53.2515640259	38.8028259277	89.9281082153	7.70832777023
