-0.0810565948486	1.04726600647	0.195539116859	0.102366685867	1.68350458145	0.00509297847748
-0.0818107128143	1.04657673836	0.194579839706	0.101335525513	1.68369102478	0.00444316864014
-0.0827386379242	1.04702019691	0.193099141121	0.0997707843781	1.68373608589	0.00398707389832
-0.0833659172058	1.04695034027	0.192155838013	0.0981605052948	1.68314898014	0.00416874885559
-0.0835392475128	1.04634094238	0.191027402878	0.0978043079376	1.68199026585	0.00442159175873
-0.0807154178619	1.03983640671	0.192437291145	0.0997843742371	1.67995560169	0.00389158725739
-0.0736572742462	1.03005576134	0.195356607437	0.106267213821	1.67629718781	0.0019383430481
-0.068229675293	1.02896356583	0.196793317795	0.115297555923	1.67202889919	-0.00121259689331
-0.0627110004425	1.0312564373	0.199254512787	0.122554063797	1.66884970665	-0.00460124015808
-0.0559048652649	1.03332901001	0.202407360077	0.127014875412	1.66743290424	-0.00665259361267
-0.0466434955597	1.03546118736	0.205346941948	0.12716293335	1.66607296467	-0.00624060630798
-0.0374875068665	1.04013752937	0.208111286163	0.125030755997	1.66581368446	-0.00410056114197
-0.0291137695312	1.04476451874	0.210102438927	0.120876789093	1.66562461853	-0.00178170204163
-0.0218713283539	1.04768800735	0.211876749992	0.115326404572	1.66634011269	0.000992298126221
-0.0134387016296	1.04684710503	0.215653061867	0.109521865845	1.6674785614	0.00416815280914
-0.00240445137024	1.04542422295	0.222330331802	0.10524225235	1.66837394238	0.00685024261475
0.00751733779907	1.04645442963	0.230238676071	0.10357260704	1.66898977757	0.00894725322723
0.0157141685486	1.04982280731	0.237598538399	0.104294300079	1.66947865486	0.00967168807983
0.0252597332001	1.05263328552	0.244925260544	0.106263399124	1.67020153999	0.01014316082
0.0386075973511	1.05309152603	0.252896904945	0.108580112457	1.67025506496	0.0111213922501
0.0576512813568	1.05101418495	0.261206746101	0.110118627548	1.66946911812	0.0137295722961
0.0769934654236	1.04960942268	0.267432808876	0.110996961594	1.66884589195	0.0174903869629
0.0925455093384	1.04943919182	0.272352457047	0.111721754074	1.66839909554	0.0223820209503
0.103573799133	1.05101132393	0.276111006737	0.111830234528	1.66811788082	0.027176618576
0.111109256744	1.05426430702	0.279974460602	0.111389160156	1.66781687737	0.0324583053589
0.113204717636	1.05948519707	0.283849358559	0.110535144806	1.66756701469	0.0376632213593
0.114457130432	1.0630209446	0.287761926651	0.109641551971	1.66743409634	0.0421303510666
0.119163751602	1.06166422367	0.291494607925	0.108016490936	1.66729676723	0.0449647903442
0.12309551239	1.06054878235	0.293820619583	0.106548547745	1.6673681736	0.0467878580093
0.124753952026	1.06039381027	0.295386910439	0.105074167252	1.66761541367	0.0478127002716
0.126219511032	1.06154799461	0.295601963997	0.103613138199	1.66805303097	0.0483287572861
0.130305767059	1.06263160706	0.295491099358	0.102333068848	1.66827023029	0.0484122037888
0.140084505081	1.06233561039	0.294668674469	0.101722240448	1.66848993301	0.047694683075
0.146396398544	1.06105089188	0.294226408005	0.101912498474	1.66875529289	0.0460948944092
0.147629976273	1.06080543995	0.293235301971	0.10281252861	1.6689696312	0.0441802740097
0.143798828125	1.06197035313	0.29270195961	0.103396892548	1.66937112808	0.0422195196152
0.136925458908	1.06493926048	0.292113542557	0.103619098663	1.66964936256	0.0406215190887
0.131585597992	1.06578505039	0.291798114777	0.103419780731	1.66978061199	0.0395905971527
0.12871336937	1.06394159794	0.291728377342	0.103372097015	1.66916751862	0.0383548736572
0.125445842743	1.06235456467	0.291423201561	0.099622964859	1.66734707355	0.038622379303
