-0.0551102161407	1.08288669586	0.193216085434	0.124847173691	1.6039839983	0.00706267356873
-0.0537428855896	1.08209645748	0.194067239761	0.125249147415	1.6039968729	0.00785541534424
-0.0529098510742	1.0823199749	0.194815397263	0.125128746033	1.6039699316	0.00840878486633
-0.0525503158569	1.08203005791	0.195432782173	0.12416100502	1.60481417179	0.00909805297852
-0.0525348186493	1.08107113838	0.195203304291	0.122658967972	1.60632097721	0.00928497314453
-0.0525577068329	1.08012866974	0.195135593414	0.122466802597	1.61008584499	0.00897312164307
-0.0524437427521	1.07924473286	0.195393800735	0.124313592911	1.61429989338	0.00698614120483
-0.0528216362	1.07782459259	0.194836974144	0.129594802856	1.62026298046	0.00441813468933
-0.0537431240082	1.07693016529	0.193890690804	0.135228157043	1.62980794907	-0.000171184539795
-0.0525603294373	1.07821941376	0.195059299469	0.13428068161	1.64181935787	-0.00459575653076
-0.0477528572083	1.08636724949	0.200968742371	0.125779151917	1.65400791168	-0.00784385204315
-0.0391521453857	1.09549427032	0.211392521858	0.112755298615	1.66310632229	-0.01218521595
-0.0308678150177	1.10591518879	0.220989346504	0.0949993133545	1.67063736916	-0.0177351236343
-0.0313003063202	1.11448252201	0.223085403442	0.080668926239	1.6757338047	-0.022664308548
-0.0369429588318	1.13571584225	0.216755390167	0.075314283371	1.67702412605	-0.0253037214279
-0.0394163131714	1.1633450985	0.211590886116	0.0754516124725	1.67718660831	-0.0262777805328
-0.0376448631287	1.18625247478	0.209379434586	0.0767736434937	1.67837262154	-0.0269567966461
-0.0303311347961	1.19863009453	0.210436940193	0.0781939029694	1.67890095711	-0.0274932384491
-0.0218472480774	1.19832003117	0.215657949448	0.0802755355835	1.67822349072	-0.0278099775314
-0.0184643268585	1.19582653046	0.216744184494	0.0826189517975	1.67762196064	-0.0280590057373
-0.0187880992889	1.19619309902	0.213314890862	0.0840580463409	1.67793393135	-0.0283739566803
-0.0204396247864	1.19714689255	0.210840702057	0.0848052501678	1.67788898945	-0.029017329216
-0.0190587043762	1.1988338232	0.209708452225	0.0852029323578	1.67769932747	-0.030246257782
-0.0165412425995	1.20464384556	0.207688093185	0.0855588912964	1.67741215229	-0.0313339233398
