0.0	-0.0	134.945495605	-110.292625427	80.7693634033	-179.12437439
0.0	-0.0	134.133636475	-109.961219788	81.0613937378	-179.367218018
0.0	-0.0	133.993499756	-109.623588562	82.4247207642	-179.233505249
0.0	-0.0	133.537963867	-110.198242188	87.2449111938	-177.652770996
0.0	-0.0	132.551742554	66.5761489868	86.44871521	5.57880401611
0.0	-0.0	128.462005615	56.3993530273	84.81640625	11.1687202454
0.0	-0.0	119.289680481	40.8611831665	87.3305053711	14.6400623322
0.0	-0.0	110.744064331	-153.833374023	87.771736145	-163.031539917
0.0	-0.0	97.7279205322	-164.685882568	82.8162155151	-161.804229736
0.0	-0.0	78.9872207642	-170.613830566	77.6120910645	-161.176101685
0.0	-0.0	72.6869506836	-173.834716797	71.8371810913	-161.210678101
0.0	-0.0	68.2336349487	-175.787765503	65.2907180786	-161.344085693
0.0	-0.0	69.1467514038	-178.164031982	58.1243171692	-160.514648438
0.0	-0.0	73.1966629028	179.737121582	48.4375801086	-160.687454224
0.0	-0.0	75.5354690552	179.991439819	42.4092140198	-161.518386841
0.0	-0.0	79.0916900635	-175.837936401	42.3646278381	-163.121170044
0.0	-0.0	83.6302719116	-166.689834595	43.0952758789	-165.312591553
0.0	-0.0	88.2174911499	-157.945770264	42.0051574707	-168.178039551
0.0	-0.0	98.1338500977	-154.634002686	38.4946632385	-170.668258667
0.0	-0.0	105.630943298	-154.011520386	34.6091270447	-171.219619751
0.0	-0.0	108.60899353	-155.097259521	29.9091205597	-171.071395874
0.0	-0.0	109.994361877	-156.596069336	25.8636131287	-171.285629272
0.0	-0.0	113.554138184	-158.31036377	22.6096439362	-171.382019043
0.0	-0.0	115.784301758	-159.763458252	21.1434612274	-171.247940063
