-37.596786499	0.787900924683	17.0651092529	-14.3816289902	18.5840511322	-33.9337692261
-37.1865921021	0.804326415062	17.0032062531	-13.8187417984	18.7231330872	-33.7660179138
-37.0866889954	0.83523017168	16.9494667053	-13.3874158859	18.8150730133	-33.3125190735
-37.1872825623	0.791203975677	16.7325305939	-10.5173969269	18.8801994324	-31.5904083252
-35.3058624268	0.1628818959	16.3565483093	-1.54488182068	19.3921775818	-26.9669189453
-29.137336731	-0.930063962936	15.7736005783	6.07870817184	19.5012836456	-23.108291626
-21.6715755463	-0.744543373585	12.6964855194	9.41192436218	19.017906189	-21.8699188232
-13.5979471207	-0.818011760712	10.5920085907	10.2577981949	18.7353954315	-22.2375564575
-6.49420881271	-0.851159334183	9.98759269714	11.1299686432	18.6144981384	-22.5344314575
-1.80755484104	-0.73854470253	9.92831325531	12.2965936661	18.5477218628	-22.5105495453
-2.23891305923	0.0242676120251	9.34159088135	12.9249925613	18.5775814056	-22.5751419067
-3.62177705765	-0.205523639917	9.80379867554	13.0410709381	18.6234092712	-22.6215763092
-3.74461507797	-0.464601486921	9.84427833557	13.2425851822	18.6190319061	-22.465587616
-2.25225877762	-0.182905048132	9.4878692627	13.48204422	18.6438331604	-22.5179386139
-0.673181474209	0.463433712721	9.25815391541	13.8283576965	18.6434688568	-22.5626106262
-0.19252422452	0.310210943222	9.68774795532	14.5020933151	18.6956329346	-22.4217567444
-0.0915584340692	0.669147193432	9.29796886444	15.2569971085	18.6097717285	-22.361410141
-0.414619922638	0.506930053234	9.30626010895	14.9564857483	18.5548458099	-22.431344986
-0.802652359009	0.113074861467	9.57571220398	12.6142110825	18.3897342682	-22.6994152069
-1.54268729687	0.244758695364	9.39705467224	12.0076255798	18.5095615387	-21.7675819397
