0.0	-0.0	-142.418640137	-38.1686058044	83.0100479126	42.5137481689
0.0	-0.0	-141.854095459	-37.8281211853	83.0723114014	42.6301689148
0.0	-0.0	-141.540023804	-37.3290557861	82.6775283813	42.4095535278
0.0	-0.0	-136.626815796	-36.5788040161	82.2200088501	42.1184463501
0.0	-0.0	-124.133506775	-27.7417049408	82.9050064087	36.5156784058
0.0	0.0	-108.518211365	168.800506592	89.885635376	-155.128509521
0.0	0.0	-90.7627029419	-175.024581909	88.7191772461	-159.153167725
0.0	0.0	-81.1138305664	19.1547107697	89.7554931641	20.3490066528
0.0	0.0	-78.84400177	30.0256443024	89.2106323242	20.7031707764
0.0	0.0	-78.7499465942	-138.373397827	89.8555145264	-159.60218811
