-0.234664440155	1.17552363873	0.0738335847855	-0.0118908882141	1.71236205101	0.0175242424011
-0.234482288361	1.17523169518	0.0737597942352	-0.0121157169342	1.71239864826	0.0183153152466
-0.234341621399	1.1748136282	0.0734910964966	-0.0123009681702	1.71247971058	0.0186769962311
-0.234390497208	1.17486989498	0.0735459327698	-0.012487411499	1.71276628971	0.0189671516418
-0.233969688416	1.17453229427	0.073033452034	-0.0126941204071	1.71276068687	0.0191290378571
-0.234387397766	1.17283320427	0.0723049640656	-0.0127913951874	1.71246635914	0.0198092460632
-0.234955310822	1.17140221596	0.0690211057663	-0.013067483902	1.7119615078	0.0211367607117
-0.236576795578	1.17054641247	0.0644184350967	-0.0156188011169	1.71142375469	0.0230590105057
-0.239927768707	1.16945099831	0.0584260225296	-0.0207414627075	1.71026551723	0.0262696743011
-0.245148420334	1.16886520386	0.0521495342255	-0.0262069702148	1.70888614655	0.0296869277954
-0.249616384506	1.16998934746	0.0475182533264	-0.0302002429962	1.70683336258	0.0328334569931
-0.252244949341	1.17016363144	0.0487823486328	-0.0329275131226	1.70529186726	0.0353887081146
-0.25256562233	1.17016506195	0.0484328269958	-0.0356078147888	1.70338487625	0.0369529724121
-0.253882169724	1.16879248619	0.0418262481689	-0.0405666828156	1.69831764698	0.0387910604477
-0.255349397659	1.1662453413	0.0321350097656	-0.0478482246399	1.68627631664	0.0419716835022
-0.256267786026	1.1623032093	0.0239948034286	-0.0543613433838	1.67327153683	0.0461428165436
