-68.4571380615	-20.2576694489	140.762176514	8.33816337585	5.90912866592	1.26150798798
-68.2628860474	-20.2136135101	140.07862854	8.48728275299	5.98416233063	1.31679928303
-68.2472686768	-20.3601493835	140.081893921	8.43740558624	6.11895418167	1.50139164925
-67.1719741821	-19.5540275574	135.758270264	8.84013462067	6.2911901474	1.53210616112
-63.9114837646	-13.1377229691	100.349227905	10.1672506332	6.06460094452	1.5174176693
-60.2342720032	-7.76974964142	69.2034454346	11.8121671677	5.49921798706	1.53750431538
-60.6704902649	-7.88439893723	67.2422561646	13.3435916901	4.91873264313	1.29221725464
-59.6668701172	-6.52313613892	55.7951583862	14.4247226715	4.34628629684	1.19573020935
-59.2021560669	-4.21954584122	44.7972602844	15.0464839935	3.64877200127	1.06333005428
-59.513507843	-2.24776482582	36.2926826477	15.1687231064	2.91422367096	0.975205302238
-60.2964248657	-1.84705603123	35.084312439	14.7621898651	2.35432362556	1.0408449173
-61.1588821411	-2.26973319054	37.0663337708	14.2757463455	2.29500460625	1.1785017252
-62.5488166809	-3.56283545494	41.957736969	13.8395328522	2.30010247231	1.32639241219
-62.530166626	-1.90958178043	33.1872291565	13.3922901154	1.90195536613	1.33420956135
-62.5488967896	-0.0934151336551	22.5671806335	12.8609704971	0.998224496841	1.2742702961
-63.2567749023	0.288578510284	23.4302539825	11.4584102631	-0.044590625912	1.50922834873
-63.6531257629	1.15078127384	19.5805149078	9.34256458282	-0.423230648041	2.0176115036
-63.8332328796	2.11160516739	14.5198106766	7.45805835724	-0.166792750359	2.37700271606
-64.3299636841	2.77236175537	12.0368070602	7.0198931694	0.515680670738	2.60190796852
-64.5231552124	4.30891990662	4.68848085403	7.67293119431	1.32330214977	2.4697663784
-66.8706741333	5.77014684677	-9.3837223053	8.59876251221	1.88360095024	2.23700284958
-69.8568496704	7.7379899025	-24.857881546	9.39952278137	2.15938591957	2.01194167137
-72.864440918	7.71113872528	-40.3053398132	9.78995323181	2.35418987274	1.89499413967
-73.7745132446	4.44762802124	-53.8488044739	9.77392959595	2.51727175713	1.90545380116
-74.1025085449	2.36805105209	-57.4744529724	9.43405723572	2.57972168922	1.99493658543
-74.2191238403	0.970521688461	-55.7919921875	8.7267036438	2.46467638016	2.22918248177
-75.5328674316	0.151961058378	-53.2388191223	6.8478102684	1.84877371788	2.31209778786
-77.4433898926	0.79197126627	-52.0809020996	4.77481222153	1.13603270054	2.27899718285
-79.8818664551	0.985993862152	-51.8092308044	3.5509698391	0.791462361813	2.08374643326
-81.169128418	0.93989533186	-51.5068626404	3.65780925751	0.2738288939	1.53434538841
-81.3979415894	0.690062940121	-52.056854248	4.20474338531	-0.309499680996	1.13457655907
-81.6312484741	0.87601351738	-52.2904472351	1.63337862492	-0.958519816399	1.22781658173
