-86.2101516724	-65.4318237305	140.107788086	6.07033967972	2.70883989334	-0.969360113144
-86.4538269043	-65.2195968628	139.827957153	6.18768882751	2.69573640823	-0.875343680382
-86.7196350098	-64.66015625	139.805023193	6.39470672607	2.62216162682	-0.811257660389
-85.9439849854	-64.7768096924	138.378585815	6.70444393158	2.87531876564	-0.764121472836
-79.6693725586	-65.1146392822	128.850921631	7.3041677475	4.69029903412	-0.979868292809
-59.4148902893	-64.168182373	96.3168182373	8.33240509033	8.56721305847	-1.65246009827
-50.1581993103	-61.5028305054	82.4605636597	9.17972660065	13.9738664627	-2.52849960327
-48.0336418152	-60.2682266235	79.8460464478	10.4850788116	18.6054458618	-3.01045536995
-44.6990089417	-59.7046127319	76.7158660889	12.1113262177	21.5926532745	-3.08886051178
-43.2703933716	-59.6010093689	75.9686965942	13.6761741638	22.9932880402	-2.87655973434
-36.3834075928	-58.9279251099	67.4036865234	15.1181602478	23.5908641815	-2.72933650017
-24.827955246	-55.8669395447	47.4884033203	16.1516246796	23.727394104	-2.65392351151
-24.3445415497	-55.5694313049	46.8108978271	16.5140171051	23.7345256805	-2.72282934189
-29.5840549469	-59.1401481628	56.4531440735	16.5185184479	23.5814247131	-2.58920049667
-35.6166763306	-62.5564575195	66.7436141968	16.3987293243	23.0837306976	-2.49500656128
-38.786693573	-64.8101577759	72.7576599121	16.6341819763	22.2438831329	-2.50849580765
