0.0	-0.0	136.976806641	-105.803375244	66.1455459595	-170.647491455
0.0	-0.0	136.299575806	-105.856521606	65.9761810303	-170.546112061
0.0	-0.0	136.226318359	-105.580337524	66.2495422363	-170.37437439
0.0	-0.0	135.954864502	-105.814979553	66.5645446777	-169.88722229
0.0	-0.0	133.840484619	-109.816795349	65.783454895	-167.814651489
0.0	-0.0	119.510826111	-122.217254639	61.1151809692	-164.511962891
0.0	-0.0	100.949165344	-139.519592285	51.9295272827	-161.472793579
0.0	-0.0	83.9638900757	-154.249191284	41.5287094116	-158.062042236
0.0	-0.0	72.7213058472	-163.599472046	33.5880241394	-156.636520386
0.0	-0.0	66.6341247559	-166.638946533	28.7520065308	-155.562255859
0.0	-0.0	62.7624168396	-165.190917969	26.2009410858	-154.823760986
0.0	-0.0	54.0506515503	-160.82194519	24.8122272491	-154.660400391
0.0	-0.0	45.9703979492	-154.740661621	23.3317832947	-155.120620728
0.0	-0.0	34.3217468262	-151.314056396	21.1974468231	-156.248474121
0.0	-0.0	22.6260147095	-150.022338867	19.4846382141	-157.119216919
0.0	-0.0	20.9878177643	-149.093551636	19.0014038086	-157.630386353
0.0	-0.0	31.3562889099	-148.225769043	18.9676895142	-157.819335938
0.0	-0.0	41.6278915405	-148.397720337	18.6221256256	-158.283843994
0.0	-0.0	41.7770805359	-148.176986694	17.8912792206	-158.801589966
0.0	-0.0	32.7299575806	-147.670043945	15.5323629379	-159.258880615
0.0	-0.0	29.3884143829	-148.042327881	11.4129667282	-160.058532715
0.0	-0.0	34.3968391418	-150.719345093	9.95555591583	-161.339080811
0.0	-0.0	44.7801780701	-151.58380127	9.6603012085	-162.038009644
0.0	-0.0	51.8601531982	-150.221221924	9.56291484833	-161.852249146
0.0	-0.0	63.130657196	-149.287094116	8.98532676697	-162.187042236
0.0	-0.0	57.6577110291	-148.894500732	7.44204616547	-162.380783081
0.0	-0.0	49.2062492371	-148.542922974	3.74777436256	-162.982971191
0.0	-0.0	47.1587028503	-147.113128662	-0.121337018907	-163.911468506
0.0	-0.0	52.7470359802	-144.241027832	-0.689157366753	-164.554214478
