0.0	-0.0	143.707077026	-110.200263977	55.4404640198	-174.831451416
0.0	-0.0	143.592376709	-110.151565552	55.2247276306	-174.92149353
0.0	-0.0	143.477600098	-110.169555664	54.7058448792	-174.957901001
0.0	-0.0	143.537384033	-110.152412415	53.5710296631	-174.63041687
0.0	-0.0	140.779220581	-107.732185364	52.4228973389	-174.512680054
0.0	-0.0	130.083511353	-100.926994324	50.3390007019	-175.093307495
0.0	-0.0	114.726165771	-92.8941116333	49.4549942017	-176.535430908
0.0	-0.0	101.757148743	-86.8600158691	49.3051223755	-177.493988037
0.0	-0.0	95.6128005981	-83.7568054199	48.8421478271	-178.808563232
0.0	-0.0	92.6542510986	-82.0822906494	48.0457878113	179.937545776
0.0	-0.0	87.5433120728	-80.3711929321	46.8945846558	179.466873169
0.0	-0.0	83.9913482666	-79.006652832	46.5988960266	179.112548828
0.0	-0.0	84.7510986328	-78.3789978027	46.367275238	178.672653198
0.0	-0.0	86.378868103	-77.5902252197	46.9895973206	178.514587402
0.0	-0.0	87.2872924805	-76.4474182129	48.2204246521	177.777542114
