-65.7358016968	-32.0634002686	140.905181885	8.94659900665	5.98502588272	1.8148907423
-66.3565292358	-32.0106735229	141.192001343	8.83414363861	5.94307947159	1.80811154842
-66.9155960083	-32.0460624695	141.126907349	8.41180229187	5.80118751526	1.68684613705
-67.6219558716	-32.131855011	140.357940674	7.7232708931	5.74204921722	1.71341502666
-67.5023040771	-32.5923080444	133.290100098	7.33225631714	4.78811359406	1.85547626019
-66.0053253174	-32.4409179688	121.522338867	7.28506851196	1.31045854092	2.21894598007
-64.5155792236	-31.9241542816	112.902732849	7.14520788193	-2.79775881767	2.56823420525
-61.6418228149	-25.9686088562	87.6233291626	6.71010732651	-6.15079593658	2.66332745552
-63.3026199341	-22.3314914703	70.4147949219	6.446372509	-8.34430503845	2.58619642258
-65.8154449463	-17.0957565308	56.2708015442	6.87536430359	-10.5839519501	2.54989051819
-67.1137008667	-12.4841346741	41.1004714966	7.19485521317	-12.834233284	2.61313700676
-68.0020980835	-8.97656726837	29.5688285828	7.32078266144	-14.567612648	2.52408647537
-68.2626342773	-6.24919605255	21.4414291382	7.43268346786	-16.0787143707	2.51216626167
-67.9374237061	-4.97839689255	15.9392290115	7.13341760635	-17.4962291718	2.63567566872
-69.5053329468	-2.74495482445	12.8193788528	6.59615898132	-18.3835430145	2.72004556656
-70.7763671875	-0.359133571386	5.62354803085	6.1440577507	-18.7939548492	2.65637373924
-70.5743484497	0.108230426908	3.04302740097	5.88063764572	-18.7237682343	2.65571713448
-69.4380187988	-1.26182734966	21.2683944702	5.87097024918	-18.4370880127	2.66150069237
-65.7998657227	-1.37565696239	40.6354789734	6.13512849808	-18.4680252075	2.8655796051
-66.0080871582	-2.4929022789	46.3716621399	6.73460292816	-18.8634357452	2.47317028046
-65.9835968018	-3.72360873222	49.0950698853	8.94245433807	-21.2884864807	0.948944449425
-65.9695892334	-3.72476530075	51.6589813232	13.3328704834	-24.5763759613	-2.64469599724
-66.5675888062	-3.00763320923	53.7979927063	18.6976680756	-25.8178024292	-7.50926494598
-67.0642089844	-2.93954253197	55.3766059875	21.8480854034	-26.0799026489	-9.9943780899
-67.054107666	-2.58240437508	54.3008918762	21.271774292	-25.2904205322	-10.0993757248
-67.3234786987	-0.202224239707	47.5785751343	20.9640655518	-24.0927066803	-10.5581941605
-68.0648956299	1.65862822533	40.232963562	20.8254432678	-23.1427173615	-10.6064739227
-69.4382247925	1.98066115379	42.9723320007	19.7623195648	-21.9929771423	-10.0060024261
-69.7775497437	-2.72490811348	58.0851097107	18.5846443176	-20.5471038818	-9.06391334534
-70.4445877075	-7.09125328064	71.0092468262	17.1721496582	-18.7008743286	-7.70952320099
-73.4562988281	-9.76214313507	81.0224609375	15.6079006195	-17.0072002411	-6.58880329132
-75.3111190796	-12.0598459244	86.8629684448	14.9734621048	-16.4354362488	-6.30832242966
-75.530166626	-13.4478778839	87.3400192261	14.5499792099	-16.7127990723	-5.96353769302
-75.5707626343	-14.2734928131	88.3457565308	14.1494579315	-18.1203041077	-5.71990442276
-75.8534851074	-15.3755960464	92.379486084	13.6420087814	-19.6301326752	-5.82566976547
-74.6112594604	-13.7038927078	85.7937011719	13.1853523254	-20.0171356201	-5.69358110428
