-0.191811084747	1.16763627529	0.185243844986	-0.0132648944855	1.68750858307	0.0485553741455
-0.192699193954	1.16877830029	0.183708667755	-0.0136630535126	1.68835890293	0.0475258827209
-0.193363666534	1.1697756052	0.182646512985	-0.0147206783295	1.69056987762	0.0455498695374
-0.196501255035	1.17336511612	0.180748701096	-0.0173442363739	1.69518530369	0.0423862934113
-0.204878330231	1.17589139938	0.176537156105	-0.0220787525177	1.7010897398	0.0391497612
-0.214638710022	1.17872273922	0.171505451202	-0.028263092041	1.70585823059	0.0371270179749
-0.224832773209	1.18323743343	0.167911291122	-0.0353555679321	1.70881795883	0.0364624261856
-0.230942487717	1.18453216553	0.16955447197	-0.0408115386963	1.70950102806	0.0370560884476
