-74.439491272	-35.1719093323	136.334945679	8.71718025208	5.08912420273	2.24449181557
-74.7152328491	-35.2082214355	136.33631897	8.56306362152	5.12320613861	2.23245191574
-74.821395874	-35.2362213135	136.117324829	8.30786991119	5.0601348877	2.22035264969
-74.856803894	-35.3731384277	134.391113281	7.53717565536	4.45301389694	2.12229704857
-74.2859115601	-34.703163147	121.317520142	5.71397352219	3.16261124611	2.13113689423
-75.2412261963	-31.3128643036	100.88394928	3.14772868156	1.87181901932	2.13762927055
-74.9329299927	-29.4981880188	85.6501922607	0.49847972393	1.00458478928	2.33603310585
-75.2947616577	-27.6426486969	75.5149841309	-2.11198353767	0.769697129726	2.58148574829
