-81.7284545898	-20.848487854	135.184799194	7.45927858353	1.31372439861	-0.821759521961
-81.8406982422	-20.63829422	134.959335327	7.17517137527	1.3070473671	-0.783588826656
-81.3104476929	-20.9652690887	134.444702148	7.37842798233	0.893713235855	-0.800197005272
-80.7781982422	-21.04479599	134.197128296	7.86658620834	0.412488907576	-0.828643381596
-80.6878204346	-21.3175964355	133.809906006	8.09674167633	-1.37706136703	-0.522094666958
-80.8661422729	-21.0435256958	132.742294312	7.8910446167	-5.6831240654	-0.186848223209
-81.6359481812	-20.4397029877	132.6277771	7.79917144775	-10.810385704	-0.0914744213223
-81.9914703369	-20.3701896667	133.221710205	8.16821861267	-15.9553403854	-0.16690813005
-81.7825927734	-20.2774677277	133.298187256	8.58296585083	-20.2331523895	-0.293886631727
-81.6391525269	-20.1752719879	133.992889404	9.31422996521	-23.1441936493	-0.690014481544
-78.9201431274	-20.0460224152	123.569358826	10.4862184525	-24.3719978333	-1.47319233418
-75.7703323364	-19.3929767609	109.003295898	11.0985164642	-24.4026889801	-1.92248392105
-74.9991836548	-19.129732132	107.220596313	11.4041881561	-24.3805904388	-2.0500292778
-73.0421600342	-18.6980762482	98.9004516602	11.7196435928	-24.4911670685	-2.07187914848
-70.9323883057	-17.8861808777	88.738067627	11.9559202194	-24.9154720306	-2.03533244133
-70.4803085327	-17.9016799927	86.9708480835	12.1674633026	-25.6351852417	-2.23140239716
-70.8722610474	-17.8621559143	88.0338439941	12.234837532	-26.6592330933	-2.42586135864
-70.2959671021	-17.7329769135	84.8047332764	12.1549625397	-27.8273029327	-2.66778945923
-69.3824615479	-17.1949729919	80.4131088257	12.0363903046	-29.0895576477	-2.76377677917
-68.9605102539	-16.6616802216	77.4469833374	11.9265899658	-30.2524471283	-2.85065770149
-68.7013092041	-16.0159435272	75.9922332764	11.7112216949	-30.5999355316	-2.70798945427
-68.4733810425	-15.120847702	73.7344665527	11.448513031	-30.5669727325	-2.76703357697
-69.6838989258	-14.5231695175	76.1776428223	11.5980348587	-30.9402313232	-3.07039475441
-70.6888504028	-14.8626890182	80.4655838013	11.8092384338	-31.622385025	-3.29401254654
-71.2456970215	-15.3302021027	85.9784545898	12.2630977631	-32.6430969238	-3.62919259071
-71.0589828491	-16.0104827881	93.9537582397	12.8496618271	-33.5725822449	-3.92494654655
-67.9619293213	-17.2138328552	85.8180923462	13.3823518753	-34.2242546082	-4.65437698364
-66.0055007935	-17.9518718719	72.5489730835	14.059047699	-34.5938415527	-5.31578588486
-66.8122253418	-17.2310237885	71.6489105225	14.8329324722	-34.6127586365	-6.15462112427
-66.1312866211	-17.1833610535	69.7585296631	16.1836986542	-34.9610176086	-7.69852542877
-64.4906692505	-17.1303691864	63.879863739	17.4408340454	-34.6217880249	-9.50714206696
-62.9022941589	-17.3335475922	56.1056175232	18.4685287476	-33.9761314392	-11.1437730789
-62.6080131531	-17.3967437744	54.0291213989	19.4455127716	-32.9172973633	-12.6885204315
-62.3791732788	-18.0116539001	58.523147583	20.9720420837	-31.6157684326	-14.0518054962
-62.3876609802	-18.0512447357	58.2396354675	22.1141452789	-29.7443237305	-14.9682950974
-62.6273117065	-18.5109443665	64.0158996582	21.682384491	-27.7440929413	-14.8829183578
-64.1039505005	-19.3488674164	76.1965942383	20.8335552216	-25.5940227509	-14.22108078
-65.599319458	-20.1034202576	85.2515411377	19.2471809387	-23.7064819336	-13.0298604965
-66.2065048218	-20.2880058289	88.4041824341	17.0884742737	-22.51795578	-11.4625940323
-67.9403991699	-20.2848625183	94.2639007568	15.2031087875	-22.3179092407	-10.2710523605
-69.9811401367	-20.7389717102	99.1753311157	13.1853103638	-22.7894859314	-9.05552577972
-71.2822799683	-20.8970565796	102.902900696	11.0771512985	-23.6593589783	-7.61934900284
-70.8897094727	-21.1802120209	99.1771087646	9.63512325287	-24.5061206818	-6.80476236343
-67.1751708984	-19.4040584564	79.1770401001	9.31845092773	-24.9596500397	-6.53941202164
-67.5175323486	-18.4431762695	77.8442153931	9.55395126343	-24.9624900818	-6.53554677963
-69.1385040283	-17.674161911	80.4799957275	9.73163795471	-24.681520462	-6.65365982056
-70.8614730835	-17.9396457672	88.2487564087	9.61135196686	-24.5768470764	-6.56743049622
-70.4389343262	-17.6734657288	85.5391082764	9.29785633087	-25.2138614655	-6.47303295135
