0.0	-0.0	135.414245605	-119.997123718	81.365486145	173.18019104
0.0	-0.0	134.851577759	-119.537696838	80.5252456665	173.808456421
0.0	-0.0	133.198410034	-119.556030273	80.1067123413	173.884506226
0.0	-0.0	128.679550171	-119.488777161	79.6811447144	174.081100464
0.0	-0.0	120.112373352	-123.737617493	78.8706893921	174.363952637
0.0	-0.0	96.4027481079	-137.306213379	77.35521698	174.129257202
0.0	-0.0	85.1161117554	-155.392272949	76.9258422852	174.737289429
0.0	-0.0	79.5427322388	-172.957855225	77.5908050537	175.765945435
0.0	-0.0	68.6649932861	172.5206604	78.5273284912	176.286254883
0.0	-0.0	58.6151657104	159.917755127	80.2496185303	176.191421509
0.0	-0.0	53.131111145	148.586502075	83.0925292969	176.689422607
