0.0	-0.0	141.66494751	-115.187202454	83.3975601196	176.009841919
0.0	-0.0	141.617126465	-114.518478394	83.3358078003	176.176010132
0.0	-0.0	140.907669067	-114.061485291	82.7273406982	176.376647949
0.0	-0.0	140.188049316	-114.060691833	80.8841400146	177.005401611
0.0	-0.0	140.782318115	-114.483306885	80.5826950073	177.720245361
0.0	-0.0	140.177047729	-115.129974365	87.6060333252	178.131072998
0.0	-0.0	139.372436523	63.8170318604	73.7725753784	-1.35132002831
0.0	-0.0	138.813873291	62.7637901306	51.6147003174	-2.01307106018
0.0	-0.0	138.496795654	63.9653244019	31.9487037659	-3.69163322449
0.0	-0.0	138.710418701	67.6141586304	18.133895874	-6.45509243011
0.0	-0.0	138.623901367	70.4888381958	12.6098003387	-8.51929855347
0.0	-0.0	135.186584473	71.5871047974	11.0941667557	-9.47465133667
0.0	-0.0	119.829208374	72.6619338989	7.9086227417	-10.1066274643
0.0	-0.0	105.630760193	73.671257019	1.92770040035	-11.2511310577
0.0	-0.0	88.3817443848	74.9020233154	-2.98483633995	-13.3645410538
0.0	-0.0	79.7259216309	76.0081710815	-4.79349517822	-15.0792427063
0.0	-0.0	73.6612625122	76.3712234497	-3.31506729126	-15.9996738434
0.0	-0.0	75.3095397949	77.3836135864	-3.40607023239	-17.2849445343
0.0	-0.0	76.7519073486	78.5788650513	-3.16345691681	-18.3428630829
0.0	-0.0	81.1348724365	80.7421188354	-4.32479763031	-20.1650276184
0.0	-0.0	85.7699737549	84.4362335205	-6.01463699341	-23.6533298492
