-0.118656635284	1.08699011803	0.187319397926	0.0792987346649	1.65487527847	-0.00585401058197
-0.119004011154	1.08697223663	0.188114404678	0.0786046981812	1.65496885777	-0.00450825691223
-0.119128227234	1.08703064919	0.189506649971	0.077451467514	1.65633511543	-0.00283455848694
-0.118105649948	1.08657240868	0.190923452377	0.0765318870544	1.66088056564	-0.00142908096313
-0.113397836685	1.08909058571	0.196354389191	0.0774364471436	1.66557180882	-0.000560522079468
-0.0973339080811	1.09222114086	0.211481809616	0.0797896385193	1.66700232029	-0.000544667243958
-0.0656390190125	1.09360897541	0.235621094704	0.0834407806396	1.6664276123	-0.000680208206177
-0.0261821746826	1.09616649151	0.258465051651	0.0873200893402	1.66551625729	-6.77108764648e-05
0.0100860595703	1.10055792332	0.273959994316	0.0902953147888	1.66449594498	0.000951528549194
