0.0	-0.0	136.77432251	-114.583374023	75.4166946411	176.711029053
0.0	-0.0	136.690856934	-114.204910278	74.9739837646	176.635879517
0.0	-0.0	136.733688354	-114.059646606	74.7043533325	176.849945068
0.0	-0.0	136.732391357	-114.063117981	74.7245407104	176.750518799
0.0	-0.0	136.85118103	-114.024024963	74.9958953857	176.726364136
0.0	-0.0	133.899978638	-114.721870422	73.9301452637	176.623001099
0.0	-0.0	114.58556366	-117.363746643	71.0615234375	176.974304199
0.0	-0.0	104.138374329	-123.387077332	65.4978866577	177.91217041
0.0	-0.0	93.727432251	-132.521987915	57.7290840149	178.323379517
0.0	-0.0	80.7340545654	-143.158111572	47.6070861816	178.591278076
0.0	-0.0	70.6549835205	-153.728042603	34.3340682983	177.698608398
0.0	-0.0	61.7745666504	-159.64956665	23.4002342224	177.644195557
0.0	-0.0	60.3336143494	-160.350662231	18.0753517151	178.913589478
