0.00150728225708	1.42305314541	-0.0364731550217	0.0759563446045	1.69903004169	-0.155843496323
0.00148844718933	1.42417037487	-0.0364873409271	0.0754542350769	1.69858908653	-0.155470609665
0.000821828842163	1.42475426197	-0.0356860160828	0.0749909877777	1.69829523563	-0.154909610748
-4.19616699219e-05	1.42498838902	-0.0347151756287	0.0745635032654	1.69843757153	-0.154966831207
0.00292444229126	1.42588961124	-0.0309767723083	0.0776619911194	1.7006560564	-0.157702565193
0.00736498832703	1.42551112175	-0.024224281311	0.0871679782867	1.70329833031	-0.165012359619
0.0168564319611	1.42685174942	-0.0167713165283	0.0958964824677	1.70495545864	-0.173000574112
0.0267791748047	1.42637360096	-0.0102496147156	0.100579977036	1.70690202713	-0.178412675858
0.0356044769287	1.42641448975	-0.00486302375793	0.102499485016	1.70811414719	-0.181238174438
0.038941860199	1.42922413349	-0.0023512840271	0.103170871735	1.70867466927	-0.182353854179
0.0347192287445	1.4305524826	-0.00561964511871	0.103219509125	1.70883321762	-0.182371854782
0.028258562088	1.42939579487	-0.00854814052582	0.102799892426	1.70849645138	-0.181082844734
0.0245504379272	1.42731642723	-0.00657653808594	0.10206580162	1.70769333839	-0.178307056427
0.0224068164825	1.42334425449	-0.000486850738525	0.0994653701782	1.70679891109	-0.172604560852
0.018767118454	1.41857337952	0.00294494628906	0.0943765640259	1.70626413822	-0.163189649582
0.0151834487915	1.41555440426	0.00559234619141	0.0906400680542	1.70680844784	-0.153436183929
0.0129425525665	1.41446769238	0.00906717777252	0.0909812450409	1.70666897297	-0.145667791367
0.0159873962402	1.41445791721	0.0154532194138	0.0943419933319	1.70546889305	-0.13937163353
0.0259122848511	1.41394484043	0.0284523963928	0.0991725921631	1.70489668846	-0.13453412056
0.0370831489563	1.4111764431	0.042008638382	0.103340864182	1.70483577251	-0.131222724915
0.0438165664673	1.40828621387	0.0512169599533	0.106600999832	1.70501792431	-0.128005504608
0.0476379394531	1.40472483635	0.0621720552444	0.109020233154	1.70495629311	-0.124465227127
0.0462927818298	1.39856779575	0.0724341869354	0.110003948212	1.70503675938	-0.12114572525
0.0389239788055	1.39407038689	0.0768066644669	0.109089851379	1.7059905529	-0.117436647415
0.0313272476196	1.39389371872	0.0791375637054	0.105409383774	1.70959115028	-0.112794518471
