-0.0252029895782	1.30795741081	-0.0162122249603	0.0213303565979	1.70487940311	-0.138996958733
-0.023689031601	1.30814993382	-0.0159546136856	0.0214760303497	1.70477473736	-0.139097809792
-0.0231549739838	1.30815124512	-0.0161194801331	0.0212154388428	1.70454585552	-0.138907670975
-0.023638010025	1.30771505833	-0.0161581039429	0.0207283496857	1.70458722115	-0.138732433319
-0.0243592262268	1.31196379662	-0.0184310674667	0.0204379558563	1.70487868786	-0.138674974442
-0.0224788188934	1.32928299904	-0.024489402771	0.020632982254	1.70659267902	-0.139706373215
-0.0155017375946	1.35433280468	-0.0263359546661	0.0211379528046	1.71026837826	-0.142276763916
-0.0063169002533	1.37154984474	-0.0195899009705	0.0214681625366	1.71445441246	-0.146056890488
0.00055193901062	1.38061881065	-0.01404941082	0.0218102931976	1.71834588051	-0.149934530258
0.00797367095947	1.38852357864	-0.00871515274048	0.0214142799377	1.7223045826	-0.153650045395
0.0110666751862	1.39470350742	-0.00681495666504	0.01970911026	1.72632908821	-0.157532453537
0.00780749320984	1.39842355251	-0.00828337669373	0.0167536735535	1.7301838398	-0.161432266235
0.00450277328491	1.39979827404	-0.00816512107849	0.0149075984955	1.73371458054	-0.166061878204
0.00629734992981	1.40387964249	-0.00553822517395	0.0156712532043	1.73539245129	-0.170419812202
0.0128362178802	1.41166067123	-0.00120854377747	0.0180594921112	1.73642003536	-0.174126148224
0.0170927047729	1.41845118999	-5.3882598877e-05	0.0200378894806	1.73784554005	-0.178427457809
0.0192868709564	1.42368686199	-0.000962257385254	0.020895242691	1.73941838741	-0.182669758797
0.0241348743439	1.42795431614	0.000446319580078	0.0217514038086	1.74117481709	-0.18694794178
0.0312285423279	1.43297457695	0.00283992290497	0.0225229263306	1.74199664593	-0.191031932831
0.0347261428833	1.43804740906	-0.000295639038086	0.0240581035614	1.74204850197	-0.193379640579
0.0341892242432	1.43961906433	-0.00397229194641	0.0259580612183	1.74187886715	-0.195313453674
0.0347876548767	1.44079327583	-0.00746953487396	0.0272619724274	1.74233460426	-0.197700023651
0.0390179157257	1.4443731308	-0.0110051631927	0.0282979011536	1.74238097668	-0.199963092804
0.0449895858765	1.4486938715	-0.0122289657593	0.0298449993134	1.74206960201	-0.201639652252
