0.0	-0.0	139.392181396	-107.80027771	70.4337005615	-179.987960815
0.0	-0.0	139.216888428	-107.474731445	70.1901016235	179.935119629
0.0	-0.0	138.052337646	-107.042640686	68.6769714355	-179.786849976
0.0	-0.0	131.798095703	-107.507461548	66.1422271729	-179.402679443
0.0	-0.0	109.471359253	-110.54940033	63.130695343	-178.958099365
0.0	-0.0	86.2063827515	-118.108932495	57.6523475647	-178.636505127
0.0	-0.0	79.9605255127	-129.02053833	50.7368659973	-177.747146606
0.0	-0.0	68.1576843262	-141.860794067	43.8817749023	-176.490753174
0.0	-0.0	63.0066795349	-155.033828735	37.596862793	-176.874053955
0.0	-0.0	57.2174873352	-166.698425293	30.2238941193	-179.368881226
0.0	-0.0	52.8089447021	-174.885696411	23.9819202423	178.671829224
0.0	-0.0	53.530216217	-176.61076355	21.7303943634	179.804946899
