-23.4433403015	3.29329228401	30.4340991974	-3.93885207176	13.5040941238	-35.146697998
-23.5479011536	3.17920160294	30.5290565491	-4.09339618683	13.4779968262	-35.2147941589
-23.9424934387	4.05367040634	29.9188156128	-4.51766395569	14.4243593216	-35.1366271973
-26.1033554077	6.99071884155	29.3927955627	-6.68156051636	16.4873600006	-34.4544944763
-30.0507545471	8.87132167816	30.7603740692	-10.9629631042	16.7966976166	-32.7015609741
-34.385684967	11.4870681763	32.5116539001	-16.0664196014	15.7663059235	-30.259847641
-36.0759735107	10.6131973267	35.4801521301	-19.8271522522	14.4927072525	-27.7252979279
-36.2378692627	7.79289674759	36.861946106	-22.0397853851	13.6936416626	-25.470495224
-35.4923019409	2.10345292091	36.4602928162	-23.0694198608	12.9378213882	-23.4598350525
-35.6779899597	-2.35262012482	36.1585388184	-23.6463928223	12.0040922165	-21.4454154968
-36.7028160095	-3.19951868057	35.8326072693	-24.3673286438	11.4336290359	-19.5008411407
