-72.617805481	3.35887742043	137.450134277	10.5482034683	11.1051445007	-0.764950573444
-72.7223434448	3.3822760582	137.460601807	10.7666444778	11.2734336853	-0.83176779747
-72.5774536133	3.49690508842	137.62411499	10.8224496841	11.4570531845	-0.844639241695
-72.6294631958	3.3801202774	137.75163269	10.7360801697	11.5864057541	-0.804963886738
-72.730178833	3.42882657051	137.156356812	10.7899007797	11.4858484268	-0.778746306896
-72.5070953369	3.58044838905	134.133666992	11.4176836014	10.9373826981	-0.718107640743
-68.9226226807	2.86693382263	114.437339783	13.023223877	9.06776618958	-0.683851897717
-67.0337753296	2.5363380909	107.887626648	14.8032360077	6.34426116943	-0.818757295609
-66.8662414551	3.02333140373	107.664802551	16.086566925	3.47095704079	-1.24819517136
-64.7844772339	2.46635651588	105.851638794	17.1809692383	0.143031701446	-2.0465464592
-64.5323028564	2.44870829582	106.352661133	18.3043556213	-2.92267513275	-3.08425140381
-64.7330245972	2.1536283493	106.636932373	18.9141407013	-5.07758808136	-3.77684283257
-65.1259918213	2.46703600883	107.060623169	18.7957878113	-6.24255084991	-3.96567511559
-64.4323654175	2.8565723896	101.169548035	18.364156723	-6.79746246338	-3.71318101883
-62.6852874756	3.77194690704	92.5751647949	18.2660217285	-6.9855132103	-3.62898588181
-61.7129936218	4.12081432343	88.1388549805	18.3557739258	-6.96003293991	-3.67562460899
-62.4668273926	3.72708249092	91.3323059082	18.4442749023	-6.93149852753	-3.57110118866
-64.2407989502	3.53824424744	99.1368484497	18.6519794464	-7.37981748581	-3.43628144264
-66.3219680786	4.14000177383	103.409637451	19.0969657898	-8.9599313736	-3.47894716263
