0.036025762558	1.3810583353	0.0285222530365	0.0873925685883	1.66462981701	-0.0736647844315
0.0355405807495	1.38167095184	0.0272415876389	0.087762594223	1.6647824049	-0.0753569602966
0.0351674556732	1.38180291653	0.0261793136597	0.0880405902863	1.665340662	-0.0769221782684
0.0353841781616	1.38247072697	0.0261808633804	0.08762550354	1.66584324837	-0.078521490097
0.0351481437683	1.38206088543	0.0293700695038	0.0861282348633	1.6662197113	-0.0800496339798
0.0309824943542	1.37754869461	0.0312860012054	0.0805702209473	1.66578793526	-0.0808267593384
0.0215880870819	1.37277245522	0.0276646614075	0.0669720172882	1.66540932655	-0.0808079242706
0.0130324363708	1.36838638783	0.0253976583481	0.0528302192688	1.66652238369	-0.0819002389908
0.00646543502808	1.36726498604	0.0226130485535	0.0424439907074	1.66887640953	-0.0841152667999
0.00157999992371	1.36947262287	0.0191694498062	0.0343425273895	1.67272293568	-0.0867341756821
-0.00422310829163	1.37388622761	0.013098359108	0.0306921005249	1.67889070511	-0.0891346931458
-0.0103440284729	1.38182115555	0.00711178779602	0.0305376052856	1.68479764462	-0.0916103124619
-0.0201678276062	1.39004206657	-0.0036153793335	0.0313324928284	1.68888890743	-0.0942869186401
-0.0291469097137	1.39736020565	-0.0158574581146	0.0338046550751	1.68959963322	-0.0958893299103
-0.0321655273438	1.39984452724	-0.0169746875763	0.0400290489197	1.68741452694	-0.0959508419037
-0.0298199653625	1.39477562904	-0.00759339332581	0.0499579906464	1.68478167057	-0.0953496694565
-0.0245158672333	1.38728022575	0.00791192054749	0.0616798400879	1.68175697327	-0.0950632095337
-0.0181515216827	1.37953054905	0.0236899852753	0.0730686187744	1.67822945118	-0.0954356193542
-0.0278806686401	1.36542475224	0.021196603775	0.076709985733	1.67716288567	-0.0949261188507
-0.0395698547363	1.35698080063	0.0117077827454	0.0721821784973	1.67725157738	-0.0937016010284
-0.0471787452698	1.35793805122	-0.000893592834473	0.0647723674774	1.67803156376	-0.0931353569031
-0.0531923770905	1.36073112488	-0.00963115692139	0.058000087738	1.67936718464	-0.0929572582245
-0.0581707954407	1.36275947094	-0.0158379077911	0.0529482364655	1.68151783943	-0.0934319496155
-0.0605573654175	1.36425042152	-0.0175590515137	0.0504870414734	1.68281662464	-0.0940160751343
-0.0615038871765	1.3642026186	-0.0173089504242	0.0480675697327	1.68448758125	-0.0948894023895
-0.0655236244202	1.36303198338	-0.0196526050568	0.036963224411	1.68880701065	-0.097151517868
-0.0742404460907	1.35892653465	-0.024219751358	0.0182790756226	1.69387197495	-0.103287220001
-0.0835652351379	1.35506045818	-0.0312252044678	0.00372099876404	1.69719195366	-0.111330866814
-0.090106010437	1.35563576221	-0.0346210002899	-0.00134468078613	1.6985052824	-0.115482807159
-0.0896170139313	1.36470425129	-0.0319271087646	-3.36170196533e-05	1.69729244709	-0.113807916641
-0.0938696861267	1.3676276207	-0.0285723209381	0.00268054008484	1.69571256638	-0.109576463699
-0.099170923233	1.36561477184	-0.0310785770416	0.00330352783203	1.69446158409	-0.10616350174
-0.102123022079	1.36298704147	-0.0315945148468	0.00236105918884	1.69452178478	-0.104615449905
-0.101847410202	1.36328625679	-0.0281128883362	0.00181698799133	1.69481062889	-0.103711009026
-0.0985934734344	1.36754524708	-0.0224275588989	0.0025794506073	1.69585323334	-0.103587508202
-0.0954697132111	1.37234389782	-0.0158631801605	0.00483345985413	1.69733941555	-0.103907108307
-0.0928649902344	1.37483978271	-0.0123674869537	0.00707626342773	1.69922828674	-0.104927897453
-0.090972661972	1.37735271454	-0.0117689371109	0.00862646102905	1.70121312141	-0.106559753418
-0.0909168720245	1.37908685207	-0.0136218070984	0.00973439216614	1.70288205147	-0.108838796616
-0.0925769805908	1.37922430038	-0.0162181854248	0.0106682777405	1.7037280798	-0.112038135529
-0.0943508148193	1.37796938419	-0.0186581611633	0.00980281829834	1.7046289444	-0.116088747978
