-55.3532524109	-28.7027950287	135.608154297	7.44277620316	4.89367437363	0.959658026695
-55.095413208	-28.6763858795	135.107299805	7.31706571579	4.78984451294	0.956332087517
-55.0401954651	-28.7467575073	135.263458252	7.29746627808	4.82686424255	1.06170797348
-54.9344978333	-28.7499332428	135.414108276	7.34548187256	4.8243894577	1.04894316196
-55.2912025452	-28.7914390564	135.44342041	7.46087169647	4.82049798965	0.984966635704
-55.8365783691	-29.398311615	135.307907104	7.97548675537	4.38859319687	0.861480116844
-55.1634521484	-28.9774456024	128.517425537	9.38573932648	2.48341012001	0.391330569983
-54.6190719604	-27.4354324341	122.748336792	11.6272602081	-0.250683605671	-0.230818092823
-54.9160232544	-26.4318752289	120.621459961	13.9066925049	-2.96073770523	-1.36156237125
-54.7817993164	-25.7673664093	119.344696045	15.9420537949	-5.02516174316	-2.73334169388
-52.8865089417	-24.8158817291	114.077659607	17.5608501434	-6.20578050613	-4.00407743454
-49.7296867371	-23.1905021667	102.955345154	18.3976802826	-7.06898164749	-4.61541366577
