-72.3274459839	-54.9878044128	130.732681274	5.30376720428	1.72550737858	-1.99148738384
-72.1879196167	-54.8342285156	130.390914917	4.80074119568	1.90713453293	-1.6412358284
-71.9677429199	-55.0480766296	129.872283936	4.45688295364	2.31051015854	-1.60255372524
-70.881149292	-54.8273010254	127.878944397	4.2850279808	2.672986269	-1.59030854702
-70.2240371704	-54.8212165833	124.928527832	3.20849180222	2.11346960068	-1.13647389412
-68.4738006592	-54.4935150146	116.724304199	1.21703088284	-0.193582266569	-0.33569341898
-67.2412719727	-53.6578178406	110.364189148	-1.67529165745	-3.16728329659	0.52939915657
-65.7562255859	-53.5886878967	104.608848572	-4.5628824234	-6.36031293869	1.15657329559
-65.6358795166	-54.7489891052	102.862098694	-6.90930891037	-9.71735572815	1.44978046417
-65.1332168579	-54.5778694153	100.297195435	-8.42796516418	-13.0288562775	1.47172677517
-62.8045005798	-54.3890113831	94.7495498657	-8.94244289398	-16.0123062134	1.05040049553
-58.6014060974	-54.499912262	87.4924240112	-8.58361911774	-18.2340698242	0.427998155355
-50.6517601013	-53.8328742981	73.291633606	-8.06707763672	-19.7751522064	-0.0958056747913
-48.2297935486	-53.0142097473	69.7967605591	-7.95259332657	-20.8763141632	-0.0750335901976
-49.1440658569	-53.4187698364	72.103187561	-8.10764122009	-21.6751251221	0.119850695133
-46.8548164368	-53.1973495483	68.0390472412	-8.32863330841	-21.9580574036	0.316377907991
-44.7406768799	-51.9616546631	63.6768684387	-8.35294532776	-22.1552314758	0.536968886852
-40.6949005127	-48.8350982666	55.3944587708	-8.25549888611	-22.0825061798	0.415216594934
-41.0369148254	-47.9633903503	54.4764823914	-8.17605686188	-22.0721950531	0.471760451794
