-0.228120803833	1.1826479435	0.0910272598267	-0.0112733840942	1.70599412918	0.040433883667
-0.22754573822	1.18313896656	0.0908491611481	-0.0104923248291	1.7059969902	0.0400049686432
-0.226615428925	1.18307495117	0.0914950370789	-0.00965785980225	1.70621347427	0.0394103527069
-0.225239753723	1.18311035633	0.0924184322357	-0.00876545906067	1.7063229084	0.0386557579041
-0.223496437073	1.18271648884	0.0938451290131	-0.00651264190674	1.70624697208	0.0373440980911
-0.220425128937	1.18655717373	0.0948576927185	-0.0017237663269	1.7064538002	0.0344851016998
-0.215627670288	1.19195914268	0.100144147873	0.00326800346375	1.70704066753	0.0315089225769
-0.210841655731	1.19546329975	0.107132077217	0.0067355632782	1.70770168304	0.0292567014694
-0.208194971085	1.19661092758	0.10941529274	0.00866293907166	1.70812118053	0.0278084278107
-0.206656932831	1.19701087475	0.109986543655	0.00952577590942	1.70796918869	0.026902794838
-0.207609653473	1.1969281435	0.105956315994	0.00997567176819	1.70818305016	0.0257408618927
-0.209048748016	1.1964277029	0.102853178978	0.0102028846741	1.70866954327	0.0243738889694
-0.210138320923	1.19425666332	0.10289812088	0.00965642929077	1.70934891701	0.0227111577988
-0.210755825043	1.19430112839	0.102424860001	0.00673842430115	1.70999324322	0.0215648412704
-0.212476968765	1.19565749168	0.0995811223984	0.00302338600159	1.71052443981	0.0205198526382
-0.215518474579	1.19460833073	0.0951074361801	0.00179672241211	1.71093416214	0.0187261104584
-0.219020605087	1.19155263901	0.0927278995514	0.00314569473267	1.71099865437	0.0166945457458
-0.220327615738	1.19219446182	0.0944035053253	0.00535488128662	1.71122539043	0.0144927501678
