-70.1427993774	-30.3901481628	141.099975586	7.85459423065	7.06286287308	-1.9539732933
-69.8818511963	-30.1995506287	140.322494507	7.79048347473	7.14113950729	-1.986358881
-70.0559692383	-30.0223503113	140.422561646	7.74531507492	7.0884475708	-1.93454813957
-69.7754364014	-29.5140857697	137.852005005	7.6185541153	6.88474941254	-1.77773892879
-69.1384429932	-29.1412086487	130.702346802	6.77304363251	5.92236232758	-1.45792651176
-70.1519699097	-29.7488384247	129.361297607	5.20270442963	4.52336168289	-1.11231684685
-70.3369903564	-29.3237991333	121.930038452	3.42247009277	3.44887876511	-0.761972367764
-68.5848770142	-27.8940029144	108.237007141	2.05103492737	2.94679117203	-0.653343737125
