-70.382598877	-54.1601486206	136.406509399	13.0135993958	10.3254756927	4.88822603226
-70.2730178833	-54.2121810913	136.142166138	13.0479030609	10.2753820419	4.93394041061
-70.2398910522	-54.3760986328	136.114089966	13.204331398	10.3331642151	4.95472431183
-70.4742889404	-54.4553260803	136.131088257	13.3864145279	10.4035978317	4.9156627655
-69.6006088257	-54.3253631592	134.533187866	13.1875886917	11.109670639	4.75528717041
-55.0886878967	-52.942855835	104.212593079	12.5969276428	13.7361125946	4.54082107544
-47.0377807617	-50.6822319031	87.4845962524	12.6317968369	16.7248706818	4.13804101944
-42.8079147339	-48.8338394165	79.2883377075	13.1379728317	19.4575920105	3.98931264877
-40.9261322021	-48.2718505859	77.5106811523	13.842672348	21.67827034	3.77762627602
-34.0918083191	-46.9326820374	66.8100509644	14.9748210907	23.5549583435	3.55511498451
-27.8579673767	-45.4981994629	57.481010437	16.5687885284	24.9384975433	3.21706318855
-25.2431297302	-45.4329948425	55.4187698364	18.4085674286	26.3033218384	2.73793363571
-23.0033874512	-45.8669700623	54.5989303589	20.8440132141	27.2473335266	2.51700496674
-21.4826965332	-48.3090934753	56.2968215942	23.7272777557	27.2038002014	2.71646618843
