-88.2381820679	-61.4478492737	139.317443848	9.07599544525	6.51101636887	0.00195756461471
-88.4994430542	-61.4071083069	139.052993774	9.18769359589	6.63507461548	-0.0226996578276
-87.9949493408	-61.7523612976	137.788192749	9.33521842957	7.18200397491	0.0764020159841
-85.6624221802	-62.5693206787	131.139526367	9.10021591187	8.04756450653	0.186566501856
-74.6798934937	-63.2271347046	105.707054138	7.95317792892	9.10294723511	0.371936500072
-67.6915893555	-59.0035820007	85.0561294556	5.26244592667	11.0540008545	0.464137405157
-68.4085235596	-54.8431968689	79.0287322998	1.55554592609	13.3408651352	0.810884237289
-66.989616394	-50.5205078125	67.4804382324	-2.79599523544	15.5977363586	1.19813227654
-67.569519043	-47.8720092773	62.5178451538	-7.14396333694	17.7119350433	0.967169761658
-65.941192627	-45.8395195007	56.5599899292	-10.9361276627	20.2032299042	0.109579972923
-64.3514556885	-44.7835998535	52.9278068542	-13.4770975113	22.1302280426	-0.453329920769
-64.7952728271	-44.9118423462	53.7149887085	-13.829533577	22.7731971741	-0.0190106201917
