0.0	-0.0	145.098114014	-111.494773865	72.9166564941	176.255905151
0.0	-0.0	144.831710815	-111.652244568	73.0932006836	176.333312988
0.0	-0.0	144.952957153	-112.114700317	73.174987793	176.595993042
0.0	-0.0	144.571273804	-113.359634399	73.9802780151	176.906417847
0.0	-0.0	144.458618164	-118.28440094	76.9667205811	177.790649414
0.0	-0.0	143.341430664	-127.96446991	81.6120529175	178.978775024
0.0	-0.0	142.000198364	-139.802886963	86.8257522583	-179.69493103
0.0	-0.0	138.25491333	28.7269248962	88.0442504883	1.10148382187
0.0	-0.0	133.913589478	20.0679931641	83.9835510254	1.31318235397
0.0	-0.0	131.922286987	15.4755716324	80.2204589844	1.57408761978
0.0	-0.0	136.715591431	12.7925949097	75.2214126587	2.18846869469
0.0	-0.0	140.518203735	11.1115198135	67.9800567627	1.83176195621
0.0	-0.0	141.568649292	10.467133522	58.9084243774	1.27676975727
0.0	-0.0	141.548141479	8.20598506927	50.3727455139	2.44476342201
0.0	-0.0	134.864959717	4.01593542099	45.1881866455	3.87318611145
0.0	-0.0	119.18006897	0.690871417522	42.396812439	4.23331975937
