0.0	-0.0	139.303741455	-109.296737671	70.8029632568	-173.839813232
0.0	-0.0	139.736419678	-109.21648407	70.7609176636	-174.066772461
0.0	-0.0	139.454452515	-110.356956482	70.5652313232	-174.300003052
0.0	-0.0	138.485321045	-113.784568787	69.1902770996	-174.317993164
0.0	-0.0	121.417388916	-121.089637756	64.5892333984	-173.91809082
0.0	-0.0	118.430877686	-133.113922119	55.7310180664	-173.643569946
0.0	-0.0	114.188766479	-146.392578125	44.6971244812	-172.891311646
0.0	-0.0	102.888565063	-158.17024231	33.6932907104	-172.873962402
0.0	-0.0	83.7370910645	-166.750564575	25.0651378632	-174.941375732
