-72.9372406006	-25.1471405029	144.015182495	9.69615936279	6.94188117981	1.18161046505
-73.5542602539	-24.548242569	143.721908569	9.74652385712	7.03567266464	1.10178697109
-74.2621917725	-24.1220855713	144.110351562	9.63629245758	7.18205356598	1.21956574917
-74.8447723389	-23.5662841797	144.009338379	8.72916698456	7.12003707886	1.44808387756
-76.3197937012	-23.6569499969	144.626663208	5.72605085373	6.16734266281	1.63100230694
-78.2302856445	-23.2618808746	144.426315308	1.11812853813	4.21298694611	0.989662230015
-80.2747268677	-23.1642150879	144.607299805	-2.77609705925	1.58939278126	-0.0279215276241
-82.6360626221	-23.1652984619	146.145446777	-4.82832336426	-1.45583772659	-1.09326374531
-83.7313842773	-23.387676239	146.760238647	-5.90463399887	-4.42007112503	-1.88701462746
-84.4706344604	-23.1844711304	146.952194214	-7.49635982513	-6.89596223831	-2.60145068169
-85.056930542	-23.1539859772	146.980453491	-10.4584283829	-8.93020915985	-2.85237288475
-84.8185501099	-23.3049621582	146.229446411	-14.3441839218	-10.9721755981	-3.05254101753
-83.9192886353	-23.4316864014	141.550308228	-16.6259632111	-12.6347866058	-3.31353664398
-81.1746673584	-22.4439105988	126.325889587	-16.9603862762	-13.4918489456	-3.32766342163
-79.2081985474	-20.9909420013	115.025192261	-16.9485683441	-13.5258579254	-3.05552005768
-79.0358963013	-20.0930480957	111.652206421	-17.0611629486	-13.37429142	-3.02026963234
-76.9734344482	-18.8155212402	99.5410842896	-17.276594162	-13.2131261826	-2.90915679932
-76.0132369995	-16.814699173	90.3047866821	-17.4807529449	-13.1991462708	-2.89339494705
-77.1097259521	-17.2770519257	94.5528411865	-17.1425247192	-13.0925655365	-2.87402677536
-79.2874069214	-18.7451057434	106.674102783	-16.8470096588	-12.9457464218	-2.86377310753
-80.4058456421	-19.6167354584	113.183486938	-17.1798000336	-13.5641889572	-2.42811727524
-80.0130767822	-18.6237888336	109.675796509	-18.6324615479	-14.6362438202	-1.34285056591
-78.406211853	-16.9724235535	95.7361450195	-20.9422874451	-15.377325058	-0.0875304713845
-78.7723083496	-16.5486736298	95.6965789795	-21.6691665649	-15.4583339691	0.0285071842372
-78.1337203979	-16.6266212463	94.3817062378	-20.5760803223	-14.8554258347	-0.422571271658
-78.8722457886	-17.6104755402	103.777229309	-19.237411499	-14.01603508	-0.845019340515
-81.2754898071	-18.6120033264	117.157409668	-18.22057724	-13.308590889	-0.913132190704
-79.8585586548	-17.474773407	108.965255737	-17.7360992432	-12.7892999649	-0.935180008411
