-19.1187114716	0.430871546268	35.9704246521	-16.6176719666	9.96647262573	-33.1030082703
-18.8704433441	0.778758764267	35.9278450012	-16.2296409607	10.3117036819	-32.9314193726
-18.7698688507	0.904819011688	35.7364311218	-16.036529541	10.7237997055	-32.6974067688
-19.5618095398	1.33134651184	35.5478363037	-16.5309123993	11.1472644806	-32.4598846436
-22.8980064392	1.83445131779	36.7662010193	-19.0622882843	11.0938434601	-32.008518219
-25.9597473145	1.02660286427	39.2541351318	-23.0868434906	11.1588020325	-31.4024887085
-28.4635181427	0.494108498096	40.9247283936	-26.6845817566	10.5601863861	-30.4235630035
-30.2405452728	0.428006380796	42.0478057861	-29.857383728	9.91111755371	-29.0350418091
-31.0024299622	1.00731039047	41.6884498596	-32.1486625671	9.78607463837	-26.8617172241
-31.7959823608	1.59120321274	41.7260932922	-33.436466217	10.6025676727	-23.5841732025
-31.7756576538	2.11530280113	41.5588264465	-31.9255428314	13.5883588791	-19.0811004639
