0.0	-0.0	-141.167526245	172.389480591	78.6821975708	-119.063835144
0.0	-0.0	-141.242507935	172.533920288	78.664024353	-119.551635742
0.0	-0.0	-141.31401062	172.326705933	78.3183059692	-119.518089294
0.0	-0.0	-140.754577637	172.002838135	79.1170730591	-117.939460754
0.0	-0.0	-138.018508911	171.873779297	78.9957733154	-117.307662964
0.0	-0.0	-129.555511475	171.863998413	77.8980941772	-117.926811218
0.0	0.0	-116.500366211	171.431488037	77.7272567749	-117.490379333
0.0	0.0	-104.426597595	171.798110962	78.1477203369	-117.37612915
0.0	0.0	-93.5593566895	173.036895752	78.6827316284	-116.841278076
0.0	0.0	-82.3577423096	174.255783081	78.2199935913	-117.314582825
0.0	0.0	-71.3213500977	177.64894104	77.9939880371	-116.865524292
0.0	0.0	-64.9346237183	-173.174179077	76.5613021851	-117.896392822
0.0	0.0	-66.4032897949	-162.729003906	76.6848297119	-119.456016541
0.0	0.0	-70.3850631714	-158.282943726	77.8695983887	-119.500419617
0.0	0.0	-73.3528213501	-154.545074463	81.2160110474	-118.689811707
