-0.0355310440063	1.07809019089	0.215821027756	0.121267318726	1.5938256979	0.0279207229614
-0.0321366786957	1.07706165314	0.217694759369	0.121849775314	1.59511315823	0.0300415754318
-0.0309953689575	1.07668578625	0.219534277916	0.122431516647	1.59637391567	0.0328185558319
-0.0303943157196	1.0756393671	0.221363186836	0.123187065125	1.598279953	0.0359506607056
-0.0295634269714	1.07342469692	0.223741769791	0.12371301651	1.60158073902	0.0406736135483
-0.0276868343353	1.0706076622	0.227822542191	0.124625205994	1.60820364952	0.0479564666748
-0.0230672359467	1.06727480888	0.234094142914	0.125051021576	1.61702823639	0.0562348365784
-0.0104842185974	1.05894327164	0.248367667198	0.124254465103	1.62351250648	0.0637645721436
0.00597834587097	1.05418777466	0.26483631134	0.123200416565	1.62634706497	0.0708239078522
0.0177648067474	1.05190849304	0.278035640717	0.121802091599	1.62875699997	0.0767117738724
0.0212581157684	1.04792284966	0.286205172539	0.120366573334	1.63202488422	0.0806649923325
0.0187983512878	1.04328250885	0.29265666008	0.120012998581	1.63798213005	0.0833002328873
0.0198788642883	1.04109406471	0.300333619118	0.120532989502	1.64732086658	0.0849608182907
