-0.00818347930908	1.36797320843	-0.000718832015991	0.0500087738037	1.69516408443	-0.128414511681
-0.00913095474243	1.36869382858	-0.00194370746613	0.0484087467194	1.69470739365	-0.128739833832
-0.0104122161865	1.36919176579	-0.00333476066589	0.0472750663757	1.69452774525	-0.129610300064
-0.0111949443817	1.37032556534	-0.00446605682373	0.0462636947632	1.69461476803	-0.131008625031
-0.0120275020599	1.37054204941	-0.00495541095734	0.0454061031342	1.69442546368	-0.132219791412
-0.0105142593384	1.36932349205	0.00221645832062	0.0449500083923	1.69207799435	-0.131829738617
-0.00559949874878	1.36703062057	0.0100448131561	0.04527759552	1.68603956699	-0.12953877449
-0.00582265853882	1.36211681366	0.0122867822647	0.0466222763062	1.67961978912	-0.126519680023
-0.00551295280457	1.3587975502	0.015705704689	0.0491671562195	1.67398023605	-0.124205350876
-0.00642347335815	1.35507726669	0.0186634063721	0.0518500804901	1.66862595081	-0.122310161591
-0.0051097869873	1.35205590725	0.0223157405853	0.0553374290466	1.66498780251	-0.121324658394
-0.00199937820435	1.3500623703	0.0264179706573	0.0587232112885	1.66285777092	-0.120929718018
0.000964879989624	1.34991085529	0.0289546251297	0.0615673065186	1.66149830818	-0.120832681656
0.00239014625549	1.35371434689	0.0254726409912	0.0633296966553	1.66142404079	-0.120896816254
0.00254654884338	1.35854780674	0.0208781957626	0.0643877983093	1.66266906261	-0.121462702751
