-66.0755004883	-28.6426277161	146.787582397	10.7876176834	18.7111759186	2.10043978691
-66.2028579712	-28.4508476257	146.47819519	10.8431396484	18.6624164581	2.08021306992
-66.197769165	-28.4195404053	146.614349365	10.852678299	18.5239925385	2.07421040535
-65.7613372803	-28.4954051971	146.248275757	10.3457489014	18.0617351532	2.03880119324
-64.5203933716	-28.8736209869	147.260757446	9.55393218994	17.5578575134	1.71492183208
-60.6501808167	-29.972234726	146.6224823	9.55696964264	17.6974315643	1.62635648251
-56.3541984558	-30.994966507	146.194869995	9.53457927704	18.0459957123	1.903039217
-51.7720451355	-32.6422691345	143.751571655	9.64631938934	18.4292869568	2.11505866051
-48.53956604	-32.430065155	131.598358154	11.2778272629	17.7670001984	1.83689880371
-47.7723236084	-32.8901252747	132.989135742	15.798705101	16.4587345123	0.482199251652
-48.7181549072	-32.216129303	132.893432617	22.0349578857	14.5731554031	-1.12154328823
-47.8436279297	-30.08659935	119.771286011	27.9323978424	12.731842041	-2.00817990303
-44.8890953064	-27.6726570129	107.030509949	31.3084583282	10.9629955292	-2.17825746536
-43.2731704712	-24.9195251465	90.684387207	32.455696106	9.40809059143	-2.31235718727
-41.8833656311	-22.9564857483	79.0843429565	32.4719581604	8.40703487396	-2.08464288712
-42.6352272034	-22.3567504883	79.9621658325	31.5740852356	7.6519985199	-1.94139027596
-45.9560279846	-24.9081821442	102.031707764	29.8608837128	6.48391675949	-1.83343052864
-49.0936737061	-27.4868831635	115.127975464	27.6505069733	4.36154937744	-1.79918074608
-50.0508079529	-26.717956543	111.428161621	25.6943035126	1.92735946178	-2.21185350418
-51.4113464355	-25.0780105591	104.340423584	23.601392746	0.682713508606	-2.40313267708
-53.3169288635	-23.3320446014	98.0284423828	21.1488742828	0.320324152708	-2.34456253052
-54.0605430603	-22.3231315613	90.7590179443	18.3652439117	0.239496350288	-2.29603338242
-54.1061973572	-20.9749221802	80.1598205566	15.1534471512	0.866463899612	-2.07811880112
-54.101184845	-19.4411010742	63.7547607422	12.8669195175	1.75948512554	-2.00284743309
-54.2327041626	-17.8827972412	51.8678588867	11.9541702271	2.33319449425	-1.95359373093
-54.0473327637	-15.2933235168	43.5088310242	11.6643161774	2.26881074905	-1.78498232365
-55.7162284851	-15.5876054764	48.0573310852	11.5164871216	1.77177727222	-1.58953607082
-56.8278160095	-16.7687187195	57.0736198425	11.5209550858	1.56809055805	-1.20369458199
-57.2180595398	-17.3330135345	63.7899436951	11.7841749191	1.37487363815	-1.00958359241
-52.680721283	-10.9947185516	30.9529838562	12.2558221817	1.11742019653	-0.937357187271
-52.7230110168	-9.93503761292	19.3835868835	12.3410081863	0.478428095579	-0.931282758713
-54.0376815796	-8.67272186279	18.019536972	12.1024236679	0.246369063854	-0.774748563766
-55.6003875732	-9.41297912598	32.4083442688	11.7874526978	0.2624976933	-0.608697116375
-55.5699806213	-11.1931438446	50.0163269043	11.6895809174	0.674276769161	-0.626271367073
-56.3517227173	-12.6767930984	61.0931663513	11.7804861069	0.995738685131	-0.721599042416
-57.8243293762	-13.9274740219	70.4834213257	12.4453039169	1.01950657368	-0.958614289761
-58.4808578491	-14.0275974274	73.253944397	13.8393278122	0.688170313835	-1.52060294151
