-78.3089752197	-15.8294000626	141.969512939	6.73359727859	2.38759160042	-2.07150292397
-78.2844543457	-15.7487516403	142.039993286	6.76802921295	2.40895485878	-2.18561816216
-78.1880722046	-15.8538551331	141.742111206	6.73805189133	2.44585323334	-2.25417613983
-78.0680084229	-15.9630775452	141.565612793	6.80322122574	2.20652794838	-2.38296580315
-77.6670074463	-16.0136203766	141.011749268	8.11515045166	0.968002974987	-2.70618247986
-76.9938049316	-15.7011585236	139.902069092	11.2840747833	-1.20072722435	-3.3662405014
-76.2559204102	-15.4246807098	139.684951782	14.9733867645	-3.68066763878	-4.16723632812
-75.0080718994	-15.089715004	138.866851807	18.7668933868	-5.71937417984	-5.40947818756
-73.7614059448	-14.6738443375	136.669754028	22.6964187622	-7.11596059799	-7.2746553421
-70.4814605713	-14.2323150635	127.280914307	24.2992973328	-8.22722816467	-7.99403905869
-65.0213012695	-13.7824926376	112.704711914	23.6646823883	-8.61935329437	-7.78276348114
-63.8149299622	-13.0228633881	107.251831055	22.7179222107	-8.60835552216	-7.29104804993
-63.3001556396	-12.1467018127	101.100090027	21.7381191254	-8.40125370026	-6.68924808502
-66.7756347656	-12.3451604843	109.22807312	20.6993045807	-8.10612773895	-6.07321071625
-68.3126296997	-12.4167232513	109.990539551	19.4720668793	-7.82504558563	-5.73623895645
-69.0470428467	-12.1270132065	108.329719543	18.5429229736	-7.82505846024	-5.45335197449
-68.5617599487	-12.0069932938	103.247772217	17.504863739	-8.05005264282	-5.10058450699
-67.3749084473	-11.6680002213	95.8668899536	16.2595252991	-7.81456708908	-4.73787736893
-66.1132125854	-11.0945653915	88.1910400391	15.4748458862	-7.00364494324	-4.58659362793
-64.9294586182	-10.4886522293	83.4057846069	15.3426656723	-6.19674158096	-4.34337806702
-64.3455734253	-10.5616664886	83.6432037354	15.4103908539	-5.88342475891	-3.97911477089
-67.3290328979	-11.7800388336	99.6031799316	15.6778774261	-6.22359418869	-3.7811384201
-68.0016403198	-12.2680149078	104.836883545	16.1126232147	-7.10140132904	-3.80920600891
