-0.20543718338	1.17594790459	0.154341578484	-0.0147578716278	1.7070171833	0.0413956642151
-0.205873966217	1.176176548	0.152341008186	-0.0138854980469	1.70701277256	0.0412836074829
-0.205523014069	1.17587554455	0.150876998901	-0.0134720802307	1.70687913895	0.0410330295563
-0.206701755524	1.17571210861	0.148332118988	-0.0152411460876	1.70639908314	0.041464805603
-0.212867975235	1.17734229565	0.142386436462	-0.0222995281219	1.70695197582	0.0419656038284
-0.223987579346	1.17794942856	0.131555557251	-0.0330736637115	1.70783245564	0.0419561862946
-0.237612247467	1.17949986458	0.116354465485	-0.0456681251526	1.70867276192	0.0411596298218
-0.250061511993	1.1824349165	0.101046562195	-0.0573365688324	1.70945298672	0.0397844314575
-0.259674072266	1.18432927132	0.0883847475052	-0.0666701793671	1.71008884907	0.0384593009949
-0.267375469208	1.18323779106	0.0797390937805	-0.073942899704	1.71078598499	0.0376996994019
-0.272577047348	1.18289041519	0.0739468336105	-0.0783603191376	1.71105027199	0.0377039909363
-0.274954795837	1.18239617348	0.07020008564	-0.0797383785248	1.7110363245	0.0379779338837
-0.273608446121	1.18155252934	0.0720911026001	-0.0793347358704	1.71118295193	0.0386643409729
-0.270022392273	1.18271028996	0.0747053623199	-0.0780003070831	1.71101725101	0.0391228199005
-0.267025709152	1.18410372734	0.0791471004486	-0.076514005661	1.7109310627	0.0387666225433
