-0.117131948471	1.06806898117	0.153854489326	0.0032651424408	1.69175922871	0.0202810764313
-0.116871356964	1.06695854664	0.152452468872	0.00282621383667	1.69164192677	0.0205436944962
-0.116389751434	1.06679618359	0.151728153229	0.00261306762695	1.69156265259	0.0207014083862
-0.116547346115	1.06707036495	0.151698112488	0.0029776096344	1.69149959087	0.0206333398819
-0.120265960693	1.06768107414	0.148980021477	0.00429487228394	1.69051671028	0.0200684070587
-0.122978687286	1.06860899925	0.148482561111	0.00766396522522	1.68873012066	0.0193927288055
-0.123850822449	1.06828856468	0.148215293884	0.013120174408	1.68769907951	0.0180897712708
-0.122699260712	1.0667283535	0.149961709976	0.019181728363	1.68672096729	0.0161790847778
-0.12147974968	1.06684291363	0.151628732681	0.0243599414825	1.68598651886	0.014266371727
-0.121939659119	1.06684660912	0.149048089981	0.0278127193451	1.68547832966	0.0130014419556
-0.121434926987	1.06661331654	0.14891910553	0.0295307636261	1.68512868881	0.0124824047089
