-46.3996086121	-5.1917719841	12.5900306702	-19.231672287	27.0896530151	-33.8254165649
-46.1862945557	-5.31461429596	12.708729744	-18.8226680756	26.9504680634	-33.7124710083
-45.7375030518	-5.26890230179	12.5371618271	-18.3319168091	26.6636123657	-33.5786514282
-45.3927154541	-5.1223487854	12.3804483414	-17.2304420471	25.893497467	-32.7587814331
-44.6733093262	-4.1717338562	10.3715705872	-15.2101106644	25.3835296631	-31.6024780273
-43.8006591797	-1.95350658894	2.08758568764	-12.6506996155	26.4930934906	-31.1643772125
-42.5601882935	0.181883990765	-1.91772794724	-10.2891511917	28.2510375977	-31.092830658
-41.340045929	1.88076043129	-7.39142847061	-8.29633808136	30.1361427307	-30.7402191162
-39.5909309387	3.33403944969	-11.1816072464	-7.24109888077	33.2681655884	-31.2026500702
-37.9441490173	3.69767713547	-13.44647789	-8.77032566071	39.3387947083	-32.6650810242
-36.2674255371	3.69213318825	-11.7760620117	-9.55393600464	44.295463562	-32.5353775024
-34.8517494202	3.11298489571	-9.3545217514	-6.9962978363	45.2595558167	-29.3627185822
-33.8145637512	1.76544380188	-2.29991650581	-3.08394670486	42.1124038696	-25.4132289886
-33.8740081787	0.934768736362	-0.313576996326	2.09228491783	38.590877533	-18.8944377899
-33.3729667664	0.00448249047622	0.454253792763	4.96104288101	37.1956062317	-14.4051713943
-32.2975540161	-0.85708463192	0.108371533453	6.07241249084	36.3056869507	-11.941901207
-30.9146900177	-1.35036385059	-0.586875200272	6.51102590561	35.3161087036	-10.5941143036
-28.6044540405	0.11979971081	-6.38956308365	6.36198663712	34.775680542	-10.4067993164
-27.1027469635	3.95547699928	-15.4916400909	6.21545886993	34.7106590271	-10.9054203033
-27.144733429	7.9258108139	-22.4779758453	5.99379777908	34.9982185364	-11.4466524124
-28.3505744934	10.7442417145	-28.0661869049	5.82074832916	35.1873283386	-11.780837059
-28.7881832123	11.7215270996	-25.4961109161	5.50135087967	35.3431129456	-11.9520044327
-28.3762569427	10.1239595413	-11.3117198944	3.8845770359	36.4121627808	-13.0743579865
-29.2121639252	10.7371921539	-10.5774402618	0.645353615284	37.8190116882	-16.0828475952
-30.2711486816	11.6191959381	-13.3204479218	-1.8845846653	38.8920593262	-18.3907146454
-32.2644309998	14.1141109467	-18.0215854645	-3.29628825188	39.7589530945	-19.7752723694
-32.4463272095	13.7851476669	-18.2159347534	-3.51137065887	39.927646637	-20.0700855255
-33.0996398926	14.7123584747	-18.8906669617	-3.10681867599	39.6555175781	-19.7015457153
-32.6656150818	16.6731815338	-20.2190361023	-2.42477893829	38.9957351685	-19.0309829712
-32.5321807861	22.9913883209	-29.324962616	-1.20497918129	37.9218978882	-17.7249202728
-29.8921985626	25.2387313843	-27.912481308	-0.299034625292	36.6859092712	-16.5345115662
-22.5363559723	18.2202358246	-7.73931264877	0.080367513001	35.2241973877	-15.5054349899
-20.4595394135	8.18104934692	13.7016878128	0.115897007287	33.6953849792	-14.5951719284
-19.8384094238	1.20576322079	25.6567268372	-0.0283254273236	32.5335121155	-13.9386520386
-18.9993782043	-0.326082676649	28.6012630463	-0.346779048443	31.894739151	-13.7441959381
-16.7132968903	3.54101538658	21.2017307281	-0.518779695034	31.5013179779	-13.8528289795
-18.1301250458	12.583152771	3.95356941223	-0.378071695566	31.237827301	-13.8116617203
-18.9932308197	13.0036621094	-0.85002553463	-0.380347132683	30.9192504883	-13.7874498367
-20.457572937	14.9401283264	-7.72207307816	-0.328770071268	30.7625541687	-13.7198343277
-20.7841529846	11.8759050369	-2.23093008995	-0.247048169374	30.6205730438	-13.6240959167
-19.8269424438	8.71964359283	11.6360797882	-0.263227462769	30.5572967529	-13.576716423
-20.1995334625	5.99373340607	19.1601657867	-0.384261906147	30.5998764038	-13.6291217804
-20.1572475433	6.10886621475	23.3868026733	-0.424222558737	30.7186927795	-13.6272554398
-20.4054412842	7.67051506042	22.2243480682	-0.385999232531	30.7929363251	-13.6203012466
-21.3597297668	9.01742076874	20.2025356293	-0.506689250469	30.8459243774	-13.7076978683
-22.3759593964	10.7477846146	18.0323352814	-0.780712962151	30.8594665527	-13.928653717
-23.1643981934	10.8488273621	17.6775856018	-0.959115147591	30.9461669922	-14.1614704132
-23.56158638	12.2516241074	15.7191228867	-1.13979971409	31.0508899689	-14.3296384811
-23.7359294891	13.8100786209	14.0176792145	-1.31806480885	31.1447410583	-14.4124355316
-23.863822937	14.8371982574	12.9793701172	-1.40563631058	31.1845245361	-14.5354251862
-23.8954105377	15.7865772247	12.4337873459	-1.34501469135	31.3414096832	-14.4883832932
-23.7174701691	17.8086891174	9.84928226471	-1.49783110619	31.4831752777	-14.5156021118
-23.482339859	19.5049762726	8.21298122406	-1.61931967735	31.5058898926	-14.5890026093
-23.3706264496	20.9799900055	7.1359539032	-1.60683894157	31.6180667877	-14.6901702881
-23.2787952423	23.1027202606	5.22166109085	-1.52128529549	31.7892684937	-14.7306699753
-23.3009681702	23.9771575928	4.34928703308	-1.47840690613	31.8272647858	-14.6986341476
-23.6814117432	25.7138328552	2.35995364189	-1.48678255081	31.8811511993	-14.4870471954
-23.6388931274	26.4812202454	2.25471043587	-1.56844842434	32.0049781799	-14.4767551422
-23.8945350647	27.417886734	1.27817928791	-1.65292036533	32.2108383179	-14.4791688919
-23.995092392	27.9974269867	1.00197196007	-1.6530777216	32.2971611023	-14.4550743103
-24.298084259	29.3921375275	-0.120446667075	-1.53288018703	32.2905197144	-14.3502283096
