0.0	-0.0	138.725402832	-111.358169556	75.713973999	177.845962524
0.0	-0.0	138.636260986	-111.604225159	75.6691360474	177.816879272
0.0	-0.0	138.260345459	-111.774269104	75.4335632324	177.734863281
0.0	-0.0	136.375457764	-112.02003479	75.1945648193	177.668075562
0.0	-0.0	135.624313354	-112.97605896	75.9632949829	177.897766113
0.0	-0.0	134.396270752	-117.180099487	78.6224441528	178.454269409
0.0	-0.0	124.132278442	-125.460693359	80.4922561646	178.915740967
0.0	-0.0	106.565010071	-131.814651489	79.6244506836	178.919082642
0.0	-0.0	101.334915161	-133.435195923	77.5066986084	178.402893066
0.0	-0.0	95.4671173096	-133.192230225	76.6394271851	179.380767822
0.0	-0.0	87.6098098755	-132.958847046	77.8421554565	179.761611938
0.0	-0.0	83.0293807983	-131.731567383	81.7886428833	-179.80418396
0.0	-0.0	83.2437362671	-130.215789795	89.5208511353	-179.647872925
0.0	-0.0	80.3089141846	49.6732711792	86.006439209	-0.0555054545403
0.0	-0.0	75.0578308105	48.9897270203	86.6281585693	-0.118854649365
0.0	-0.0	80.0688323975	48.4786300659	88.1680984497	0.518646240234
