-0.0342128276825	1.0391201973	0.248676657677	0.115786552429	1.62036657333	0.0392026901245
-0.0341005325317	1.03895449638	0.247951745987	0.116222381592	1.61955714226	0.0390043258667
-0.0342812538147	1.0392138958	0.247103452682	0.115582466125	1.61988866329	0.0386264324188
-0.0368218421936	1.04224324226	0.244443058968	0.110824584961	1.6268774271	0.0381295681
-0.0416870117188	1.05303406715	0.240836024284	0.104695558548	1.63960790634	0.0352654457092
-0.0449912548065	1.06669092178	0.240075588226	0.100340127945	1.65188980103	0.0299410820007
-0.043972492218	1.08787584305	0.242459416389	0.0976643562317	1.66084575653	0.0232353210449
-0.0394999980927	1.12761449814	0.242105722427	0.0963454246521	1.66710698605	0.0175249576569
-0.0376815795898	1.16792595387	0.235736727715	0.0956857204437	1.67120361328	0.0129780769348
-0.0384840965271	1.19104087353	0.229550600052	0.0958380699158	1.67396628857	0.00929760932922
-0.0411789417267	1.20290493965	0.221770405769	0.0970704555511	1.67480313778	0.00694012641907
-0.0416560173035	1.20678114891	0.21887087822	0.0988953113556	1.67520153522	0.00479960441589
-0.0396718978882	1.20564055443	0.223040103912	0.101271390915	1.67619872093	0.00289404392242
-0.0374939441681	1.2008715868	0.228447675705	0.105458974838	1.67572498322	0.00327944755554
-0.0365219116211	1.19846475124	0.227325201035	0.108553647995	1.67449593544	0.00493311882019
-0.0345811843872	1.19415736198	0.226392269135	0.105743408203	1.67957127094	0.00595927238464
-0.0309867858887	1.18814718723	0.227692365646	0.102174520493	1.68226468563	0.00671219825745
-0.0248715877533	1.18609428406	0.229096055031	0.0982100963593	1.68267536163	0.00781202316284
-0.015745639801	1.18258929253	0.235605955124	0.0952370166779	1.68248486519	0.00946760177612
0.00230383872986	1.17829585075	0.25009727478	0.0942566394806	1.68125617504	0.0108916759491
0.0199370384216	1.17987942696	0.261596679688	0.093496799469	1.6810451746	0.0120713710785
0.0291802883148	1.18987643719	0.263980865479	0.0924849510193	1.6813403368	0.0124790668488
0.0291180610657	1.20394313335	0.258463263512	0.0918898582458	1.68098008633	0.0119082927704
0.0262608528137	1.21311593056	0.251194477081	0.0918905735016	1.68044483662	0.0097668170929
0.0294170379639	1.21824729443	0.247967600822	0.0922322273254	1.68030869961	0.00704705715179
0.0365791320801	1.22288405895	0.247082233429	0.0925998687744	1.68013966084	0.00400233268738
0.0404286384583	1.22750031948	0.245671629906	0.0925850868225	1.67991912365	0.00155544281006
0.0370552539825	1.22674131393	0.243148088455	0.0918953418732	1.67976868153	-0.000680208206177
0.0310351848602	1.22170817852	0.239335894585	0.0912654399872	1.67910194397	-0.00281095504761
0.027939081192	1.21642315388	0.235936880112	0.0911090373993	1.67856252193	-0.00504791736603
0.023770570755	1.21110773087	0.234795093536	0.0909070968628	1.67798292637	-0.00745940208435
0.0191915035248	1.20822536945	0.232914805412	0.0904834270477	1.67507004738	-0.0100433826447
0.0144062042236	1.20831429958	0.229726672173	0.0886948108673	1.67077720165	-0.0116395950317
0.0107378959656	1.20836639404	0.226245522499	0.0865514278412	1.66966688633	-0.0135114192963
0.00868916511536	1.20677292347	0.223839402199	0.0850570201874	1.67030489445	-0.016189455986
0.00715065002441	1.2050601244	0.22262108326	0.0838918685913	1.67109012604	-0.0193698406219
0.00488424301147	1.2044198513	0.219912290573	0.0813069343567	1.67083382607	-0.0226093530655
0.00329089164734	1.20311021805	0.217436432838	0.0763239860535	1.67176365852	-0.0261149406433
0.00297355651855	1.20243394375	0.215312361717	0.0710067749023	1.67303514481	-0.029424905777
