0.0	-0.0	138.722473145	-110.683708191	77.5340499878	172.476425171
0.0	-0.0	138.848678589	-110.907730103	77.3001327515	172.487060547
0.0	-0.0	139.011505127	-110.735336304	76.9451217651	172.538513184
0.0	-0.0	138.796890259	-110.775672913	76.6173782349	172.606887817
0.0	-0.0	128.099746704	-111.132164001	76.3830413818	173.222625732
0.0	-0.0	118.230476379	-111.952629089	78.0627441406	173.976715088
0.0	-0.0	113.822532654	-114.113548279	80.8924560547	175.031784058
0.0	-0.0	110.347587585	-117.983322144	84.7453613281	176.172531128
0.0	-0.0	107.451263428	-122.48815155	89.4150466919	176.924880981
0.0	-0.0	103.886482239	54.1763801575	87.4449691772	-2.30842971802
0.0	-0.0	97.0810317993	52.2133674622	87.4286956787	-2.22921705246
0.0	-0.0	87.3500442505	50.9535522461	88.0098495483	-1.76519024372
0.0	-0.0	85.1885528564	48.0544548035	88.9016723633	-0.680429279804
0.0	-0.0	81.5138015747	-134.533889771	89.0481719971	-179.568206787
0.0	-0.0	70.9574661255	-135.483703613	86.29712677	-178.897781372
0.0	-0.0	56.8529853821	-135.268630981	84.0778961182	-178.700027466
0.0	-0.0	52.932674408	-135.437820435	83.2982254028	-178.63394165
0.0	-0.0	51.4545249939	-135.13218689	83.5135498047	-178.410751343
0.0	-0.0	48.5557098389	-135.414810181	84.4090042114	-177.832427979
0.0	-0.0	45.7564468384	-136.934448242	85.1147460938	-177.510955811
0.0	-0.0	41.7432594299	-140.24395752	85.131477356	-177.298233032
0.0	-0.0	41.6794548035	-147.269821167	84.1432189941	-177.064727783
0.0	-0.0	41.3836174011	-155.982971191	83.6647033691	-176.568862915
0.0	-0.0	41.2627449036	-161.611618042	84.2368545532	-176.50994873
0.0	-0.0	40.5033416748	-162.978942871	84.7272186279	-176.730880737
0.0	-0.0	34.0714950562	-160.639572144	84.553855896	-176.869247437
0.0	-0.0	23.2483024597	-156.981903076	84.684677124	-177.003067017
0.0	-0.0	13.4864702225	-155.440887451	84.7744293213	-177.169113159
0.0	-0.0	8.67517375946	-154.61265564	84.3429107666	-176.924591064
0.0	-0.0	10.815413475	-154.008270264	84.0074310303	-176.619674683
0.0	-0.0	25.1387252808	-153.886230469	84.0407104492	-176.222625732
0.0	-0.0	35.8213844299	-153.25038147	84.9091873169	-176.21987915
0.0	-0.0	37.9882049561	-152.066558838	86.2828292847	-176.459732056
0.0	-0.0	41.1267547607	-149.92666626	87.7720718384	-177.154708862
0.0	-0.0	46.267616272	-148.248046875	88.7335662842	-177.612106323
0.0	-0.0	51.21068573	-148.267288208	88.399772644	-177.798904419
