0.0	-0.0	137.190353394	-109.894203186	59.506942749	-179.838928223
0.0	-0.0	135.964004517	-110.079841614	58.7403335571	179.874542236
0.0	-0.0	135.329376221	-110.696502686	58.7925834656	-179.715652466
0.0	-0.0	134.392059326	-111.235099792	58.9407577515	-179.312606812
0.0	-0.0	121.841285706	-111.017242432	59.99842453	-179.060424805
0.0	-0.0	123.60484314	-108.780601501	63.9008789062	-179.565826416
0.0	-0.0	124.3881073	-105.199714661	69.7708740234	179.413009644
0.0	-0.0	106.883789062	-101.058395386	76.1564178467	178.180603027
0.0	-0.0	58.5800933838	-97.8712615967	79.8850097656	176.946670532
0.0	-0.0	37.7152519226	-95.7723236084	81.2588882446	176.269897461
0.0	-0.0	36.9232063293	-94.8233642578	81.201461792	176.456466675
0.0	-0.0	43.792263031	-95.0921173096	80.8396377563	176.84828186
0.0	-0.0	55.5961036682	-95.7555389404	81.0537872314	177.189437866
0.0	-0.0	65.2604522705	-97.0804367065	82.1231765747	177.450515747
0.0	-0.0	68.6153488159	-98.9563064575	83.9164581299	177.482894897
0.0	-0.0	57.0889816284	-100.349891663	85.5920410156	177.279190063
0.0	-0.0	35.4739608765	-101.091079712	87.9786148071	176.928070068
0.0	-0.0	30.9303207397	-101.502853394	89.6016540527	176.669265747
0.0	-0.0	32.6314163208	78.7305221558	89.1396408081	-3.56635522842
0.0	-0.0	39.1040039062	77.6392211914	89.3609390259	-3.05522322655
0.0	-0.0	48.0038795471	73.6651306152	89.8573760986	-2.58210515976
0.0	-0.0	59.7141227722	-115.971199036	89.6573028564	176.542541504
0.0	-0.0	66.7610397339	-126.676292419	88.9192810059	174.720428467
0.0	-0.0	65.309715271	-132.717529297	87.9695281982	173.578048706
0.0	-0.0	61.9052734375	-134.099822998	87.7962493896	174.316482544
0.0	-0.0	59.6020431519	-133.399047852	87.1033782959	175.392150879
0.0	-0.0	35.7368278503	-132.027832031	86.3780899048	175.477371216
0.0	-0.0	7.27333545685	-131.375457764	86.1357498169	175.459991455
0.0	0.0	-0.648419618607	-130.394546509	86.3832168579	175.480194092
0.0	0.0	-5.95374345779	-129.681335449	86.2419509888	175.791809082
0.0	0.0	-15.9546756744	-129.657424927	85.9269180298	175.937362671
0.0	0.0	-29.2567176819	-129.763870239	85.7300567627	176.338287354
0.0	0.0	-39.5366325378	-130.221160889	86.4163589478	176.32119751
0.0	0.0	-44.1506652832	-131.236083984	86.5575180054	176.545837402
0.0	0.0	-45.0652656555	-133.054870605	86.1318511963	177.697341919
0.0	0.0	-34.3394126892	-137.762390137	86.2479171753	178.813964844
0.0	0.0	-33.5057449341	-144.621795654	86.6598358154	179.258132935
0.0	0.0	-37.4811782837	-148.227798462	87.0849380493	179.221603394
0.0	0.0	-43.6264610291	-149.023269653	86.9671554565	179.028137207
0.0	0.0	-50.456363678	-146.98475647	85.8691482544	178.368835449
