-0.141936540604	1.04061889648	0.126522541046	-0.0118832588196	1.71250891685	-0.0169122219086
-0.141225576401	1.04099345207	0.126896858215	-0.0115761756897	1.71243464947	-0.0173929929733
-0.141350030899	1.04049515724	0.126006126404	-0.0117835998535	1.711997509	-0.0173959732056
-0.142393112183	1.03953146935	0.123239040375	-0.0129315853119	1.71179354191	-0.0170211791992
-0.147207736969	1.03849959373	0.118813157082	-0.0181126594543	1.71284735203	-0.0161613225937
-0.156767845154	1.03700566292	0.112025141716	-0.0282816886902	1.71484518051	-0.0161465406418
-0.170065879822	1.03743934631	0.103814721107	-0.039962053299	1.71593153477	-0.0182068347931
-0.182847261429	1.03951263428	0.0970275402069	-0.0501580238342	1.71741735935	-0.0223906040192
-0.191970825195	1.04089021683	0.0925673246384	-0.057781457901	1.71991860867	-0.0279663801193
-0.19868850708	1.04228448868	0.0886018276215	-0.0624942779541	1.72252035141	-0.0338859558105
-0.204294204712	1.04459547997	0.0851366519928	-0.0632128715515	1.72405266762	-0.0382137298584
-0.208930015564	1.049523592	0.0833457708359	-0.0613915920258	1.72539019585	-0.0405883789062
-0.209738254547	1.05120706558	0.0844233036041	-0.0590093135834	1.72661757469	-0.0425705909729
-0.20573091507	1.05016469955	0.0859107971191	-0.0566647052765	1.72787988186	-0.0446121692657
-0.201840162277	1.05136799812	0.0895154476166	-0.0542502403259	1.72870337963	-0.0467712879181
-0.199039936066	1.05196356773	0.0889182090759	-0.0510103702545	1.72949695587	-0.0495653152466
-0.19722533226	1.0530397892	0.0904471874237	-0.0470066070557	1.7306073904	-0.0530664920807
-0.196337938309	1.0537211895	0.0906820297241	-0.0424137115479	1.73220062256	-0.0575017929077
-0.195631742477	1.05327367783	0.0898678302765	-0.0376582145691	1.7340875864	-0.0628366470337
