0.0	-0.0	141.342422485	-110.200614929	69.201210022	179.002105713
0.0	-0.0	141.253814697	-110.352981567	69.1647109985	179.044815063
0.0	-0.0	141.211364746	-110.473899841	68.7289047241	179.175445557
0.0	-0.0	139.141860962	-110.305931091	66.4811248779	179.091171265
0.0	-0.0	132.406585693	-105.748641968	62.0865936279	178.301895142
0.0	-0.0	125.898880005	-95.2043151855	59.2719154358	178.395095825
0.0	-0.0	112.450798035	-86.463470459	57.2327690125	176.898574829
0.0	-0.0	99.212310791	-82.6025085449	55.2156105042	175.476028442
0.0	-0.0	95.8519363403	-81.4425125122	53.7391471863	174.611618042
0.0	-0.0	90.3673706055	-80.8560638428	53.1010360718	174.342926025
