-74.3400115967	-32.0391273499	139.98425293	7.76573991776	5.91929006577	0.962163984776
-74.9755401611	-31.5968704224	141.521514893	7.92576026917	6.0296831131	1.05887150764
-73.8273010254	-31.8589763641	139.956466675	8.26041412354	5.76464557648	1.19266068935
-74.4684371948	-31.8911647797	139.721282959	8.01368904114	5.33480930328	1.53118383884
-74.2904052734	-31.8487567902	127.928230286	7.06112003326	4.16005325317	1.99492478371
-74.5066070557	-32.3093338013	113.947593689	5.1843996048	3.025629282	2.49898147583
-75.9200134277	-35.5833778381	113.76335907	3.46500730515	2.41830992699	2.61620736122
-77.8441009521	-35.3819580078	108.75969696	1.70528864861	1.95327973366	2.87154984474
-75.6802444458	-33.1503334045	94.5514526367	0.479096740484	1.58680796623	3.06758379936
