-0.00360178947449	1.36441028118	-0.0192370414734	0.0591640472412	1.70749652386	-0.16558432579
-0.00414443016052	1.36472439766	-0.0182856321335	0.0587439537048	1.70688486099	-0.164643406868
-0.00412845611572	1.36612069607	-0.0173993110657	0.0586276054382	1.70693004131	-0.164319634438
-0.00536298751831	1.36537885666	-0.0165942907333	0.0584444999695	1.70660340786	-0.164086818695
-0.00568675994873	1.36474919319	-0.0148360729218	0.0578246116638	1.70696437359	-0.16376888752
-0.00950717926025	1.36657178402	-0.0176366567612	0.0565791130066	1.70970320702	-0.164998650551
-0.016211271286	1.3771276474	-0.0210654735565	0.0531334877014	1.71681511402	-0.169532895088
-0.0267772674561	1.39047443867	-0.0213568210602	0.0490639209747	1.72412526608	-0.177164316177
-0.0359039306641	1.40607333183	-0.0190491676331	0.0463361740112	1.7295820713	-0.186070919037
-0.0431199073792	1.42386949062	-0.0174351930618	0.0446047782898	1.73278367519	-0.194866776466
-0.0496819019318	1.44093227386	-0.0183038711548	0.0435631275177	1.73489618301	-0.203468561172
-0.0561552047729	1.45561683178	-0.0207976102829	0.0423519611359	1.73646175861	-0.212055444717
-0.0662698745728	1.46789360046	-0.0242266654968	0.0403938293457	1.73796820641	-0.220401763916
-0.0794053077698	1.47431147099	-0.0247046947479	0.0379953384399	1.73920881748	-0.227506041527
-0.0894303321838	1.47745752335	-0.0295413732529	0.0350222587585	1.74044799805	-0.232828140259
-0.0999007225037	1.47255575657	-0.0424003601074	0.0315172672272	1.74157953262	-0.236448526382
-0.110123872757	1.46424520016	-0.0548228025436	0.0270581245422	1.74240362644	-0.238655805588
-0.116045951843	1.46058869362	-0.0597822666168	0.0229682922363	1.74334669113	-0.241158246994
-0.116169452667	1.46229279041	-0.0606820583344	0.0209662914276	1.74461352825	-0.244685173035
-0.113858938217	1.46304428577	-0.0587223768234	0.0209801197052	1.74574840069	-0.248504161835
-0.113810777664	1.45932650566	-0.057683467865	0.0222508907318	1.74625301361	-0.252375125885
-0.113982200623	1.45394349098	-0.0559931993484	0.0241858959198	1.74686217308	-0.256253242493
-0.113286495209	1.45062732697	-0.0558466911316	0.0258858203888	1.74736106396	-0.261119365692
-0.11289358139	1.44947886467	-0.0578219890594	0.0275595188141	1.74813067913	-0.267281413078
-0.112545013428	1.44910514355	-0.060893535614	0.0280425548553	1.74897539616	-0.274829387665
-0.113579511642	1.44861125946	-0.0647057294846	0.0283563137054	1.7492647171	-0.283445358276
-0.114975690842	1.44761121273	-0.0688896179199	0.0301337242126	1.74900102615	-0.292884588242
-0.114519357681	1.44817233086	-0.0744090080261	0.0340971946716	1.74822497368	-0.30321097374
-0.112176179886	1.44881534576	-0.0796715021133	0.0397174358368	1.74710571766	-0.312103390694
-0.108510732651	1.4476121664	-0.0841933488846	0.0450403690338	1.74558329582	-0.316751241684
-0.104642391205	1.44654321671	-0.0869660377502	0.0491833686829	1.74240815639	-0.3197722435
-0.102720737457	1.44773244858	-0.0905721187592	0.0518674850464	1.73931825161	-0.324695825577
-0.102975606918	1.44820010662	-0.0954184532166	0.0534822940826	1.73497748375	-0.33042883873
-0.102992534637	1.44911646843	-0.101858735085	0.0550584793091	1.73300266266	-0.334910750389
-0.101453065872	1.45205235481	-0.106308221817	0.0565230846405	1.73328638077	-0.337077617645
-0.0989909172058	1.45579266548	-0.104629993439	0.0574955940247	1.73397481441	-0.33586192131
-0.0943336486816	1.4593411684	-0.0946618318558	0.0586857795715	1.73447549343	-0.33159673214
-0.0887215137482	1.4615650177	-0.0852763652802	0.0606274604797	1.73497152328	-0.327424764633
-0.085186958313	1.46180593967	-0.0805752277374	0.0629003047943	1.73555541039	-0.324273347855
-0.0829126834869	1.46277356148	-0.0815473794937	0.0645244121552	1.736130476	-0.321938753128
-0.0840995311737	1.46191596985	-0.0825064182281	0.064802646637	1.73613369465	-0.321852445602
-0.0869579315186	1.46013581753	-0.0845324993134	0.0649271011353	1.7374162674	-0.326853752136
