-68.6096954346	-17.0617523193	141.119506836	8.6123790741	3.21405076981	-1.01498329639
-69.3185577393	-16.6498088837	141.622299194	7.88687753677	2.95377349854	-0.803743779659
-70.208114624	-16.6645565033	141.934921265	7.51669740677	2.76068258286	-0.621459662914
-70.5920257568	-16.5024681091	142.019485474	7.45817089081	2.54131007195	-0.495395123959
-68.0163726807	-15.5877428055	123.024139404	8.42447757721	2.96948075294	-0.729514241219
-60.7893180847	-8.13127613068	68.7372894287	12.0879907608	4.20676517487	-1.47881639004
-60.2121124268	-5.36549758911	55.2770004272	16.3755493164	4.98795843124	-2.64178371429
-60.7328872681	-4.03295850754	49.3800125122	19.3259449005	5.21797657013	-3.32116389275
-60.1385345459	-3.97911596298	47.7445640564	20.6583862305	5.05837583542	-3.49978709221
-60.3991088867	-4.79759645462	49.7531242371	21.1313781738	4.12528038025	-3.45938777924
-62.0233268738	-6.5272564888	69.3075866699	20.5698337555	2.22088479996	-3.20744872093
-63.2344436646	-6.9980096817	72.2683639526	18.6588153839	0.350262641907	-3.08008146286
