0.0	-0.0	134.457015991	-109.832183838	77.0861206055	-176.49911499
0.0	-0.0	134.179779053	-109.88155365	76.9986572266	-176.54133606
0.0	-0.0	133.967895508	-109.641281128	77.1009902954	-176.555831909
0.0	-0.0	133.2396698	-108.738670349	77.2767486572	-176.726013184
0.0	-0.0	126.271865845	-107.732955933	78.9577178955	-176.146865845
0.0	-0.0	96.3967285156	-107.467987061	84.9152832031	-175.39465332
0.0	-0.0	94.2079849243	72.5971221924	85.7763061523	5.30015707016
0.0	-0.0	86.3745193481	72.0783920288	74.9537811279	6.21318101883
0.0	-0.0	79.854019165	71.2901000977	64.0529022217	6.84661912918
0.0	-0.0	68.7976531982	71.666519165	54.2565956116	6.33962631226
0.0	-0.0	64.5543289185	73.0760650635	47.1839141846	5.19882106781
0.0	-0.0	63.8523483276	74.7505569458	42.9805221558	4.25438976288
0.0	-0.0	59.6880989075	76.4020080566	40.4945297241	3.40733003616
0.0	-0.0	51.0377349854	77.9292144775	38.8737030029	2.27765917778
0.0	-0.0	46.317401886	79.2588653564	38.1888504028	1.31392347813
0.0	-0.0	47.9487342834	79.4516448975	37.2828941345	0.855227172375
0.0	-0.0	48.1734008789	78.9445877075	36.375377655	1.11161756516
0.0	-0.0	48.2220649719	77.5726165771	36.2882080078	1.96681463718
0.0	-0.0	47.3420410156	76.8572845459	35.7410202026	2.22075080872
0.0	-0.0	45.8066749573	76.3137054443	33.4477233887	2.65968203545
0.0	-0.0	43.4616317749	75.6797943115	30.9897651672	3.0544359684
0.0	-0.0	41.343585968	75.6099395752	29.6674919128	2.63473272324
0.0	-0.0	40.4235534668	75.9773178101	31.0355682373	0.6810734272
0.0	-0.0	40.3373298645	76.4186859131	35.3184967041	-1.03775584698
0.0	-0.0	42.0325889587	76.5527954102	43.3958091736	-1.39506733418
0.0	-0.0	43.6402130127	77.3013076782	50.2251319885	-0.0346737764776
0.0	-0.0	45.0505599976	76.8596191406	52.1517486572	2.04727077484
0.0	-0.0	49.9761734009	75.6527404785	50.8204307556	2.94870138168
0.0	-0.0	50.3031959534	75.3761367798	46.8893661499	2.72636461258
0.0	-0.0	48.1813087463	75.3335952759	43.7888832092	2.5256588459
0.0	-0.0	42.5961761475	75.5154724121	44.4277153015	1.85219061375
0.0	-0.0	36.7854042053	76.5466461182	47.0252532959	2.18953728676
0.0	-0.0	47.0841331482	76.2012634277	50.0550765991	3.55906581879
0.0	-0.0	53.6780548096	74.5613479614	52.1566429138	5.60171413422
0.0	-0.0	59.2031135559	72.2357940674	51.7170791626	7.20767402649
0.0	-0.0	63.8540000916	70.4604721069	50.2293586731	8.33626270294
0.0	-0.0	71.7772140503	70.3142318726	47.4777488708	8.87003326416
0.0	-0.0	62.2619781494	70.5967712402	45.5305633545	9.24908638
0.0	-0.0	45.6433448792	70.7947311401	44.54454422	9.54899215698
0.0	-0.0	46.6038398743	70.7873535156	43.4808769226	9.71802616119
0.0	-0.0	45.0065383911	70.090171814	43.0857505798	10.2741231918
0.0	-0.0	40.2890090942	69.1825637817	42.1115455627	10.7597608566
0.0	-0.0	28.6264877319	69.2467803955	39.2941627502	10.5241861343
0.0	-0.0	24.6348152161	69.5768585205	35.6329879761	9.69979763031
0.0	-0.0	25.4509773254	69.2187576294	33.5796318054	8.89145851135
0.0	-0.0	23.4370594025	69.3023834229	34.1201477051	8.8825674057
0.0	-0.0	17.3957176208	70.0154266357	34.9283828735	8.69707679749
0.0	-0.0	13.0383558273	70.0358963013	35.4725379944	8.89013385773
0.0	-0.0	12.2794809341	69.8212890625	36.0572280884	9.29381942749
0.0	-0.0	16.3730621338	69.632019043	36.3255462646	9.38961029053
0.0	-0.0	30.5676860809	69.6711120605	36.5753555298	9.2133398056
0.0	-0.0	32.9974975586	69.661277771	38.0994300842	8.99511241913
0.0	-0.0	36.3009033203	69.7766723633	43.4551544189	7.47782659531
0.0	-0.0	36.7184410095	69.5643539429	56.7046852112	5.47155332565
0.0	-0.0	36.3563728333	68.4181518555	70.6798782349	5.67494630814
0.0	-0.0	36.9222335815	67.4399795532	74.4127120972	6.7607216835
0.0	-0.0	38.4536056519	66.4138565063	73.2799758911	5.76008939743
0.0	-0.0	47.7797775269	66.8969421387	69.7427902222	5.42021036148
0.0	-0.0	55.3251342773	66.9910430908	66.9939880371	5.40869665146
0.0	-0.0	55.6870269775	66.1355056763	64.6548461914	6.12798881531
0.0	-0.0	55.3855819702	64.4687957764	59.4880218506	7.5420627594
0.0	-0.0	53.8047370911	61.9865112305	53.9375267029	9.34540462494
0.0	-0.0	53.7236938477	58.8176078796	56.0171661377	9.88067245483
0.0	-0.0	53.379119873	56.1408157349	61.5992774963	9.54767990112
0.0	-0.0	53.2588500977	56.6673660278	63.1020812988	9.45745754242
0.0	-0.0	52.9749526978	57.103187561	64.2892456055	9.35524559021
0.0	-0.0	52.3269767761	57.1017456055	68.0219802856	10.9759073257
0.0	-0.0	52.2445831299	62.0111961365	70.5392303467	16.0717220306
0.0	-0.0	52.116104126	71.5607070923	68.7077484131	28.4898281097
0.0	-0.0	52.3892707825	76.5082168579	64.3835830688	39.9735450745
0.0	-0.0	52.688331604	78.0483627319	60.8033218384	45.1825714111
0.0	-0.0	52.8736190796	78.4956512451	59.0694274902	46.3769950867
0.0	-0.0	52.4217376709	76.7275238037	58.7148666382	45.5111579895
0.0	-0.0	52.3362083435	77.3474578857	58.8309440613	41.1080627441
0.0	-0.0	50.3249740601	84.602722168	57.9130058289	31.9291858673
0.0	-0.0	50.50258255	99.7007369995	53.9883880615	15.6417379379
0.0	-0.0	50.6233177185	112.52922821	49.7647399902	-0.6300380826
0.0	-0.0	50.3710098267	115.478057861	45.6109695435	-9.05692577362
0.0	-0.0	49.5131568909	112.112304688	42.6713523865	-12.4185829163
0.0	-0.0	50.5224609375	107.785972595	41.080783844	-12.7627515793
0.0	-0.0	55.6572036743	102.559867859	41.2204856873	-11.4118556976
0.0	-0.0	58.1410751343	97.0391921997	42.2437286377	-8.74367237091
0.0	-0.0	59.4083595276	91.6038894653	42.7199249268	-6.2526473999
0.0	-0.0	59.7365455627	86.7494506836	41.8017616272	-3.86645245552
0.0	-0.0	59.9528846741	83.3360443115	40.1759605408	-2.86363124847
0.0	-0.0	60.1014900208	82.0808029175	36.9734382629	-3.79744887352
0.0	-0.0	60.0242958069	82.8838577271	34.1801261902	-5.1306385994
