-0.0326147079468	1.04178023338	0.203000545502	0.103132963181	1.62775063515	-0.0107133388519
-0.0319128036499	1.04153800011	0.202174186707	0.103287696838	1.62778806686	-0.0109994411469
-0.0309052467346	1.03994297981	0.201368808746	0.103592634201	1.62758982182	-0.0106022357941
-0.0295562744141	1.03759908676	0.201096892357	0.104858398438	1.62666130066	-0.00838875770569
-0.0258102416992	1.03484320641	0.20255947113	0.108329772949	1.62754273415	-0.00674223899841
-0.0202298164368	1.03411078453	0.207046031952	0.111716508865	1.6312712431	-0.00619578361511
-0.0136027336121	1.04006719589	0.219971179962	0.112175226212	1.63639855385	-0.00684022903442
-0.00113773345947	1.05134081841	0.240640997887	0.111531019211	1.64014148712	-0.0083212852478
0.0181903839111	1.06199252605	0.26448071003	0.111393451691	1.64193153381	-0.0105917453766
0.0359153747559	1.06944847107	0.281141638756	0.111842870712	1.64282298088	-0.0129708051682
0.0435004234314	1.0734616518	0.286492347717	0.112420082092	1.6429605484	-0.0145729780197
0.0377197265625	1.07131683826	0.283107757568	0.112849235535	1.64336979389	-0.0156430006027
0.0257754325867	1.06758618355	0.277720689774	0.112423181534	1.6446685791	-0.0152616500854
0.0176603794098	1.06742119789	0.274205684662	0.108602046967	1.64736199379	-0.0130084753036
