0.0	-0.0	143.180084229	-109.50579071	77.0003890991	-174.197799683
0.0	-0.0	144.924697876	-110.270187378	77.1375198364	-174.501586914
0.0	-0.0	144.42388916	-110.881660461	76.9684753418	-174.410186768
0.0	-0.0	143.044708252	-113.583244324	76.1886901855	-173.800384521
0.0	-0.0	140.122619629	-123.638114929	76.3489151001	-172.969390869
0.0	-0.0	140.787261963	-138.614517212	77.01171875	-171.620239258
0.0	-0.0	133.302581787	-156.067382812	77.9445343018	-170.03276062
0.0	-0.0	115.657875061	-172.206741333	78.9506149292	-168.752197266
0.0	-0.0	101.888374329	174.874435425	79.7723236084	-168.129974365
0.0	-0.0	92.5794677734	165.409912109	80.4714279175	-167.743865967
0.0	-0.0	86.6618118286	159.879959106	80.7449188232	-167.248046875
0.0	-0.0	74.4222640991	158.415512085	80.6906661987	-167.103897095
0.0	-0.0	65.3413848877	159.905227661	80.7603149414	-167.111038208
0.0	-0.0	65.8161621094	163.10710144	80.6874008179	-166.723022461
0.0	-0.0	68.4248275757	166.508010864	80.5587387085	-166.098434448
