-0.126110315323	1.09683024883	0.172246932983	0.0541965961456	1.62029755116	0.0550893545151
-0.125468730927	1.09738445282	0.172847986221	0.0545918941498	1.62071096897	0.0546888113022
-0.125233411789	1.0976780653	0.173170685768	0.0546736717224	1.62103974819	0.0543465614319
-0.125473499298	1.09694480896	0.173065423965	0.0547525882721	1.62148237228	0.0544619560242
-0.125862836838	1.09297072887	0.172155380249	0.0536057949066	1.62094068527	0.0544766187668
-0.126001834869	1.08469104767	0.169733285904	0.0501549243927	1.61606144905	0.054083108902
-0.124799013138	1.07617759705	0.166839718819	0.0439755916595	1.60445690155	0.0518155097961
-0.123167991638	1.06712937355	0.163394451141	0.0383105278015	1.59557521343	0.0513229370117
-0.120637893677	1.05789804459	0.161040306091	0.0338680744171	1.59167563915	0.0518783330917
-0.119479417801	1.05248737335	0.159487724304	0.0305769443512	1.59118151665	0.0530521869659
-0.121726989746	1.05004405975	0.156277060509	0.0272655487061	1.59138703346	0.0538672208786
-0.123406887054	1.05009007454	0.153075695038	0.0217740535736	1.59194552898	0.0540456771851
-0.122357368469	1.05031609535	0.152602791786	0.0157744884491	1.59286952019	0.0542275905609
-0.119067430496	1.05036664009	0.154135465622	0.0109264850616	1.59363722801	0.053505897522
-0.117257595062	1.05034303665	0.154539942741	0.00777411460876	1.59395515919	0.0524079799652
-0.117089033127	1.05003118515	0.153582215309	0.00453615188599	1.59489119053	0.0513043403625
-0.117255449295	1.05118012428	0.153378129005	0.000970840454102	1.59586811066	0.0500910282135
-0.120466947556	1.05934357643	0.153333425522	-0.000674247741699	1.59690213203	0.0493128299713
-0.125512838364	1.07543468475	0.151673793793	-0.000121355056763	1.59756088257	0.0490515232086
-0.133756875992	1.09774661064	0.147844552994	0.00101542472839	1.59800136089	0.048702955246
-0.142435789108	1.1134814024	0.142162680626	0.00188803672791	1.59857666492	0.0482339859009
-0.149175405502	1.11744117737	0.135200858116	0.00284385681152	1.59966301918	0.0478134155273
-0.153069972992	1.11237454414	0.126043081284	0.00366401672363	1.60037088394	0.0473005771637
-0.155566930771	1.11101424694	0.117017745972	0.00408267974854	1.60076320171	0.0467085838318
-0.154603004456	1.11400544643	0.12097120285	0.00441741943359	1.6016138792	0.0464713573456
-0.146980762482	1.11432206631	0.138361215591	0.00525808334351	1.60257256031	0.0461008548737
-0.136334896088	1.11942446232	0.154313325882	0.00596451759338	1.60330021381	0.0454074144363
-0.129888057709	1.12739551067	0.162685632706	0.00668907165527	1.60383212566	0.0447864532471
-0.130416870117	1.13228023052	0.162052631378	0.00727367401123	1.60454201698	0.0441823005676
-0.136031627655	1.12580037117	0.15443277359	0.00767612457275	1.60505926609	0.043841958046
-0.143136978149	1.12594223022	0.140795111656	0.00775766372681	1.60524582863	0.0437290668488
-0.148081302643	1.12665438652	0.130785703659	0.00775146484375	1.60534286499	0.0439165830612
-0.151608943939	1.12278556824	0.123516321182	0.00772094726562	1.60562944412	0.043995141983
-0.153331518173	1.12413978577	0.122142791748	0.00754690170288	1.60571420193	0.0440397262573
-0.146405696869	1.12731671333	0.135082244873	0.00795817375183	1.60612559319	0.0444114208221
-0.12384223938	1.12363028526	0.157266616821	0.00914931297302	1.60659301281	0.0439870357513
-0.0990903377533	1.12435626984	0.17817234993	0.0109086036682	1.60702705383	0.0435302257538
-0.0722708702087	1.12880051136	0.197597026825	0.0127351284027	1.60791194439	0.0432556867599
-0.0569241046906	1.13992583752	0.207618236542	0.0151097774506	1.60885775089	0.0430572032928
-0.0559589862823	1.14319479465	0.205409646034	0.0170197486877	1.6103798151	0.0434495210648
-0.0672693252563	1.14241445065	0.193198084831	0.0190708637238	1.61367058754	0.0449476242065
-0.0824205875397	1.13929080963	0.177445411682	0.0217533111572	1.61927640438	0.0465196371078
-0.0961260795593	1.13457107544	0.165041685104	0.0249423980713	1.62357592583	0.0471465587616
-0.103022575378	1.13551485538	0.160969495773	0.02840924263	1.62832462788	0.0479911565781
-0.0950181484222	1.14005851746	0.170009016991	0.0330491065979	1.63374483585	0.0478488206863
-0.0763154029846	1.14648294449	0.180385351181	0.0374472141266	1.63701093197	0.0470213890076
-0.0645473003387	1.1475417614	0.189367413521	0.0412995815277	1.63758230209	0.0453546047211
-0.0603542327881	1.14639925957	0.185745596886	0.046950340271	1.63670527935	0.0436265468597
-0.0601251125336	1.14191651344	0.177043795586	0.0542602539062	1.63375461102	0.0422077178955
-0.0592465400696	1.13261437416	0.169561505318	0.0633683204651	1.63090670109	0.0405812263489
-0.0549509525299	1.12545776367	0.164393901825	0.072628736496	1.62826812267	0.0399206876755
-0.050669670105	1.11932325363	0.165558695793	0.078519821167	1.62487578392	0.0408480167389
-0.0465469360352	1.11863994598	0.168245196342	0.0828070640564	1.62572526932	0.0429530143738
-0.0446932315826	1.11996936798	0.169324874878	0.0863738059998	1.62606799603	0.0467714071274
-0.0473847389221	1.11509823799	0.169852733612	0.0885343551636	1.62416648865	0.0527985095978
-0.0516250133514	1.11105561256	0.168995380402	0.0897104740143	1.62382161617	0.0594148635864
-0.0565459728241	1.10682618618	0.166912317276	0.0900142192841	1.62344956398	0.066841006279
-0.0613629817963	1.10292434692	0.161289095879	0.0901298522949	1.62228500843	0.072265625
-0.065324306488	1.09990561008	0.154432296753	0.0904293060303	1.62108492851	0.07661485672
-0.068594455719	1.09556794167	0.14701795578	0.091249704361	1.61957740784	0.0794075727463
-0.0677092075348	1.09511983395	0.147710084915	0.0929892063141	1.61819577217	0.0807280540466
-0.0630917549133	1.09242784977	0.160221457481	0.0954911708832	1.61707556248	0.0802984237671
-0.0536887645721	1.09335267544	0.173741340637	0.0982856750488	1.61693060398	0.0787298679352
-0.0483419895172	1.09461855888	0.177553772926	0.100350379944	1.61751496792	0.0763393640518
-0.04842710495	1.09451079369	0.1722407341	0.101777553558	1.61808717251	0.0739123821259
-0.0515880584717	1.09057629108	0.161480426788	0.102295398712	1.61852431297	0.0713905096054
-0.056428194046	1.08725714684	0.149331569672	0.102267980576	1.61842179298	0.0692917108536
-0.0608124732971	1.08279931545	0.139158964157	0.101701259613	1.61764502525	0.0674977302551
-0.0610237121582	1.07986342907	0.139613509178	0.100635290146	1.61727023125	0.0659811496735
-0.058925151825	1.07686805725	0.142848849297	0.09974193573	1.61719632149	0.0641795396805
-0.058632850647	1.07412755489	0.140831589699	0.0990359783173	1.61706221104	0.0620901584625
-0.0607171058655	1.06938934326	0.130926966667	0.0988388061523	1.61671197414	0.059889793396
-0.0641045570374	1.0695669651	0.122878313065	0.0987668037415	1.61665916443	0.0575094223022
-0.0670025348663	1.07043802738	0.114040970802	0.0984916687012	1.61648833752	0.0554225444794
-0.06862449646	1.06853818893	0.106033444405	0.0981998443604	1.61594033241	0.0532894134521
-0.0693821907043	1.0633238554	0.102565288544	0.0977191925049	1.61528432369	0.0512924194336
-0.0705959796906	1.05858135223	0.0996996164322	0.0974457263947	1.61457312107	0.0489664077759
-0.072350025177	1.05694103241	0.0947335958481	0.0972936153412	1.61337351799	0.0464799404144
-0.0748307704926	1.05843067169	0.0910613536835	0.097419500351	1.61322951317	0.0438253879547
-0.0754804611206	1.05870199203	0.0955579280853	0.0976150035858	1.6137689352	0.0409095287323
-0.0722742080688	1.05697083473	0.103911519051	0.0975713729858	1.61386334896	0.0380561351776
-0.0692608356476	1.0566637516	0.110375523567	0.0969088077545	1.61346912384	0.0355730056763
-0.0668773651123	1.05639672279	0.11418390274	0.0946383476257	1.61348223686	0.0332887172699
-0.0653715133667	1.05762481689	0.116723299026	0.092089176178	1.61397302151	0.0313794612885
-0.0639810562134	1.06020069122	0.12070453167	0.0929772853851	1.61492133141	0.0304088592529
-0.0603821277618	1.06265509129	0.128005623817	0.0960454940796	1.6154718399	0.0301290750504
-0.0454647541046	1.06847798824	0.150501251221	0.0987200737	1.61631190777	0.0301222801208
0.00227975845337	1.07281112671	0.200444579124	0.10031247139	1.61783754826	0.0306268930435
0.0670943260193	1.07549524307	0.241317749023	0.101355314255	1.61916255951	0.0306136608124
0.123916149139	1.08531117439	0.26073050499	0.101777076721	1.62065064907	0.0309228897095
0.165107488632	1.09577798843	0.266484618187	0.101152181625	1.62161707878	0.0314257144928
0.184426784515	1.10510909557	0.265439510345	0.100199699402	1.62181198597	0.0317562818527
0.185064554214	1.11410558224	0.26262652874	0.0987119674683	1.62128329277	0.0326436758041
0.167839288712	1.1201581955	0.259163379669	0.0974721908569	1.62061953545	0.0337617397308
0.13786482811	1.12013149261	0.253955841064	0.096625328064	1.62055814266	0.0352942943573
0.11300945282	1.10984504223	0.245273709297	0.0966243743896	1.62051570415	0.0365822315216
0.0958108901978	1.10433995724	0.2370865345	0.097799539566	1.62001812458	0.037914276123
0.0780153274536	1.10820448399	0.230795025826	0.099457025528	1.61900174618	0.0390337705612
0.0680644512177	1.11008024216	0.2274954319	0.101005315781	1.61863172054	0.0400769710541
0.0732321739197	1.11260890961	0.230352640152	0.102609395981	1.61865627766	0.0408661365509
0.066855430603	1.10408186913	0.228072762489	0.103794813156	1.61814427376	0.0408136844635
0.0573046207428	1.09666502476	0.22142970562	0.104560613632	1.61789476871	0.0402371883392
0.0491864681244	1.08922433853	0.215148210526	0.104474306107	1.61764574051	0.0391396284103
0.0424158573151	1.08514010906	0.210358142853	0.10408949852	1.61740446091	0.038022518158
0.0366785526276	1.0848839283	0.20545232296	0.103384017944	1.61732375622	0.0366380214691
0.0334138870239	1.08437716961	0.202561616898	0.102850914001	1.61710345745	0.0351068973541
0.0323283672333	1.08237588406	0.200372338295	0.102224826813	1.61714923382	0.0330994129181
0.0304872989655	1.07389307022	0.196630597115	0.102076292038	1.61725604534	0.0311148166656
0.0269296169281	1.07262587547	0.191764831543	0.102153301239	1.61718606949	0.0294692516327
0.0244271755219	1.07558619976	0.189656019211	0.102261304855	1.6174043417	0.0279686450958
0.0257911682129	1.09127426147	0.193269133568	0.10263133049	1.61774861813	0.0264918804169
0.0284190177917	1.11544680595	0.194373488426	0.10310125351	1.61788582802	0.025146484375
0.0367341041565	1.13354420662	0.197171092033	0.103798389435	1.61778414249	0.024001121521
0.0412521362305	1.14445972443	0.197119235992	0.104628562927	1.61767244339	0.0229425430298
0.0413918495178	1.13981473446	0.197968006134	0.105432271957	1.61784207821	0.0220761299133
0.0383820533752	1.11734557152	0.19907784462	0.106195449829	1.61809682846	0.0219589471817
0.0338294506073	1.09223401546	0.194629669189	0.106564044952	1.61787426472	0.0218949317932
0.0312175750732	1.07580053806	0.190407633781	0.106590270996	1.61765527725	0.0223748683929
0.0290303230286	1.06908404827	0.188247203827	0.106166124344	1.61750638485	0.0231676101685
0.0267236232758	1.067289114	0.188019871712	0.105235815048	1.61732363701	0.02406001091
0.0269885063171	1.07559895515	0.191325426102	0.104012966156	1.61715316772	0.0250604152679
0.0325436592102	1.10745692253	0.197852373123	0.102699279785	1.61690378189	0.0261276960373
0.0414845943451	1.13448631763	0.201996088028	0.101498126984	1.61658143997	0.0272722244263
0.0492599010468	1.14201366901	0.20637357235	0.100660562515	1.61640751362	0.0284333229065
0.0507650375366	1.13442027569	0.208399653435	0.100062131882	1.61598932743	0.0292232036591
0.0443608760834	1.12652766705	0.205366373062	0.0996532440186	1.61559700966	0.0297975540161
0.0255632400513	1.12014317513	0.19423353672	0.0989427566528	1.61538541317	0.0300260782242
0.00504446029663	1.11602771282	0.176820039749	0.0984001159668	1.61547756195	0.0297626256943
-0.0108270645142	1.11352753639	0.159129619598	0.0977220535278	1.61542654037	0.0293769836426
-0.0196752548218	1.11377298832	0.147793412209	0.0971260070801	1.61525595188	0.0289846658707
-0.0264341831207	1.11199879646	0.139043927193	0.0965476036072	1.61516797543	0.0283764600754
-0.0323348045349	1.11080908775	0.129935622215	0.0961947441101	1.6148788929	0.0276041030884
-0.0379264354706	1.10533809662	0.119786739349	0.0961990356445	1.61453044415	0.0270726680756
-0.0436196327209	1.10266697407	0.106250524521	0.0961291790009	1.61427605152	0.026579618454
-0.0484981536865	1.10031723976	0.0929799079895	0.0966296195984	1.61414301395	0.0265431404114
-0.0516262054443	1.0975369215	0.0852916240692	0.0969426631927	1.61401057243	0.0263959169388
-0.0524566173553	1.09332609177	0.0849471092224	0.0971109867096	1.61389017105	0.0268323421478
-0.0513865947723	1.09007894993	0.0882692337036	0.0969295501709	1.6134519577	0.0271134376526
-0.0496218204498	1.08288061619	0.092808008194	0.0967743396759	1.61295294762	0.0270211696625
-0.0482683181763	1.07320618629	0.0971033573151	0.0967416763306	1.61298322678	0.0269644260406
-0.0474872589111	1.06605672836	0.0968487262726	0.0967082977295	1.61296546459	0.0267025232315
-0.0485005378723	1.06785953045	0.0950635671616	0.0966753959656	1.61289083958	0.0263347625732
-0.0493550300598	1.06947159767	0.0946643352509	0.0964963436127	1.61299800873	0.0260756015778
-0.0494236946106	1.06945002079	0.0948901176453	0.096075296402	1.61305046082	0.0255498886108
-0.0496525764465	1.07556355	0.0993540287018	0.0957503318787	1.61316657066	0.0248382091522
-0.0478808879852	1.08742320538	0.109568953514	0.0953438282013	1.61322307587	0.0242041349411
-0.0427253246307	1.10769534111	0.124022245407	0.0947172641754	1.61352860928	0.0236549377441
-0.0380692481995	1.12051713467	0.13231408596	0.0934839248657	1.61348688602	0.0230952501297
-0.0363240242004	1.11922121048	0.135469675064	0.0925047397614	1.61381411552	0.0224828720093
-0.0366332530975	1.11272227764	0.134825348854	0.0919632911682	1.61412596703	0.0222076177597
-0.0362184047699	1.10481655598	0.136357665062	0.0913727283478	1.61443710327	0.0219494104385
-0.0336923599243	1.10152447224	0.140175938606	0.0907499790192	1.6147108078	0.0220346450806
-0.0323436260223	1.09985554218	0.141961336136	0.0901441574097	1.61488568783	0.0226321220398
-0.0332942008972	1.10023367405	0.141802191734	0.0893023014069	1.61455750465	0.023558139801
-0.0360467433929	1.09867846966	0.138522267342	0.0888640880585	1.61462128162	0.0245394706726
-0.0372447967529	1.09839379787	0.136635780334	0.0886676311493	1.61462140083	0.0257589817047
-0.0393121242523	1.08972263336	0.135314583778	0.0886087417603	1.61432564259	0.0273735523224
-0.038197517395	1.08526587486	0.139333605766	0.0886402130127	1.61435306072	0.0290205478668
-0.0337755680084	1.08617007732	0.14667057991	0.0887894630432	1.61427044868	0.0310240983963
-0.0320055484772	1.09323847294	0.152149796486	0.0890512466431	1.61386358738	0.0328747034073
-0.0338854789734	1.09712827206	0.152685403824	0.0893895626068	1.61328148842	0.0344717502594
-0.0401408672333	1.09284567833	0.155590772629	0.0901188850403	1.61286020279	0.0359420776367
-0.0423247814178	1.08622860909	0.157045841217	0.0908725261688	1.61241209507	0.0370945930481
-0.0418844223022	1.08224761486	0.161157846451	0.0913791656494	1.61209917068	0.0382344722748
-0.0421826839447	1.0790541172	0.16416656971	0.0915806293488	1.61173582077	0.0390313863754
-0.0402612686157	1.07803201675	0.167759656906	0.0915830135345	1.61171281338	0.0398252010345
-0.0426297187805	1.07710254192	0.168093323708	0.0918600559235	1.61153423786	0.0404362678528
-0.0440621376038	1.07681059837	0.168370723724	0.0922248363495	1.61118483543	0.0409228801727
-0.0430934429169	1.07602655888	0.169314026833	0.0929481983185	1.61090409756	0.041645526886
-0.0420770645142	1.0727288723	0.168264627457	0.0931680202484	1.61060798168	0.0422260761261
-0.0435154438019	1.06976699829	0.164521813393	0.09348320961	1.61031508446	0.0424604415894
-0.044447183609	1.06955504417	0.162258028984	0.093653678894	1.61046385765	0.0428414344788
-0.045259475708	1.07193338871	0.161561250687	0.0936794281006	1.61048519611	0.0433356761932
-0.0440907478333	1.07424378395	0.162880301476	0.0936107635498	1.61018383503	0.0439639091492
-0.0430357456207	1.07765936852	0.1641933918	0.0935153961182	1.61000669003	0.0450382232666
-0.0428233146667	1.07931399345	0.165108323097	0.0932784080505	1.60989010334	0.0459997653961
-0.042772769928	1.07730066776	0.165168523788	0.093513250351	1.60943031311	0.0467433929443
-0.0430016517639	1.07712233067	0.163710951805	0.0940692424774	1.6087025404	0.0477058887482
-0.044310092926	1.07833468914	0.161469459534	0.0944662094116	1.60762178898	0.0487960577011
-0.0476453304291	1.07913720608	0.158174157143	0.0948507785797	1.6070920229	0.0499728918076
-0.0503344535828	1.07937812805	0.155982851982	0.0952715873718	1.60687303543	0.0508573055267
-0.0493230819702	1.07879900932	0.157343745232	0.0954859256744	1.60660290718	0.0513150691986
-0.0489382743835	1.07729494572	0.157360672951	0.0959858894348	1.60619854927	0.0516585111618
-0.0490550994873	1.07556223869	0.156278014183	0.0966837406158	1.60584080219	0.0519976615906
-0.0489528179169	1.07490074635	0.15533387661	0.0967900753021	1.60338711739	0.0518089532852
-0.0487043857574	1.07520985603	0.155060052872	0.0966644287109	1.59743010998	0.0511081218719
-0.0481712818146	1.07512128353	0.154661536217	0.0972142219543	1.59196150303	0.0509005784988
-0.047550201416	1.07387733459	0.153846621513	0.0979437828064	1.58752834797	0.05013859272
-0.0481181144714	1.073605299	0.151868700981	0.098560333252	1.58585870266	0.0497224330902
-0.0486795902252	1.07307732105	0.149846315384	0.0982966423035	1.58677840233	0.0484608411789
-0.0494740009308	1.074249506	0.148984193802	0.0975971221924	1.58979511261	0.0461452007294
-0.0510857105255	1.07520675659	0.147214412689	0.0964238643646	1.59273004532	0.0422871112823
-0.05295753479	1.07572281361	0.144773364067	0.0953295230865	1.59430813789	0.0378586053848
-0.0541977882385	1.07662713528	0.142888307571	0.0945751667023	1.5954054594	0.0345675945282
-0.0533759593964	1.07114255428	0.142639875412	0.0938329696655	1.59642398357	0.0325026512146
-0.0518937110901	1.05926847458	0.140100121498	0.0931646823883	1.596991539	0.0314788818359
-0.0514392852783	1.05005073547	0.134404301643	0.0929737091064	1.59673666954	0.0315091609955
-0.0530641078949	1.04984068871	0.130344152451	0.0928773880005	1.59608662128	0.0322103500366
-0.0554928779602	1.05177426338	0.126570820808	0.0927515029907	1.59558653831	0.0333586931229
-0.0581243038177	1.05685710907	0.124529838562	0.0924153327942	1.59535706043	0.0344591140747
-0.0607190132141	1.06386005878	0.125603914261	0.0921094417572	1.59521389008	0.0351960659027
-0.061856508255	1.06923651695	0.129763007164	0.0918271541595	1.5955299139	0.035439491272
-0.0613486766815	1.07865738869	0.136444568634	0.0917403697968	1.59577798843	0.0356135368347
-0.06107878685	1.08481264114	0.139150738716	0.0917265415192	1.5959277153	0.0358345508575
-0.0611891746521	1.08424770832	0.13829267025	0.0918629169464	1.59596419334	0.035863161087
-0.0619902610779	1.08148503304	0.133910298347	0.092084646225	1.59584212303	0.0360405445099
-0.0630922317505	1.07912826538	0.130261421204	0.0921931266785	1.59563791752	0.036737203598
-0.0643088817596	1.0792491436	0.129364967346	0.0918869972229	1.59567916393	0.0373103618622
-0.0649585723877	1.07983481884	0.129883646965	0.0916392803192	1.59553146362	0.0379602909088
-0.065176486969	1.07930374146	0.129325389862	0.0918498039246	1.59542179108	0.0387163162231
-0.0667996406555	1.07891011238	0.126374363899	0.0920767784119	1.59540295601	0.03937458992
-0.0680153369904	1.07835996151	0.125208973885	0.0925171375275	1.59525477886	0.0402183532715
-0.0683641433716	1.07810890675	0.125288963318	0.0929110050201	1.595089674	0.0407927036285
-0.0671198368073	1.07811141014	0.127101540565	0.0932450294495	1.59483408928	0.0412130355835
-0.0674431324005	1.07820880413	0.126313567162	0.0935645103455	1.59469854832	0.0413997173309
-0.0673863887787	1.07674467564	0.124748945236	0.0940608978271	1.59470176697	0.0413759946823
-0.0672180652618	1.0761475563	0.122465014458	0.0945258140564	1.59474718571	0.041184425354
-0.0681502819061	1.0760422945	0.119287371635	0.0947930812836	1.59474623203	0.0407009124756
-0.0687057971954	1.075735569	0.117534279823	0.0947892665863	1.59465003014	0.0399496555328
-0.0683763027191	1.07572960854	0.116595029831	0.0946033000946	1.59472763538	0.0391935110092
-0.0683681964874	1.0751042366	0.115199923515	0.0942676067352	1.59418058395	0.0378711223602
-0.0694489479065	1.07548666	0.112926244736	0.094024181366	1.59410226345	0.0366208553314
-0.0692150592804	1.07565653324	0.112776756287	0.0937798023224	1.59475111961	0.0351421833038
-0.0680704116821	1.07428264618	0.114112973213	0.0935754776001	1.59514451027	0.0337564945221
-0.0670671463013	1.07110130787	0.11394739151	0.0936036109924	1.59530282021	0.0325343608856
-0.0664806365967	1.06892263889	0.112973690033	0.0936439037323	1.59478485584	0.0309150218964
-0.066859960556	1.06950771809	0.111854672432	0.0933704376221	1.59456562996	0.0295040607452
-0.0671701431274	1.06999981403	0.111583828926	0.0931446552277	1.59442782402	0.028023481369
-0.0673146247864	1.06967914104	0.110965013504	0.0933313369751	1.59296858311	0.0264484882355
-0.0671184062958	1.06922245026	0.110657930374	0.0933248996735	1.5910795927	0.0254428386688
-0.0674877166748	1.06814289093	0.110208630562	0.0931878089905	1.59023022652	0.0248589515686
-0.0678861141205	1.06870007515	0.10954451561	0.0928537845612	1.59002947807	0.0242338180542
-0.0674314498901	1.06723773479	0.109272241592	0.0921890735626	1.5898680687	0.0230150222778
-0.067245721817	1.06479871273	0.109775900841	0.0913689136505	1.59027695656	0.0213506221771
-0.0682849884033	1.07152450085	0.113214850426	0.0903604030609	1.59150230885	0.0193382501602
-0.069864988327	1.09162926674	0.116792678833	0.0891857147217	1.59225666523	0.017270565033
-0.0689768791199	1.11853992939	0.120140075684	0.0881340503693	1.5927529335	0.0151154994965
-0.0661604404449	1.14315402508	0.121336102486	0.0870425701141	1.59313869476	0.012642621994
-0.0655114650726	1.14648902416	0.123887419701	0.0855276584625	1.59368848801	0.010101556778
-0.0701887607574	1.12862503529	0.118355751038	0.084076166153	1.59443175793	0.00704884529114
-0.073842048645	1.10491418839	0.10897564888	0.0824193954468	1.59506547451	0.004145860672
-0.0762798786163	1.08440387249	0.0988976955414	0.0806300640106	1.59561085701	0.00169789791107
-0.0772333145142	1.06523108482	0.0882053375244	0.0789971351624	1.59564125538	-0.000855207443237
-0.0779101848602	1.05229449272	0.0750464200974	0.0781860351562	1.5962921381	-0.00350141525269
-0.0796904563904	1.05022382736	0.0672686100006	0.0778963565826	1.5979527235	-0.00555801391602
-0.0815846920013	1.05499005318	0.067519903183	0.0783565044403	1.59976553917	-0.00698471069336
-0.0820317268372	1.06254720688	0.0746203660965	0.078714132309	1.60354566574	-0.00721073150635
-0.0792183876038	1.07565391064	0.0895284414291	0.0802171230316	1.61194288731	-0.00626111030579
-0.070214509964	1.09948921204	0.113729000092	0.0807104110718	1.62018811703	-0.00569272041321
-0.0518324375153	1.13220715523	0.14144718647	0.0806818008423	1.62624251842	-0.00456440448761
-0.0326361656189	1.1649171114	0.158040046692	0.0807754993439	1.62946009636	-0.00212156772614
-0.0133917331696	1.19448244572	0.165749788284	0.0810606479645	1.63151669502	0.00140857696533
0.00200271606445	1.22288382053	0.166847109795	0.081716299057	1.63265645504	0.00543284416199
0.0162453651428	1.2515745163	0.162449121475	0.0827515125275	1.63308477402	0.00971984863281
0.0288710594177	1.28018009663	0.152578234673	0.0841472148895	1.63298165798	0.0144143104553
0.030121088028	1.28816211224	0.154762506485	0.0857262611389	1.63227200508	0.0188367366791
0.0126869678497	1.25034749508	0.179490923882	0.0873322486877	1.63158154488	0.0227288007736
-0.00286555290222	1.18422579765	0.197348594666	0.0889279842377	1.63141942024	0.0258506536484
-0.0118806362152	1.11483848095	0.19474864006	0.0902309417725	1.630864501	0.0282602310181
-0.0103602409363	1.07567954063	0.185943841934	0.090222120285	1.63005411625	0.0300507545471
-0.0109043121338	1.04894304276	0.178136110306	0.0898764133453	1.62885153294	0.0304404497147
-0.0146474838257	1.02634143829	0.166813731194	0.0894169807434	1.62804090977	0.0294578075409
-0.0187973976135	1.00659060478	0.153532147408	0.089367389679	1.62747192383	0.0275378227234
-0.0189130306244	0.986006259918	0.142457842827	0.0892753601074	1.62740182877	0.0257790088654
-0.0172708034515	0.973386526108	0.136918544769	0.0885481834412	1.62735772133	0.0242960453033
-0.0182268619537	0.975760936737	0.139237761497	0.0876319408417	1.62713503838	0.023325920105
-0.0225598812103	0.98241686821	0.142045021057	0.0867671966553	1.62709367275	0.0228356122971
-0.0356314182281	1.00127959251	0.142072439194	0.0861518383026	1.62702715397	0.0224914550781
-0.0495438575745	1.0205757618	0.133294820786	0.0863211154938	1.62681126595	0.0225560665131
-0.0620565414429	1.03935861588	0.122413992882	0.0866267681122	1.62630283833	0.0227787494659
-0.0692775249481	1.0504014492	0.11403298378	0.0871942043304	1.6256762743	0.0226521492004
-0.0692970752716	1.04975509644	0.112849473953	0.0874192714691	1.62503290176	0.0221607685089
-0.06485414505	1.04275655746	0.11560022831	0.0875954627991	1.62454712391	0.0213119983673
-0.0577344894409	1.03494119644	0.122518658638	0.0878984928131	1.62397837639	0.0203621387482
-0.0522398948669	1.03045749664	0.128147959709	0.0886313915253	1.62360334396	0.0188913345337
-0.0486736297607	1.02753591537	0.131395816803	0.0897171497345	1.62331032753	0.0169365406036
-0.0456850528717	1.02574753761	0.133462905884	0.0907557010651	1.62299108505	0.0145888328552
-0.04230427742	1.02335548401	0.136500120163	0.0918917655945	1.62289893627	0.0121787786484
-0.0365409851074	1.01928949356	0.141174912453	0.0928127765656	1.62253046036	0.00992822647095
-0.0373725891113	1.02295303345	0.140398979187	0.0931780338287	1.62240552902	0.00802445411682
-0.040833234787	1.02780795097	0.138294100761	0.0936057567596	1.62240827084	0.00618457794189
-0.0432691574097	1.02923631668	0.136151075363	0.0941803455353	1.62258946896	0.00442445278168
-0.0438873767853	1.0308110714	0.136831641197	0.0947122573853	1.62264847755	0.00317132472992
-0.0431761741638	1.03299427032	0.140225887299	0.0948481559753	1.62301719189	0.00239300727844
-0.0433511734009	1.03466653824	0.142240762711	0.0948541164398	1.62321996689	0.00226259231567
-0.0438792705536	1.0348098278	0.142200231552	0.0949010848999	1.62286472321	0.00289475917816
-0.0439982414246	1.03415322304	0.141280889511	0.0942175388336	1.62057542801	0.00345766544342
-0.043039560318	1.03339886665	0.141675829887	0.088121175766	1.61905419827	0.00420069694519
-0.0419383049011	1.03307390213	0.142603158951	0.0815331935883	1.61825454235	0.00471580028534
-0.0427672863007	1.03283548355	0.141440629959	0.0788004398346	1.61709797382	0.00565457344055
-0.0443413257599	1.03144836426	0.13834965229	0.0808908939362	1.61400282383	0.00689840316772
-0.0469055175781	1.0302593708	0.135118246078	0.0828380584717	1.60959291458	0.00792765617371
-0.0500395298004	1.03076243401	0.131258010864	0.0785207748413	1.60466659069	0.0073469877243
-0.0531198978424	1.02971148491	0.128638386726	0.0726389884949	1.60276389122	0.00770473480225
-0.0558099746704	1.03059077263	0.126807689667	0.0722525119781	1.59979021549	0.00849080085754
-0.0577301979065	1.0291466713	0.124762654305	0.078905582428	1.59579360485	0.0110712051392
-0.0607719421387	1.02942442894	0.122223854065	0.0854799747467	1.59142410755	0.0136522054672
-0.0646929740906	1.0295085907	0.118602275848	0.0896496772766	1.58771562576	0.0155104398727
-0.0663673877716	1.02907896042	0.116554141045	0.0917036533356	1.58490538597	0.0175348520279
-0.066262960434	1.0269613266	0.117192029953	0.0923686027527	1.58227539062	0.0200791358948
-0.0665774345398	1.02488803864	0.118194937706	0.0927350521088	1.58014452457	0.0228477716446
-0.0679004192352	1.02208399773	0.116832494736	0.0918588638306	1.57840681076	0.0257701873779
-0.0702583789825	1.01770567894	0.111278295517	0.090717792511	1.57713079453	0.0282300710678
-0.0741827487946	1.01508378983	0.102747678757	0.0892341136932	1.57631838322	0.0296806097031
-0.0801441669464	1.01643800735	0.0953392982483	0.0875837802887	1.57608520985	0.030611038208
-0.0871591567993	1.02218317986	0.0882387161255	0.0862181186676	1.57609081268	0.0311726331711
-0.0914843082428	1.02456116676	0.0816130638123	0.0846345424652	1.57596695423	0.031144618988
-0.0944817066193	1.02461504936	0.0756254196167	0.0834760665894	1.5754994154	0.0306832790375
-0.0969581604004	1.0255086422	0.0689004659653	0.0827701091766	1.57485628128	0.0298542976379
-0.0985336303711	1.02676200867	0.0646275281906	0.0825841426849	1.57388031483	0.0286612510681
-0.0967667102814	1.02493810654	0.0664567947388	0.0824692249298	1.57075667381	0.0271135568619
-0.0922329425812	1.02049422264	0.0729598999023	0.0837373733521	1.5666847229	0.0267288684845
-0.0889089107513	1.01835632324	0.0773992538452	0.0851080417633	1.5638859272	0.0268700122833
-0.0895230770111	1.01836705208	0.0764528512955	0.0845885276794	1.56165504456	0.0272362232208
-0.0910663604736	1.01678395271	0.0740787982941	0.0826685428619	1.5600104332	0.0280796289444
-0.0911672115326	1.0133292675	0.074273109436	0.0809988975525	1.55889797211	0.0290821790695
-0.0923535823822	1.01198482513	0.0755383968353	0.0790882110596	1.55891871452	0.029912352562
-0.0936467647552	1.01063370705	0.0760679244995	0.0773282051086	1.55976760387	0.0304932594299
-0.092520236969	1.00523710251	0.0765507221222	0.0761744976044	1.56072735786	0.0308873653412
-0.0899600982666	0.998871088028	0.0772503614426	0.0757954120636	1.56125080585	0.031590461731
-0.0906090736389	1.00079774857	0.0771203041077	0.0757274627686	1.56162977219	0.0326693058014
-0.0936644077301	1.00629377365	0.0778393745422	0.076046705246	1.56225323677	0.0338962078094
-0.0963463783264	1.01213049889	0.0788128376007	0.0766661167145	1.56237328053	0.0352201461792
-0.0963385105133	1.0125515461	0.079391002655	0.0774035453796	1.56252574921	0.0370963811874
-0.0959429740906	1.00973057747	0.0777540206909	0.0781562328339	1.56232988834	0.0386058092117
-0.095752954483	1.00677537918	0.0753765106201	0.078560590744	1.56110656261	0.0400907993317
-0.0963516235352	1.00648212433	0.0730230808258	0.0786151885986	1.55876469612	0.0418304204941
-0.0961101055145	1.00637745857	0.0729484558105	0.0781643390656	1.55604314804	0.0438513755798
-0.0941956043243	1.00569963455	0.0740029811859	0.0770936012268	1.55148351192	0.045428276062
-0.0914742946625	1.00625157356	0.0753033161163	0.0746057033539	1.54945039749	0.0474901199341
-0.0883965492249	1.00592184067	0.0772385597229	0.068434715271	1.55287969112	0.0485591888428
-0.0863654613495	1.00695538521	0.0781633853912	0.0613453388214	1.55599796772	0.0472493171692
-0.0851154327393	1.00680136681	0.0786759853363	0.0556924343109	1.55817782879	0.0451686382294
-0.0849757194519	1.00663280487	0.080871462822	0.0528447628021	1.55999207497	0.0438326597214
-0.0848162174225	1.00669765472	0.0858120918274	0.052225112915	1.56212246418	0.0440957546234
-0.0856070518494	1.00645065308	0.0890502929688	0.051997423172	1.56524980068	0.0474003553391
-0.0866756439209	1.0057079792	0.0914680957794	0.0513169765472	1.56792998314	0.0543675422668
-0.0863659381866	1.00183391571	0.0975394248962	0.0507862567902	1.56897592545	0.064774274826
-0.0841808319092	0.996101617813	0.108215808868	0.0506134033203	1.56789600849	0.0748090744019
-0.0799126625061	0.991768598557	0.122829794884	0.0502154827118	1.56668794155	0.0817754268646
-0.0739531517029	0.990735292435	0.138715147972	0.049586057663	1.56621742249	0.0861339569092
-0.067361831665	0.991530656815	0.1527531147	0.0496873855591	1.56743085384	0.0883460044861
-0.0595469474792	0.990451812744	0.16494178772	0.0510551929474	1.56915533543	0.0892156362534
-0.0554475784302	0.991990089417	0.170973777771	0.0529594421387	1.57124304771	0.0879918336868
-0.0565750598907	0.995420694351	0.170546650887	0.0548260211945	1.57227635384	0.0841482877731
-0.0586843490601	0.996935129166	0.16677737236	0.0568828582764	1.5733474493	0.0792727470398
-0.0598208904266	0.996749639511	0.162041425705	0.056027173996	1.57512319088	0.0746210813522
-0.0615475177765	0.996719837189	0.157811999321	0.0517687797546	1.5757920742	0.070129275322
-0.0656440258026	0.99732208252	0.153411388397	0.0474419593811	1.5761064291	0.0661528110504
-0.0711135864258	0.999027729034	0.149510860443	0.0467758178711	1.57746183872	0.0629694461823
