0.0522272586823	1.35587644577	0.013560295105	0.0745165348053	1.71557021141	-0.204372406006
0.0505459308624	1.3552801609	0.0109715461731	0.0729424953461	1.71495258808	-0.204079627991
0.0478422641754	1.35333251953	0.00930190086365	0.0714929103851	1.71400547028	-0.203765153885
0.0442476272583	1.35291063786	0.00782859325409	0.0697314739227	1.71263325214	-0.203657150269
0.0339639186859	1.3501611948	0.00580286979675	0.0651342868805	1.71153688431	-0.202645778656
0.0151472091675	1.34002947807	0.00373911857605	0.0535802841187	1.71107804775	-0.199773073196
-0.00421404838562	1.33200967312	0.00117075443268	0.0406835079193	1.71093797684	-0.197576761246
-0.0196394920349	1.32900989056	0.000843167304993	0.0296547412872	1.71038043499	-0.196688532829
-0.0336833000183	1.32710695267	0.00178515911102	0.0204720497131	1.71074020863	-0.196614980698
-0.0456163883209	1.32668685913	0.00443530082703	0.0130228996277	1.71144330502	-0.196153402328
-0.0546588897705	1.32808530331	0.00723099708557	0.00736594200134	1.71219849586	-0.195355892181
-0.0613956451416	1.32866275311	0.0109779834747	0.00365042686462	1.71314144135	-0.19438958168
-0.0637171268463	1.32978725433	0.0152280330658	0.00269269943237	1.71420383453	-0.193019032478
-0.0624856948853	1.33164477348	0.0187795162201	0.00454759597778	1.71504914761	-0.190871477127
-0.0600018501282	1.33195757866	0.0217623710632	0.00724172592163	1.71528851986	-0.18890953064
-0.057986497879	1.33167862892	0.0257868766785	0.00939679145813	1.71677339077	-0.187257528305
-0.057915687561	1.3330975771	0.0274062156677	0.01069688797	1.71765458584	-0.184798955917
-0.0586972236633	1.33207523823	0.03073823452	0.0111217498779	1.71690821648	-0.181384801865
-0.0569245815277	1.3287602663	0.0367093086243	0.0111191272736	1.71687853336	-0.178024888039
-0.0556344985962	1.32504618168	0.0408056974411	0.0104465484619	1.71808481216	-0.175558567047
-0.0568380355835	1.32266068459	0.0431237220764	0.00907969474792	1.71915912628	-0.173465251923
-0.0590350627899	1.32152032852	0.0443165302277	0.00720262527466	1.71930480003	-0.171290159225
-0.0604441165924	1.31892633438	0.0473129749298	0.00459337234497	1.71900773048	-0.169477343559
-0.0618491172791	1.31447446346	0.04942882061	0.00176668167114	1.71833777428	-0.168296575546
-0.0613946914673	1.30961060524	0.0517597198486	-0.000303983688354	1.71807360649	-0.16784799099
-0.0592060089111	1.30850112438	0.0539853572845	-0.000895738601685	1.71752357483	-0.167199134827
-0.0566585063934	1.30943894386	0.056772351265	-0.000544548034668	1.717638731	-0.166888952255
-0.054868221283	1.30914604664	0.0596718788147	-0.000279903411865	1.71826779842	-0.167232275009
-0.0561501979828	1.31153964996	0.0558638572693	-2.93254852295e-05	1.71875989437	-0.168171644211
