0.0	-0.0	135.604125977	-102.560386658	71.4040756226	-171.842269897
0.0	-0.0	135.863754272	-102.806274414	72.7781600952	-172.440582275
0.0	-0.0	136.021957397	-102.418502808	73.5170059204	-172.588607788
0.0	-0.0	133.21282959	-102.979690552	81.7850799561	-171.607620239
0.0	-0.0	130.237670898	71.2206268311	88.1892852783	10.4944458008
0.0	-0.0	122.089233398	58.1112747192	76.7765655518	12.7512845993
0.0	-0.0	111.803482056	45.7494049072	66.1839447021	13.7858877182
0.0	-0.0	103.205696106	37.062828064	56.6579437256	14.7683401108
0.0	-0.0	69.5360412598	32.2990989685	50.0584716797	14.8682060242
0.0	-0.0	58.9441795349	29.7479286194	45.4174613953	15.2574539185
0.0	-0.0	66.5173416138	27.933883667	42.4935531616	15.8241319656
0.0	-0.0	89.3507995605	28.2511405945	39.0214729309	15.607421875
0.0	-0.0	92.5237045288	30.0849475861	34.041721344	14.7874183655
0.0	-0.0	57.8325767517	32.8553924561	27.2758426666	12.4604721069
0.0	-0.0	56.4002227783	35.3916320801	18.6747741699	9.7329454422
