Participant: 7660

Trial	Condition	Time
0		5			8.1934
1		2			2.9868
2		5			1.9652
3		5			1.2987
4		4			3.6175
5		3			2.4202
6		0			2.687
7		6			1.3988
8		5			1.5417
9		0			4.1199
10		2			2.3094
11		0			12.1358
12		0			1.6537
13		5			1.4764
14		0			3.1535
15		1			4.1407
16		2			2.4093
17		3			6.827
18		3			2.2873
19		6			1.3985
20		6			1.1654
21		2			1.4654
22		1			1.1757
23		1			1.8652
24		5			0.7546
25		3			1.7847
26		5			1.6542
27		0			0.8151
28		2			1.4097
29		5			1.1542
30		6			1.7875
31		3			4.3307
32		6			1.2403
33		0			6.6852
34		3			8.7509
35		1			2.9864
36		2			4.2502
37		2			1.2987
38		5			1.6317
39		0			2.5096
40		2			2.287
41		3			2.7097
42		2			2.0765
43		0			1.343
44		0			1.2873
45		5			3.0315
46		5			14.1238
47		5			2.6094
48		0			4.0751
49		2			1.9873
