-29.3634471893	0.627576231956	23.7713470459	-13.8156232834	26.9940872192	-33.6092643738
-29.0355262756	0.398790359497	23.6795368195	-13.4702606201	26.8870887756	-33.3913993835
-28.9260158539	0.381367057562	23.590877533	-13.2318410873	26.8444442749	-33.2844924927
-29.0966415405	0.500597000122	23.7533512115	-12.84304142	26.8127555847	-32.9725914001
-29.6486930847	2.44114041328	23.4178371429	-12.9812841415	27.1903171539	-32.587802887
-30.2676029205	7.20612478256	19.9808330536	-14.1408309937	29.5125999451	-32.1145706177
-30.7430686951	11.6167612076	16.8165874481	-16.8831596375	34.5046539307	-32.0334243774
-31.4342937469	14.7498540878	16.7893562317	-18.4805679321	38.5566253662	-30.5063743591
-31.4178237915	18.7221927643	13.3525733948	-18.6702842712	40.6471138	-28.262386322
-31.2560691833	21.7055397034	9.97373962402	-18.217414856	41.2393913269	-26.5921630859
-31.6893901825	22.1691894531	10.5577726364	-18.0410041809	41.4763374329	-25.0999755859
-32.2307434082	22.1228370667	10.4706707001	-18.8757171631	41.6563072205	-22.7993354797
-31.9724006653	21.8616580963	10.6902084351	-19.4564266205	41.7330665588	-19.2644805908
-31.1031208038	21.7734889984	11.0459871292	-19.4353942871	41.9870796204	-15.8002672195
-30.7905902863	21.7193031311	11.3671035767	-19.2915821075	42.1183815002	-13.6994466782
-31.0969848633	21.8263950348	11.6827144623	-19.8048610687	41.9499931335	-12.6506032944
-31.2811889648	21.5131473541	12.5736341476	-21.3342857361	41.5859489441	-12.9236536026
-32.2167663574	18.9382247925	13.3957357407	-22.2364635468	41.0928916931	-13.5829811096
-34.8818664551	21.0457420349	2.2777993679	-22.0848274231	40.7864494324	-13.6377925873
-39.0308570862	20.4683647156	-5.00629377365	-21.743303299	40.7135429382	-13.4591007233
-41.7469596863	19.3013477325	-6.10553359985	-21.5634860992	40.4674758911	-13.3564662933
-44.10131073	20.1026535034	-8.30914974213	-21.2719631195	40.1087532043	-13.2811164856
-48.5349578857	24.2052574158	-17.2101993561	-21.0508365631	39.7681808472	-13.3149595261
-53.2295303345	25.6641139984	-24.9774093628	-20.9476108551	39.6329574585	-13.3767242432
-46.6784591675	20.0025405884	-10.439827919	-20.624622345	39.3467750549	-13.1838750839
-35.7942237854	10.8096485138	10.2817373276	-20.1558437347	38.9928245544	-13.0309400558
-29.9267559052	3.00389003754	19.0348930359	-19.8770484924	38.7305107117	-13.0405502319
-26.7057628632	-2.07073235512	24.1945991516	-19.7077636719	38.5502090454	-13.0596857071
-27.162065506	-2.40384435654	24.1969337463	-19.4221343994	38.322052002	-12.9285449982
-31.8633861542	10.1921186447	7.50091743469	-19.2503757477	38.1389732361	-12.8858680725
-38.4987220764	15.1010303497	-3.94684100151	-19.0567493439	38.0399513245	-12.7896442413
-42.2716178894	16.6584911346	-7.19162654877	-18.9399967194	37.9939079285	-12.7757062912
-46.2368202209	20.2032241821	-13.6448554993	-18.8464412689	37.9572906494	-12.6079807281
-46.5481910706	19.3969287872	-14.1438522339	-18.9447040558	37.8694610596	-12.6304359436
-36.5502967834	9.82241153717	5.5852060318	-18.7877883911	37.6659927368	-12.5231676102
-28.4511623383	7.98330020905	-3.23119688034	-18.4962272644	37.4487266541	-12.5319156647
-26.6798553467	5.66222429276	-15.1663827896	-18.1439800262	37.2299842834	-12.414516449
-25.7057342529	9.31937026978	-25.5536327362	-17.8551902771	36.8878707886	-12.2707490921
-27.3211116791	8.64218521118	-36.1896820068	-17.3117256165	36.5453605652	-12.0591583252
-32.2418022156	12.5192613602	-49.2047386169	-16.8861598969	35.8446502686	-11.8264656067
-40.3288078308	14.150135994	-63.2960319519	-16.2594013214	34.3304100037	-11.3530893326
-46.3066101074	14.5401830673	-68.6540527344	-15.1576328278	31.9935073853	-10.6580791473
-48.1924743652	14.611489296	-61.0406761169	-14.0128488541	30.2645149231	-10.2770814896
-40.7635307312	6.93990278244	-19.505531311	-12.6788301468	28.3338508606	-10.0116672516
-34.3494567871	-6.73401498795	8.5882768631	-10.7582712173	26.3937721252	-9.58896350861
-30.3525295258	-14.5875463486	17.1640548706	-9.29221725464	25.1788768768	-9.35622692108
-30.2381019592	-11.4153375626	11.2591362	-9.25862789154	25.0230484009	-9.6617603302
-31.9921970367	-9.5493221283	6.54201936722	-9.61407375336	25.2953834534	-10.539812088
-34.1167373657	-9.27124977112	4.70836210251	-10.242231369	25.1856212616	-11.4075422287
-35.4539642334	-7.73191213608	2.64214301109	-10.403087616	24.7882995605	-11.7789621353
-36.1251411438	-6.91996002197	0.12927107513	-9.82176971436	23.7225952148	-11.6912641525
-36.1567115784	-6.25952339172	-0.643006145954	-10.079788208	23.6604385376	-11.7609472275
-36.5230674744	-4.62253284454	-2.838357687	-10.5590515137	24.0413360596	-12.0709562302
-38.314704895	-4.035779953	-7.61971616745	-10.60896492	23.2753486633	-11.577501297
-40.5016593933	-2.60572314262	-10.1176300049	-11.1685495377	23.6208553314	-11.8047714233
-42.445022583	-2.05002093315	-9.9837179184	-11.4632320404	23.855588913	-12.1169338226
-44.9128456116	-0.820602118969	-10.5882825851	-11.5410604477	23.9333972931	-11.8723907471
-48.1480751038	0.747341990471	-13.5204973221	-12.0465946198	24.4126987457	-11.8470573425
-51.3273620605	2.20405459404	-17.3831424713	-12.7211923599	24.8455600739	-11.9067430496
-54.5631904602	3.71860814095	-19.2712421417	-13.5149450302	25.1606502533	-12.1396503448
-52.9878768921	2.29604744911	-12.8903713226	-13.9100036621	25.3585929871	-12.1726932526
-46.3415374756	1.06291377544	0.334014952183	-14.0225801468	25.4169826508	-12.1380844116
-41.7964248657	0.0582963004708	3.91414141655	-13.9518861771	25.2972393036	-12.0868272781
-41.6150970459	1.17637944221	1.27574634552	-13.9654855728	25.1447238922	-12.0794897079
-43.6120910645	2.02642202377	-0.589963912964	-13.8631267548	24.9953765869	-11.9432430267
-47.3063392639	4.30642938614	-3.55156159401	-13.8443899155	24.8576946259	-11.8733711243
-51.1931304932	5.55802536011	-7.6550283432	-13.931101799	24.8325366974	-11.9066858292
-54.1225585938	8.03412723541	-9.68231868744	-14.1317777634	24.9696674347	-11.9422893524
-52.4753303528	8.61418056488	-8.04110240936	-14.2968215942	25.0376014709	-11.9378862381
-51.9992828369	10.0903863907	-9.64487171173	-14.4683084488	25.1451454163	-11.8737258911
-54.6246452332	11.7359952927	-8.66150379181	-14.6244163513	25.1471939087	-11.7427110672
-60.5363960266	13.5094747543	-8.33283805847	-14.770442009	25.2270374298	-11.6245670319
-63.9701156616	13.9988193512	-8.30928134918	-14.9213190079	25.2508430481	-11.6302938461
-66.4207611084	14.2698631287	-9.11637878418	-15.0393333435	25.274892807	-11.5752677917
-68.1321792603	15.961558342	-12.6493377686	-15.3041095734	25.4271202087	-11.7050056458
-68.5681762695	18.3592166901	-19.2694740295	-15.3972406387	25.7027626038	-11.8233041763
-68.8401184082	18.9873962402	-22.9497795105	-15.4666395187	25.9328765869	-11.9664421082
-69.171585083	19.0587272644	-22.7601642609	-15.5371389389	26.3890209198	-12.3363142014
-69.1798324585	18.5210170746	-22.4275512695	-15.3659706116	26.4225063324	-12.4979362488
-66.9360733032	17.9158802032	-23.5588817596	-15.2424736023	26.2622833252	-12.6744070053
-64.0873718262	18.2467479706	-24.2068862915	-15.5085611343	26.2137737274	-13.1471357346
-61.522819519	18.1584148407	-23.9476528168	-16.4594764709	26.1642856598	-14.1141176224
-59.8796730042	18.126865387	-26.0734157562	-18.7769775391	25.7174777985	-16.0207843781
-59.2384262085	17.9209690094	-30.4661808014	-21.4650650024	25.0140647888	-18.1452198029
-58.5526237488	17.5621242523	-38.7897872925	-21.6222724915	24.5513362885	-18.4648628235
-57.1496658325	17.2243862152	-47.3884544373	-19.8512802124	24.490447998	-17.7656097412
-51.0972671509	15.68861866	-61.3779563904	-17.6548290253	24.3577079773	-16.8388538361
-33.6828384399	16.6719169617	-74.4657745361	-15.4132881165	23.9887008667	-15.5303201675
-13.783700943	18.5096855164	-73.199180603	-13.436378479	23.7419338226	-14.3735017776
-1.15920853615	17.9323596954	-73.1684875488	-11.9417552948	23.2447090149	-13.697810173
4.97073125839	17.1991386414	-80.6302719116	-11.1964035034	22.9473896027	-13.5078811646
5.23289251328	16.5093364716	-90.2663192749	-10.8389644623	22.9196052551	-13.2723474503
2.46150112152	15.4525203705	-97.9029312134	-10.9366064072	22.9009037018	-13.1407413483
-4.35155773163	14.854809761	-98.8337402344	-11.2444477081	23.1035404205	-13.1999559402
-13.2685375214	14.1093549728	-88.3803253174	-11.4748849869	23.2123718262	-13.1722183228
-14.073299408	16.8630695343	-62.447429657	-11.6581296921	23.2378025055	-13.0033330917
-7.65637922287	12.9130563736	-23.7146511078	-11.7134933472	23.3398628235	-12.8976650238
-8.91671943665	2.43848109245	-0.246166676283	-11.6339769363	23.6424064636	-12.799495697
-12.4945430756	-2.31314134598	9.45697021484	-11.6646347046	23.8012638092	-12.7153873444
-8.40072822571	-3.52365899086	9.37338638306	-11.5822019577	23.8439693451	-12.6527795792
-13.3854084015	-0.418133378029	12.2617883682	-11.4350996017	23.9558982849	-12.6541872025
-17.3377418518	-0.73840713501	20.7340393066	-11.1628007889	23.9282150269	-12.776845932
-19.8291454315	1.46179449558	19.7843437195	-11.021739006	23.9893341064	-12.8705615997
-21.4951705933	3.04850625992	18.4379768372	-10.7646770477	24.0587730408	-12.8926429749
-22.9619903564	3.11297130585	17.8850879669	-10.5910711288	24.0638427734	-12.8727493286
-23.7708835602	3.90531778336	15.7781991959	-10.4827594757	24.0829353333	-12.8257875443
-24.2509155273	6.16595315933	11.4432735443	-10.5539016724	24.0857810974	-12.7541456223
-26.6044998169	13.3279666901	-0.925161004066	-10.7009468079	24.0547466278	-12.6919384003
-28.5826396942	14.681388855	-5.51767253876	-10.7636489868	24.0166149139	-12.684211731
-28.6209545135	12.8081130981	-1.81712210178	-10.8502464294	24.0461158752	-12.5635042191
-24.9191093445	3.97607135773	8.39825534821	-10.9749736786	23.9979057312	-12.4752855301
-22.9270496368	-6.88648271561	14.6416540146	-11.0615615845	23.9178161621	-12.4338283539
-19.2596626282	-12.2437095642	11.158782959	-11.1830940247	23.8851852417	-12.5296678543
-17.727388382	-15.4372348785	9.74785137177	-11.1539001465	23.8633728027	-12.5752305984
-18.0727272034	-12.9590902328	8.34238052368	-11.1305608749	23.8470916748	-12.6939964294
-20.0486488342	-2.30960631371	-0.175792858005	-10.8837213516	23.7692928314	-12.7312221527
-22.8682422638	6.91679430008	-4.29173946381	-10.6985702515	23.8395328522	-12.7604351044
-24.5544605255	12.355298996	-6.83644390106	-10.597905159	23.8727836609	-12.7827501297
-25.9750843048	14.6492729187	-8.74814128876	-10.5370826721	23.9119491577	-12.8088665009
-26.8041954041	15.5958127975	-9.96839904785	-10.5046300888	23.9455966949	-12.7878503799
-25.0616149902	12.3967428207	-7.98528528214	-10.4861593246	24.072933197	-12.7462511063
-20.0914783478	-0.873446285725	-0.303297460079	-10.3813734055	24.2426567078	-12.5907392502
-16.1625022888	-10.6175308228	2.90791535378	-10.3045425415	24.3650436401	-12.4340810776
-13.8603944778	-11.7121086121	0.81947851181	-10.2876167297	24.5054950714	-12.3383846283
-13.8723974228	-8.60744953156	-1.01093924046	-10.1966218948	24.6484260559	-12.2817716599
-16.8720970154	-5.26222038269	-2.88350772858	-10.0960006714	24.7296867371	-12.3183965683
-24.7325782776	-2.45031905174	-2.27959632874	-10.042383194	24.8272762299	-12.2565069199
-32.7361373901	-0.791501700878	-0.900494277477	-10.0526666641	24.8217639923	-12.2200193405
-39.9051322937	0.510438144207	-1.52020144463	-10.1629571915	24.8403339386	-12.209774971
-43.9577674866	0.88102376461	-3.0944609642	-10.2708654404	24.8987827301	-12.1781139374
-47.1987762451	1.59295284748	-2.95680594444	-10.4198942184	24.9509239197	-12.1584711075
-50.4712333679	2.1018819809	-3.83768177032	-10.5833768845	24.9985237122	-12.2076187134
-54.1051979065	4.90444850922	-7.85383749008	-10.7392644882	25.0832862854	-12.3067913055
-58.6161499023	6.06032896042	-10.6365604401	-10.8097629547	25.1559295654	-12.3352108002
-63.0422897339	7.36846256256	-12.8249139786	-10.9335403442	25.2625999451	-12.3685436249
-65.4572372437	8.48938465118	-14.548459053	-11.0004549026	25.3247356415	-12.4283304214
-65.5656051636	10.0000333786	-15.1617832184	-10.9867687225	25.3436985016	-12.4746599197
-64.3423919678	10.8293209076	-14.7784194946	-11.1415987015	25.4675788879	-12.5043516159
-62.8922576904	13.3737316132	-16.1283416748	-11.3160142899	25.5984516144	-12.5458307266
-61.4969177246	16.5323581696	-16.905872345	-11.4276771545	25.6250915527	-12.6502742767
-61.7106552124	19.0690422058	-17.98204422	-11.4049348831	25.6339321136	-12.6965961456
-61.918006897	18.5881175995	-17.9175319672	-11.3377714157	25.6513004303	-12.6798210144
-62.0493888855	18.1648483276	-18.0609817505	-11.287817955	25.6195049286	-12.6682004929
-61.8458061218	18.1840763092	-17.7070579529	-11.2141494751	25.6191902161	-12.6942491531
-59.5855560303	15.4272518158	-16.2130889893	-11.1589565277	25.564119339	-12.6997766495
-56.0715484619	11.4740371704	-15.9943752289	-11.1500101089	25.5207023621	-12.733877182
-50.8552894592	5.16438293457	-18.4296302795	-11.0944976807	25.4303474426	-12.7143678665
-49.4348564148	2.76936531067	-23.9345912933	-11.1409111023	25.4521961212	-12.6617259979
-48.9134902954	3.94090771675	-26.158203125	-11.1682567596	25.3918838501	-12.6666440964
-48.3478355408	4.91631269455	-24.7129993439	-10.9460735321	25.2530136108	-12.6369104385
-46.9308662415	7.12247371674	-25.6199893951	-10.7706012726	25.2350215912	-12.5314512253
-45.3697280884	7.26258516312	-28.0018005371	-10.7041339874	25.1630840302	-12.5183887482
-44.8052406311	7.68722438812	-26.7060241699	-10.6734828949	25.1267986298	-12.4857711792
-45.5762443542	7.7981877327	-27.0570411682	-10.6888055801	25.2088108063	-12.5156154633
-49.485206604	9.46778011322	-35.9435043335	-10.6356945038	25.2571430206	-12.4748802185
-52.3401451111	9.28863334656	-51.6752662659	-10.5008707047	25.2303771973	-12.5036525726
-53.4370040894	12.9276676178	-56.3812446594	-10.3365955353	25.4000320435	-12.485666275
-52.367351532	13.8588113785	-56.4820976257	-10.309088707	25.3713035583	-12.46788311
-49.4112014771	12.8368024826	-54.1333236694	-10.3357505798	25.400144577	-12.4892225266
-44.1071548462	7.86855125427	-33.6253662109	-10.290766716	25.468334198	-12.4549331665
-41.1349983215	3.678388834	-10.8420162201	-10.2724876404	25.5930252075	-12.4480113983
-39.5188369751	2.65507817268	12.9828109741	-10.1831073761	25.76304245	-12.5009059906
-39.8123855591	3.36014294624	25.9492645264	-10.0656366348	25.8711128235	-12.577170372
-38.6063346863	3.14184713364	38.8589134216	-10.0269804001	25.9715938568	-12.6476640701
-38.3141136169	2.70784592628	48.9558830261	-10.0056867599	26.0766410828	-12.6475496292
-37.7889251709	1.53879988194	56.3940658569	-10.106880188	26.0900917053	-12.6674032211
-38.8754310608	-0.656985461712	71.2947463989	-10.1549434662	26.1252002716	-12.6707439423
-39.3727760315	-1.37323153019	77.234161377	-10.199133873	26.2348556519	-12.764550209
-38.7814598083	0.833152532578	66.993598938	-10.1241025925	26.3582878113	-12.8067007065
-38.6409759521	4.61990976334	52.1601676941	-10.1876296997	26.4137039185	-12.8581428528
-39.9350509644	6.61369800568	44.3457679749	-10.215054512	26.4960384369	-12.9156074524
-40.9698295593	8.32189273834	34.8027000427	-10.2523803711	26.4857082367	-12.9773111343
-41.9860572815	9.45504283905	24.1426753998	-10.2920951843	26.4662494659	-12.9725818634
-42.3581161499	10.6755657196	12.6869821548	-10.3275032043	26.5194778442	-13.0567808151
-43.1532211304	10.9800605774	3.84786868095	-10.3247804642	26.5749378204	-13.0987586975
-43.2671318054	10.7137422562	3.19258022308	-10.4915771484	26.6212177277	-13.091917038
-43.173664093	11.0534563065	3.79716134071	-10.6258573532	26.7362785339	-13.189704895
-44.1825904846	11.5515289307	0.289901942015	-10.6578722	27.0272445679	-13.3467521667
-45.419380188	11.0788660049	-0.444474935532	-10.7600049973	27.4030513763	-13.5417070389
-45.495891571	9.18496894836	11.6721534729	-10.9088354111	27.5321083069	-13.6786327362
-45.4873962402	6.98725891113	24.5875167847	-10.9201555252	27.6196308136	-13.7314834595
-45.3971557617	7.99439239502	20.1015472412	-11.0606975555	27.7304115295	-13.7416973114
-45.6631584167	8.49578952789	19.1427822113	-11.2122144699	27.7881240845	-13.8046312332
-46.1385421753	9.06396770477	18.190196991	-11.2918148041	28.0006999969	-13.946721077
-46.465801239	9.29945278168	17.5024452209	-11.7500152588	29.0185947418	-14.4865055084
-46.3915138245	9.28906440735	17.6700458527	-12.8712749481	31.3844871521	-16.0382518768
-46.2123527527	9.23742198944	17.8446273804	-13.5812330246	33.3004798889	-17.170539856
-46.0831413269	9.46866130829	17.8900871277	-13.9097557068	35.018863678	-17.9947757721
-46.219581604	9.41356182098	18.0427627563	-13.8250055313	35.4965362549	-18.1193275452
-46.301902771	9.46076583862	18.1009979248	-13.7366876602	35.0945014954	-17.9959545135
-46.2317276001	9.30142116547	17.3037567139	-13.3313732147	34.0001754761	-17.4515171051
-46.5241012573	9.38359260559	16.3908348083	-13.1720600128	32.9442977905	-17.0872612
-47.1143417358	9.75164794922	14.1691331863	-13.1351909637	32.4266090393	-16.937292099
-47.778339386	10.1844377518	10.8334732056	-12.8498630524	32.0483970642	-16.705499649
-48.0158691406	13.5496549606	4.92673301697	-12.6835479736	31.823846817	-16.4537181854
-48.9890365601	18.1566371918	-1.32167577744	-12.656162262	31.6496925354	-16.2551212311
-49.9711837769	20.417339325	-0.907572090626	-12.6595678329	31.6930103302	-16.1904335022
-51.2513237	20.4827079773	-2.69976496696	-12.6252069473	31.9036483765	-16.1066455841
-53.2161064148	20.5423717499	-5.91922283173	-12.7191505432	32.1019821167	-16.0394573212
-54.7603607178	19.8570289612	-10.6708850861	-12.8560218811	32.1794471741	-16.0460300446
-52.5602607727	15.8554754257	1.91247415543	-12.8427553177	32.2792663574	-15.9748296738
-50.1133766174	12.3570203781	14.6259403229	-12.8649024963	32.1818389893	-15.9491281509
-48.2504386902	8.88315963745	18.6938381195	-12.7987327576	32.1256866455	-15.9361782074
-47.7800483704	7.19946718216	21.258600235	-12.7551603317	32.1099433899	-15.967417717
-48.3281135559	8.25879764557	16.9288139343	-12.6333198547	32.0651435852	-15.93475914
-49.9915237427	9.98834037781	9.92462158203	-12.5164289474	32.0560379028	-15.9529561996
-51.1660690308	10.9965467453	6.97915077209	-12.4554777145	32.0735969543	-15.9852590561
-51.5418052673	11.0052976608	6.80634832382	-12.641582489	32.0458526611	-16.0028152466
-51.7392921448	10.8276977539	6.38174581528	-12.9107351303	32.0499420166	-16.1006546021
-52.4377288818	11.6310386658	2.33092713356	-12.9865436554	32.1103782654	-16.1452655792
-53.1533164978	11.3167514801	4.96497488022	-13.0670442581	32.0693473816	-16.1931667328
-52.7393608093	9.62577724457	15.3317251205	-13.029665947	32.1181640625	-16.1832294464
-52.4723205566	8.29938316345	23.2829780579	-12.991692543	32.152431488	-16.2140331268
-52.0112533569	8.17293548584	24.35978508	-13.0064716339	32.2571525574	-16.282037735
-52.3024330139	7.97079467773	25.5313587189	-13.1119146347	32.2539863586	-16.3621253967
-52.8910980225	8.88985443115	22.5178985596	-13.1262798309	32.2728385925	-16.427646637
-54.0515670776	10.3275365829	15.2339792252	-13.1654376984	32.2080383301	-16.4852867126
-54.9579734802	10.62931633	13.1250247955	-13.17258358	32.2019004822	-16.5010547638
-55.3985710144	10.8528318405	12.5710706711	-13.2194471359	32.2172775269	-16.5522689819
-55.9010734558	11.2788877487	9.81274700165	-13.2579631805	32.1961135864	-16.5454082489
-56.2421989441	11.8299789429	7.92931890488	-13.3904695511	32.3933067322	-16.6222076416
-56.5491104126	11.3482904434	10.1585016251	-13.4278259277	32.381652832	-16.6175346375
-56.3311920166	11.3973579407	10.4232358932	-13.3412647247	32.216003418	-16.5557041168
-55.8541564941	12.55905056	6.88803434372	-13.2564382553	32.0574913025	-16.4307537079
-55.6784057617	13.6354942322	4.88401269913	-13.1378564835	31.8332500458	-16.3856468201
-55.6112556458	14.3099584579	4.86155366898	-13.0887365341	31.8815670013	-16.4819526672
-55.6106338501	13.9521074295	6.48801851273	-13.0994291306	31.979057312	-16.4061203003
-55.508480072	13.8964271545	6.99898052216	-13.132183075	31.9737243652	-16.4111537933
-55.6007194519	14.186876297	6.26199483871	-13.210773468	32.4287185669	-16.7443065643
-55.6147270203	14.8834476471	4.16559171677	-13.380692482	33.0687065125	-17.0470066071
-55.5566864014	15.0986709595	4.43747520447	-13.4922828674	33.2963485718	-17.1956520081
-55.5760536194	14.9669380188	5.17060375214	-13.3302812576	33.3147888184	-17.1590137482
-55.249370575	15.2872476578	5.51454162598	-13.1638097763	33.2937431335	-17.0821304321
-54.235534668	15.7066459656	7.11792612076	-12.8149356842	33.213344574	-16.8937454224
-52.1882247925	12.2866668701	12.9756202698	-12.5057601929	32.7217788696	-16.7024421692
-50.7713623047	5.29683637619	15.7727718353	-12.2730913162	32.3585739136	-16.621837616
-48.3915977478	-3.79944682121	16.4545078278	-11.9157772064	32.1607551575	-16.5617179871
-46.8276977539	-13.8992156982	16.9108390808	-11.5491876602	32.0556869507	-16.468744278
-46.0970802307	-13.0408000946	13.5042581558	-11.4646863937	31.7038040161	-16.4360923767
-49.6152458191	-4.78513479233	9.00128078461	-11.2962007523	31.3861694336	-16.2961940765
-52.6451416016	4.22981262207	1.68438327312	-11.3504123688	31.0540733337	-16.1660270691
-55.7666053772	12.046916008	-7.0737247467	-11.5035057068	30.733291626	-16.0972671509
-59.0354614258	18.5969524384	-13.165145874	-11.5656051636	30.6445674896	-15.9530735016
-63.4776306152	22.7853507996	-18.9615020752	-11.5727548599	30.4381885529	-15.7144498825
-64.9529571533	23.2224826813	-19.4900188446	-11.4702100754	29.8450775146	-15.522892952
-64.0934371948	21.5400104523	-15.0756320953	-11.2719917297	29.3070869446	-15.1465396881
-61.3511238098	18.3833942413	-8.65388298035	-10.9621276855	27.8082504272	-14.441573143
-56.2233848572	13.0908346176	-2.52810955048	-10.0180387497	24.775894165	-12.5997772217
-48.0128173828	4.22005605698	4.88446712494	-9.16087245941	21.8077411652	-10.7735996246
-37.9659881592	-7.81061553955	10.1225137711	-8.64608097076	19.5188751221	-9.28080749512
-31.3029594421	-19.0281448364	12.6143598557	-8.27050304413	18.2218170166	-8.33543395996
-26.190454483	-27.7423686981	12.4393062592	-8.09669876099	17.4296760559	-7.82929849625
-22.9717597961	-35.8783874512	12.706536293	-8.02087974548	16.9957065582	-7.58250427246
-19.994726181	-43.9507255554	11.0310907364	-8.08440303802	16.8920078278	-7.57710790634
-17.0971565247	-52.2144050598	9.96601390839	-8.11830234528	16.9248447418	-7.70439863205
-16.9850845337	-52.4090118408	7.80156469345	-8.11949253082	17.2514686584	-7.81037425995
-23.6113853455	-33.6187019348	-0.522880673409	-8.14479446411	17.5042743683	-7.81902313232
-27.9465656281	-11.3976192474	-7.89886283875	-7.89577627182	17.5503997803	-7.9552898407
-33.7183685303	7.08838367462	-7.18416070938	-7.58738946915	17.7100143433	-7.97348022461
-37.1591262817	15.4660558701	-14.275847435	-7.61862754822	17.9227542877	-7.94261980057
-38.8025360107	22.5327091217	-18.0884246826	-7.77032852173	18.3917636871	-7.88132667542
-41.2653465271	30.239315033	-19.427072525	-8.1203584671	18.5167865753	-7.85689210892
-46.3837471008	36.0175094604	-28.0609340668	-8.23814868927	18.5222225189	-8.00209903717
-50.1000595093	41.84998703	-34.9339637756	-8.2179107666	18.5766830444	-8.16542434692
-50.7107887268	44.7884941101	-37.9216995239	-8.30077648163	18.5568943024	-8.19284629822
-48.2113609314	43.6861038208	-34.5643920898	-8.35952281952	18.6306228638	-8.28047657013
-46.3076477051	41.3027763367	-27.6726741791	-8.27949142456	18.7251224518	-8.29069805145
-44.3726119995	32.2473526001	-7.98913478851	-8.27271080017	18.739200592	-8.35046005249
-46.8010673523	26.2809352875	3.24050760269	-8.24481773376	18.8488769531	-8.3615322113
-50.6357841492	20.6929283142	11.7126131058	-8.37358951569	19.0038509369	-8.4015789032
-52.8860740662	18.5567073822	13.0009365082	-8.73318767548	19.2267627716	-8.56285572052
-52.6605033875	19.310295105	11.5324077606	-9.28859806061	19.4943962097	-8.72749233246
-50.9985427856	20.6094665527	12.444393158	-9.82076644897	19.7221622467	-8.86478900909
-47.840927124	22.7022953033	12.4189109802	-10.0885457993	19.923948288	-8.94782924652
-45.2449951172	23.3973693848	12.8787441254	-10.1431970596	20.0520572662	-9.06891155243
-43.5128326416	23.9949207306	12.6560173035	-9.98643016815	20.1808414459	-9.21675014496
-41.789352417	24.3122596741	13.2429552078	-9.91631984711	20.2263584137	-9.32706356049
-40.0644493103	24.7614402771	13.3817949295	-9.86233520508	20.2226409912	-9.52665424347
-37.1602897644	25.6597061157	15.5508327484	-9.80259609222	20.2902297974	-9.72648143768
-37.7651062012	24.2682209015	15.7956151962	-9.77190685272	20.2664375305	-9.81507492065
-38.4925918579	23.0109767914	15.6687345505	-9.64862442017	20.2910366058	-9.95856952667
-39.0503997803	22.8863334656	15.7559871674	-9.4982919693	20.2546386719	-10.1230545044
-38.8040847778	22.4680957794	15.7666416168	-9.4506483078	20.1621513367	-10.2665691376
-38.0176620483	21.7754268646	16.1341571808	-9.48420238495	20.0495948792	-10.3526496887
-37.8792533875	21.435792923	16.1617050171	-9.50281429291	19.9949645996	-10.4188585281
-38.0540504456	21.480173111	16.2522563934	-9.53690624237	20.2613315582	-10.654419899
-38.3066558838	21.6991024017	16.081703186	-10.2918758392	21.2357139587	-11.6213665009
-38.3280105591	21.7822284698	16.1997776031	-14.5716924667	21.5730419159	-13.9559192657
-38.1778144836	21.7974739075	16.2002353668	-19.4194641113	21.5356063843	-15.9857187271
-38.599822998	21.8584766388	15.9389095306	-21.7197952271	21.7279472351	-16.7904567719
-39.4780654907	22.2283535004	15.2757234573	-21.1250286102	22.9410610199	-17.0044612885
-40.3057556152	22.5315475464	15.5530176163	-20.9622764587	24.569568634	-17.7621669769
-41.3434753418	22.2748718262	15.6345148087	-25.4970302582	25.4605693817	-21.9190330505
-42.1458854675	22.5259475708	15.8127679825	-30.3302936554	25.0800247192	-24.4327487946
-42.9004058838	22.3426322937	15.146613121	-31.3617534637	26.1039104462	-24.7318840027
-43.5141639709	22.5924472809	15.4151334763	-27.5806255341	28.2655277252	-23.4033699036
-44.4688034058	21.6973247528	18.2610778809	-23.7573261261	30.3910617828	-22.9174194336
-45.8083267212	20.5517101288	22.1612586975	-21.6363525391	31.9391536713	-23.0922412872
-46.6943397522	21.1745662689	20.5221786499	-20.7259597778	32.9600219727	-23.732843399
-46.6995048523	22.639005661	18.257358551	-20.2747840881	33.8059539795	-24.5847625732
-47.1656646729	24.15558815	14.7551746368	-19.7907886505	34.5905685425	-24.9625339508
-48.077507019	25.8569011688	11.5705041885	-19.6069736481	35.1428833008	-25.2479152679
-50.5835952759	27.7636260986	8.74076938629	-19.5991821289	35.5925865173	-25.4433822632
-53.4757270813	28.7718982697	7.71490192413	-19.7042293549	35.9136314392	-25.5272159576
-55.8540649414	27.8919849396	9.59286212921	-19.8281669617	36.0086860657	-25.4370574951
-58.7551841736	24.5363292694	15.4341106415	-19.9509811401	36.0604248047	-25.3889770508
-61.0162696838	24.1109676361	16.0014457703	-20.3355484009	36.1511421204	-25.3449230194
-62.7304840088	23.8908634186	16.6718482971	-20.6766967773	36.2621383667	-25.3083324432
-64.9564285278	23.1717319489	18.6503448486	-20.9089736938	36.4562606812	-25.3923511505
-66.246421814	22.5957584381	19.3923206329	-21.0226707458	36.8240509033	-25.462228775
-64.9082641602	23.6490287781	17.3096904755	-21.2600421906	38.0003471375	-25.8093090057
-62.2177429199	25.0160770416	15.793422699	-20.5880565643	39.5413246155	-25.5188503265
-60.3825454712	25.803976059	15.2961893082	-19.4121456146	40.7386741638	-25.0475540161
-60.5786781311	25.710767746	14.7613706589	-19.2370243073	41.4568061829	-25.124546051
-61.061290741	26.1583652496	13.7532405853	-19.6246490479	41.928730011	-25.3347682953
-60.8255271912	27.2209587097	11.7684230804	-19.6949691772	42.2899971008	-25.4295101166
-60.4595489502	27.6270866394	11.0807800293	-19.6259365082	42.3693771362	-25.2263889313
-60.4643516541	28.3042469025	9.56810188293	-19.5351028442	42.205291748	-24.9077358246
-60.5013656616	30.6584854126	6.15977144241	-19.5311260223	41.9940490723	-24.6167201996
-60.467590332	33.2941436768	2.81965565681	-19.4255046844	41.8794670105	-24.3813381195
-60.7461471558	32.5176506042	3.1465086937	-19.2652378082	41.8061523438	-24.1439151764
-60.4423980713	29.228345871	9.43156147003	-19.1274967194	41.6709365845	-23.9124774933
-59.936920166	25.4840450287	18.2645397186	-19.0551567078	41.5980758667	-23.7897338867
-60.1319313049	24.9970817566	18.5094985962	-18.9293727875	41.5446014404	-23.7473373413
-60.724155426	25.3732013702	18.4826641083	-18.8396148682	41.6475334167	-23.6750278473
-61.4434623718	26.4846305847	16.4017238617	-19.1350460052	41.9709739685	-23.952337265
-62.1207542419	26.4313602448	16.1090431213	-19.6678962708	42.5860099792	-24.367313385
-62.0483818054	26.402929306	15.8143701553	-20.2992324829	43.3592643738	-24.6610145569
-61.4840965271	26.6974620819	15.3910970688	-20.5166225433	44.8780708313	-23.8091449738
-61.0095176697	26.2802791595	15.7933712006	-20.5578117371	45.5971221924	-22.0160827637
-60.2883300781	26.546749115	15.5562000275	-21.5743217468	44.6598548889	-19.5659503937
-59.9294281006	26.4142246246	15.5139083862	-22.4278297424	44.0577735901	-16.4679012299
-59.7398529053	26.5132369995	15.8311166763	-22.5948696136	43.7569465637	-14.2068271637
-59.1188468933	26.6250915527	15.9959211349	-21.5660305023	43.4806442261	-12.7305994034
-57.6289901733	26.5289516449	15.7608537674	-19.5852851868	42.9700241089	-11.4804563522
-56.7373847961	26.4533538818	15.5786981583	-17.6363143921	41.9363365173	-10.406085968
-55.8031921387	26.0880432129	15.23051548	-15.7941389084	40.6154327393	-9.59102916718
-53.6713256836	26.0191650391	15.4592456818	-13.5385017395	39.4489974976	-8.66821861267
-50.1071624756	26.3539867401	15.367764473	-11.0247440338	39.1717453003	-7.90833187103
-45.0096282959	26.8019828796	16.1622467041	-8.75371170044	39.5600891113	-6.9591627121
-40.6701622009	26.5998954773	17.0897331238	-7.64930582047	39.9296340942	-6.4311504364
-36.6370544434	25.8080310822	18.820734024	-7.43450498581	39.6856422424	-6.7252202034
-32.94556427	26.0369110107	19.8547592163	-6.74620914459	39.3617477417	-6.7753033638
-31.8838176727	26.0249176025	19.9938850403	-6.12555789948	38.9130401611	-6.76597976685
-32.6775436401	25.4791107178	19.9787998199	-5.40002536774	39.1465110779	-5.76844882965
-33.8088035583	25.2255535126	19.947675705	-3.1231470108	39.3350067139	-2.27690410614
-34.8257637024	25.4628391266	19.6158485413	-1.93291974068	39.0312042236	0.771836340427
-35.4721832275	25.6103076935	19.5015068054	-4.59365177155	38.8448562622	-0.642092823982
-36.5885620117	25.5097541809	19.256231308	-9.52019691467	38.4836387634	-5.98551845551
-37.7078285217	24.970790863	19.1093730927	-12.9413089752	37.3537406921	-11.0001649857
