-78.911529541	-16.6667518616	146.218734741	8.21133804321	3.148863554	-1.25570201874
-78.9254684448	-16.3212623596	145.623565674	8.16434288025	3.1329498291	-1.25297415257
-78.7564697266	-16.2862110138	144.991744995	8.31620693207	3.20868778229	-1.26266515255
-77.7750396729	-16.3380565643	141.455322266	8.64088058472	3.57101655006	-1.32062911987
-74.8475570679	-12.3520174026	112.434288025	11.6380004883	4.09955692291	-2.15143489838
-71.7560958862	-8.91983699799	86.6399688721	16.3940544128	4.09953594208	-3.2816286087
-70.5819549561	-6.82285785675	68.8403015137	19.5959472656	3.27035212517	-3.42221713066
-69.3471984863	-4.27967023849	54.2902259827	20.5204696655	2.87230038643	-3.29078698158
-71.319480896	-5.07753276825	62.7060012817	19.8773498535	2.59235930443	-3.33429932594
-74.011756897	-5.87368535995	78.6047973633	18.7939167023	2.23928308487	-3.19502234459
-75.0298461914	-6.13437223434	79.3409500122	17.2032413483	1.68399834633	-3.03787636757
