-30.1458072662	4.89679908752	25.3398151398	-16.4068813324	11.2597293854	-35.0551681519
-30.0530567169	4.90942811966	25.3470363617	-15.9821929932	11.2836236954	-34.808216095
-29.9660053253	5.28574228287	25.2560424805	-15.4455890656	11.4323596954	-34.6206741333
-29.8603801727	5.59109020233	25.2071914673	-13.9669723511	12.0215950012	-33.4823646545
-28.993686676	5.70420598984	25.0288505554	-10.533162117	12.5591335297	-30.6182842255
-27.3049030304	5.53818416595	25.1767292023	-6.81955337524	12.1646766663	-26.8337898254
-24.2515983582	3.79017305374	27.4521694183	-4.87622356415	10.9537506104	-23.6458511353
-20.2345981598	1.79494178295	28.2987995148	-3.99399256706	9.71002006531	-21.8896980286
-15.3346061707	0.463232189417	28.5642623901	-3.64763355255	9.12070846558	-21.4069366455
-11.6942195892	0.0115440255031	27.8025951385	-3.50424647331	8.71691989899	-21.5664272308
-10.4504547119	-0.47569590807	27.9226131439	-3.44616365433	8.64055156708	-21.8719844818
-11.6721820831	-0.261206686497	27.6548118591	-3.43868803978	8.37059116364	-22.0463428497
-14.0296506882	0.0032734577544	27.6661453247	-3.81223082542	7.87573766708	-22.4877223969
-15.5812129974	-0.181696355343	27.9422454834	-5.71772909164	6.96714115143	-22.4598064423
