-70.9893493652	-47.7332191467	137.126998901	8.9745759964	7.29415035248	0.524745762348
-71.0236053467	-48.0045318604	136.609039307	8.956366539	7.31312513351	0.507333755493
-71.0872879028	-48.2263298035	136.492416382	8.96756839752	7.30881690979	0.492318689823
-70.8326263428	-48.5408859253	134.992019653	9.11678504944	7.31346464157	0.515397369862
-59.3377227783	-51.3920669556	103.481895447	10.7924556732	7.34553146362	0.821222364902
-48.9017677307	-51.4554672241	83.3759613037	16.2580928802	7.05893039703	1.87943148613
-47.6789054871	-50.9815177917	82.1361694336	23.6837558746	6.09076929092	3.49510240555
-47.9723815918	-50.6779403687	83.0832138062	29.4448471069	5.05830144882	5.91871976852
-48.5235137939	-50.3417778015	84.1449966431	31.8648204803	4.35737752914	8.45226764679
-48.2556419373	-49.5934143066	84.2311935425	31.6043300629	4.84699487686	10.5528650284
-48.2214050293	-48.7239456177	84.950088501	30.5755329132	5.89474773407	12.4547376633
-47.1191978455	-47.9518051147	83.3627548218	30.3458709717	7.2436375618	14.9438800812
-46.4047546387	-47.2930984497	82.6303024292	31.2094497681	8.39172649384	17.7071819305
-45.7519950867	-46.7959938049	82.8079071045	33.2571334839	9.10006999969	19.9506855011
-43.8551712036	-46.5131759644	85.1198654175	34.946685791	9.74995422363	20.8229255676
-34.8223342896	-46.0865821838	74.5150222778	35.8329429626	10.3642978668	20.408367157
