-84.7967071533	-27.9242725372	144.909347534	9.5367307663	1.69688045979	0.302419424057
-84.8510971069	-27.8411312103	144.960281372	9.4517364502	1.59832465649	0.373004376888
-84.8159866333	-27.6016139984	144.455291748	9.30512046814	1.57269406319	0.465389549732
-85.3756408691	-27.6429901123	144.442016602	8.78656959534	1.49185526371	0.581090211868
-85.855506897	-27.5032672882	142.953460693	8.09198570251	0.829635381699	0.761573255062
-84.9944000244	-27.3769207001	135.074523926	7.80205059052	-1.85210359097	0.936762213707
-82.461730957	-26.4473743439	116.132781982	7.60846042633	-5.36080741882	1.03276753426
-79.8252029419	-23.7199306488	95.0641479492	7.1326546669	-9.05853843689	1.32907998562
-77.2341766357	-21.5000934601	82.393913269	6.6179690361	-12.2687654495	1.62873458862
-72.2793426514	-15.4559049606	52.7436904907	6.42979621887	-14.4162168503	1.42977499962
-69.8000640869	-11.4751424789	27.0179653168	7.15029382706	-15.1782836914	0.537055492401
-70.7947845459	-8.13536548615	18.8294734955	8.00924777985	-15.2498874664	0.116030335426
-73.2939300537	-9.93490028381	33.3468589783	8.14273738861	-15.4725799561	0.0235500596464
-75.0549316406	-13.4274272919	60.460773468	8.14537906647	-15.9995288849	0.060556307435
-75.285736084	-15.7282333374	72.9290542603	8.51721096039	-17.2239208221	-0.338597178459
-74.2650756836	-16.266626358	75.3368301392	9.34142494202	-18.5924625397	-1.03126049042
-74.1975631714	-14.0923271179	59.5591888428	10.4327087402	-19.8770542145	-1.78410899639
