0.00340676307678	1.04745936394	0.228212118149	0.135816574097	1.62224674225	-0.00119161605835
0.00231862068176	1.04814219475	0.22802901268	0.135552406311	1.62193799019	-0.00164937973022
0.000881433486938	1.04660344124	0.226759195328	0.134318590164	1.62005794048	-0.00192713737488
-0.00449681282043	1.03800225258	0.220718622208	0.128987789154	1.61624920368	-0.00102519989014
-0.0131211280823	1.02924251556	0.208609223366	0.118359804153	1.61708593369	0.000483274459839
-0.0217633247375	1.01913356781	0.195294857025	0.10478925705	1.62184381485	0.000573515892029
-0.0287473201752	1.01891303062	0.188752889633	0.0931205749512	1.62694323063	-3.50475311279e-05
-0.0340204238892	1.02924919128	0.18969976902	0.0840709209442	1.63042402267	-0.000813841819763
-0.0378499031067	1.05163407326	0.194586515427	0.0775079727173	1.63379609585	-0.00189852714539
-0.0426976680756	1.07254910469	0.196107506752	0.0721924304962	1.63763999939	-0.00337338447571
-0.0475101470947	1.07976877689	0.193955898285	0.0672948360443	1.64050006866	-0.00514101982117
