-67.247505188	-11.2716274261	141.431671143	13.6779203415	15.7371244431	3.32209229469
-67.4623031616	-11.0690107346	141.540328979	13.6443014145	15.6996555328	3.37130022049
-67.8320846558	-11.0194549561	141.930404663	13.6028280258	15.6741123199	3.50111222267
-68.0791702271	-11.0354185104	141.970153809	13.4302835464	15.1780223846	3.63333415985
-67.2275466919	-11.0285129547	135.540206909	12.8318405151	13.4250822067	3.84417843819
-67.6581497192	-10.3596954346	127.90940094	11.6305370331	11.4854478836	4.14966773987
-69.3918914795	-10.8393478394	120.952041626	10.0525102615	9.65523529053	4.31696271896
-69.2911605835	-9.40473651886	109.137741089	8.22773551941	8.59195804596	4.84632253647
-69.3379821777	-8.89454746246	100.306289673	6.39634466171	7.72288417816	5.26752376556
-70.6682891846	-7.87546682358	94.7012710571	4.9140329361	7.36939620972	5.33511257172
-70.9662857056	-7.56408071518	88.4777679443	4.37476968765	6.98669576645	5.23511505127
-70.2488632202	-6.83417367935	78.4509277344	4.59298849106	6.38064146042	4.99029397964
-70.5809326172	-7.39009714127	80.1312561035	5.04499292374	5.18815565109	4.72022724152
-70.0836639404	-8.87242794037	84.274017334	5.55705118179	3.06051874161	4.69954967499
