0.0	-0.0	-131.422622681	-1.50518214703	85.7164840698	68.7749404907
0.0	-0.0	-130.753509521	-1.73886048794	85.1514511108	68.8307571411
0.0	-0.0	-129.830841064	-1.44951963425	85.0682220459	68.3902053833
0.0	0.0	-118.67905426	-1.50880479813	84.9778594971	67.019744873
0.0	0.0	-98.3677215576	0.960108160973	84.2429275513	63.7364311218
0.0	0.0	-86.6502151489	10.4347963333	77.9790878296	60.1505851746
0.0	0.0	-81.9365768433	23.9919643402	67.4446716309	54.2355003357
0.0	0.0	-79.1013259888	37.8730506897	51.1022186279	52.2878684998
0.0	0.0	-77.2254867554	46.9870529175	37.7228279114	51.6794509888
0.0	0.0	-75.6854248047	52.2179412842	31.5914554596	49.7885360718
0.0	0.0	-75.9707260132	58.187915802	28.8669986725	40.607460022
0.0	0.0	-77.9498748779	63.7353019714	30.4724445343	32.9092788696
0.0	0.0	-78.4686279297	60.4313850403	35.1609916687	33.2607841492
0.0	0.0	-79.2324371338	50.3058166504	42.8035011292	37.5189628601
0.0	0.0	-79.933052063	45.3347053528	44.149017334	41.8066329956
0.0	0.0	-79.2120437622	45.6593208313	41.599407196	44.6340637207
