0.0	-0.0	141.816604614	-106.320533752	78.150352478	177.222366333
0.0	-0.0	141.576293945	-106.479110718	78.0861206055	176.870574951
0.0	-0.0	141.555664062	-106.538574219	77.97681427	176.654022217
0.0	-0.0	140.762680054	-108.223091125	76.3427886963	176.868896484
0.0	-0.0	139.086303711	-115.890419006	72.5054626465	177.562606812
0.0	-0.0	137.818969727	-128.721694946	68.2439880371	178.697982788
0.0	-0.0	134.632369995	-142.071456909	62.7027168274	178.946350098
0.0	-0.0	129.155639648	-152.165786743	58.0050201416	179.415557861
0.0	-0.0	120.378227234	-157.913467407	54.9086532593	-179.458099365
0.0	-0.0	117.372947693	-161.589813232	52.7873725891	-177.987792969
0.0	-0.0	113.487548828	-165.768630981	50.3652572632	-176.70880127
0.0	-0.0	108.567100525	-170.717636108	47.5435371399	-175.268981934
0.0	-0.0	103.462089539	-176.04838562	44.9848175049	-174.506408691
