-83.7219924927	-51.5499992371	139.512176514	8.03989982605	5.65326595306	-2.26710677147
-83.3630752563	-51.5181922913	138.903137207	8.05412006378	5.72105932236	-2.23913431168
-83.2624969482	-51.5852775574	138.871017456	8.05592632294	5.79228830338	-2.23236036301
-82.8320922852	-51.8485908508	138.14390564	8.10632133484	6.01616382599	-2.25231361389
-82.2574539185	-52.0663490295	137.253799438	8.24442577362	6.17433643341	-2.25813913345
-82.6915130615	-52.5334739685	137.494781494	7.93108129501	5.36182355881	-2.14257740974
-84.1207427979	-53.628276825	135.185943604	6.71465015411	2.73411750793	-2.00290226936
-84.3996734619	-55.9445495605	125.3539505	4.65568828583	-1.00543570518	-1.7923605442
-78.9950408936	-59.5140571594	103.348068237	2.34069752693	-4.99684095383	-1.68245601654
-76.560043335	-61.1768836975	90.5124130249	0.0418019779027	-8.04369735718	-1.42146837711
-75.7360305786	-61.4542884827	81.4523925781	-2.56476640701	-10.1331138611	-0.958553791046
-78.9595489502	-62.1480560303	79.2545471191	-6.12643861771	-12.0960826874	-0.0919215455651
-76.7461929321	-63.8858795166	71.6828155518	-9.2837305069	-14.401506424	0.519753038883
-66.9001159668	-65.2773132324	55.399936676	-10.6325597763	-16.2937965393	0.495680391788
-60.1667747498	-65.5839996338	45.7574615479	-10.4274711609	-17.4176216125	0.238744258881
-64.3264541626	-65.6011047363	53.502696991	-10.0311136246	-17.9027500153	0.271665781736
-68.9851608276	-65.6196517944	60.7789611816	-9.99775505066	-18.289691925	0.532385826111
-71.9560317993	-65.4139785767	65.3465957642	-9.7511177063	-18.9754714966	0.743706762791
-72.1084976196	-64.9953994751	66.122215271	-9.21259593964	-20.1811676025	0.602543950081
-74.0141143799	-64.6389083862	69.3509750366	-9.00433444977	-21.3040218353	0.467521935701
-74.6275177002	-64.8014984131	69.8949279785	-9.09909629822	-22.1692905426	0.390560865402
-75.8756103516	-64.7909469604	72.0651779175	-9.21825122833	-22.6141853333	0.268381088972
-76.1214523315	-64.7435531616	72.2948989868	-9.01706218719	-22.8276119232	-0.0579470507801
