-0.137007713318	1.05490493774	0.128558635712	0.00877165794373	1.69975161552	-0.0019416809082
-0.136645555496	1.05408501625	0.128064036369	0.0098717212677	1.69939494133	-0.0010142326355
-0.13581943512	1.05424547195	0.128113389015	0.010644197464	1.69901442528	-3.99351119995e-05
-0.136242866516	1.05534005165	0.129413723946	0.0109934806824	1.69928991795	0.000730752944946
-0.138493061066	1.05613994598	0.129457354546	0.0105595588684	1.70166134834	0.00135910511017
-0.142521858215	1.0539431572	0.127785086632	0.00949883460999	1.70634126663	0.00126171112061
-0.148732662201	1.04895806313	0.12443113327	0.00802159309387	1.70994389057	0.0010507106781
-0.154703378677	1.04681253433	0.12098801136	0.00605773925781	1.71117329597	0.00181484222412
-0.159400701523	1.04651498795	0.118971705437	0.00412845611572	1.71084535122	0.00320565700531
-0.162942409515	1.04687380791	0.117206811905	0.0014374256134	1.71070563793	0.00486969947815
