-0.0158066749573	1.10127663612	0.244263410568	0.129140615463	1.59363806248	0.0433505773544
-0.0164864063263	1.10028243065	0.244021892548	0.127040147781	1.59409987926	0.0438326597214
-0.0178229808807	1.10028016567	0.243634223938	0.125904321671	1.59432172775	0.0433745384216
-0.018682718277	1.10016644001	0.243552684784	0.124652385712	1.59458971024	0.0423251390457
-0.0198385715485	1.09616935253	0.242364883423	0.122116804123	1.59380972385	0.0412595272064
-0.0255601406097	1.09043204784	0.23582136631	0.118053674698	1.59310042858	0.0410188436508
-0.0312449932098	1.08540284634	0.228181958199	0.112659692764	1.59616935253	0.0413368940353
-0.031585931778	1.08346426487	0.225933074951	0.106866121292	1.60061252117	0.0402668714523
-0.0223798751831	1.08487510681	0.23433804512	0.103516817093	1.60401821136	0.0381608009338
-0.00223255157471	1.09009087086	0.251915693283	0.103957653046	1.60719609261	0.0353630781174
0.023491859436	1.09802663326	0.269031882286	0.107224702835	1.60965192318	0.0320003032684
0.0490341186523	1.10384941101	0.281088709831	0.113904476166	1.61118066311	0.0287710428238
0.0749061107635	1.10476386547	0.289222002029	0.124673128128	1.61181104183	0.0246032476425
0.0983295440674	1.10367739201	0.294452786446	0.134277105331	1.61197710037	0.0201508998871
0.121018409729	1.10121321678	0.297223448753	0.140618562698	1.61239469051	0.0168482065201
0.142733812332	1.09847140312	0.297555923462	0.144285917282	1.61242032051	0.0143032073975
0.154467821121	1.0961676836	0.297805070877	0.146126508713	1.61238276958	0.0130753517151
0.153808116913	1.09623074532	0.29768717289	0.146677732468	1.61176168919	0.0125787258148
0.145592451096	1.09797000885	0.297216534615	0.146656513214	1.61133313179	0.0121026039124
0.136698961258	1.10170602798	0.296317100525	0.146601676941	1.6116707325	0.0107824802399
0.12913441658	1.10173463821	0.296258926392	0.146837234497	1.61332678795	0.00781226158142
0.123989343643	1.10198235512	0.295777082443	0.147175550461	1.61556684971	0.00376284122467
0.124495506287	1.10195016861	0.294494509697	0.148666143417	1.6168833971	-0.00136780738831
0.13488483429	1.10230410099	0.292108178139	0.14977145195	1.61786365509	-0.00665211677551
0.15706205368	1.10429573059	0.289345622063	0.149238109589	1.6184617281	-0.0103094577789
0.162264347076	1.10592925549	0.288947701454	0.14867401123	1.61842620373	-0.0126962661743
