-26.6911010742	3.56338095665	31.3108215332	-6.02881240845	12.4010829926	-33.862361908
-26.5715847015	3.6529045105	31.2731971741	-5.79682254791	12.6374435425	-33.8012466431
-26.4282360077	3.74248361588	31.282957077	-5.60899877548	13.0433712006	-33.5709457397
-26.2202911377	4.06015634537	31.1813983917	-4.65626525879	14.2799806595	-32.8758621216
-25.4351844788	4.67613840103	30.2568378448	-1.87422001362	17.1642036438	-31.5370254517
-23.7722549438	6.64088535309	26.0056838989	2.28819608688	20.5694923401	-29.7373638153
-21.6261024475	8.60370731354	23.6285953522	4.89086437225	22.671453476	-28.5641212463
-18.0117702484	12.1314296722	19.4545497894	5.59719419479	23.5653266907	-28.4248600006
-14.0526714325	15.8711671829	17.2681884766	5.60647439957	24.0952014923	-28.583814621
-12.6254558563	19.9672527313	14.5277767181	5.41985702515	24.5369529724	-28.5840091705
-12.4534654617	22.8661804199	11.9250411987	5.24702119827	24.9882221222	-28.6117420197
-13.3452777863	26.5861129761	7.98438215256	5.29435300827	25.5590953827	-28.5631713867
-13.8113307953	29.2883148193	5.29043054581	5.27252149582	26.1570129395	-28.6855926514
-14.0297651291	28.5006713867	6.59679937363	4.32936286926	26.7722949982	-30.1931667328
-14.1461009979	24.7305107117	11.9242677689	1.14757692814	26.0495529175	-32.8219604492
-14.8601770401	22.6005039215	13.3355693817	0.0674231052399	25.9162273407	-32.1347160339
-15.1006355286	20.6277103424	15.7975463867	3.69010686874	27.3370246887	-28.3882045746
-15.4213457108	18.561668396	20.0334758759	8.05027103424	29.3674488068	-24.5197753906
-15.9266633987	16.944065094	21.2260112762	10.9574098587	30.9229469299	-22.1800861359
-15.4041576385	16.8965492249	20.6041622162	12.5608301163	31.7417106628	-21.1096572876
-13.854842186	19.9205970764	17.6929073334	13.4103755951	32.4559288025	-20.9498329163
-11.5293960571	23.3844718933	14.2560777664	13.7655296326	32.9316673279	-20.999332428
-9.40231704712	26.9536514282	11.2028036118	13.8371763229	33.2335243225	-21.1886825562
-8.79565620422	26.2363014221	12.0371484756	13.6444606781	33.4357643127	-21.4478645325
-9.51844501495	25.4833984375	12.5909070969	13.4206285477	33.6127891541	-21.4810218811
-10.0219593048	25.8760032654	12.132144928	13.1315774918	34.0135307312	-21.8899745941
-10.3202495575	26.3339061737	12.3613624573	12.6254196167	35.7165298462	-23.4771595001
-10.4597740173	26.1223526001	12.764418602	12.0029392242	37.5330238342	-25.7215499878
-11.062417984	25.6493740082	12.9362382889	9.94033241272	37.6592254639	-27.7654476166
-11.5254240036	24.2789916992	13.9983196259	8.80663013458	36.5731163025	-26.1140804291
-11.5146884918	23.4009208679	15.0303668976	9.798828125	35.7649421692	-22.0263671875
-11.8105182648	22.8640537262	15.9412946701	12.9868755341	35.9125480652	-17.1178913116
-12.0202217102	22.4898757935	16.4476547241	16.0321846008	36.1878318787	-13.0123968124
-11.6511545181	22.1060314178	16.7336750031	17.7478179932	36.4151306152	-11.0019235611
-9.10703849792	22.6571102142	15.4036026001	18.7491798401	36.5889358521	-10.6519212723
-3.97898507118	25.069978714	12.6053857803	19.4658184052	36.7857551575	-10.9185428619
-1.45570421219	23.7284984589	14.0280456543	19.3425388336	36.8045272827	-11.4522733688
-0.922906279564	23.1461009979	13.9829406738	18.9687385559	36.7850036621	-11.8453989029
-0.77058506012	23.0554103851	14.0613136292	18.6032276154	36.6867141724	-12.25370121
-0.669624984264	23.796251297	13.1005001068	18.4870567322	36.788230896	-12.4093599319
