-0.0219345092773	1.40653324127	-0.0432298183441	0.0702240467072	1.69806361198	-0.187002897263
-0.0232837200165	1.40629279613	-0.0441392660141	0.069976568222	1.6980612278	-0.187286615372
-0.0243697166443	1.40506887436	-0.0452961921692	0.0695593357086	1.6981357336	-0.186959385872
-0.0251965522766	1.40371370316	-0.0451028347015	0.0685930252075	1.69747519493	-0.186441659927
-0.0253262519836	1.39992630482	-0.0373992919922	0.0678398609161	1.69553470612	-0.185155630112
-0.0268306732178	1.39018952847	-0.0273324251175	0.0680663585663	1.69168877602	-0.182504296303
-0.0280249118805	1.3837262392	-0.0242388248444	0.0691685676575	1.68884050846	-0.179437398911
-0.029248714447	1.37428188324	-0.0136371850967	0.0701746940613	1.68526721001	-0.17763209343
-0.0224642753601	1.36804866791	7.25984573364e-05	0.0707514286041	1.6826261282	-0.176448822021
-0.0172202587128	1.36925315857	0.00580203533173	0.0713965892792	1.68157577515	-0.175832986832
-0.0156519412994	1.37045037746	0.00852382183075	0.0718564987183	1.68087363243	-0.176243543625
-0.0148954391479	1.37123012543	0.0105533599854	0.0723264217377	1.68075525761	-0.176761388779
-0.0149879455566	1.37035655975	0.0108392238617	0.0724911689758	1.68078398705	-0.176884889603
-0.0160393714905	1.36928975582	0.0111788511276	0.0724112987518	1.68056857586	-0.177025556564
-0.0179924964905	1.37071609497	0.00799489021301	0.0714178085327	1.68074393272	-0.177171945572
-0.0223090648651	1.37357747555	0.00327670574188	0.0692644119263	1.68250870705	-0.177930593491
-0.0263047218323	1.37383830547	0.00319147109985	0.0659878253937	1.68294656277	-0.182001113892
-0.0278100967407	1.37568593025	0.00258934497833	0.063291311264	1.67940282822	-0.190116643906
-0.0294628143311	1.38099324703	-0.0031703710556	0.0624706745148	1.67887020111	-0.203054189682
-0.0322937965393	1.38481259346	-0.00999677181244	0.0627858638763	1.6853055954	-0.216879844666
-0.0344417095184	1.38665604591	-0.0148491859436	0.0629463195801	1.69042289257	-0.23007273674
-0.0371732711792	1.38710486889	-0.022045135498	0.0632100105286	1.69119501114	-0.241780400276
-0.0379800796509	1.38676226139	-0.0215402841568	0.0637345314026	1.69104254246	-0.250382900238
-0.0358457565308	1.38727664948	-0.0187840461731	0.0644671916962	1.69030344486	-0.255700826645
-0.0389306545258	1.38376498222	-0.0209889411926	0.0652191638947	1.68892669678	-0.258955955505
-0.0453402996063	1.37786650658	-0.024497628212	0.0649917125702	1.68729829788	-0.260910153389
-0.05655169487	1.37494242191	-0.0356426239014	0.0632517337799	1.68601739407	-0.260466337204
-0.0664949417114	1.37241184711	-0.047039270401	0.0602204799652	1.68255281448	-0.257520437241
-0.0752849578857	1.36799311638	-0.052711725235	0.0565326213837	1.67742359638	-0.255102396011
-0.077513217926	1.36868321896	-0.0555033683777	0.053551197052	1.67417299747	-0.253842830658
-0.0752108097076	1.36811137199	-0.05040371418	0.0524060726166	1.67322480679	-0.254469633102
-0.0727877616882	1.36557269096	-0.0441086292267	0.052517414093	1.6743183136	-0.256429553032
-0.0716907978058	1.36460280418	-0.0455701351166	0.053230047226	1.67597281933	-0.258431196213
-0.0715045928955	1.36124992371	-0.0456663370132	0.0539491176605	1.67643737793	-0.260167360306
-0.0725972652435	1.35430014133	-0.0442636013031	0.0545921325684	1.67548203468	-0.261861085892
-0.072615146637	1.34812438488	-0.0419869422913	0.0550734996796	1.6750497818	-0.263480782509
-0.0729269981384	1.34676802158	-0.0429174900055	0.0546970367432	1.67511296272	-0.265016317368
-0.0766263008118	1.35583531857	-0.0552039146423	0.0535423755646	1.67539083958	-0.26610159874
-0.0776212215424	1.36497426033	-0.06442964077	0.0525233745575	1.67567503452	-0.266921281815
-0.0749027729034	1.37221908569	-0.0677089691162	0.0520241260529	1.67895555496	-0.268171787262
-0.0715501308441	1.3759175539	-0.0660443305969	0.0523529052734	1.68437445164	-0.271459341049
-0.070506811142	1.37478423119	-0.0631057024002	0.0533275604248	1.68932211399	-0.276125669479
-0.0712406635284	1.37104272842	-0.0615382194519	0.0536258220673	1.69340217113	-0.282044410706
-0.0717616081238	1.36966025829	-0.0628113746643	0.0533690452576	1.69566833973	-0.286508321762
-0.0703966617584	1.37095355988	-0.063570022583	0.0532782077789	1.6956397295	-0.28822183609
-0.0698373317719	1.371109128	-0.0648441314697	0.0538520812988	1.69320166111	-0.287404537201
-0.0708520412445	1.36903715134	-0.0658152103424	0.0637784004211	1.68848228455	-0.285848140717
-0.0706133842468	1.36773180962	-0.0663998126984	0.0734367370605	1.68657076359	-0.285777926445
-0.0678827762604	1.36744809151	-0.0637764930725	0.0752801895142	1.68837618828	-0.282247543335
-0.0648472309113	1.36508560181	-0.0584735870361	0.073634147644	1.68735229969	-0.277548789978
-0.0631804466248	1.36244034767	-0.0546774864197	0.0711514949799	1.68277657032	-0.270956158638
-0.0638329982758	1.35982096195	-0.0537300109863	0.0701644420624	1.67829251289	-0.264494776726
-0.0653402805328	1.35800135136	-0.0526988506317	0.070365190506	1.67457485199	-0.259648323059
-0.0667502880096	1.35690510273	-0.0502557754517	0.0699598789215	1.67023456097	-0.255474090576
-0.0674510002136	1.3573333025	-0.0481176376343	0.0696399211884	1.66652977467	-0.251940011978
-0.0685012340546	1.35704600811	-0.0468654632568	0.06991147995	1.66453301907	-0.249003410339
-0.0692391395569	1.35694789886	-0.0450301170349	0.0706608295441	1.6627727747	-0.246524095535
-0.0636351108551	1.35664975643	-0.0338127613068	0.0716946125031	1.66135525703	-0.244536399841
-0.0578472614288	1.35703909397	-0.0231425762177	0.0725121498108	1.66037273407	-0.242153286934
-0.0551307201385	1.3572152853	-0.0188503265381	0.0728220939636	1.65941607952	-0.240080356598
-0.0544877052307	1.35364806652	-0.0151660442352	0.073308467865	1.65913772583	-0.238728880882
-0.0547287464142	1.34387469292	-0.00851237773895	0.0739395618439	1.65901088715	-0.238474845886
-0.0547840595245	1.34379994869	-0.00802707672119	0.0739822387695	1.65908050537	-0.238394498825
-0.0573132038116	1.35028076172	-0.0154092311859	0.0736377239227	1.66027271748	-0.238919854164
-0.0631220340729	1.35660922527	-0.028916478157	0.0744755268097	1.66388761997	-0.239551782608
-0.065239906311	1.35940873623	-0.0363137722015	0.0716419219971	1.66550159454	-0.239382982254
-0.0656614303589	1.3592813015	-0.0397765636444	0.0600287914276	1.66451120377	-0.235337972641
-0.0644502639771	1.3586037159	-0.0412535667419	0.0470495223999	1.66452777386	-0.230898857117
-0.06431889534	1.3577324152	-0.0408433675766	0.0383808612823	1.66588056087	-0.227442026138
-0.0656898021698	1.35746753216	-0.0410842895508	0.0336740016937	1.66632473469	-0.224537134171
-0.0676808357239	1.35751640797	-0.0430053472519	0.0300652980804	1.66606163979	-0.221861362457
-0.0702295303345	1.35728335381	-0.0456554889679	0.027693271637	1.66628551483	-0.219838619232
-0.0734331607819	1.35790741444	-0.0519912242889	0.0298192501068	1.66742956638	-0.217728376389
-0.079892873764	1.35680305958	-0.0611283779144	0.0369815826416	1.66775810719	-0.215821385384
-0.083242893219	1.35885322094	-0.068074464798	0.0453295707703	1.66624033451	-0.215095043182
-0.0843615531921	1.35863733292	-0.0690953731537	0.0511283874512	1.66513180733	-0.2145383358
-0.0837204456329	1.34217631817	-0.0539679527283	0.0570085048676	1.66492724419	-0.214238643646
-0.0758171081543	1.3345849514	-0.0404199361801	0.0646109580994	1.66536593437	-0.214730024338
-0.0701777935028	1.33011555672	-0.0301887989044	0.0719268321991	1.66612625122	-0.214634895325
-0.0654692649841	1.33086979389	-0.0238076448441	0.0772910118103	1.66600358486	-0.213490605354
-0.0613975524902	1.32951653004	-0.0177278518677	0.0799677371979	1.66521608829	-0.21165060997
-0.0582048892975	1.3275141716	-0.011506319046	0.081582069397	1.66536056995	-0.209465026855
-0.053870677948	1.32754254341	-0.00399541854858	0.0834875106812	1.66535580158	-0.207491993904
-0.0502302646637	1.32550179958	0.0021915435791	0.0864057540894	1.66473948956	-0.206685066223
-0.0481338500977	1.32486605644	0.00549960136414	0.0913488864899	1.66471219063	-0.207470774651
-0.04665184021	1.32656645775	0.0063099861145	0.0955238342285	1.66558814049	-0.208966732025
-0.0455338954926	1.32718384266	0.00781393051147	0.0978965759277	1.66781771183	-0.210763692856
-0.0461249351501	1.32707905769	0.00789046287537	0.0984351634979	1.67138659954	-0.213839769363
-0.0491371154785	1.3288705349	0.00492143630981	0.0967035293579	1.67476117611	-0.218817949295
-0.0553932189941	1.32925128937	-7.10487365723e-05	0.0927672386169	1.67771053314	-0.225453853607
-0.0617852210999	1.3305644989	-0.00705254077911	0.0878393650055	1.68070149422	-0.232143878937
-0.0656733512878	1.33196866512	-0.0127108097076	0.0835614204407	1.68232774734	-0.238666057587
-0.067364692688	1.33240306377	-0.0172692537308	0.0807747840881	1.68289506435	-0.246024012566
-0.0688719749451	1.33397555351	-0.0229104757309	0.0794186592102	1.68531513214	-0.253505706787
-0.0691106319427	1.33509147167	-0.0280859470367	0.0782613754272	1.68947994709	-0.2603328228
-0.0684156417847	1.33303010464	-0.0289707183838	0.076975107193	1.69202983379	-0.263524889946
-0.0661101341248	1.32991218567	-0.0275433063507	0.0768504142761	1.68880164623	-0.262753844261
-0.0663175582886	1.32962715626	-0.0312302112579	0.0776107311249	1.68231844902	-0.260896086693
-0.0675048828125	1.32668828964	-0.0336581468582	0.0769760608673	1.67513334751	-0.25913143158
-0.0688767433167	1.32568347454	-0.0357706546783	0.0755016803741	1.67110168934	-0.257639408112
-0.0695850849152	1.32745170593	-0.0370674133301	0.0752058029175	1.67047762871	-0.256438970566
-0.0695841312408	1.33989667892	-0.0444338321686	0.0761513710022	1.67239713669	-0.2550355196
-0.0690672397614	1.35041630268	-0.05095911026	0.0773541927338	1.67674124241	-0.253102302551
-0.066965341568	1.3558447361	-0.0513343811035	0.0782561302185	1.6811337471	-0.251739263535
-0.065703868866	1.35613083839	-0.0508382320404	0.0786848068237	1.68235862255	-0.250763654709
-0.0663216114044	1.36020755768	-0.0555114746094	0.0788676738739	1.68200850487	-0.249179840088
-0.0678102970123	1.36744582653	-0.0659554004669	0.0783231258392	1.68171405792	-0.247714996338
-0.0671241283417	1.37514901161	-0.0738257169724	0.0774338245392	1.68373179436	-0.246561765671
-0.0658266544342	1.37948513031	-0.0734800100327	0.0764975547791	1.68857347965	-0.246427059174
-0.0652167797089	1.37933790684	-0.0691452026367	0.073899269104	1.69186878204	-0.24554681778
-0.0648517608643	1.37708735466	-0.0647900104523	0.0675702095032	1.69211471081	-0.241162896156
-0.0652759075165	1.37586975098	-0.0624386072159	0.0608723163605	1.69147646427	-0.233752727509
-0.0672249794006	1.37501490116	-0.0583968162537	0.0575325489044	1.69040930271	-0.225575685501
-0.0685403347015	1.37598240376	-0.0537912845612	0.0569734573364	1.68884539604	-0.219917058945
-0.0656995773315	1.3776859045	-0.0432958602905	0.0572865009308	1.68837928772	-0.217411279678
-0.0653495788574	1.37545621395	-0.0324227809906	0.0572192668915	1.68885016441	-0.215890169144
-0.0673513412476	1.36645925045	-0.020775437355	0.0566699504852	1.68899476528	-0.213531970978
-0.0717871189117	1.35382175446	-0.0111800432205	0.0563576221466	1.68864583969	-0.210255384445
-0.0787765979767	1.33658456802	-0.004802942276	0.0561881065369	1.68791341782	-0.207433104515
-0.0839614868164	1.32702589035	-0.00100898742676	0.0558326244354	1.68781149387	-0.204478263855
-0.0868535041809	1.32276940346	0.00330662727356	0.0552315711975	1.68688201904	-0.201774120331
-0.0938014984131	1.31329858303	0.00347054004669	0.0542640686035	1.68507671356	-0.199669599533
-0.102001428604	1.30255651474	0.000694036483765	0.052417755127	1.68328797817	-0.197131633759
-0.107543945312	1.29710125923	-0.0019017457962	0.0498731136322	1.6816290617	-0.194686174393
-0.112855434418	1.29467952251	-0.00424385070801	0.0469584465027	1.68006074429	-0.193093299866
-0.117721557617	1.29443967342	-0.0066225528717	0.0445666313171	1.67901206017	-0.192736387253
-0.119838237762	1.29888546467	-0.00927066802979	0.0426914691925	1.6783041954	-0.193539857864
-0.12181854248	1.30318367481	-0.0152406692505	0.0411703586578	1.67792642117	-0.194948673248
-0.122338533401	1.30529642105	-0.017829656601	0.0401117801666	1.67789947987	-0.196949481964
-0.125160932541	1.29767107964	-0.0201685428619	0.03919672966	1.67858839035	-0.199704647064
-0.125464439392	1.29377675056	-0.0209062099457	0.0379066467285	1.67923772335	-0.202236890793
-0.128179788589	1.29076373577	-0.0236527919769	0.0361659526825	1.67922151089	-0.20491361618
-0.132474660873	1.28729188442	-0.026876449585	0.0337424278259	1.67917180061	-0.207426548004
-0.138455152512	1.28391051292	-0.0321539640427	0.0294289588928	1.67903602123	-0.209207415581
-0.145864009857	1.28025913239	-0.0384248495102	0.0237557888031	1.67882728577	-0.210502147675
-0.150428771973	1.27913248539	-0.0429463386536	0.020115852356	1.67739117146	-0.212169408798
-0.148284912109	1.28374457359	-0.0413973331451	0.0192708969116	1.67657923698	-0.214374780655
-0.14842915535	1.28530144691	-0.0439751148224	0.0182869434357	1.67623007298	-0.21673977375
-0.149921417236	1.2813719511	-0.0484480857849	0.0181093215942	1.67607355118	-0.219021677971
-0.150977373123	1.28101742268	-0.0524361133575	0.0188653469086	1.6755797863	-0.220351457596
-0.151396989822	1.27818882465	-0.0536863803864	0.0200176239014	1.6750395298	-0.221050977707
