0.0	-0.0	-132.7056427	162.425582886	80.6120834351	-130.151092529
0.0	-0.0	-132.268371582	162.463348389	80.3475189209	-129.912322998
0.0	-0.0	-131.931533813	162.475402832	80.3516159058	-129.63041687
0.0	-0.0	-131.332427979	162.235488892	80.4839782715	-128.763870239
0.0	-0.0	-126.372581482	162.199142456	81.2066879272	-126.233108521
0.0	0.0	-116.607681274	162.813140869	81.4707336426	-124.485389709
0.0	0.0	-105.268226624	163.585067749	81.0030822754	-123.939575195
0.0	0.0	-95.3597488403	164.045211792	80.2824401855	-123.623054504
0.0	0.0	-90.3993301392	164.030319214	79.2875595093	-123.967285156
0.0	0.0	-89.1473846436	163.900512695	78.544670105	-124.732131958
0.0	0.0	-90.638420105	163.665023804	77.3301010132	-128.718826294
0.0	0.0	-93.8755569458	163.543579102	75.0144882202	-139.33039856
0.0	0.0	-97.5775909424	162.089035034	73.600440979	-143.483291626
0.0	0.0	-101.024604797	160.747131348	72.6339874268	-146.676818848
0.0	0.0	-105.1042099	160.271453857	71.903968811	-147.8777771
0.0	0.0	-108.620010376	160.074508667	71.6139678955	-149.292724609
0.0	0.0	-113.085334778	159.947601318	71.649887085	-149.478515625
0.0	0.0	-115.725357056	159.137954712	70.7200317383	-151.950408936
0.0	0.0	-114.533653259	158.446212769	68.9697570801	-160.62336731
0.0	0.0	-111.438217163	157.297149658	67.8484649658	-162.265029907
0.0	0.0	-107.793640137	155.970397949	66.464050293	-164.486938477
0.0	0.0	-101.786460876	154.163803101	66.1048278809	-165.449798584
0.0	0.0	-93.8986663818	153.421020508	66.4426651001	-163.077178955
0.0	0.0	-90.9994735718	152.901672363	67.4075393677	-154.207382202
0.0	0.0	-94.7155380249	152.382583618	67.5932769775	-148.737213135
0.0	0.0	-97.6349868774	150.865188599	67.2243118286	-153.603759766
0.0	0.0	-99.2445220947	148.532684326	67.0050735474	-163.804824829
0.0	0.0	-100.917144775	145.108947754	66.440574646	-168.314071655
0.0	0.0	-102.995292664	144.077224731	65.8980331421	-169.340011597
0.0	0.0	-105.885101318	144.483459473	68.0823822021	-160.184677124
0.0	0.0	-109.778572083	146.82182312	72.504196167	-131.600463867
0.0	0.0	-112.5287323	149.35005188	76.2412948608	-118.75920105
0.0	0.0	-114.392364502	150.064193726	79.4058380127	-103.846504211
0.0	0.0	-115.759109497	150.200958252	81.6519470215	-90.7397689819
0.0	0.0	-116.257011414	149.621673584	81.8353042603	-84.2582931519
0.0	0.0	-116.425712585	149.366073608	82.1026229858	-76.9352264404
0.0	0.0	-116.800369263	150.418319702	81.8898925781	-71.7806549072
0.0	0.0	-116.552986145	151.124572754	80.652923584	-75.712310791
0.0	0.0	-116.691413879	151.10118103	77.0740509033	-95.3322982788
0.0	0.0	-113.997596741	150.762313843	74.6233444214	-111.520591736
0.0	0.0	-110.922172546	151.285232544	75.0805511475	-112.457199097
0.0	0.0	-109.689582825	152.554107666	74.4290542603	-116.496276855
0.0	0.0	-109.332984924	153.43699646	72.6397781372	-126.152374268
0.0	0.0	-108.616859436	153.110595703	71.7033462524	-133.955917358
0.0	0.0	-108.506233215	152.657867432	71.5194778442	-137.505279541
0.0	0.0	-108.223075867	152.106872559	72.7984695435	-133.624542236
0.0	0.0	-107.631202698	152.437301636	76.755859375	-111.141235352
0.0	0.0	-107.010093689	154.088821411	78.0918579102	-103.830688477
0.0	0.0	-108.388381958	154.316009521	78.1488876343	-100.975028992
0.0	0.0	-112.781280518	154.007415771	76.8570632935	-99.5726776123
0.0	-0.0	-122.422355652	152.628890991	75.8127670288	-99.1830825806
0.0	-0.0	-132.019393921	151.454315186	75.4082641602	-99.9547424316
0.0	-0.0	-139.643753052	150.895889282	75.3594360352	-100.440109253
0.0	-0.0	-146.730682373	150.397918701	75.358833313	-100.352096558
0.0	-0.0	-150.369598389	149.97958374	75.0269851685	-102.548652649
0.0	-0.0	-154.627761841	149.0987854	73.3967132568	-109.074966431
0.0	-0.0	-158.278762817	147.487670898	72.1165313721	-112.072212219
0.0	-0.0	-159.800216675	145.341918945	72.0830154419	-113.405639648
0.0	-0.0	-159.837265015	144.165802002	72.3809509277	-113.618423462
0.0	-0.0	-161.518783569	144.267868042	71.7829818726	-113.073974609
0.0	-0.0	-162.402679443	144.054534912	71.0492706299	-113.008293152
0.0	-0.0	-161.140899658	143.48425293	71.310005188	-113.00352478
0.0	-0.0	-159.600997925	142.914047241	71.7983703613	-112.488479614
0.0	-0.0	-156.659698486	142.425613403	72.4369430542	-110.729644775
0.0	-0.0	-155.354248047	143.084609985	72.3464050293	-111.840126038
0.0	-0.0	-154.478637695	146.449676514	68.7162780762	-118.052322388
0.0	-0.0	-153.362167358	147.752212524	65.8603210449	-121.702087402
0.0	-0.0	-151.584396362	147.910186768	64.1748352051	-122.785270691
0.0	-0.0	-150.858856201	146.939910889	64.2918548584	-123.414009094
0.0	-0.0	-150.308029175	145.636169434	64.5615921021	-121.875442505
0.0	-0.0	-150.02406311	147.438934326	67.293838501	-102.791900635
0.0	-0.0	-149.565185547	148.474304199	69.4909286499	-94.7989425659
0.0	-0.0	-149.28968811	149.787338257	70.9861221313	-87.4736251831
0.0	-0.0	-148.556533813	148.642990112	72.3787689209	-84.0737915039
0.0	-0.0	-147.390106201	147.875793457	72.720161438	-96.748878479
0.0	-0.0	-145.006759644	149.822494507	69.6064910889	-118.345405579
0.0	-0.0	-142.247970581	148.52130127	69.1200180054	-128.346603394
0.0	-0.0	-140.665145874	146.957901001	68.0683135986	-133.46144104
0.0	-0.0	-139.191680908	145.468063354	67.0296478271	-136.925247192
0.0	-0.0	-137.887252808	144.409194946	66.8436355591	-137.714569092
0.0	-0.0	-137.531188965	144.33215332	66.7510375977	-137.059448242
0.0	-0.0	-136.75239563	144.558486938	68.1320495605	-130.958404541
0.0	-0.0	-136.207763672	145.306838989	69.4046783447	-123.198005676
0.0	-0.0	-135.700393677	146.615966797	71.2912445068	-113.990730286
0.0	-0.0	-135.607635498	148.833740234	73.4119186401	-124.627471924
0.0	-0.0	-135.375747681	150.796524048	76.7421417236	-130.0365448
0.0	-0.0	-135.091506958	151.618225098	86.2098083496	-124.763870239
0.0	-0.0	-134.716842651	-26.7508640289	88.7725906372	56.6927452087
0.0	-0.0	-134.567687988	-26.2460231781	88.1133804321	58.2974357605
0.0	-0.0	-134.614486694	-26.9854507446	88.2986755371	60.3531227112
0.0	-0.0	-134.604095459	-28.0470523834	88.3034896851	62.7200317383
0.0	-0.0	-134.499343872	-26.0921058655	89.0612411499	61.3879127502
0.0	-0.0	-134.593856812	157.61541748	85.9412689209	-129.094619751
0.0	-0.0	-134.621307373	160.112670898	80.1005706787	-142.135665894
0.0	-0.0	-134.431488037	161.616394043	73.9903564453	-151.964523315
0.0	-0.0	-134.353485107	160.085891724	74.8168640137	-145.240951538
0.0	-0.0	-133.654510498	159.182662964	75.8462600708	-141.18421936
0.0	-0.0	-133.990097046	158.020843506	77.5101699829	-135.513122559
0.0	-0.0	-135.143692017	156.763046265	79.502571106	-128.264984131
0.0	-0.0	-135.996505737	155.793518066	81.0187454224	-122.52646637
0.0	-0.0	-136.46307373	155.965255737	81.7366333008	-122.164878845
0.0	-0.0	-137.308731079	156.902206421	81.0650024414	-124.700622559
0.0	-0.0	-137.206802368	158.297012329	77.3752822876	-132.073471069
0.0	-0.0	-137.718078613	159.151794434	73.8496856689	-140.85383606
0.0	-0.0	-137.980392456	158.316818237	74.2821273804	-139.524887085
0.0	-0.0	-138.018051147	158.535629272	74.9780349731	-137.398468018
0.0	-0.0	-138.029663086	158.438690186	75.9235153198	-134.381698608
0.0	-0.0	-138.462478638	157.92225647	76.8762054443	-130.066345215
0.0	-0.0	-138.084457397	157.579391479	76.5562896729	-130.143051147
0.0	-0.0	-138.154953003	157.449234009	76.911277771	-130.213546753
0.0	-0.0	-138.35017395	157.475997925	76.8333053589	-130.32800293
0.0	-0.0	-138.696121216	157.66065979	76.6339187622	-130.627059937
0.0	-0.0	-138.579483032	157.404769897	76.710319519	-130.655029297
0.0	-0.0	-138.148605347	157.164840698	76.7479705811	-130.600997925
0.0	-0.0	-137.226272583	156.864929199	76.3841400146	-130.362564087
0.0	-0.0	-137.58052063	157.080718994	75.71824646	-130.529556274
0.0	-0.0	-137.481155396	157.669784546	74.2052993774	-131.701507568
0.0	-0.0	-132.624557495	158.408493042	73.8737182617	-132.49206543
0.0	-0.0	-126.705909729	160.338790894	72.6553649902	-135.926879883
0.0	-0.0	-123.874916077	163.490127563	68.1365814209	-145.952072144
0.0	-0.0	-123.427185059	165.961471558	63.0449485779	-157.113723755
0.0	-0.0	-122.788070679	169.62046814	57.8960456848	-169.486419678
0.0	-0.0	-120.592315674	174.216400146	53.1951446533	-178.577026367
0.0	0.0	-118.321884155	178.062362671	46.686416626	171.424621582
0.0	0.0	-117.284263611	-179.681594849	41.9919700623	163.880691528
0.0	0.0	-116.328598022	-178.50970459	39.4876022339	160.163223267
0.0	0.0	-114.071235657	-178.399078369	35.942363739	154.571960449
0.0	0.0	-111.540557861	-176.507675171	44.1583023071	179.524337769
0.0	0.0	-109.400169373	-177.634841919	56.6736793518	-146.35609436
0.0	0.0	-107.14591217	-178.771331787	63.2883033752	-126.844833374
0.0	0.0	-105.573181152	-178.49597168	66.4050674438	-115.883453369
0.0	0.0	-104.689506531	-179.119720459	66.3467102051	-112.58441925
0.0	0.0	-104.346443176	-176.224685669	65.266494751	-113.173408508
0.0	0.0	-103.743736267	-172.19203186	63.834312439	-104.120552063
0.0	0.0	-103.988182068	-170.892211914	58.0644035339	-106.455635071
0.0	0.0	-104.15209198	-172.996002197	45.4219017029	-127.492874146
0.0	0.0	-104.32774353	-175.952774048	37.9909553528	-152.920501709
0.0	0.0	-104.649635315	-177.156326294	36.2486839294	-162.268936157
0.0	0.0	-105.038970947	-177.05809021	33.659740448	-172.528961182
0.0	0.0	-105.552032471	-177.063827515	31.9321517944	179.20300293
0.0	0.0	-106.039718628	-176.47177124	31.9959354401	-178.278610229
0.0	0.0	-105.494430542	-175.578491211	33.1768569946	-172.024276733
0.0	0.0	-105.422393799	-174.855163574	34.9293365479	-165.473693848
0.0	0.0	-104.928985596	-174.061462402	37.8157348633	-153.060241699
0.0	0.0	-102.26965332	-173.713012695	39.8454856873	-148.078933716
0.0	0.0	-91.8827209473	-173.940063477	41.9405632019	-143.10559082
0.0	0.0	-73.656036377	-174.454330444	42.921546936	-140.717666626
0.0	0.0	-52.2455940247	-174.418777466	43.3080635071	-138.550964355
0.0	0.0	-32.0214042664	-173.782089233	43.8864059448	-136.178771973
0.0	0.0	-14.6480360031	-172.952972412	44.8672485352	-133.91355896
0.0	0.0	-5.77542829514	-171.753433228	45.0901451111	-134.447784424
0.0	0.0	-7.21427679062	-172.033447266	42.2944107056	-142.678894043
0.0	0.0	-10.311422348	-173.576431274	41.0746765137	-150.110153198
0.0	0.0	-9.13852214813	-174.229827881	42.32472229	-148.826873779
0.0	-0.0	1.42874908447	-173.960800171	42.9211349487	-147.605758667
0.0	-0.0	16.0765953064	-173.257461548	42.2733612061	-146.985702515
0.0	-0.0	26.202255249	-173.337921143	41.7732543945	-146.553421021
0.0	-0.0	26.7717685699	-174.439865112	41.4108200073	-146.032943726
0.0	-0.0	22.7140045166	-175.513397217	41.204246521	-148.042236328
0.0	-0.0	14.9940690994	-176.681106567	41.537147522	-151.269271851
0.0	-0.0	3.91716456413	-176.847900391	42.4348831177	-151.542160034
0.0	0.0	-8.95167064667	-176.636962891	41.9532279968	-152.726257324
0.0	0.0	-23.9039440155	-175.953903198	41.5290222168	-153.373046875
0.0	0.0	-40.2639045715	-175.140472412	41.6000823975	-154.227294922
0.0	0.0	-54.8196563721	-174.346160889	41.3034362793	-154.20866394
0.0	0.0	-67.0888748169	-174.291397095	41.1491966248	-154.321853638
0.0	0.0	-77.6395645142	-174.530044556	40.6933021545	-155.326522827
0.0	0.0	-86.7025222778	-174.855712891	40.4340057373	-157.354660034
0.0	0.0	-94.5035629272	-174.563537598	40.204875946	-159.643493652
0.0	0.0	-98.622428894	-174.117233276	39.4848251343	-164.10319519
0.0	0.0	-100.903816223	-173.216812134	38.5760116577	-167.892440796
0.0	0.0	-102.138000488	-172.307022095	37.9659690857	-170.673614502
0.0	0.0	-102.906143188	-172.366027832	36.5652084351	-176.876907349
0.0	0.0	-103.004364014	-171.764068604	37.6550865173	-172.984222412
0.0	0.0	-103.034362793	-169.941864014	37.4726638794	-170.277175903
0.0	0.0	-102.977989197	-167.317626953	35.9171981812	-171.683349609
0.0	0.0	-103.116172791	-165.946121216	32.3900337219	-175.75100708
0.0	0.0	-102.630584717	-164.871231079	29.4835987091	-177.113372803
0.0	0.0	-102.125404358	-165.481201172	25.9376487732	178.037109375
0.0	0.0	-101.29548645	-166.609237671	23.9804496765	174.944610596
0.0	0.0	-100.884910583	-167.109054565	25.8093547821	-179.560821533
0.0	0.0	-101.032867432	-167.2318573	34.9875526428	-160.895141602
0.0	0.0	-104.715423584	-167.841247559	34.2795944214	-161.942886353
0.0	0.0	-109.02734375	-167.813278198	33.9932632446	-160.490066528
0.0	0.0	-112.573799133	-167.728271484	34.0053062439	-159.529067993
0.0	0.0	-111.950630188	-167.340774536	34.3244247437	-158.617416382
0.0	0.0	-102.816856384	-167.089157104	35.3522949219	-157.478149414
0.0	0.0	-87.048614502	-166.828613281	36.0103492737	-156.011550903
0.0	0.0	-72.7159347534	-166.452911377	35.9429779053	-155.351165771
0.0	0.0	-64.9154281616	-166.52784729	36.1019973755	-154.380325317
0.0	0.0	-62.2234649658	-166.848251343	35.6188201904	-153.598098755
0.0	0.0	-62.0347213745	-167.724395752	35.4045906067	-154.184677124
0.0	0.0	-63.6795158386	-168.535339355	35.1553344727	-154.229919434
0.0	0.0	-67.0817489624	-169.682556152	35.1951675415	-154.396575928
0.0	0.0	-71.8910064697	-170.230529785	35.1826438904	-154.665542603
0.0	0.0	-74.1722259521	-169.715423584	35.4637451172	-154.48979187
0.0	0.0	-75.2551116943	-169.15045166	35.3332710266	-154.503341675
0.0	0.0	-75.7196655273	-168.944061279	34.9367179871	-154.425537109
0.0	0.0	-75.9326171875	-169.102859497	35.1592750549	-154.076751709
0.0	0.0	-75.3779296875	-169.356491089	36.540184021	-150.786239624
0.0	0.0	-73.9809341431	-169.787246704	39.9791946411	-142.703979492
0.0	0.0	-71.6768417358	-170.391784668	42.1659088135	-134.952285767
0.0	0.0	-69.4641494751	-170.777618408	42.4577331543	-131.790298462
0.0	0.0	-68.0064849854	-171.584228516	40.9628601074	-136.719268799
0.0	0.0	-67.1427383423	-173.313095093	37.4631462097	-152.388580322
0.0	0.0	-66.7454681396	-174.12348938	36.7826957703	-159.304824829
0.0	0.0	-67.2607574463	-174.186340332	36.5417671204	-163.456298828
