-0.139603853226	1.04483795166	0.137131929398	-0.0126583576202	1.67937362194	0.0294238328934
-0.139777898788	1.04552745819	0.136622309685	-0.0132286548615	1.67917966843	0.0280025005341
-0.139764785767	1.04586482048	0.135956764221	-0.0137417316437	1.67902767658	0.0270051956177
-0.139629125595	1.04720544815	0.136195063591	-0.0149297714233	1.67873442173	0.0260155200958
-0.140506982803	1.04686427116	0.134441256523	-0.0166795253754	1.67743468285	0.0251926183701
-0.141873121262	1.04663014412	0.132260084152	-0.0192375183105	1.67336773872	0.0252990722656
-0.142227888107	1.04604840279	0.13130068779	-0.020617723465	1.66905617714	0.0244519710541
-0.142654657364	1.04569983482	0.130098342896	-0.0206289291382	1.66357028484	0.0233064889908
-0.143300771713	1.0443918705	0.128751516342	-0.0195679664612	1.65843474865	0.0226925611496
-0.144375324249	1.04498100281	0.127738952637	-0.0168406963348	1.65449953079	0.0217432975769
-0.144513845444	1.04476451874	0.128188610077	-0.0137767791748	1.65010929108	0.0207333564758
-0.142775535583	1.0451529026	0.129142045975	-0.00978803634644	1.64789807796	0.0197629928589
-0.14168715477	1.04354310036	0.129940032959	-0.00245976448059	1.64818060398	0.0173227787018
-0.140464782715	1.04329872131	0.1313829422	0.00464177131653	1.64454627037	0.013824224472
