0.101057767868	1.2744795084	0.285467386246	-0.0200967788696	1.68378293514	0.0531224012375
0.101628303528	1.27423417568	0.286455392838	-0.0188453197479	1.68333113194	0.0551309585571
0.102059364319	1.2737647295	0.287077665329	-0.0175595283508	1.68247234821	0.057137966156
0.10203909874	1.2729871273	0.287711381912	-0.0159397125244	1.68150174618	0.0587602853775
0.101958990097	1.2792545557	0.285781383514	-0.0112867355347	1.68153882027	0.058929681778
0.10786652565	1.29964160919	0.27984058857	-0.00185322761536	1.68222987652	0.0565202236176
0.122013092041	1.32153451443	0.276503562927	0.00880098342896	1.68274617195	0.0524823665619
0.135248422623	1.33613920212	0.274554729462	0.0158586502075	1.68341004848	0.0495347976685
0.136915922165	1.34663379192	0.271093845367	0.0180401802063	1.68469130993	0.0484991073608
0.128480672836	1.3586922884	0.264622211456	0.0181338787079	1.68733739853	0.0481901168823
0.1219830513	1.36615765095	0.261749744415	0.0175111293793	1.6922596693	0.0463743209839
0.118241071701	1.36903643608	0.262867927551	0.0188553333282	1.69902014732	0.0421893596649
0.115314006805	1.36532461643	0.265511751175	0.0230121612549	1.7033469677	0.0362792015076
0.112750053406	1.36081123352	0.265540957451	0.0278751850128	1.70688009262	0.0313332080841
0.108541965485	1.35838139057	0.264774918556	0.0296521186829	1.71053814888	0.0283198356628
0.10586309433	1.35662579536	0.265012741089	0.028993844986	1.71276950836	0.0278494358063
0.101360321045	1.35504710674	0.266034007072	0.0283219814301	1.71145772934	0.0297658443451
0.0969798564911	1.35307228565	0.267154574394	0.028196811676	1.709425807	0.0333971977234
0.0951457023621	1.34929597378	0.270155787468	0.0279586315155	1.70683431625	0.0372426509857
0.0941207408905	1.34486758709	0.273755073547	0.0262746810913	1.70342028141	0.043135881424
0.0905659198761	1.34086048603	0.276386976242	0.0220544338226	1.69982385635	0.051812171936
0.0862300395966	1.33645796776	0.279912114143	0.0170574188232	1.69730114937	0.0614824295044
0.080064535141	1.33103680611	0.285162687302	0.0130503177643	1.69507789612	0.0718274116516
0.0733556747437	1.32375085354	0.291680216789	0.0103886127472	1.69367909431	0.082404255867
0.068776845932	1.31785094738	0.299064874649	0.00996685028076	1.69330060482	0.0905106067657
0.0665290355682	1.31473612785	0.307586193085	0.0108349323273	1.69471347332	0.0952920913696
0.0678572654724	1.31513381004	0.314020752907	0.011070728302	1.69643008709	0.0981675386429
0.0676407814026	1.31207621098	0.317178249359	0.0106642246246	1.69697654247	0.100197672844
0.0671925544739	1.31174349785	0.317699193954	0.00998258590698	1.69736230373	0.100945949554
0.0671167373657	1.31238079071	0.31819832325	0.00866532325745	1.70030915737	0.0999163389206
0.0670781135559	1.31287634373	0.320130586624	0.00786256790161	1.70567846298	0.0970507860184
0.0647687911987	1.31325876713	0.321053266525	0.00859093666077	1.71083915234	0.0936341285706
