0.0	-0.0	125.268470764	-107.929420471	63.5802688599	176.565093994
0.0	-0.0	115.695220947	-107.226104736	64.1089859009	177.519561768
0.0	-0.0	109.75881958	-107.871940613	64.6884536743	-179.815246582
0.0	-0.0	120.063835144	-110.299324036	66.3202285767	-177.276748657
0.0	-0.0	132.502365112	-114.132980347	69.6551437378	-174.227554321
0.0	-0.0	133.480834961	-115.937232971	70.9677429199	-172.469863892
0.0	-0.0	133.362319946	-114.695266724	71.1913986206	-171.765426636
0.0	-0.0	130.454193115	-111.899681091	70.9759902954	-172.099700928
0.0	-0.0	96.2337112427	-104.711502075	70.8801345825	-174.585754395
0.0	-0.0	50.2029037476	-92.9529953003	71.101348877	-177.760955811
0.0	-0.0	40.936416626	-79.8744812012	71.3985290527	179.693634033
0.0	-0.0	47.3650093079	-69.3372650146	71.5900344849	178.010665894
0.0	-0.0	66.0409317017	-63.1890563965	73.9726486206	177.690689087
0.0	-0.0	80.5342407227	-60.5887565613	81.0965118408	177.726715088
0.0	-0.0	81.8804321289	119.642860413	88.3066635132	-2.95908522606
0.0	-0.0	81.8056640625	118.592063904	83.8318634033	-5.18060684204
0.0	-0.0	78.5464477539	117.640670776	86.6677474976	-6.62309217453
0.0	-0.0	78.3388442993	-63.0893058777	87.7437438965	173.92805481
0.0	-0.0	76.3521347046	-65.4872131348	83.7205657959	174.555847168
0.0	-0.0	74.2335968018	-68.5992965698	81.193901062	174.931228638
0.0	-0.0	73.092666626	-71.8014907837	78.1375808716	176.150543213
0.0	-0.0	82.8743286133	-75.7531433105	74.2727890015	177.628982544
0.0	-0.0	104.857269287	-79.6172332764	71.8458175659	179.484390259
0.0	-0.0	97.6942214966	-81.0785751343	71.6922836304	-177.565933228
0.0	-0.0	93.783821106	-73.2790527344	71.4255371094	-164.397399902
0.0	-0.0	92.8121337891	-60.2440223694	74.9174346924	-142.739105225
0.0	-0.0	92.0676193237	-49.8749580383	79.0866699219	-132.545883179
0.0	-0.0	89.8053283691	-42.3350753784	76.180229187	-130.512207031
0.0	-0.0	90.2504882812	-37.1445999146	73.0007858276	-135.792510986
0.0	-0.0	90.1838302612	-26.8760852814	73.194190979	-139.335235596
0.0	-0.0	94.6197433472	-17.3755741119	75.5197982788	-141.667572021
0.0	-0.0	94.2298736572	-13.8661050797	76.1255111694	-144.599273682
0.0	-0.0	91.4256286621	-15.2739582062	74.9946594238	-146.040512085
0.0	-0.0	91.0751724243	-19.6231060028	72.1708068848	-146.646362305
0.0	-0.0	85.2849807739	-23.7938213348	69.7034225464	-146.972000122
0.0	-0.0	81.6563262939	-22.0602283478	68.8132247925	-144.932510376
0.0	-0.0	82.0101242065	-23.8051967621	64.5544281006	-143.717849731
0.0	-0.0	82.4748458862	-43.7950363159	57.9892463684	-149.143936157
0.0	-0.0	81.4125366211	-71.0974655151	53.9098014832	-159.713470459
0.0	-0.0	81.220954895	-91.6446838379	53.7903633118	-169.250915527
0.0	-0.0	81.4830474854	-100.101387024	54.8305702209	-174.589920044
0.0	-0.0	85.6243896484	-94.1177520752	55.4631538391	-173.213058472
0.0	-0.0	93.6161346436	-79.5621032715	55.8960647583	-169.719238281
0.0	-0.0	93.1954879761	-65.8111495972	58.2125473022	-167.107528687
0.0	-0.0	92.5321426392	-53.3402366638	61.1734390259	-165.481216431
0.0	-0.0	93.8516235352	-43.8444633484	63.9308395386	-164.493026733
0.0	-0.0	103.442771912	-41.1214599609	66.2394561768	-165.758102417
0.0	-0.0	116.675666809	-42.4418373108	67.6695709229	-167.086929321
0.0	-0.0	117.950935364	-42.2315864563	67.2110671997	-167.754806519
0.0	-0.0	73.6918182373	-40.8168907166	66.0163574219	-167.940460205
0.0	-0.0	14.3563127518	-40.2885665894	65.6479492188	-168.051940918
0.0	-0.0	11.2984857559	-41.2016983032	66.3386383057	-168.663467407
0.0	-0.0	9.38791465759	-42.191493988	66.6345291138	-169.008224487
0.0	-0.0	17.8610115051	-41.6804847717	67.4892654419	-169.435836792
0.0	-0.0	25.5089683533	-41.6423606873	73.275177002	-170.236190796
0.0	-0.0	27.7483501434	-44.5452041626	81.3801879883	-171.008880615
0.0	-0.0	28.418920517	-52.918094635	84.0404968262	-171.551925659
0.0	-0.0	29.984336853	-70.4377288818	82.2152862549	-172.03717041
0.0	-0.0	30.4051971436	-88.0238952637	81.7603378296	-171.858428955
0.0	-0.0	30.3536186218	-98.7374420166	81.1636123657	-171.761383057
0.0	-0.0	31.243188858	-100.984725952	79.4910430908	-171.408187866
0.0	-0.0	33.5546188354	-98.348274231	79.6558837891	-171.084884644
0.0	-0.0	36.0831565857	-93.8843612671	81.9449996948	-171.019485474
0.0	-0.0	43.5794448853	-89.8000183105	84.6698379517	-171.020629883
0.0	-0.0	52.129737854	-87.0069274902	86.5846862793	-171.352035522
0.0	-0.0	52.6168823242	-85.0198822021	87.6053009033	-171.586654663
