-0.183526515961	1.20766687393	0.147791385651	0.00291752815247	1.70263290405	0.0420088768005
-0.184784650803	1.20749139786	0.146467685699	0.00264406204224	1.70283269882	0.0417413711548
-0.186409473419	1.20744180679	0.145428776741	0.00171947479248	1.70322573185	0.0420705080032
-0.189832210541	1.20784199238	0.143568992615	-0.000131607055664	1.70346033573	0.0425220727921
-0.192710876465	1.21227765083	0.140217781067	-0.00191974639893	1.705488801	0.0413954257965
-0.194442749023	1.21847403049	0.13944709301	-0.00429344177246	1.71313023567	0.0364947319031
-0.195828914642	1.22138845921	0.142499089241	-0.00755286216736	1.72136437893	0.0279097557068
-0.197239875793	1.2172306776	0.144601464272	-0.0105800628662	1.72748291492	0.0168808698654
-0.196298837662	1.21571910381	0.13862323761	-0.0123319625854	1.73073863983	0.00447964668274
-0.19637799263	1.21108686924	0.129818916321	-0.0125405788422	1.73366189003	-0.00845074653625
-0.195773124695	1.20877587795	0.126133799553	-0.0129377841949	1.73657345772	-0.0213923454285
-0.19459605217	1.20666337013	0.127207756042	-0.0135049819946	1.73774135113	-0.0328024625778
-0.193279743195	1.20398437977	0.129583120346	-0.0140063762665	1.73900699615	-0.042628288269
-0.191523313522	1.20299446583	0.131308794022	-0.0148959159851	1.74010002613	-0.0522031784058
-0.192066431046	1.20010054111	0.128285169601	-0.015702009201	1.73989081383	-0.0613250732422
-0.192883253098	1.19666540623	0.125593543053	-0.0160098075867	1.73915302753	-0.0686295032501
-0.194028615952	1.19499540329	0.123698234558	-0.0163407325745	1.7377820015	-0.0739510059357
-0.196721553802	1.19073855877	0.115927219391	-0.0166625976562	1.73662781715	-0.076855301857
-0.201257705688	1.18107879162	0.113346576691	-0.017019033432	1.73713672161	-0.0782618522644
-0.203209400177	1.18068039417	0.108504056931	-0.0164144039154	1.73781371117	-0.0808472633362
-0.202352046967	1.18492841721	0.108273386955	-0.0130748748779	1.73998999596	-0.0887098312378
-0.201104164124	1.18439114094	0.107692241669	-0.0054497718811	1.74217402935	-0.100093722343
-0.200416326523	1.18109321594	0.104278802872	0.00473070144653	1.74105286598	-0.110124588013
-0.199680805206	1.18042695522	0.100739121437	0.0111620426178	1.73937761784	-0.116728186607
-0.198292732239	1.17975127697	0.0985605716705	0.0131511688232	1.73765826225	-0.117385387421
-0.196794271469	1.17540943623	0.0968565940857	0.0154945850372	1.7354413271	-0.115788459778
-0.195981264114	1.17171418667	0.0950155258179	0.0174422264099	1.73456144333	-0.111203193665
-0.197999954224	1.1681368351	0.0902493000031	0.0174791812897	1.73484027386	-0.10108423233
-0.203314781189	1.17222642899	0.0857751369476	0.0168514251709	1.73519647121	-0.0856561660767
-0.208108186722	1.17614817619	0.0857670307159	0.0157005786896	1.73577415943	-0.0655708312988
-0.212936878204	1.17815411091	0.0830694437027	0.0139791965485	1.73597919941	-0.0474147796631
-0.216559171677	1.18161296844	0.0840308666229	0.0123860836029	1.73562407494	-0.0353157520294
-0.218122959137	1.1869904995	0.0899407863617	0.0102527141571	1.73658573627	-0.0285992622375
-0.219895839691	1.18954825401	0.0981929302216	0.00753045082092	1.73852658272	-0.0257267951965
-0.221583127975	1.18853700161	0.104432821274	0.00456547737122	1.73972928524	-0.0229895114899
-0.223353385925	1.18540346622	0.109993815422	0.00230193138123	1.74076759815	-0.0182206630707
