-62.7532730103	-15.4330415726	142.613510132	7.39474773407	3.64081549644	-0.307036846876
-62.6583099365	-15.3332090378	142.342437744	7.33653354645	3.69296741486	-0.32160037756
-62.7855415344	-15.512178421	142.529876709	7.20172262192	3.58934187889	-0.325788706541
-63.0648612976	-15.6500253677	141.792922974	6.84446763992	3.40585684776	-0.257601708174
-63.7672653198	-15.7844333649	141.349899292	5.22884845734	2.75397253036	-0.0562167130411
-65.790145874	-15.8112277985	140.416915894	1.71532189846	1.43775093555	0.444587737322
-69.5462799072	-16.1778640747	139.288604736	-2.85234451294	-0.908968389034	1.14672553539
-73.9105606079	-16.4324302673	139.060424805	-8.47993659973	-4.19578790665	2.16484546661
-77.7727584839	-16.2732467651	138.920516968	-14.955239296	-8.53182220459	3.08914375305
-81.0827407837	-16.0136432648	139.069107056	-19.7464179993	-12.3237304688	3.74914479256
-82.8992843628	-16.1878585815	136.359817505	-22.4482269287	-15.1448774338	4.4453625679
-80.7664718628	-15.3152742386	107.105796814	-22.499288559	-16.0999469757	4.44716024399
-75.8294754028	-12.0420637131	65.83568573	-21.0118865967	-16.0785236359	4.02156114578
-74.4344787598	-7.4388833046	36.7057533264	-19.1867904663	-16.0406494141	3.35960841179
-74.6984786987	-5.52144527435	30.3705120087	-17.3165035248	-16.0104007721	2.69012665749
-73.9783172607	-2.60169124603	17.5947532654	-16.0042800903	-15.8661708832	2.08003473282
-74.8834075928	-2.26986598969	16.5134887695	-15.3329811096	-16.0233058929	1.76520621777
-73.9106063843	-3.42518901825	23.8768444061	-15.1054906845	-16.9634456635	1.83433020115
-73.9482879639	-3.47572612762	22.9304828644	-14.6437110901	-18.7701950073	1.50173699856
-73.9763259888	-4.07639932632	25.2481307983	-13.5827064514	-20.832857132	0.85332775116
-73.655418396	-5.90119981766	36.3883247375	-13.029706955	-21.9315814972	0.538209140301
-72.8956985474	-7.98691940308	44.8279685974	-12.7452535629	-22.0692443848	0.144376546144
