-0.162352323532	1.15904927254	0.126415729523	0.00244283676147	1.70387780666	0.0398027896881
-0.162431955338	1.15970146656	0.125679016113	0.00297021865845	1.70406258106	0.0387661457062
-0.162527322769	1.16049361229	0.125435829163	0.00339221954346	1.70458090305	0.0378186702728
-0.163554668427	1.16088747978	0.124845743179	0.00316667556763	1.7056337595	0.0365710258484
-0.165376663208	1.16095483303	0.123187065125	0.00205016136169	1.70717060566	0.0356662273407
-0.168317556381	1.1598637104	0.1235049963	0.000215768814087	1.70853698254	0.0357604026794
-0.169756889343	1.15764725208	0.123078465462	-0.00182342529297	1.70930445194	0.0366555452347
-0.17224240303	1.15751767159	0.123189687729	-0.003986120224	1.70942175388	0.0384087562561
-0.175151824951	1.15667653084	0.120999336243	-0.00608325004578	1.70932996273	0.0402302742004
-0.178460836411	1.15442705154	0.117676019669	-0.0085825920105	1.70931088924	0.0424492359161
