-37.1454086304	2.39485120773	25.7454128265	-0.0704772695899	-3.51181936264	-36.8028259277
-37.3454704285	2.33464741707	25.6927165985	-0.152019664645	-3.30809354782	-36.5247306824
-37.2836227417	2.60730600357	25.7262897491	-0.306320607662	-2.83208942413	-36.1807441711
-37.5745010376	2.88649153709	25.9799842834	-1.49758267403	-1.51631999016	-35.1393356323
-38.2320098877	3.24851512909	26.2253494263	-5.20039558411	0.112942866981	-33.3289260864
-38.7685775757	3.31366920471	26.5188484192	-11.1397562027	0.760980367661	-31.1141204834
-39.0250511169	3.5622074604	26.7812347412	-16.7728309631	1.08477330208	-29.0461196899
-39.6177978516	3.80028414726	27.082118988	-21.0915431976	0.986174702644	-26.8015117645
-40.2024497986	4.25477647781	27.1743965149	-24.6605644226	0.635332524776	-23.9953708649
-40.7471389771	4.39266490936	27.2607154846	-28.2940139771	0.52590161562	-20.5896930695
-41.0710983276	4.56465625763	27.1822891235	-31.3727054596	0.939053714275	-17.1423130035
-41.3063087463	4.88090229034	27.1996822357	-32.3571739197	1.76357865334	-14.822350502
-41.4607810974	4.84841442108	27.6421909332	-30.2881278992	1.34881138802	-13.0768585205
-41.6094093323	5.15443325043	27.6572208405	-29.2970619202	0.0386932268739	-11.7054214478
-41.5063781738	5.52865839005	27.347946167	-23.9206352234	-0.559667766094	-11.6137294769
-41.4660797119	5.82276439667	27.7392349243	-12.3829240799	-0.0778433158994	-12.8939914703
-41.1446647644	6.16472244263	28.1440925598	-2.38562774658	4.24708461761	-14.9967155457
-40.37134552	5.65614652634	28.4389400482	1.30474710464	13.0745067596	-16.3047065735
-39.2045631409	5.29496526718	28.1690235138	2.29128623009	19.0772018433	-16.6381053925
-38.391998291	5.64693593979	27.825504303	2.48870253563	22.7193088531	-17.0036334991
-37.7162475586	6.18715572357	26.8080978394	3.18392062187	24.3567008972	-17.6071872711
-35.5585823059	9.45114803314	18.7833309174	3.56992411613	25.8761310577	-18.2656497955
-31.8541164398	14.9789609909	5.67422103882	3.4504301548	26.8341159821	-18.3620700836
-29.8010940552	18.639339447	-2.21027445793	3.2725622654	27.4094600677	-18.5131969452
-28.5800476074	19.5149116516	-2.63392066956	3.52125096321	28.2938995361	-18.498380661
-29.1917686462	21.8562831879	-6.4850230217	3.51385307312	29.7396564484	-18.4822826385
-30.5665626526	25.694021225	-14.1026592255	2.87007522583	31.3022518158	-18.8562660217
-30.656457901	26.0840320587	-13.2445783615	2.05446815491	32.8428382874	-19.3308753967
-28.0575237274	19.936630249	3.36411356926	1.77819418907	33.5889205933	-19.2698707581
-27.9630966187	14.7835044861	10.677989006	1.98061239719	33.9441299438	-19.0446491241
-28.0567798615	15.5682697296	9.19043827057	1.97882390022	34.403755188	-18.7749862671
-29.2055587769	18.0229625702	4.48386764526	1.8136780262	34.7774276733	-18.6209754944
-29.8698806763	19.8330478668	1.71166205406	1.75241863728	35.0710144043	-18.6052703857
-30.1123313904	21.1290149689	-0.187197759748	1.75785958767	35.3229141235	-18.5293502808
-30.0552787781	21.6685466766	-1.3571857214	1.70566022396	35.4878082275	-18.4612751007
-30.4116458893	22.9694652557	-4.36387729645	1.75475370884	35.6310195923	-18.3470554352
-31.0547790527	23.9856109619	-7.77094936371	1.73673391342	35.8440513611	-18.2149829865
-29.8563709259	21.3666858673	-1.63275432587	1.6144900322	35.9814949036	-18.1848888397
-29.108789444	19.0465164185	4.89979028702	1.43482196331	36.0891876221	-18.2491664886
-28.7691993713	17.5140190125	8.5894203186	1.37423801422	36.112121582	-18.3051605225
-28.3762149811	18.0298213959	12.1397151947	1.38856780529	36.1452713013	-18.3848972321
-28.2298603058	20.1489295959	10.661444664	1.52945876122	36.2403106689	-18.477191925
-27.9858398438	21.9378051758	10.5858764648	1.59467709064	36.4345207214	-18.4079246521
-28.3987102509	22.9519500732	9.39735031128	1.36154603958	36.6206359863	-18.5040054321
-28.5295257568	23.4800395966	8.78582000732	1.23443031311	36.7575149536	-18.6082553864
-28.4629383087	24.5249652863	8.17170619965	1.1982614994	36.8680763245	-18.6225948334
-28.4815120697	26.0319213867	6.24026346207	1.13718771935	36.9700546265	-18.6255912781
-28.3041801453	26.5685443878	5.95083761215	1.18473792076	37.1905288696	-18.7339477539
-28.3042030334	27.2948322296	5.49351930618	1.26067912579	37.4197616577	-18.716999054
-28.7993125916	28.4549274445	3.89249181747	1.21336555481	37.59532547	-18.8166999817
-29.2087974548	29.8711853027	2.17039275169	1.2916945219	37.7370414734	-18.8381271362
-29.0942726135	30.0848999023	2.4649951458	1.39252436161	37.8056945801	-18.8686790466
-29.1802406311	30.7154388428	1.9348385334	1.3804192543	37.9422035217	-18.864528656
-29.2197551727	31.1225643158	1.43017685413	1.4347795248	38.0032157898	-18.8294277191
