-83.8582839966	-22.9036560059	137.986175537	10.4953174591	14.4397373199	2.35650730133
-83.6314086914	-22.7531871796	137.585540771	10.6252527237	14.4699907303	2.4354429245
-83.4146347046	-22.6767139435	136.993041992	10.8548269272	14.1209135056	2.56293320656
-82.7774734497	-21.8763904572	132.134277344	10.8952074051	12.5941820145	2.64564275742
-82.0145568848	-21.0909004211	122.488059998	10.3699235916	9.97380828857	2.74673748016
-81.9871673584	-20.3232822418	113.644935608	9.17694759369	7.69148921967	2.69139504433
-82.6960983276	-19.8457927704	103.012878418	7.73441267014	6.13873720169	2.81486177444
-83.3972549438	-20.1273765564	93.3285598755	6.30711650848	5.27695417404	3.00331115723
-85.6177902222	-21.4912052155	89.1365737915	4.36400985718	4.70257568359	3.20723438263
-87.9286956787	-21.6389122009	83.935836792	1.80945956707	3.8501086235	3.46753191948
-88.3066253662	-20.5582714081	70.9355239868	-0.615552484989	2.82463049889	3.70723509789
