-92.8794250488	-39.5021629333	129.65826416	5.80945014954	2.16178178787	0.389542609453
-92.7048416138	-39.3461837769	129.480300903	5.93395328522	2.06937456131	0.251241058111
-91.850944519	-39.2734375	128.54574585	6.05638170242	1.94323503971	0.226654589176
-70.9021148682	-40.2280082703	111.563812256	8.91674804688	1.53554344177	0.201867818832
-37.0711326599	-35.5566139221	82.1525192261	14.2906990051	1.86136424541	0.256842672825
