13.951467514	-13.9620294571	1.45255827904	16.3744506836	21.0021572113	35.8854141235
13.7664995193	-13.1842298508	1.30203831196	15.9827518463	21.5603103638	35.7118721008
13.2748308182	-12.6335029602	1.48800003529	15.6627588272	21.7060604095	35.4002418518
13.8697957993	-11.5639438629	0.896310210228	15.3623933792	21.2446327209	33.5737075806
16.9120292664	-7.58858346939	1.13544595242	15.9762773514	20.1893863678	28.3555850983
18.6170101166	-3.47460269928	2.06531190872	19.1076927185	20.7294750214	23.6658554077
19.4112071991	-1.79773509502	2.55650639534	21.7465419769	22.1842536926	20.0676898956
21.8974132538	-3.44700407982	3.22961306572	23.6742458344	22.1384239197	17.6095848083
25.8326740265	-3.48476862907	3.75677084923	25.2103767395	21.9252338409	15.9395198822
