0.0	-0.0	130.917755127	-124.436164856	83.7583465576	173.685531616
0.0	-0.0	130.74559021	-124.490386963	83.6339035034	173.824996948
0.0	-0.0	130.800689697	-124.929885864	83.1071243286	174.068283081
0.0	-0.0	130.705337524	-125.449569702	82.6560897827	174.512298584
0.0	-0.0	129.637634277	-125.428955078	83.8990478516	174.645690918
0.0	-0.0	115.803230286	57.1953468323	89.4688415527	-4.62581586838
0.0	-0.0	108.085861206	60.583568573	77.9922332764	-3.17841720581
0.0	-0.0	94.011428833	63.7490577698	63.250579834	-2.86954808235
0.0	-0.0	73.0895309448	68.9384765625	50.7047920227	-4.02587795258
0.0	-0.0	64.4063186646	73.6537094116	41.1096153259	-5.57112884521
0.0	-0.0	64.3803405762	75.4930496216	35.5016517639	-6.25455141068
0.0	-0.0	64.4904632568	75.9700393677	31.1795043945	-7.58386516571
