-55.1901168823	-5.76670980453	132.357940674	4.80378198624	3.03308844566	-1.86462068558
-54.8831520081	-5.78444957733	132.208953857	4.75064325333	2.90952754021	-1.90021646023
-55.0489730835	-5.71257352829	132.327285767	4.7922911644	2.90731739998	-1.85897994041
-54.9548416138	-5.71091938019	132.348587036	4.72130346298	2.96608710289	-1.82297062874
-54.9377403259	-5.66023683548	132.439971924	4.7611746788	2.93884253502	-1.83104848862
-50.5217590332	-7.08728265762	128.843307495	4.98240089417	2.46990847588	-1.76442325115
-35.4095306396	-9.62158203125	119.134376526	5.197016716	1.01947271824	-1.72278439999
-23.7636089325	-10.701634407	111.440635681	5.34952545166	-1.18741667271	-1.70684123039
-14.4628124237	-10.7818632126	106.244491577	5.6145401001	-3.64185094833	-1.79961395264
-5.14079713821	-10.7036838531	101.042930603	6.33467483521	-6.26676082611	-1.9826811552
6.40423440933	-10.0580625534	95.0690383911	7.48673820496	-9.53794574738	-2.42032909393
15.9310340881	-8.65390014648	89.928276062	8.48906707764	-13.169965744	-2.84001159668
24.6190567017	-6.05597257614	84.7061538696	9.0288848877	-16.2947635651	-2.90822768211
33.5730705261	-2.40340304375	80.4567871094	9.38697433472	-17.8131065369	-3.13398098946
40.0227012634	0.166620790958	78.1460494995	10.0225772858	-18.3838119507	-3.56478428841
44.744808197	2.46136236191	76.1356430054	10.8609638214	-19.0314693451	-3.96947288513
