0.0783629417419	1.12780618668	0.126097559929	-0.0173139572144	1.76228475571	-0.0821073055267
0.0785596370697	1.12833356857	0.1266092062	-0.0177466869354	1.76230120659	-0.0833154916763
0.0787892341614	1.12843739986	0.128625631332	-0.019464969635	1.76162981987	-0.083633184433
0.0798718929291	1.12849342823	0.131368994713	-0.0212903022766	1.76144576073	-0.0838955640793
0.0804166793823	1.1259843111	0.140060424805	-0.0222234725952	1.76201248169	-0.0842869281769
0.0818419456482	1.11607825756	0.155601382256	-0.022782087326	1.76321685314	-0.0848602056503
0.0849857330322	1.10841989517	0.163162946701	-0.0238420963287	1.76456284523	-0.085116147995
0.087384223938	1.10127985477	0.169331789017	-0.0257322788239	1.76537871361	-0.0854001045227
0.0902485847473	1.09705448151	0.17240023613	-0.0275120735168	1.76594460011	-0.0853712558746
