Participant: 9436

Trial	Condition	Time
0		5			7.2492
1		6			2.6742
2		4			1.3402
3		3			3.084
4		2			1.8973
5		6			1.7178
6		2			1.5514
7		3			1.1874
8		2			1.9069
9		0			0.9847
10		4			1.4514
11		6			1.2515
12		6			1.1404
13		4			1.0069
14		5			0.9407
15		5			1.085
16		5			1.0764
17		6			1.0847
18		5			0.8959
19		0			0.5741
20		3			1.274
21		1			1.0077
22		0			1.1625
23		2			1.0514
24		6			1.0734
25		5			0.7852
26		5			0.907
27		1			0.8958
28		6			0.8401
29		3			0.9849
30		5			0.8183
31		5			1.1289
32		6			0.9982
33		0			0.5959
34		1			0.8876
35		4			0.9513
36		3			1.007
37		0			0.7431
38		4			0.8958
39		6			0.9515
40		4			0.8622
41		5			2.2731
42		5			1.3513
43		4			1.1734
44		2			1.1179
45		0			0.6403
46		3			1.1847
47		6			0.8959
48		4			0.7847
49		2			1.1068
