0.0	-0.0	131.40788269	-121.480865479	76.2835617065	174.604522705
0.0	-0.0	131.337341309	-121.397544861	76.5490722656	174.523696899
0.0	-0.0	130.829467773	-121.625106812	76.5526275635	174.875793457
0.0	-0.0	130.478561401	-121.86541748	76.4805908203	175.106536865
0.0	-0.0	129.131698608	-121.596748352	77.5335235596	174.988098145
0.0	-0.0	123.652915955	-121.407211304	78.6730575562	175.22013855
0.0	-0.0	114.484481812	-122.68813324	79.1886367798	175.753723145
0.0	-0.0	105.124557495	-124.984176636	79.4178161621	176.301956177
0.0	-0.0	98.8211898804	-126.856315613	79.5008392334	176.764862061
0.0	-0.0	93.2099914551	-127.65096283	79.4940795898	177.468887329
0.0	-0.0	88.9254760742	-128.673553467	80.0362625122	177.840835571
