-98.6649856567	-37.6463508606	134.06036377	4.94247484207	-1.30122971535	-1.41262018681
-98.4833297729	-37.8513832092	134.121200562	4.90562582016	-1.19938242435	-1.39661896229
-96.7931137085	-38.0497360229	132.399505615	4.78195905685	-1.48871278763	-1.41789901257
-77.6988296509	-33.3573226929	112.422607422	4.1243019104	-2.10373592377	-1.45044398308
-62.6352806091	-27.0074710846	99.4304046631	2.90732932091	-2.38166236877	-1.47786200047
-51.7284469604	-19.2131576538	89.2802810669	1.30030953884	-2.27488088608	-1.48136341572
-45.37525177	-12.8047113419	83.7692337036	-0.548777997494	-1.42507898808	-1.36104178429
