-68.3876647949	3.59032082558	132.83203125	3.68841218948	0.56022465229	-2.26907467842
-68.2276992798	3.49303388596	132.616317749	3.64167118073	0.68154758215	-2.27348875999
-68.4036941528	3.53614425659	132.494476318	3.61638116837	0.805346667767	-2.19266009331
-68.0668411255	3.28985905647	132.408782959	2.93091845512	0.995660960674	-2.21732139587
-56.9998397827	-1.31203567982	125.729949951	0.611721098423	0.983250439167	-2.19664168358
-38.4872665405	-4.48454236984	115.190925598	-3.21974539757	0.873207032681	-2.21050572395
-21.9945487976	-5.43149280548	105.510192871	-7.80189704895	0.834787845612	-2.28967571259
-7.59497451782	-4.36789894104	97.7785644531	-12.0784158707	0.812977671623	-2.22960758209
5.69000673294	-2.93429207802	91.6185073853	-15.9911956787	0.893898785114	-2.20203304291
16.2446022034	-1.75102758408	87.3009643555	-19.1443462372	0.64722776413	-2.30455899239
25.0380039215	1.03042197227	83.4077606201	-21.9053974152	0.392317771912	-2.2142727375
32.4893074036	4.8047118187	80.0492095947	-24.2433357239	0.323710948229	-2.13399887085
