0.0	-0.0	133.817993164	-127.51525116	86.2061309814	166.319625854
0.0	-0.0	133.881011963	-127.056388855	86.450881958	166.444107056
0.0	-0.0	133.983078003	-126.943786621	86.8633499146	166.236190796
0.0	-0.0	133.880706787	-126.97908783	86.673034668	166.464538574
0.0	-0.0	133.986160278	-127.211395264	86.4946899414	166.503677368
0.0	-0.0	133.28112793	-127.982917786	84.3852844238	166.884735107
0.0	-0.0	128.808822632	-130.496627808	80.1065444946	167.775756836
0.0	-0.0	123.619796753	-134.753356934	73.5753860474	169.282852173
0.0	-0.0	119.341392517	-139.985534668	63.0957107544	171.363693237
0.0	-0.0	117.943130493	-145.268264771	53.1484718323	173.285491943
0.0	-0.0	115.525817871	-149.875808716	46.0245666504	174.45475769
0.0	-0.0	112.678543091	-151.791641235	38.2198753357	175.374557495
0.0	-0.0	108.976531982	-152.280883789	29.9546279907	175.272583008
0.0	-0.0	106.325065613	-152.88092041	23.1226444244	175.386566162
0.0	-0.0	104.782440186	-154.780044556	17.1663627625	174.673812866
0.0	-0.0	102.226501465	-156.761795044	11.0628395081	173.746109009
0.0	-0.0	100.624031067	-156.026824951	5.67966604233	173.689559937
0.0	-0.0	98.9542770386	-153.25239563	2.98629021645	174.171386719
0.0	-0.0	97.1868972778	-149.288803101	0.992161810398	174.766204834
0.0	-0.0	96.8597793579	-147.584671021	-2.04264163971	175.045684814
0.0	-0.0	93.7949981689	-147.415802002	-3.94732165337	175.448272705
0.0	-0.0	90.1545257568	-147.748382568	-5.93123149872	175.716659546
0.0	-0.0	87.2713623047	-147.560531616	-6.64851045609	175.500305176
0.0	-0.0	87.9109191895	-145.784057617	-5.17646884918	176.257278442
0.0	-0.0	88.9976119995	-142.917541504	-2.12668013573	177.450149536
0.0	-0.0	89.0876464844	-139.845687866	1.01915490627	178.575561523
0.0	-0.0	89.1499862671	-138.445297241	0.0158819910139	179.125564575
0.0	-0.0	88.2468032837	-138.474411011	0.142868921161	179.388305664
0.0	-0.0	88.2022171021	-138.850326538	-0.755888342857	178.996673584
0.0	-0.0	87.2952804565	-138.725296021	-3.41557765007	179.340164185
0.0	-0.0	84.883644104	-138.255859375	-4.75635719299	179.714187622
0.0	-0.0	85.4283981323	-137.703552246	-4.76755905151	-179.974655151
0.0	-0.0	85.7667160034	-137.09992981	-3.71508145332	-179.829925537
0.0	-0.0	84.1726837158	-136.24697876	-3.79073286057	-179.456954956
0.0	-0.0	83.6626815796	-136.222381592	-4.20006608963	-179.717254639
