0.0	-0.0	130.04649353	57.1006278992	89.1139450073	-4.95100784302
0.0	-0.0	130.347915649	57.1814994812	89.4971313477	-4.62283277512
0.0	-0.0	129.650772095	56.995716095	89.6335830688	-4.41815662384
0.0	-0.0	128.302139282	55.1834411621	88.2258987427	-4.45346355438
0.0	-0.0	119.080253601	50.4759902954	83.1556396484	-4.97064352036
0.0	-0.0	102.554466248	42.521194458	72.6555862427	-7.17211771011
0.0	-0.0	84.8624801636	33.9181213379	59.7290840149	-8.93912696838
0.0	-0.0	73.437828064	26.1936359406	48.5455856323	-9.3483543396
0.0	-0.0	67.472038269	17.8143062592	41.0392379761	-7.99377775192
0.0	-0.0	65.1374969482	9.58538913727	36.2443695068	-6.11661338806
0.0	-0.0	64.12084198	5.36320209503	31.9688644409	-4.96264028549
