0.216510295868	1.09389197826	0.0291975736618	0.0549790859222	1.74901199341	-0.132095813751
0.216235399246	1.0939604044	0.0287733078003	0.0546307563782	1.74915552139	-0.131836414337
0.215976476669	1.09308302402	0.0283712148666	0.0543012619019	1.74943804741	-0.131236791611
0.213093757629	1.09277260303	0.0274863243103	0.0538852214813	1.75025606155	-0.130728602409
0.209947347641	1.09226822853	0.026911854744	0.0527319908142	1.75162816048	-0.130186796188
0.207816123962	1.0922768116	0.0268099308014	0.0509521961212	1.75398075581	-0.129437327385
0.20502781868	1.0941478014	0.0276407003403	0.049544095993	1.75710701942	-0.129568576813
0.200605869293	1.09848773479	0.0292738676071	0.0482935905457	1.75999414921	-0.130606889725
0.192357301712	1.10839796066	0.0312433242798	0.0472354888916	1.76128852367	-0.131725668907
0.186785697937	1.11863350868	0.0322344303131	0.0464012622833	1.76211678982	-0.132452964783
0.182078838348	1.12766253948	0.0317177772522	0.0454592704773	1.76357829571	-0.132743120193
0.180380821228	1.1306296587	0.0310580730438	0.0442495346069	1.76550853252	-0.132782936096
0.180051803589	1.13306951523	0.0298433303833	0.0433938503265	1.76760077477	-0.132483959198
0.179291248322	1.1348259449	0.0284112691879	0.0425662994385	1.76952362061	-0.132189512253
0.174260377884	1.13600420952	0.0269128084183	0.0412983894348	1.76983952522	-0.132732868195
0.162322044373	1.13779568672	0.0249327421188	0.0399346351624	1.76920449734	-0.133210420609
0.152192592621	1.14225888252	0.0212843418121	0.0395436286926	1.76890182495	-0.134105205536
0.148254394531	1.14791417122	0.0184565782547	0.0397536754608	1.76930880547	-0.13451397419
0.144217252731	1.15092623234	0.0164333581924	0.0399875640869	1.77004051208	-0.135109901428
0.139222621918	1.15179085732	0.0138278007507	0.0401277542114	1.77056980133	-0.13586640358
0.134273052216	1.15548229218	0.00926184654236	0.0400485992432	1.77094697952	-0.13670372963
0.131709575653	1.15953099728	0.00565195083618	0.0403172969818	1.77215850353	-0.13757610321
0.12886762619	1.16173613071	0.00330471992493	0.0409109592438	1.77391624451	-0.139149188995
0.127140045166	1.16454863548	0.000717163085938	0.0412092208862	1.77666068077	-0.141272783279
0.127974510193	1.16536271572	-0.000102996826172	0.0417449474335	1.77933239937	-0.143971204758
0.128669261932	1.16655600071	-0.00052797794342	0.0425415039062	1.78112757206	-0.146147727966
0.129225969315	1.16912448406	-0.000948190689087	0.0434403419495	1.78240442276	-0.148195028305
0.130043268204	1.17086064816	-0.0014443397522	0.0442247390747	1.78482532501	-0.150749444962
0.131100654602	1.17188453674	-0.00198221206665	0.0450973510742	1.78744935989	-0.153166770935
0.129841089249	1.17422628403	-0.00448000431061	0.0457501411438	1.78977453709	-0.155333757401
0.129688978195	1.17581403255	-0.00508403778076	0.0462806224823	1.79156506062	-0.157156705856
0.132109880447	1.17736327648	-0.00549030303955	0.0474667549133	1.79301810265	-0.158751964569
0.133423566818	1.17750740051	-0.00499725341797	0.0494661331177	1.79405868053	-0.159821748734
0.133552312851	1.17835855484	-0.00525426864624	0.0515596866608	1.79528188705	-0.161013484001
0.134061574936	1.17794394493	-0.00429248809814	0.0524244308472	1.79681372643	-0.162300944328
0.132972955704	1.17727684975	-0.00308275222778	0.0529737472534	1.79750525951	-0.163178443909
