0.0	-0.0	130.951126099	-122.965576172	85.0665740967	175.867095947
0.0	-0.0	130.784225464	-121.839851379	84.6555099487	175.793991089
0.0	-0.0	130.83757019	-121.382949829	84.4515075684	175.614959717
0.0	-0.0	130.556640625	-121.815811157	84.206451416	175.784591675
0.0	-0.0	130.465164185	-122.818984985	84.0027694702	176.200332642
0.0	-0.0	130.213043213	-123.633110046	84.1066741943	176.56149292
0.0	-0.0	130.264465332	-123.383811951	84.166633606	176.689605713
0.0	-0.0	125.606384277	-123.016235352	83.8321838379	176.409423828
0.0	-0.0	118.187652588	-123.922950745	82.873046875	176.278564453
0.0	-0.0	111.115127563	-125.766059875	81.9590911865	176.411392212
0.0	-0.0	107.061912537	-126.691558838	80.7474899292	176.655654907
0.0	-0.0	98.8563461304	-127.212684631	82.6473693848	176.52734375
0.0	-0.0	91.0212554932	-128.317199707	85.8334960938	176.927490234
0.0	-0.0	84.6885986328	-129.869110107	85.4445953369	177.102828979
0.0	-0.0	80.7922897339	-131.449554443	84.6855773926	177.188934326
0.0	-0.0	78.5970840454	-134.234527588	84.8121871948	177.087417603
0.0	-0.0	79.7265319824	-138.806015015	86.4203948975	176.986923218
