-89.4007263184	-40.4274902344	132.363143921	5.1585931778	2.22068667412	-0.180592954159
-89.1092605591	-40.4032974243	131.788238525	5.03712511063	2.34330391884	-0.221032217145
-87.6908111572	-40.7553405762	129.779586792	4.55419874191	2.85177636147	-0.16247458756
-82.6726150513	-40.010887146	123.483512878	1.09802854061	3.35334682465	-0.602574825287
-69.8090896606	-36.1262016296	110.853248596	-4.83950614929	3.2714138031	-1.22079598904
-55.9764518738	-32.4548034668	100.146949768	-11.2165708542	2.49057149887	-1.45138478279
-39.3730697632	-26.5834674835	86.9144668579	-16.9661483765	1.70941329002	-1.49897181988
-26.5988044739	-20.982208252	77.8793640137	-21.4539661407	0.863413274288	-1.21227240562
