0.217170953751	1.08348059654	-0.0233941078186	-0.0250627994537	1.763671875	-0.10847902298
0.217688560486	1.08288455009	-0.0224739313126	-0.0245223045349	1.76307737827	-0.106669068336
0.216202259064	1.08113312721	-0.0221818685532	-0.0238618850708	1.76246106625	-0.104966640472
0.214206933975	1.07956016064	-0.0211011171341	-0.0232572555542	1.76195430756	-0.103340744972
0.212403059006	1.07855534554	-0.0198967456818	-0.0220761299133	1.76177668571	-0.101855278015
0.209444284439	1.07591819763	-0.0185687541962	-0.0210473537445	1.76164460182	-0.0998976230621
0.204787254333	1.07148957253	-0.0184371471405	-0.0212762355804	1.76115655899	-0.0975565910339
0.201338529587	1.06816971302	-0.0187321901321	-0.0221636295319	1.76145410538	-0.0952529907227
0.198921203613	1.0645493269	-0.0186905860901	-0.0234487056732	1.76130354404	-0.0934839248657
0.1961414814	1.06297576427	-0.0179145336151	-0.0249280929565	1.76142454147	-0.0918778181076
0.192995786667	1.06286096573	-0.0164643526077	-0.026252746582	1.76142656803	-0.0903091430664
0.188551902771	1.0654566288	-0.0146372318268	-0.0278072357178	1.76178061962	-0.0893692970276
0.178369522095	1.07077622414	-0.0141878128052	-0.028856754303	1.76217186451	-0.0889568328857
0.169623851776	1.07354259491	-0.0147247314453	-0.0293254852295	1.76273202896	-0.0891665220261
0.165981531143	1.07389819622	-0.0151464939117	-0.0297029018402	1.76331222057	-0.0898535251617
0.16504573822	1.07366776466	-0.015688419342	-0.0298736095428	1.7642070055	-0.0907109975815
0.164511203766	1.07448720932	-0.0164995193481	-0.0311632156372	1.76544058323	-0.0910016298294
0.164612770081	1.07491052151	-0.017809510231	-0.0333814620972	1.7661844492	-0.0915491580963
0.163602590561	1.07516932487	-0.0189802646637	-0.0362002849579	1.76712572575	-0.091463804245
0.160602092743	1.07682991028	-0.0210111141205	-0.0402724742889	1.76722717285	-0.0922050476074
0.156415224075	1.07768666744	-0.022726893425	-0.0417892932892	1.76711797714	-0.0939798355103
0.154532909393	1.0790643692	-0.0236384868622	-0.0402126312256	1.76731622219	-0.0962479114532
