-134.285507202	8.42847633362	130.05557251	3.98798727989	-0.620796322823	-1.59562778473
-134.065185547	8.03444385529	129.64263916	3.94341921806	-0.458903253078	-1.57580900192
-132.088043213	6.45873355865	128.694091797	3.93673682213	-0.409112244844	-1.53993141651
-127.26020813	3.3372066021	127.501487732	4.35712957382	-0.481399208307	-1.61192917824
-121.163909912	-0.544649362564	124.418937683	5.15860891342	-0.51873677969	-1.80210363865
-115.453369141	-4.71421003342	122.877464294	6.09353303909	-0.498397767544	-1.80904185772
-105.157775879	-11.9990653992	118.30696106	7.03291940689	-0.72000336647	-1.70422160625
-93.526222229	-21.0958480835	112.082290649	7.94884109497	-1.27477681637	-1.47281742096
-79.0851287842	-29.5951366425	103.868309021	9.24198055267	-2.05342888832	-1.16841602325
-72.3768386841	-33.5795822144	100.152915955	10.87641716	-2.84610843658	-0.87963873148
-72.2957763672	-32.4228401184	100.376426697	12.6849985123	-3.5026576519	-0.651675224304
-72.7837295532	-31.5600891113	100.46661377	14.7449960709	-4.42380428314	-0.292603671551
-72.3127593994	-31.58020401	100.596641541	16.6710319519	-5.4411406517	0.142724707723
-71.9834289551	-31.0734481812	100.70690918	18.5300121307	-6.56531047821	0.545893490314
-70.9412460327	-31.3375148773	100.773666382	20.7257785797	-7.4205956459	0.977292895317
-69.3651046753	-31.6474208832	100.744338989	22.8254261017	-8.07656097412	1.28590583801
-67.5205459595	-32.2095413208	100.071990967	24.3196773529	-9.01671409607	1.44074606895
-65.6651306152	-32.0786857605	99.5317840576	24.2981491089	-10.4087438583	1.5064573288
-59.9852218628	-33.1019058228	96.5500488281	23.8806781769	-11.2707843781	1.79366850853
