-70.0428924561	3.88500952721	135.405105591	4.08225250244	2.81100940704	-2.3466565609
-69.3470840454	3.31853556633	135.235427856	3.94096636772	2.6829957962	-2.30059933662
-69.6264038086	3.43914175034	135.453903198	3.78257417679	2.56706953049	-2.17725515366
-66.3945236206	2.45081996918	133.734649658	3.85796427727	2.32689619064	-2.22833013535
-51.3753128052	-2.27089858055	124.657722473	4.22252130508	1.87234997749	-2.18040919304
-31.863779068	-4.93823719025	111.149681091	4.05107831955	1.40609800816	-2.22704553604
-16.9307117462	-4.43296051025	100.39931488	3.56898164749	1.2990437746	-2.25199556351
-7.00149726868	-3.33400988579	94.3443145752	2.89038038254	1.28286278248	-2.17486715317
-3.34307909012	-2.69470667839	92.2286376953	0.96247112751	0.898190557957	-1.96391618252
-3.68760538101	-2.69377803802	92.7122421265	-1.5422334671	0.283938974142	-1.68244981766
-0.799169242382	-2.00905919075	91.0335922241	-2.59466862679	-0.217746540904	-1.22384548187
10.8798017502	1.09194970131	84.5930023193	-2.34413743019	-0.0562361367047	-1.02577722073
