-48.2245292664	-23.9709377289	131.424804688	6.46208572388	2.249771595	-0.432703316212
-48.3211402893	-23.9538135529	131.535873413	6.20494508743	2.30772566795	-0.459522515535
-48.5248031616	-23.8341140747	131.342437744	5.97117424011	2.49224042892	-0.392748832703
-48.7030639648	-23.5372714996	131.385528564	5.68238639832	3.08732318878	-0.479903638363
-41.5079803467	-23.2369155884	124.908851624	5.71126174927	5.42444944382	-0.623042225838
-29.044090271	-22.3866291046	114.675933838	6.71511030197	8.78783035278	-0.648626565933
-12.7554540634	-20.2147636414	102.04208374	8.03836250305	11.8047609329	-0.721024155617
1.86493980885	-17.050359726	91.7385406494	8.94494724274	14.2878885269	-0.766548991203
14.4914007187	-12.7165393829	84.0656814575	9.81263160706	16.0832595825	-0.910331606865
27.7176532745	-7.28574514389	77.3606491089	10.74152565	17.0408172607	-1.24585866928
38.806602478	-2.03658628464	73.1832733154	11.8206548691	17.6865711212	-1.8431327343
44.1665153503	1.11344623566	71.8017807007	12.5532054901	18.6281814575	-1.96631872654
45.9527015686	1.93597042561	71.3246917725	12.8065280914	19.722776413	-1.96522259712
48.5643348694	2.60331106186	70.3551559448	13.3170423508	20.4957389832	-1.91214799881
52.8805465698	3.6490547657	69.576751709	14.8355026245	20.9949741364	-1.8601089716
