-56.433555603	-1.63938701153	131.985748291	2.2568128109	1.02771294117	-4.18984079361
-56.4912452698	-1.81312918663	132.008880615	2.15513849258	1.02956056595	-4.07413578033
-56.6294326782	-1.67348265648	131.999252319	2.03735470772	1.11280977726	-4.03351068497
-54.9282836914	-2.66068792343	130.694107056	1.25965511799	1.27257549763	-3.77243924141
-48.7231216431	-4.80297994614	126.753868103	-1.36428248882	1.49681425095	-3.74247145653
-37.7913780212	-6.47468280792	119.011825562	-5.65163135529	1.31345391273	-3.54981040955
-23.4019813538	-6.59051847458	110.06867218	-10.4988384247	1.00515985489	-3.22795510292
-6.84887886047	-5.46790838242	99.7402114868	-14.8879814148	0.790632426739	-2.83517837524
9.30392169952	-2.24535775185	91.688583374	-18.4997138977	0.699882030487	-2.44859409332
19.3291912079	0.393753349781	86.5688934326	-21.3235015869	0.68071526289	-2.01783037186
29.5778121948	4.87128400803	80.7077484131	-23.2862491608	0.747315526009	-1.7401663065
38.1580467224	9.18995952606	76.4617004395	-24.1184425354	0.766702890396	-1.64052307606
38.7346038818	10.4493989944	75.6293258667	-24.1748352051	0.650919914246	-1.71116161346
