0.0	-0.0	135.187850952	-115.654754639	83.3964309692	178.358322144
0.0	-0.0	135.234039307	-116.382705688	83.6549453735	178.224243164
0.0	-0.0	135.065139771	-117.219299316	83.4939041138	178.215087891
0.0	-0.0	134.812545776	-118.132705688	83.7291717529	178.289794922
0.0	-0.0	129.688812256	-118.461166382	87.0134811401	177.982177734
0.0	-0.0	121.265090942	61.837223053	85.6559906006	-2.66167330742
0.0	-0.0	114.260147095	62.2156715393	75.9113311768	-3.12496876717
0.0	-0.0	106.225837708	63.2646179199	65.0108795166	-3.27587270737
0.0	-0.0	94.5131759644	65.5708847046	56.0297775269	-3.3061413765
0.0	-0.0	84.4732971191	68.9897842407	49.1553115845	-4.16560029984
0.0	-0.0	78.2304840088	71.9846191406	42.386264801	-4.81810379028
0.0	-0.0	74.5210113525	73.3941192627	36.1171607971	-5.07987737656
0.0	-0.0	69.7004699707	74.6062698364	31.9684562683	-5.49755907059
0.0	-0.0	69.1846160889	77.8435287476	30.2353096008	-6.85887002945
0.0	-0.0	69.1073760986	81.5984191895	28.7751121521	-7.60371446609
