-112.917495728	-9.35436058044	131.310180664	4.53544616699	4.5654835701	-1.79050862789
-113.044692993	-9.37424373627	131.332229614	4.52230882645	4.47728729248	-1.82013404369
-112.614303589	-9.53135204315	130.985717773	4.4574804306	4.48896455765	-1.6916333437
-111.987892151	-9.55153656006	130.561096191	4.37554788589	4.49750709534	-1.64613556862
-109.189201355	-11.8395318985	128.518630981	4.48713445663	4.09828996658	-1.64730811119
-102.370750427	-14.8155727386	122.944953918	4.51621341705	3.7397506237	-1.57740294933
-93.5075836182	-15.6719264984	113.750328064	4.03133630753	3.58634185791	-1.40048885345
-84.2850952148	-15.3500032425	104.545295715	3.24435019493	3.5250184536	-1.21590673923
-77.0324783325	-15.8904504776	97.6649398804	2.67103815079	3.49632763863	-1.04550564289
-71.4901428223	-15.0902671814	93.4529876709	2.42225503922	3.48368811607	-0.817051708698
-66.0888290405	-13.383389473	89.1532516479	2.05856227875	3.27866578102	-0.721373975277
