-126.294723511	-10.8726558685	133.930358887	-0.176662176847	0.830424010754	-6.36574983597
-126.096931458	-11.0837564468	134.039428711	-0.288365870714	0.741793572903	-6.23778963089
-125.579566956	-11.4137248993	133.543060303	-0.298469692469	0.70176333189	-6.18286466599
-119.927459717	-15.2153024673	130.652801514	0.119960211217	1.17435657978	-6.37991285324
-112.279472351	-21.1523418427	126.476783752	1.61344766617	2.58823156357	-6.57366037369
-102.736747742	-27.2774333954	120.3828125	3.3707511425	3.8676109314	-6.6986541748
-91.4808197021	-33.3486938477	113.913368225	5.07074689865	4.7017455101	-6.82424116135
-81.0867614746	-35.685585022	106.548217773	6.71044254303	5.78167009354	-6.66100168228
-73.5208206177	-37.5513420105	102.375221252	8.01813602448	6.96543693542	-6.67574834824
-66.9680099487	-37.4040603638	97.5159225464	9.57898616791	8.36182498932	-6.62023258209
-61.2089576721	-37.9032096863	93.7780609131	11.215089798	9.21685695648	-6.63497257233
-56.1817398071	-38.8835334778	90.5058517456	12.6197738647	9.70882415771	-6.64989089966
