0.064150094986	1.13948607445	0.0979154109955	-0.01837849617	1.76519179344	-0.0976423025131
0.0636215209961	1.13974487782	0.099924325943	-0.0188548564911	1.76518082619	-0.0961594581604
0.0631108283997	1.13962066174	0.101952672005	-0.0193316936493	1.76500833035	-0.0946779251099
0.0628802776337	1.13856136799	0.103856682777	-0.0197615623474	1.7648409605	-0.0934791564941
0.0621268749237	1.13702869415	0.105396986008	-0.0219013690948	1.76609635353	-0.0929094552994
0.0613029003143	1.13340365887	0.115548610687	-0.0269227027893	1.76879870892	-0.0931919813156
0.0640902519226	1.12361741066	0.132565140724	-0.0323688983917	1.77188146114	-0.0939016342163
0.0734567642212	1.11719655991	0.150945186615	-0.0379528999329	1.77551698685	-0.0957030057907
0.0879271030426	1.11119699478	0.171395659447	-0.0429818630219	1.77924454212	-0.0980582237244
0.103748083115	1.1075193882	0.18741941452	-0.0474815368652	1.78236949444	-0.100997686386
0.115797758102	1.10582816601	0.197102308273	-0.0520575046539	1.78450489044	-0.104043960571
0.123902320862	1.10210430622	0.203513383865	-0.0563595294952	1.78561532497	-0.106692314148
0.126864433289	1.10047793388	0.205683112144	-0.059716463089	1.78664410114	-0.108924031258
