0.158550024033	1.06413495541	0.0823509693146	0.0105309486389	1.76393771172	-0.108554363251
0.15792965889	1.0636087656	0.0811079740524	0.0103340148926	1.76443600655	-0.109513401985
0.156610250473	1.0632070303	0.0804253816605	0.00907945632935	1.76449656487	-0.110241651535
0.155806541443	1.06448972225	0.0865247249603	0.00656318664551	1.76384031773	-0.110167145729
0.156396150589	1.07031595707	0.0920829772949	0.0026228427887	1.76259791851	-0.109415054321
0.15670466423	1.0729392767	0.0942463874817	-0.00279974937439	1.76021575928	-0.108705401421
0.157189846039	1.07465720177	0.0957818031311	-0.0090479850769	1.75681960583	-0.108478307724
0.157594919205	1.07449579239	0.0974276065826	-0.0146355628967	1.75434446335	-0.108112692833
0.157740592957	1.07664000988	0.102295160294	-0.0192043781281	1.75231707096	-0.107688426971
0.158381462097	1.07893705368	0.108217000961	-0.022376537323	1.74956917763	-0.106647729874
0.159808158875	1.08109772205	0.114188671112	-0.0250306129456	1.74637567997	-0.105240821838
0.161209583282	1.08500540257	0.119334220886	-0.0277860164642	1.74323761463	-0.103630781174
0.1623711586	1.08552026749	0.123827695847	-0.0320796966553	1.74036324024	-0.102130174637
0.164565086365	1.08486402035	0.129856824875	-0.0371661186218	1.73738086224	-0.100687503815
0.166510820389	1.0827974081	0.136960268021	-0.0417308807373	1.73434662819	-0.0993714332581
0.169105768204	1.082072258	0.145798444748	-0.0453622341156	1.73230779171	-0.0980204343796
0.172196865082	1.08147990704	0.152457118034	-0.0490148067474	1.73156869411	-0.0971640348434
0.174139261246	1.07876253128	0.156944990158	-0.0528280735016	1.73264086246	-0.0967328548431
0.172580480576	1.07389879227	0.15598654747	-0.055721282959	1.73352003098	-0.0961467027664
0.17104268074	1.07164001465	0.152646303177	-0.0574355125427	1.7360060215	-0.0945496559143
0.170477628708	1.06930649281	0.150017142296	-0.0589215755463	1.73724985123	-0.0936172008514
0.17053937912	1.06821513176	0.148632049561	-0.0605359077454	1.73752713203	-0.0929226875305
