0.0	-0.0	133.375213623	-120.080215454	82.6441268921	171.127319336
0.0	-0.0	133.079681396	-120.35382843	82.6735839844	171.26864624
0.0	-0.0	131.543792725	-120.796661377	82.6812362671	171.529937744
0.0	-0.0	130.353179932	-121.69393158	82.4396591187	171.892272949
0.0	-0.0	129.976715088	-122.821029663	82.320274353	172.268447876
0.0	-0.0	129.643386841	-123.474281311	82.8651275635	172.625305176
0.0	-0.0	129.49156189	-124.295166016	84.4524307251	172.882614136
0.0	-0.0	128.657043457	52.355884552	89.6930007935	-7.20324039459
0.0	-0.0	124.363525391	46.8628692627	79.8570709229	-7.27281475067
0.0	-0.0	116.940315247	41.4941062927	65.933555603	-7.38797664642
0.0	-0.0	108.021965027	37.9788703918	53.2819747925	-7.10040187836
0.0	-0.0	98.5820922852	34.6078186035	44.438911438	-7.01783943176
0.0	-0.0	88.1264648438	30.5339050293	39.5398521423	-6.25806617737
0.0	-0.0	75.0930862427	26.5189838409	35.6865692139	-5.82568788528
0.0	-0.0	66.6410522461	22.2177448273	31.534236908	-4.48675298691
0.0	-0.0	65.9905319214	16.8438587189	27.8918781281	-2.25465464592
0.0	-0.0	67.6841049194	10.732550621	26.0298748016	-0.0855908021331
0.0	-0.0	67.6470413208	8.08296298981	25.1891059875	0.527826547623
0.0	-0.0	67.1043930054	9.14971256256	24.9077987671	0.236124098301
