0.21998333931	1.18143773079	0.0134942531586	0.0356788635254	1.74462091923	-0.127666950226
0.220392227173	1.1819781065	0.0134385824203	0.0349225997925	1.74482524395	-0.12791800499
0.220601558685	1.18238019943	0.0130910873413	0.0345182418823	1.74571967125	-0.128004550934
0.220412731171	1.18154478073	0.0122743844986	0.0343902111053	1.748883605	-0.127606391907
0.21989440918	1.18015432358	0.0107531547546	0.0339782238007	1.75201690197	-0.128279447556
0.218893527985	1.17923474312	0.00984263420105	0.033492565155	1.75551509857	-0.129272460938
0.21687912941	1.18000221252	0.00953960418701	0.0342218875885	1.7594679594	-0.130418300629
0.211448669434	1.1832433939	0.0100001096725	0.0352191925049	1.76404058933	-0.131499528885
0.203727722168	1.18672525883	0.0103669166565	0.036600112915	1.76783335209	-0.13320851326
0.197275400162	1.18915474415	0.0101469755173	0.0383625030518	1.76963722706	-0.134816765785
0.193021774292	1.1907864809	0.00940930843353	0.0405087471008	1.77201783657	-0.135646343231
0.190701961517	1.19136476517	0.00842905044556	0.0435314178467	1.77416217327	-0.136103034019
0.189630031586	1.18947732449	0.00878393650055	0.047327041626	1.77590465546	-0.136266946793
0.187909841537	1.18871152401	0.00853490829468	0.0504295825958	1.77625179291	-0.136208057404
0.180318593979	1.18972909451	0.00678777694702	0.0510656833649	1.77544057369	-0.135646820068
0.170296192169	1.19317305088	0.00249338150024	0.049168586731	1.7753431797	-0.135313987732
0.167213201523	1.19363021851	0.00108170509338	0.0457627773285	1.77743065357	-0.134991884232
0.168643712997	1.19201886654	0.00222015380859	0.0438823699951	1.78074741364	-0.135682582855
0.169841051102	1.19070017338	0.00448036193848	0.042316198349	1.78241562843	-0.136352300644
0.169598817825	1.1908980608	0.00589847564697	0.0400390625	1.78284132481	-0.137101411819
0.169598579407	1.19109690189	0.00729775428772	0.038140296936	1.78381729126	-0.137799978256
0.16956782341	1.19058024883	0.00823020935059	0.036438703537	1.78523683548	-0.138262033463
0.169825315475	1.19114410877	0.00817322731018	0.0351777076721	1.78769659996	-0.138553619385
0.170349359512	1.18958342075	0.00898623466492	0.0343999862671	1.78951632977	-0.13944375515
0.171293735504	1.19070136547	0.00850796699524	0.0338227748871	1.79148280621	-0.140136361122
0.171741008759	1.19546318054	0.00633263587952	0.0340282917023	1.79346060753	-0.141206741333
0.172380924225	1.20194065571	0.00317490100861	0.0339877605438	1.79464542866	-0.142742395401
0.177845716476	1.2068914175	0.00218224525452	0.0330975055695	1.79483246803	-0.143995285034
0.179910182953	1.21248054504	-0.00118899345398	0.0319571495056	1.79507577419	-0.145525097847
0.176187038422	1.21228265762	-0.00198459625244	0.0304672718048	1.79540169239	-0.146975159645
0.175222396851	1.21222627163	-0.00348711013794	0.028377532959	1.79628491402	-0.147881269455
0.174547672272	1.21122872829	-0.003746509552	0.0268840789795	1.79711461067	-0.148588657379
0.172959566116	1.2101444006	-0.00414144992828	0.024890422821	1.79695427418	-0.149461746216
0.170929193497	1.2087957859	-0.00420188903809	0.022789478302	1.79616189003	-0.149990916252
0.16636300087	1.2066347599	-0.00422310829163	0.0223250389099	1.79517006874	-0.150434017181
0.15755033493	1.20336842537	-0.00435626506805	0.0212953090668	1.79307615757	-0.150362253189
0.154700279236	1.20644891262	-0.00846695899963	0.0204498767853	1.79315495491	-0.149968862534
0.154382944107	1.20850145817	-0.00934171676636	0.0203866958618	1.7939041853	-0.149809837341
0.154095888138	1.2107988596	-0.0106539726257	0.0211665630341	1.79428160191	-0.14984369278
0.155914783478	1.21282052994	-0.0121722221375	0.0230827331543	1.79430854321	-0.14948284626
0.15989780426	1.21170890331	-0.010650396347	0.025895357132	1.79407703876	-0.148533582687
0.163846969604	1.21094453335	-0.00969982147217	0.0297427177429	1.79366147518	-0.147348642349
0.164553403854	1.21080827713	-0.00961267948151	0.0323991775513	1.79329478741	-0.145908117294
0.164975404739	1.20967924595	-0.00951170921326	0.0340487957001	1.79316043854	-0.14492225647
0.165287017822	1.20850527287	-0.00884604454041	0.0354106426239	1.79344069958	-0.144386529922
0.165426492691	1.2076100111	-0.00796854496002	0.0357801914215	1.79363405704	-0.143947601318
0.166307210922	1.20718693733	-0.00671088695526	0.0354435443878	1.79390835762	-0.143218278885
0.166123628616	1.20644140244	-0.00625264644623	0.0371253490448	1.7954852581	-0.142565250397
0.167127132416	1.20570313931	-0.00514769554138	0.0388174057007	1.79761791229	-0.142282247543
0.168962240219	1.20674705505	-0.00421714782715	0.0388848781586	1.79954504967	-0.142473578453
0.171047449112	1.20777547359	-0.00263512134552	0.0378320217133	1.8001857996	-0.142646431923
0.174062252045	1.21307587624	-0.00442171096802	0.0365209579468	1.80005991459	-0.142030954361
0.175539493561	1.22045922279	-0.00912475585938	0.0356419086456	1.79955506325	-0.141196489334
0.176518440247	1.22548449039	-0.0108711719513	0.0350623130798	1.7991527319	-0.140326738358
0.180710315704	1.22833585739	-0.0117053985596	0.034873008728	1.79913020134	-0.139876365662
0.185415267944	1.22837233543	-0.0113997459412	0.0353527069092	1.79907107353	-0.139450073242
0.186489105225	1.22948718071	-0.0124644041061	0.0353951454163	1.79889297485	-0.139318585396
0.185389757156	1.22890126705	-0.0121521949768	0.0350987911224	1.79882729053	-0.139407277107
0.185541391373	1.22914242744	-0.0125622749329	0.0350344181061	1.79927873611	-0.139780044556
0.186065196991	1.22836828232	-0.0125570297241	0.034939289093	1.79957985878	-0.140552639961
0.186050415039	1.22822475433	-0.0120478868484	0.0341701507568	1.80033528805	-0.141577601433
0.186955213547	1.22808527946	-0.0112985372543	0.0324966907501	1.80137872696	-0.142929673195
0.186894893646	1.22858953476	-0.0104748010635	0.0304465293884	1.80250060558	-0.144421219826
0.186452627182	1.22955870628	-0.00929355621338	0.0289046764374	1.80336153507	-0.146135807037
