0.0	-0.0	145.503967285	85.9754333496	42.1592216492	18.5051231384
0.0	-0.0	145.25213623	86.5365905762	42.1603050232	17.9257164001
0.0	-0.0	144.912567139	86.9753494263	42.0459213257	17.8496665955
0.0	-0.0	143.692398071	86.1449966431	41.9157066345	17.8815841675
0.0	-0.0	141.076339722	85.265586853	42.4568634033	17.8402805328
0.0	-0.0	138.533432007	82.9098510742	42.2675018311	18.4668045044
0.0	-0.0	135.015441895	79.2762527466	41.7704963684	20.1098823547
0.0	-0.0	131.685531616	74.6170501709	40.0100708008	23.4625663757
0.0	-0.0	130.585800171	68.4098129272	39.1739082336	27.8366641998
0.0	-0.0	133.485534668	64.1072845459	39.6582298279	30.9947414398
0.0	-0.0	134.015151978	55.2559585571	40.7531356812	39.5827522278
0.0	-0.0	134.084579468	49.6343154907	41.4430351257	43.5337638855
0.0	-0.0	133.44972229	49.3803482056	43.1337242126	43.8515014648
0.0	-0.0	133.197372437	47.2107810974	43.0144309998	45.9648284912
0.0	-0.0	132.540084839	45.0564460754	42.9854660034	47.2423744202
0.0	-0.0	129.592025757	43.2137336731	42.6125793457	49.1527442932
0.0	-0.0	124.220787048	38.2709503174	41.6281394958	53.4669265747
0.0	-0.0	115.195030212	37.5409622192	42.7401847839	52.4439163208
0.0	-0.0	109.860160828	34.0705108643	43.5707359314	54.9770431519
0.0	-0.0	107.646080017	33.7947692871	47.2426261902	54.5445289612
0.0	-0.0	107.424728394	41.7850265503	52.8073310852	44.7341690063
0.0	-0.0	106.518997192	47.1159667969	60.8948287964	36.6088104248
0.0	-0.0	106.278900146	43.9114189148	73.0142288208	33.5744171143
0.0	-0.0	105.973937988	40.9587287903	83.3659057617	34.1703453064
0.0	-0.0	105.716163635	-140.819152832	79.1387863159	-149.284408569
0.0	-0.0	105.654663086	-141.348922729	65.7300567627	-149.984298706
0.0	-0.0	105.021316528	-143.205413818	59.0220108032	-154.050582886
0.0	-0.0	104.450454712	-148.486160278	54.2218894958	-153.520477295
0.0	-0.0	103.040870667	-154.049560547	46.0680923462	-157.220626831
0.0	-0.0	101.128318787	-154.010269165	41.9852600098	-158.743499756
0.0	-0.0	97.0988616943	-152.58757019	39.1373901367	-159.53302002
0.0	-0.0	91.7963867188	-151.175338745	34.5576782227	-161.390792847
0.0	-0.0	87.0746765137	-150.019515991	32.8688545227	-161.022262573
0.0	-0.0	83.3248901367	-150.762557983	31.0907936096	-161.432510376
0.0	-0.0	77.9571380615	-151.027053833	29.7870616913	-161.286575317
0.0	-0.0	73.7871017456	-151.168884277	30.4007015228	-160.865158081
0.0	-0.0	72.3571472168	-150.486816406	31.9741439819	-161.12159729
0.0	-0.0	73.1827468872	-149.527114868	35.454662323	-158.994186401
0.0	-0.0	73.1480941772	-149.935195923	34.3136901855	-159.024551392
0.0	-0.0	73.9551620483	-151.033889771	33.27602005	-156.20930481
0.0	-0.0	73.9165649414	-151.048751831	33.4101638794	-156.631713867
0.0	-0.0	78.0978317261	-150.631256104	33.9153404236	-156.6277771
0.0	-0.0	82.3173446655	-151.020492554	34.0739135742	-156.582443237
0.0	-0.0	87.5503540039	-151.900405884	34.1953468323	-154.926498413
0.0	-0.0	88.3278121948	-153.310195923	32.3438262939	-153.459335327
0.0	-0.0	86.1768493652	-148.517440796	24.4312133789	-148.14151001
0.0	-0.0	84.2835388184	-153.664108276	9.39576816559	-145.784118652
0.0	-0.0	83.2508010864	-155.015731812	7.87225198746	-149.519332886
0.0	-0.0	82.3180541992	-151.862716675	13.7178573608	-147.974960327
0.0	-0.0	82.2938308716	-152.580001831	22.3420066833	-144.588638306
0.0	-0.0	82.6556396484	-155.246231079	30.6362495422	-142.229110718
0.0	-0.0	82.054107666	-148.923629761	36.5298156738	-144.937332153
0.0	-0.0	82.3523788452	-147.017501831	32.9184761047	-144.048965454
0.0	-0.0	88.9292068481	-147.883239746	30.1310062408	-146.707061768
0.0	-0.0	99.3129501343	-148.382202148	29.1019554138	-146.343551636
0.0	-0.0	93.1530456543	-149.17024231	28.9479618073	-148.02746582
0.0	-0.0	82.6967697144	-149.768234253	29.147977829	-148.634140015
0.0	-0.0	69.5597305298	-149.187561035	30.9663944244	-148.337631226
0.0	-0.0	69.4175796509	-150.282531738	30.8142986298	-149.310562134
0.0	-0.0	83.0793380737	-150.36328125	30.5836696625	-149.62437439
0.0	-0.0	99.9549484253	-150.359375	31.0667152405	-149.737792969
0.0	-0.0	103.201637268	-150.195724487	31.4137554169	-149.926315308
0.0	-0.0	83.40965271	-150.527297974	31.2900104523	-149.39163208
0.0	-0.0	59.5764198303	-150.80897522	30.9953117371	-148.65725708
0.0	-0.0	40.0005645752	-150.419555664	31.3446807861	-148.645080566
0.0	-0.0	24.3446121216	-150.51423645	31.5056343079	-148.77041626
0.0	-0.0	13.0577487946	-150.676116943	31.6429080963	-148.812667847
0.0	-0.0	9.67924785614	-151.413284302	32.5291290283	-148.957260132
0.0	-0.0	10.78606987	-152.060928345	33.3243255615	-150.065628052
0.0	-0.0	11.4270887375	-153.370269775	33.0769882202	-148.792510986
0.0	-0.0	10.5323104858	-157.919509888	32.3422393799	-146.357833862
0.0	-0.0	10.9435939789	-161.422561646	32.3052062988	-141.201522827
0.0	-0.0	12.1036176682	-163.068023682	31.3396244049	-137.863235474
0.0	-0.0	13.027100563	-164.843093872	30.4168205261	-135.123031616
0.0	-0.0	14.5915660858	-159.914352417	27.8168144226	-137.350585938
0.0	-0.0	15.7236700058	-156.356750488	25.8103923798	-139.23840332
0.0	-0.0	16.5806922913	-154.742248535	22.6731510162	-137.697296143
0.0	-0.0	17.894569397	-155.359329224	20.8022384644	-136.30039978
0.0	-0.0	19.7221240997	-154.3515625	23.973783493	-138.911575317
0.0	-0.0	25.7009754181	-154.984893799	23.4363975525	-139.702392578
0.0	-0.0	34.0318450928	-156.08581543	23.4495220184	-141.229980469
0.0	-0.0	21.3886699677	-156.788192749	23.9002628326	-141.509918213
0.0	-0.0	11.1572675705	-158.439849854	23.3970928192	-142.527572632
0.0	-0.0	18.0743427277	-157.654647827	24.6807899475	-142.127349854
0.0	-0.0	30.8832244873	-157.917205811	25.1556606293	-142.891799927
0.0	-0.0	41.8177871704	-158.256896973	25.3992271423	-143.094650269
0.0	-0.0	53.8156089783	-158.052352905	25.700466156	-142.688766479
0.0	-0.0	57.0937423706	-158.141326904	26.6809120178	-142.298538208
0.0	-0.0	56.0587081909	-160.932723999	28.6104450226	-139.440856934
0.0	-0.0	55.0854454041	-165.411010742	28.6594161987	-134.691238403
0.0	-0.0	54.0785751343	-160.433105469	24.253288269	-129.232345581
0.0	-0.0	53.6164245605	-159.093048096	18.734916687	-130.282516479
0.0	-0.0	52.8992080688	-157.176651001	12.9742956161	-127.317054749
0.0	-0.0	52.3319129944	-146.780731201	23.7033443451	-143.949478149
0.0	-0.0	52.3701210022	-136.746047974	38.5909042358	-160.876144409
0.0	-0.0	52.8554496765	-132.013427734	47.3587417603	-162.886749268
0.0	-0.0	52.9371871948	-133.066055298	45.0470199585	-167.651947021
0.0	-0.0	52.6921806335	-135.197250366	46.2795944214	-164.527450562
0.0	-0.0	52.5432472229	-135.79246521	50.1239128113	-161.789428711
0.0	-0.0	52.4662322998	-135.83265686	62.0098648071	-155.617141724
0.0	-0.0	52.8408699036	-134.210235596	73.2763442993	-148.054138184
0.0	-0.0	52.9770545959	-133.446899414	57.5520401001	-149.32043457
0.0	-0.0	53.0699119568	-143.524154663	37.8331222534	-144.843978882
0.0	-0.0	52.7969818115	-145.207473755	29.3706569672	-145.751571655
0.0	-0.0	52.7646827698	-146.564208984	25.3466491699	-145.043487549
0.0	-0.0	53.7554473877	-146.76411438	22.9246482849	-144.380447388
0.0	-0.0	53.6977119446	-147.943649292	17.4002037048	-140.590927124
0.0	-0.0	54.0875549316	-146.349761963	12.7415361404	-144.624343872
0.0	-0.0	54.2345085144	-138.580368042	16.921749115	-153.900878906
0.0	-0.0	53.8094749451	-124.527984619	20.4963531494	-166.531188965
0.0	-0.0	53.9534683228	-117.741889954	20.6884040833	-173.639877319
0.0	-0.0	53.5660667419	-117.902305603	18.1556358337	-177.548187256
0.0	-0.0	53.0999679565	-120.537498474	17.1995162964	178.14730835
0.0	-0.0	52.7566795349	-124.23878479	14.5484495163	173.645217896
0.0	-0.0	52.7668838501	-131.184341431	17.5092544556	173.081375122
0.0	-0.0	52.6697769165	-133.292816162	17.696264267	173.02835083
0.0	-0.0	53.0363273621	-138.302886963	19.3547019958	176.114608765
0.0	-0.0	53.3915634155	-144.998275757	22.1101074219	-179.211914062
0.0	-0.0	53.1680870056	-148.944595337	24.291809082	-172.09173584
0.0	-0.0	53.7148475647	-150.544708252	24.1730194092	-173.110336304
0.0	-0.0	53.8590431213	-147.100952148	22.8080997467	-174.84147644
0.0	-0.0	53.653591156	-140.665481567	20.2794151306	178.954742432
0.0	-0.0	53.8694114685	-140.551422119	18.26379776	174.525939941
0.0	-0.0	54.284286499	-141.662368774	17.5533771515	171.994720459
0.0	-0.0	54.1180992126	-144.706695557	16.2308063507	166.811691284
0.0	-0.0	54.2530250549	-150.617172241	17.3942165375	164.252792358
0.0	-0.0	54.5379714966	-155.993515015	18.9335269928	166.278640747
0.0	-0.0	54.4298553467	-161.509124756	21.7527809143	168.958007812
0.0	-0.0	54.4450874329	-167.786758423	23.3191375732	168.416152954
0.0	-0.0	54.5535011292	-170.500656128	24.9719181061	169.062728882
0.0	-0.0	54.1154785156	-172.610183716	26.8653144836	170.930282593
0.0	-0.0	53.7855949402	-175.241165161	29.0973968506	171.096206665
0.0	-0.0	53.5810775757	-177.52671814	30.5982456207	168.75680542
0.0	-0.0	54.0200004578	-178.378936768	31.5540218353	168.977142334
0.0	-0.0	54.7130851746	-178.81942749	32.2996139526	168.296142578
0.0	-0.0	54.8508872986	-178.999694824	31.8663387299	165.87197876
0.0	-0.0	55.6538391113	-176.534698486	32.0525169373	163.900161743
0.0	-0.0	55.7956008911	-177.806854248	32.432559967	163.041061401
0.0	-0.0	55.7653999329	-176.371566772	31.9875183105	163.082244873
0.0	-0.0	55.8167991638	-173.070770264	30.8849391937	160.425582886
0.0	-0.0	55.8474006653	-167.505828857	29.954990387	157.951385498
0.0	-0.0	55.6979904175	-163.505935669	29.4314022064	160.403930664
0.0	-0.0	55.6004562378	-164.44468689	29.8050537109	160.296508789
0.0	-0.0	55.4144515991	-170.264785767	32.8801422119	162.865158081
0.0	-0.0	56.0352401733	-176.424530029	36.7794380188	163.668426514
0.0	-0.0	56.5392074585	179.334152222	39.1601371765	164.578399658
0.0	-0.0	56.9854354858	177.43258667	39.8599433899	165.813156128
0.0	-0.0	57.1839179993	176.24369812	39.7052192688	165.359130859
0.0	-0.0	58.8397026062	174.625961304	40.559463501	166.060470581
0.0	-0.0	59.6884307861	174.785812378	40.6113967896	166.07144165
0.0	-0.0	60.2875556946	174.299957275	40.8222999573	166.305709839
0.0	-0.0	61.1310806274	174.407089233	40.5418815613	166.094223022
0.0	-0.0	62.2917747498	174.470932007	40.5083045959	166.512741089
0.0	-0.0	62.6293373108	174.415039062	40.2199897766	166.194381714
0.0	-0.0	62.3824386597	173.833557129	40.7930793762	166.578338623
0.0	-0.0	60.2261962891	173.947753906	40.5497589111	166.728683472
0.0	-0.0	58.897228241	173.577514648	40.563205719	166.565551758
0.0	-0.0	55.9492034912	174.005310059	40.5569076538	166.618591309
0.0	-0.0	47.5200309753	173.696533203	40.4676780701	166.385070801
0.0	-0.0	40.6854171753	173.506530762	40.7262954712	166.09815979
0.0	-0.0	40.7026596069	173.495285034	41.3895072937	166.233444214
0.0	-0.0	45.7586631775	175.866027832	40.9003448486	166.028625488
0.0	-0.0	46.1373710632	175.8802948	40.0540008545	165.442153931
0.0	-0.0	46.4287452698	175.139038086	39.892250061	165.882339478
0.0	-0.0	55.9687614441	175.360961914	40.6029167175	166.065368652
0.0	-0.0	74.6598815918	175.470581055	41.1733703613	165.996261597
0.0	-0.0	84.5362854004	175.630691528	41.2519721985	166.173873901
0.0	-0.0	85.8108978271	175.712463379	41.1011238098	166.626068115
0.0	-0.0	84.4869613647	177.624938965	40.917224884	167.20300293
0.0	-0.0	84.3107299805	179.669067383	40.3746910095	166.595291138
0.0	-0.0	83.3004684448	-177.790802002	39.5049247742	166.656051636
0.0	-0.0	81.953918457	-177.747497559	38.1097297668	165.968200684
0.0	-0.0	81.0639419556	174.514450073	37.3770866394	166.733215332
0.0	-0.0	80.5011672974	171.19241333	37.3613624573	165.907699585
