-118.563034058	-5.3109498024	134.103530884	4.1199555397	1.35999035835	-2.57316970825
-118.638442993	-5.38163805008	134.190643311	4.00908660889	1.45347690582	-2.56597995758
-118.158218384	-5.70994091034	133.657897949	3.9216234684	1.41454088688	-2.52779722214
-115.642311096	-7.93367767334	131.859680176	3.7074406147	0.720329284668	-2.51026248932
-109.217498779	-12.7747364044	128.278762817	3.34917426109	-0.840910315514	-2.39398097992
-106.021186829	-15.0192193985	126.900627136	3.0168325901	-2.89390420914	-2.33424425125
-105.31615448	-15.331829071	126.975280762	2.9385368824	-5.46127033234	-2.37275648117
-104.31287384	-15.5060958862	126.504699707	3.24914455414	-8.67796707153	-2.5027577877
-99.3426513672	-18.7860889435	124.480400085	3.97717308998	-12.7646379471	-2.80183935165
-94.9678344727	-22.3525066376	123.356590271	4.71931314468	-16.8701877594	-3.16419506073
-93.8711624146	-22.7429256439	123.169532776	5.05804014206	-20.4882774353	-3.19365262985
-92.1874389648	-23.0426330566	122.413414001	5.40910482407	-23.6742687225	-3.32280278206
-81.0156021118	-25.5709896088	113.445602417	6.2378616333	-25.612329483	-3.67552924156
-70.7919387817	-29.8329181671	107.307823181	6.66316986084	-26.3455257416	-3.74768543243
-62.8427124023	-30.8403148651	101.582328796	6.55923032761	-26.6362876892	-3.56581807137
-59.1276817322	-30.2759647369	99.8830871582	6.53638601303	-27.106086731	-3.33667182922
-51.9679412842	-30.0230503082	95.0982894897	7.0540471077	-27.4979038239	-3.46850728989
-42.4001464844	-31.1113872528	87.7492599487	8.36894607544	-27.7594738007	-4.08614206314
