-82.1687545776	-21.770986557	129.689285278	2.76886868477	1.47739064693	-4.40331363678
-81.9376831055	-21.9345397949	129.451248169	2.7463080883	1.38168358803	-4.38633537292
-79.6900177002	-22.3119335175	128.357009888	2.84789562225	1.43637156487	-4.32984781265
-65.0180435181	-25.8284225464	118.748008728	4.43853902817	1.91121959686	-4.45214080811
-41.0503387451	-31.1021099091	101.861312866	8.03199386597	2.75685954094	-4.30653905869
-14.5778865814	-31.7395992279	81.5407791138	12.056306839	3.11075472832	-3.86725735664
3.81286811829	-30.2525959015	69.5970916748	15.3605365753	3.25873327255	-3.49597907066
12.2347049713	-28.4608650208	64.999130249	17.3796882629	3.01640272141	-3.11658883095
8.43721389771	-29.8999481201	68.8531265259	17.5246562958	2.40165257454	-3.12224602699
