-120.786766052	-6.21435594559	133.996109009	4.14791154861	1.29717326164	-2.44710850716
-120.269042969	-6.70659017563	133.771774292	3.96592521667	1.23989975452	-2.45705533028
-119.751121521	-7.21890974045	133.538879395	4.01893568039	1.05057072639	-2.3843524456
-115.961090088	-9.80083370209	129.29800415	3.67704391479	0.115299127996	-2.30043292046
-104.807052612	-19.1680736542	120.453231812	3.14576458931	-2.13765668869	-2.18019843102
-97.6918640137	-24.4683761597	118.637374878	2.35969376564	-4.75136041641	-1.91218113899
-95.0786056519	-25.2882614136	118.087730408	1.85846471786	-7.94295310974	-1.73302710056
-92.6239089966	-25.8576145172	117.215950012	2.56740999222	-12.0597820282	-1.96822583675
-86.8499069214	-28.2900009155	112.857872009	4.05008792877	-15.803768158	-2.63721060753
-75.5746002197	-33.0153961182	104.770439148	4.81480169296	-18.8430233002	-2.80505657196
-64.0058898926	-35.9770011902	95.9616622925	4.46596384048	-20.9013195038	-2.47641849518
-52.965713501	-37.6593437195	87.7504501343	3.94718718529	-22.433681488	-2.08683753014
-43.9920120239	-38.7848701477	81.5919265747	4.35256624222	-23.7264175415	-2.22736144066
-40.4218025208	-37.4629478455	79.0233688354	4.96395349503	-24.6599140167	-2.36575245857
-36.1024742126	-37.2879867554	75.4677276611	5.34521007538	-25.4626636505	-2.55395436287
-37.3806114197	-37.3877296448	77.7074584961	5.63180351257	-26.6772441864	-2.68765211105
-41.8164672852	-37.8590698242	82.03074646	6.07132482529	-27.6189117432	-2.9370675087
-50.8368606567	-37.8281898499	90.6274032593	6.89462375641	-28.0048084259	-3.40411376953
-60.7587776184	-37.2327880859	100.065917969	7.5402712822	-28.3326873779	-3.75753545761
-56.1687774658	-38.6240310669	95.3918228149	8.06653785706	-28.8340015411	-4.04686927795
-55.359161377	-38.2075271606	94.7527313232	8.30729484558	-29.16456604	-4.33821105957
-53.8259773254	-38.2025032043	93.6355895996	8.53018951416	-29.5860061646	-4.53791332245
-48.5163993835	-39.1309127808	88.2887954712	8.75218963623	-29.7815036774	-4.63988828659
-43.3981170654	-39.7937049866	83.810874939	9.0821762085	-29.6305751801	-4.7658290863
