-116.587890625	-18.0764846802	131.685348511	6.0680513382	0.178207889199	-1.75584518909
-116.573280334	-18.4577293396	131.687408447	6.08470773697	0.295907735825	-1.82570660114
-116.017623901	-19.5901126862	131.344421387	5.85213947296	0.724439203739	-1.70671963692
-115.103721619	-20.6116313934	130.488235474	3.82304286957	1.96655535698	-1.51911175251
-113.33379364	-22.7451915741	129.511749268	-0.0559650212526	3.90183091164	-1.04615354538
-107.029006958	-27.8464355469	127.047912598	-3.92196464539	6.75045728683	-0.507067143917
-96.0670013428	-34.7452354431	120.662368774	-6.83071994781	10.1196918488	-0.0193742271513
-82.5403900146	-40.5145378113	111.151390076	-9.06521701813	12.871676445	0.151404485106
-71.3501434326	-44.7461624146	102.722412109	-11.026804924	14.2301397324	0.459747254848
-64.2320175171	-45.9624977112	97.1572036743	-13.0285396576	15.0020341873	0.771158337593
