0.0	-0.0	129.616546631	-123.215881348	87.2628631592	172.404922485
0.0	-0.0	129.561660767	-122.991783142	87.370880127	172.29196167
0.0	-0.0	129.256164551	-123.140182495	87.9186782837	172.528030396
0.0	-0.0	125.680641174	-123.635055542	86.4821014404	172.852966309
0.0	-0.0	110.949607849	-120.674026489	76.9442443848	171.688156128
0.0	-0.0	87.4355163574	-114.683036804	62.2871894836	171.193054199
0.0	-0.0	66.5964584351	-109.819770813	49.9525146484	171.910873413
0.0	-0.0	57.7521743774	-108.255065918	43.7481231689	171.915649414
0.0	-0.0	56.746635437	-107.712097168	40.7743530273	171.826812744
0.0	-0.0	58.1012382507	-106.802322388	39.2935562134	171.475646973
0.0	-0.0	59.1489677429	-105.560691833	37.6956977844	171.218673706
