4.70893621445	-2.2575480938	-6.44879484177	1.18687582016	13.1831245422	34.3747177124
4.41163539886	-2.30742955208	-6.47709512711	1.12401163578	13.2247276306	34.1878051758
4.16170883179	-2.5126209259	-6.37250232697	0.821029186249	13.1321821213	33.9612617493
3.48452019691	-2.84366106987	-6.1548781395	-0.216324433684	12.2658529282	33.0303268433
1.72994709015	-3.84762096405	-5.55803728104	-2.23035144806	10.9933462143	31.1118412018
-0.884211540222	-5.07358598709	-4.5556101799	-4.22260093689	9.5379114151	28.765832901
-3.30788636208	-7.06383657455	-3.55634498596	-6.10018205643	7.83210515976	26.0105018616
-4.76316308975	-8.31258678436	-3.27726888657	-7.7621922493	5.77539730072	22.4575710297
-5.58906888962	-9.03456306458	-3.41617321968	-8.76675033569	4.16085338593	19.6623725891
-6.74845695496	-10.6150255203	-4.24695205688	-9.27711486816	3.74619340897	19.092338562
-10.9394521713	-14.8014087677	-4.14871263504	-9.29259109497	2.99893164635	20.0940303802
-16.0444488525	-18.6942920685	-2.89344954491	-9.26968765259	1.47843718529	21.0308303833
-18.1529922485	-19.9490356445	-2.5161960125	-9.47386455536	0.229584544897	21.054353714
-17.3769836426	-19.3689041138	-2.63917326927	-8.85655403137	-1.78720748425	21.4566287994
-16.1831321716	-19.6044254303	-2.84665727615	-7.92867231369	-3.48071575165	24.6081771851
-14.773888588	-20.1679515839	-3.3561873436	-7.38170289993	-4.6552028656	26.7961349487
-11.6141653061	-20.4941825867	-4.21166992188	-7.22805213928	-5.42582798004	27.2489242554
-8.75440216064	-22.0314331055	-4.80389451981	-7.5865187645	-6.12070083618	27.1476783752
-6.47572278976	-24.3350543976	-6.27310037613	-8.37513160706	-6.93721532822	27.4629001617
-4.66150188446	-25.4919261932	-7.13425970078	-9.23250102997	-7.55290794373	27.6536922455
-2.50483250618	-22.9472541809	-8.36461257935	-9.81156158447	-7.74181318283	27.6547527313
-2.54877495766	-21.2505073547	-8.81552314758	-10.1853551865	-7.75674533844	27.6613254547
-5.40898704529	-17.3991794586	-7.98564434052	-10.6240310669	-7.55282974243	27.4915122986
-7.49398040771	-17.2197780609	-6.32050609589	-10.4467420578	-6.72109699249	26.4456996918
-7.93626213074	-17.4419460297	-6.506711483	-10.4111843109	-6.01468753815	24.4004592896
-8.82361030579	-17.5117053986	-6.31475973129	-11.1364784241	-5.70702314377	20.7185153961
-9.92235088348	-18.003911972	-5.9434466362	-12.0538377762	-5.25727987289	17.2434463501
-12.2810125351	-19.3247146606	-4.30262184143	-13.3308458328	-4.59236621857	15.3329057693
-15.1518316269	-21.9613952637	-2.83824634552	-14.566037178	-4.0140042305	14.7003240585
-17.3798027039	-26.7886924744	-2.58381295204	-14.4292287827	-4.54691553116	14.0858030319
-18.7214756012	-29.5359668732	-2.62312722206	-13.8273057938	-5.42768573761	12.9062976837
-20.7038764954	-29.1766986847	-2.61760115623	-13.8512916565	-5.51562404633	11.8350219727
-22.1725578308	-29.2353439331	-1.79726421833	-14.1781196594	-5.30373191833	11.4210624695
-22.9461975098	-29.2111263275	-2.04918622971	-14.155049324	-5.03357601166	11.5691375732
-23.8977642059	-29.3612327576	-1.40538680553	-14.1442508698	-4.64722537994	11.5547389984
-23.6322937012	-29.2758827209	-1.34607326984	-13.5946416855	-3.80904912949	11.4272136688
-23.6424369812	-29.4875545502	-1.156006217	-13.2217597961	-3.19177126884	11.5739908218
-24.7332687378	-29.6682758331	-0.297989666462	-13.2149629593	-3.02436494827	11.7954130173
-24.2001838684	-29.4056377411	-0.529576480389	-13.3111658096	-3.16736197472	12.4209032059
