0.102627515793	0.883523702621	0.130195379257	0.0434308052063	1.73275053501	-0.0469498634338
0.104026794434	0.883697986603	0.13091301918	0.0443871021271	1.73301327229	-0.0473461151123
0.10480427742	0.882422924042	0.13024520874	0.0448350906372	1.73288214207	-0.0473537445068
0.104233980179	0.881165981293	0.128654956818	0.0458984375	1.73295795918	-0.0475805997849
0.104020118713	0.883774280548	0.133566617966	0.0470407009125	1.7340798378	-0.0483407974243
0.112804412842	0.892997503281	0.154046654701	0.0477426052094	1.7370442152	-0.0499167442322
0.131284475327	0.900324344635	0.171767234802	0.0486762523651	1.74160182476	-0.0527526140213
0.159086227417	0.902442932129	0.186225891113	0.0500082969666	1.74661290646	-0.0573732852936
0.192080974579	0.904968500137	0.198530077934	0.0522058010101	1.75176286697	-0.0629408359528
0.218245267868	0.907919883728	0.206530928612	0.0544748306274	1.7567961216	-0.0692582130432
0.245229721069	0.909995317459	0.212106704712	0.0562155246735	1.76146507263	-0.0755200386047
0.273676395416	0.909501314163	0.213426828384	0.0581693649292	1.76468908787	-0.081193447113
0.293247938156	0.907344818115	0.210468053818	0.0603399276733	1.76640856266	-0.085431098938
0.301911354065	0.905717849731	0.206316947937	0.0625095367432	1.76762127876	-0.088892698288
0.310780763626	0.900207996368	0.197453737259	0.0639133453369	1.76866328716	-0.0919511318207
0.315330505371	0.895997524261	0.190366029739	0.0645611286163	1.76912617683	-0.0946131944656
0.321346282959	0.892338752747	0.181495428085	0.0653553009033	1.76947462559	-0.0969026088715
