20.2484169006	-19.4562072754	8.95621490479	29.4257392883	10.4812459946	33.8026275635
20.1738243103	-19.6101760864	9.01280784607	29.2645626068	10.5247688293	33.8209991455
19.8631706238	-19.3913669586	9.13773441315	28.578207016	11.1053915024	33.3401031494
19.0470428467	-19.2216587067	9.26747608185	26.7902698517	11.915189743	32.289680481
18.3348350525	-18.9788131714	9.13180732727	24.9347362518	12.3941917419	32.0556869507
17.0443954468	-18.7427139282	8.69758987427	23.1344909668	12.3435602188	32.4547119141
12.6244564056	-19.4710865021	8.93527793884	20.6590270996	13.3791255951	31.8757762909
6.27317810059	-19.9941635132	9.91826629639	17.1539916992	14.3757581711	30.5943622589
0.353040635586	-20.0347747803	8.98550415039	13.3721380234	15.4423141479	29.2020549774
-5.76749277115	-20.712305069	9.88962841034	9.58211708069	16.6395244598	27.6376209259
-10.3525524139	-19.4114513397	10.7448892593	6.70992279053	18.1297779083	26.5675868988
-14.1338100433	-17.4444084167	13.1473484039	5.52618837357	20.0435676575	26.3407897949
-11.7025585175	-15.6227464676	12.390835762	7.48217105865	20.0668087006	27.6648159027
-10.6833820343	-8.26427745819	12.9021024704	9.27541828156	20.1969718933	27.8925628662
-15.6210565567	1.39967250824	16.0550441742	9.19854259491	21.214931488	27.2806625366
-17.4209403992	10.5770778656	17.5032749176	8.93589782715	22.020357132	26.9831447601
-18.7952651978	19.8499546051	17.3828697205	8.88390827179	22.5534248352	26.8008556366
-21.1322479248	27.9104213715	17.3537425995	9.04325866699	23.8001976013	26.0189857483
-21.8937416077	33.1832542419	16.7236995697	9.05396556854	25.9215240479	24.3021469116
-20.6243114471	34.1217308044	15.5323877335	8.76290225983	27.6999149323	21.4772129059
-16.8589191437	33.3272705078	13.328458786	7.97495794296	29.2576541901	17.8372116089
-9.2327375412	33.9197463989	4.95376300812	7.25481748581	30.1569385529	14.2352571487
-10.7355966568	32.5842628479	6.00494480133	7.1922211647	30.9091644287	13.8521747589
-12.5326681137	32.3107299805	6.50580739975	7.0452914238	31.4105510712	14.230214119
-13.3545951843	33.1440048218	6.26231861115	7.10030078888	31.9226589203	14.2914161682
-13.4372816086	33.4280052185	6.87644672394	8.47856426239	32.7216110229	14.508357048
-13.2290229797	33.1850700378	6.95373439789	9.87354183197	32.5772705078	15.0530080795
-13.1275978088	33.0026855469	7.29342699051	11.0709342957	31.9858951569	15.4190626144
-12.8816537857	32.717590332	7.40928554535	12.1046571732	31.8767929077	15.847413063
-12.4327135086	32.7076187134	7.71164560318	12.5424385071	32.1288223267	15.878027916
-12.1470651627	32.5384941101	7.61395978928	12.5492582321	32.3106651306	15.7414665222
-11.9515943527	32.3505973816	7.72353696823	12.4465875626	32.1876831055	15.6890687943
-11.7089624405	32.4610824585	7.7000169754	12.4092149734	32.1664657593	15.6626148224
-11.1246204376	32.5766906738	7.67058467865	12.5715942383	32.3288078308	15.5199928284
-10.9024267197	32.4016113281	7.82373952866	12.4548377991	32.2163047791	15.2603654861
-10.7535629272	32.6663208008	8.06326580048	12.3494358063	32.1401977539	14.6477508545
-10.7897596359	32.5542602539	7.98400163651	12.3195762634	32.126991272	13.5840482712
-10.807261467	32.4178199768	8.11304664612	12.0712137222	32.1591567993	13.1740226746
-10.8881063461	32.238319397	8.19628810883	11.7305259705	32.1956138611	13.2766962051
-10.5985746384	32.498878479	8.47272205353	11.7060470581	32.3418693542	12.8401784897
-10.4440193176	32.4905509949	8.68051433563	11.9559383392	32.8821334839	12.1638355255
-10.2206792831	32.1646728516	8.87684440613	11.9293870926	32.9313316345	11.5896654129
-10.2279596329	31.8549385071	9.03359985352	12.0854148865	32.7624588013	11.5745487213
-10.8220586777	31.6809158325	9.9093132019	12.2079372406	32.758430481	11.7535514832
-11.3159418106	31.4009647369	12.5771341324	12.2510290146	32.7975196838	11.8214626312
-12.6066474915	31.5084514618	15.0585250854	12.6557779312	32.8569984436	11.9492359161
-11.644033432	31.5889835358	14.7417669296	13.2465381622	32.9332351685	12.2184801102
-8.00682258606	31.9321365356	11.5624713898	13.5691452026	32.9518890381	12.3775367737
-4.03602647781	33.5397453308	5.07004594803	13.5420131683	33.0213546753	12.4882411957
-3.84051990509	34.8115692139	1.44955980778	13.4834527969	32.9617614746	12.720117569
-4.67868852615	34.9336509705	1.25059843063	13.3200616837	33.1347503662	12.7661886215
-5.47128725052	35.1030960083	0.28583714366	13.2751731873	33.3262634277	12.8678512573
-9.7577495575	34.5267868042	-3.51754689217	12.9508085251	33.5608901978	12.8020839691
-13.1861829758	34.7181777954	-4.60583114624	12.6585483551	33.6232910156	12.8116874695
-14.676943779	33.4417762756	-5.09089756012	12.258441925	33.3287696838	12.7717561722
-16.3550853729	33.2094306946	-6.22184467316	11.0170230865	33.168888092	12.4453992844
-18.7228832245	32.6279754639	-7.64361333847	9.3332490921	33.1308174133	11.8799819946
-18.883600235	31.9533920288	-8.71248245239	8.18992137909	33.1771697998	11.755232811
-17.5389003754	31.4039783478	-7.27722072601	8.36686229706	33.004611969	12.1234703064
-17.3519363403	31.3993473053	-7.85386896133	8.55747795105	32.7242050171	12.4408302307
-17.944272995	31.3828735352	-8.25309848785	7.94451093674	32.4955711365	12.3988981247
-17.7274208069	31.3593235016	-8.21010494232	6.51543235779	32.2420082092	11.7921323776
-18.1044445038	31.448677063	-8.01408290863	5.30440616608	32.2603302002	11.3243207932
-17.9818210602	31.3402614594	-8.36613750458	5.56098222733	32.2196731567	11.5486593246
-15.1191778183	30.9020309448	-11.6424150467	6.58458709717	32.2219276428	11.6593980789
-13.6926345825	30.1312217712	-7.10962486267	7.03404140472	32.2745170593	11.7030849457
-12.9631385803	30.2383899689	-6.74736261368	6.95083379745	32.30027771	11.6748971939
-6.02998924255	33.193813324	-0.81480884552	6.76671123505	32.2781219482	11.5026359558
-4.3889040947	32.7650642395	0.738864719868	6.70102310181	32.2501564026	11.4473171234
-4.58952665329	32.6235122681	0.953734517097	6.78571557999	32.3749771118	11.5010137558
-3.01806759834	32.7813415527	2.4352812767	6.80426883698	32.3724899292	11.4631223679
-0.648216247559	32.8479957581	4.76840543747	6.70757627487	32.3995780945	11.3897571564
-0.53012150526	32.9452095032	4.63555288315	6.53984260559	32.4810829163	11.4178180695
-4.19250106812	33.0910072327	2.96232438087	6.20868206024	32.5318756104	11.3129205704
-7.34341478348	32.5165672302	1.14349830151	6.11689949036	32.4424934387	11.2587594986
-8.76494979858	31.7386054993	-0.341155350208	6.13237953186	32.3348884583	11.2711820602
-12.3100042343	30.1754379272	-3.59641265869	6.0378780365	32.2695388794	11.2900657654
-15.9656896591	28.820898056	-6.99910163879	6.01790618896	32.2444229126	11.3668727875
-19.3289279938	27.5199279785	-9.7543964386	5.97519207001	32.3099479675	11.4415502548
-19.6279735565	26.9686317444	-10.1663293839	5.90425109863	32.3587532043	11.4272613525
-16.6220111847	27.8078632355	-6.61947917938	5.94319391251	32.4455871582	11.4046516418
-12.2030715942	28.099811554	-4.84308624268	5.99536895752	32.4772796631	11.4008617401
-8.35546875	28.4324207306	-1.68897104263	5.9529967308	32.6013298035	11.3238706589
-2.67098259926	29.4617023468	1.88818025589	5.98569011688	32.648815155	11.3121814728
-0.526375591755	29.0851802826	3.36280989647	5.85271310806	32.7559509277	11.3110466003
-1.80045998096	27.7836704254	1.52421939373	5.87740278244	32.7927017212	11.4015274048
-5.85034322739	25.6916103363	0.15913875401	5.7587313652	32.8010406494	11.4699087143
-7.41243743896	21.3479480743	-0.279066741467	5.67654514313	32.8147239685	11.5254716873
-7.41838407516	19.7227745056	-0.976586341858	5.41685581207	32.8997879028	11.4992542267
-8.6014585495	20.8898429871	-1.08065068722	5.51204538345	33.0352592468	11.5926885605
-10.1820545197	25.1211357117	-1.76060903072	5.59290313721	33.0960769653	11.5938158035
-10.7508926392	26.7148723602	-2.00826334953	5.62011241913	33.2063713074	11.5887212753
-11.890414238	27.5011539459	-2.10692453384	5.46026849747	33.302116394	11.5203371048
-14.2964353561	28.4698944092	-2.40631103516	5.41120100021	33.3603477478	11.5406894684
-17.2496204376	30.0782032013	-3.47751879692	5.20264339447	33.3530311584	11.5825061798
-18.5336322784	30.5278148651	-4.36012220383	4.7595410347	33.3815002441	11.5083494186
-19.1570224762	30.5425243378	-4.83309173584	4.40605115891	33.3626594543	11.5911178589
-19.5929164886	30.8690834045	-4.7533621788	4.1621594429	33.3402709961	11.6172637939
-21.7441387177	32.1142234802	-5.14951515198	3.9386703968	33.3252220154	11.7204732895
-23.0160751343	32.6843261719	-5.71047401428	3.5215613842	33.3395805359	11.619972229
-22.7658061981	32.5757637024	-5.86204576492	2.20957231522	33.3325920105	10.9703578949
-22.404209137	32.2645339966	-5.55082082748	0.73631811142	33.282119751	10.1314210892
-22.1912288666	31.9094810486	-5.56104373932	0.361350566149	33.0443458557	9.83320617676
-21.7980442047	31.6699466705	-5.351126194	1.28564059734	33.0318412781	10.2843599319
-21.8447628021	31.0190315247	-5.60954761505	3.04361200333	33.0428161621	11.2603263855
-22.7638339996	28.927980423	-7.23462200165	3.91176390648	32.9388198853	11.6522397995
-26.4490070343	27.3148136139	-9.67630958557	3.59204101562	33.0956192017	11.3540906906
-29.0397586823	25.9596366882	-11.5106515884	3.37262153625	33.1617736816	11.2541790009
-30.609500885	25.3522701263	-12.4035339355	3.14701104164	33.2236785889	11.1132326126
-30.999162674	24.3131809235	-13.0056858063	2.78125429153	33.2094802856	10.8785352707
-31.991027832	24.030128479	-13.7397422791	0.492722630501	33.2666397095	9.92482280731
-30.9612026215	24.192647934	-15.6019697189	-1.7104139328	33.2430725098	9.14262485504
-25.9136276245	25.4111995697	-13.1868095398	-2.67063212395	33.1618537903	8.87541675568
-19.4163074493	27.3995361328	-9.79747962952	-2.26212239265	33.0949020386	9.14021015167
-12.1244678497	29.4670658112	-7.1127872467	-1.71232652664	32.9583473206	9.28797531128
-3.65092897415	30.6630039215	-4.8132610321	-1.62415492535	32.7337532043	9.35010433197
4.17334270477	30.5783290863	-4.64979219437	-1.94958639145	32.6381912231	9.13508796692
4.67843151093	28.1922073364	-3.25178551674	-1.9929536581	32.6071624756	9.13203048706
-7.47094392776	25.9023075104	-4.81944704056	-1.69787204266	32.5115699768	9.29088306427
-17.9713420868	21.7307910919	-4.15753364563	-1.68956851959	32.5422592163	9.3204164505
-23.4936847687	19.0521183014	-3.7517888546	-1.86299049854	32.6699180603	9.1940164566
-28.4348468781	17.8752975464	-0.334649682045	-1.93348813057	32.8170204163	9.15094184875
-30.8436698914	16.8470973969	2.82343220711	-1.8494079113	32.8817481995	8.97619819641
-29.6698131561	19.0816822052	3.43868708611	-1.65907275677	32.9202537537	8.95377922058
-30.4895324707	22.6968898773	3.76553153992	-1.56353831291	32.9651832581	8.89442825317
-32.3333969116	25.1057472229	3.28985357285	-1.37827050686	32.9884986877	8.99726963043
-34.488243103	26.7868003845	4.01051902771	-1.16212391853	32.9794006348	9.03403949738
-34.2439842224	26.8311061859	3.61737799644	-0.643654763699	32.8166389465	9.29605770111
-32.9331550598	26.6145420074	4.10495328903	0.189137890935	32.5839500427	9.53384590149
-32.0536842346	26.2640094757	4.28769254684	1.30407059193	32.3001785278	9.76606845856
-31.2434158325	25.8004226685	4.07905912399	2.00847411156	32.2544937134	9.89005947113
-30.2284793854	26.5331707001	4.57131433487	2.06162643433	32.407371521	9.85597038269
-29.7156906128	26.9155693054	4.55770492554	1.77256834507	32.4934654236	9.66911792755
-28.7136592865	28.0350837708	5.4718837738	2.176176548	32.5540161133	9.60741329193
-27.2018432617	28.0997219086	5.93983030319	3.09490704536	32.5649108887	9.83415412903
-25.1440925598	28.559841156	6.41567325592	4.26443243027	32.5283546448	10.1604127884
-22.4788818359	28.7700252533	6.11123991013	4.86433172226	32.4765968323	10.3756456375
-20.9386539459	28.9306716919	4.86778879166	4.82814741135	32.553894043	10.295501709
-21.5137081146	29.4727630615	5.50777387619	4.69175767899	32.6831588745	10.2874393463
-21.6596260071	29.9520931244	5.63173151016	4.69927310944	32.6946716309	10.3658599854
-21.5062217712	30.2977657318	6.24679660797	4.79251003265	32.7311897278	10.3243951797
-21.2096710205	30.7001171112	6.59785556793	5.23904418945	32.6433944702	10.2664270401
-21.135509491	30.5481739044	6.75724458694	5.74440956116	32.4519195557	10.3899421692
-21.127614975	30.4825954437	6.62379407883	5.75462007523	32.5257949829	10.2866630554
-19.7644176483	31.0766124725	7.7277135849	5.78674554825	32.5404777527	10.297252655
-18.133190155	31.4246234894	8.35188293457	5.64172649384	32.6047706604	10.2705745697
-17.2466831207	32.0797920227	8.51488208771	5.61079883575	32.7077026367	10.2264566422
-17.1625747681	31.2287654877	8.38837242126	5.73763084412	32.8524398804	10.3111982346
-18.7324256897	29.8405170441	9.23208713531	5.73677968979	32.9727172852	10.3851509094
-20.8502941132	29.2908554077	10.7593202591	5.8352637291	33.1297302246	10.4628105164
-23.0888080597	29.2657299042	14.6329431534	6.06439208984	33.2998542786	10.3611879349
-24.4702167511	29.2106513977	17.3322315216	6.59141206741	33.2936286926	10.5055484772
-23.6751174927	29.7244148254	17.2224979401	6.99635601044	33.2858352661	10.6758956909
-15.8339242935	31.7610473633	9.9262342453	7.11862230301	33.4271354675	10.6102113724
-13.1963415146	32.9957313538	9.21367835999	7.15552139282	33.588596344	10.5841522217
-13.3671293259	32.8643493652	9.64577579498	7.03926324844	33.7452735901	10.7065830231
-11.2869787216	33.9993019104	9.11893081665	7.03680753708	33.8653564453	10.6566915512
-8.58924674988	35.7672462463	9.30555534363	7.0839972496	33.9015655518	10.5927152634
-7.70971107483	35.9457473755	10.2719516754	7.0789270401	33.8098258972	10.4859743118
-8.98830795288	35.7690010071	9.96935081482	7.22503757477	33.819355011	10.6004648209
-8.88653850555	35.4923591614	9.96029090881	7.71226501465	33.7948913574	11.4706707001
-8.9432592392	35.4463386536	10.0090742111	8.99697685242	33.5477027893	13.6397657394
-9.09063529968	35.4922599792	9.97849941254	10.3826293945	33.2043266296	15.3678274155
-8.77459144592	34.8503761292	10.0081796646	10.8846054077	33.2519226074	15.4404678345
-9.44733428955	34.5565452576	9.65748882294	10.4268217087	33.3935279846	14.7240543365
-10.1901664734	34.4207649231	9.48154258728	9.53816413879	33.5726776123	13.6819181442
-10.8078775406	34.55809021	9.88903713226	8.7217912674	33.8342285156	13.4588212967
-10.7525482178	34.6610908508	9.7104434967	8.72461032867	33.8810005188	13.8808231354
-10.9215583801	34.6925010681	9.33796405792	9.11910247803	33.8172874451	15.2097511292
-10.7376155853	34.324016571	9.06819915771	9.73903846741	33.5872001648	16.7554473877
-9.13695526123	33.9327125549	8.6748046875	9.63209629059	33.3549842834	16.4608802795
-10.5507192612	32.5598678589	7.99529218674	8.34737110138	33.4597587585	13.9603013992
-10.9390869141	32.7819442749	8.04703140259	6.95490980148	33.8017425537	11.8285284042
-11.2766399384	33.1976127625	8.05673980713	6.40591144562	33.7027282715	9.91788482666
-11.3876857758	33.1209335327	8.0135011673	6.82296085358	33.5994911194	10.354347229
-11.2470226288	32.5790519714	8.06232643127	6.89762449265	33.5215835571	10.8125286102
-11.5652179718	32.2967529297	8.01345443726	6.87501621246	33.4566612244	10.7874288559
-12.7582321167	31.7258205414	8.8550786972	7.05634021759	33.326461792	10.8654108047
-12.8767538071	31.1756095886	8.92325401306	7.11565876007	33.4084358215	10.9804000854
-13.5720205307	30.4249477386	9.17557239532	7.13279294968	33.4998855591	10.9979801178
-13.4118738174	30.6176147461	8.76861572266	7.35017967224	33.650718689	11.129447937
-16.8059024811	29.7795829773	12.1907520294	7.63267278671	33.7406311035	11.346827507
-20.7037067413	29.1088504791	15.9479017258	7.81786108017	33.9084243774	11.4453029633
-16.9563732147	30.3712100983	13.9249916077	8.00137138367	34.0075302124	11.5284557343
-11.3429670334	31.2091712952	10.5300340652	8.19694900513	34.0127677917	11.5719718933
-8.93052864075	31.7392101288	9.42789649963	8.14912414551	34.0257301331	11.50461483
-4.7163901329	32.9203033447	6.53551578522	8.08421325684	34.1888160706	11.4906177521
-0.126992344856	34.1267433167	3.41536808014	8.12719535828	34.1906700134	11.4810914993
-0.77678668499	33.6489143372	2.63338565826	7.99422073364	34.2870178223	11.4490861893
-5.74357271194	32.5652580261	5.05567789078	7.87220907211	34.4312515259	11.5155315399
-9.40958881378	30.5624084473	5.31625127792	7.88048267365	34.5709228516	11.5336999893
-8.82933521271	29.267868042	6.28273916245	7.84723329544	34.6793136597	11.4988527298
-8.07590675354	25.3406066895	5.62608528137	7.82335186005	34.6619911194	11.4876871109
-7.22247600555	19.9900608063	5.3999671936	7.83210849762	34.8195075989	11.6378383636
-6.43596982956	18.0931091309	5.11965894699	7.88408136368	34.9677009583	11.6820602417
-7.77456283569	20.8960075378	5.22149610519	8.07217502594	35.0854454041	11.7705583572
-10.2669897079	24.8586750031	5.28890705109	8.03985786438	35.1389045715	11.8695840836
-10.4436187744	29.1904373169	6.28670024872	7.95355892181	35.1777191162	11.8766050339
-9.82907390594	31.7843513489	8.26549720764	8.04043769836	35.2362480164	11.8951435089
-9.4224357605	33.1229324341	9.24439620972	8.19050121307	35.3306083679	11.9694957733
-8.66244697571	34.5656166077	10.1302566528	8.31381130219	35.3965148926	12.0486001968
-8.24752044678	37.2874183655	10.8359918594	8.39121627808	35.4064865112	12.0540657043
-6.31374645233	39.8554916382	13.5365514755	8.51633930206	35.5255699158	12.0539884567
-4.55242490768	41.5142326355	15.4736890793	8.66941833496	35.6228523254	12.0999450684
-3.68260455132	41.212059021	16.2029399872	8.78571796417	35.6947402954	12.0722303391
-3.28018021584	41.3008651733	16.2584648132	8.8978767395	35.791217804	12.1331634521
-4.15244197845	38.0772361755	14.5085363388	8.99091529846	35.6805686951	12.1741771698
-4.11914014816	35.6114768982	14.3136196136	8.90695953369	35.722278595	12.1649122238
-4.49827575684	30.8784160614	12.4482364655	8.78395462036	35.7735328674	12.2031984329
-5.47688770294	26.2398662567	14.3460187912	8.66506195068	35.8157463074	12.1571445465
-5.89894199371	25.027967453	13.1728591919	8.68483066559	35.778842926	12.309176445
-8.64420986176	31.6023445129	15.9001216888	8.83753299713	35.7895889282	12.5274248123
-15.2365217209	35.9051780701	25.3770465851	8.85786247253	35.7768287659	12.660451889
-14.5956010818	39.1725959778	26.7082614899	8.95005321503	35.7239151001	12.7349758148
-12.5942344666	37.5282974243	22.0504837036	9.01703166962	35.6049842834	12.911863327
-12.16933918	31.8197059631	19.4483032227	8.91293525696	35.4362258911	12.9753160477
-9.77707576752	22.6297416687	12.5140361786	9.06334114075	35.4315795898	13.0726919174
-5.48319101334	13.5570764542	10.7809476852	9.17783069611	35.5461540222	13.0713014603
-2.45644116402	5.00982046127	9.19010925293	9.26768302917	35.6865501404	13.0353498459
-1.37338399887	0.354580819607	8.42186737061	9.30641555786	35.7648048401	12.9313840866
-1.83072459698	2.63189268112	7.82122659683	9.19293785095	35.675037384	12.7499380112
-2.92883133888	-2.44248199463	13.4972047806	8.99437713623	35.334728241	12.5319461823
-9.74711894989	-8.93262290955	21.4907093048	8.27901077271	34.8218955994	12.3161029816
-16.2057971954	1.49462211132	21.9189815521	7.41972160339	34.7836036682	12.5277748108
-21.2897815704	28.7036399841	18.3552913666	6.2380399704	34.9181098938	12.6379642487
-18.8287181854	40.9837760925	20.7031536102	5.13271522522	34.8440132141	12.5076379776
-13.161190033	40.6155166626	21.1623401642	4.40275669098	34.7908248901	12.5265426636
-10.6381063461	40.3855018616	18.5466804504	4.83244800568	34.8858718872	12.8123044968
-10.584405899	40.0329971313	18.3794574738	5.7641620636	34.8727989197	13.1058979034
-11.8265190125	42.0689353943	17.5961055756	6.91457414627	35.0874977112	13.4084615707
-13.346118927	43.9766731262	16.5812568665	8.24271011353	35.2766418457	13.8853788376
-11.3731136322	41.8338508606	16.0002632141	9.0204372406	35.0883331299	14.4141569138
-11.1868600845	42.277721405	15.1852893829	9.19221973419	35.0049934387	14.9119234085
-11.2021093369	42.2343673706	14.8858537674	9.84045028687	34.8489532471	15.6382799149
-10.5752496719	40.3134346008	14.2301149368	12.5713739395	34.193561554	18.0347881317
-10.1070919037	39.3758850098	14.2987222672	15.1531991959	33.4190101624	20.7402172089
-10.1934738159	37.7181930542	13.5706090927	14.618142128	33.3718185425	21.3199977875
-10.2960634232	34.3825263977	13.6255893707	12.0944738388	33.9584083557	20.0172195435
-9.23051738739	29.5121707916	13.534122467	9.07900333405	34.6679916382	17.4588623047
-9.52966213226	26.2077484131	13.4289751053	4.96580028534	35.7132797241	13.4151849747
-8.71542644501	22.9749889374	12.5804395676	1.26764297485	36.1986083984	9.60285186768
-8.26640701294	19.9322280884	12.4732322693	-0.741322398186	36.5681228638	7.51740312576
-9.70589160919	16.4315166473	10.8306837082	-1.62008607388	36.8161087036	6.42907905579
-11.5655536652	15.9384469986	11.5565977097	-1.6249114275	37.1428031921	6.18120765686
-13.1616315842	15.666176796	14.4392118454	-1.10479187965	37.2909164429	6.28534889221
-18.9880409241	17.4592723846	20.967672348	-0.639609992504	37.4224853516	6.33582353592
-23.6344814301	18.6821060181	27.9790458679	-0.274475067854	37.5114517212	6.26748037338
-21.9781932831	19.2885074615	28.9058647156	0.590230286121	37.687538147	6.47908401489
-13.7435102463	21.4231796265	19.7400474548	1.65928351879	37.7957382202	7.0224738121
-10.8980617523	23.0759677887	17.7646064758	2.32323384285	37.9027633667	7.51613664627
-11.5502128601	23.2371292114	17.7276859283	2.55475831032	38.2098693848	7.88003826141
-13.7737417221	24.138753891	19.3015136719	2.86700057983	38.6783676147	8.23723220825
-12.9228725433	24.48320961	18.7180938721	4.24750328064	38.8808059692	9.78024864197
-12.5534563065	24.9804401398	19.2675647736	5.5558347702	38.8160247803	11.2510185242
-12.712146759	24.9795246124	19.7396183014	6.18749284744	38.8068313599	12.0018510818
-12.1643381119	23.8510723114	19.5635890961	6.09490585327	38.7544212341	12.0925397873
-10.5572910309	21.8998394012	17.1000576019	5.82474946976	38.6680221558	11.9916467667
-9.62391090393	20.4708385468	13.9588241577	5.72089481354	38.6658477783	12.100651741
-8.93179035187	20.5671634674	13.5858449936	5.69029378891	38.8232154846	12.2194833755
-8.74524116516	21.1733646393	13.8612699509	5.72399568558	38.9818458557	12.3822917938
-8.91578769684	22.4730854034	14.1327514648	5.72242736816	39.0670509338	12.5016927719
-7.12011575699	22.1194553375	12.9592533112	5.88873767853	39.0255355835	12.7003650665
-4.90265321732	21.6618824005	11.1392316818	6.08487558365	38.8574790955	12.8377990723
-3.94230937958	22.7603626251	10.1399612427	6.18138980865	38.7811508179	12.9668731689
-4.60241699219	25.4410095215	10.7708129883	6.17124843597	38.8573379517	12.9857683182
-4.75057649612	27.2365264893	12.4295139313	6.39056587219	38.936378479	13.051861763
-4.22116327286	28.9061851501	13.3817768097	6.38153839111	39.1002960205	13.0728549957
-3.86640667915	29.998254776	14.0339384079	6.47288274765	39.1955223083	13.1401767731
-4.62961959839	28.1390571594	15.4106826782	6.53737020493	39.2172088623	13.2005519867
-8.5743932724	27.3426837921	21.8159332275	6.47692537308	39.4150390625	13.1673994064
-10.8589439392	27.9673156738	23.8163528442	6.34255170822	39.4959411621	13.1699771881
-8.68127346039	28.246471405	21.4248466492	6.43802404404	39.546169281	13.2015266418
-0.865630686283	28.4459762573	14.3312206268	6.57218837738	39.4469146729	13.2492866516
4.08744955063	28.5244731903	9.15905761719	6.60135412216	39.3942108154	13.2237129211
2.36855840683	27.9037437439	12.691078186	6.6828789711	39.4720726013	13.3697404861
1.41818916798	29.2522735596	13.044713974	6.67124843597	39.67370224	13.3998937607
2.55743718147	29.8199520111	14.1697015762	6.74921798706	39.8003082275	13.4123573303
2.72240757942	30.7339572906	11.7107982635	6.74362802505	39.868637085	13.3863811493
2.89351296425	32.920955658	6.04991102219	6.89516782761	39.907623291	13.3244953156
2.62594771385	34.1697845459	2.13870167732	6.99960708618	39.9235992432	13.2790327072
2.08187961578	35.0770492554	1.08172082901	6.79499769211	40.0599822998	13.110874176
1.73788011074	35.4578857422	-0.32100880146	6.7148938179	40.089805603	13.0886983871
-0.274710983038	35.2811164856	-0.0185159035027	6.34390592575	40.1512718201	12.9845790863
-3.0249607563	36.1151313782	-1.97306835651	5.89081287384	40.1612510681	12.9043569565
-4.86730861664	36.5104675293	-3.38958096504	5.35308408737	40.1922454834	12.7311420441
-7.3901925087	37.0971908569	-5.37305116653	4.83526468277	40.2416725159	12.6550369263
-9.06894683838	35.8320236206	-7.35421943665	3.87075734138	40.1981468201	12.2089452744
-9.65022087097	35.7350540161	-7.74570846558	2.89522266388	40.1578407288	11.7304935455
-10.6596136093	35.0328598022	-8.74366760254	2.09606289864	40.0598983765	11.1797332764
-11.0127124786	34.9959335327	-8.89548110962	1.58271861076	39.8799819946	10.8779554367
-11.2061319351	35.0334129333	-8.97826576233	0.723217010498	39.6718902588	10.1973323822
-11.256269455	35.0554885864	-8.93205356598	0.493039757013	39.691619873	9.86209774017
-11.2485942841	34.9925689697	-9.01758956909	0.675593972206	39.540058136	9.02798080444
-11.2481126785	34.88048172	-8.88648414612	0.566332519054	39.5453948975	8.25747394562
-10.9982385635	34.7086296082	-8.81741523743	0.66845113039	39.7585716248	8.41434860229
-10.9032268524	34.5166282654	-8.81121826172	1.65377998352	40.0620040894	9.57844257355
-11.0965595245	34.6585464478	-8.81646060944	3.89808821678	39.8524475098	11.6257238388
-11.3558149338	34.7091712952	-8.79782676697	4.19868612289	39.6783638	12.6176996231
-11.1679172516	34.6011543274	-8.75038528442	3.81725955009	39.4301338196	13.9588670731
-11.2347917557	34.5256195068	-8.90322494507	3.61298561096	38.937210083	15.6985273361
-11.3614997864	34.5148086548	-8.82417297363	2.99886631966	38.3574981689	17.3224525452
-11.1587266922	34.471157074	-8.58360004425	1.58048284054	38.0040397644	18.0176525116
-11.3900470734	34.4365386963	-8.62630176544	0.291716337204	37.8620109558	18.3723049164
-11.6645879745	34.2728843689	-8.40944862366	-0.437605381012	37.6322555542	18.7107925415
-11.9377374649	34.0079460144	-7.45088148117	-1.09517252445	37.4982681274	19.2142162323
-12.8460884094	33.9745292664	-5.92137098312	-1.43627667427	37.5074272156	19.2287597656
-13.6744632721	33.6215896606	-5.22536039352	-1.63607144356	37.6270751953	19.1118621826
-14.0026159286	33.5062141418	-4.88000583649	-1.66988956928	37.7084732056	19.0392513275
-14.7377376556	33.5537605286	-4.47661447525	-1.72983705997	37.7291946411	18.9943466187
-15.3011703491	33.5184593201	-4.05469655991	-2.04338669777	37.7728118896	18.8512992859
-15.6526889801	33.5581512451	-4.37519073486	-2.76823973656	37.8822441101	18.4531879425
-15.6821975708	33.6231994629	-3.89829158783	-3.43118453026	37.9485282898	18.1503314972
