15.7871417999	-8.6853017807	4.38084077835	14.9378623962	21.3195610046	33.2068786621
15.7134437561	-8.52998161316	4.33860778809	14.9089288712	21.3049869537	33.0824890137
15.8248472214	-8.45271015167	4.26168107986	14.8827581406	21.2170505524	32.8529281616
15.7943210602	-8.35537338257	4.16576576233	14.6474580765	20.5104885101	32.0184860229
15.8498897552	-8.83225917816	4.0675201416	14.2119016647	18.8956031799	30.6654129028
16.0616054535	-10.0614480972	3.62327170372	13.6518421173	16.6405181885	29.444726944
17.6459255219	-12.2360219955	2.16686463356	13.1345262527	14.0775499344	28.1732635498
19.8604469299	-15.868432045	0.976019561291	12.5721111298	10.8615255356	26.6948814392
21.733373642	-18.5493526459	-0.426104575396	12.1876029968	7.34683132172	25.3305149078
22.7304096222	-20.214717865	-0.834994196892	11.8802127838	3.45943880081	24.2816505432
23.0801715851	-20.0238342285	-0.890555500984	11.4898643494	-0.455009073019	23.5555210114
23.5697097778	-19.1884040833	-0.972916662693	10.7498207092	-4.40326309204	22.9973049164
23.7604999542	-18.8589820862	-1.1274228096	9.5844039917	-7.21863222122	22.6874866486
22.0534572601	-18.8510513306	-1.3722628355	8.22198104858	-8.29699134827	22.735660553
20.573890686	-19.9756565094	-1.00949120522	7.42107057571	-8.61059188843	23.0802497864
21.2837657928	-22.2366523743	-3.06909537315	7.23442840576	-8.49494934082	23.3403282166
22.5439605713	-26.2879657745	-5.11880159378	7.47858142853	-8.17409133911	23.3526248932
22.2733745575	-28.7125244141	-7.99666690826	7.51459598541	-7.73718595505	23.164768219
21.5695800781	-30.3035831451	-9.02606105804	7.64690542221	-7.59313440323	22.7758388519
22.2271442413	-30.5820655823	-10.3327655792	7.68158006668	-7.83719682693	22.5407085419
22.411441803	-30.9040260315	-11.6209287643	7.69207143784	-8.12418937683	22.4012527466
23.1928672791	-30.3090286255	-13.8101491928	7.74636602402	-8.43882751465	22.2551803589
23.1716423035	-30.3477916718	-15.1371269226	7.42627954483	-8.73220348358	22.2300987244
20.393327713	-28.9573631287	-11.0197191238	7.05209493637	-8.68197917938	22.2337989807
19.7865791321	-28.9021720886	-9.9994764328	7.2451043129	-8.56930732727	22.2825679779
19.8310127258	-28.9125614166	-10.1085891724	7.50689172745	-8.41938209534	22.3772926331
20.0302238464	-29.0638828278	-10.4649333954	7.66231632233	-8.92379188538	22.523557663
19.9160938263	-28.9495697021	-10.2745981216	7.33635759354	-10.6027240753	22.4483604431
19.8671302795	-28.5443401337	-10.1976728439	6.84885454178	-11.7575082779	22.4375209808
19.4130344391	-28.7533836365	-10.0787277222	6.22289562225	-12.6647176743	22.4814662933
19.0650234222	-27.912733078	-10.4951877594	6.00723028183	-13.4131650925	22.5632858276
20.1502494812	-27.7842941284	-12.9951906204	5.92978191376	-13.8060207367	22.6960277557
21.9715003967	-27.3231754303	-15.4944858551	5.88003110886	-13.9918966293	22.4168205261
20.9127578735	-27.156332016	-14.0890026093	5.17661476135	-13.5089492798	18.1118392944
20.1616783142	-27.1309299469	-13.6183710098	3.34953022003	-12.6918306351	12.4767169952
19.1846389771	-27.0530757904	-13.0553607941	2.72570490837	-12.5433263779	11.6122732162
17.3481731415	-26.3685264587	-11.4192914963	1.26468002796	-11.1501722336	13.4439945221
14.6745214462	-26.7139492035	-10.1717157364	-0.134626194835	-9.19256496429	15.830745697
