0.272890806198	1.07888150215	-0.0609712600708	-0.0223472118378	1.75343322754	-0.138684749603
0.274391174316	1.07827627659	-0.0605628490448	-0.0214145183563	1.75290048122	-0.137355566025
0.273519515991	1.07731819153	-0.0597741603851	-0.0207540988922	1.7524433136	-0.136061429977
0.271404743195	1.07538044453	-0.0579932928085	-0.0208971500397	1.75113606453	-0.134429693222
0.267808437347	1.07654631138	-0.055762887001	-0.0221707820892	1.74841380119	-0.1325725317
0.267583847046	1.07743811607	-0.0528562068939	-0.0242214202881	1.74426436424	-0.130782961845
0.26861000061	1.07987713814	-0.0495271682739	-0.0268220901489	1.74021267891	-0.128571271896
0.269501924515	1.08328413963	-0.0452394485474	-0.0304753780365	1.73624813557	-0.126350879669
0.270488500595	1.08701753616	-0.0400086641312	-0.0364699363708	1.73223245144	-0.124385118484
0.270386695862	1.09149503708	-0.03533411026	-0.0427765846252	1.72921192646	-0.122579097748
0.265918493271	1.09318602085	-0.0313749313354	-0.0489277839661	1.72649753094	-0.120838999748
0.261042118073	1.09283006191	-0.0296794176102	-0.0536584854126	1.7244758606	-0.118898630142
0.256231307983	1.09075272083	-0.0296413898468	-0.0565407276154	1.72305214405	-0.117137432098
0.242712259293	1.07929193974	-0.0293869972229	-0.0578608512878	1.72180593014	-0.115558385849
0.213213682175	1.05695390701	-0.0374603271484	-0.0583922863007	1.71981275082	-0.114929676056
0.19343495369	1.04002094269	-0.0507352352142	-0.0591247081757	1.71862792969	-0.113859057426
0.186008214951	1.02205371857	-0.0633811950684	-0.0594320297241	1.71764647961	-0.113003492355
0.185005903244	1.00654244423	-0.0745027065277	-0.058632850647	1.71648788452	-0.111988544464
0.18815279007	0.99010848999	-0.0881941318512	-0.0576367378235	1.7148412466	-0.111183643341
0.191128730774	0.977840900421	-0.102902412415	-0.0565190315247	1.71260094643	-0.110155105591
0.196463108063	0.974711894989	-0.11202788353	-0.0546069145203	1.70989692211	-0.109307169914
0.200998783112	0.972306966782	-0.11808347702	-0.0516366958618	1.7073431015	-0.108177185059
0.204439878464	0.973024368286	-0.118797063828	-0.0485544204712	1.70632374287	-0.106739759445
0.20539689064	0.973741769791	-0.117498397827	-0.0462186336517	1.70766103268	-0.105443716049
0.205290079117	0.975120782852	-0.115314364433	-0.0456097126007	1.70905733109	-0.105309247971
0.206840276718	0.976522684097	-0.112374901772	-0.0453791618347	1.71130537987	-0.105672836304
0.20752286911	0.979664087296	-0.108267068863	-0.0455648899078	1.71454274654	-0.105820417404
0.206587076187	0.980923652649	-0.10630440712	-0.0470743179321	1.71665847301	-0.106910228729
0.206388473511	0.980634689331	-0.106727600098	-0.0481657981873	1.71830236912	-0.108413934708
0.205159425735	0.981039524078	-0.107571840286	-0.0500974655151	1.7181417942	-0.110476255417
0.205496788025	0.982440710068	-0.105221390724	-0.0519077777863	1.71842288971	-0.11178457737
0.205221176147	0.984339237213	-0.102887630463	-0.0521056652069	1.71877753735	-0.112825512886
0.205397129059	0.98517203331	-0.101501226425	-0.0507664680481	1.71989989281	-0.113470077515
0.205525398254	0.985440731049	-0.101239919662	-0.0497710704803	1.72155582905	-0.114548921585
0.20601773262	0.985843420029	-0.100604891777	-0.0488188266754	1.72297525406	-0.116142034531
0.204706668854	0.986736774445	-0.100345730782	-0.0476224422455	1.72284698486	-0.118408441544
0.205012798309	0.988780498505	-0.0989754199982	-0.0459072589874	1.72295367718	-0.120627164841
0.206267118454	0.991657018661	-0.0963724851608	-0.043773651123	1.72276520729	-0.123757481575
0.206774711609	0.995882987976	-0.0939331054688	-0.0421018600464	1.72245824337	-0.126188755035
0.209989309311	0.997065782547	-0.093004822731	-0.0410523414612	1.72270822525	-0.127747774124
0.214112281799	0.99787402153	-0.0933179855347	-0.0404062271118	1.72365140915	-0.128754138947
0.213092803955	0.995189666748	-0.0990161895752	-0.0401248931885	1.7243373394	-0.129609942436
0.209456920624	0.989818811417	-0.108369708061	-0.0405628681183	1.72404122353	-0.13018143177
0.205150127411	0.982803106308	-0.119275450706	-0.0404484272003	1.72338879108	-0.130870103836
0.205333948135	0.981922864914	-0.121690511703	-0.0397920608521	1.7232568264	-0.131295681
0.20668554306	0.984538316727	-0.118360161781	-0.0390012264252	1.72349262238	-0.131688952446
0.209827184677	0.987293243408	-0.114326000214	-0.0379920005798	1.72421061993	-0.132016658783
0.211058855057	0.988136529922	-0.113744497299	-0.0369720458984	1.72450780869	-0.133037805557
0.211004972458	0.987935304642	-0.114494562149	-0.0370681285858	1.72497713566	-0.133842468262
0.210444927216	0.987431764603	-0.115412473679	-0.0368912220001	1.72620785236	-0.134913921356
0.208574533463	0.987242698669	-0.115416646004	-0.0363917350769	1.72685492039	-0.136112451553
0.207035064697	0.988098144531	-0.114382982254	-0.0365810394287	1.72683227062	-0.136575460434
0.207346200943	0.988820552826	-0.113574981689	-0.0370426177979	1.72799921036	-0.136786460876
0.206897497177	0.988253593445	-0.11453473568	-0.0369703769684	1.72945070267	-0.137484908104
0.207377910614	0.988526105881	-0.114139795303	-0.0370347499847	1.73016119003	-0.137937426567
0.206104516983	0.988795042038	-0.114570260048	-0.0370020866394	1.73047351837	-0.138578534126
0.204931497574	0.989365339279	-0.116193532944	-0.0370228290558	1.73067414761	-0.139353990555
0.210865020752	0.991338253021	-0.113991498947	-0.0372960567474	1.73034727573	-0.139901399612
0.214854001999	0.99235868454	-0.113497018814	-0.0374357700348	1.73022437096	-0.140377521515
0.215455770493	0.992445468903	-0.113926649094	-0.0376732349396	1.73108518124	-0.140647888184
0.213913440704	0.992167472839	-0.11575293541	-0.0385100841522	1.73149251938	-0.141443967819
0.212114095688	0.991675615311	-0.117079019547	-0.039044380188	1.73092937469	-0.142210006714
0.212881565094	0.991824150085	-0.117686748505	-0.0384590625763	1.72977030277	-0.142989993095
0.214524030685	0.992667913437	-0.11719918251	-0.0383443832397	1.72955751419	-0.143155574799
0.217180967331	0.990790605545	-0.120030879974	-0.0383906364441	1.7299683094	-0.143299937248
0.226592540741	0.987288475037	-0.120423316956	-0.0382852554321	1.73001933098	-0.143353939056
0.243683815002	0.97712635994	-0.124821662903	-0.0383718013763	1.72946178913	-0.143042325974
0.248933792114	0.971917152405	-0.129757404327	-0.0387988090515	1.72896921635	-0.142344713211
0.2462413311	0.974448919296	-0.129531264305	-0.0387244224548	1.72847235203	-0.141363382339
0.243856906891	0.974931955338	-0.129948735237	-0.0380675792694	1.72799634933	-0.140503525734
0.240462064743	0.973707914352	-0.133563756943	-0.0373675823212	1.72761571407	-0.139858603477
0.235652208328	0.972464561462	-0.136951208115	-0.0365929603577	1.72758662701	-0.139764308929
0.232996463776	0.973179578781	-0.136965751648	-0.0357694625854	1.72769784927	-0.139344930649
0.232449293137	0.972749471664	-0.135828256607	-0.0355885028839	1.72727334499	-0.138813257217
0.233644247055	0.972343921661	-0.135081529617	-0.0352418422699	1.72653484344	-0.138237118721
0.237800359726	0.973542690277	-0.131304740906	-0.0350697040558	1.72593259811	-0.13744699955
