0.0	-0.0	136.633865356	-117.147644043	83.9938812256	175.921691895
0.0	-0.0	136.426559448	-116.963195801	83.6474151611	176.17829895
0.0	-0.0	136.097717285	-116.610740662	83.8840332031	176.37953186
0.0	-0.0	133.920837402	-116.058601379	85.5851135254	176.46647644
0.0	-0.0	124.637084961	-111.373123169	88.7432022095	176.465270996
0.0	-0.0	114.833358765	79.0515975952	87.9082107544	-3.00070571899
0.0	-0.0	107.00088501	91.5371398926	84.4984207153	-1.82889330387
0.0	-0.0	103.651222229	103.082069397	79.2381439209	-0.562611758709
0.0	-0.0	99.0914535522	111.582397461	73.0512237549	1.40313184261
0.0	-0.0	95.9217147827	116.131156921	68.4994735718	1.88248467445
0.0	-0.0	95.2529983521	117.625267029	66.1429977417	1.46444475651
0.0	-0.0	96.0231323242	117.031982422	64.4288101196	0.973352074623
