0.0787708759308	1.10894870758	0.110246896744	-0.0133135318756	1.76522660255	-0.0936295986176
0.0778720378876	1.10886836052	0.109003901482	-0.0136156082153	1.76549911499	-0.0939981937408
0.0771813392639	1.1063952446	0.110512137413	-0.0137691497803	1.76596844196	-0.0942581892014
0.0816168785095	1.08757042885	0.138833284378	-0.0128884315491	1.7709915638	-0.0960569381714
0.100677490234	1.07416164875	0.157658100128	-0.0118598937988	1.7778390646	-0.101181387901
0.119279384613	1.04897880554	0.173043608665	-0.01069688797	1.78391873837	-0.107783079147
0.142805099487	1.02285027504	0.181328773499	-0.00856041908264	1.78938221931	-0.114510536194
0.160337209702	1.00688648224	0.18150806427	-0.00721836090088	1.79364418983	-0.121429920197
0.172262907028	0.992788314819	0.179712295532	-0.00640106201172	1.79661762714	-0.127746701241
0.182140111923	0.985831975937	0.179327607155	-0.00601959228516	1.79855513573	-0.132241725922
