-95.5383605957	-33.1367416382	134.52897644	5.51843500137	0.487754195929	-2.66541409492
-94.9248428345	-32.7229919434	133.33531189	5.06498098373	0.371102571487	-2.61245942116
-94.8277359009	-32.6692504883	132.417175293	4.77657651901	0.72682094574	-2.42929553986
-77.6960220337	-29.3766098022	116.891662598	5.40912532806	3.30890464783	-2.64464354515
-57.5376663208	-32.1735191345	98.286781311	7.76762723923	7.90771722794	-2.50256991386
-39.5937347412	-28.6883049011	84.3448104858	9.64876270294	11.5935316086	-2.33907032013
-20.1173992157	-22.8676452637	70.3712692261	10.8858003616	13.997004509	-2.18500566483
-9.12274074554	-17.9659099579	63.8802032471	11.8921537399	15.6934976578	-2.04148101807
-3.10961556435	-15.6530580521	61.9019699097	12.2358932495	17.5994338989	-2.1287753582
