0.0	-0.0	130.307785034	-123.812156677	84.1480407715	171.837753296
0.0	-0.0	130.203948975	-123.89541626	84.1948928833	172.01423645
0.0	-0.0	130.228729248	-123.87096405	84.5080108643	171.933868408
0.0	-0.0	129.866455078	-124.412078857	84.5321350098	171.739028931
0.0	-0.0	128.77897644	-130.110061646	82.4812393188	172.551605225
0.0	-0.0	129.181930542	-139.608581543	77.9509735107	173.63092041
0.0	-0.0	130.002609253	-148.719985962	72.1079864502	174.947067261
0.0	-0.0	129.301315308	-155.732635498	63.2798118591	176.179733276
0.0	-0.0	128.165878296	-160.630859375	56.7104682922	177.565582275
0.0	-0.0	125.362167358	-165.929840088	52.468334198	178.033630371
0.0	-0.0	119.463287354	-172.063308716	49.5169563293	178.300567627
0.0	-0.0	112.912147522	-176.462158203	43.917804718	178.350250244
0.0	-0.0	106.073883057	-178.245681763	40.0188522339	178.621810913
