0.231526851654	1.05415415764	-0.0116858482361	0.0569994449615	1.73708486557	-0.123931407928
0.233271360397	1.0544052124	-0.0121772289276	0.0574190616608	1.7372328043	-0.12443292141
0.233460903168	1.05422616005	-0.0129731893539	0.0571150779724	1.73768627644	-0.124286413193
0.232816696167	1.05442380905	-0.0144500732422	0.0567443370819	1.74072551727	-0.12298822403
0.23103094101	1.054936409	-0.0161213874817	0.0575156211853	1.74520874023	-0.122590899467
0.231986999512	1.06116247177	-0.0159454345703	0.0570948123932	1.75086164474	-0.121731758118
0.23535656929	1.07165002823	-0.0138560533524	0.0559356212616	1.75759255886	-0.122316598892
0.236306905746	1.08553659916	-0.00971865653992	0.0537316799164	1.76497042179	-0.123890638351
0.235331535339	1.10018575191	-0.00543713569641	0.0505878925323	1.77243030071	-0.12665116787
0.230578899384	1.1119312048	-0.0023957490921	0.0468480587006	1.77947556973	-0.129831671715
0.225631952286	1.12021243572	-0.00140738487244	0.0438988208771	1.78712320328	-0.133841395378
0.222627878189	1.12367606163	-0.00125777721405	0.0420248508453	1.79480481148	-0.138626337051
0.222199440002	1.1245303154	-0.000675678253174	0.0414531230927	1.80113577843	-0.14389526844
0.225021123886	1.12591409683	0.00169157981873	0.0410010814667	1.80524301529	-0.148670434952
0.231127977371	1.13183498383	0.00384378433228	0.0396401882172	1.80760955811	-0.152595281601
0.236096382141	1.14199829102	0.00291001796722	0.0379011631012	1.80853879452	-0.155451536179
0.235776185989	1.15547049046	-0.00152730941772	0.0361480712891	1.80929005146	-0.157327413559
0.233128547668	1.16436028481	-0.00573873519897	0.0346827507019	1.80960071087	-0.158640146255
0.232692718506	1.16774106026	-0.00924527645111	0.0340824127197	1.80967354774	-0.159549593925
0.233907222748	1.16875958443	-0.0102717876434	0.0341639518738	1.81001162529	-0.160637617111
0.236328125	1.1746019125	-0.0134621858597	0.0337274074554	1.81022143364	-0.161645174026
