0.0	-0.0	131.430450439	-125.578491211	85.2901992798	170.126907349
0.0	-0.0	131.252609253	-125.180580139	85.5326309204	170.451873779
0.0	-0.0	131.001724243	-125.62802124	85.8915786743	170.499588013
0.0	-0.0	130.655639648	-125.866523743	85.7655639648	170.799713135
0.0	-0.0	126.214408875	-125.995407104	83.2579498291	170.926528931
0.0	-0.0	118.628395081	-126.045837402	76.0526885986	171.526519775
0.0	-0.0	120.84072113	-126.708236694	66.3631591797	172.673583984
0.0	-0.0	117.950866699	-128.123779297	56.103225708	173.50050354
0.0	-0.0	118.117614746	-129.097625732	44.045955658	173.279373169
0.0	-0.0	118.813674927	-127.701713562	33.2684135437	172.498809814
0.0	-0.0	119.221153259	-123.603172302	25.0583610535	172.245132446
0.0	-0.0	119.391571045	-118.97492218	16.3955917358	172.714920044
0.0	-0.0	118.863960266	-114.19052887	9.03960037231	173.008804321
0.0	-0.0	114.787902832	-110.565177917	5.33807468414	173.403137207
0.0	-0.0	103.018234253	-109.322875977	3.51209211349	173.629119873
0.0	-0.0	97.7392807007	-109.737571716	2.98547077179	173.232330322
0.0	-0.0	96.1403045654	-110.018623352	2.59620475769	173.413421631
0.0	-0.0	93.9663543701	-109.875671387	3.02556395531	173.572875977
0.0	-0.0	89.0045547485	-108.838645935	3.56279945374	173.721496582
0.0	-0.0	87.740524292	-108.456886292	3.89515638351	173.576690674
0.0	-0.0	89.8419265747	-108.053970337	5.29952478409	173.289459229
0.0	-0.0	92.5757522583	-107.593055725	5.71189117432	173.001953125
0.0	-0.0	93.5178833008	-107.021896362	0.750564396381	172.682266235
0.0	-0.0	95.401184082	-106.161224365	-8.34056854248	173.799423218
0.0	-0.0	97.0015182495	-104.673171997	-9.49103164673	174.63760376
0.0	-0.0	103.285560608	-103.340385437	-5.69488048553	174.344802856
0.0	-0.0	108.200752258	-103.241256714	-3.18072843552	173.649078369
0.0	-0.0	89.5980072021	-103.277603149	-3.28645968437	173.26864624
0.0	-0.0	75.1705474854	-103.053001404	-2.89685177803	173.668426514
0.0	-0.0	82.3948287964	-102.950927734	-2.43842387199	173.90625
0.0	-0.0	81.9679794312	-102.594657898	-2.63286566734	174.298873901
0.0	-0.0	85.2292709351	-100.965080261	-2.65133404732	175.014648438
0.0	-0.0	94.552482605	-99.4199752808	-2.60991573334	175.389144897
0.0	-0.0	103.486701965	-98.4547271729	-3.46393585205	175.829483032
0.0	-0.0	109.176506042	-97.8332672119	-4.02025461197	175.987045288
0.0	-0.0	108.395942688	-97.3338165283	-2.96661567688	175.924499512
0.0	-0.0	105.048599243	-97.7824707031	-1.72760558128	176.034561157
0.0	-0.0	104.676139832	-99.2400970459	-1.60358309746	175.918228149
0.0	-0.0	87.4713516235	-100.017166138	-2.63190889359	175.95098877
0.0	-0.0	79.8330612183	-100.252197266	-3.68414092064	176.203292847
0.0	-0.0	76.2413711548	-100.347869873	-4.21354913712	176.158309937
0.0	-0.0	74.0190353394	-99.9925537109	-3.8950843811	176.197128296
0.0	-0.0	75.5921478271	-99.9884490967	-3.42945671082	176.020935059
0.0	-0.0	75.6790771484	-99.9098052979	-3.24002838135	175.947875977
0.0	-0.0	76.2988815308	-99.8161773682	-2.72719025612	175.961486816
0.0	-0.0	76.7896652222	-100.082717896	-2.94742274284	176.221633911
0.0	-0.0	76.8042678833	-100.448326111	-4.31228590012	176.836746216
0.0	-0.0	77.3184204102	-100.644035339	-10.0206985474	178.145263672
0.0	-0.0	77.6920852661	-100.202140808	-16.2823562622	179.413513184
0.0	-0.0	77.7548446655	-99.7916183472	-16.7722587585	179.886795044
0.0	-0.0	77.9081115723	-100.124153137	-14.5094871521	179.513900757
0.0	-0.0	77.9135360718	-100.289924622	-6.91087198257	178.559738159
0.0	-0.0	78.1893386841	-100.66809082	2.44865870476	177.738464355
0.0	-0.0	78.3692932129	-102.122894287	8.78562641144	177.20161438
0.0	-0.0	78.5443725586	-103.924171448	13.7769651413	176.973571777
0.0	-0.0	78.7766036987	-105.311378479	16.2187843323	176.266937256
0.0	-0.0	79.2119750977	-105.118759155	17.1302452087	176.049835205
0.0	-0.0	79.4712982178	-104.649276733	20.0717334747	176.3697052
0.0	-0.0	79.605796814	-105.290390015	19.9288902283	176.269348145
0.0	-0.0	79.3947982788	-105.577926636	22.7078342438	176.497421265
0.0	-0.0	79.5097885132	-106.106460571	27.7515048981	176.550689697
0.0	-0.0	79.4975585938	-107.653068542	29.9469223022	175.867706299
0.0	-0.0	79.2808074951	-108.882568359	31.720489502	175.57850647
0.0	-0.0	79.3249435425	-108.960227966	31.949420929	176.126419067
0.0	-0.0	79.5007629395	-109.216117859	30.1064300537	176.255615234
0.0	-0.0	79.6848526001	-109.910621643	26.3281097412	176.054733276
0.0	-0.0	79.9083328247	-110.198532104	21.3532962799	176.066345215
0.0	-0.0	79.9070053101	-109.374839783	17.4123191833	176.511611938
0.0	-0.0	79.963973999	-108.932548523	12.6683969498	176.466445923
0.0	-0.0	80.0861282349	-108.631713867	7.76246261597	176.426330566
0.0	-0.0	80.0918579102	-107.751579285	5.87143039703	177.00100708
0.0	-0.0	80.2328338623	-106.983573914	6.64108324051	177.34753418
0.0	-0.0	80.3141021729	-106.347557068	9.35141277313	177.509918213
0.0	-0.0	80.3114852905	-106.376647949	11.2633857727	177.731643677
0.0	-0.0	80.6104431152	-107.166824341	8.90089321136	177.610671997
0.0	-0.0	80.8811721802	-108.341110229	1.86913084984	177.898956299
0.0	-0.0	81.3275146484	-108.156471252	-1.60231280327	178.861953735
0.0	-0.0	84.3883056641	-107.646438599	-1.03274321556	178.757415771
0.0	-0.0	76.0604171753	-106.982589722	-0.442669481039	178.7706604
0.0	-0.0	82.4359970093	-106.669204712	-0.518211483955	179.074493408
0.0	-0.0	89.410194397	-107.114585876	-1.33127713203	179.07925415
0.0	-0.0	97.4343490601	-106.901092529	-1.30614221096	179.334091187
0.0	-0.0	102.609603882	-106.502067566	-1.16272187233	179.421203613
0.0	-0.0	92.5273132324	-105.946479797	-1.36273705959	179.372039795
0.0	-0.0	79.8969650269	-105.927772522	-1.33179628849	179.42906189
0.0	-0.0	71.1212081909	-106.586608887	-1.56608557701	179.435211182
0.0	-0.0	66.2801132202	-105.913772583	-2.02383112907	179.742843628
0.0	-0.0	65.2678985596	-105.403297424	-2.21115589142	179.843399048
0.0	-0.0	67.7365570068	-105.564880371	-1.32263016701	179.832427979
0.0	-0.0	68.5075378418	-105.306938171	1.81810939312	179.783035278
0.0	-0.0	68.4264678955	-104.899833679	4.43210458755	179.650527954
0.0	-0.0	69.0712966919	-105.545005798	3.88941907883	179.143966675
0.0	-0.0	70.5705413818	-106.343910217	2.62164020538	178.761291504
0.0	-0.0	71.0241928101	-105.953392029	5.42780923843	178.132141113
0.0	-0.0	70.880279541	-104.668266296	8.17720794678	177.924087524
0.0	-0.0	70.9183197021	-104.203102112	10.5138406754	177.646621704
0.0	-0.0	71.3116836548	-104.663780212	11.8168640137	177.145065308
0.0	-0.0	71.4885482788	-106.002388	11.5783405304	176.921905518
0.0	-0.0	71.53150177	-107.186058044	11.1281766891	176.954406738
0.0	-0.0	71.4193725586	-108.63999939	12.3277215958	176.31552124
0.0	-0.0	71.4654769897	-121.139640808	13.2068071365	168.491165161
0.0	-0.0	71.5273208618	-134.259292603	13.9723491669	161.499893188
0.0	-0.0	71.6450195312	-143.494400024	15.7148113251	157.020950317
0.0	-0.0	71.7778091431	-144.512527466	17.1035823822	157.034622192
0.0	-0.0	71.6942825317	-143.714157104	18.923582077	157.482666016
0.0	-0.0	71.649597168	-144.066513062	21.2849979401	157.67616272
0.0	-0.0	71.7372894287	-142.694351196	23.3003921509	159.392623901
0.0	-0.0	71.8370132446	-141.796234131	24.986656189	160.773391724
0.0	-0.0	71.843132019	-140.858795166	25.9247703552	162.682434082
0.0	-0.0	71.9517745972	-140.322402954	24.3239517212	164.139724731
0.0	-0.0	72.0505599976	-139.734176636	24.2714138031	164.694641113
0.0	-0.0	72.0874023438	-143.131729126	26.0690822601	162.840606689
0.0	-0.0	71.857093811	-144.393890381	26.7170181274	162.377639771
0.0	-0.0	71.9358520508	-146.234832764	27.266834259	161.740737915
0.0	-0.0	71.9357833862	-150.434509277	27.8623313904	159.935180664
0.0	-0.0	73.729888916	-149.653396606	27.7361507416	161.170959473
0.0	-0.0	76.1954727173	-148.145355225	27.7477207184	161.571365356
0.0	-0.0	78.7939987183	-147.647872925	27.6038208008	161.472381592
0.0	-0.0	80.9308166504	-147.276168823	27.0200328827	161.708343506
0.0	-0.0	79.0732192993	-146.445220947	26.4420623779	162.095535278
0.0	-0.0	76.7241134644	-146.063430786	26.0440120697	162.200057983
0.0	-0.0	76.4578094482	-146.111785889	25.2196903229	162.278915405
0.0	-0.0	76.3193740845	-146.202178955	23.8772964478	162.09803772
0.0	-0.0	76.6822357178	-145.891952515	23.3351039886	161.949691772
0.0	-0.0	76.9612884521	-144.406600952	24.1543979645	162.091720581
0.0	-0.0	77.2437438965	-143.045150757	24.2771377563	162.149337769
0.0	-0.0	77.4494781494	-143.892608643	23.4509315491	161.371505737
0.0	-0.0	77.467338562	-147.205337524	24.1319694519	160.037368774
0.0	-0.0	77.3761520386	-154.57093811	25.1763057709	157.029830933
0.0	-0.0	77.4698028564	-159.498123169	24.751329422	155.241424561
0.0	-0.0	77.4635543823	-163.441665649	24.8951587677	153.83203125
0.0	-0.0	77.5919189453	-169.836608887	26.1906166077	151.315032959
0.0	-0.0	77.5963516235	-174.504394531	27.9380912781	149.825576782
0.0	-0.0	77.7018508911	-179.559082031	27.7940406799	147.021835327
