0.22766327858	1.11837053299	-0.0254664421082	0.0582506656647	1.74509561062	-0.12345457077
0.227753400803	1.11839485168	-0.0242272615433	0.0575914382935	1.74497365952	-0.122443556786
0.227651119232	1.11763906479	-0.0237286090851	0.0565023422241	1.74555635452	-0.121110796928
0.225803613663	1.11664843559	-0.0239098072052	0.0544147491455	1.74638700485	-0.119390368462
0.222810983658	1.116076231	-0.0245567560196	0.0515608787537	1.74744033813	-0.11744093895
0.219921827316	1.11472046375	-0.0248332023621	0.0482699871063	1.74856352806	-0.116231918335
0.216098070145	1.1139690876	-0.0237782001495	0.0450773239136	1.75071644783	-0.115352392197
0.208186388016	1.11554133892	-0.0220353603363	0.04252409935	1.75369930267	-0.115288257599
0.192625284195	1.11944842339	-0.0205938816071	0.0405204296112	1.75620520115	-0.115276813507
0.170714616776	1.116553545	-0.017982006073	0.0381338596344	1.75628852844	-0.11535847187
0.145463228226	1.10620868206	-0.0184034109116	0.0348823070526	1.75335562229	-0.114939928055
0.125605821609	1.08195745945	-0.0209410190582	0.0309903621674	1.74838399887	-0.114492893219
0.106707572937	1.06282007694	-0.0319166183472	0.0254607200623	1.74544405937	-0.112881422043
0.0982677936554	1.06511187553	-0.0420861244202	0.0178229808807	1.74392962456	-0.112037420273
0.0965754985809	1.06816399097	-0.0454087257385	0.0100030899048	1.74322474003	-0.112062573433
0.093980550766	1.06789577007	-0.0469114780426	0.00345611572266	1.74142611027	-0.113024234772
0.0913915634155	1.06833291054	-0.0484268665314	-0.00086498260498	1.73954164982	-0.114491224289
0.0799658298492	1.06764769554	-0.0580413341522	-0.00395154953003	1.73769974709	-0.116648435593
0.0689036846161	1.06939828396	-0.0701744556427	-0.00709366798401	1.73655033112	-0.119245529175
0.0614700317383	1.06854367256	-0.0798015594482	-0.0110049247742	1.7354054451	-0.122805595398
0.0598845481873	1.06211531162	-0.0836710929871	-0.0136620998383	1.7340836525	-0.126333475113
0.0580523014069	1.05038809776	-0.090465426445	-0.0141706466675	1.73396658897	-0.128672838211
0.0569570064545	1.05029320717	-0.0968022346497	-0.0145361423492	1.73481452465	-0.130421757698
0.0593440532684	1.05625677109	-0.095362663269	-0.0155966281891	1.73574650288	-0.132055878639
0.0585408210754	1.05832839012	-0.0955218076706	-0.0158753395081	1.73696792126	-0.133493900299
0.0570156574249	1.06125986576	-0.0961258411407	-0.0158107280731	1.73831951618	-0.135280609131
0.0554089546204	1.06511700153	-0.0976585149765	-0.016681432724	1.7389074564	-0.137301325798
0.0538890361786	1.06889855862	-0.0998148918152	-0.0174770355225	1.73901593685	-0.139232635498
0.0524010658264	1.07097041607	-0.102625370026	-0.0187826156616	1.7387393713	-0.141057252884
0.0525863170624	1.06970238686	-0.102816462517	-0.0198576450348	1.73796391487	-0.14225256443
0.0530683994293	1.06886434555	-0.102873563766	-0.0193417072296	1.73743736744	-0.142011284828
0.0530893802643	1.06942665577	-0.103355884552	-0.0192122459412	1.73640179634	-0.141782879829
0.0534889698029	1.06948626041	-0.102675199509	-0.0204191207886	1.73482441902	-0.142291784286
0.0539977550507	1.06953382492	-0.1014585495	-0.020528793335	1.73424887657	-0.141778945923
0.0537626743317	1.06932735443	-0.100934267044	-0.0209474563599	1.7332431078	-0.141615867615
