0.249590158463	1.12042200565	-0.0510977506638	-0.00841450691223	1.76096796989	-0.152136564255
0.249865055084	1.121124506	-0.0499962568283	-0.00900220870972	1.76065826416	-0.152535557747
0.249735116959	1.12234246731	-0.0492737293243	-0.00933027267456	1.76081562042	-0.152696490288
0.248563051224	1.12185931206	-0.0484552383423	-0.0109965801239	1.75946831703	-0.152333974838
0.248378515244	1.12002658844	-0.0477763414383	-0.0143818855286	1.75551009178	-0.151128292084
0.249445676804	1.11765158176	-0.0470380783081	-0.0166928768158	1.75111055374	-0.150441408157
0.250321865082	1.1129130125	-0.0466072559357	-0.0182023048401	1.74854373932	-0.149269104004
0.24164056778	1.10815036297	-0.0482462644577	-0.0208208560944	1.7457575798	-0.147744894028
0.225048065186	1.10316801071	-0.0539436340332	-0.0226686000824	1.74364674091	-0.146137595177
0.21192741394	1.08715450764	-0.0607371330261	-0.0240650177002	1.74159765244	-0.144655942917
0.205329656601	1.06707024574	-0.0680763721466	-0.0252759456635	1.73942184448	-0.143162965775
0.197354078293	1.045109272	-0.0792883634567	-0.0259296894073	1.73768675327	-0.141922950745
0.188227891922	1.0311934948	-0.0928981304169	-0.0271801948547	1.73547041416	-0.140896320343
0.181828737259	1.02281355858	-0.104460597038	-0.0293302536011	1.73287343979	-0.139986276627
0.178471803665	1.01876282692	-0.111172556877	-0.0310518741608	1.73147273064	-0.140202045441
0.176627159119	1.01550102234	-0.11520922184	-0.0318372249603	1.7301005125	-0.141077399254
0.176464319229	1.0160381794	-0.114829182625	-0.032044172287	1.72861731052	-0.142064571381
0.176650524139	1.01667189598	-0.113831162453	-0.0320203304291	1.72729313374	-0.142224788666
0.177312374115	1.01696205139	-0.112707495689	-0.0320575237274	1.72517025471	-0.141837358475
0.176915884018	1.01810956001	-0.11128950119	-0.0316128730774	1.72498607635	-0.14050412178
0.175607681274	1.01830244064	-0.109603404999	-0.0298819541931	1.72632265091	-0.138957500458
0.174046516418	1.02099990845	-0.105331420898	-0.0269680023193	1.7276006937	-0.138251423836
0.172784328461	1.02522850037	-0.0999505519867	-0.0239753723145	1.72942733765	-0.138455152512
0.172246694565	1.02878808975	-0.0954823493958	-0.021831035614	1.73272240162	-0.139661312103
0.171760559082	1.02936625481	-0.0936651229858	-0.0209045410156	1.73635447025	-0.141673326492
0.171523571014	1.02924919128	-0.0930743217468	-0.0200643539429	1.73932385445	-0.143740415573
0.172386169434	1.03008842468	-0.0915796756744	-0.018346786499	1.7418192625	-0.147228360176
0.174368619919	1.03282165527	-0.08842253685	-0.0157098770142	1.74595415592	-0.150843501091
0.176356315613	1.03550624847	-0.0858000516891	-0.0130205154419	1.75128090382	-0.154246091843
0.177529811859	1.03732800484	-0.0852535963058	-0.0107529163361	1.75490391254	-0.157433748245
0.180582046509	1.03804302216	-0.0849351882935	-0.00947690010071	1.75687801838	-0.160038590431
0.187690496445	1.03979611397	-0.0823101997375	-0.00901913642883	1.75684821606	-0.161587238312
0.192972660065	1.04189109802	-0.0809543132782	-0.0095112323761	1.75517451763	-0.162343740463
0.19430398941	1.04186296463	-0.081650018692	-0.010130405426	1.754109025	-0.162072062492
0.189594745636	1.03951668739	-0.08580327034	-0.0108091831207	1.75290858746	-0.161699771881
0.182034730911	1.03322315216	-0.0944904088974	-0.0119152069092	1.75064468384	-0.161437749863
0.180084705353	1.02974104881	-0.0990238189697	-0.0122096538544	1.74906980991	-0.161175370216
0.179025411606	1.02637648582	-0.10173201561	-0.0119769573212	1.74811136723	-0.160799622536
0.178284406662	1.02406597137	-0.102367997169	-0.0114853382111	1.74706161022	-0.16048681736
0.177941322327	1.02395510674	-0.101029872894	-0.0113990306854	1.74647319317	-0.159557104111
0.180012702942	1.02289485931	-0.0997259616852	-0.0113234519958	1.74588429928	-0.15873503685
0.181068897247	1.02197432518	-0.0995304584503	-0.0109939575195	1.74560058117	-0.157911062241
0.180875778198	1.02079892159	-0.100418686867	-0.010938167572	1.7449477911	-0.157231807709
0.180791854858	1.02053833008	-0.100667238235	-0.0107798576355	1.74494957924	-0.156515836716
0.179912567139	1.02105689049	-0.100865602493	-0.0107207298279	1.7449015379	-0.156162858009
0.179774999619	1.02092623711	-0.101261496544	-0.0105390548706	1.74478828907	-0.156118750572
0.179443597794	1.02185082436	-0.101633429527	-0.0106379985809	1.74493730068	-0.156173944473
0.179047584534	1.0216960907	-0.102950334549	-0.0107307434082	1.74506425858	-0.156801939011
0.17863035202	1.02217507362	-0.103948116302	-0.011123418808	1.74541413784	-0.157915353775
0.178501367569	1.02302670479	-0.104438781738	-0.0114929676056	1.74607801437	-0.15925860405
0.178888082504	1.02381944656	-0.104693174362	-0.0121665000916	1.74736452103	-0.160667061806
0.180140256882	1.02500581741	-0.104567527771	-0.0131618976593	1.74849808216	-0.1619399786
0.181052684784	1.02581524849	-0.104911327362	-0.0144186019897	1.74870121479	-0.163252711296
0.182601213455	1.02649617195	-0.104740381241	-0.0161249637604	1.74943995476	-0.163815021515
0.182900428772	1.02648282051	-0.104590654373	-0.0179803371429	1.75086772442	-0.163833141327
0.182059049606	1.02623271942	-0.104507923126	-0.0191211700439	1.75235283375	-0.163790941238
0.18071770668	1.0265352726	-0.10388302803	-0.019275188446	1.75316333771	-0.164027452469
0.179672241211	1.02669692039	-0.103925943375	-0.0179271697998	1.75130736828	-0.165209054947
0.180088043213	1.02691626549	-0.103615522385	-0.0176558494568	1.75017654896	-0.16530752182
0.181155204773	1.02693581581	-0.102991104126	-0.0187542438507	1.75045740604	-0.16476726532
