0.0	-0.0	147.510360718	-117.878898621	88.8572158813	174.193862915
0.0	-0.0	147.364089966	-117.384117126	88.9252929688	173.843719482
0.0	-0.0	146.570205688	-117.989189148	88.5452194214	173.798675537
0.0	-0.0	144.51763916	-118.709625244	88.0784759521	173.512939453
0.0	-0.0	141.479202271	-119.333480835	88.4101257324	173.709213257
0.0	-0.0	135.762969971	-120.635726929	87.0765838623	173.815536499
0.0	-0.0	126.186882019	-123.031417847	84.5024871826	173.606491089
0.0	-0.0	115.53793335	-124.400314331	83.3028182983	173.953155518
0.0	-0.0	107.189712524	-124.793556213	82.0158462524	173.968185425
0.0	-0.0	98.7645645142	-125.331321716	81.4560623169	173.99836731
0.0	-0.0	89.6139602661	-126.448905945	81.5124053955	173.70880127
0.0	-0.0	83.7846298218	-127.714942932	83.2864608765	174.376480103
0.0	-0.0	80.6017303467	-133.905731201	86.9413375854	174.727050781
0.0	-0.0	80.0439682007	-138.491867065	88.9125061035	175.602111816
0.0	-0.0	79.7792510986	-139.44770813	89.1944122314	175.401229858
0.0	-0.0	79.3106384277	-139.290664673	89.0136489868	174.982192993
0.0	-0.0	78.6547164917	-140.060684204	89.5646057129	173.835861206
0.0	-0.0	77.3740539551	-140.138870239	89.7197952271	173.126846313
0.0	-0.0	75.3170623779	-140.143295288	89.5160675049	172.329803467
0.0	-0.0	72.9903411865	38.2938957214	89.3104248047	-9.04878997803
0.0	-0.0	73.5454177856	35.3546447754	89.090927124	-9.36009597778
0.0	-0.0	75.8890762329	34.0562667847	88.9136581421	-9.74594974518
