0.155846118927	1.04396319389	0.136439085007	0.0107259750366	1.76689183712	-0.0905606746674
0.159180879593	1.04422426224	0.139281988144	0.0110557079315	1.76703190804	-0.0910153388977
0.160691022873	1.0422604084	0.138385772705	0.011061668396	1.76721680164	-0.0920355319977
0.162482023239	1.04109072685	0.141766548157	0.0100979804993	1.76578557491	-0.0925434827805
0.169250249863	1.03514409065	0.153864264488	0.00732350349426	1.76329195499	-0.0921506881714
0.173497915268	1.03176522255	0.15643465519	0.00288200378418	1.76014328003	-0.0912677049637
0.172380685806	1.02587008476	0.154495716095	-0.00312352180481	1.75559902191	-0.0902841091156
0.169536828995	1.02059984207	0.151894807816	-0.00887703895569	1.74988269806	-0.088903427124
0.168647766113	1.016715765	0.152734160423	-0.0136761665344	1.74388062954	-0.0871663093567
0.170773267746	1.01459741592	0.158312797546	-0.0176959037781	1.73775100708	-0.0854394435883
0.172179698944	1.0144777298	0.162302851677	-0.0222911834717	1.73215591908	-0.0832283496857
0.177756309509	1.01416730881	0.168231725693	-0.0279219150543	1.72744452953	-0.0810506343842
0.187681436539	1.01117014885	0.175403833389	-0.0324795246124	1.72230088711	-0.0794974565506
0.197002410889	1.00970077515	0.180328130722	-0.0347857475281	1.71686577797	-0.0776176452637
0.213789701462	1.01047182083	0.188339114189	-0.0352454185486	1.71365773678	-0.0750286579132
0.230499505997	1.00903177261	0.194692611694	-0.034211397171	1.71094572544	-0.0723640918732
0.238584280014	1.00792193413	0.197533965111	-0.0329787731171	1.70939075947	-0.0688866376877
