0.0	-0.0	143.109832764	92.7994766235	50.9479217529	14.7226753235
0.0	-0.0	141.872695923	92.9257049561	51.2902679443	14.4885807037
0.0	-0.0	135.91835022	92.8085479736	51.3845825195	14.7131080627
0.0	-0.0	119.584007263	92.5540237427	51.8791618347	15.0242128372
0.0	-0.0	102.630172729	92.0764465332	52.1866722107	14.9263381958
0.0	-0.0	89.1264266968	91.7917785645	52.0424423218	14.9663724899
0.0	-0.0	81.4144134521	90.7847900391	52.3194389343	14.1484518051
0.0	-0.0	74.5483551025	87.9488983154	51.570022583	11.0619974136
0.0	-0.0	66.1404266357	81.2787017822	47.6181526184	7.70187330246
0.0	-0.0	57.1835861206	70.4836959839	41.9698066711	8.03729534149
0.0	-0.0	50.1911315918	59.1932830811	37.9415512085	9.79201793671
0.0	-0.0	52.2050895691	48.7273216248	35.5003662109	9.47696113586
0.0	-0.0	56.3325233459	41.879234314	28.3268947601	11.4119300842
0.0	-0.0	58.4400177002	38.8584938049	22.0990829468	10.3475751877
0.0	-0.0	57.5311203003	35.7889328003	19.2074508667	10.6087551117
0.0	-0.0	54.9310073853	36.9749755859	17.5881481171	10.56503582
0.0	-0.0	52.4017524719	39.3471679688	17.5998592377	10.3347501755
0.0	-0.0	50.1244544983	38.0337371826	17.5579013824	11.0999383926
0.0	-0.0	49.2649536133	37.1826858521	17.0324478149	10.6293315887
0.0	-0.0	48.9536476135	35.7136116028	16.5625915527	10.4450798035
0.0	-0.0	48.8825950623	33.7426834106	16.3009033203	10.8072528839
0.0	-0.0	49.263759613	31.97706604	16.178188324	11.9269094467
0.0	-0.0	50.0488433838	29.5156269073	13.2713327408	12.1183633804
0.0	-0.0	50.2622795105	27.6044750214	11.389008522	12.8724527359
0.0	-0.0	50.8074913025	27.7058506012	12.2298278809	12.4032688141
0.0	-0.0	51.0193214417	28.421163559	12.6275939941	12.7581882477
0.0	-0.0	51.0220108032	31.1931838989	14.17507267	11.9623327255
0.0	-0.0	50.4315109253	31.8410148621	14.1661214828	12.3582305908
0.0	-0.0	50.8078269958	30.9698371887	14.2910690308	12.9483366013
0.0	-0.0	53.8747367859	32.0965003967	13.7301464081	12.4621496201
0.0	-0.0	60.4122467041	33.3550300598	13.5443878174	11.9117603302
0.0	-0.0	64.4511871338	33.1527175903	13.7923984528	11.6153059006
0.0	-0.0	61.9006271362	32.6950492859	13.5744094849	11.9089078903
0.0	-0.0	59.4529914856	34.1260948181	13.1927576065	11.0316534042
0.0	-0.0	58.9663963318	36.5228004456	13.8852396011	8.85088062286
0.0	-0.0	59.1828308105	36.3272781372	13.2413024902	7.55429267883
0.0	-0.0	58.8007240295	38.4260139465	13.2916431427	4.57340145111
0.0	-0.0	58.9490737915	40.1228408813	13.8456344604	1.09953260422
0.0	-0.0	58.9421958923	38.3024978638	14.1106510162	2.35582113266
0.0	-0.0	59.0619621277	37.1373023987	14.5861597061	3.1249537468
0.0	-0.0	58.8232536316	37.2445831299	15.6792840958	3.27549958229
0.0	-0.0	58.7629928589	34.8036155701	14.9485263824	3.96194577217
