-72.7765274048	-3.15662097931	129.404602051	5.44715356827	1.6288433075	-0.518001794815
-72.8332595825	-3.11463260651	129.431777954	5.50034809113	1.41682803631	-0.555638670921
-72.5331420898	-3.30871391296	129.302352905	5.47847557068	1.41511940956	-0.572778582573
-72.524887085	-3.36775064468	129.11378479	5.34492015839	1.40093302727	-0.562433838844
-72.6591110229	-3.30976867676	129.063079834	5.3345656395	1.35075092316	-0.669319272041
-72.5795059204	-3.45632433891	129.108306885	5.4414896965	1.27245295048	-0.750851094723
-72.3425369263	-3.63638162613	128.993591309	5.43708515167	1.29780161381	-0.779125332832
-72.2888946533	-3.55504584312	128.992370605	5.36657714844	1.31184029579	-0.763074278831
-71.7410430908	-3.88725996017	128.855178833	5.16610956192	1.28606283665	-0.743675768375
-69.724937439	-4.78874540329	128.004470825	5.05420303345	1.23213791847	-0.744255125523
-66.9757843018	-6.06832265854	126.942550659	4.88586235046	1.2802464962	-0.695287823677
-64.9691314697	-6.99156570435	126.044013977	4.73517036438	1.30088746548	-0.591147899628
-62.261756897	-8.05787181854	124.727767944	4.43262672424	1.24723565578	-0.464560478926
-57.2846641541	-9.99242973328	122.445220947	4.01386260986	1.06534183025	-0.465295881033
-50.129283905	-12.0660715103	118.668960571	3.53913283348	0.933011293411	-0.423425704241
-43.1574134827	-13.8290786743	114.873725891	3.23206543922	0.918357849121	-0.359480798244
-36.3160705566	-15.0615653992	110.815940857	3.24516272545	1.02141916752	-0.293669402599
-29.5729846954	-15.7516183853	106.783309937	3.31311202049	0.858374357224	-0.278323382139
-23.6633872986	-16.047372818	102.903503418	3.02498412132	0.241304904222	-0.183093935251
-19.1610870361	-15.7125654221	99.8061676025	2.63225364685	-0.0218971278518	-0.115426935256
-16.9643306732	-15.3904380798	98.0475997925	2.18182897568	-0.0514476560056	-0.0342373289168
-14.009510994	-15.1006717682	96.2770385742	1.96832180023	-0.575247049332	0.0808729678392
-11.7300233841	-14.8761949539	94.9720230103	1.91583192348	-1.37895381451	0.30151283741
-8.23597431183	-13.9635648727	92.3708724976	1.95328950882	-1.19126927853	0.472487539053
-1.30473923683	-12.3511562347	88.1104354858	1.66014480591	-0.383677095175	0.434395939112
3.49639940262	-10.9570760727	85.3493804932	1.25540971756	0.369016468525	0.36020848155
5.24609041214	-10.6686553955	84.2806167603	0.908970892429	0.54816788435	0.329545259476
9.62208175659	-9.35334396362	81.8404693604	0.444714099169	0.574411332607	0.289730161428
