0.0	-0.0	138.881591797	93.3870849609	52.8748817444	19.5140342712
0.0	-0.0	138.257888794	93.0747146606	52.09740448	19.9157047272
0.0	-0.0	133.570114136	91.9465332031	52.6475563049	18.2265949249
0.0	-0.0	113.666885376	86.8973083496	52.6642608643	19.0723609924
0.0	-0.0	94.5963592529	81.743888855	53.4288711548	19.2417583466
0.0	-0.0	82.5607528687	73.5679702759	54.6931877136	20.1768932343
0.0	-0.0	80.7672271729	60.4938774109	56.7866592407	23.0356845856
0.0	-0.0	84.2966537476	45.9388656616	58.5025367737	18.5467987061
0.0	-0.0	83.1038360596	17.9312458038	59.4940376282	14.6961736679
0.0	-0.0	82.9064788818	-3.17817187309	61.1461982727	18.2485160828
0.0	-0.0	83.2174377441	-4.58493041992	66.9502258301	19.183681488
0.0	-0.0	84.0953674316	-0.632151126862	72.3704833984	20.2887363434
0.0	-0.0	84.6467971802	-2.38080573082	74.923248291	23.2964763641
0.0	-0.0	86.6275787354	-6.24112129211	78.5556869507	22.8342494965
0.0	-0.0	87.7693023682	-5.16316986084	80.2877960205	23.4745807648
0.0	-0.0	89.400390625	-4.29410266876	81.4607086182	24.356552124
0.0	-0.0	89.78465271	-3.34250617027	82.4921340942	23.0569038391
0.0	-0.0	84.2974319458	-3.46647071838	82.8550262451	23.1618881226
