0.235095977783	1.11566460133	-0.0360381603241	0.065260887146	1.74556410313	-0.151208639145
0.235959529877	1.11514222622	-0.0367752313614	0.0655784606934	1.74573802948	-0.151566624641
0.236095905304	1.11415600777	-0.0381681919098	0.0645020008087	1.74672043324	-0.150784373283
0.235954046249	1.11266767979	-0.039976477623	0.061176776886	1.74925994873	-0.148988485336
0.234718084335	1.11217284203	-0.0409500598907	0.0573108196259	1.75225162506	-0.147193908691
0.232966899872	1.1122521162	-0.0415362119675	0.0535373687744	1.75411653519	-0.147172689438
0.229613304138	1.11217331886	-0.0400116443634	0.0502359867096	1.75502216816	-0.147627353668
0.222348213196	1.11467599869	-0.0382957458496	0.0469696521759	1.75644314289	-0.147466421127
0.209554195404	1.12073278427	-0.0369832515717	0.0446965694427	1.75931441784	-0.146607637405
0.192739486694	1.12716019154	-0.0365490913391	0.0420031547546	1.76216495037	-0.145313739777
0.176242113113	1.13114583492	-0.036602973938	0.0386648178101	1.76344537735	-0.144223690033
0.161380290985	1.13330757618	-0.0372412204742	0.0352675914764	1.76426756382	-0.143174171448
0.151163816452	1.1394636631	-0.0421246290207	0.0328462123871	1.76676356792	-0.141923546791
0.144485473633	1.14467346668	-0.0472747087479	0.0325829982758	1.76918637753	-0.141324520111
0.14105463028	1.14584255219	-0.0487577915192	0.0336434841156	1.77033948898	-0.140790224075
0.143397569656	1.14726352692	-0.0467177629471	0.0345261096954	1.77180743217	-0.14007127285
0.146280288696	1.14761698246	-0.0435321331024	0.0359008312225	1.77350568771	-0.140138864517
0.146400690079	1.14721298218	-0.0422143936157	0.0373387336731	1.77446722984	-0.140502214432
0.145617961884	1.14715433121	-0.0426173210144	0.0375463962555	1.77511608601	-0.140741348267
0.143350362778	1.1465023756	-0.0426461696625	0.0369143486023	1.7748478651	-0.141214132309
0.140259981155	1.14635181427	-0.0430301427841	0.0357947349548	1.7743639946	-0.141484618187
0.137081623077	1.14662802219	-0.0431900024414	0.0347437858582	1.77322900295	-0.140966176987
0.13429236412	1.1494666338	-0.0458149909973	0.0333111286163	1.77219712734	-0.140495896339
0.133006095886	1.15121662617	-0.0474371910095	0.0320434570312	1.77192771435	-0.140350103378
0.133236646652	1.15095806122	-0.0468697547913	0.0309572219849	1.77216672897	-0.140424728394
0.134573936462	1.15068101883	-0.0463333129883	0.0308425426483	1.77215361595	-0.140601277351
0.138493061066	1.14933979511	-0.0463449954987	0.0326058864594	1.77142524719	-0.140773773193
0.140276670456	1.14890384674	-0.0485706329346	0.03555727005	1.7709685564	-0.140949487686
0.140786886215	1.14875137806	-0.049881696701	0.0369017124176	1.77087593079	-0.14146900177
0.142513513565	1.14933276176	-0.0502090454102	0.0368773937225	1.77080786228	-0.14258491993
0.14373421669	1.14925825596	-0.0500726699829	0.0380177497864	1.77029800415	-0.14432311058
0.142862319946	1.14872062206	-0.0502097606659	0.0411245822906	1.77088773251	-0.144971847534
0.143067121506	1.14891374111	-0.0504913330078	0.0427775382996	1.77317321301	-0.144799947739
0.144607067108	1.14920186996	-0.050525188446	0.0426750183105	1.7757089138	-0.145590782166
0.14578294754	1.14856445789	-0.0494949817657	0.0423891544342	1.77713823318	-0.14692902565
0.14536857605	1.14966523647	-0.0489325523376	0.0419738292694	1.77780795097	-0.147613525391
0.147191762924	1.15043783188	-0.0469908714294	0.0419769287109	1.77789163589	-0.148251771927
0.148066520691	1.1503033638	-0.0459022521973	0.0422313213348	1.77839410305	-0.148505926132
0.14680814743	1.14914095402	-0.0462633371353	0.0422203540802	1.7778429985	-0.148390054703
0.146638154984	1.14773416519	-0.0467426776886	0.0423152446747	1.77721834183	-0.147401332855
0.145920753479	1.14550828934	-0.0465309619904	0.0423586368561	1.77625966072	-0.146138906479
0.143255710602	1.14515864849	-0.0483027696609	0.0418126583099	1.77526545525	-0.144648313522
