-91.8123245239	-35.8829536438	130.132278442	5.86568689346	0.079801812768	-0.93780875206
-91.6000595093	-35.7538566589	129.877441406	5.63300514221	0.0774824544787	-0.917785286903
-90.7020721436	-35.9484901428	127.980644226	5.10150814056	0.659578442574	-0.759959459305
-72.4723129272	-26.9347133636	106.96320343	2.82639598846	3.37912130356	-0.536887943745
-59.5089378357	-20.1864681244	92.7992401123	-1.45380425453	7.31033706665	-0.582147657871
-44.3212623596	-11.6441602707	81.6497573853	-6.34778881073	11.0495271683	-1.13028407097
-30.2837505341	-2.65175437927	72.9479141235	-9.83633232117	14.6638708115	-1.65263831615
-29.3805084229	3.77143549919	72.0851745605	-11.1476593018	17.7305965424	-1.71690905094
-27.6300125122	5.61091375351	74.0383987427	-11.8652210236	19.5234565735	-1.81306684017
