0.165416479111	1.0371260643	0.0493941307068	0.0126001834869	1.76372730732	-0.0941801071167
0.166584730148	1.03799366951	0.0497636795044	0.0122098922729	1.76381587982	-0.0952620506287
0.167439460754	1.03762292862	0.0498926639557	0.0113668441772	1.7640209198	-0.0961557626724
0.16788816452	1.03710865974	0.0484246015549	0.0104625225067	1.76382946968	-0.0971935987473
0.168706178665	1.03157567978	0.0502390861511	0.00946736335754	1.76183581352	-0.097562789917
0.171178102493	1.02087831497	0.0564123392105	0.00843453407288	1.75696027279	-0.0964883565903
0.175944805145	1.01505184174	0.056565284729	0.00679230690002	1.75053954124	-0.0945072174072
0.176465034485	1.00956678391	0.0591623783112	0.00454521179199	1.7433205843	-0.0927295684814
0.175357103348	1.00831723213	0.0590298175812	0.00370073318481	1.73482120037	-0.0917865037918
0.173774957657	1.00840687752	0.0558521747589	0.00532793998718	1.72696518898	-0.0914280414581
0.171625614166	1.01001000404	0.0541990995407	0.0086088180542	1.72094368935	-0.0919995307922
0.170397758484	1.01089525223	0.05464220047	0.011971950531	1.71456229687	-0.0932277441025
0.167639255524	1.01416754723	0.0594880580902	0.015305519104	1.70917081833	-0.0942596197128
0.162559747696	1.02354049683	0.0720238685608	0.0177721977234	1.70628082752	-0.0943216085434
0.163609266281	1.02096271515	0.0924687385559	0.0185544490814	1.70504820347	-0.094181895256
0.172950744629	1.0187690258	0.105407595634	0.0180153846741	1.70463943481	-0.0935479402542
0.181765794754	1.01465511322	0.11118543148	0.017669916153	1.7045340538	-0.0926858186722
0.189234733582	1.00675916672	0.118081688881	0.0176656246185	1.70496547222	-0.0922523736954
0.197364330292	1.00277781487	0.131338953972	0.0180552005768	1.70539486408	-0.0916173458099
0.20131111145	1.00299954414	0.137109518051	0.0183987617493	1.70568704605	-0.0910627841949
0.199124336243	1.00740933418	0.136509180069	0.0194048881531	1.70713555813	-0.0908236503601
0.195825338364	1.00733113289	0.134566068649	0.0202767848969	1.70773017406	-0.0921728610992
0.194934129715	1.00683164597	0.136822462082	0.0215489864349	1.70435976982	-0.0966377258301
0.194420576096	1.00955080986	0.138941049576	0.0227956771851	1.69877004623	-0.101567268372
0.193038225174	1.01593399048	0.139403343201	0.0247395038605	1.69854414463	-0.103046417236
0.185999155045	1.02748274803	0.126478672028	0.0262417793274	1.70125246048	-0.103267788887
0.179417848587	1.02706360817	0.112647771835	0.0272350311279	1.70254266262	-0.10299539566
0.183016300201	1.02287197113	0.13122844696	0.02712225914	1.70212423801	-0.102634429932
0.197628736496	1.00103902817	0.145083069801	0.0265114307404	1.70224249363	-0.101843833923
0.200987815857	1.00260043144	0.138947606087	0.0254607200623	1.70241105556	-0.100360870361
0.204357624054	0.999259710312	0.137987375259	0.0247342586517	1.70233690739	-0.0990264415741
0.204982280731	1.00014424324	0.132989406586	0.0247492790222	1.70216310024	-0.0978524684906
0.201542854309	1.00790381432	0.119636654854	0.0251326560974	1.70201766491	-0.0967495441437
0.199517250061	1.01191520691	0.102316379547	0.0254871845245	1.70113682747	-0.0961275100708
0.199353694916	1.01335525513	0.0887668132782	0.0259919166565	1.70082378387	-0.0958020687103
0.197527170181	1.01292276382	0.0875885486603	0.0264794826508	1.70183718204	-0.0949449539185
0.194524526596	1.01473402977	0.0914146900177	0.0260879993439	1.70269405842	-0.0935711860657
0.191460371017	1.01309275627	0.0903303623199	0.0252676010132	1.7025282383	-0.0921850204468
0.191950321198	1.00929641724	0.113495826721	0.0243835449219	1.70152962208	-0.0911786556244
0.198608875275	1.00082945824	0.124518036842	0.0239026546478	1.70047008991	-0.0899486541748
0.205008506775	0.995651006699	0.129470944405	0.0237205028534	1.70009624958	-0.0894848108292
0.209783315659	0.991468906403	0.133153557777	0.0238020420074	1.70041513443	-0.0889492034912
0.208510398865	0.991921901703	0.131284356117	0.0237882137299	1.70077705383	-0.0885450839996
0.206959962845	0.988074302673	0.130093693733	0.0239748954773	1.70105993748	-0.0884461402893
0.205772161484	0.986907482147	0.129779815674	0.0238885879517	1.70158433914	-0.0884567499161
0.204360246658	0.98809838295	0.130290865898	0.0233900547028	1.70215594769	-0.0897376537323
0.204316854477	0.988892793655	0.131855964661	0.0228991508484	1.70120441914	-0.0915939807892
0.203516483307	0.990946292877	0.132936358452	0.0222144126892	1.69719147682	-0.0943772792816
0.203050374985	0.993513584137	0.134211659431	0.0220553874969	1.69289040565	-0.0963177680969
0.202229976654	0.994111061096	0.13358771801	0.0222942829132	1.69268596172	-0.0965198278427
0.200995922089	0.992930173874	0.130975484848	0.0223190784454	1.69465863705	-0.096254825592
0.200302839279	0.992022752762	0.128624081612	0.0224120616913	1.69999849796	-0.0938687324524
0.199511528015	0.991206645966	0.126482963562	0.0221829414368	1.70641505718	-0.0920650959015
0.199035406113	0.990195035934	0.125856161118	0.0210847854614	1.71078634262	-0.091251373291
0.199359893799	0.990779876709	0.127510309219	0.0198798179626	1.71422755718	-0.0908708572388
0.198501586914	0.99193572998	0.128800630569	0.0194425582886	1.71583151817	-0.0914208889008
0.197471857071	0.992752075195	0.129481554031	0.019659280777	1.71644079685	-0.0913524627686
0.196410655975	0.992940425873	0.129944086075	0.0202622413635	1.71842885017	-0.0907112360001
0.195234775543	0.991909503937	0.129520773888	0.0200569629669	1.71836125851	-0.0905290842056
0.194764375687	0.992155790329	0.130024671555	0.0201382637024	1.72045636177	-0.0887725353241
0.194821596146	0.991197824478	0.129545688629	0.0198311805725	1.72371578217	-0.0871782302856
0.195049524307	0.99035525322	0.12895989418	0.0190799236298	1.72503232956	-0.0854505300522
0.195504188538	0.989581346512	0.128878712654	0.0180695056915	1.72618508339	-0.0844552516937
0.195343732834	0.989623308182	0.129081010818	0.01740026474	1.7262762785	-0.0836715698242
0.195296764374	0.99062037468	0.129764795303	0.0168070793152	1.72485685349	-0.0837980508804
0.195413589478	0.991899728775	0.130995035172	0.0157513618469	1.72199785709	-0.0843048095703
0.195470571518	0.993080615997	0.131587386131	0.0151109695435	1.71858072281	-0.0849161148071
0.195487260818	0.99410700798	0.131801128387	0.0149443149567	1.71585071087	-0.0852057933807
0.19540143013	0.994246482849	0.131240367889	0.0144429206848	1.71234714985	-0.086464881897
0.195133209229	0.994751214981	0.130566835403	0.0136978626251	1.70908987522	-0.087751865387
0.194886207581	0.99563741684	0.130662679672	0.0132946968079	1.70820605755	-0.0882515907288
0.194447755814	0.996286153793	0.129860877991	0.0130817890167	1.70902752876	-0.0890589952469
0.194720506668	0.996598243713	0.129277467728	0.0128273963928	1.71103155613	-0.090430021286
0.194916009903	0.997031927109	0.128784894943	0.0119361877441	1.71238434315	-0.0928373336792
0.195216655731	0.998806476593	0.128912091255	0.0107896327972	1.71034431458	-0.0959122180939
0.195905447006	1.00040221214	0.129247665405	0.00965070724487	1.705493927	-0.0999194383621
0.195639610291	1.00211334229	0.128889322281	0.00968241691589	1.70343720913	-0.101628303528
0.193280220032	1.00283145905	0.122986078262	0.0100176334381	1.70403218269	-0.102487325668
0.205028533936	1.00741624832	0.143292665482	0.0106456279755	1.70456159115	-0.103156328201
0.204218864441	1.00029969215	0.133920788765	0.0109002590179	1.70420742035	-0.10348045826
0.189974069595	1.01410889626	0.104963064194	0.0107424259186	1.70362055302	-0.103676319122
0.184049367905	1.01740956306	0.0753445625305	0.0111272335052	1.70366227627	-0.103628873825
0.181967496872	1.01897120476	0.0595345497131	0.0115883350372	1.70387780666	-0.103414654732
0.180780410767	1.00744605064	0.0841829776764	0.0118052959442	1.70369803905	-0.103386640549
0.193161725998	0.996695518494	0.114631891251	0.0117321014404	1.70361864567	-0.102705717087
0.210320234299	0.988692760468	0.134300589561	0.0111923217773	1.70331692696	-0.101746559143
0.220945119858	0.985639572144	0.141100883484	0.011378288269	1.7029145956	-0.100636959076
0.224255800247	0.987454175949	0.143757343292	0.0112183094025	1.70286560059	-0.099719285965
0.220394134521	0.98727273941	0.140111088753	0.0109000205994	1.70378375053	-0.0990948677063
0.220244407654	0.983607769012	0.139465689659	0.0111985206604	1.70641863346	-0.0986967086792
0.220475673676	0.980894804001	0.139502763748	0.0113747119904	1.70825433731	-0.0993757247925
0.220197200775	0.980812311172	0.14022064209	0.0113952159882	1.70773160458	-0.100785732269
0.219626188278	0.984062433243	0.142197012901	0.0116128921509	1.70793175697	-0.103688955307
0.219380617142	0.987915992737	0.145793437958	0.013147354126	1.71025073528	-0.106154680252
0.218301057816	0.989125967026	0.147220015526	0.0153701305389	1.71249973774	-0.108492732048
0.216804265976	0.987737178802	0.146399259567	0.0166883468628	1.7143048048	-0.111013293266
0.213787555695	0.988089084625	0.144617319107	0.0173630714417	1.71502411366	-0.112316012383
0.210958719254	0.987009525299	0.141501426697	0.017026424408	1.71458780766	-0.11302113533
0.210673570633	0.986968278885	0.14010643959	0.0165297985077	1.71419358253	-0.112751722336
0.21132183075	0.986209392548	0.138111829758	0.0153579711914	1.71460497379	-0.112010359764
0.212431907654	0.986205816269	0.135926365852	0.00864863395691	1.7145512104	-0.110926389694
0.214326381683	0.986058712006	0.134631872177	0.00166797637939	1.71470141411	-0.110328197479
0.215366363525	0.986327648163	0.133768439293	-0.00345802307129	1.71558392048	-0.109657168388
0.215875387192	0.985946416855	0.13218998909	-0.0042896270752	1.71667182446	-0.10914182663
0.215923547745	0.98570227623	0.131474256516	-0.00499224662781	1.71818518639	-0.108275413513
0.216307878494	0.986178159714	0.132359981537	-0.00632214546204	1.71968817711	-0.107072114944
0.216682910919	0.986727714539	0.133488893509	-0.0070264339447	1.72153759003	-0.106070756912
0.217345476151	0.987522125244	0.134919643402	-0.00773286819458	1.72289788723	-0.105565309525
0.218097686768	0.988154172897	0.136876344681	-0.00804662704468	1.72393548489	-0.104927301407
0.219065666199	0.988575220108	0.138375997543	-0.00834012031555	1.72287297249	-0.104884028435
0.219499826431	0.988718986511	0.1392608881	-0.00849461555481	1.72312617302	-0.10410785675
0.219057321548	0.987884998322	0.139141321182	-0.0102214813232	1.72438836098	-0.103621244431
0.218149900436	0.986448526382	0.139130830765	-0.0106234550476	1.72484111786	-0.104114055634
0.217602014542	0.986788034439	0.140676259995	-0.0114035606384	1.72545015812	-0.104068756104
0.217647314072	0.987505435944	0.142246961594	-0.0131676197052	1.72566819191	-0.104041576385
0.215205669403	0.988720655441	0.139869332314	-0.0125229358673	1.72575187683	-0.10377395153
0.209221601486	0.990387916565	0.132252454758	-0.0115268230438	1.72581017017	-0.103624820709
0.207505702972	0.992324829102	0.130991220474	-0.011048078537	1.72562873363	-0.10368347168
0.205419778824	0.994807243347	0.129388093948	-0.0108189582825	1.72511827946	-0.103689670563
0.20663523674	0.993897676468	0.132220983505	-0.0105414390564	1.72480022907	-0.103784680367
0.21043920517	0.993438243866	0.136152029037	-0.0104446411133	1.72447562218	-0.103949666023
0.215185642242	0.990809202194	0.137570023537	-0.0105209350586	1.72385179996	-0.104688167572
0.217519283295	0.991243839264	0.137818455696	-0.0101594924927	1.72289168835	-0.106148958206
0.218034744263	0.992160558701	0.138472080231	-0.009526014328	1.72274672985	-0.107608914375
0.21683883667	0.993976831436	0.138341903687	-0.00791025161743	1.72338342667	-0.109255552292
0.215825080872	0.995214939117	0.137937903404	-0.00603055953979	1.72338950634	-0.111169338226
0.215612411499	0.995222330093	0.136967539787	-0.00517058372498	1.72276461124	-0.113076210022
0.215436697006	0.995162725449	0.135527968407	-0.00583744049072	1.72312545776	-0.114368677139
0.215660572052	0.994547605515	0.134231090546	-0.00784301757812	1.72354531288	-0.115396738052
0.215569257736	0.99363732338	0.132406711578	-0.00889301300049	1.72299802303	-0.115932703018
0.215687274933	0.993587017059	0.131198406219	-0.00998663902283	1.72299396992	-0.116186380386
0.216328144073	0.993346452713	0.130362033844	-0.01238489151	1.72359549999	-0.116640329361
0.21751666069	0.993322134018	0.130103588104	-0.0142135620117	1.72461414337	-0.116743564606
0.21834230423	0.993173360825	0.129801273346	-0.0156772136688	1.72396886349	-0.11737215519
