0.0	-0.0	133.475723267	62.0955238342	85.2126159668	-3.87430119514
0.0	-0.0	133.234085083	61.9231338501	85.4789505005	-3.58421850204
0.0	-0.0	132.754211426	61.9265518188	86.3358688354	-3.71698856354
0.0	-0.0	128.937866211	-115.054275513	89.9462585449	175.401107788
0.0	-0.0	127.322105408	-108.072471619	84.4213867188	174.84866333
0.0	-0.0	123.08253479	-99.9394454956	78.1067886353	173.613876343
0.0	-0.0	115.952789307	-91.6195220947	71.383354187	172.664398193
0.0	-0.0	109.186294556	-83.2419967651	65.038269043	172.76701355
0.0	-0.0	102.920982361	-76.4147033691	59.8984718323	173.52545166
