0.0	-0.0	131.700469971	-116.770713806	89.4829025269	174.763397217
0.0	-0.0	131.851989746	-116.766014099	89.167755127	174.505249023
0.0	-0.0	131.368301392	-117.212913513	88.0583190918	174.806564331
0.0	-0.0	130.558700562	-122.506546021	84.6480712891	175.372161865
0.0	-0.0	129.738449097	-133.774459839	79.0467529297	176.674346924
0.0	-0.0	127.482910156	-145.604537964	70.8889465332	178.279968262
0.0	-0.0	120.864524841	-154.65007019	60.7654533386	179.823745728
0.0	-0.0	112.213973999	-161.539459229	52.104183197	-179.591537476
0.0	-0.0	103.805549622	-167.40045166	47.6057167053	-178.721481323
0.0	-0.0	97.7809066772	-173.427352905	45.2913475037	-177.814025879
