0.153483629227	1.1107609272	-0.0560613870621	-0.0110940933228	1.79120707512	-0.1600522995
0.153568983078	1.11043453217	-0.0563814640045	-0.01087474823	1.79102861881	-0.15938937664
0.152682542801	1.10905253887	-0.0572054386139	-0.0112693309784	1.78993797302	-0.157814741135
0.151899337769	1.10708618164	-0.0570693016052	-0.0139193534851	1.78735685349	-0.15434718132
0.149916887283	1.1038197279	-0.0570709705353	-0.0173273086548	1.78504121304	-0.150579690933
0.1486723423	1.10076391697	-0.0560688972473	-0.0184018611908	1.78374457359	-0.147233605385
0.147548675537	1.09735274315	-0.0546581745148	-0.0204060077667	1.78265333176	-0.14238679409
0.145877361298	1.09394443035	-0.0544118881226	-0.0227890014648	1.78175616264	-0.138069152832
0.143850803375	1.08860731125	-0.053705573082	-0.0253367424011	1.78125941753	-0.134138464928
0.145799398422	1.08219003677	-0.0509610176086	-0.0274698734283	1.78117322922	-0.131206512451
0.149473190308	1.08102273941	-0.0474846363068	-0.0293619632721	1.78205311298	-0.12891972065
0.152637481689	1.07844722271	-0.045440196991	-0.0301060676575	1.78304314613	-0.127547502518
0.155663013458	1.07555603981	-0.0444793701172	-0.0318474769592	1.78407907486	-0.126009345055
0.156348228455	1.07684493065	-0.0444388389587	-0.0341084003448	1.78497028351	-0.124670743942
0.151890039444	1.08195769787	-0.0449402332306	-0.034610748291	1.7854565382	-0.124052047729
0.145656824112	1.08813905716	-0.045102596283	-0.0342578887939	1.78564715385	-0.123839378357
0.139804363251	1.09155380726	-0.0456671714783	-0.03600025177	1.78524553776	-0.123961210251
0.138583421707	1.09041297436	-0.0466799736023	-0.03959608078	1.78435480595	-0.124644517899
0.140369176865	1.08899903297	-0.0484232902527	-0.043167591095	1.78288638592	-0.125097990036
0.143214941025	1.08829677105	-0.0503234863281	-0.0462555885315	1.78159868717	-0.125574111938
0.145675897598	1.08924221992	-0.0524704456329	-0.0482542514801	1.78069353104	-0.126640558243
0.147511959076	1.09026098251	-0.0535407066345	-0.0489590167999	1.78056907654	-0.1281863451
0.148923397064	1.09153115749	-0.053980588913	-0.0489139556885	1.78117215633	-0.130210399628
0.150438070297	1.09273970127	-0.0540908575058	-0.0491254329681	1.78169739246	-0.1326649189
0.150188207626	1.09363555908	-0.0551156997681	-0.0493319034576	1.78225600719	-0.135219335556
0.144963741302	1.095718503	-0.0582214593887	-0.0500738620758	1.78317296505	-0.138106822968
0.138714790344	1.09766793251	-0.0616807937622	-0.0507516860962	1.78447031975	-0.141070365906
0.135251522064	1.09819698334	-0.0637238025665	-0.0517783164978	1.78549015522	-0.143723249435
