0.0	-0.0	129.865249634	62.1995353699	89.7748565674	-4.26175785065
0.0	-0.0	129.714569092	-117.847007751	89.9912490845	175.814941406
0.0	-0.0	129.847305298	-118.050498962	89.8909072876	175.912353516
0.0	-0.0	129.533737183	61.6552238464	89.8741607666	-4.09856939316
0.0	-0.0	128.714401245	62.2688980103	88.4082870483	-4.22468709946
0.0	-0.0	119.983665466	65.4155807495	81.3764419556	-3.7954492569
0.0	-0.0	103.602554321	68.148223877	68.3543930054	-3.32599902153
0.0	-0.0	81.1927947998	71.2964935303	53.0176277161	-3.11972928047
0.0	-0.0	64.4396972656	75.4015731812	40.3699188232	-4.81163167953
