0.0	-0.0	132.839553833	-125.628837585	83.4089508057	170.231735229
0.0	-0.0	132.514266968	-126.094215393	83.1473693848	170.243469238
0.0	-0.0	132.417404175	-126.458305359	82.3152923584	170.618057251
0.0	-0.0	130.305877686	-125.201927185	82.5098800659	171.341217041
0.0	-0.0	125.791702271	-120.399833679	85.1199188232	172.691772461
0.0	-0.0	121.805862427	-114.195167542	89.3650665283	173.393661499
0.0	-0.0	117.087760925	73.1358337402	86.1658706665	-6.90816259384
0.0	-0.0	110.938453674	81.6178741455	82.5283050537	-7.83696174622
0.0	-0.0	105.650741577	90.0018463135	77.5970077515	-8.51458740234
0.0	-0.0	101.047332764	96.4274368286	71.0651168823	-9.04423809052
0.0	-0.0	97.78125	101.573104858	65.6966094971	-8.7479391098
