0.139914989471	1.07035911083	0.103589773178	-0.0054075717926	1.76565539837	-0.0709302425385
0.140256643295	1.07100772858	0.102311491966	-0.00514006614685	1.76528573036	-0.0715112686157
0.139563083649	1.07043004036	0.101275801659	-0.00512456893921	1.76533091068	-0.0721297264099
0.139088630676	1.0714224577	0.105077266693	-0.00549411773682	1.76690948009	-0.0732328891754
0.139262199402	1.07608473301	0.115476965904	-0.00622010231018	1.77007734776	-0.0756554603577
0.141770362854	1.07761514187	0.122489690781	-0.00660347938538	1.7742125988	-0.0794142484665
0.143121004105	1.07721328735	0.124767303467	-0.00657677650452	1.7793725729	-0.0846037864685
0.143218040466	1.0768198967	0.126996159554	-0.005455493927	1.78509902954	-0.0909949541092
0.144687175751	1.08099985123	0.137315392494	-0.00298237800598	1.79208874702	-0.0979551076889
0.148249387741	1.08669936657	0.148015379906	-0.000534296035767	1.79887580872	-0.104829549789
0.150223970413	1.0877623558	0.152032613754	0.000612497329712	1.80412590504	-0.111643433571
0.151178598404	1.08714306355	0.154369711876	0.00174450874329	1.80841934681	-0.11801815033
0.156480550766	1.08489334583	0.169449567795	0.00316858291626	1.81079041958	-0.122958183289
0.167304754257	1.08696055412	0.184023857117	0.00360012054443	1.81129443645	-0.125565290451
0.176014184952	1.08676123619	0.194689869881	0.00282621383667	1.81151294708	-0.126816987991
0.181894779205	1.0857000351	0.198884963989	0.00223183631897	1.81212186813	-0.128022670746
0.191734790802	1.08292615414	0.206197738647	0.00306344032288	1.81236815453	-0.12942814827
0.2046251297	1.08102810383	0.215026021004	0.00550222396851	1.81223249435	-0.131280183792
