0.0	-0.0	134.10697937	61.2324256897	89.3027496338	-8.27874660492
0.0	-0.0	133.063430786	-118.508117676	89.7914123535	171.978775024
0.0	-0.0	132.729492188	-118.866943359	89.5021057129	172.549331665
0.0	-0.0	131.122360229	60.4971237183	89.9479980469	-7.04813241959
0.0	-0.0	118.863800049	57.5971336365	88.1033630371	-6.67920160294
0.0	-0.0	100.951194763	51.4771118164	87.5103912354	-5.54571294785
0.0	-0.0	91.9412994385	42.9441299438	86.5493240356	-3.888007164
0.0	-0.0	83.2668380737	36.4672737122	85.606803894	-2.70523715019
0.0	-0.0	78.4334640503	33.8269805908	85.7856521606	-1.8428286314
0.0	-0.0	80.5030059814	34.7523155212	85.8592987061	-1.31140363216
0.0	-0.0	81.7381820679	36.4732971191	86.5209274292	-1.48844742775
