Participant: 9436

Trial	Condition	Time
0		2			5.5744
1		3			5.1051
2		5			8.9705
3		5			3.7395
4		3			14.1242
5		2			6.2159
6		2			6.4949
7		5			1.9066
8		4			1.9289
9		2			3.6614
10		6			17.4669
11		0			3.6058
12		0			2.7064
13		5			8.6924
14		6			6.4487
15		5			3.0615
16		3			2.9392
17		3			2.1394
18		2			4.6167
19		2			4.25
20		1			3.5396
21		2			2.7648
22		6			3.4508
23		0			0.996
24		1			1.8403
25		6			6.1721
26		1			2.8954
27		1			3.1283
28		6			31.2842
29		5			3.6063
30		6			15.5373
31		4			1.41
32		0			4.9197
33		6			7.6596
34		6			3.3172
35		1			2.1506
36		2			7.2819
37		0			1.829
38		3			3.828
39		0			1.107
40		6			6.0713
41		4			2.8949
42		5			7.4486
43		4			2.2176
44		3			5.5491
45		0			1.829
46		2			5.4845
47		4			2.2955
48		5			6.9596
49		2			3.9419
