0.117673158646	1.05036950111	0.116055727005	0.00464177131653	1.76965928078	-0.121992588043
0.117898464203	1.05030918121	0.115359544754	0.00531983375549	1.76934158802	-0.121450424194
0.118357419968	1.05032777786	0.115490913391	0.00592923164368	1.76893901825	-0.120645523071
0.118443965912	1.04953575134	0.115284919739	0.00621914863586	1.76879966259	-0.120098590851
0.118309020996	1.04922294617	0.121096014977	0.006028175354	1.77041912079	-0.119804978371
0.122055530548	1.03911733627	0.142873048782	0.00512313842773	1.77118194103	-0.11949968338
0.130388975143	1.02446484566	0.156316876411	0.00304555892944	1.77139592171	-0.118619680405
0.141424179077	1.0100672245	0.164620399475	-2.98023223877e-05	1.77145075798	-0.117387652397
0.152274608612	0.999349594116	0.168202877045	-0.00532674789429	1.77125370502	-0.11537528038
0.163308382034	0.993043661118	0.172749757767	-0.0108208656311	1.77081179619	-0.1132376194
