0.0470938682556	1.12899839878	0.082971572876	-0.00505375862122	1.77043139935	-0.112732410431
0.0517907142639	1.13149416447	0.084312081337	-0.00548601150513	1.77018976212	-0.114081382751
0.0533409118652	1.1331359148	0.0842409133911	-0.00579810142517	1.77049589157	-0.114993453026
0.0542888641357	1.13805794716	0.0917147397995	-0.00651597976685	1.77306771278	-0.116164445877
0.053092956543	1.14277231693	0.105175614357	-0.00761270523071	1.77789592743	-0.118873119354
0.0605773925781	1.15106844902	0.125026106834	-0.00803828239441	1.78409934044	-0.123470067978
0.0688898563385	1.15661716461	0.141762852669	-0.00688648223877	1.79122591019	-0.130558252335
0.0790445804596	1.16134405136	0.157758235931	-0.0054931640625	1.79778158665	-0.139223694801
0.0899822711945	1.16552114487	0.168647766113	-0.00415349006653	1.80291509628	-0.147924900055
0.0977611541748	1.16584336758	0.175129413605	-0.00329518318176	1.80657124519	-0.155832409859
0.104763031006	1.16602373123	0.18136548996	-0.0027494430542	1.80891466141	-0.162951231003
0.117448329926	1.16719579697	0.190957307816	-0.00157999992371	1.81022369862	-0.169056415558
0.129066944122	1.16758167744	0.197801828384	-0.000340461730957	1.81067097187	-0.173368573189
0.133197069168	1.16827344894	0.198609232903	-0.000572681427002	1.81037008762	-0.175864696503
