0.0	-0.0	134.466003418	-118.067481995	87.4435348511	177.373291016
0.0	-0.0	134.445739746	-118.387184143	87.1593856812	177.689682007
0.0	-0.0	128.340423584	-118.774383545	88.188079834	178.046554565
0.0	-0.0	113.4401474	59.3219795227	88.8815841675	-1.93832826614
0.0	-0.0	102.449462891	54.8984184265	85.5469589233	-2.05585718155
0.0	-0.0	92.8632125854	50.0440673828	83.279624939	-1.99839103222
0.0	-0.0	84.3861694336	46.3178520203	83.153968811	-1.76165544987
0.0	-0.0	80.7099990845	44.8079986572	84.6751251221	-1.70235145092
0.0	-0.0	79.5236587524	42.9522705078	85.9200668335	-1.68530189991
