0.0587248802185	1.13391649723	0.0997495651245	0.00153183937073	1.7718578577	-0.109772443771
0.059990644455	1.13397955894	0.0980268716812	0.000614643096924	1.77179539204	-0.109872102737
0.0586798191071	1.13336026669	0.097491979599	-0.000244855880737	1.7711212635	-0.109876871109
0.0591719150543	1.13374471664	0.103735327721	0.000365495681763	1.76915967464	-0.108957886696
0.0628638267517	1.14247345924	0.12687087059	0.00555109977722	1.76450169086	-0.107739686966
0.0775761604309	1.15514802933	0.156037092209	0.0126881599426	1.75887989998	-0.106553554535
0.0971500873566	1.16620051861	0.178999781609	0.0191118717194	1.7538818121	-0.106595396996
