-117.310554504	-22.8650379181	136.563018799	5.9605846405	2.01610589027	-1.33432114124
-117.161468506	-23.0981769562	136.325012207	6.01282501221	2.12301421165	-1.27215874195
-117.034461975	-23.3304786682	136.154876709	6.14323043823	2.00609397888	-1.19121026993
-113.089195251	-25.4636077881	133.494735718	6.38835668564	1.35993909836	-1.18488967419
-100.034576416	-34.0940093994	123.537322998	8.18035697937	0.30205821991	-1.17072212696
-86.0040817261	-41.7899017334	114.028427124	11.8030309677	-0.829589605331	-0.966538488865
-75.4912185669	-46.4523200989	106.68019104	15.9661970139	-1.98215889931	-0.588347434998
-68.7203063965	-48.8289070129	103.13848114	19.7426528931	-3.81366848946	-0.111080601811
-61.5854911804	-50.837387085	98.6211166382	22.4240207672	-5.8521900177	0.502728462219
-57.4684448242	-51.3355331421	96.0738677979	23.8160037994	-7.27707195282	0.620428323746
-56.7754592896	-50.4649963379	95.3032455444	24.2105827332	-8.02166652679	0.474965840578
-56.9437637329	-50.5289840698	95.9102706909	23.9518890381	-8.59663772583	0.328219592571
