0.086234331131	1.08482575417	0.0923286676407	-0.0025372505188	1.76607429981	-0.101969242096
0.0864751338959	1.08512878418	0.0918267965317	-0.00304436683655	1.76560664177	-0.102146863937
0.0859179496765	1.08617782593	0.0925192832947	-0.0044527053833	1.76436495781	-0.101318359375
0.0833418369293	1.08197116852	0.0949219465256	-0.00822782516479	1.75968337059	-0.0991530418396
0.0850036144257	1.0658288002	0.112222671509	-0.0161657333374	1.74935126305	-0.0964419841766
0.101858139038	1.04689693451	0.13401055336	-0.0255279541016	1.73800647259	-0.0938272476196
0.128945112228	1.02869462967	0.157114267349	-0.0326411724091	1.73112869263	-0.0918678045273
0.157918691635	1.00895643234	0.170571327209	-0.0363082885742	1.72628879547	-0.0918074846268
0.173792600632	0.998177051544	0.170280575752	-0.0392475128174	1.72218692303	-0.0915052890778
0.187923669815	0.992107152939	0.168479561806	-0.0434372425079	1.72093963623	-0.0910155773163
