0.0	-0.0	136.780578613	73.1160888672	77.7725753784	9.11418819427
0.0	-0.0	136.263778687	73.170715332	77.3460083008	9.26311302185
0.0	-0.0	134.862045288	73.092414856	76.8806152344	9.35885047913
0.0	-0.0	132.724990845	73.526802063	77.7462158203	8.85076713562
0.0	-0.0	128.263748169	73.2567977905	77.6006240845	9.121925354
0.0	-0.0	120.998443604	72.9372253418	77.3558883667	9.15208816528
0.0	-0.0	111.926872253	73.026802063	76.5523071289	9.33968257904
0.0	-0.0	105.002288818	72.7436904907	76.3097305298	8.89629554749
0.0	-0.0	98.7318267822	72.8420639038	76.1990661621	8.68542671204
0.0	-0.0	91.3851623535	73.156211853	73.2841720581	9.38936042786
0.0	-0.0	86.164276123	70.7501449585	80.2202377319	10.9840965271
0.0	-0.0	83.6414413452	-102.041595459	83.5650177002	-168.421539307
0.0	-0.0	81.3818817139	-100.714355469	73.521232605	-167.039642334
0.0	-0.0	78.1287002563	-100.050239563	58.1102027893	-169.856018066
0.0	-0.0	73.9851226807	-96.5659942627	40.988986969	-177.880218506
0.0	-0.0	67.9667892456	-91.9374542236	32.1939697266	-177.867889404
0.0	-0.0	63.5575065613	-88.8575820923	30.8213348389	-177.944198608
0.0	-0.0	61.7211456299	-87.5190963745	30.4990177155	-178.678482056
0.0	-0.0	57.7665176392	-87.3432693481	32.748966217	-178.592529297
