0.145470619202	1.02500605583	0.123172521591	0.00552558898926	1.76695072651	-0.11005115509
0.145439863205	1.02503681183	0.123207688332	0.00526118278503	1.76696324348	-0.109781742096
0.146251678467	1.0261285305	0.12447822094	0.00506091117859	1.76721048355	-0.109778761864
0.150273084641	1.02709031105	0.13316321373	0.00513434410095	1.76932966709	-0.11027097702
0.162691116333	1.03036665916	0.148291707039	0.00565242767334	1.77365517616	-0.111959338188
0.177191495895	1.03182029724	0.157362699509	0.0065438747406	1.7799090147	-0.11626958847
0.189401626587	1.0331184864	0.162055253983	0.00777006149292	1.78675818443	-0.123165845871
0.202651262283	1.03457474709	0.166847109795	0.0101373195648	1.79406869411	-0.131819009781
0.217800378799	1.03566551208	0.171156287193	0.0114946365356	1.79899895191	-0.140369415283
0.231777191162	1.03691959381	0.173960566521	0.0122380256653	1.8012624979	-0.147796988487
0.244568347931	1.03847193718	0.175366401672	0.0126621723175	1.80263364315	-0.15392947197
