0.0644409656525	1.14524900913	0.0997253656387	-0.0158638954163	1.76200711727	-0.114307761192
0.065596818924	1.14481639862	0.0988892316818	-0.0153732299805	1.76205742359	-0.11492061615
0.0665531158447	1.14491689205	0.0988991260529	-0.0150721073151	1.76244962215	-0.115834474564
0.0659739971161	1.14325928688	0.100568771362	-0.0158388614655	1.76208901405	-0.116606712341
0.0646214485168	1.14028918743	0.108909845352	-0.019458770752	1.76029121876	-0.116724491119
0.0683860778809	1.13858556747	0.126174330711	-0.0260038375854	1.75680434704	-0.116240262985
0.0777857303619	1.14186048508	0.141709446907	-0.0341680049896	1.75225579739	-0.115340709686
0.0867297649384	1.14546716213	0.15238070488	-0.0430328845978	1.74791693687	-0.113907933235
0.0948610305786	1.14830422401	0.158917784691	-0.0533049106598	1.74480009079	-0.11288189888
0.099228143692	1.14747023582	0.162415266037	-0.0630714893341	1.74316358566	-0.113000631332
0.0992307662964	1.14165425301	0.166174650192	-0.0702986717224	1.73981380463	-0.114314317703
