0.0653486251831	1.09549641609	0.0668637752533	-0.0127749443054	1.76678574085	-0.121373414993
0.0647699832916	1.09475445747	0.065703868866	-0.0131101608276	1.76660203934	-0.121870994568
0.0644977092743	1.0933252573	0.0681581497192	-0.013564825058	1.76719868183	-0.122199058533
0.0638113021851	1.07431328297	0.0923933982849	-0.0151445865631	1.76843941212	-0.122449874878
0.0716857910156	1.04966926575	0.111812233925	-0.0181283950806	1.76880669594	-0.122472763062
0.0827901363373	1.02655124664	0.122824907303	-0.0215835571289	1.76873004436	-0.120854854584
0.0944244861603	1.00873708725	0.126802325249	-0.025547504425	1.76721715927	-0.117972373962
