0.229507684708	1.11535692215	-0.0151960849762	0.0398914813995	1.74003124237	-0.131039500237
0.228773355484	1.11550831795	-0.0143605470657	0.0387344360352	1.74034678936	-0.130108118057
0.227413415909	1.11602759361	-0.013439655304	0.0378127098083	1.74077272415	-0.129074692726
0.224509716034	1.11566329002	-0.0124841928482	0.0363199710846	1.74117803574	-0.12834250927
0.220931529999	1.11461830139	-0.0118834972382	0.0337798595428	1.74207150936	-0.127627372742
0.219054698944	1.11429047585	-0.011535525322	0.0310940742493	1.7439186573	-0.127019643784
0.216556072235	1.11487269402	-0.0108214616776	0.0290250778198	1.74693179131	-0.126969337463
0.208128929138	1.11821222305	-0.00957596302032	0.0276169776917	1.75011301041	-0.127943515778
0.189095258713	1.12567257881	-0.00979375839233	0.0267429351807	1.75271081924	-0.129263043404
0.16605091095	1.13189196587	-0.0122785568237	0.0270199775696	1.75580334663	-0.130014896393
0.151183605194	1.13929617405	-0.0178756713867	0.0265781879425	1.76089954376	-0.129664421082
0.14613199234	1.14209210873	-0.0203280448914	0.0267956256866	1.76614248753	-0.130000472069
0.146688938141	1.1424626112	-0.01999604702	0.0275962352753	1.77130961418	-0.130602836609
0.148352861404	1.14243519306	-0.019318819046	0.0292057991028	1.77639472485	-0.131637454033
0.148555040359	1.14278769493	-0.0192677974701	0.0303664207458	1.77930724621	-0.132882595062
0.147303819656	1.14210402966	-0.019345998764	0.0297563076019	1.77996516228	-0.134381771088
0.145601034164	1.14268565178	-0.019561290741	0.029648065567	1.77957212925	-0.13541162014
0.142656326294	1.14897727966	-0.0240831375122	0.0308964252472	1.77939915657	-0.136070489883
0.143505811691	1.15359175205	-0.0287852287292	0.0325996875763	1.7796009779	-0.136624455452
0.145874738693	1.15874195099	-0.0335432291031	0.0348465442657	1.77997481823	-0.136956214905
0.145970106125	1.16017723083	-0.0354318618774	0.0370326042175	1.77957510948	-0.137292385101
0.147150039673	1.16049456596	-0.0373849868774	0.0388171672821	1.77894043922	-0.137632369995
0.148776292801	1.16039431095	-0.0386983156204	0.0400319099426	1.77880728245	-0.138286113739
0.14968252182	1.16019248962	-0.0396392345428	0.0408098697662	1.7786873579	-0.139185428619
0.149984836578	1.16257190704	-0.0416722297668	0.0416543483734	1.77920401096	-0.140617370605
0.14924955368	1.16341435909	-0.0421562194824	0.0419516563416	1.78009521961	-0.142503023148
0.149739980698	1.16435527802	-0.0425666570663	0.0417821407318	1.7805416584	-0.144231319427
0.149472475052	1.16433060169	-0.0427441596985	0.0416436195374	1.78086769581	-0.145734071732
0.150130748749	1.16527068615	-0.0434217453003	0.041467666626	1.7815592289	-0.147557139397
0.150178432465	1.16570568085	-0.0436671972275	0.0413043498993	1.78291964531	-0.149604558945
0.149908781052	1.16605508327	-0.0434995889664	0.0411686897278	1.7843272686	-0.151647567749
0.149319171906	1.16663599014	-0.0433948040009	0.0410423278809	1.78475785255	-0.153443813324
0.148097991943	1.166888237	-0.0429210662842	0.0411877632141	1.78462696075	-0.153983831406
0.14705491066	1.16796267033	-0.0429263114929	0.0414628982544	1.78363263607	-0.153511047363
0.147531270981	1.16796445847	-0.0416960716248	0.0435888767242	1.78247857094	-0.152661323547
0.147727966309	1.16750848293	-0.0410203933716	0.0464942455292	1.78329777718	-0.151590228081
0.148009061813	1.16705489159	-0.0408074855804	0.0495731830597	1.78443729877	-0.150690555573
0.149588346481	1.16615188122	-0.0394670963287	0.0520393848419	1.78568840027	-0.149590730667
0.15899682045	1.16548120975	-0.0362370014191	0.0532870292664	1.78526484966	-0.14792740345
0.160346984863	1.16601157188	-0.0353848934174	0.0533187389374	1.78493916988	-0.145976901054
0.162187099457	1.16557765007	-0.0344874858856	0.0531783103943	1.78456175327	-0.144612073898
0.162856578827	1.16501784325	-0.0336470603943	0.0540323257446	1.78545534611	-0.143736720085
0.16327548027	1.16314649582	-0.0325930118561	0.0545718669891	1.78655743599	-0.143748521805
0.161988019943	1.16298544407	-0.0325613021851	0.0545198917389	1.78782939911	-0.144043922424
0.161334514618	1.16231477261	-0.0315837860107	0.0537905693054	1.78823697567	-0.144617199898
0.162225484848	1.16332864761	-0.0311785936356	0.0534677505493	1.78921031952	-0.146645307541
