16.4178142548	-2.17488527298	6.58224964142	14.2166099548	17.5455322266	34.120677948
16.0848636627	-2.38530373573	6.77996444702	14.1009654999	17.4263858795	34.0904159546
16.1320114136	-2.27895069122	6.71187067032	13.8661317825	17.3158397675	33.6657600403
15.5068044662	-2.55689382553	6.87682962418	13.3588180542	17.0463542938	32.5502586365
14.9033946991	-2.70892572403	6.98785114288	12.416387558	16.6108264923	31.2979812622
14.6113452911	-2.83593916893	6.96560001373	10.9262485504	15.6887931824	29.7019443512
13.9966335297	-3.77668166161	7.02316141129	9.4514837265	14.4334659576	28.1434288025
13.1121330261	-5.0227265358	6.15531730652	8.06698513031	13.3128662109	26.9981479645
11.2017002106	-7.71919631958	4.37855005264	6.90731668472	12.8002519608	26.6592216492
10.776594162	-10.7356042862	2.50292062759	5.88024997711	12.4880580902	26.2054824829
9.90885639191	-14.1401662827	1.1544367075	4.49813222885	11.9157094955	24.9294910431
9.3818025589	-15.1990604401	0.732401549816	2.80845928192	11.1731700897	22.7657833099
8.9407453537	-16.3061447144	0.832762897015	1.2414714098	10.3658008575	20.3911495209
8.34829616547	-17.09907341	0.633161485195	-0.072999432683	9.49829292297	18.3804206848
6.38130378723	-17.28332901	0.431771993637	-1.12310695648	9.38968276978	17.4187793732
1.80753982067	-17.5785999298	1.3005746603	-1.91775560379	9.72506141663	17.4616203308
-1.37756478786	-19.4102401733	1.68195641041	-2.02431845665	9.94190406799	17.6464862823
-2.48055243492	-21.9770183563	1.79358029366	-1.88632488251	9.72343540192	17.5745353699
-4.3300485611	-23.3838233948	2.10949039459	-1.92592263222	9.46126747131	17.3406600952
-7.04251432419	-23.8433990479	2.01826381683	-1.9465316534	9.28733825684	17.3054618835
-9.37195968628	-25.9411334991	2.95396304131	-2.02850675583	9.21160697937	17.3254165649
-10.319062233	-27.9009933472	3.55322647095	-2.12248301506	8.73853588104	17.1251125336
-11.0460281372	-29.1476383209	4.23139476776	-2.03321409225	7.99493360519	16.9077701569
-11.4847021103	-30.6477642059	4.57114267349	-2.12707805634	6.79672527313	16.6328144073
-11.0895118713	-30.9296169281	4.20866346359	-2.246124506	5.68544197083	16.3009147644
-11.1558761597	-31.3784751892	4.46860980988	-2.21515130997	5.01737833023	16.2605762482
-11.4152011871	-32.1018180847	4.54161834717	-2.03366780281	4.53245735168	16.1904258728
-11.1489048004	-32.6942329407	4.30739784241	-1.95409929752	3.42404389381	16.0935955048
-10.5556735992	-33.3056030273	4.1893453598	-1.91657423973	2.21766448021	15.8120365143
-11.2766122818	-34.5585861206	4.65669107437	-1.85693204403	1.06741273403	15.5955476761
-11.5175828934	-35.1661567688	4.80547952652	-1.78748238087	0.191033706069	15.4070005417
-10.6901760101	-35.8381233215	4.43007707596	-1.56388568878	-0.572312176228	15.1886291504
-10.0213460922	-35.839389801	4.24703836441	-1.03447067738	-1.03636372089	14.8438749313
-10.2160434723	-36.4132957458	4.62770462036	-0.417493999004	-1.60870742798	14.6572675705
-10.0543384552	-36.2825469971	4.44024276733	-0.52086275816	-2.39869737625	14.3566646576
-10.2169570923	-35.9828834534	4.38167953491	-0.65408295393	-2.80151152611	14.2328166962
