0.0	-0.0	129.823532104	-124.68813324	89.5929946899	173.775848389
0.0	-0.0	129.845352173	-124.580337524	89.4924163818	173.782867432
0.0	-0.0	129.89793396	-124.718841553	89.3840713501	173.891204834
0.0	-0.0	127.53401947	-130.196807861	89.5854568481	174.711593628
0.0	-0.0	114.112442017	-147.304077148	89.1256866455	175.380096436
0.0	-0.0	103.391914368	-167.300888062	88.4630279541	175.966430664
0.0	-0.0	90.7463684082	174.003463745	88.5723800659	177.366958618
0.0	-0.0	78.4811096191	161.303665161	88.8181991577	177.864959717
