0.0	-0.0	136.965774536	56.3075294495	87.9188613892	-7.48078727722
0.0	-0.0	136.787322998	56.134929657	87.8722915649	-7.48788928986
0.0	-0.0	136.803512573	55.8844223022	88.0139007568	-7.19059991837
0.0	-0.0	131.736953735	-124.840232849	89.0308761597	173.262863159
0.0	-0.0	125.371414185	-127.534439087	80.5275650024	174.80418396
0.0	-0.0	124.031089783	-132.33416748	69.6832427979	179.174072266
0.0	-0.0	123.035270691	-138.107025146	59.9136924744	-176.391418457
0.0	-0.0	122.336036682	-141.603469849	52.6961936951	-172.607025146
0.0	-0.0	122.700386047	-141.403533936	46.9078941345	-169.256668091
0.0	-0.0	124.669654846	-137.288162231	43.1044311523	-164.078918457
0.0	-0.0	127.633804321	-133.355361938	42.5045776367	-155.506149292
0.0	-0.0	129.5834198	-129.436538696	43.6560211182	-143.287918091
0.0	-0.0	128.467773438	-125.809654236	45.1887054443	-135.104598999
0.0	-0.0	127.18296814	-126.618484497	44.9809074402	-138.288146973
0.0	-0.0	126.698944092	-131.507919312	42.2021522522	-148.68270874
0.0	-0.0	126.653274536	-138.28855896	35.7847251892	-164.479232788
0.0	-0.0	126.52205658	-147.478057861	33.3886375427	174.573226929
0.0	-0.0	126.508003235	-154.544876099	34.1117210388	157.14692688
0.0	-0.0	127.047393799	-153.193008423	36.0653877258	156.336898804
0.0	-0.0	126.544563293	-151.523635864	34.9461784363	158.048156738
0.0	-0.0	127.481536865	-150.525802612	33.8035316467	159.257232666
0.0	-0.0	126.703842163	-149.749694824	33.4586334229	160.104187012
0.0	-0.0	126.841163635	-149.435302734	33.476184845	160.735031128
0.0	-0.0	126.957687378	-149.317077637	31.8552436829	163.598800659
0.0	-0.0	127.198257446	-155.181259155	31.2815513611	165.954666138
0.0	-0.0	126.970878601	-168.233901978	31.0006637573	166.826446533
0.0	-0.0	126.93132019	179.50038147	31.3931827545	171.976348877
0.0	-0.0	126.485198975	168.633575439	31.6933002472	173.865905762
0.0	-0.0	126.69934082	167.964797974	31.4563770294	175.381103516
0.0	-0.0	126.970787048	171.918701172	31.1724720001	177.111938477
0.0	-0.0	127.233283997	173.798065186	30.8001747131	178.722869873
0.0	-0.0	127.061462402	173.654144287	30.3054466248	179.844070435
0.0	-0.0	126.821205139	173.172729492	30.5961952209	-178.397720337
0.0	-0.0	126.613113403	174.024002075	31.0193824768	-177.992523193
0.0	-0.0	126.349487305	174.888977051	31.0837726593	178.52456665
0.0	-0.0	126.399238586	172.919082642	31.5866374969	168.301269531
0.0	-0.0	126.262397766	166.232147217	32.1936264038	154.287918091
0.0	-0.0	126.353157043	162.46762085	33.1954269409	147.65032959
0.0	-0.0	125.032440186	163.829208374	33.4911422729	137.34211731
0.0	-0.0	125.080574036	166.98777771	34.1851463318	126.405296326
0.0	-0.0	125.537414551	169.987518311	32.6906585693	117.745605469
0.0	-0.0	126.011772156	172.286422729	31.187335968	119.857643127
0.0	-0.0	125.362915039	168.542053223	30.7389202118	118.759666443
0.0	-0.0	120.444770813	169.398483276	29.7397155762	119.472625732
0.0	-0.0	116.936912537	169.596878052	29.1438140869	119.619010925
0.0	-0.0	114.425262451	169.381973267	28.1665630341	120.113433838
0.0	-0.0	108.061927795	169.358810425	27.5913352966	120.420120239
0.0	-0.0	102.674995422	169.772262573	27.4751815796	121.140937805
0.0	-0.0	101.014556885	169.728607178	26.9866313934	121.834442139
0.0	-0.0	102.783531189	168.681793213	26.2353134155	122.912895203
