-131.985473633	7.10119485855	130.362243652	3.72535967827	1.95905506611	-2.71813941002
-131.882415771	6.95781993866	130.195266724	3.70497846603	1.92924618721	-2.67066454887
-131.851715088	6.7053732872	130.162536621	3.71511816978	1.8236027956	-2.71368670464
-130.482681274	5.29104185104	129.880493164	3.41233706474	1.84711110592	-2.75428438187
-123.669166565	-0.674720168114	128.686645508	1.33131241798	2.64970350266	-2.44274187088
-119.384803772	-3.66863083839	129.30078125	-1.89773774147	4.24486637115	-2.08556604385
-118.574806213	-4.43743991852	130.076400757	-4.86908006668	6.23275852203	-1.62254297733
-115.422149658	-6.56176185608	128.942153931	-7.10590553284	9.21543312073	-1.21098864079
-109.361953735	-11.6615190506	127.824790955	-8.71640300751	11.2791461945	-0.778881132603
-102.135070801	-17.4554901123	125.230072021	-10.5569295883	12.6189289093	-0.64938378334
-92.171875	-22.5462379456	118.964561462	-12.5520248413	13.6670379639	-0.553799450397
-82.1841888428	-27.8407611847	111.623413086	-13.9236488342	15.5651197433	-0.553134977818
-73.5575714111	-33.2556343079	105.809936523	-14.4541387558	16.7562217712	-0.442365169525
