0.0	-0.0	134.588485718	-122.324241638	87.9032211304	170.463363647
0.0	-0.0	134.502410889	-122.101593018	87.7439041138	170.418838501
0.0	-0.0	134.446105957	-121.992485046	87.8785095215	170.333999634
0.0	-0.0	134.136123657	-122.3695755	88.0181274414	170.243041992
0.0	-0.0	133.271179199	-127.049720764	88.2444229126	170.720474243
0.0	-0.0	129.35925293	-136.11428833	88.4718704224	171.276916504
0.0	-0.0	122.030525208	-147.671081543	89.6742477417	171.820846558
0.0	-0.0	112.610618591	20.9488449097	89.3290252686	-7.18682289124
0.0	-0.0	103.720458984	8.80197620392	89.1461029053	-6.9601984024
0.0	-0.0	96.5702056885	-2.36463975906	88.8251800537	-7.24150419235
0.0	-0.0	91.324836731	-12.0546073914	88.8902359009	-6.74563217163
0.0	-0.0	85.1529693604	-21.0433731079	88.7970581055	-6.22953605652
0.0	-0.0	79.5984344482	-27.3509044647	88.7509918213	-5.98453521729
