0.0662109851837	1.1324545145	0.0927503108978	-0.0156574249268	1.77102220058	-0.108935236931
0.066169500351	1.13254249096	0.0923085212708	-0.0153732299805	1.7714754343	-0.109737157822
0.0665686130524	1.13292372227	0.0934071540833	-0.0159401893616	1.77154147625	-0.110125541687
0.066107749939	1.13079023361	0.104061841965	-0.0159687995911	1.77043652534	-0.109811067581
0.0700216293335	1.13340258598	0.124100327492	-0.0148446559906	1.76681208611	-0.109102606773
0.0772352218628	1.13893997669	0.134520292282	-0.0129888057709	1.76330256462	-0.108022451401
0.0812683105469	1.14102959633	0.139466166496	-0.0107691287994	1.75964772701	-0.10696554184
0.0846383571625	1.14162313938	0.143317103386	-0.00807332992554	1.75602567196	-0.105984568596
0.090761423111	1.14325237274	0.149673581123	-0.00366449356079	1.75204467773	-0.105127573013
0.0950953960419	1.14350819588	0.153783679008	0.00110530853271	1.74853169918	-0.105162739754
0.0970985889435	1.14372372627	0.155940294266	0.00528597831726	1.74617004395	-0.10564661026
0.0995941162109	1.14366960526	0.159337162971	0.00874066352844	1.74488937855	-0.10618519783
