0.107012271881	0.865570306778	0.110789895058	0.0479848384857	1.73400902748	-0.0298049449921
0.105969905853	0.866563558578	0.112274765968	0.0475590229034	1.73426902294	-0.0304410457611
0.105460166931	0.866761684418	0.113411188126	0.0467102527618	1.73430764675	-0.0300186872482
0.105387926102	0.868727445602	0.117158889771	0.0450019836426	1.73410975933	-0.0287928581238
0.106105804443	0.86928486824	0.119717955589	0.0424799919128	1.73385334015	-0.0271472930908
0.106644153595	0.868297576904	0.12070286274	0.0398533344269	1.73346757889	-0.0253677368164
0.106940746307	0.867370843887	0.122959136963	0.0368621349335	1.73200166225	-0.0231146812439
0.109783887863	0.874790668488	0.142316699028	0.0333383083344	1.72769021988	-0.0202003717422
0.124242067337	0.884722471237	0.170704960823	0.0287771224976	1.72245264053	-0.016367316246
0.14331817627	0.893359184265	0.193436026573	0.0229027271271	1.71655905247	-0.012903213501
0.168153524399	0.901807785034	0.212519288063	0.0170512199402	1.7104973793	-0.00999236106873
0.196049690247	0.907128810883	0.226485729218	0.0128009319305	1.70386552811	-0.00775980949402
0.22295498848	0.909140348434	0.233735322952	0.0102095603943	1.69755017757	-0.00674819946289
0.242871761322	0.907663345337	0.234354972839	0.00770711898804	1.69379091263	-0.00606989860535
0.25963640213	0.901289463043	0.229178905487	0.00417327880859	1.6913626194	-0.00695037841797
0.274390935898	0.892124652863	0.221224308014	0.00246906280518	1.68795001507	-0.00790321826935
0.282027482986	0.885174751282	0.214358091354	0.00243973731995	1.6856161356	-0.00871562957764
0.283249855042	0.884026050568	0.21073281765	0.00293612480164	1.68404114246	-0.0101704597473
