0.0	-0.0	134.078887939	-122.538665771	86.1111602783	172.579421997
0.0	-0.0	133.915786743	-123.090316772	86.2770004272	172.654205322
0.0	-0.0	133.557235718	-122.88256073	86.7260131836	172.793914795
0.0	-0.0	130.842788696	-123.826538086	89.1254501343	173.065032959
0.0	-0.0	121.776069641	54.6496391296	84.4526138306	-6.62428045273
0.0	-0.0	118.410263062	52.3437347412	76.6753845215	-5.81028175354
0.0	-0.0	118.128746033	50.578704834	67.3928985596	-5.18467903137
0.0	-0.0	117.501899719	52.2693328857	55.204914093	-5.71929597855
0.0	-0.0	113.255081177	56.7369880676	43.7587127686	-7.77985191345
0.0	-0.0	105.941772461	59.3937339783	34.3031425476	-8.49491691589
0.0	-0.0	96.969329834	58.6365203857	27.8455867767	-7.5648393631
0.0	-0.0	88.3894195557	56.8923873901	23.2035503387	-6.3551940918
0.0	-0.0	82.0683822632	57.8394775391	19.1776065826	-6.58879518509
0.0	-0.0	78.7136688232	59.7197189331	16.3598403931	-7.03432130814
0.0	-0.0	75.8695907593	60.9352684021	13.9443683624	-7.62011575699
0.0	-0.0	77.6905822754	61.8342552185	10.4113197327	-8.07404327393
0.0	-0.0	81.3433685303	63.0000267029	7.35665225983	-8.6851234436
0.0	-0.0	89.4532394409	65.3787918091	6.02674484253	-10.0320005417
0.0	-0.0	100.297988892	67.4443664551	5.09088230133	-11.1542949677
0.0	-0.0	95.3035812378	69.0687866211	3.72050881386	-12.0550193787
0.0	-0.0	94.9748153687	69.8617553711	2.47330260277	-12.9203615189
0.0	-0.0	93.8829421997	70.4861450195	1.4008024931	-13.5353069305
0.0	-0.0	89.2768859863	71.1557312012	0.675664782524	-13.8701095581
0.0	-0.0	84.4085006714	72.1174316406	1.0390599966	-14.3077507019
