0.0	-0.0	139.240844727	85.1108322144	81.6615905762	20.9840278625
0.0	-0.0	137.943740845	85.0483322144	81.7223815918	20.8585090637
0.0	-0.0	135.90788269	84.7141799927	81.6623306274	20.9225482941
0.0	-0.0	132.074035645	84.8234786987	82.1061782837	20.9698867798
0.0	-0.0	126.740715027	84.2296218872	82.4586029053	21.0729179382
0.0	-0.0	119.933685303	83.6513977051	83.096824646	20.7059860229
0.0	-0.0	111.524864197	83.4007949829	83.116317749	20.4873733521
0.0	-0.0	101.294776917	82.6066970825	83.5647888184	21.0261192322
0.0	-0.0	90.5524673462	80.2151031494	85.8897171021	22.0770301819
0.0	-0.0	80.3015289307	-102.852508545	88.5255432129	-156.58430481
0.0	-0.0	69.9158401489	-90.7479400635	78.7385406494	-163.56892395
0.0	-0.0	61.3118553162	-87.5799560547	67.8307952881	-170.895828247
0.0	-0.0	55.1199226379	-88.5886383057	64.0241622925	-171.897537231
0.0	-0.0	51.4575233459	-91.3810653687	61.1315116882	-173.452331543
0.0	-0.0	46.5259284973	-95.7718505859	58.9692001343	-173.711486816
0.0	-0.0	42.3627510071	-102.902732849	58.3372688293	-174.496139526
0.0	-0.0	40.3883132935	-102.914634705	58.1646881104	-173.447418213
0.0	-0.0	40.6146697998	-104.656745911	57.3301200867	-174.336914062
0.0	-0.0	40.4065170288	-104.828575134	57.604133606	-174.505126953
0.0	-0.0	41.6926612854	-106.567886353	59.7163543701	-174.539306641
0.0	-0.0	42.1875648499	-107.963539124	59.9163208008	-176.581069946
0.0	-0.0	42.7332420349	-109.222938538	58.271194458	-175.671569824
0.0	-0.0	43.1092453003	-109.388206482	58.1175537109	-174.629440308
0.0	-0.0	42.73853302	-109.533813477	57.6067008972	-174.913070679
0.0	-0.0	44.1844978333	-109.866409302	58.0485954285	-175.144729614
0.0	-0.0	44.1938018799	-109.593833923	59.0702705383	-175.251159668
0.0	-0.0	44.7578201294	-108.99344635	60.8930549622	-175.144714355
0.0	-0.0	45.0586433411	-106.64402771	64.1272583008	-175.174438477
0.0	-0.0	45.0740623474	-106.46472168	64.7594528198	-173.037765503
0.0	-0.0	45.0806388855	-103.469467163	53.6304206848	-171.768310547
0.0	-0.0	45.5267486572	-103.91104126	46.6282463074	-168.592788696
0.0	-0.0	45.5712623596	-103.85887146	37.8923416138	-164.677780151
0.0	-0.0	45.9442901611	-103.23135376	32.7463645935	-164.963607788
0.0	-0.0	46.0194740295	-101.758529663	31.6341400146	-165.203567505
0.0	-0.0	46.2150306702	-99.7883758545	31.7165393829	-167.865814209
0.0	-0.0	46.1577415466	-96.7518692017	31.8935222626	-171.251403809
0.0	-0.0	45.9819984436	-97.9549331665	33.9937400818	-170.01109314
0.0	-0.0	45.4770545959	-98.2851409912	33.5212669373	-170.500823975
0.0	-0.0	44.6964149475	-97.9284286499	33.442035675	-170.525924683
0.0	-0.0	44.8000946045	-98.0687103271	33.6133384705	-170.547424316
0.0	-0.0	44.3411636353	-97.6377029419	33.7763328552	-171.43560791
0.0	-0.0	43.0152626038	-97.568939209	33.7672615051	-171.491317749
0.0	-0.0	39.7123985291	-97.5940170288	33.8374519348	-171.951980591
0.0	-0.0	37.8835449219	-97.4765472412	33.9484672546	-171.856628418
0.0	-0.0	34.9189987183	-97.842666626	33.9696769714	-172.224060059
0.0	-0.0	29.9648571014	-97.9701538086	34.0610275269	-172.558349609
0.0	-0.0	27.4549827576	-98.6023483276	34.0136032104	-172.771240234
0.0	-0.0	27.3233566284	-98.5825195312	34.2407035828	-172.720687866
0.0	-0.0	27.9948329926	-99.3122634888	34.7380218506	-172.577362061
0.0	-0.0	28.4244499207	-99.6726074219	35.0403671265	-172.445953369
0.0	-0.0	28.5670795441	-99.5933990479	35.5451622009	-172.204040527
0.0	-0.0	28.126909256	-99.9712524414	35.7246170044	-172.47492981
0.0	-0.0	29.3316345215	-100.22328186	36.0771636963	-172.72694397
0.0	-0.0	31.0378055573	-99.6332855225	36.104549408	-172.709503174
0.0	-0.0	22.885843277	-98.7938613892	36.131980896	-172.799545288
0.0	-0.0	15.2992649078	-98.9321670532	36.1234321594	-172.721954346
0.0	-0.0	15.9977588654	-98.7898101807	36.379234314	-172.809448242
0.0	-0.0	15.8551168442	-98.9079055786	36.5659713745	-173.022415161
0.0	-0.0	16.2819976807	-100.356651306	36.5729637146	-173.339004517
0.0	-0.0	16.022480011	-101.411193848	36.7107315063	-172.886077881
0.0	-0.0	15.8735513687	-102.553024292	37.9129829407	-171.941558838
0.0	-0.0	15.7949266434	-107.517791748	41.2671775818	-169.999160767
0.0	-0.0	16.2058448792	-108.003883362	40.6469306946	-170.782592773
0.0	-0.0	16.7581806183	-107.815338135	41.2769432068	-170.57131958
0.0	-0.0	17.9462909698	-107.245384216	41.3585510254	-171.172424316
0.0	-0.0	20.2450275421	-106.676971436	41.0378189087	-172.204803467
0.0	-0.0	23.1964092255	-102.827087402	37.7990150452	-175.783615112
0.0	-0.0	25.1495609283	-99.2105941772	36.6387825012	-175.463516235
0.0	-0.0	27.6029376984	-95.8342437744	34.2756614685	-177.383712769
0.0	-0.0	29.9207172394	-93.2825393677	32.3190841675	-177.78276062
0.0	-0.0	31.1730327606	-87.9472045898	31.2921791077	-174.205413818
0.0	-0.0	31.937253952	-84.1081466675	29.4553222656	-173.909240723
0.0	-0.0	31.6987457275	-78.004447937	28.517906189	-173.401123047
0.0	-0.0	30.9181480408	-76.1408691406	26.772069931	-175.786956787
0.0	-0.0	31.1835212708	-77.3086395264	25.6653728485	-177.438110352
0.0	-0.0	30.8641967773	-77.4412612915	26.8498497009	-177.718795776
0.0	-0.0	32.1557121277	-78.5542907715	28.3512516022	-177.833679199
0.0	-0.0	34.8876457214	-79.0085601807	28.402217865	-178.719192505
0.0	-0.0	36.956817627	-79.3009262085	28.6227626801	-179.168151855
0.0	-0.0	37.5656814575	-79.5094070435	28.9461040497	-179.358322144
0.0	-0.0	37.9064216614	-80.0792160034	28.9384937286	179.492614746
0.0	-0.0	40.327583313	-80.7072601318	28.4757518768	178.888748169
0.0	-0.0	42.6533813477	-81.5442276001	28.767250061	178.315887451
0.0	-0.0	43.9592971802	-81.8121948242	29.0330104828	178.392211914
0.0	-0.0	47.175994873	-82.2804336548	29.2184619904	178.026046753
0.0	-0.0	50.0436553955	-82.103263855	29.169095993	177.847106934
