-6.46170425415	3.5567138195	-19.5753154755	-4.61004543304	11.11124897	32.9075050354
-6.4145565033	3.59541249275	-19.6209926605	-4.53513717651	11.3156099319	32.7083091736
-6.67242097855	3.51039743423	-19.6721801758	-4.62021970749	11.3460597992	31.8769569397
-7.12323236465	3.37975168228	-19.9761066437	-6.19467067719	11.886464119	29.3174495697
-7.90650463104	2.82585144043	-20.282541275	-11.4007787704	13.8665704727	25.4394130707
-9.30611610413	2.48139429092	-19.6965007782	-17.4263935089	15.0867290497	22.1379833221
-16.0608978271	0.0551823601127	-14.7149295807	-20.2079963684	15.213634491	21.2041664124
-25.1668586731	-5.08376407623	-8.76338863373	-19.043712616	14.9742298126	21.6448116302
-34.9971618652	-7.73560190201	-4.22556781769	-16.7347431183	15.0090589523	21.6288967133
-41.2573852539	-7.60222578049	0.705846607685	-14.9721679688	15.5145988464	20.8688220978
-40.7660827637	-7.31646490097	1.57121396065	-13.291059494	16.2761993408	20.1656551361
-38.6573371887	-5.60070180893	2.10536384583	-11.2941865921	17.0899181366	20.2047576904
-38.1892700195	-4.07310295105	3.03598403931	-9.21635246277	18.5749282837	21.0478496552
-38.0735702515	-2.64418768883	2.92871642113	-7.23803281784	19.1275691986	22.3063144684
-37.8938903809	-2.14407300949	3.072245121	-6.48564577103	19.1979064941	22.4491634369
-37.7798233032	-1.77214622498	2.99230957031	-6.97317218781	18.7627105713	22.1407089233
-37.9306755066	-1.32338058949	2.75315928459	-7.56518650055	18.5655441284	20.8456859589
-38.4181175232	-1.1502109766	2.68176412582	-7.54538965225	18.5948104858	18.8745365143
-39.017288208	-1.31109702587	2.58439135551	-7.40522098541	18.4767456055	17.282497406
-39.4720115662	-1.72072267532	2.77731275558	-7.151512146	18.5701637268	17.1770458221
-39.3346633911	-1.81867575645	3.1770927906	-6.65080976486	18.5543231964	17.2246437073
-38.6907615662	-1.8213391304	3.7733399868	-5.91918897629	18.6653957367	17.3055419922
-38.2912712097	-1.73028898239	3.845454216	-4.59666728973	18.526725769	17.5150794983
-38.3684234619	-1.7502553463	3.87105679512	-3.29814457893	18.4769668579	17.9793262482
-38.3196678162	-1.66345751286	3.83186769485	-1.321382761	18.1596927643	18.6745491028
-38.3906936646	-1.71372032166	4.01170253754	0.427584826946	18.0603713989	19.0464820862
-38.0897865295	-1.7731333971	3.83060956001	1.26247549057	18.0394630432	18.820110321
-37.8074684143	-1.58770918846	3.98923826218	1.4510217905	17.8944206238	18.4341392517
