11.8785171509	-16.780374527	0.504877030849	20.5520858765	7.16675233841	35.6424369812
12.2670946121	-16.4550018311	0.45507133007	20.7341022491	7.13654756546	35.4819717407
12.0266227722	-16.0944690704	0.686388671398	20.7701911926	7.29237556458	35.2171554565
12.8620481491	-15.2325611115	0.637180685997	20.776386261	7.73626279831	34.6170387268
16.5553092957	-12.4168252945	-0.847306907177	21.8480739594	8.74614715576	32.5788726807
19.9439964294	-10.7395839691	-1.85982882977	21.8445339203	11.015786171	27.7997074127
20.9548740387	-9.85448265076	-1.91854727268	21.5745124817	12.8072814941	23.4317550659
21.5499801636	-8.71356582642	-1.90945410728	21.389509201	14.6182537079	19.6633358002
22.085351944	-7.57461977005	-1.96040093899	21.2877025604	16.5564517975	17.2815666199
23.053609848	-7.36845207214	-2.34450316429	22.5216178894	17.924621582	16.4938106537
22.0657176971	-7.7439365387	-1.59422969818	24.2693099976	18.7200622559	16.5174751282
21.0877742767	-7.58693170547	-0.813070237637	25.6182346344	19.2291603088	16.2115249634
23.5643138885	-5.89197826385	-1.58984434605	27.1057262421	19.587480545	15.9536724091
26.1067466736	-4.44744873047	-2.42023825645	28.3338928223	19.8622303009	15.6853666306
27.182554245	-3.44659757614	-2.90034103394	29.2007446289	20.5077438354	15.6974315643
27.1214160919	-2.96991443634	-3.16381049156	29.4514389038	21.4465427399	15.707028389
26.6361618042	-2.97053003311	-3.42723727226	29.1983585358	22.2491493225	15.7200422287
25.7823448181	-1.84449589252	-3.89854621887	28.7001476288	23.1340408325	15.996339798
