0.0	-0.0	130.645370483	75.8725357056	71.627822876	7.98399877548
0.0	-0.0	130.558227539	75.7766647339	71.5902481079	7.92680692673
0.0	-0.0	130.686447144	75.4174728394	71.5425338745	8.11649608612
0.0	-0.0	130.66015625	75.2096557617	71.0807952881	8.32126903534
0.0	-0.0	131.405059814	74.9098052979	71.0100708008	8.43596363068
0.0	-0.0	131.080917358	74.7416534424	70.7228851318	8.50018596649
0.0	-0.0	130.632003784	75.1516265869	70.6679153442	8.4532623291
0.0	-0.0	131.61946106	74.9824295044	70.5519256592	8.27124977112
0.0	-0.0	134.136932373	74.7828903198	70.4666976929	8.13169002533
0.0	-0.0	134.785690308	74.4889984131	70.4914779663	8.09381103516
0.0	-0.0	136.174240112	74.7459106445	70.6017990112	8.13900279999
0.0	-0.0	136.764205933	74.4181442261	70.5780715942	8.0044260025
0.0	-0.0	137.187240601	74.39037323	70.3948364258	8.30574512482
0.0	-0.0	137.114868164	75.0216064453	70.2269134521	8.17221832275
0.0	-0.0	134.426834106	74.5356903076	70.3562011719	8.31018257141
0.0	-0.0	120.361991882	74.5458374023	70.743019104	8.77939605713
0.0	-0.0	105.980026245	74.048614502	71.4539031982	8.99435138702
0.0	-0.0	92.1560745239	73.7916259766	71.8740615845	8.98915958405
0.0	-0.0	81.140411377	73.276512146	71.7825012207	8.49756240845
0.0	-0.0	70.8753509521	72.558265686	71.2481079102	8.14027786255
0.0	-0.0	60.1798706055	71.83203125	69.980506897	8.80806541443
0.0	-0.0	50.0949172974	68.810760498	68.1875610352	10.1137056351
0.0	-0.0	42.7802352905	59.8855171204	64.6606903076	9.95127773285
0.0	-0.0	38.8588829041	46.3999137878	56.507724762	16.5449104309
0.0	-0.0	34.2309799194	33.8368186951	47.983341217	21.2755622864
0.0	-0.0	30.5914592743	23.7949504852	42.6990127563	24.6351509094
0.0	-0.0	29.3754043579	20.1409816742	40.2402877808	27.3754653931
0.0	-0.0	27.9645729065	22.1080131531	39.4914932251	27.2795906067
0.0	-0.0	25.8935260773	23.6072826385	40.6538314819	25.814250946
0.0	-0.0	23.3067474365	23.5163383484	41.2088813782	25.2579479218
0.0	-0.0	20.1115512848	23.932975769	41.874786377	25.1835098267
0.0	-0.0	16.1339702606	24.5212039948	41.746383667	25.1530456543
0.0	-0.0	12.1078958511	24.423330307	40.9003105164	25.1506519318
0.0	-0.0	11.5374612808	24.0627555847	41.0444259644	25.0961990356
0.0	-0.0	12.4825925827	26.9747829437	42.0756378174	24.770368576
0.0	-0.0	10.7072696686	28.4140930176	42.0870742798	24.7160377502
0.0	-0.0	10.1278495789	25.8716640472	42.1437225342	25.8316860199
0.0	-0.0	26.3883953094	24.7615394592	41.70545578	26.0020217896
0.0	-0.0	45.2060852051	25.5167064667	41.092540741	25.2830963135
0.0	-0.0	55.3571815491	23.853017807	39.9937591553	27.1481513977
0.0	-0.0	56.0015945435	26.006570816	40.3090133667	26.6357746124
0.0	-0.0	53.6157150269	35.9057502747	42.2511405945	19.3844547272
0.0	-0.0	52.2545547485	37.1724243164	41.0440483093	19.2598323822
0.0	-0.0	52.7881546021	37.1409454346	40.9028205872	19.1320896149
0.0	-0.0	53.8256874084	37.6890792847	39.3551063538	17.9828796387
0.0	-0.0	53.0431861877	36.8091239929	38.4980697632	17.760351181
0.0	-0.0	51.7679824829	38.4934425354	37.8002738953	17.1712398529
0.0	-0.0	53.0973052979	46.4160499573	32.8746528625	13.0784664154
0.0	-0.0	55.0715370178	42.1714248657	23.1978168488	14.9091844559
0.0	-0.0	55.6941566467	36.2017593384	15.5318155289	11.9034414291
0.0	-0.0	55.4248161316	34.0445709229	11.4511260986	14.9838180542
0.0	-0.0	55.1218605042	35.917514801	11.0120162964	13.8248939514
0.0	-0.0	54.2395133972	36.0983085632	10.935790062	13.7480707169
0.0	-0.0	54.2112121582	36.246307373	9.09238433838	13.4606637955
0.0	-0.0	54.0235366821	37.2905540466	8.09201908112	12.4425773621
