0.112788677216	1.09584975243	0.0977932214737	-0.00446963310242	1.7606446743	-0.0937061309814
0.112943172455	1.09544014931	0.0975515842438	-0.00464773178101	1.76045620441	-0.0931957960129
0.11296248436	1.09494149685	0.0976949930191	-0.00516867637634	1.76012635231	-0.0927135944366
0.112279653549	1.09545087814	0.0980279445648	-0.00599026679993	1.75942981243	-0.0921514034271
0.111506462097	1.09586298466	0.0991554260254	-0.00726366043091	1.75778079033	-0.091398358345
0.111394166946	1.09881079197	0.101345777512	-0.00930786132812	1.75453090668	-0.0901086330414
0.111574649811	1.10186100006	0.103863239288	-0.0114872455597	1.74956893921	-0.088069319725
0.112763881683	1.1073513031	0.113206386566	-0.0131466388702	1.74499511719	-0.0862219333649
0.116612672806	1.11339080334	0.130501508713	-0.0141806602478	1.74033987522	-0.0842374563217
0.122483730316	1.12276268005	0.13937163353	-0.0151813030243	1.73814404011	-0.0829312801361
0.126471757889	1.12281322479	0.152562856674	-0.0164616107941	1.73657691479	-0.0825947523117
0.136667490005	1.11828446388	0.176986455917	-0.0178253650665	1.73509287834	-0.0826313495636
0.144924163818	1.11301112175	0.182458281517	-0.0192444324493	1.73335278034	-0.0830475091934
0.147117853165	1.11101865768	0.182064533234	-0.0203640460968	1.73195683956	-0.0835554599762
0.144273281097	1.11078977585	0.177332520485	-0.0212438106537	1.73013675213	-0.0844858884811
0.135606527328	1.11087810993	0.161657571793	-0.0223069190979	1.72768771648	-0.0851566791534
0.124043226242	1.10508310795	0.136620640755	-0.0238330364227	1.72383701801	-0.0857820510864
0.116688489914	1.10125052929	0.12343621254	-0.0249512195587	1.7204208374	-0.0860280990601
0.114207744598	1.10253143311	0.123541355133	-0.0261325836182	1.7199229002	-0.0858943462372
0.114759206772	1.10133063793	0.123307704926	-0.0279648303986	1.72032415867	-0.0859792232513
0.115216732025	1.10299301147	0.121920585632	-0.03195977211	1.72028648853	-0.0863652229309
0.116421937943	1.1031447649	0.12036550045	-0.0397191047668	1.72040760517	-0.0873582363129
0.11733007431	1.10418212414	0.121028780937	-0.0450527667999	1.72011709213	-0.0883758068085
0.117034673691	1.10304677486	0.119292974472	-0.0469584465027	1.71991896629	-0.0888910293579
0.117351770401	1.10083818436	0.116663217545	-0.0465681552887	1.71989607811	-0.0887392759323
0.119215250015	1.10261321068	0.118866562843	-0.0469245910645	1.72072386742	-0.0881888866425
0.120345592499	1.10598218441	0.121784687042	-0.0477058887482	1.72137284279	-0.0875210762024
0.11968755722	1.10591757298	0.120242714882	-0.048485994339	1.72130763531	-0.0868721008301
0.119054794312	1.10548353195	0.122700333595	-0.0494394302368	1.72222471237	-0.0855844020844
0.118333339691	1.10496222973	0.123330831528	-0.0493655204773	1.72236418724	-0.0843411684036
0.117154836655	1.1048167944	0.123496651649	-0.0514242649078	1.72232687473	-0.0826561450958
0.117015600204	1.10423028469	0.124086380005	-0.0570874214172	1.72211658955	-0.0816298723221
0.117547988892	1.10324037075	0.124438405037	-0.0620272159576	1.72196424007	-0.0812892913818
0.117578983307	1.1034591198	0.126008987427	-0.0696012973785	1.72220277786	-0.0814572572708
0.117627620697	1.10114014149	0.125593304634	-0.0741264820099	1.72250592709	-0.081563949585
0.117159128189	1.10195457935	0.125753641129	-0.0738022327423	1.72225117683	-0.0801060199738
0.116321325302	1.10513198376	0.129189252853	-0.0720241069794	1.72150683403	-0.0779800415039
0.118269681931	1.10860741138	0.145999073982	-0.0707499980927	1.72018826008	-0.0758466720581
0.122536659241	1.10560595989	0.1524310112	-0.0698878765106	1.71919822693	-0.0739464759827
0.122916460037	1.1028213501	0.148616671562	-0.0695779323578	1.71933221817	-0.0721626281738
0.12212896347	1.10000145435	0.14375770092	-0.0696141719818	1.71971023083	-0.0708457231522
0.121140956879	1.09910678864	0.14547598362	-0.0702533721924	1.71982419491	-0.0698878765106
0.119155883789	1.09971559048	0.147084832191	-0.0706815719604	1.72000575066	-0.0687725543976
0.118307352066	1.10076546669	0.148061156273	-0.0713088512421	1.72135806084	-0.0679978132248
0.118157148361	1.10073339939	0.149442076683	-0.0728068351746	1.7224650383	-0.067444562912
0.117650747299	1.10023498535	0.149766921997	-0.0727732181549	1.72301566601	-0.0659930706024
0.116898298264	1.10072731972	0.151067018509	-0.0706996917725	1.7232414484	-0.0640850067139
0.115943431854	1.1007784605	0.153051376343	-0.0676538944244	1.72254621983	-0.0624377727509
0.114438772202	1.10223138332	0.154099583626	-0.0645289421082	1.722047925	-0.0608062744141
0.11193561554	1.10062861443	0.155294656754	-0.0624270439148	1.72179555893	-0.0591870546341
0.110966682434	1.10130023956	0.156536102295	-0.0605328083038	1.72009837627	-0.057204246521
0.111978054047	1.10253918171	0.158524870872	-0.0591514110565	1.7184792757	-0.0555332899094
0.11365032196	1.10335838795	0.158890366554	-0.0582489967346	1.71661496162	-0.0543918609619
0.115144968033	1.10407423973	0.16025853157	-0.0569167137146	1.71361362934	-0.0535871982574
0.11517739296	1.10478305817	0.159535884857	-0.056471824646	1.71161985397	-0.0530958175659
0.115048646927	1.10461902618	0.15759563446	-0.0573089122772	1.71120142937	-0.0525958538055
0.115636110306	1.10463738441	0.154701352119	-0.0586221218109	1.71141219139	-0.0524470806122
0.115747451782	1.10516285896	0.150827407837	-0.0598573684692	1.71166884899	-0.052285194397
0.115572690964	1.10511183739	0.14857172966	-0.0609366893768	1.71165907383	-0.052761554718
0.115649461746	1.10430836678	0.155414581299	-0.0617702007294	1.71184206009	-0.0541379451752
0.116664171219	1.1019333601	0.161668419838	-0.0619738101959	1.7124017477	-0.0559799671173
0.117101430893	1.10134983063	0.16427230835	-0.0623791217804	1.71306979656	-0.0579299926758
0.118338823318	1.09967088699	0.166060686111	-0.0630345344543	1.71370971203	-0.0604466199875
0.120062828064	1.09766221046	0.16806101799	-0.0633277893066	1.71423113346	-0.0631003379822
0.121980428696	1.09305775166	0.1685577631	-0.0636196136475	1.7144203186	-0.0657776594162
