0.0	-0.0	134.094665527	-135.468170166	87.4543228149	160.856704712
0.0	-0.0	134.03729248	-135.812072754	87.7396621704	161.240234375
0.0	-0.0	133.59375	-135.912811279	87.8904266357	161.423843384
0.0	-0.0	131.041625977	-134.948699951	86.8381500244	160.986785889
0.0	-0.0	126.823440552	-130.744552612	82.6999359131	160.31427002
0.0	-0.0	121.627990723	-125.476707458	78.7367095947	159.954223633
0.0	-0.0	114.871955872	-120.342948914	76.1740646362	159.492248535
0.0	-0.0	107.654594421	-115.413536072	72.9949264526	159.926269531
0.0	-0.0	102.601249695	-111.388374329	69.6199111938	160.000473022
0.0	-0.0	97.8219299316	-106.819068909	65.361656189	160.084365845
0.0	-0.0	94.3293914795	-101.888145447	62.5933914185	160.09526062
0.0	-0.0	90.7026138306	-97.5233917236	60.9720649719	160.126663208
