0.0	-0.0	136.521148682	-127.664718628	86.0686950684	168.737380981
0.0	-0.0	136.339889526	-127.633834839	86.0956115723	168.944580078
0.0	-0.0	136.328414917	-127.936408997	86.1273956299	169.184356689
0.0	-0.0	134.808242798	-129.102142334	85.8764343262	169.189117432
0.0	-0.0	126.95375061	-135.207046509	86.0592346191	169.517120361
0.0	-0.0	117.689079285	-145.874511719	86.3309707642	169.580612183
0.0	-0.0	108.686927795	-157.283630371	87.4072265625	170.082626343
0.0	-0.0	97.1557388306	-168.421646118	87.6469802856	171.589706421
0.0	-0.0	88.183921814	-179.100311279	87.8569717407	173.479782104
0.0	-0.0	80.9669036865	171.040023804	88.4297027588	175.002319336
0.0	-0.0	76.1375808716	161.959838867	89.8429031372	176.168289185
0.0	-0.0	74.4300079346	-25.2192707062	89.2904586792	-3.06774520874
