-89.9579391479	-38.6480293274	129.716430664	3.44824314117	0.142713442445	-2.08291935921
-89.741355896	-38.4592285156	129.745269775	3.46885967255	0.171677991748	-2.06974005699
-90.088760376	-38.2367134094	129.926712036	3.41339325905	0.200244054198	-2.02707767487
-87.9595870972	-37.6814041138	127.03818512	1.15274977684	0.115313626826	-1.72255182266
-73.3796691895	-33.4687385559	113.061447144	-4.84058141708	0.337914526463	-1.52195322514
-57.5661010742	-27.9434680939	101.733734131	-11.5000896454	0.522992193699	-1.30184412003
-38.5068321228	-22.9159507751	89.0451583862	-17.5888233185	0.470230519772	-0.852078020573
-20.5540809631	-18.1191673279	77.6036453247	-21.5578861237	0.403232246637	-0.722596287727
