0.0	-0.0	133.309066772	-118.619812012	85.5141372681	175.108139038
0.0	-0.0	132.992965698	-118.585647583	85.4496841431	175.039306641
0.0	-0.0	132.347320557	-118.305885315	85.4332580566	175.013305664
0.0	-0.0	114.92086792	-111.062866211	84.7568969727	174.219711304
0.0	-0.0	88.5483322144	-95.2367324829	83.7967529297	174.457733154
