0.142451763153	0.903625249863	0.192325472832	0.0667173862457	1.72964644432	0.0027824640274
0.143589735031	0.903185129166	0.191138625145	0.0667870044708	1.7295498848	0.00188159942627
0.144287586212	0.902621507645	0.189833283424	0.0666906833649	1.72964215279	0.00100994110107
0.144424438477	0.90331864357	0.188982367516	0.0662453174591	1.7299631834	-0.000398635864258
0.145232439041	0.904245376587	0.189117789268	0.0655174255371	1.72998952866	-0.00182414054871
0.148710727692	0.905810594559	0.192531466484	0.0648732185364	1.7283397913	-0.00323522090912
0.1638276577	0.909837961197	0.2034471035	0.0646066665649	1.72412204742	-0.0043523311615
0.188735961914	0.91392326355	0.215558767319	0.0656206607819	1.71834874153	-0.00465536117554
0.223137140274	0.914701938629	0.223829627037	0.0672905445099	1.71186113358	-0.00518035888672
0.254672527313	0.912280321121	0.224211454391	0.0694279670715	1.70539903641	-0.00569903850555
0.278117418289	0.907812833786	0.21854531765	0.0713007450104	1.699472785	-0.00597906112671
0.303353309631	0.900548696518	0.207038402557	0.0744817256927	1.69509315491	-0.00541174411774
0.32791519165	0.890976428986	0.190164089203	0.0791842937469	1.69290745258	-0.0048840045929
0.335042476654	0.884329557419	0.181327939034	0.0834729671478	1.6921172142	-0.00406742095947
0.343933820724	0.879730939865	0.170876502991	0.0869805812836	1.69088315964	-0.00287616252899
0.353613138199	0.875445604324	0.162474393845	0.0911567211151	1.68907439709	-0.00238072872162
0.362001180649	0.877346754074	0.155980587006	0.0966727733612	1.68909323215	-0.00262081623077
