0.0	-0.0	130.374816895	-121.075164795	87.5898208618	173.165115356
0.0	-0.0	130.189163208	-121.235649109	87.7341079712	173.63973999
0.0	-0.0	128.888320923	-121.474784851	86.6626663208	173.57371521
0.0	-0.0	112.188621521	-118.465393066	78.2779693604	171.467636108
0.0	-0.0	93.6728591919	-112.087348938	64.1697387695	170.077514648
0.0	-0.0	80.7534484863	-105.983436584	51.2402610779	169.90524292
0.0	-0.0	66.1758117676	-101.984458923	43.9290924072	169.612426758
