0.0674641132355	1.13808083534	0.127806425095	-0.0157899856567	1.76451122761	-0.111613273621
0.0680222511292	1.13866388798	0.12924182415	-0.0161392688751	1.76445448399	-0.110675573349
0.069014787674	1.13752794266	0.13069152832	-0.0160999298096	1.76384174824	-0.109955310822
0.0734758377075	1.13701117039	0.144928216934	-0.0144622325897	1.76154470444	-0.109524965286
0.0848522186279	1.14077913761	0.160331010818	-0.0111930370331	1.7581897974	-0.108699440956
0.0963926315308	1.14544653893	0.172345042229	-0.0068793296814	1.75452530384	-0.107667446136
0.105506181717	1.14786303043	0.179550170898	-0.00176787376404	1.75040113926	-0.107041120529
0.114161729813	1.14977157116	0.18527007103	0.00363802909851	1.74634993076	-0.106933712959
0.120095491409	1.14716482162	0.189568042755	0.00930619239807	1.74355447292	-0.106952786446
