0.0	-0.0	145.129364014	93.0680389404	50.6075439453	15.5009183884
0.0	-0.0	145.221939087	92.0965270996	50.537612915	15.8922843933
0.0	-0.0	142.005554199	91.3906784058	50.2055664062	15.9627151489
0.0	-0.0	133.281433105	89.8764953613	50.5220756531	16.2726402283
0.0	-0.0	121.095413208	87.296913147	51.1282730103	16.919216156
0.0	-0.0	108.289245605	86.654838562	51.3444328308	16.8544940948
0.0	-0.0	94.6764526367	85.9805984497	51.163898468	15.9837284088
0.0	-0.0	83.80418396	82.1114959717	50.029914856	11.5479927063
0.0	-0.0	80.9180526733	69.8101501465	44.1951637268	11.8686790466
0.0	-0.0	82.9916610718	53.4465408325	39.6550445557	14.1070098877
0.0	-0.0	80.610534668	43.3761482239	32.0175170898	16.9089317322
0.0	-0.0	72.8955383301	41.1257705688	28.7159309387	18.1699333191
0.0	-0.0	64.566947937	42.2716217041	27.5488567352	18.2533512115
0.0	-0.0	53.798034668	42.7549209595	27.1802577972	18.8271808624
0.0	-0.0	44.8040390015	41.8766326904	26.2184123993	19.4942798615
0.0	-0.0	42.4224243164	40.8616142273	26.3143367767	19.7009773254
0.0	-0.0	45.2630195618	40.8623313904	26.3768520355	18.7053585052
0.0	-0.0	48.0320777893	38.5846328735	20.2387466431	18.0998210907
0.0	-0.0	49.630947113	39.7227973938	15.5280609131	15.2264976501
0.0	-0.0	48.8853607178	41.4431762695	10.8832464218	12.4688415527
0.0	-0.0	48.0321578979	40.1230049133	8.67304325104	12.22519207
0.0	-0.0	48.1239433289	38.6115188599	7.94277954102	14.6841888428
0.0	-0.0	48.5459251404	39.7483100891	8.23848724365	14.3726625443
0.0	-0.0	48.5380516052	39.9072227478	8.22555446625	14.2420492172
0.0	-0.0	48.9142417908	39.9045600891	6.30229139328	13.7521591187
0.0	-0.0	49.1415481567	38.2945518494	5.6133275032	14.5131378174
0.0	-0.0	49.3566818237	38.7540817261	5.37570285797	14.2439203262
0.0	-0.0	49.742515564	38.1464729309	5.6794667244	14.780960083
0.0	-0.0	50.0019302368	38.4581985474	5.35616397858	14.9124794006
0.0	-0.0	48.8551521301	38.0407867432	5.31894683838	15.4257049561
0.0	-0.0	45.2616729736	37.6802635193	5.43544721603	15.7436141968
0.0	-0.0	43.427532196	37.5090141296	5.33287858963	15.7999916077
0.0	-0.0	44.5756607056	37.1424980164	5.26362609863	15.922205925
0.0	-0.0	46.3181152344	36.548664093	4.76221418381	16.1535720825
0.0	-0.0	53.3723220825	37.0054016113	4.78211212158	15.9830913544
0.0	-0.0	62.340713501	37.4957771301	4.79077959061	15.694149971
0.0	-0.0	67.799118042	37.6646308899	4.68251037598	15.663269043
0.0	-0.0	67.9424591064	38.4838752747	4.74546098709	14.5311965942
0.0	-0.0	64.8044509888	49.3411598206	6.91495513916	8.37581634521
0.0	-0.0	63.2604789734	48.4719543457	5.24043273926	9.92016029358
0.0	-0.0	63.1088218689	48.9423904419	4.96751451492	10.2326335907
0.0	-0.0	63.3669319153	48.4323883057	4.67514038086	10.7282819748
0.0	-0.0	61.9256782532	48.9287185669	5.45444536209	10.7169380188
0.0	-0.0	60.3560333252	47.9273262024	5.05555772781	10.8764352798
0.0	-0.0	59.3343582153	47.4922866821	5.2041554451	10.7625370026
0.0	-0.0	58.1900024414	47.9145851135	4.45489501953	8.30002212524
