0.0	-0.0	132.48626709	-123.710273743	85.1789321899	170.526199341
0.0	-0.0	131.791183472	-124.246231079	85.1536407471	171.088867188
0.0	-0.0	129.448822021	-124.954597473	84.6561508179	171.611114502
0.0	-0.0	115.096855164	-124.290779114	82.6856918335	172.081085205
0.0	-0.0	100.046951294	-119.349998474	79.2951583862	171.685531616
0.0	-0.0	88.6159973145	-112.101951599	75.2768325806	171.218429565
0.0	-0.0	79.2797393799	-103.119979858	69.6041488647	171.68927002
0.0	-0.0	74.3220596313	-94.5671768188	63.1640396118	172.979690552
0.0	-0.0	73.6409683228	-89.3234100342	58.1043357849	174.443069458
0.0	-0.0	75.7304992676	-87.4018859863	56.4627494812	174.379837036
0.0	-0.0	74.5189361572	-86.7568664551	55.5559196472	173.564483643
0.0	-0.0	67.9928512573	-86.0646362305	54.3257598877	172.898788452
0.0	-0.0	68.1061935425	-87.151260376	54.2937965393	172.378295898
0.0	-0.0	69.972984314	-90.4356307983	56.4905967712	172.41444397
0.0	-0.0	71.8907623291	-95.8954772949	58.9843292236	172.94078064
0.0	-0.0	71.8243408203	-99.746635437	58.3978881836	173.370635986
0.0	-0.0	72.4948959351	-99.1057281494	58.7928543091	174.45640564
0.0	-0.0	72.9293136597	-96.7998809814	60.9190330505	174.946548462
0.0	-0.0	73.4934921265	-94.6492767334	63.0160675049	174.985702515
0.0	-0.0	73.7311172485	-92.4436187744	63.8888664246	171.588012695
0.0	-0.0	73.2219238281	-91.4879455566	62.2880477905	163.244552612
0.0	-0.0	73.4123840332	-91.316696167	60.6319656372	160.577529907
0.0	-0.0	73.5357055664	-93.131980896	60.628868103	159.605133057
0.0	-0.0	73.6991958618	-97.8137817383	61.8110809326	157.913696289
0.0	-0.0	74.15284729	-103.467094421	62.18176651	157.244918823
0.0	-0.0	74.2228775024	-105.95716095	62.0224189758	158.250930786
0.0	-0.0	73.001449585	-104.859458923	62.1768226624	159.485916138
0.0	-0.0	73.0987930298	-104.046646118	62.5329818726	159.735824585
0.0	-0.0	76.5824966431	-104.05128479	62.3477554321	159.920059204
0.0	-0.0	80.6001739502	-104.335830688	62.1995773315	160.844482422
0.0	-0.0	87.0778884888	-104.829322815	61.6317100525	161.304580688
0.0	-0.0	84.095703125	-103.64225769	60.6762237549	162.09526062
0.0	-0.0	84.0830917358	-101.948890686	60.5233688354	165.520309448
0.0	-0.0	83.8428726196	-102.462394714	59.8790168762	169.742507935
0.0	-0.0	83.5193328857	-103.73072052	59.1301345825	172.524856567
0.0	-0.0	84.0699081421	-103.280067444	59.494052887	173.887420654
0.0	-0.0	84.2184295654	-102.962242126	59.393737793	174.5052948
0.0	-0.0	84.1805419922	-103.159477234	58.4365768433	172.655654907
0.0	-0.0	84.1634597778	-103.677360535	56.1969871521	169.713851929
0.0	-0.0	83.9297332764	-104.92539978	55.0856590271	165.504852295
0.0	-0.0	84.022354126	-108.052505493	55.8788795471	158.832427979
0.0	-0.0	83.7478408813	-107.610748291	55.7167167664	155.392227173
0.0	-0.0	84.3356018066	-106.023048401	56.287776947	155.810501099
0.0	-0.0	84.514503479	-105.245124817	57.4029808044	156.403701782
