0.0641369819641	1.13050115108	0.118594527245	-0.00737690925598	1.76485610008	-0.100460767746
0.0650675296783	1.12971973419	0.119572162628	-0.00719785690308	1.7647613287	-0.099401473999
0.0656228065491	1.13019490242	0.122233510017	-0.00766158103943	1.76378905773	-0.0982497930527
0.0689897537231	1.1370344162	0.135335922241	-0.00804805755615	1.75893998146	-0.0957672595978
0.0753617286682	1.14668428898	0.146362781525	-0.00927305221558	1.75162827969	-0.0918695926666
0.0817017555237	1.15693247318	0.156482219696	-0.011412858963	1.74463498592	-0.0877423286438
0.0844814777374	1.16247653961	0.159923195839	-0.0127785205841	1.74067676067	-0.0846772193909
0.0758461952209	1.15638136864	0.147341489792	-0.014101266861	1.73788583279	-0.0827493667603
0.0638189315796	1.14876496792	0.127840280533	-0.0149652957916	1.73756408691	-0.0814933776855
0.0550584793091	1.14272749424	0.118664741516	-0.0158569812775	1.73924434185	-0.0812166929245
0.052095413208	1.14207792282	0.118825912476	-0.0211133956909	1.73993623257	-0.0810514688492
0.0519449710846	1.14015364647	0.118554353714	-0.0305504798889	1.73889827728	-0.0816264152527
0.0539200305939	1.14234209061	0.117742657661	-0.038595199585	1.73800718784	-0.0827097892761
0.0543377399445	1.13976824284	0.117058634758	-0.0427646636963	1.73771500587	-0.0837872028351
0.054975271225	1.14099466801	0.117514848709	-0.0446500778198	1.73844397068	-0.0845968723297
0.0543069839478	1.13954770565	0.117617368698	-0.0460569858551	1.73875963688	-0.0846848487854
0.0533213615417	1.13895738125	0.118061900139	-0.0466752052307	1.73877680302	-0.0842072963715
0.0528464317322	1.1389541626	0.117815375328	-0.0472233295441	1.7390396595	-0.0833489894867
0.0530514717102	1.13948273659	0.119553565979	-0.0478849411011	1.74024379253	-0.0823802947998
0.0537686347961	1.13864636421	0.120817899704	-0.0497813224792	1.74073243141	-0.0814518928528
0.053946018219	1.13797259331	0.120992898941	-0.0521986484528	1.74004101753	-0.0801997184753
0.0541009902954	1.13676905632	0.120443344116	-0.0532739162445	1.73959994316	-0.07863676548
0.054927110672	1.13565313816	0.12082529068	-0.0537247657776	1.73901498318	-0.077169418335
0.0555007457733	1.1361976862	0.122280836105	-0.0555670261383	1.7386649847	-0.0759799480438
0.0556364059448	1.13639223576	0.123415827751	-0.0575075149536	1.73883807659	-0.0751148462296
0.0557546615601	1.13566863537	0.124042153358	-0.058589220047	1.73945307732	-0.0744640827179
0.0560410022736	1.13534045219	0.125350832939	-0.0602412223816	1.73965620995	-0.0736713409424
0.0563433170319	1.13498425484	0.126026153564	-0.0613782405853	1.73956871033	-0.0724532604218
0.0567078590393	1.1357537508	0.127128124237	-0.0619630813599	1.73941278458	-0.0713565349579
0.0566718578339	1.13610935211	0.128970146179	-0.062846660614	1.73917233944	-0.0706025362015
0.0563917160034	1.13598382473	0.129483580589	-0.064190864563	1.73905134201	-0.0700805187225
0.0560939311981	1.13567733765	0.129025936127	-0.0651240348816	1.73907864094	-0.0699734687805
0.0557117462158	1.13556683064	0.129419088364	-0.0661244392395	1.73877608776	-0.0701406002045
0.0558705329895	1.13502693176	0.128182291985	-0.0667572021484	1.73810911179	-0.0706791877747
0.0563273429871	1.13454782963	0.126702547073	-0.0673620700836	1.73789870739	-0.0714516639709
0.0566246509552	1.13492870331	0.126625776291	-0.0680286884308	1.7377436161	-0.0725202560425
0.0566256046295	1.13363921642	0.125081062317	-0.0676901340485	1.73753225803	-0.0733054876328
0.0570809841156	1.13346397877	0.124149084091	-0.0668454170227	1.73776888847	-0.0739244222641
0.057540178299	1.1336234808	0.123950004578	-0.0661084651947	1.73814642429	-0.0745553970337
0.0577375888824	1.13345348835	0.123789310455	-0.0654113292694	1.73857533932	-0.0749547481537
0.0577211380005	1.13282668591	0.123554348946	-0.067067861557	1.73887181282	-0.075242638588
0.0573620796204	1.13229894638	0.1224142313	-0.0715622901917	1.73909795284	-0.0759735107422
0.0571792125702	1.13187348843	0.122193455696	-0.0760316848755	1.73958587646	-0.0772210359573
0.0572690963745	1.13187372684	0.121972203255	-0.0808260440826	1.73978185654	-0.0788805484772
0.058438539505	1.13287842274	0.122604131699	-0.0834922790527	1.73947274685	-0.0800918340683
0.0589189529419	1.13487112522	0.123909473419	-0.0834090709686	1.73956763744	-0.0802847146988
0.0586836338043	1.14148962498	0.127744436264	-0.0819401741028	1.73985743523	-0.0797743797302
0.0598919391632	1.14499139786	0.142275094986	-0.0817742347717	1.73932790756	-0.0794792175293
0.0677137374878	1.13976311684	0.174184918404	-0.0817611217499	1.73889386654	-0.0790971517563
0.081864118576	1.13973116875	0.193499565125	-0.0817022323608	1.73872435093	-0.0780121088028
0.0983684062958	1.13737297058	0.213193178177	-0.0815451145172	1.73807382584	-0.0773158073425
0.114769935608	1.13918197155	0.226643204689	-0.0813457965851	1.73807108402	-0.0767261981964
0.114205360413	1.1389862299	0.225136518478	-0.0814080238342	1.73798680305	-0.0765972137451
0.11354136467	1.13771545887	0.224693775177	-0.0816442966461	1.73775041103	-0.0763093233109
0.112863779068	1.13607358932	0.224472045898	-0.0810704231262	1.73640275002	-0.075556397438
0.109885454178	1.13658392429	0.22193813324	-0.0801818370819	1.73515582085	-0.0741834640503
0.10866856575	1.1386398077	0.219941020012	-0.0793650150299	1.73410320282	-0.0728800296783
0.108243942261	1.13862204552	0.219880104065	-0.0794892311096	1.73344695568	-0.0720098018646
0.108139514923	1.1381226778	0.219842076302	-0.0787434577942	1.73350727558	-0.0705592632294
0.106728315353	1.13753223419	0.219640731812	-0.0747952461243	1.73359191418	-0.068811416626
0.104368686676	1.13789415359	0.219191074371	-0.0709381103516	1.73394739628	-0.0673518180847
0.103596687317	1.13826680183	0.220686435699	-0.0657734870911	1.73401153088	-0.0661771297455
0.102207422256	1.14015519619	0.219889640808	-0.0643117427826	1.73393332958	-0.0653529167175
0.101321697235	1.14026618004	0.217842817307	-0.0673971176147	1.73398256302	-0.0647838115692
0.100338697433	1.13830971718	0.215672135353	-0.0721507072449	1.73368859291	-0.0645691156387
0.0986976623535	1.13657069206	0.213856220245	-0.0783836841583	1.73229408264	-0.0649225711823
0.0971643924713	1.13600587845	0.213735818863	-0.0868945121765	1.73131644726	-0.0665974617004
0.0944287776947	1.13558888435	0.213396668434	-0.0934028625488	1.73102688789	-0.0683302879333
0.0910606384277	1.13462400436	0.212893843651	-0.0942640304565	1.73078155518	-0.068350315094
0.090142250061	1.13494801521	0.214807033539	-0.0900883674622	1.72865593433	-0.0662679672241
0.0888617038727	1.13771629333	0.215994358063	-0.0816841125488	1.72348499298	-0.0642296075821
0.088752746582	1.14190351963	0.216842889786	-0.074066400528	1.72171676159	-0.0618531703949
0.0889599323273	1.14192223549	0.216371417046	-0.0677843093872	1.72328782082	-0.0605804920197
0.0890109539032	1.13917243481	0.213644742966	-0.0608687400818	1.72542011738	-0.0605354309082
0.0887973308563	1.13642191887	0.212723731995	-0.0523924827576	1.7277456522	-0.0615174770355
0.0865995883942	1.13706183434	0.212477207184	-0.0462057590485	1.72722458839	-0.0622804164886
0.0845687389374	1.13853609562	0.211757302284	-0.0412313938141	1.72673594952	-0.062269449234
0.0852828025818	1.13770973682	0.211470842361	-0.0376448631287	1.72655582428	-0.0624077320099
0.0879533290863	1.13713347912	0.211453318596	-0.0339736938477	1.72628569603	-0.0630992650986
0.0908324718475	1.1375014782	0.211849451065	-0.0304942131042	1.72616147995	-0.0646450519562
0.0929398536682	1.13861787319	0.212525844574	-0.0277950763702	1.72497975826	-0.0675120353699
0.0950181484222	1.14105367661	0.213156580925	-0.0267333984375	1.72354662418	-0.0703899860382
0.0957369804382	1.14261615276	0.212367653847	-0.0264101028442	1.72303962708	-0.0734300613403
0.0966999530792	1.14352107048	0.211743235588	-0.0253970623016	1.72316217422	-0.0764946937561
0.0978128910065	1.14478611946	0.212087631226	-0.0230543613434	1.72200548649	-0.0806407928467
